0.0958267
0.139279
0.222319
0.0953213
0.012342
0.000321845
0.00437332
0.0864667
0.0445
0.148374
0.0917387
0.0805651
0.107022
0.0972672
0.110517
0.0994249
0.196739
0.204082
0.28238
0.206827
0.215764
0.124192
0.0141801
0.0296121
0.034779
0.213711
0.193621
0.236115
0.200488
0.297886
0.216697
0.118086
0.218902
0.0869249
0.161094
0.275193
0.0371198
0.0279914
0.02551
0.0745076
0.104464
0.238478
0.1345
0.127734
0.0951217
0.0494842
0.0208755
0.0583289
0.0785837
0.330225
0.214323
0.0481344
0.0440306
0.0417449
0.0582217
0.0683272
0.239896
0.199845
0.141312
0.408316
0.141765
0.0889923
0.114149
0.0476234
0.0234382
0.122912
0.117513
0.276395
0.403422
0.114958
0.10623
0.0520211
0.137233
0.0214867
0.0535783
0.0502454
0.200442
0.133927
0.012709
0.0272252
0.129722
0.188592
0.0153403
0.0494082
0.0778003
0.203934
0.148712
0.0367397
0.0800521
0.213124
0.145998
0.0267463
0.0359532
0.0379291
0.153014
0.290748
0.0384582
0.156227
0.217216
0.349291
0.0406674
0.142096
0.11166
0.198215
0.176216
0.0292948
0.167042
0.447036
0.145834
0.0486365
0.0514033
0.125581
0.303699
0.12411
0.0394331
0.114416
0.0966758
0.191033
0.177608
0.0503775
0.158964
0.128695
0.0746269
0.0614508
0.0655183
0.099268
0.288498
0.0701109
0.246656
0.233659
0.382387
0.0706506
0.0161012
0.0654111
0.193182
0.275651
0.134146
0.144788
0.136596
0.161083
0.0372751
0.00945293
0.00998228
0.168285
0.0867965
0.114089
0.0560709
0.0976765
0.0133083
0.0785985
0.127367
0.100937
0.122261
0.0228939
0.0196284
0.047447
0.0592244
0.00994927
0.0277253
0.104069
0.239871
0.11499
0.211879
0.0545799
0.0511651
0.031615
0.0101899
0.0433855
0.0365283
0.143058
0.304901
0.15153
0.0333594
0.0254537
0.0452998
0.00676842
0.0221516
0.0314069
0.453123
0.527847
0.061665
0.0166237
0.032463
0.0505638
0.00916129
0.00239519
0.0587308
0.129886
0.110203
0.179767
0.013752
0.00463757
0.0162777
0.00431504
0.00182184
0.074341
0.206638
0.233794
0.155505
0.0703548
0.0151495
0.037812
0.00276835
0.0159236
0.0341143
0.236306
0.378424
0.275082
0.0753434
0.0176563
0.0135729
0.000616435
0.0085664
0.0461379
0.416061
0.449545
0.142058
0.0633833
0.030755
0
0
0.00307057
0.0358131
0.0691433
0.116186
0.148255
0.165317
0.109897
0.000639894
0
0.0153475
0.0416486
0.0173747
0.0647765
0.296767
0.191847
0.0794218
0.00239422
0
0.00184234
0.0211478
0.139825
0.200083
0.396265
0.577414
0.269107
0
0
0.00435785
0.0190942
0.0120414
0.0857272
0.148412
0.0537449
0.0478058
0.0048222
0
0.0251306
0.021365
0.0271525
0.1255
0.355306
0.0696619
0.0215226
0.0327673
0.00604813
0.0147505
0.0198852
0.0614466
0.225183
0.393082
0.274421
0.0953861
0.000477089
0
0.0134741
0.0181417
0.0604346
0.144817
0.503485
0.144949
0.0111516
0.00333962
0.053091
0.104489
0.0831731
0.206701
0.234779
0.436126
0.0997296
0.0214979
0.0406799
0.0241958
0
0.00862965
0.0456385
0.14376
0.363108
0.373916
0.176455
0.050624
0.0341336
0
0.00461765
0.0390081
0.0895756
0.389639
0.0975832
0.00298162
0.00430294
0.0819003
0.0810477
0.0430468
0.106796
0.09264
0.306271
0.183174
0.0533004
0.0204438
0.0457647
0.0259395
0.0117056
0.052935
0.0644944
0.130979
0.116312
0.119272
0.0987421
0.0355
0.0573682
0.0514131
0.169141
0.133318
0.0974305
0.110241
0.231473
0.346781
0.133393
0.0634644
0.0273538
0.0459124
0.0649294
0.166307
0.188748
0.125021
0.101669
0.0526215
0.0362962
0.0431848
0.181263
0.248394
0.077713
0.220208
0.208711
0.467419
0.310388
0.0221844
0.0126469
0.0556475
0.0526811
0.0970015
0.121498
0.350037
0.360075
0.152852
0.116718
0.0360229
0.0037022
0.0631593
0.142792
0.105949
0.192318
0.134336
0.083546
0.123665
0.0480095
0.0725196
0.0705755
0.0837727
0.13091
0.162808
0.442748
0.382937
0.0174252
0
0
0.0468576
0.120868
0.109727
0.158865
0.0991325
0.0847013
0.014232
0.00516096
0.0138977
0.0580063
0.292307
0.0988239
0.066005
0.041726
0.0451192
0.125393
0.0395281
0.172601
0.229563
0.518658
0.108268
0.0971374
0.0598925
0.0607797
0.0512285
0.0547603
0.239284
0.425818
0.134729
0.0825874
0.0776499
0.0501601
0.0317786
0.0280555
0.0400637
0.0285796
0.0699513
0.186584
0.098423
0.011864
0.0439692
0.0490898
0.0531677
0.100723
0.0542737
0.149316
0.433011
0.164187
0.298129
0.1961
0.146247
0.0107583
0.0231554
0.121364
0.208776
0.167863
0.109078
0.271453
0.1766
0.0996871
0.0506778
0
0.0147713
0.13482
0.221099
0.179148
0.0576899
0.0299428
0.0210079
0.0292194
0.0454176
0.0792082
0.145703
0.124436
0.122083
0.174948
0.0920358
0.0366278
0.0315794
0
0.0831997
0.138592
0.104527
0.0175756
0.0841137
0.0703585
0.0297924
0.0360363
0.00237707
0.0483613
0.159776
0.133252
0.0291267
0.0258516
0.0341955
0.0243631
0.0583879
0.034548
0.158388
0.425493
0.0403891
0.136517
0.145912
0.0857694
0.0311053
0.0510125
0.00396179
0.0622107
0.109088
0.180333
0.544631
0.273847
0.0410069
0.0267207
0.0912989
0.0542407
0.0983837
0.198537
0.0614238
0.0341664
0.00638577
0.00454448
0.005603
0.026192
0.0123276
0.0445606
0.11784
0.133469
0.154462
0.0424436
0.0103831
0.00529683
0.0160197
0.00557115
0.0913772
0.103091
0.160843
0.340288
0.0772704
0.00243182
0.00734665
0.0227509
0.0150052
0.0187515
0.0485185
0.231656
0.777015
0.158288
0.00604436
0.00882805
0.0152618
0.00277946
0.0108964
0.0248234
0.111902
0.214864
0.0592855
0.003377
0.000551496
0.000551496
0.000644645
0.0252366
0.0508415
0.140317
0.42236
0.122948
0.00368098
0.00597737
0
5.66806e-005
0.00275015
0.0290123
0.1349
0.546846
0.0888661
0.0138466
0.0018586
0.000919159
3.54115e-005
0.00167509
0.0199552
0.189608
0.503171
0.149054
0.0398584
0.0475133
0.00335941
0.0228204
0.0215511
0.108454
0.214071
0.259003
0.0483489
0.00170222
0.0128903
0.0301562
0.0163652
0.0467631
0.0828148
0.141654
0.0599206
0.00551222
0.00649673
0.157732
0.224686
0.0752274
0.127073
0.116274
0.161883
0.182991
0.0572869
0.0282075
0.114745
0.0828633
0.0597026
0.0480765
0.162724
0.0785769
0.025667
0.0097712
0.0345413
0.588671
0.419046
0.0638393
0.0459163
0.0930057
0.050967
0.0225036
0.0155917
0.0162446
0.256815
0.208062
0.0586961
0.0858302
0.0385863
0.0560135
0.0350322
0.0244574
0.0289751
0.0481451
0.0435474
0.0160008
0.0423293
0.0261653
0.017012
0.0116378
0.0571257
0.0352322
0.776894
0.308347
0.0463262
0.0301539
0.0248503
0.0245548
0.0159808
0.0581915
0.0423082
0.105648
0.079255
0.0342215
0.0360835
0.0247949
0.325394
0.230617
0.101511
0.0295047
0.0193538
0.00170731
0.0216372
0.247751
0.317444
0.201615
0.400484
0.254377
0.239583
0.191463
0.00384021
0.00216279
0.0515146
0.104779
0.189572
0.0767551
0.0349761
0.00142911
0.0098299
0.0231546
0.0301509
0.146822
0.213428
0.135472
0.194659
0.0916201
0.0478095
0.0463445
0.0589229
0.0161904
0.0399239
0.125021
0.0859848
0.234722
0.223022
0.447952
0.408484
0.0253217
0
0.00115023
0.0317726
0.0318024
0.0591886
0.134987
0.215665
0.151185
0.0221106
0.00471659
0.0145742
0.0234443
0.0798223
0.172231
0.138976
0.242821
0.132866
0.0752568
0.00378254
0.00944432
0.0532179
0.112321
0.0872096
0.123654
0.215617
0.0756576
0.0331805
0.0121636
0.01452
0.0785044
0.0124084
0.0476817
0.0588938
0.080612
0.0533118
0.0579617
0.0206029
0.0156225
0.00953362
0.0389198
0.0976285
0.0285965
0.0505344
0.117934
0.157286
0.0719349
0.0271367
0.0625324
0.0998045
0.193983
0.0767054
0.0573967
0.0298453
0.0609573
0.0188864
0.00805061
0.074024
0.289434
0.688411
0.225785
0.0212919
0.0918937
0.162491
0.025944
0.0750849
0.139163
0.0442641
0.0461696
0.0237085
0.00221385
0.0245009
0.0222899
0.00961001
0.017964
0.0563111
0.072954
0.152668
0.119435
0.00450893
0.0161776
0.00123818
0
0.0272044
0.0991462
0.245514
0.35229
0.0992798
0.000193576
0.0250556
0.0209115
0.00297854
0.03227
0.0895472
0.27441
0.632202
0.399429
0.00803258
0.0298799
0.000742908
0
0.0140037
0.0995199
0.068502
0.171499
0.0592
0.00320802
0.00432831
0.00750473
0.000142113
0.0124221
0.0486695
0.129358
0.326656
0.146401
0.0014519
0.00176305
0.012916
0.00187829
0.00869331
0.0306938
0.17404
0.402126
0.14592
0.00519973
0.0141608
0.00106117
0
0.00494451
0.0453347
0.290471
0.651714
0.151736
0.000742818
0.00192976
0.00176862
0
0.000696169
0.0433252
0.100824
0.24022
0.0655508
0.000113252
0.000559136
0.00177954
0.000932175
0.00591044
0.00876749
0.113515
0.421349
0.0832197
0
0.000637489
0.000637489
9.41633e-005
0.00702024
0.0100664
0.148384
0.510571
0.0931287
0
1.98417e-005
0.000178575
0
0.00670878
0.0124678
0.25155
0.555432
0.108751
0
0
0
0.000353305
0.0112696
0.0116508
0.10405
0.407398
0.0629453
0.00753577
0.00100761
0.00117408
0
0.00469339
0.0192483
0.197153
0.262914
0.0351994
0.0190955
0.0649147
0.0733109
0.0466392
0.0697639
0.123819
0.189117
0.546064
0.0860098
0.00275528
0.00984976
0.00841322
0.0010638
0.00808828
0.0162145
0.173308
0.261951
0.0173098
0.0813901
0.370573
0.157902
0.0335523
0.0694475
0.0749331
0.0568004
0.0232555
0.00821396
0.0174931
0.159772
0.0936134
0.0527172
0.0498029
0.0731199
0.00577384
0.000503372
0.00293735
0.0281871
0.43849
0.132268
0.0186975
0.00704032
0.0127314
0.0304542
0.0154924
0.000153335
0.096615
0.55895
0.132842
0.0314377
0.0389869
0.0286466
0
0
0.00221132
0.076849
0.570725
0.0890531
0.00725699
0.00364676
0.000765688
0.00137332
0.00331661
0.0234245
0.0302331
0.509835
0.0970366
0.0148818
0.00700209
0.00186104
0.00476161
0.00965439
0.036249
0.0289267
0.0731897
0.0247941
0.0192619
0.013939
0.00261131
0
0.00348957
0.0216469
0.0609177
0.776672
0.0723532
0.0156772
0.0111721
0
0.00489111
0.0115415
0.0514283
0.0439638
0.106651
0.0460452
0.0208222
0.0222957
0.000332412
0.0581831
0.0163508
0.00212149
0.000148669
0.00510617
0.0179964
0.029661
0.0304442
0.110797
0.0402818
0.0149483
0.0103119
0.0246769
0.0141699
0.0427862
0.0359299
0.0381245
0.0861806
0.47199
0.16915
0.000191146
2.12385e-005
0.000645148
0.00590862
0.186486
0.146112
0.497803
0.159123
0.0881113
0.0683741
0.0366521
0.00129886
0.0171212
0.336072
0.252202
0.362037
0.027788
0.0449274
0.037079
0.0590008
0.0159247
0.0348615
0.0258376
0.0343418
0.0538588
0.152708
0.15587
0.0985557
0.0365472
0.00386103
0.0146706
0.015006
0.0226227
0.0866716
0.167143
0.368486
0.146283
0.0824794
0.0229652
0.0181354
0.119269
0.104621
0.11576
0.315623
0.578826
0.349642
0.146182
0.123647
0.0221988
0.0284006
0.0306387
0.0862026
0.131966
0.170512
0.044372
0.00350358
0.000526101
0.00279838
0.00307457
0.00264001
0.0448253
0.143633
0.308538
0.194837
0.00784902
0.00226575
0.00697884
0.00205753
0.00698372
0.0388697
0.206663
0.337974
0.164745
0.0463118
0.0677514
0.00973131
0.00678649
0.00195997
0.0720564
0.167331
0.502486
0.476826
0.0549165
0.0903946
0.00139019
0.000969498
1.42356e-005
0.121964
0.126838
0.210504
0.0916158
0.00544586
0.00118063
0.00150655
0.000352032
0.0051503
0.0203988
0.162045
0.387276
0.115353
0.00470869
0.00932882
0
0
0.000735757
0.0187982
0.0801735
0.436886
0.290058
0.0258824
0.0167286
0
0
0
0.0319149
0.250786
0.563523
0.144311
0.00447915
0.00235944
0
0
0
0.0214343
0.0860354
0.33959
0.098203
0.00532501
0.0138201
0
0
0
0.0131138
0.143991
0.503701
0.121765
0.00780756
0.0104772
0.00524897
0.00698483
0.00670856
0.0498488
0.132422
0.446933
0.116389
0.0382284
0.09564
0
0
0
0.00883386
0.130898
0.333611
0.209451
0.167618
0.25062
0.0431138
0.0131148
0.0111809
0.136288
0.143792
0.528237
0.119305
0.00580979
0.0197456
0.0219957
0.0278866
0.0279975
0.0555392
0.238693
0.426723
0.0471461
0.00487359
0.0301783
0.0174562
0.0180607
0.018593
0.0186848
0.116901
0.159488
0.113663
0.115872
0.329236
0.186681
0.0523601
0.0446393
0.194351
0.062801
0.0433531
0.011586
0.0369599
0.306042
0.134463
0.0324991
0.0284733
0.0376635
0.123464
0.170709
0.0191781
0.00427553
0.0381287
0.00924281
0.00373005
0.0027223
0.00664226
0.0412123
0.0513899
0.00498657
0.180206
0.549098
0.0533777
0.00406455
0.0080997
0.00758859
0.0223037
0.00525468
0.0031464
0.0137651
0.112357
0.0133494
0.00304041
0.00430581
0.00708453
0.00274239
0.00146075
0.00184267
0.240357
0.687635
0.0215665
0.00182424
0.00246705
0.000737985
0.00168345
0.00120533
0.000121821
0.1373
0.389914
0.0209561
0.00107679
0.00157411
0.00157411
0.000492749
0.00107886
0.00070013
0.107956
0.471745
0.0209113
0.00153831
0
0
0
3.232e-005
0.000102968
0.194551
0.471745
0.00718943
0
0
0
0.00344924
0.00179809
0.000770611
0.260862
0.46731
0.0127911
0.0176267
0.00605455
0.00320702
0.00394069
0.010279
0.0111039
0.0919461
0.630594
0.0424283
0.0219755
0.00745799
0.00052674
0.00847896
0.00890207
0.0261837
0.0297173
0.0796481
0.0431387
0.0319817
0.0189921
0.00699067
0.0602252
0.0267739
0.00733941
0.282718
0.591237
0.035446
0.0624854
0.052216
0.0370453
0.107043
0.0298307
0.0121327
0.0254767
0.0767763
0.0441351
0.0401716
0.0507076
0.130676
0.257675
0.126783
0.0702965
0.0330268
0.0328748
0.00955358
0.159378
0.109913
0.203341
0.0634363
0.0835648
0.125258
0.0879647
0.0577117
0.0298676
0.276454
0.126238
0.139754
0.0733243
0.0957681
0.261002
0.24009
0.20415
0.138235
0.0836918
0.182425
0.0782354
0.021804
0.115231
0.446893
0.266864
0.209691
0.179071
0.139358
0.0784506
0.0347185
0.108233
0.25556
0.186122
0.102635
0.0415561
0.0290617
0.126637
0.0351373
0.04218
0.122267
0.251846
0.160635
0.145326
0.113172
0.0735642
0.121184
0.0183833
0.00706616
0.0489885
0.29563
0.445384
0.12794
0.0617942
0.153417
0.133724
0.0754314
0.0672979
0.0297322
0.225372
0.182838
0.0856559
0.0325492
0.167004
0.28256
0.231945
0.11986
0.0381157
0.113103
0.0814727
0.0558707
0.115919
0.0459025
0.0989791
0.0279664
0.0312642
0.0275005
0.229212
0.286628
0.0743446
0.206225
0.0254121
0.228906
0.0455681
0.0616118
0.0012783
0.0543949
0.0169575
0.0302402
0.0652859
0.0837296
0.250766
0.258627
0.0519915
0
0.0787949
0.0734219
0.0405153
0.151183
0.0625312
0.587483
0.338519
0.0306387
0.024991
0.239519
0.237028
0.0272594
0.0453185
0.0142829
0.115306
0.0707428
0.0248314
0.111724
0.29204
0.0781883
0.00535809
0.00355214
0.00599439
0.0267496
0.0614922
0.0278018
0.00320182
0.0309328
0.0707142
0.0133589
0.0442981
0.026938
0.415922
0.385863
0.0433022
0.0117633
0.017764
0.0212249
0.00371213
0.00516954
0.00999065
0.279972
0.536134
0.0482005
0.0649486
0.123367
0.0269698
0.0560944
0.159774
0.0226708
0.00911685
0.00771763
0.0120686
0.0315208
0.0428566
0.0747247
0.235361
0.457531
0.156842
0.0392262
0.00229981
0.0799712
0.00530837
0.00353681
0.00259721
0.0234158
0.137478
0.0705193
0.138261
0.249096
0.0208849
0.000382178
0.0117073
0.0129792
0.081739
0.327824
0.366773
0.470372
0.10835
0.0185732
0.0167772
0.00975341
0.0271054
0.108201
0.306223
0.216893
0.0631411
0.0171661
0.0774955
0.028868
0.00170603
0.00214877
0.0281748
0.228254
0.139939
0.0597976
0.030563
0.0846084
0.0336129
0.0163725
0.0106577
0.0378785
0.130003
0.343572
0.353287
0.166416
0.0702484
0.236234
0.0172536
0.00731914
0.00837289
0.0690305
0.19474
0.213329
0.246384
0.443579
0.0428512
0.00224465
0.00222446
0.0129321
0.0718138
0.00893092
0.00729718
0.0119178
0.0635807
0.0231144
0.00134679
0.00241204
0.151617
0.554849
0.00471086
0.00101002
0.00840588
0.0187353
0.19596
0.0189214
0.0171259
0.0247548
0.106734
0.0758186
0.0948965
0.101458
0.331705
0.0574607
0.010547
0.0111251
0.226485
0.585431
0.0529657
0.0346522
0.0590604
0.0883446
0.00174991
0
0.0021807
0.191056
0.474104
0.00332808
0.000120511
0.0010846
0.000194434
0.0177937
0.00696497
0.00786888
0.204865
0.354564
0.0153732
0.0721359
0.0227837
0.0339319
0.00291651
0
0.0132018
0.226812
0.569166
0.00314882
0.000843574
0.00759217
0.000324056
0.026913
0.0626465
0.0540704
0.211952
0.250727
0.0064572
0.0888239
0.052898
0.0714518
0.128066
0.0276661
0.00349826
0.0716691
0.148878
0.0145876
0.0806227
0.0578395
0.0984354
0.238944
0.0238668
0.00187163
0.00317824
0.0190454
0.0155493
0.0149732
0.0352104
0.320145
0.1656
0.0908802
0.0189997
0.0670693
0.0678777
0.00388328
0.0979392
0.120251
0.299333
0.373714
0.0295848
8.53745e-005
0.0011868
0.00272421
0.00204722
0.0140674
0.0685176
0.637597
0.0399507
0.102959
0.144265
0.195488
0.240314
0.185523
0.0181567
0.106883
0.0495058
0.0998881
0.250815
0.181989
0.152697
0.203365
0.225385
0.0239555
0.0641351
0.0467061
0.0836528
0.171217
0.136298
0.170583
0.144588
0.144482
0.106834
0.114833
0.101836
0.203888
0.396011
0.152724
0.287192
0.178116
0.191354
0.0774011
0.0818709
0.0391895
0.0794291
0.274794
0.119058
0.040669
0.10255
0.102282
0.10227
0.0610066
0.0982947
0.0165877
0.0899727
0.0626854
0.0615716
0.140614
0.0603762
0.156978
0.14353
0.117476
0.113978
0.304294
0.144047
0.353711
0.368845
0.135784
0.0981828
0.0231897
0.0539522
0.0152738
0.0893218
0.147889
0.204329
0.44138
0.0666299
0.102668
0.0545322
0.0432515
0.00427059
0.0256022
0.0208595
0.0285433
0.0571341
0.0402149
0.212108
0.308832
0.0785834
0.0112987
0.0177933
0.00663314
0.00114437
0.0381904
0.0523552
0.4586
0.488622
0.124592
0.0441289
0.0371421
0.0723467
0.0326063
0.124207
0.0132232
0.0979192
0.132133
0.0283778
0.0951772
0.0255398
0.0327102
0.03425
0.00604328
0.0431827
0.286855
0.371628
0.136984
0.00299431
0.00135486
0.000321565
0.000107188
0.0341472
0.0335509
0.236403
0.278793
0.0942493
0.00392996
0.00211613
0
0.000212107
0.0286531
0.0262249
0.314654
0.551462
0.0457269
0.0267513
0.00936985
0.00263769
0.0188441
0.028656
0.0746709
0.205559
0.220614
0.106848
0.0314247
0.017486
0
0.00258483
0.0436982
0.0588702
0.303657
0.417716
0.098189
0.00105313
0.000567072
0
0.00041999
0.0233957
0.0201029
0.189179
0.318003
0.0122288
0
0.00110284
0.00110284
0.000251994
0.0378645
0.085425
0.372891
0.283048
0.0191559
0.00764559
0.00396951
0
0
0.011599
0.00986938
0.29497
0.31356
0.023596
0
0.00183989
0.00122659
0
0.0122099
0.0111301
0.421849
0.471193
0.0265671
0.0324244
0.00585977
0.0011809
0
0.00660475
0.0753999
0.223551
0.231557
0.133197
0.219299
0.020721
0.0129228
0
0
0.0461008
0.092875
0.167849
0.431573
0.0164556
0.00263853
0.00131341
0
0.00176938
0.00351129
0.210867
0.457937
0.149485
0.16935
0.00904794
0.00784011
0
0
0.00267859
0.0832151
0.299968
0.384334
0.179461
0.0413766
0.0401543
0.046312
0.0862554
0.0638322
0.0738834
0.0575582
0.251173
0.0387277
0.0240926
0.0240926
0.212219
0.545233
0.0479656
0.0301632
0.0244419
0.0469422
0.167117
0.0242672
0.0243938
0.0563873
0.0617605
0.0198322
0.0541347
0.0653263
0.210071
0.0435417
0.0144555
0.0149576
0.288162
0.545233
0.0248496
0.0283408
0.0159529
0.0450971
0.000352726
0
0.00427652
0.144214
0.427823
0.0031174
0.000564397
0.00273081
3.91917e-005
0.00368862
0.047448
0.0177757
0.180909
0.270728
0.00871469
0.0164397
0.0159976
0.0298768
0
0
0.000530479
0.187401
0.542061
0.0088988
0.00283728
0.00164413
0
0.000273877
0.00658744
0.00322839
0.184471
0.515923
0.056891
0
0.000314682
0.00529702
0.0482209
0.100582
0.0118914
0.146196
0.164185
0.0102235
0.0342532
0.0878115
0.296369
0.210136
0.0196447
0.00392214
0.0102751
0.0146529
0.00388514
0.0065148
0.0770363
0.702508
0.00442002
0.0135621
0.003187
0.133648
0.401175
0.0693057
0.00324952
0.0334459
0.0520346
0.0384314
0.0112708
0.0166072
0.0285905
0.0559495
0.0205634
0.013288
0.0679945
0.115503
0.0465489
0.0451662
0.0798334
0.0558365
0.119171
0.0689224
0.0647483
0.101737
0.10833
0.0610149
0.190533
0.342186
0.303158
0.138621
0.0458817
0.0395567
0.0799745
0.0260036
0.152986
0.0672236
0.0969898
0.0611957
0.263121
0.0518245
0.0107494
0.0235794
0.120014
0.0327814
0.214135
0.485512
0.238467
0.346995
0.148286
0.0490892
0.0285488
0.0304176
0.0246445
0.115015
0.300568
0.535963
0.228633
0.0513943
0.0117486
0.00942886
0.00109873
0.0163761
0.0313126
0.0945754
0.245932
0.25527
0.0478937
0.0116339
0.0392963
0.0120857
0.00652983
0.118676
0.406361
0.297845
0.129066
0.127803
0.0532255
0.00445434
0.00183121
0.0461251
0.0724359
0.062244
0.131556
0.114091
0.0803326
0.0389134
0.0480481
0.0188453
0.118017
0.045309
0.0934466
0.0334889
0.190074
0.0542964
0.0403076
0.140182
0.0647349
0.222792
0.0960379
0.0468806
0.0926701
0.00506132
0.0404907
0.277524
0.202844
0.145385
0.124984
0.10107
0.0286556
0.0866554
0.286699
0.21665
0.120314
0.195703
0.0954544
0.267747
0.131936
0.143537
0.134562
0.164431
0.12513
0.159478
0.16281
0.28303
0.0561292
0.0413513
0.00553653
0.0397654
0.00741476
0.0399545
0.21129
0.19671
0.111131
0.0438706
0.0267318
0.0110991
0.0114105
0.0123322
0.0280454
0.347205
0.606294
0.195167
0.0650109
0.0403413
0.0383175
0.0308638
0.0296297
0.0564843
0.0820609
0.137006
0.121338
0.0254771
0.0194134
0.0208452
0.0208696
0.0263208
0.0388779
0.172274
0.403635
0.150204
0.00556494
0.00235151
0.00227823
0.00122674
0.0108926
0.0139314
0.232119
0.337234
0.0360879
0
0.00805363
0.00536909
0
0.0221252
0.033606
0.365981
0.43541
0.0418229
0.00388345
0.00276634
0.00477902
0.00760904
0.00276499
0.00726457
0.159794
0.313105
0.0730056
0.00508959
0.00964934
0.00485806
0.00927412
0.0115765
0.0312695
0.375279
0.402591
0.0935317
0.00328915
0.00572427
0.00381618
0
0.00552246
0.0147994
0.16885
0.331626
0.0489716
0.0310315
0.000817752
0.000545168
0
0.000560778
0.00642946
0.242863
0.464487
0.0854272
0.00681005
0.00469414
0.00244714
0.000892096
0.00677055
0.0311707
0.211857
0.25666
0.0566527
0.00912564
0.00788531
0.000327101
0
0.000934629
0.0427785
0.455234
0.447472
0.0403882
0.0581186
0.00437671
0.00221223
0.0479916
0.0317054
0.0126568
0.174122
0.21505
0.0783097
0.0518969
0.0157711
0.0106224
0.29303
0.480526
0.0200399
0.0309941
0.0533698
0.0456913
0.0717346
0.026467
0.0107688
0.0357533
0.0159481
0.0248048
0.285763
0.384934
0.157953
0.15155
0.0993138
0.0724636
0.29752
0.274224
0.00619817
0.0317909
0.144365
0.204849
0.00581186
0.00474082
0.00494361
0.221079
0.444857
0.00518669
0.00171837
0.000663257
0.00247615
0.000144932
0
0.0096232
0.287144
0.312432
0.0229503
0
0.000672227
0.000312989
0.0345532
0.034406
0.0273786
0.321873
0.361187
0.0017886
0.000129675
0.00108924
0.0235054
0.00132539
0.00253303
0.00983881
0.398664
0.345919
0.0070251
0
0.00470559
0.00219092
0.00442987
8.13555e-005
0.0153956
0.370996
0.533019
0.0594014
0.00503173
0.0221614
0.00799746
0.00804723
0.0189875
0.0345549
0.0537173
0.111541
0.0250581
0.0322974
0.0618401
0.0147645
0.0239446
0.0225035
0.0292724
0.422948
0.423744
0.0158772
0.00293443
0.036131
0.027362
0.0372681
0.0498524
0.0320837
0.0790263
0.0776299
0.0152693
0.020541
0.0499907
0.0284377
0.382324
0.0811699
0.11933
0.0762007
0.115608
0.0348191
0.00975804
0.0620578
0.262609
0.137825
0.155482
0.243697
0.228074
0.243803
0.1708
0.0582536
0.0281367
0.127131
0.338959
0.0561106
0.130645
0.0804573
0.0420488
0.105184
0.0709323
0.129608
0.241159
0.237911
0.133684
0.107434
0.15425
0.119634
0.0900755
0.0456453
0.0719017
0.214041
0.0502869
0.138231
0.283966
0.313593
0.236374
0.239324
0.124313
0.00160079
0.0289223
0.0848553
0.134384
0.127039
0.171994
0.172644
0.104104
0.0654271
0.0264628
0.0343516
0.153375
0.142213
0.168419
0.278793
0.179425
0.0801319
0.0413765
0.0426825
0.0973934
0.146548
0.256224
0.291512
0.221707
0.134551
0.0231824
0.0105366
0.00395512
0.0472437
0.0635216
0.0849014
0.106543
0.101797
0.342089
0.131625
0.0555666
0.0378899
0.0334188
0.0996756
0.122151
0.193713
0.126782
0.231578
0.0987983
0.131015
0.0804882
0.118384
0.141616
0.230621
0.300715
0.185722
0.245524
0.0455432
0.0106049
0.000606767
0.036786
0.227874
0.256609
0.263004
0.126032
0.137858
0.0500564
0.0617411
0.0130278
0.115858
0.108852
0.131597
0.176996
0.12464
0.0987266
0.138998
0.128765
0.137532
0.121566
0.124557
0.18236
0.0510749
0.0670613
0.0745662
0.0930722
0.107321
0.207098
0.25925
0.276984
0.245728
0.22294
0.0907259
0.0358653
0.0650946
0.0624322
0.0143393
0.155957
0.281392
0.269525
0.147075
0.042516
0.0203944
0.0552014
0.0761595
0.0887437
0.207889
0.0333
0.0437097
0.00689543
0.0165562
0.00380358
0.0035769
0.108682
0.252101
0.226284
0.0591185
0.0570195
0.00463882
0.0302288
0.00834916
0.00838105
0.378541
0.523032
0.223917
0.0546235
0.0643384
0.0270868
0.0113294
0.0116366
0.0109943
0.0321653
0.182462
0.164068
0.0819738
0.0810658
0.00625575
0.0254528
0.0265192
0.0205921
0.0841927
0.353961
0.204868
0.0387844
0.0100261
0.00030007
0.00682242
0.00794792
0.0129341
0.22162
0.275436
0.0644567
0.0308647
0.0383134
0
0.00307322
0.00399725
0.0595697
0.459095
0.486377
0.0340319
0.0395698
0.0200607
0.00115998
0.00975815
0.0116297
0.00929898
0.0835471
0.199432
0.052263
0.0577992
0.0441555
0.0103231
0.00512203
0.00626025
0.0518215
0.29855
0.429798
0.0660767
0.059259
0.0552279
0.0113991
0.00491991
0.0401212
0.0841267
0.257945
0.345333
0.147431
0.178479
0.0878901
0.084582
0.108781
0.210901
0.0512622
0.051201
0.137145
0.259095
0.038141
0.0469796
0.0141547
0.00181634
0.032977
0.11618
0.358954
0.318334
0.0975644
0.0907299
0.0394978
0.0578631
0.0465967
0.121897
0.0832664
0.142289
0.299365
0.306861
0.0704583
0.0325572
0.0346277
0.290477
0.331065
0.0201417
0.00421907
0.0118474
0.0590336
0.00859075
0.00513147
0.00862487
0.357709
0.446674
0.0809398
0.0295335
0.0272502
0.0477879
0.120021
0.0368335
0.0424962
0.219418
0.194105
0.0262579
0.00893446
0.0930577
0.143173
0.149369
0.0265726
0.00642839
0.261175
0.215152
0.0981995
0.0503641
0.181894
0.236783
0.0170588
0.0127291
0.0125552
0.0765397
0.143456
0.0438677
0.0148492
0.0372082
0.106171
0.0307734
0.0228275
0.0189679
0.0265107
0.0178455
0.00411406
0.00718872
0.0394036
0.0863011
0.0844385
0.0103138
0.0032601
0.0391988
0.0490185
0.0484362
0.0235713
0.245893
0.519298
0.0379797
0.0103104
0.0235208
0.0116111
0.00709332
0.0097184
0.0773075
0.407915
0.570595
0.306494
0.108143
0.316162
0.181608
0.142145
0.19639
0.11489
0.0688249
0.0681742
0.236331
0.104732
0.181426
0.166637
0.111529
0.101678
0.0577238
0.0914844
0.151368
0.237672
0.168262
0.286621
0.0550903
0.0597523
0.0371306
0.0114533
0.0485306
0.278421
0.131492
0.131955
0.185215
0.0511544
0.036868
0.00933023
0.00778304
0.0997553
0.212504
0.160446
0.090952
0.159968
0.131194
0.0615007
0.0407576
0.0358048
0.0717589
0.0862993
0.0997195
0.282541
0.420835
0.165181
0.0843201
0.00354834
0.00490587
0.00697665
0.0140892
0.132805
0.211413
0.159136
0.0928881
0.0655116
0.00397312
0.00956958
0.0473925
0.101416
0.0864445
0.290149
0.447517
0.166788
0.126103
0.00572469
0.021579
0.00481068
0.0188219
0.083531
0.230756
0.286428
0.191042
0.148481
0.00533659
0
0.000101828
0.0130962
0.175048
0.241123
0.198235
0.119507
0.0792462
0.0260773
0.00219413
0.000712795
0.0505634
0.075073
0.231404
0.307649
0.138882
0.165983
0.00661517
0.00887536
0.00098615
0.0407142
0.323784
0.346536
0.10504
0.0671247
0.0953898
0.0201246
0.00524878
0.0894894
0.119544
0.180222
0.149358
0.217595
0.0513009
0.0341858
0.103298
0.0207669
0.00042649
0.0855902
0.201949
0.138014
0.239437
0.0176035
0.0285163
0.130087
0.0455802
0.0327087
0.0649973
0.244362
0.177566
0.0808473
0.0215935
0.0594208
0.108317
0.0434922
0.299158
0.15332
0.0925729
0.153827
0.184158
0.0474887
0.096287
0.218936
0.0802663
0.282208
0.177622
0.0955968
0.114936
0.14084
0.0420265
0.038963
0.0306845
0.0403663
0.106057
0.084501
0.206595
0.182636
0.0617598
0.0616403
0.0643589
0.0438266
0.170774
0.242157
0.16376
0.0936251
0.170574
0.183424
0.165936
0.106275
0.134508
0.0707882
0.0627726
0.153542
0.217219
0.204962
0.20024
0.298837
0.15642
0.09069
0.158388
0.0630669
0.150527
0.128453
0.0971972
0.0628805
0.0127003
0.0119923
0.035587
0.110328
0.177252
0.0717132
0.361852
0.10114
0.158906
0.0261866
0.00275771
0.0573527
0.22509
0.269809
0.219165
0.112613
0.0890712
0.132913
0.0738018
0.030161
0.0594768
0.0800408
0.113586
0.0859179
0.302296
0.0676607
0.221693
0.045064
0.0016666
0.0450884
0.0933631
0.179517
0.360106
0.181411
0.0497898
0.0576387
0.0203603
0.00779924
0.0641199
0.257195
0.20646
0.210793
0.117297
0.0286274
0.0571402
0.12927
0.0511932
0.0407002
0.137256
0.389958
0.383658
0.209104
0.0244275
0.0657379
0.0232214
0.00258246
0.0223501
0.0693327
0.0969225
0.251624
0.251748
0.050577
0.0563889
0.110548
0.0180772
0.0475422
0.103386
0.140111
0.240433
0.199886
0.0370046
0.0364676
0.140538
0.067843
0.00788274
0.0236326
0.172791
0.190266
0.329365
0.0480924
0.00395254
0.107395
0.0622341
0.0310463
0.0244749
0.240556
0.282964
0.323111
0.0641136
0.0211836
0.0575661
0.00656157
0.0136647
0.0431329
0.0938865
0.217372
0.344243
0.0361767
0.000695531
0.0154938
0.0247927
0.0280436
0.0524307
0.201568
0.345936
0.0785054
0.0086551
0
0.0242984
0.0218814
0.0152622
0.00669142
0.182035
0.349507
0.042307
0.00173336
0.0046241
0.0159289
0.0188236
0.0215815
0.0880614
0.530791
0.470216
0.0595737
0.00121997
0
0.0294871
0.0482642
0.0409813
0.100695
0.135611
0.143247
0.0531717
0.0161047
0.0555834
0.027252
0.0879312
0.0818183
0.122381
0.317957
0.138944