0.159418
0.00439095
0.00953825
0.03568
0.00838349
0.0389087
0.0656271
0.051861
0.179893
0.148363
0.0348547
0.028197
0.0363018
0.0546547
0.0615095
0.0443563
0.0751423
0.148104
0.100031
0.0167338
0.0143143
0.0557735
0.036202
0.100518
0.472645
0.400291
0.211333
0.166481
0.206728
0.0479499
0.0522943
0.252744
0.142106
0.120753
0.287505
0.278392
0.104158
0.0997593
0.045769
0.0352049
0.0656741
0.0250218
0.00801011
0.0392298
0.12552
0.308179
0.159364
0.0295809
0.0536557
0.0562922
0.00552505
0
0.0284273
0.230023
0.0843227
0.221252
0.0819021
0.112522
0.307327
0.156666
0.155052
0.114643
0.0963777
0.343672
0.205014
0.0489486
0.198176
0.217125
0.282537
0.254827
0.116643
0.195254
0.223208
0.0506445
0.00178583
0.0297328
0.0351744
0.021746
0.0201447
0.0125406
0.171564
0.25288
0.00559126
8.05374e-005
0.0122315
0.0304723
0.045733
0.0560226
0.0787235
0.31416
0.331997
0.0697606
0.00937933
0.0434348
0.021246
0.0827471
0.0905434
0.0269375
0.260251
0.465255
0.0174959
0.00487266
0
0.000915691
0.0080535
0.0250138
0.0111524
0.497786
0.228987
0.00829251
0
0
0.00240936
0.00959728
0.0142838
0.0340615
0.237761
0.356324
0.0572633
0
0
0
0
0.000623207
0.00629342
0.261238
0.282105
0.00557601
0.000374549
0
0
0.000247258
0.000906895
0.00232389
0.35872
0.395671
0.00577978
0.000224729
0
0
0
0
0.00225083
0.51204
0.203211
0.0512661
0.00271024
0.01265
0.00489216
0.00483174
0.0150238
0.0619785
0.166028
0.0921817
0.0222563
0.0227417
0.185289
0.193632
0.1512
0.100227
0.0998987
0.0664719
0.223422
0.0234042
0.00256347
0.00120719
0.00502784
0.017189
0.0424328
0.105324
0.384851
0.0635182
0.0603285
0.0179443
0.016052
0.252582
0.530748
0.294066
0.2061
0.191762
0.00666124
0.0153156
0.0439271
0.177293
0.266242
0.187247
0.0437237
0.0252344
0.00422216
0
0.0256691
0.0715275
0.0789453
0.138811
0.120883
0.0379884
0.0939215
0.0459563
0.00174842
0.0189763
0.0153859
0.0144803
0.350344
0.650599
0.137302
0.041775
0.0124714
0.0084687
0.0273189
0.0800028
0.0479098
0.188701
0.33965
0.0818328
0.0227954
0.0172532
0
0.00503483
0.0212259
0.0766489
0.128302
0.103609
0.0522039
0.0668734
0.0438606
0.00199534
0.00133023
0.00684075
0.20824
0.355398
0.156107
0.0535563
0.0131761
0.00540929
0.00998093
0.0143
0.0820837
0.271172
0.192584
0.0458965
0.0251487
0.010705
0.0140848
0.0288377
0.0326246
0.158741
0.669259
0.304348
0.0174297
0.000312018
0.000266698
0.0107511
0.0171933
0.0207532
0.0237205
0.281092
0.295103
0.0770688
0.0132328
0.00470678
0.00467786
0.172159
0.182675
0.11267
0.218884
0.135024
0.0464718
0.0114886
0.031892
0.032745
0.0800895
0.083134
0.131645
0.553909
0.214105
0.0120977
0.0113965
0.00996985
0.0347205
0.104362
0.114384
0.0746972
0.34263
0.222741
0.0857794
0.0309155
0.0166164
0.0242293
0.0858833
0.196706
0.157729
0.110152
0.0477263
0.0194118
0.0034882
0.00886485
0.00910194
0.012352
0.332164
0.485768
0.12242
0.0360001
0.0260444
0.00206338
0
0
0.0337881
0.0661164
0.0777286
0.152014
0.180157
0.207254
0.0285884
0.00169915
0.00103277
0.00907489
0.136426
0.264266
0.151523
0.223514
0.452097
0.0344074
0
0
0.10492
0.0113601
0.00188958
0.00657682
0.00836519
0.0230166
0.231627
0.282301
0.254397
0.241913
0.135256
0.0156853
0.00751316
0.0598125
0.0263366
0.0563522
0.239808
0.435823
0.151061
0.00805598
0.00346641
0.0042207
0.00184987
0.00352869
0.0500072
0.0974857
0.238002
0.233051
0.0207002
0.00297867
0.00042349
0.000264267
0.00107818
0.017804
0.166558
0.467459
0.0383929
0.0587033
0.0121158
0.0150881
0.0448684
0.0505523
0.102905
0.230918
0.0985998
0.0197368
0.0227556
0.00527241
0.0303023
0.0336882
0.122346
0.288382
0.356222
0.0205531
0.028529
0.00781711
0.00202835
0.00176275
0.000909847
0.010208
0.0776957
0.34166
0.148595
0
0.000999744
0.0016638
0.00671199
0.00861591
0.052012
0.475438
0.511912
0.0277345
0.0481679
0.018288
0.0051492
0.0101218
0.00448249
0.0534676
0.254563
0.162008
0.0349179
0.128896
0.0255709
0.00758811
0
0
0.00701899
0.109459
0.0503861
0.106008
0.00680564
0.00164133
0.000918865
0.0138017
0.0154454
0.0325963
0.532482
0.459463
0.0686756
0.262225
0.0975185
0.00774543
0.00926381
0.014432
0.00479683
0.238944
0.251301
0.32384
0.115025
0.072135
0.0156759
0
0
0.00045772
0.0055791
0.00475941
0.078132
0.312074
0.121873
0.0145451
0
0
0
0
0
0.141695
0.270987
0.401301
0.0413733
0.000233529
0.00132333
0.000274632
0.0129175
0.02163
0.104082
0.509674
0.527792
0.0522768
0
0
0
0
0
0.0427092
0.325668
0.0662721
0.00556241
0
0.0016349
0.0092644
0.00731147
0.0162424
0.11953
0.23431
0.125677
0.0316233
0.0283852
0.151854
0.205968
0.0532056
0.04026
0.0792738
0.508862
0.221956
0.0086954
0
0.000233556
0.00132349
0
0.00267988
0.102569
0.508862
0.110846
0.018974
0.0434249
0.0682301
0.0442144
0.00861318
0.100614
0.258408
0.0445292
0.0497894
0.017195
0.0390921
0.254633
0.383913
0.078968
0.0585453
0.0353885
0.0388692
0.023653
0.0353396
0.0249092
0.0917926
0.193868
0.0972529
0.105981
0.120382
0.100579
0.0402743
0.00961306
0.0598048
0.106946
0.123188
0.0787903
0.342455
0.207946
0.0596555
0.0264909
0.0102464
0.0128667
0.0268811
0.0705785
0.128066
0.523598
0.341045
0.0503027
0.0460225
0.0877285
0.216991
0.0618898
0.00992981
0.0202174
0.0294243
0.082159
0.0532172
0.0835078
0.212147
0.529383
0.0660341
0
0
0
0.0299202
0.0960998
0.0813325
0.068596
0.155081
0.0173236
0.0288387
0.110049
0.217384
0.20566
0.0893061
0.0945236
0.209241
0.510641
0.07838
0.0949017
0.0819613
0.123204
0.131366
0.0982635
0.143087
0.165756
0.277164
0.0404903
0.0185328
0.0614383
0.0311913
0.0855765
0.0799545
0.108028
0.0286662
0.0756247
0.107403
0.180996
0.135624
0.0519854
0.0544561
0.161176
0.18674
0.223057
0.275899
0.11434
0.0780914
0.0838271
0.132775
0.240738
0.103484
0.174398
0.0651736
0.113689
0.301632
0.416711
0.187906
0.069221
0.15243
0.0222519
0.0275033
0.00382346
0.0309999
0.124673
0.256134
0.0599377
0.0056274
0.00100098
0.0164933
0.0089807
0.0193149
0.0250126
0.178395
0.571835
0.0934212
0.00935706
0
0.0264615
0.0203862
5.31476e-005
0.0570173
0.266034
0.29012
0.0958424
0.0273773
0.0175977
0.0774629
0.00452775
0
0.0190618
0.22555
0.383693
0.208042
0.143919
0.186672
0.232184
0.0421727
0.0475136
0.0719586
0.0565507
0.00495078
0.0235932
0.0277811
0.226028
0.25239
0.0202502
0.0345419
0.0334332
0.0127734
0.0350423
0.057776
0.187776
0.575347
0.0260629
0.0170138
0.0461504
0.13936
0.161346
0.152571
0.0623201
0.0231221
0.0112615
0.0586428
0.0764592
0.0832921
0.23205
0.0806763
0.140506
0.0585765
0.0330145
0.0401772
0.00828352
0.00771321
0.0101916
0.0170173
0.0178574
0.0251904
0.0566009
0.176357
0.0830544
0
0.0130521
0.0452525
0.162119
0.0954872
0.149788
0.388478
0.387728
0.0181687
0.00348334
0.0702095
0.118142
0.104169
0.0398798
0.0382778
0.0144302
0.0116887
0.00385103
0.00872557
0.252756
0.49485
0.382286
0.123815
0.0799368
0.0303807
0.0188704
0.000163825
0.0146223
0.0172706
0.0402023
0.152332
0.0731692
0.0687346
0.23434
0.241539
0.0727653
0.375846
0.193641
0.0894541
0.0795757
0.0556582
0.00725062
0.0833238
0.167169
0.300613
0.0295684
0.190961
0.252725
0.284901
0.0862819
0.0367399
0.0127033
0.0176256
0.0090574
0.190084
0.317065
0.307479
0.176474
0.0516165
0.00435037
0.00161665
0.0237032
0.04541
0.345744
0.396625
0.0376135
0.00629535
0.00447893
0
0.00381066
0.0129192
0.0907573
0.298068
0.581463
0.0296473
0.000566023
0
0
0
0.00118703
0.015322
0.24113
0.198892
0.074008
0.0390089
0.00268736
0
0
0.0119352
0.03905
0.298475
0.145296
0.00613886
0.00396216
0
0.00101348
0.00619168
0.0311888
0.101282
0.54495
0.342961
0.0111613
0
0
0
0
0.00665572
0.109672
0.39282
0.071041
0.0014753
0.015705
0.00474727
0.00530028
0.00691772
0.218225
0.380333
0.222737
0.0821843
0.00403879
0
0
0.005323
0.0511257
0.0941111
0.147726
0.0865833
0.0572156
0.00245883
0.0121623
0.000640122
0.0031938
0.073631
0.122341
0.0929245
0.0516554
0.0191946
0.000404189
0.011696
0.0038117
0.0112429
0.0291989
0.354348
0.229364
0.0303143
0.0109262
0
0.00167085
0.00243889
0.0174962
0.201376
0.62545
0.323391
0.0348698
0.0280419
0.000673648
0.00905767
0.00241055
0.00689987
0.0205822
0.104781
0.0933637
0.0243422
0.00683027
0
0.00129395
0.0136049
0.0556574
0.266969
0.302922
0.131477
0.038071
0.0167622
0.0101722
0.0240205
0.00809983
0.035432
0.253569
0.300533
0.139894
0.216847
0.0220861
0.0453802
0.10194
0.0556058
0.0960601
0.147506
0.228809
0.33485
0.0402895
0.00748855
0
0
0.0124045
0.0423744
0.291342
0.288035
0.111871
0.307594
0.0524199
0.0599046
0.0626522
0.0910654
0.0410784
0.120749
0.277993
0.328002
0.217596
0.0566183
0.043186
0.0705094
0.0530508
0.0643602
0.0169788
0.126713
0.357643
0.110113
0.0863323
0.0240067
0.10273
0.177149
0.148989
0.032206
0.055839
0.218932
0.198601
0.0245026
0.107014
0.304764
0.13472
0.0616011
0.011848
0.131629
0.264817
0.126151
0.0862013
0.172859
0.460109
0.198783
0.0916054
0.0152647
0.0557447
0.144582
0.118904
0.0730328
0.0184779
0.0517653
0.212355
0.128125
0.0677418
0.0398933
0.0431721
0.332461
0.111923
0.0345173
0.0066346
0.0901139
0.0727789
0.104672
0.1264
0.347582
0.24155
0.235819
0.182786
0.11717
0.0935683
0.0258252
0.0244117
0.0144859
0.0222183
0.361544
0.325894
0.323581
0.0102672
0.0167423
0.00279066
0.016106
0.0162304
0.163658
0.00811664
0.0108485
0.0177613
0.0625431
0.0459644
0.12556
0.0581561
0.0296375
0.0395965
0.0265396
0.0666256
0.1093
0.20747
0.0735835
0.0691913
0.0146097
0.00342825
0.0141937
0.00981006
0.0153887
0.0576384
0.0626642
0.0161735
0.0548917
0.367984
0.488894
0.243999
0.0182089
0.0475059
0.21768
0.322552
0.314331
0.0457703
0.0740462
0.0875674
0.0694574
0.00222678
0.0333823
0.0958179
0.19028
0.0613277
0.0113406
0.000240881
5.58456e-005
0
0.00666838
0.174121
0.306323
0.307491
0.120901
0.0181905
0.00046436
0.00378318
0
0.000892595
0.00665055
0.0462453
0.311437
0.291439
0.00448664
0.00054041
0.000810614
0
0.017542
0.0397114
0.0816524
0.489246
0.45309
0.0885095
0.0230915
0.0264823
0.0055298
0.0270021
0.182229
0.176337
0.096758
0.0754812
0.013592
0.000974728
0.00877256
0
0.0493679
0.302122
0.20785
0.0480791
0.0261388
0.00194172
0.000584837
0.0147007
0.0110586
0.0476006
0.193107
0.123747
0.0926581
0.160973
0.0753443
0.0240112
0.0614079
0.0128227
0.0432359
0.650233
0.433757
0.00942216
0.0355199
0.0107635
0.0065493
0.0381929
0.00927341
0.157011
0.240728
0.06404
0.0145547
0
0
0
0.00941718
0.0326134
0.349937
0.127178
0.00418239
0.00142855
0
0.0213868
0.0600046
0.0775184
0.161951
0.140912
0.577246
0.211487
0.00110175
0.000357886
0.00107366
0.00143504
0.00756399
0.0265491
0.296686
0.290465
0.0348704
0
0.0025052
0.147982
0.190494
0.117776
0.189368
0.123299
0.00994412
2.9252e-005
0
0
0.082228
0.166939
0.123942
0.117238
0.0278737
0.00579087
0.000204764
0.0027532
0.000144905
0.0744342
0.17041
0.0805533
0.0373412
0.0985013
0.0186962
0
0
0.00111802
0.318184
0.464691
0.170565
0.168815
0.338852
0.00469553
0
0
0
0.186064
0.370132
0.124431
0.3559
0.0296587
0.00401924
7.24447e-005
0.0026478
0.000704667
0.0120351
0.0418312
0.0286417
0.0438372
0.046474
0.00234763
0
0.000378257
0.00397707
0.0229588
0.0582595
0.0527039
0.0753964
0.407155
0.00451577
0
0
0
0.0132231
0.0548402
0.0286389
0.365922
0.510024
0.00318001
0
0
0
0.00489655
0.0101889
0.0117384
0.594335
0.060216
0.00845555
0.00218513
0.0159337
0.0266066
0.0387369
0.0821314
0.118296
0.0606077
0.0853457
0.0251834
0.0817315
0.123858
0.277873
0.0700901
0.0399996
0.117271
0.0526965
0.434153
0.0117836
0.0152959
0.0265561
0.0235471
0.0171385
0.0155276
0.0288133
0.485462
0.243489
0.0298278
0.124646
0.0937368
0.362961
0.105133
0.0317485
0.0544474
0.332605
0.0192678
0.00548089
0.0829173
0.215202
0.254755
0.0438749
0.00292557
0.0243605
0.0117808
0.0338123
0.0371591
0.117056
0.292706
0.277444
0.0458303
0.00168756
0.00559039
0.00338349
0.0144799
0.0135113
0.043486
0.0702452
0.436604
0.200301
0.00821016
0.0087472
0.0369639
0.00333339
0.00839742
0.0256513
0.0935211
0.559872
0.283119
0.0051188
0.00460151
0
0.150758
0.220482
0.265099
0.220696
0.179368
0.029314
0.00733563
0.000510703
0
0.0924405
0.208344
0.41378
0.0769937
0.034107
0.0118394
0.0092816
0.0054735
0.0199906
0.0154465
0.0460858
0.0838798
0.156204
0.492007
0.269107
0.066373
0.0388166
0
0.0463074
0.0709486
0.137709
0.102825
0.0497635
0.11998
0.108449
0.0645801
0.0242316
0.000334868
0.000842483
0.00667709
0.00542042
0.00576537
0.0120439
0.375964
0.239024
0.0565725
0.000558113
0.00140414
0.0172452
0.0429762
0.114979
0.0293208
0.137477
0.104865
0.0329428
0.0152931
0.0902631
0.0823619
0.0948767
0.0419603
0.068487
0.617147
0.195617
0.024225
0.000440688
0.0497915
0.0632608
0.155459
0.195824
0.120741
0.357668
0.155867
0.0275842
7.75478e-005
0.0001951
0.0053106
0.130384
0.339383
0.019071
0.00973816
0.0122892
0.00332693
0.0151284
0.00114678
0.0220009
0.195478
0.444086
0.0643299
0.0268074
0.0121508
0.0050428
0
0.009205
0.0113749
0.0850908
0.421168
0.187186
0.0388653
0.0213255
0.00554489
0.0120379
0.00293887
0.0593036
0.0924954
0.500027
0.274977
0.0240734
0.0228655
0.00603864
0.0380141
0.105616
0.125353
0.0381191
0.118762
0.0842437
0.0407847
0.0360682
0.0126714
0.0228084
0.444449
0.361907
0.0012601
0.0527263
0.0718166
0.0395888
0.061809
0.0189911
0.0393818
0.0167179
0.110759
0.0568209
0.121525
0.125506
0.0972971
0.156191
0.0466775
0.0333713
0.0725793
0.145824
0.0134964
0.0774014
0.111442
0.162555
0.553547
0.280167
0.0571757
0.400515
0.217339
0.0010799
0.0119979
0.0216298
0.0227117
0.0569151
0.0319323
0.1042
0.165502
0.0558617
0.0180107
0.0249382
0.185318
0.121718
0.0972874
0.0679416
0.0291594
0.0701367
0.0629518
0.00144914
0.0185321
0.0316566
0.112102
0.556991
0.280423
0.0829487
0.114943
0.16655
0.13938
0.031313
0.0584093
0.0814186
0.30777
0.145568
0.0463418
0.0260467
0.0137341
0.0157634
0.0137231
0.154946
0.174358
0.0872696
0.0955618
0.336684
0.0309609
0.00447866
0.00596758
0.00159302
0.049374
0.118059
0.0790738
0.335569
0.142257
0.117538
0.188577
0.136367
0.0201285
0.035203
0.0261153
0.0415228
0.103063
0.466508
0.0907903
0.099544
0.0493714
0.00265504
0.00484875
0.0120663
0.0312318
0.525415
0.272313
0.0074048
0
0
0
0.00101578
0.00643567
0.00682243
0.231423
0.325259
0.00621559
0.000687363
0
0
0
0.00017759
0.00052714
0.349419
0.288156
0.0110004
0.00299102
0.000332336
0
0
0
0.00941956
0.378839
0.410644
0.00973771
0.00114561
0
0
0
0
0.00123313
0.448737
0.286759
0.0145313
0.00712857
0.0111335
0.00990677
7.39875e-005
0.00530873
0.0277978
0.379884
0.134618
0.0389566
0.0414548
0.0270595
0.134336
0.0624419
0.044862
0.0887087
0.284177
0.428116
0.0385405
0.00528855
0.0139237
0.0136537
0
0.00532662
0.018476
0.425109
0.31139
0.134986
0.0256011
0.0789929
0.158762
0.0421359
0.0419069
0.0876542
0.232124
0.0092085
0.0184257
0.0185365
0.0195782
0.25267
0.178131
0.0203296
0.0218179
0.0394055
0
0.00182086
0.00200568
0.0287264
0.50498
0.244847
0.00550329
0.0052295
0
0.0379146
0.0401447
0.0237518
0.186893
0.302584
0.0782012
0.0170165
0.0378653
0.0254581
0
0.000260122
0.00821267
0.26708
0.557697
0.0928253
0.0151382
0.0117813
0.000547554
0
0
0.000501542
0.0361869
0.447687
0.207804
0.0436334
0.0399993
0
0.0344933
0.0427842
0.072486
0.0611703
0.11969
0.105239
0.0741587
0.0430962
0.00579094
0
0
0
0.149582
0.63519
0.110273
0.0650509
0.0536882
0.00353251
0.005392
0.0100824
0.043311
0.0761689
0.266256
0.217921
0.135513
0.0737209
0.0208046
0.190729
0.393979
0.145131
0.109374
0.0339853
0.030103
0.156058
0.0294036
0.000651628
0.0335528
0.272375
0.17622
0.167216
0.146923
0.0807106
0.118355
0.033222
0.00268314
0.469992
0.37775
0.061781
0.0210733
0.00369168
0
0.00109744
0.00987698
0.0251643
0.146812
0.293669
0.120836
0.0390039
0.0595811
0.0326923
0.000658465
0.00664364
0.00573903
0.00710892
0.0407511
0.0368695
0.0470759
0.189364
0.275774
0.0193881
0.00394576
0.000848084
0.0115636
0.00256861
0.0323242
0.0990144
0.210564
0.494824
0.0280907
0.00963852
0.0057736
0.0244765
0.0416427
0.0318563
0.0345382
0.184359
0.22812
0.0238455
0.00342772
0.00319587
0.00293372
0.00115913
0.00513523
0.071998
0.272955
0.546109
0.204869
0.0354562
0.00243495
0.0608247
0.000746367
0.0381148
0.127841
0.0664493
0.15271
0.0623069
0.124202
0.0706143
0.0689406
0.000106624
0.00917245
0.0393854
0.0239854
0.0444257
0.184065
0.554051
0.361013
0.0225946
0
0.00714659
0.0754802
0.0843428
0.224013
0.26212
0.0975987
0.0231914
0.0330242
0
0.00325743
0.0234563
0.0294996
0.0688392
0.368213
0.271237
0.128654
0.0199673
0.00152287
0.000299685
0.000161369
0.00384226
0.00494742
0.214597
0.466847
0.198302
0.103293
0.140412
0.149824
0.0938666
0.00311196
0
0.144879
0.308789
0.198329
0.0431758
0
0
0
0.0130924
0.00732316
0.274477
0.26783
0.110695
0.257335
0.216872
0.091311
0.0243986
0.00187034
0.00172237
0.141702
0.231394
0.243551
0.15895
0.184539
0.366485
0.190563
0.00315407
0
0.00973049
0.0336998
0.108394
0.377626
0.0646894
0.261651
0.119984
0.00161867
0.0105128
0
0.0414878
0.412357
0.164513
0.264476
0.274887
0.0897607
0
0.000258442
0.00523959
0.0339875
0.0996283
0.124584
0.0957444
0.223907
0.104429
0.00602485
0.0175213
0.0014915
0.035783
0.0975265
0.279568
0.00600618
0.0189882
0.0105028
0.00115539
0.0103985
0
0.043138
0.477746
0.451253
0.00354802
0.000835537
0.0015617
0.000224509
0.0014855
0
0.00773579
0.575716
0.0711358
0.0246681
0.0258254
0.0210443
0.00595935
0.0173308
0.000542725
0.0319413
0.141497
0.129057
0.0528779
0.0263748
0.019252
0.00126751
0.00247583
0
0.00741512
0.201975
0.423093
0.0155487
0.00488756
0.0146558
0.0119342
0.00824939
0.0083448
0.00714957
0.464906
0.318634
0.0677999
0.0171054
0.0973159
0.207319
0.073747
0.0584136
0.072019
0.281621
0.116256
0.0898354
0.0865572
0.0688855
0.0158553
0.013749
0.00500688
0.00440555
0.159509
0.0567731
0.103697
0.110726
0.199095
0.326395
0.166221
0.0494791
0.0266772
0.115317
0.0278745
0.0130402
0.0082224
0.151157
0.283254
0.041541
0.0121154
0.0272507
0.0203547
0
0
0.00275654
0.211215
0.451067
0.0247661
0.0185229
0.0165035
0.000506451
0.00482735
0.0140546
0.00883823
0.0843045
0.494448
0.153772
0.0154052
0.00702856
0.0146335
0.00013987
0.00182078
0.00106307
0.0908041
0.539461
0.120579
0.0182519
0.0131401
0.00133118
0
0
0
0.10875
0.399875
0.108399
0.0872041
0.0762501
0.00355457
0.00921898
0.00678783
0.000913511
0.0134918
0.158526
0.228091
0.110289
0.0899936
0.0457225
0
0.0146087
0.00933257
0.1024
0.539603
0.217544
0.0922727
0.0810951
0.000507796
0.0139118
0.0200782
0.0128509
0.111363
0.357424
0.279564
0.0518121
0.0685566
0.0256704
0.574246
0.177152
0.055254
0.0807868
0.076358
0.00656621
0.0104469
0.0440574
0.105203
0.281695
0.179944
0.100501
0.107288
0.158199
0.0890075
0.0164167
0.0371308
0.0513253
0.054183
0.030299
0.0270705
0.0612353
0.192657
0.0501506
0.0440699
0.0283395
0.0758061
0.195874
0.0275034
0.0405364
0.0837727
0.119333
0.0800883
0.0708194
0.0428886
0.262067
0.0212325
0.010446
0.00755043
0.0376802
0.124446
0.102357
0.0787953
0.0161956
0.0238382
0.00115684
1.47618e-005
0.00048259
0.0226046
0.156095
0.30717
0.555397
0.0879231
0.0127713
0.0425644
0.00437335
0.00187305
0.0163222
0.0118943
0.0320739
0.0740386
0.0285778
0.0787534
0.00776286
0.00104474
0.0100822
0.0212893
0.0110852
0.128537
0.619209
0.140261
0.0341716
0
0
0
0.00243337
0.0200797
0.13647
0.363918
0.107721
0.000936086
0
0
0
0.000347624
0.0071355
0.0472405
0.30009
0.262185
0.0203454
0
0
0.0283922
0.0172385
0.00239658
0.108111
0.502298
0.162807
0.00379757
0
0
0.0388658
0.0435525
0.033735
0.115512
0.412207
0.356533
0.0244698
0.0368103
0
0
0
0.0087676
0.0133746
0.238433
0.27018
0.0676663
0.21782
0.0848662
0.0179279
0.00175768
0.00125251
0.0204943
0.13616
0.124431
0.178703
0.0322185
0.00690845
0.012822
0.0420274
0.0533959
0.0578532
0.364481
0.33697
0.0715294
0.175701
0.0120533
0.00165178
0.00800126
0.00762799
0.0272199
0.237291
0.207804
0.503849
0.149792
0.0951535
0.0520569
0.0100472
0
0.00408579
0.0145932
0.0204813
0.109344
0.0802255
0.051247
0.04498
0.0181259
0.0108326
0.00382745
0.00654409
0.022138
0.0839542
0.203525
0.00297282
0
0
0
0.00560012
0.0252661
0.039013
0.574548
0.354429
0.0237855
0.00533098
0
0.00425291
0
0.00949577
0.0347475
0.580802
0.0340606
0.0642844
0.0551233
0.0120018
0.0138596
0.00489697
0.00308015
0.0112195
0.0413117
0.0250106
0.304986
0.221927
0.0257676
0.00229959
0.000699567
0
0.00192616
0.0223498
0.229865
0.154447
0.116151
0.00725909
0.0132285
0
0.0225049
0.0560646
0.284481
0.0454491
0.477867
0.544196
0.128401
0.085892
0.0119155
0.0166058
0.0248064
0.0544442
0.00928919
0.231179
0.194526
0.0319003
0.00233922
0.00192443
0
4.81914e-005
0.00468752
0.00828624
0.289584
0.214682
0.0716553
0.135038
0.109035
0.0189126
0.0266819
0.0646694
0.00174741
0.309236
0.400833
0.106736
0.0328936
0.0157614
0.00768718
0.0124254
0.00413401
0.0111656
0.433985
0.366859
0.129444
0.159706
0.0724153
0.0376837
0.103526
0.0874295
0.00322091
0.0423076
0.0191927
0.0158705
0.329272
0.186773
0.0142702
0.0151841
0.0359753
0.00273659
0.00516689
0.00147269
0.0159202
0.472867
0.233549
0.0323321
0.0239307
0.0176651
0.00617326
0.0713561
0.0303527
0.0527209
0.343403
0.233999
0.0335288
0.0492897
0.0393445
0.00477232
0.00458114
0.00063036
0.0336493
0.374136
0.400136
0.134125
0.110585
0.0359771
0.0145073
0.0320376
0.010893
0.079757
0.261082
0.142839
0.0436661
0.0844759
0.0612257
0.0101341
0.0204578
0.0103127
0.128647
0.203431
0.0655316
0.0175087
0.121437
0.0811419
0.0287821
0.0192226
0.00398872
0.0396145
0.116242
0.238066
0.197962
0.405833
0.17676
0.141031
0.0115335
0.00352061
0.0515864
0.040094
0.0880231
0.121344
0.371309
0.468334
0.023814
0.0129262
0.000831133
0.000718082
0.01487
0.00701255
0.00539315
0.00753595
0.0494924
0.0803402
0.00433551
0
0.00219303
0.00609088
0.00488472
0.00693447
0.00947337
0.097552
0.369807
0.0974343
0.00514352
0
0.000646638
0.000516563
0.000276496
0.00494281
0.110601
0.82887
0.129754
0
0
9.23769e-005
0.000309938
0.000132831
0.00627303
0.191468
0.0548954
0.0163999
0.000378894
0.0046021
0.000297227
0.00123639
0.00546921
0.00780273
0.0383427
0.0468272
0.061198
0.0580471
0.0350149
0.00455443
0.00751878
0.0776897
0.0385956
0.0164063
0.599569
0.12327
0.000227337
0.00230139
9.32072e-005
0
1.20957e-005
0.0012562
0.0722325
0.637214
0.333038
0.104185
0.0292571
0.00272968
0
0.00299432
0.01358
0.0724689
0.0127027
0.0931342
0.184672
0.0580909
0.00535434
0.0302658
0.172593
0.0624549
0.00249715
0.00717946
0.123235
0.192644
0.119906
0.0412942
0.0911619
0.164157
0.0904501
0.0118725
0.399635
0.45299
0.289838
0.0451343
0.00321261
0.00595189
0.0851614
0.0494227
0.039159
0.167541
0.374374
0.247519
0.0740275
0.0105357
0.0245369
0.16384
0.0628266
0.0916795
0.0488804
0.0689386
0.0744214
0.119579
0.065779
0.048245
0.132113
0.100391
0.0631863
0.207198
0.0339739
0.0123608
0.0269471
0.009397
0.0038375
0.0903537
0.107569
0.454625
0.172959
0.124178
0.0876997
0.0788739
0.0163581
0.0126283
0.0721936
0.0398675
0.288038
0.268056
0.0215141
0.0155647
0.021618
0.00233687
0
0.0446173
0.0744712
0.576894
0.165938
0.008369
0
0
0
0.000560715
0.00789535
0.0196173
0.437698
0.273635
0.044452
0.0248775
0.00706905
0
0
0.0127492
0.0479754
0.437084
0.248836
0.010801
0
0
0
0
0.0069122
0.0372354
0.363269
0.367079
0.119587
0.0608749
0.0117818
0
0.00690093
0.0180009
0.0810162
0.265414
0.187727
0.121255
0.0989459
0.0549012
0.0134323
0
0.0597573
0.111075
0.269628
0.0358769
0.211448
0.271534
0.195635
0.18256
0.0489787
0.081892
0.0658811
0.0758064
0.287916
0.326683
0.14293
0.0787616
0.0056397
0.0111576
0.0525908
0.0988911
0.108273
0.202261
0.405292
0.124941
0.106332
0.092598
0.0464572
0.0876368
0.0717039
0.140119
0.0196157
0.0997019
0.210035
0.136103
0.0898001
0.0639695
0.04996
0.0737813
0.091294
0.128979
0.248444
0.172389
0.182549
0.109231
0.0502779
0.0437854
0.123247
0.248199
0.190317
0.0612405
0.0308537
0.0264671
0.0478972
0.0492244
0.0575518
0.111077
0.230149
0.446017
0.199816
0.0315917
0.0461413
0.0170703
0.0569067
0.0647417
0.227781
0.394369
0.0670318
0.150883
0.0447975
0.170116
0.313283
0.156316
0.0380319
0.0344212
0.0594547
0.050049
0.0454876
0.0178703
0.140593
0.371164
0.322288
0.148409
0.145365
0.0247719
0.159576
0.195499
0.0495015
0.0812932
0.114689
0.123453
0.184746
0.122054
0.0868109
0.21501
0.11437
0.0293642
0.0819647
0.198186
0.158214
0.265762
0.246093
0.0757444
0.0749435
0.0428243
0
0.0142848
0.0352197
0.0648792
0.0794376
0.170139
0.0851981
0.245771
0.0714485
0
0
0
0.0183146
0.0437527
0.129863
0.344464
0.248398
0.248862
0.00229896
0.0240093
0.0416805
0.0207905
0.040106
0.0960322
0.063094
0.531969
0.425844
0.00383161
0.046377
0.0179206
0.000914671
0.00486002
0.045768
0.261877
0.336093
0.155132
0.000823343
0
0
0
0
0.000243489
0.0157616
0.462771
0.200175
0.00154202
0
0
0
0
0.000405816
0.0327036
0.462771
0.219316
0.00061276
0
0
0
0
0
0.0586277
0.452915
0.29914
0.0107941
0
0
0
0
0
0.0354706
0.535419
0.132737
0.00140816
0
0
0
0
6.69778e-005
0.0495635
0.535419
0.144742
0.0149512
0.00412184
0.00308606
0.00361464
0.0093355
0.0194712
0.110754
0.384806
0.115125
0.00985712
0
0.0006074
0.000284994
0
0
0.0614806
0.364981
0.0291458
0.00113325
0.0198093
0.0437432
0.0426099
0.0165481
0.0116827
0.126507
0.462074
0.178045
0.0501304
0.0169168
0.0148691
0.043154
0.175496
0.102835
0.115204
0.251473
0.108735
0.0355333
0.0150198
0.016864
0.0648456
0.283309
0.144247
0.184872
0.19871
0.0108503
0.00101431
0.104527
0.199674
0.192287
0.155529
0.0600525
0.110737
0.198362
0.0142177
0.0071002
0.103072
0.219958
0.209796
0.224146
0.156897
0.164428
0.210453
0.0245368
0.00991303
0.0150372
0.00675263
0.0137157
0.109878
0.095227
0.344567
0.118974
0.00104266
0.0062357
0.0164967
0.00635298
0.00497631
0.0824032
0.105585
0.550546
0.182224
0.0159217
0.0212548
0.0958669
0.0974579
0.159738
0.141025
0.170743
0.205269
0.0552691
0.00227453
0.0345277
0.153782
0.111321
0.208734
0.194794
0.135969
0.297256
0.117727
0.00747634
0.0121136
0.0133655
0.00175957
0.00659852
0.0323095
0.0869372
0.468861
0.13602
0.079027
0.0550045
0.0120341
0.0324955
0.0820267
0.0691727
0.145367
0.297562
0.0378311
0.0513414
0.175395
0.236674
0.0571268
0.0804278
0.09698
0.092953
0.296089
0.0428031
0.242886
0.386509
0.159853
0.0777624
0.124999
0.0857144
0.110919
0.179003
0.0925986
0.132032
0.0485446
0.0232303
0.0758618
0.0730799
0.0443903
0.0714853
0.0803423
0.167078
0.163361
0.0770856
0.0455029
0.0622959
0.0158089
0.0105422
0.0341863
0.094118
0.0344157
0.195148
0.179415
0.083655
0.153643
0.115904
0.0387513
0.0542731
0.0659649
0.0725052
0.595493
0.507401
0.106123
0.120151
0.0297725
0.00348404
0.0359581
0.0595774
0.161172
0.0397671
0.0381723
0.00987784
0.00487211
0.00151686
0.00504513
0.0278232
0.090237
0.229705
0.0384456
0.0165365
0.00845101
0
0.0201902
0.0357327
0.12672
0.19628
0.237055
0.361311
0.2504
0.0168996
0.00812019
0
0.000215113
0.0263917
0.102019
0.390712
0.161542
0.0668443
0.014085
0
0.00760992
0.0123928
0.248192
0.526424
0.119161
0.0565576
0.0535966
0.0813286
0.0484602
0.0906815
0.173242
0.150639
0.11423
0.147865
0.0960285
0.0652383
0.103795
0.140753
0.0958696
0.229267
0.180031
0.0979308
0.216607
0.112323
0.121267
0.159174
0.0245463
0.0334141
0.0408526
0.225189
0.454807
0.0878014
0.161091
0.199984
0.218285
0.323152
0.139788
0.127588
0.0539389
0.111891
0.09323
0.137463
0.00813553
0.0647569
0.130942
0.0242805
0.0377394
0.0362142
0.0225103
0.19867
0.229182
0.0230616
0.200061
0.138161
0.0089027
0.00389074
0.0040384
0.073997
0.00842206
0.0296274
0.0217586
0.109117
0.484136
0.0821565
0.0446892
0.00961162
0.00727763
0.0251225
0.0305102
0.0447024
0.36383
0.57722
0.0448672
0.0051211
0.000937376
0.0605058