0.0523965
0.0600833
0.0424542
0.0651567
0.00999254
0.0984718
0.199889
0.064518
0.0845969
0.313374
0.166104
0.0858699
0.054559
0.0109931
0.0638784
0.0440268
0.0999829
0.172726
0.0349347
0.0755021
0.138754
0.16609
0.0395584
0.110715
0.0853905
0.0520051
0.0428667
0.0649493
0.0824751
0.192061
0.336289
0.0837599
0.0937461
0.0262434
0.118853
0.0457802
0.155197
0.0417587
0.0413379
0.011895
0.0339896
0.0943996
0.0210717
0.0407304
0.0872528
0.0589143
0.0501027
0.194757
0.0618094
0.0904279
0.163458
0.0506968
0.0109687
0.106912
0.0172241
0.0138112
0.0577417
0.163022
0.225558
0.144037
0.043732
0.0648483
0.0216067
0.00383304
0.0844413
0.462234
0.325494
0.279642
0.0995357
0.0578988
0.0100219
0.0127304
0.00417146
0.0363336
0.16355
0.083496
0.0880377
0.144315
0.110392
0.0121513
0.0238341
0.0241968
0.0149821
0.106203
0.128865
0.273936
0.132833
0.166654
0.0327372
0.0330011
0.00863756
0.112368
0.479626
0.148512
0.0581722
0.0117023
0.0156188
0.000245627
0.0206868
0.0602137
0.118524
0.296131
0.116989
0.171082
0.0171311
0.0241404
0.0101273
0.253028
0.0195898
0.00304371
0.0159401
0.0652324
0.148736
0.0227595
0.0325459
0.00920822
0.0186632
0.0108913
0.0063326
0.0404016
0.265409
0.210705
0.0217126
0.0125449
0.00328831
0.00592392
0.0875873
0.0960808
0.0278856
0.0421774
0.0979249
0.00743091
0.0215687
0.0182636
0.212257
0.115237
0.481337
0.439705
0.334402
0.0926686
0.00296926
0.0126209
0.0111168
0.131722
0.0037353
0.0134698
0.0567632
0.165904
0.143694
0.0278657
0.00497208
0.00514288
0.00459083
0.0102862
0.0185129
0.0518846
0.0952838
0.172314
0.0901594
0.0646138
0.0557447
0.0307409
0.0739837
0.396882
0.374027
0.190624
0.0333629
0.000562882
0.00137272
0.0040569
0.0338428
0.260782
0.336746
0.17713
0.0675259
0.0370036
0.0633437
0.111701
0.365506
0.229864
0.00296432
0.00202495
0.00619665
0.025021
0.146063
0.0937033
0.0666707
0.0443098
0.0113408
0.0241439
0.00676757
0.0134675
0.00961004
0.0753029
0.0603881
0.0501541
0.0613855
0.0221284
0.0756104
0.0299857
0.0090995
0.00224145
0.0509174
0.101324
0.207798
0.488933
0.212877
0.0546632
0.00904492
0.0224459
0.00118136
0.03732
0.0591561
0.128439
0.327491
0.592607
0.0968172
0.0306975
0.00821247
0.000960055
0.00835041
0.0200659
0.0187487
0.0668766
0.0659173
0.0875902
0.0843651
0.00615014
0.0338503
0.00904546
0.0252603
0.0408582
0.111491
0.0777225
0.126511
0.0369267
0.0136875
0.000720391
0.00460675
0.00677217
0.0221214
0.271392
0.662192
0.0924992
0.101736
0.0173839
0.0231897
0.0217189
0.0093412
0.0456328
0.386051
0.257249
0.00815315
0.0297167
0.00499509
0.0395945
0.0689426
0.117296
0.071387
0.0460696
0.0128961
0
0.00193507
0.000713585
0.0545935
0.415513
0.23355
0.0744409
0.00412561
0.000226421
0.014196
0.0413061
0.0141191
0.0835199
0.167976
0.036319
0.0159162
0.0921408
0.0739407
0.00248389
0.00356866
0.00201701
0.217349
0.693704
0.0818194
0.00434279
0.00683943
0.0257213
0
0
0.00311654
0.0569952
0.393892
0.0670209
0.0108397
0
0
0
0
0.0142068
0.251182
0.333747
0.0159171
0
0
0
0
0
0.0110545
0.128743
0.485166
0.0562046
0.000257119
0
0
0
0
0.0184242
0.293165
0.430119
0.0265099
0
0
0
0.0925848
0.181745
0.0779987
0.0727452
0.0206764
0.0291077
0.0297905
0.0176706
0.0337612
0.0765044
0.0708876
0.11662
0.265923
0.0950033
0.0276625
0.0109498
0.0208857
0.0262795
0.249724
0.309464
0.0288046
0.0154068
0.0420046
0.0102309
0.0174834
0.0557637
0.156643
0.254195
0.121172
0.0626597
0.232584
0.262782
0.0390108
0.0361258
0.00588904
0.0852767
0.00783852
0.00313948
0.033757
0.226141
0.209138
0.0429099
0.011207
0.0115309
0.00328186
0
0.014696
0.162774
0.366803
0.28325
0.102742
0.0401548
0.0232886
7.75245e-005
0.0300804
0.0155282
0.0362018
0.212111
0.263191
0.0730379
0.052033
0.00459318
0.013138
0.0529584
0.0824658
0.124037
0.215322
0.256031
0.2038
0.174177
0.191327
0.0104616
0.0163007
0.0279909
0.0750251
0.0500257
0.0151455
0.0142773
0.01042
0.00907315
0.00485539
0.0964446
0.190551
0.0465263
0.0114187
0.00218172
0.000967534
0.00297158
0.00434553
0.0533142
0.0339094
0.0815338
0.184633
0.0729837
0.011872
0.0258562
0.0312612
0.0626206
0.00506091
0.125203
0.750438
0.434872
0.0812374
0
0.00141104
0.00472201
0.0115849
0.00724879
0.0645205
0.1543
0.00334491
0.00166536
0.0011362
0.00014874
0.000594961
0.00147999
0.034673
0.0849131
0.384068
0.0935357
0.0160431
0.00118315
8.9244e-005
0.000356976
0.000887993
0.0241089
0.0852335
0.52153
0.0806134
0.00593365
0
0
0
0.00280839
0.00697191
0.222049
0.63624
0.0481436
0
0
0
0
0.0196587
0.0350465
0.0759067
0.437041
0.16101
0.0156228
0.000503771
0
0
0.000199086
0.0124173
0.206713
0.255473
0.0572113
0.00287838
0
0.00288042
0.0199714
0.181619
0.130985
0.26118
0.497777
0.0601824
0
0
0
0
0.00950341
0.0399369
0.351994
0.244076
0.0209727
0
0
0
0.00137533
0.0793712
0.169161
0.0509935
0.0159983
0.000497158
9.97828e-006
0.000578126
0.00457216
0.0403678
0.243105
0.187401
0.0146662
0.000529844
0.00132711
6.98479e-005
0.000963544
0.0028328
0.0260326
0.218834
0.474
0.114347
0.0187406
0
0
0
0
0.00285315
0.127425
0.293164
0.0394548
8.76734e-005
0
0
0
0
0.00171189
0.222918
0.631493
0.0103587
0.00109154
0.000467677
2.46145e-005
0.000124915
0.000124915
0.00743517
0.217338
0.250853
0.00326028
0.00294412
0.00124484
0.000153733
0.00143682
0
0.0136731
0.319639
0.128795
0.0198299
0
0
0
0
0
0.00450825
0.385063
0.331973
0.00896544
0
0
0
0
0.00248831
0.0485769
0.623071
0.244566
0.00280792
0.00295997
0.00214925
0.0374037
0.0349282
0.000279921
0.0140756
0.212718
0.134741
0.00133309
0.00031548
0.000307036
0.15142
0.185516
0.00715423
0.0207245
0.0608667
0.0453069
0.000317403
0
0
0.0163255
0.00715095
0.0414348
0.260791
0.637869
0.216691
0.000190442
0
0
0.0958439
0.149206
0.0902796
0.414319
0.20763
0.0525041
0
0
0.00756258
0.21692
0.306282
0.0184724
0.00862961
0.00694492
0.00147976
0
0
0.0126043
0.298013
0.326237
0.00756207
0
0
0
0.00244785
0.0033866
0.0099565
0.208049
0.343253
0.0474856
0.204869
0.0264696
0.00491412
0.00407976
0.00564433
0.0174566
0.318445
0.451363
0.00153036
0.0167582
0.00242296
0.00407976
0.0812348
0.0737427
0.00418033
0.00457049
0.047327
0.0692355
0.101688
0.100118
0.139622
0.0702699
0.0320163
0.0043386
0.0656155
0.215118
0.141031
0.196309
0.023017
0.0288277
0.0272211
0.0129119
0.00511467
0.0103976
0.0618544
0.333921
0.182627
0.0865752
0.0600985
0.00183138
0.00217071
0.00826782
0.10899
0.215099
0.380227
0.287124
0.0296304
0.00259131
0.00538983
0.00740235
0.0268188
0.0456204
0.0634685
0.0384786
0.0600292
0.00383283
0.00211082
0.0489394
0.124866
0.184302
0.0852471
0.0304307
0.0333435
0.0489843
0.0526735
0.0109005
0.000239991
0.00243245
0.0423437
0.19841
0.0824843
0.0445563
0.0549049
0.00526589
0
0.0239878
0.15655
0.548003
0.625768
0.0523533
0.0130496
0.0154519
0.00507726
0.00580634
0.0158551
0.0647827
0.180607
0.0448314
0.000678535
0.00213671
0.00459263
0.0174114
0.00383423
0.00996978
0.199037
0.425635
0.104805
0
9.4836e-005
0.000404591
0.00259833
0.000547746
0.00806413
0.0943288
0.403382
0.11809
0.00144197
2.01083e-005
8.04331e-005
0.00153289
0.00204236
0.00112096
0.0701536
0.66962
0.154304
0
0
0
0.000218984
0.000291766
0.0556461
0.396586
0.278817
0.0555084
0
0
0
0.00428175
0.00530457
0.336258
0.381998
0.0709337
0.00753661
0
0
0
0.0299722
0.0740552
0.0304036
0.0973147
0.457503
0.134971
0
0
0
0.000756685
0.00930535
0.235124
0.275443
0.175018
0.0380197
0
0
0
0.0052968
0.0607262
0.401735
0.157193
0.00914773
0.000113261
0
0
0
0.0136863
0.105362
0.45677
0.135495
0.00211509
0
0
0
0
0.018895
0.151714
0.346686
0.274864
0.0311119
0.000792824
0
0.00104506
0.00500439
0.0249675
0.0995556
0.389931
0.161998
0.00596587
0
0
0.038491
0.0828626
0.211976
0.143496
0.266991
0.0391389
0
0
0
0
0
0.0328561
0.302613
0.121836
0.00107271
0
0
0
0
0.00209162
0.183249
0.69541
0.170124
0.0291945
0
0
0
0.0523533
0.0885302
0.14179
0.13991
0.0792352
0.00138818
0.00174655
0.000748523
0
0.0270966
0.0507388
0.16354
0.298756
0.0294922
0
0
0
0
0.00130104
0.022911
0.306523
0.309645
0.0131156
0
0
0
0
0.0397404
0.210798
0.547982
0.174116
0.0108416
0.000143629
0.00135147
0.0005792
0
0.0216333
0.102352
0.194528
0.130619
0.00351103
8.61772e-005
0.000193067
8.27428e-005
0
0.137988
0.457397
0.236605
0.0456357
0
0
0
0.000181655
0.00033736
0.0711076
0.279739
0.195999
0.0338803
0
0
0
0.00572379
0.0353801
0.0877419
0.449153
0.0917688
0.00438105
0
0
0
0
0
0.0929092
0.365008
0.122517
0.00865095
0
0
0
0.000348837
0.0122066
0.21443
0.607233
0.155821
0.00400628
0.00410796
0.00209079
0.00654436
0.0347648
0.0930937
0.0571735
0.355139
0.0554292
0.00431403
0.00684661
0.00348465
0.0380525
0.133707
0.13224
0.0194841
0.0720524
0.0164445
0.00684661
0.00246478
0.00166939
0.0117734
0.00765133
0.0617316
0.474959
0.58989
0.0982541
0.00246478
0.00410796
0.0593181
0.169842
0.0956441
0.0938723
0.236377
0.137203
0.0230702
0.00410796
0.0500984
0.0414668
0.0552998
0.0248392
0.0398088
0.133307
0.0666003
0.014285
0.0379161
0.00838331
0.03521
0.131102
0.152466
0.0846764
0.121551
0.072098
0.0111429
0.0015359
0.325119
0.177327
0.0847634
0.0218863
0.0137897
0.0192449
0.0277878
0.00386748
0.281906
0.220969
0.475859
0.327111
0.109165
0.0198343
0.0142274
0.0277062
0.0057466
0.0287826
0
0.00221724
0.0279202
0.126919
0.0343614
0.00559804
0.00317712
0.000597667
0
0
0.011855
0.151292
0.471376
0.0573399
0.000695508
0.00043151
4.44784e-005
0
0.00761794
0.0505315
0.0782325
0.176801
0.0518463
0.00032343
0.000515373
0.000171791
0
0
0.00853505
0.0679636
0.746071
0.223207
0.0012148
0
0
0
0
0.0289004
0.313205
0.268154
0.015017
0
0
0
0
0.0173201
0.0508449
0.471436
0.129609
0.000747887
0
0
0
0.00530216
0
0.0035932
0.12997
0.493451
0.118592
0.00316836
0
0
0
0.0372702
0.121553
0.329849
0.331022
0.0266342
0.00190102
0
0
0.00883694
0.0364195
0.106333
0.21421
0.0531597
0
0
0
4.63494e-005
0.0105669
0.0656771
0.401883
0.138822
0.0153658
0
0
0
0.00197603
0.0161383
0.140309
0.3493
0.200569
0.0896002
0.00113952
0
0
0.00110997
0.0124461
0.212739
0.650316
0.12918
0.00573827
0.00988255
0.00658837
0.0109509
0.0503825
0.0338524
0.141487
0.441385
0.0879497
0.013155
0
0.00274299
0.0117677
0.0236417
0.0246437
0.174463
0.156023
0.135943
0.0778704
0.00581089
0.101665
0.132061
0.159898
0.0459665
0.0817675
0.421283
0.149618
0.0611742
0.0843153
0.0373405
0.0424271
0.116066
0.0383895
0.0762777
0.114491
0.390856
0.239465
0.112837
0.151618
0.0990578
0.119265
0.163007
0.0419338
0.00636447
0.100921
0.0696604
0.0335936
0.203671
0.160048
0.142367
0.0332165
0.0110759
0.00581276
0.0384478
0.0290169
0.0307532
0.113239
0.0670016
0.0776585
0.0573269
0.133818
0.0226312
0.277765
0.158212
0.0726375
0.184336
0.0866788
0.121015
0.316307
0.214305
0.011555
0.0645498
0.045396
0.0512554
0.0896861
0.0372616
0.199396
0.59414
0.0140132
0.0113947
0.0221665
0.00687164
0.00199085
0.0322701
0.082752
0.0620852
0.0387024
0.0143685
0.00655592
0.00356769
0.00166902
0.00301138
0.0968983
0.373856
0.212575
0.0246125
0.2202
0.0183378
0.0307966
0.00881808
0.00331808
0.0102467
0.0179175
0.0736566
0.473004
0.369966
0.02245
0.00506793
0.00942487
0.0210797
0.0238262
0.11859
0.15863
0.469606
0.00160227
0
0
0.00217823
0.00836405
0.0717148
0.262196
0.186989
0.0115994
0
0
0
0.00899427
0.0977129
0.468477
0.353737
0.131527
0.00622565
0.139028
0.0236773
0.00885357
0.0326375
0.0418743
0.108606
0.111601
0.103887
0.136481
0.0804403
0.022112
0.0147559
0.110329
0.307166
0.481631
0.0945937
0.0375979
0.0454582
0
0.000926347
0.013103
0.00562373
0.0992943
0.398728
0.122719
0.0156583
0
0
0.0849425
0.187617
0.031156
0.0569558
0.174797
0.044887
0.00448756
0
0.0545171
0.0209067
0.0376273
0.0362749
0.235896
0.374526
0.0528073
0.0136748
0.0217387
0.0739089
0.196496
0.61358
0.072208
0.0766815
0.156974
0.0709851
0.0204254
0.0138535
0.278444
0.126256
0.00953494
0.00121812
0
0
0
0.00353288
0.231341
0.252797
0.449486
0.101535
0.0205518
0.00150869
0.00259742
0.00317463
0.0130957
0.0356728
0.297438
0.126265
0
0
0
0
0.00137513
0.0693345
0.16592
0.286853
0.242555
0.0195049
0.0226304
0.00251449
0.0263137
0.0691109
0.197752
0.133499
0.0185235
0.0773882
0.0529895
0.148405
0.0579444
0.00663976
0.00274177
0.00318267
0.00201487
0.000981259
0.0151721
0.0281463
0.522502
0.322867
0.0235667
0.00679907
0.000384411
0.000241001
0.0241905
0.0353218
0.0134576
0.0783428
0.115014
0.104316
0.0524994
0.0316491
0.0296188
0.00163543
0.00609443
0.00717327
0.206991
0.556
0.324769
0.0394146
0.00313292
0.003847
0
0
0.0296741
0.312717
0.195751
0.0254759
0.012779
0
0
0.00858287
0.0659602
0.244144
0.454462
0.0998927
0.0181655
0.00766741
0
0.00134905
0
0
0.0106627
0.126887
0.312985
0.191474
0.0332212
0
0
0
0.00916599
0.105776
0.381318
0.335337
0.253175
0.108014
0.0056542
0
0.132184
0.252041
0.275807
0.282519
0.0475668
0.00927696
0.00307331
0.00999029
0.0129992
0.264815
0.311737
0.094951
0.0435471
0.0229929
0.0135895
0.0467836
0.141798
0.132285
0.0532582
0.0450574
0.131819
0.296895
0.257896
0.208578
0.182151
0.088948
0.0172969
0.134895
0.0795538
0.0650218
0.0601522
0.057551
0.0573847
0.160995
0.266402
0.22099
0.0630859
0.0607669
0.024909
0.0160545
0.0663491
0.0280888
0.073644
0.145948
0.132616
0.157487
0.0124538
0.0828713
0.0518454
0.0822037
0.0693901
0.0593159
0.140396
0.4428
0.138306
0.0611816
0.0368578
0.00354725
0.00947845
0.00401268
0.0509831
0.111402
0.208842
0.459389
0.0760775
0.0315114
0.00398242
0.011596
0.00972831
0.0285086
0.0737086
0.542092
0.145291
0.00263435
0.022188
0.0107032
0.00756727
0.0145669
0.00703555
0.0299313
0.278932
0.242981
0.00071689
0.00326879
0.00184857
0.00216679
0.0020306
0.00279047
0.0303432
0.403917
0.277837
0.00968675
0.00132092
0.000233104
0.000742909
0.00171603
0.000895209
0.0081278
0.354114
0.393622
0
0
0
0
0
0
0.00175766
0.515169
0.203418
0.000833709
0.00126834
0.000340349
0.000153938
0.000102625
0.000382009
0.0096702
0.319197
0.223801
0.00537713
0.00102614
0.00116188
0.00265838
0.0021363
0.00590964
0.00999982
0.423794
0.299791
0
0
0
0
0
0.000673355
0.00415703
0.394437
0.323183
0.044364
0.00847764
0
0
0
0.0259345
0.0315456
0.470051
0.212346
0.0300648
0.0150366
0.0199953
0.014951
0.026886
0.0137315
0.0203348
0.448929
0.185073
0.0624476
0.0224609
0.0661439
0.133068
0.112188
0.00697435
0.0336542
0.231495
0.244216
0.175738
0.0830159
0.0021598
0.00814001
0.000466498
0.0403366
0.0425615
0.503645
0.148404
0.210598
0.113832
0.0678581
0.107245
0.0386858
0.00532708
0.053527
0.302239
0.13573
0.136448
0.0265185
0.0364629
0.121263
0.117362
0.0118494
0.0155429
0.082513
0.167098
0.440011
0.454995
0.0710541
0.0386741
0.0504899
0.0214667
0.00943648
0.0365868
0.0963839
0.195315
0.0414154
0.125569
0.101398
0.089955
0.0346949
0.0268451
0.0753773
0.113207
0.440856
0.152444
0.171462
0.0565928
0.109358
0.214572
0.0417319
0.0218397
0.294434
0.117051
0
0
0.00017504
0.00157536
0.00635306
0.129567
0.0838559
0.174781
0.0452386
0.00910533
0.00315025
0.00400685
0.0396577
0.10014
0.357677
0.205303
0.290196
0.0817674
0
0
0.00122528
0.0110275
0.00753515
0.144118
0.262706
0.188733
0.083961
0.0175332
0
0.0403087
0.108879
0.0635496
0.325842
0.27294
0.00941789
0.0105461
0.00743594
0.00554169
0.0812108
0.132092
0.0513607
0.0373763
0.0449127
0.000215271
0.00545302
0.00446156
0.0108445
0.318103
0.49368
0.047334
0.00197569
0.00612281
0.00932997
0.0235195
0.0131016
0
0.0995241
0.152732
0.0249476
0.0376388
0.0348263
0.000144503
0.00966177
0.00753713
0
0.193555
0.647601
0.198316
0.00224985
0.00432932
0
0
0.00390629
0.0206273
0.196556
0.311441
0.0440215
0
0
0
0
0.00916131
0.065206
0.179238
0.305237
0.25148
0.0508732
0
0
0
0.00218662
0.00655985
0.10745
0.458965
0.281823
0.0058754
0
0
0
0.00521596
0.0128539
0.104485
0.299744
0.397131
0.130299
0.00529592
0.0024995
0.000277722
0.00382357
0.0265516
0.0710839
0.135472
0.255868
0.183806
0.00778413
0.0163005
0.0317411
0.0182708
0.0069512
0.0141795
0.0268666
0.173027
0.333048
0.0910815
0
0
0.0037147
0.0052237
0.0159337
0.0601789
0.309017
0.29303
0.0231182
0.0594466
0.0143156
0.00917226
0.00350089
0
0.0044628
0.291717
0.593907
0.15255
0.0643309
0.0914762
0.088046
0.042784
0
0
0.0254631
0.107611
0.0786297
0.304835
0.190027
0.147656
0.103306
0
0
0.000384265
0.00619238
0.179468
0.181613
0.153845
0.118132
0.0695106
0
0
0.0660004
0.245882
0.138298
0.2342
0.40022
0.497851
0.237578
0
0
0.000640442
0.0182201
0.083154
0.28634
0.0543466
0.0266736
0.0178125
0
0
0
0
0.215576
0.476386
0.00681631
0.00130118
0.000229621
0
0
0
0
0.379035
0.245304
0.146056
0.164513
0.0536227
0
0
0
0.000740262
0.106866
0.503884
0.0459328
0.020427
0.00301045
0
0
0
0.00123377
0.238957
0.34039
0
0
0
0
0
0.000297024
0.00168314
0.3084
0.488216
0.048177
0.00584672
0
0
0.000335265
0.012781
0.0142116
0.275903
0.330076
0.00295197
0.00866705
0.00308938
0.00165679
0
0
0.00157924
0.235153
0.423897
0.0191915
0.0188024
0.0058734
0.0115976
0.00234686
0.00938743
0.00336793
0.26114
0.371753
0.1474
0.0558385
0.0059577
0.0114552
0.0107894
0.0339412
0.0297193
0.226763
0.0801589
0.116848
0.140616
0.17724
0.120547
0.0405903
0.0260301
0.0344852
0.135091
0.308886
0.0481714
0.106837
0.0278102
0.0108304
0.0668203
0.0606022
0.0298243
0.221089
0.0536454
0.0296191
0.338942
0.528425
0.0533223
0.107435
0.0582171
0.044305
0.098038
0.00546713
0.0254324
0.0951029
0.143102
0.0598524
0.0589651
0.068141
0.0499014
0.00931978
0.00565768
0.0353044
0.0539931
0.0727633
0.0196333
0.0852037
0.42938
0.101571
0.000161891
0.000549175
0.00157209
0.163632
0.383473
0.0376141
0.0197349
0.093433
0.107296
0.00448102
0
0
0.0537281
0.115594
0.0140446
0.0288329
0.645386
0.224733
0.0022817
0.233774
0.0683089
0.00199307
0.0158844
0.000642234
0.00665229
0.00622185
0.0533279
0.385005
0.254037
0.0907963
0.00628544
0
0.0456821
0.0791869
0.0271719
0.126369
0.317627
0.236259
0.135111
0.00332179
0.026474
0.00145821
0.0209315
0.029273
0.0782266
0.246418
0.13703
0.0498695
0.00559715
0.0095035
0.0191964
0.104024
0.100324
0.165772
0.230755
0.0228447
0.0193452
0.00450511
0
0.0913393
0.159272
0.0212091
0.0313848
0.027622
0.000741801
0.00340566
0.00209157
0
0.108189
0.597289
0.404324
0.0442528
0.00180153
0.0171372
0.0108131
0.00377514
0.00378435
0.0271228
0.0942153
0.0315954
0.0677663
0.0284773
0.0116038
0.00672759
0.0028956
0.000540621
0.0281213
0.292118
0.344341
0.245096
0.0112222
0
0
0
0
0.0125562
0.196115
0.326072
0.0249438
0
0
0
0.00364816
0.00445886
0.0174076
0.157711
0.358149
0.122586
0.00452251
0.000640272
0.000213063
0.000158985
0
0.00140988
0.111056
0.38109
0.0899077
0.0014851
0
0
0.00218889
0.00267531
0
0.0936992
0.595616
0.278455
0.000646074
0
0
0.0117954
0.0144166
0.00550332
0.0893313
0.175774
0.210877
0.0496257
0.123888
0.00517506
0.00737912
0.00864996
0.000581092
0.0319147
0.140274
0.390608
0.253268
0
0
0.00707724
0.00864996
0
0.0871694
0.287056
0.413354
0.0501495
0.0875667
0.00207866
0.00424634
0.00518998
0.00406764
0.0735022
0.216661
0.458061
0.193054
0.339539
0.191631
0.052423
0.0153691
0.00198355
0.00528696
0.0386717
0.161899
0.199556
0.233316
0.464009
0.361039
0.0740866
0.00137648
0.00667027
0.00353303
0.00907604
0.0374475
0.21531
0.0787117
0.00681954
0
0.0138848
0.0558187
0.132771
0.138502
0.183763
0.263456
0.194087
0.0678217
0
0.00963534
0.0502284
0.0324279
0.0208033
0.166769
0.14545
0.292843
0.326864
0.0476761
6.38096e-005
0.00219656
0.00287327
0.0135507
0.0722239
0.302219
0.0983724
0.0553345
0.0087456
0
0
0.00098917
0.0382643
0.167993
0.31216
0.0921487
0.0615259
0
0.000446667
0.0153759
0.0195855
0.0270523
0.241057
0.305674
0.141117
0.0914507
0.00263981
0
0
0.00323272
0.0782471
0.446425
0.138272
0.0392719
0.0292589
0.0128406
0.00477566
0
0.000160653
0.015142
0.0956494
0.146057
0.15083
0.129716
0.030939
0.0334296
0.00184696
0.00738784
0.00937898
0.1064
0.174658
0.274731
0.0907523
0.00634101
0.00157272
0
0.000267756
0.0246779
0.108535
0.172203
0.728579
0.323588
0.0177079
0.0110091
0
0
0.00743311
0.0136065
0.0276112
0.127255
0.166635
0.0178731
0.00731563
0.0196571
0.014191
0.00362001
0.026051
0.00351637
0.150278
0.325405
0.26822
0.0125592
0.0295761
0.0109091
0.00485407
0.00659579
0.0175564
0.356178
0.335434
0.0191579
0.0043678
0.000839408
0
5.82316e-005
0.000135874
0.0117772
0.412995
0.511986
0.0968734
0.0220818
0.0108706
0.000744472
0.00129658
0.00388973
0.00293353
0.0542891
0.168925
0.362335
0.0458393
0.0106139
0.0539376
0.0860764
0.00540676
0.00116304
0.00588834
0.0266667
0.113456
0.0384932
0.0609756
0.636962
0.210626
0.00901126
0.0205347
0.225709
0.230783
0.127439
0.0654608
0.0254925
0.0154624
0.0384784
0.0163244
0.00814127
0.0398437
0.0306769
0.0536325
0.150874
0.210865
0.259714
0.0835544
0.013255
0.0863481
0.0351213
0.000462188
0.00368356
0.00149919
0.0204125
0.0561781
0.203925
0.220941
0.0246344
0.0281471
0.00526107
0.00977057
0.00839681
0.0701002
0.172619
0.200162
0.0984171
0.0911918
0.0295627
0.00603598
0
0.0142905
0.0582899
0.154568
0.247369
0.188443
0.0431608
0.0408788
0.0130928
0.0013958
0.0455784
0.221767
0.485705
0.223659
0.0706818
0.031792
0.0446953
0.0163951
0.00994137
0.0301712
0.0499696
0.0731417
0.0900234
0.0260268
0.0532906
0.0411537
0.0191681
0.0014202
0.0501128
0.33211
0.225953
0.30576
0.04489
0.138991
0.107459
0.0160103
0.0014202
0.0399566
0.0939731
0.198037
0.0416539
0.0417885
0.44384
0.226091
0.0214158
0.000202885
0.0475568
0.135325
0.0645555
0.0899005
0.110867
0.0146402
0.00190421
0.000743006
0
0.00324892
0.138594
0.224704
0.101004
0.0390838
0.0232632
0
0
0
0
0.0731785
0.485654
0.396152
0.161834
0.176913
0.0322646
0.00115683
0
0.00267975
0.0502868
0.0438698
0.067303
0.0988957
0.213285
0.0156461
0
0
0.000657054
0.0322589
0.107594
0.304324
0.413027
0.003284
0
0
0
0
0.00863519
0.160478
0.34718
0.111561
0.00617014
0
0
0
0.00126077
0.0451763
0.147437
0.394033
0.245752
0.0254433
0.00103869
0
0
0.00104109
0.0284549
0.0625622
0.327006
0.218897
0.00248968
0
0
0
0.000624651
0.0530788
0.0984289
0.486659
0.335917
0.0506124
0.00291355
0.00015103
0
0.00406342
0.0504968
0.089877
0.107272
0.281805
0.365395
0.0270309
0.00105721
0
0.0028198
0.0196287
0.0158723
0.0181798
0.265961
0.108645
0.0187308
0.00561353
0.000483756
0
0.0266174
0.0493826
0.188118
0.366318
0.560697
0.194131
0.0767534
0.00338629
0
0.00313076
0.00588595
0.0250174
0.249601
0.294828
0.0163888
0.000257532
0
5.34526e-005
0.00184004
0.00233133
0.00240216
0.0952318
0.329518
0.0386243
0.0229481
0
0
0
0.000299595
0.00574328
0.244105
0.447429
0.126732
0.0376711
0.000824884
0
0
0
6.40107e-005
0.0555301
0.639088
0.0753752
0.00949609
0
0
0
0
0.000392766
0.188822
0.271437
0.160372
0.0372125
0
0
0
2.01137e-005
0.00263633
0.127461
0.29139
0.40918
0.0857833
0
0
0
0
0.00134804
0.0214534
0.515294
0.113057
0.00533428
6.13392e-005
0
0
0
0.00524917
0.118001
0.459361
0.215572
0.0143445
0.00287349
0.00367979
0.00479558
0
0.0134306
0.082474
0.161537
0.369244
0.259456
0.0366192
0.0302843
0.00374019
0
0.00294063
0.0141788
0.0340654
0.217881
0.394141
0.0633789
0.186219
0.045778
0.00292092
0.003474
0.00847623
0.24097
0.151413
0.0509638
0.0388779
0.119471
0.0158736
0
0.0220149
0.0871717
0.0430561
0.0373334
0.0716303
0.0802437
0.554743
0.0399966
0.00175255
0.0114853
0.0189735
0.0160889
0.157085
0.214282
0.0397441
0.241211
0.107195
0.0155849
0.0140667
0.0278582
0.00637869
0.0312938
0.0172852
0.0286889
0.218193
0.367684
0.141156
0.0206845
0.0167149
0
0.000516682
0.0292483
0.0736192
0.56236
0.111189
0.0109356
0.00132658
0.00397975
0
7.38118e-005
0.00873936
0.0507226
0.184044
0.335375
0.141463
0.00753973
0.00238785
0.163539
0.0941887
0.0196149
0
0.0238953
0.0501998
0.0574767
0.0488473
0.0531083
0.10632
0.139212
0.0452771
0
0.10201
0.173771
0.2306
0.0640999
0.0541086
0.291203
0.170138
0.0338898
0.000709304
0.00893458
0.00595577
0.00238186
0.00901776
0.0866997
0.385525
0.389333
0.0874877
0.00118217
0.0532197
0.0184491
0.0231379
0.0424979
0.0882737
0.105463
0.180268
0.0660148
0.000539719
0.0246365
0.0419281
0.0744723
0.0118832
0.0357229
0.324308
0.330731
0.113193
0.00377803
0.00296655
0.00373383
0.0103802
0.00919803
0.054007
0.187278
0.341479
0.146014
0.00388731
0.0129757
0.00375649
0.00860484
0.0121601
0.0371498
0.171786
0.393966
0.280777
0.0264462
0.00492729
7.00876e-005
0.00911962
0.00593342
0.0440548
0.391742
0.167271
0.0333259
0.00138239
0.00140346
0.00106212
0.0108892
0.0285814
0.121327
0.348576
0.0620051
0.00661562
0
0.0129093
0.0844182
0.153216
0.220548
0.388002
0.149091
0.189841
0.0811236
0.00967675
0.0203508
0.000551567
0.0250138
0.0106868
0.0607998
0.115779
0.0820429
0.017538
0
0.110154
0.176854
0.176243
0.0517785
0.0962318
0.0322546
0.00277182
0
0
0.0240803
0.182522
0.160548
0.206447
0.149221
0.0066439
0
0
0.00202133
0.0526937
0.236212
0.27876
0.366943
0.158796
0.00769448
0.00751308
0.00112817
0
0.1978
0.26944
0.112614
0.0165847
0.0125768
0.000949129
0
0
0.0193841
0.385327
0.33035
0.141907
0.0207859
0.0111539
0.124547
0.0638751
0.0305078
0.0240023
0.0265043
0.0464743
0.132945
0.205963
0.208043
0.384691
0.363852
0.318178
0.0800474
0.0537857
0.0253615
0.030539
0.0406807
0.123444
0.0143053
0.0255936
0.0268174
0.112699
0.193748
0.0821036
0.0853464
0.0331931
0.0313831
0.0240918
0.0787845
0.242781
0.276648
0.256558
0.0690001
0.0335777
0.0228717
0.03301
0.358654
0.247366
0.178893
0.0188213
0.0204614
0.0235004
0.0298084
0.00393145
0.0181455
0.71452
0.142493
0.0490646
0.000252482
0.001719
0.0105653
0.0279683
0.008506
0.095867
0.027458
0.0483611
0.136051
0.0624356
0.0784394
0.0861643
0.057832
0.0355683
0.0491865
0.125647
0.061764
0.0486495
0.00176737
0.006007
0.062766
0.0567329
0.0486148
0.120498
0.681456
0.13082
0.0394197
0.000700113
0
0.00110418
0.00336061
0.0313618
0.116704
0.39428
0.152861
0.0739571
0.0586914
0.0174212
0.0201362
0
0.0456884
0.137567
0.121374
0.102501
0.0794655
0.00145436
5.44364e-005
0.00772924
0.00734355
0.0213828
0.0922265
0.0406492
0.110127
0.109701
0.139703
0.0163794
0.0028766
0
0.00928003
0.0272417
0.0479589
0.0180615
0.0216403
0.0818392
0.127157
0.0172684
0
0.0119916
0.0422552
0.00733734
0.0017815
0.00740284
0.18172
0.537106
0.0104918
0
0.00549675
0.00872374
0.00199207
0.0108326
0.0353416
0.190266
0.131298
0.00240445
0
0.000272182
0.000896829
0
0
0.0148152
0.337079
0.606507
0.00106159
0
0
0
0
0
0
0.165056
0.411692
0.0173448
0.000821903
0
0
0
0
0.0265787
0.190074
0.160766
0.0880794
0.0292587
0.000823967
0
0
0
0
0.22624
0.563419
0.000250235
0
0
0
0
0
0.0303873
0.337548
0.318493
0.00493311
0
0
0