0
0
0
0
0
0
0
0
0
0
0
0
0
0
0
0
0
0
0
0
0
0
0
0
0
0
0
0
0
0
0
0
0
0
0
0
0
0
0
0
0
0
0
0
0
0
0
0
0
0
0
0
0
0
0
0
0
0
0
0
0
0
0
0
0
0
0
0
0
0
0
0
0
0
0
0
0
0
0
0
0
0
0
0
0
0
0
0
0
0
0
0.000613551
0.00184065
0
0
0
0
0
0
0.0407696
0.0843601
0.0173966
0.0406078
0
0
0
0
0.0318735
0
0
0
0
0
0
0
0
0
0
0
0.00476214
0.00884397
0.104459
0
0
0
0
0.153961
0.0626466
0.00210573
0.0092423
0
0
0
0
0.0603952
0.583909
0.401983
0.148682
0.0632281
0.11114
0
0
0
0.19954
0.00159739
0.0161334
0.0382864
0.0608507
0.0847756
0.00194239
0
0
0
0.104835
0.252701
0.240842
0.238559
0.160251
0.0178584
0.000280825
0.00252743
0
0.0455232
0.119101
0.113617
0.119213
0.186692
0.0135968
0
0
0.00864797
0.0706021
0.193803
0.330116
0.423506
0.504172
0.181139
0.00196577
0.017692
0.0100748
0.220678
0.244866
0.218774
0.158001
0.13244
0.024911
0.00633926
0.00868311
0.00674577
0.214724
0.128411
0.199538
0.159747
0.255928
0.107697
0.0411902
0.0171989
0.0145964
0.215536
0.184812
0.217456
0.167386
0.179943
0.132436
0.00529652
0.0697868
0.0994627
0.272198
0.160731
0.124504
0.0676218
0.0882038
0.0787885
0.0627151
0.27493
0.29066
0.129036
0.053316
0.11115
0.16389
0.194972
0.0680651
0.0342298
0.0239792
0.0261126
0.139534
0.0363545
0.0375466
0.0695619
0.0511191
0.0236137
0.187422
0.26114
0.240365
0.0800669
0.0364912
0.0374297
0.110942
0.126192
0.152508
0.100431
0.359583
0.225346
0.0771606
0.0498878
0.0311932
0.0806963
0.0673164
0.149303
0.129271
0.464372
0.298586
0.142961
0.0458018
0.0172831
0.00467331
0.00784778
0.0126513
0.170381
0.24912
0.369366
0.256919
0.0754704
0.146647
0.046537
0.0784861
0.0511131
0.134981
0.151287
0.224007
0.107995
0.0506775
0.0667115
0.00887856
0.010112
0.0267074
0.100643
0.253569
0.376401
0.24011
0.0868363
0.129156
0.0180664
0.0176558
0.00238588
0.152099
0.227504
0.262467
0.12183
0.0345603
0.167485
0.117214
0.247307
0.103425
0.0791252
0.0825603
0.0636804
0.097976
0.0935465
0.0809461
0.0673582
0.134634
0.0506414
0.0348066
0.167336
0.264067
0.19307
0.131272
0.268997
0.122394
0.125067
0.0489407
0.0701853
0.107766
0.0858111
0.144402
0.425774
0.316905
0.19449
0.135629
0.115086
0
0.0171215
0.067252
0
0
0
0
0
0
0
0
0
0
0
0
0
0
0
0
0
0
0
0
0
0
0
0
0
0
0
0
0
0
0
0
0
0
0
0
0
0
0
0
0
0
0
0
0
0.0145969
0
0
0
0
0
0
0
0.00898665
0
0
0
0
0.0221329
0
0
0
0
0.11945
0.346811
0.203776
0.129475
0.15493
0
0
0
0.0536191
0.0049476
0.00161646
0.00147738
0
0
0
0
0
0.00177819
0.0317986
0.0837018
0.0233221
0.00379007
0
0
0
0
0.00474333
0.0325924
0.114893
0.105569
0.00753019
0.00331483
0
0
0
0.00620774
0.127022
0.810178
0.462482
0.00334978
0
0
0
0
0.00742217
0.0553182
0.106902
0.00764347
0.00172591
0
0
0
0
0.00599484
0.18906
0.251033
0.00960088
0.00181113
0.000892408
0
0
0
0.0234989
0.195286
0.511456
0.11122
0.00103555
0
0
0
0
0.00254924
0.511456
0.511456
0.0113548
0.000147935
0
0
0
0
0.0104376
0.188623
0.259483
0.0564797
0.0282936
0.0246274
0.00269624
0
0
0.0143903
0.166851
0.165028
0.145546
0.122242
0.08528
0.0717743
0.0215542
0.0245208
0.0268609
0.504102
0.446219
0.0138131
0.00322856
0
0
0
0
0.0439323
0.439224
0.157562
0.0686282
0.0222925
0.0253319
0.0524112
0.0402599
0.132472
0.190319
0.100448
0.060606
0.0750943
0.0723009
0.0518426
0.124079
0.0268024
0.0742874
0.0590112
0.143551
0.0605242
0.0165539
0.0195796
0.0210796
0.0855323
0.0376086
0.259523
0.297367
0.111261
0.0346626
0.0397772
0.024895
0.0700838
0.189344
0.0975231
0.382937
0.113621
0.112014
0.0419152
0.00788653
0.0109376
0.0498752
0.152007
0.121135
0.568499
0.3132
0.0326058
0.00821414
0
0.00322491
0.0050411
0.0233431
0.0567101
0.248988
0.227351
0.0180055
0.00660665
0.0056716
0.00342682
0.004912
0.019868
0.132949
0.393655
0.138478
0.0412417
0.00724009
0
0
0.00210163
0.00782153
0.153457
0.440804
0.255413
0.0293879
0.00497625
0.00044346
0
0
0.00413345
0.290962
0.479837
0.201529
0.102783
0.0247981
0.0317462
0.00130694
0.00226784
0.00598972
0.0876214
0.311778
0.100605
0.151139
0.0419079
0.0432768
0.00251968
0.00124949
0.00524738
0.0516778
0.122306
0.11795
0.12664
0.0163239
0.00389784
0.00474051
0.0178604
0.0768899
0.23487
0.664697
0.183687
0.133897
0.0271002
0.0473867
0.0386895
0.108761
0.152723
0.162819
0.300953
0.146321
0.12538
0.0733089
0.0834087
0.0436226
0.0379572
0.0442371
0.0300664
0.0740201
0.0644307
0.0885727
0.29931
0.217154
0.129526
0.10036
0.0874417
0.00173996
0.0403383
0.0331779
0.0801081
0.0473675
0.100601
0.0766916
0.149638
0.179057
0.0820893
0.132895
0.073504
0.0710544
0.328316
0.46903
0.389405
0.193246
0.158297
0.0121797
0.131426
0.0209996
0
0
0
0
0
0
0
0
0
0
0
0
0
0.00178452
0
0
0
0
0
0
0
0
0
0
0
0
0
0
0
0
0.0499522
0.0668026
0
0
0
0
0
0.000829929
0.0014775
0.00128725
0.00491885
0
0
0
0
0.00373241
0.0390824
0.140307
0.06105
0.0333242
0
0
0
0.00118395
0
0.00505521
0.0355008
0.0607646
0.0166252
0
0
0
0
0.000235798
0.0395549
0.869564
0.351662
0.0470346
0
0
0
0
0.00572562
0.0779689
0.218348
0.0240395
0.00461443
0
0
0
0.000738467
0.0365273
0.398066
0.437405
0.0120906
0
0
0
0
0.000809036
0.000242016
0.0636042
0.490413
0.0929106
0.00575852
0
0
0
0
0.0361314
0.214849
0.490413
0.0685887
0.00388748
0
0.00067124
0.00124659
0.00186517
0.165249
0.551225
0.210077
0.0041731
0
0
0
0.000102498
0.00157861
0.360798
0.502432
0.0189186
0.00414583
0
0
0
0.000717486
0.00789554
0.0835664
0.236976
0.212663
0.032919
0.00205404
0
0.00262064
0.00558439
0.0101519
0.165723
0.195945
0.0703252
0.0176534
0
0
0.00157238
0.0180546
0.0789813
0.532489
0.332576
0.0157817
0.00299519
0.00666827
0
0
0.00164802
0.0645626
0.361784
0.0688173
0.0584356
0.0298755
0.125882
0.0889586
0.0223891
0.140557
0.264137
0.260318
0.105125
0.0413643
0.00784742
0.013736
0.00214545
0.0254336
0.11352
0.233338
0.0745602
0.0388712
0.104859
0.0596955
0.134064
0.0614139
0.0723366
0.186988
0.169069
0.0325333
0.00248922
0.0132405
0.0179504
0.110527
0.153918
0.114405
0.240588
0.0967394
0.0134454
0.00284767
0.000169251
0.00256435
0.0491544
0.103739
0.240692
0.619678
0.233867
0.0116834
0.0385479
0.0825784
0.0368607
0.0947514
0.080671
0.0757485
0.0843098
0.0521909
0.0385898
0.0388159
0.0405444
0.00598411
0.0391509
0.0494038
0.14427
0.34664
0.34744
0.00536678
0.000605943
0
0
0.000260923
0.00456478
0.187867
0.322221
0.108192
0.0159869
0.00894219
0
0
0
0.0103075
0.218873
0.437953
0.132488
0.0204488
0.00264139
0.000854533
0
0
0.00226921
0.109203
0.270063
0.247664
0.0486268
0.00536532
0
0
0
0.00618448
0.129494
0.449901
0.422727
0.028107
0.0164507
0
0.0130152
0.0674191
0.0971911
0.128955
0.344514
0.0903087
0.0193675
0.0296436
0.0414747
0.0581595
0.275565
0.1568
0.0783605
0.109002
0.0301853
0.0676727
0.0399907
0.00135014
0.0174318
0.105713
0.0494509
0.0816369
0.517425
0.311013
0.0720581
0.0679394
0.0257256
0.0608716
0.392084
0.101822
0.0458039
0.25738
0.163022
0.00598045
0.0340387
0.0804719
0.0866491
0.195811
0.0843285
0.019635
0.0321977
0.0101691
0.00668917
0.0557979
0.186304
0.433245
0.233428
0.0453769
0.00889306
0.0288132
0.0010352
0.0152937
0.0310659
0.0436002
0.0965083
0.29476
0.0818434
0.0165739
0.161367
0.0521168
0
0.00274306
0.0351253
0.392725
0.4979
0.188305
0.101397
0.0429441
0.00593606
0
0
0
0
0
0
0
0
0
0
0
0.0012672
0.103252
0.0740472
0
0
0
0
0
0
0
0
0.00151564
0
0
0
0
0
0
0.128044
0.658934
0.268133
0
0
0
0
0
0.000871793
0.0232449
0.0981669
0.0331573
0
0
0
0
0
0.00407534
0.429076
0.455463
0.0540068
0
0
0
0
0
0
0.0773396
0.312258
0.0686145
0
0
0
0
0.00173968
0
0.251168
0.583893
0.156465
0.00237994
0
0
9.15627e-005
0
0.0140586
0.517632
0.279548
0.0150871
0.000412207
0.000412207
0
0
0.0262937
0.0579147
0.364407
0.0983052
0.0157094
0.000687011
0.0015415
0.0015869
0.000873474
0.00470585
0.0253799
0.179878
0.517632
0.0819736
0.00932319
0.00288545
0
0.000247677
0.0248247
0.19335
0.305462
0.124895
0.029156
0.00867173
0.00493115
0.0002267
0.000148606
0.0390706
0.122044
0.220428
0.0310873
0.00697728
0.000129779
0.0033719
0.00634763
0.00462035
0.137028
0.208468
0.311012
0.0271907
0.00710079
0.0038235
0.0114013
0.0344139
0.0560057
0.0311272
0.394349
0.430753
0.0333384
0.00642972
0.0117749
0.00323477
0.010018
0.0111929
0.0671591
0.389983
0.442172
0.0679783
0.0270177
0.0634775
0.0216203
0.0370359
0.0241584
0.180605
0.0916929
0.10732
0.0296472
0.0741163
0.0189588
0.0662638
0.14503
0.134313
0.0302548
0.0361149
0.143245
0.138422
0.165805
0.0454155
0.108357
0.165045
0.0835423
0.100633
0.218975
0.349317
0.113538
0.133105
0.0684454
0.0616155
0.078811
0.0276577
0.101728
0.0795772
0.326738
0.414211
0.403886
0.0916358
0.0824737
0.0557879
0.0216125
0.0359881
0.113681
0.222806
0.094168
0.0626558
0.0171887
0.0231393
0.0358091
0.0321182
0.145457
0.136273
0.128763
0.0313461
0.0158836
0.00344346
0.011854
0.111831
0.392991
0.0681149
0.0935229
0.213625
0.320097
0.205386
0.0903647
0.0826685
0.0550168
0.0336648
0.196686
0.122335
0.121707
0.162311
0.0401997
0.0380028
0.0819468
0.142711
0.526073
0.0788305
0.00982076
0.00282618
0.000964703
5.07738e-005
0
0.00709291
0.0894116
0.344271
0.161806
0
0.00196008
0.000840035
0
0
0.0482067
0.230495
0.490838
0.143042
0.00918443
0.00300196
0.00675292
0.000355417
0
0.00591478
0.0296441
0.426087
0.247178
0.0286194
0.0137206
0.00588024
0.000754822
0.0143416
0.018976
0.0513932
0.474952
0.0794797
0.0370472
0.0531849
0.0197166
0.0581101
0.0058709
0.0765994
0.303284
0.332738
0.0340108
0.102719
0.151298
0.0732323
0.150961
0.0686518
0.0866278
0.270563
0.16054
0.106495
0.0815668
0.162848
0.0732527
0.0805536
0.097557
0.0437405
0.0922768
0.2348
0.0325617
0.160957
0.405821
0.17637
0.205726
0.338475
0.128028
0.129255
0.0567367
0.0061985
0.0319834
0.0509447
0.0417178
0.11004
0.176776
0.0719343
0.176799
0.0253242
0.00553382
0.0134489
0.0241069
0.0658729
0.172842
0.251674
0.129963
0.0473822
0.00192739
0.0345994
0.0559364
0.142972
0.108284
0.127596
0.605057
0.139166
0.107196
0.00476094
0.064867
0.0416925
0.0688407
0.168169
0.0935099
0.470614
0.117497
0.0286775
0.00512845
0
0
0
0
0.00709125
0
0
0
0
0
0
0.0606822
0.38669
0.144091
0
0
0
0
0
0
0
0
0.0348888
0
0
0
0
0
0
0.0312068
0.485957
0.65185
0.141305
0.0702748
0.0151169
0
0
0
0.138179
0.326228
0.056035
0.011717
0
0
0
0.00953051
0
0.271619
0.513057
0.0769417
0.0312219
0
0.00797861
0.0108964
0
0
0.0879033
0.272296
0.222746
0.138587
0.110744
0.0413385
0
0.0602129
0
0.208086
0.339835
0.136928
0.227467
0.213419
0.160293
0.0870155
0.0228859
0.063416
0.167739
0.388069
0.0606421
0.0185183
0.0013423
0.0105992
0.0150136
0.0297946
0.300403
0.41415
0.111844
0.0226021
0.00712161
0.00223716
0.00151418
0.0061432
0.114444
0.0376069
0.157601
0.327145
0.0949743
0.06729
0.0779862
0.0797509
0.134225
0.175199
0.235925
0.265049
0.313636
0.174017
0.0208586
0.00377649
0.00272239
0.0474428
0.0379139
0.278585
0.29878
0.0284229
0.00587831
0.0314506
0.0087636
0.0166832
0.0378549
0.0658657
0.185179
0.126869
0.0509044
0.036199
0.164337
0.0397787
0.0739762
0.107759
0.322984
0.177753
0.129978
0.0601761
0.0483468
0.0272786
0.0120262
0.0205324
0.131202
0.589193
0.0465352
0.0191487
0.00732189
0.0183293
0.0980574
0.0713739
0.124496
0.319
0.0966002
0.0672175
0.0994615
0.0298276
0.0231682
0.0666904
0.0222342
0.0413325
0.107052
0.255775
0.0367259
0.0818963
0.0730804
0.099267
0.0371798
0.0279093
0.0163296
0.158649
0.4116
0.0144984
0.0109859
0.00236194
0.00559783
0.0389399
0.0254012
0.0589189
0.258368
0.531131
0.0163341
0.00782862
0.00162584
0.00937265
0.0079764
0.0133461
0.012964
0.512783
0.148746
0.0147886
0.020049
0.0678384
0.0743362
0.0558724
0.0719537
0.0565594
0.126184
0.123728
0.00847396
0.0088209
0.0379903
0.0128651
0.0254304
0.0629279
0.102978
0.3688
0.352361
0.00631998
0.000612757
0.00044837
0.00662487
0.00798177
0.0262363
0.0251571
0.420028
0.318556
0.000632706
0
0
0.000670982
0.00363291
0.0181688
0.0391698
0.557688
0.148104
0.00107643
0.000461328
0.0029799
0.000156837
0
0.00504457
0.0246543
0.398328
0.185941
0.0476548
0.0110799
0.00385113
0.000905418
0.0195759
0.0359417
0.0532004
0.375258
0.273951
0.00328877
0
0
0
0
0.000550194
0.0218188
0.497181
0.239049
0.0364651
0.020108
0.00271138
0.000129345
0.00641254
0.11755
0.180836
0.389379
0.1129
0.078166
0.0633764
0.0306059
0.0591008
0.172598
0.097702
0.0492083
0.0889034
0.106072
0.0659025
0.138813
0.102954
0.171281
0.376869
0.229226
0.081407
0.0694343
0.0791262
0.0412559
0.05504
0.00740819
0.00844297
0.0945633
0.253235
0.262894
0.0947696
0.106694
0.0673862
0.0849713
0.0222902
0.0244687
0.179648
0.382809
0.431136
0.180635
0.125661
0.0709226
0.0767528
0.142586
0.131148
0.333249
0.102191
0.0451424
0.0869917
0.103975
0.0691458
0.040919
0.168349
0.119443
0.264862
0.0475404
0.0443069
0.0589969
0.230927
0.186978
0.0768452
0.0730471
0.0403116
0.0591278
0.119444
0.224123
0.236611
0.422024
0.193376
0.0419828
0.0792407
0.0586548
0.0510976
0.0318783
0.117194
0.361744
0
0
0
0
0.0432717
0
0
0
0
0
0
0
0.152763
0.650641
0.299906
0.332388
0.0800792
0
0
0
0
0
0.00981362
0
0
0
0
0
0
0
0
0.101535
0.094474
0.283768
0.0480475
0
0
0
0.0044913
0.0407471
0.117694
0.125966
0.216066
0.0976875
0
0.045348
0
0.0162142
0.0421563
0.121712
0.245881
0.427466
0.266041
0.0805081
0
0
0
0
0.0957735
0.084034
0.136488
0.0494258
0
0.00715575
0
0
0
0.434801
0.457587
0.263373
0.115771
0.0238498
0.0877967
0.00157246
0.0147737
0.104622
0.131408
0.124255
0.163923
0.0935477
0.13119
0.124275
0.0922971
0.0626868
0.166957
0.269172
0.160692
0.030219
0.00458379
0.0533655
0.0189064
0
0
0.013076
0.287124
0.343918
0.202138
0.0922722
0.0651837
0.0236856
0.0411257
0.0241059
0.052239
0.221816
0.43457
0.416323
0.0760677
0.0406055
0.21113
0.130546
0.0480158
0.0454213
0.104531
0.0709031
0.0354115
0.0198811
0.0773742
0.358771
0.0569522
0.00874477
0.00506774
0.0127174
0.0978027
0.14304
0.105621
0.162508
0.0521576
0.076356
0.0270351
0.0447392
0.112596
0.230099
0.461071
0.072724
0.0230407
0.0857721
0.0404721
0.0158244
0.021929
0.0217589
0.239012
0.508622
0.162918
0.0484004
0.302804
0.0269533
0.0145594
0.00894832
0.0184264
0.0917679
0.0889576
0.0611178
0.112549
0.44127
0.020551
0.0186366
0.0177125
0.018108
0.0291853
0.026984
0.00711393
0.310035
0.0749859
0.0165168
0.0392929
0.0345861
0.0687803
0.265976
0.454693
0.0784462
0.0198977
0.231796
0.0181376
0.0460496
0.0927902
0.215592
0.201327
0.256499
0.0138114
0.0704581
0.365539
0.00292606
0.0032955
0.0046149
0.00313312
0.00100701
0.00187016
0
0.336402
0.451069
0.00142011
0.000176804
0.000216093
0
0
0
0
0.440982
0.254636
0.019652
0.0148484
0.0549331
0.0798507
0.0278409
0.0176738
0
0.130284
0.400114
0.0274629
0.00527295
0.0155792
0.00260513
0.000664571
0.00293795
0.000313992
0.191968
0.463999
0.0151408
0
0
0
0
0
0.00708784
0.358698
0.352697
0.0912404
0.0515267
0.00306097
0.00676969
0.010132
0.0585066
0.143092
0.301466
0.397696
0.0222565
0.000649347
0.00160628
0.00187962
0.00198616
0.00633863
0.00376117
0.158239
0.286525
0.0859581
0.0580779
0.0519413
0.0457053
0.0209726
0.00568657
0.0333802
0.213077
0.0381441
0.0319454
0.0888208
0.0619673
0.0172713
0.0208059
0.0710519
0.182187
0.0594477
0.0661304
0.0849085
0.190953
0.162077
0.0382113
0.0636061
0.0882992
0.266031
0.0943649
0.0509228
0.0387346
0.0970483
0.299038
0.144393
0.0364783
0.00188873
0.03738
0.0436275
0.0409214
0.053296
0.178197
0.593324
0.425
0.135005
0.00889189
0.0380786
0.0209951
0.121537
0.113917
0.0749024
0.10435
0.0349768
0.0450876
0.0223423
0.104983
0.11855
0.223476
0.107116
0.0222655
0.0807652
0.029917
0.0195231
0.0106091
0.124176
0.300043
0.116043
0.0483056
0.0734611
0.466512
0.305389
0.108181
0.0101654
0.0356045
0.0869641
0.186276
0.045551
0.0491889
0.242201
0.323763
0.188086
0.0153121
0.201569
0.25687
0
0
0
0
0.00115981
0
0
0
0
0
0
0
0
0.171715
0.0768592
0.185489
0
0
0
0
0
0
0
0
0
0
0
0
0
0
0
0.104177
0
0
0
0
0
0
0
0
0.118908
0.0841155
0.0265992
0.000867524
0
0
0
0
0
0.417528
0.591211
0.257896
0.0890742
0.00344722
0.00139016
0
0
0
0.0394793
0.0490414
0.00853757
0.00607266
0.00139016
0.00706679
0
0
0
0.084827
0.337993
0.377748
0.18998
0.00706679
0
0
0
0
0.0905112
0.201377
0.242
0.0872659
0.00783214
0.000313211
0.000730825
0
0.00294913
0.0232431
0.161751
0.456012
0.0828437
0.00802752
0.0012099
0
0
0
0.0130976
0.224419
0.414502
0.134018
0.00222789
0
0
0
0
0.00133873
0.220049
0.494543
0.24749
0.00474859
0.00289199
0.00223893
0.000501563
0.00616592
0.0114955
0.08224
0.446115
0.14739
0.0165576
0.100184
0.00647979
0.0175687
0.007071
0.0026711
0.051859
0.300274
0.238947
0.129395
0.0111403
0
0
0
0.00176405
0.070339
0.321979
0.325793
0.0686279
0.223119
0.00979941
0.0105583
0.00120704
0.00111568
0.0221867
0.133509
0.309866
0.399413
0.19569
0.0496259
0.101394
0.0612953
0.0908912
0.129958
0.276056
0.0831364
0.101169
0.085577
0.0652002
0.117383
0.173978
0.348898
0.161686
0.165231
0.00509216
0.0111755
0.474231
0.146564
0.101745
0.0437011
0.0474762
0.0151887
0.0341637
0.0731042
0.278022
0.20288
0.229182
0.189283
0.154032
0.172796
0.0195542
0.0131519
0.000121683
0.0228797
0.114589
0.0743042
0.102678
0.329325
0.451805
0.0949052
0.0380892
0.000184183
0.0399333
0.28053
0.0901908
0.028035
0.121809
0.0489803
0.0256583
0.0496218
0.00246804
0.089799
0.031714
0.174685
0.212948
0.290486
0.256998
0.0230101
0.00713412
0.00128928
0.0211634
0.0694788
0.117732
0.165195
0.228938
0.0841057
0.03553
0.0705458
0.0884826
0.0188833
0.0556881
0.0124636
0.0149536
0.0118423
0.0138883
0.00815333
0.0130531
0.00341465
0.0275538
0.0552074
0.144301
0.167652
0.0874071
0.032969
0.00753838
0.004874
0.00915892
0.0622623
0.0133491
0.139061
0.195818
0.0631234
0.0207353
0.00868442
0.014889
0.0251751
0.00515815
0.0373717
0.446686
0.692884
0.341461
0.0237604
0.00413277
0.00209693
0.00623853
0.017658
0.0201521
0.117538
0.114123
0.157807
0.0585589
0.0092133
0.000243502
0.00129048
0.010842
0.00485842
0.0651525
0.141249
0.453201
0.209345
0.0476595
0.000726198
0
0.000296229
0.0166682
0.279551
0.331638
0.184921
0.00953714
0.00275019
3.4786e-005
0.000399509
0.00303893
0.0189214
0.344612
0.454666
0.267095
0.0556365
0.0227835
0.000392463
0
0.00740033
0.0238492
0.0074435
0.0888594
0.388329
0.236242
0.0379164
0.00684391
0.00961824
0.0110367
0.0438283
0.00558796
0.0403856
0.199652
0.461644
0.105499
0.0110914
0.0461952
0.036491
0.0270347
0.130962
0.274702
0.238968
0.134108
0.0242728
0.00842142
0.00585153
0.0117985
0.0143545
0.0139
0.02793
0.14609
0.516719
0.0424854
0.0126921
0.00975254
0.00634939
0.0122464
0
0
0
0
0
0
0
0.0122464
0.00992705
0
0
0
0.00251861
0
0
0
0.00992705
0.152
0
0
0
0
0
0
0.106383
0.591294
0.185222
0.00514625
0
0
0
0
0
0.121759
0.534198
0.0105574
0
0
0
0.0123884
0.0262634
0.00906289
0.0102134
0.0105574
0.0384135
0
0
0
0.100822
0.360094
0.478754
0.226562
0.0384135
0.158493
0.0143728
0.00215063
0
0
0
0
0.0707437
0.24364
0.385157
0.0717135
0.0150544
0
0.0643414
0.0576997
0.0478455
0.0434228
0.243905
0.00305949
0
0
0
0.0141562
0.158897
0.237015
0.11015
0.0187824
0.0010055
0
0
0
0.00282625
0.1705
0.500243
0.519287
0.0470612
0.0558402
0.0300191
0.00330302
0
0.0103208
0.0272948
0.0456785
0.0663903
0.0602128
0.111639
0.0672414
0.0169025
0
0.00159376
0.0506573
0.329933
0.370257
0.114969
0.0112051
0
0
0
0.00162696
0.046953
0.265227
0.290208
0.0508478
0.102675
0.00582745
0.00130677
0.000230606
0.000976176
0.0296743
0.13538
0.157193
0.234332
0.0526935
0.0132406
0.00445443
0
0.000232423
0.02671
0.321972
0.348394
0.155228
0.0844988
0.00617274
0.000784061
0.000138364
0.000139454
0.0148326
0.171914
0.355103
0.514262
0.141571
0.0373782
0.0108023
0.00398562
0.00269058
0.00534789
0.016454
0.021374
0.165383
0.114113
0.0600201
0.0285219
0.0150153
0.00746179
0.000324267
0.000756622
0
0.125146
0.148315
0.00826202
0.00235651
0.0016095
0.00147075
0.00320873
0.0139279
0.0668183
0.548053
0.485151
0.00424879
0.00176581
0.00242455
0.00267035
0.00019456
0.000453973
0.00149699
0.548053
0.0802681
0.0170335
0.0117922
0.0184853
0.00605778
0.000309636
0.000122095
0.00123907
0.0905127
0.144055
0.0879214
0.0909294
0.0828528
0.00943582
0.000821405
0.00467875
0.0178495
0.0596258
0.570994
0.0352001
0.000376596
0.00705205
0.00140512
0
0
0.00191261
0.277738
0.570994
0.336166
0.138877
0.0589693
0.00406032
0
0.000546298
0.00537287
0.1198
0.0473756
0.151217
0.197728
0.0761318
0.00303628
0.000410914
0.00321434
0.0122646
0.00416097
0.0430294
0.320323
0.332846
0.1373
0.00148942
0.000180579
0.000424306
0.00169722
0
0.228206
0.327442
0.306481
0.070239
0.00105301
0
0.000424306
0.00203229
0.00718885
0.0942092
0.466781
0.400546
0.064454
0
0
6.06151e-005
0.000242461
0.00245413
0.0204349
0.222647
0.368883
0.209146
0.00467872
0.0010567
0.000204779
0.000614336
0
0.0304567
0.272308
0.490443
0.174916
0.0293358
0.0186144
0.00547916
0.00550006
0.0251347
0.0760656
0.349941
0.307566
0.146383
0.0208052
0.00176117
0.00198473
0.00512726
0.00331462
0.0548176
0.0981313
0.269739
0.190406
0.0659998
0.0190587
0.0193065
0.0378904
0.0263904
0.0478816
0.153478
0.184074
0.0502521
0.0547209
0.0532562
0.0345881
0.0179037
0.0333248
0.0152428
0.0159078
0.00871762
0.064072
0.604814
0.0829727
0.0417262
0.0221185
0.00632479
0.0506246
0.0421587
0.0627493
0.0368471
0.0584671
0.0614648
0.0504017
0.0648162
0.0421017
0.010599
0.0066785
0.0027959
0.0444594
0.604814
0.297343
0.0534298
0.0729225
0.0150404
0.0712571
0.0446709
0
0
0
0
0
0.105025
0.275463
0.141135
0.0441455
0
0
0
0
0
0.0921033
0.357788
0.160839
0.231411
0.0241389
0.00828993
0.00276331
0.00264255
0.000880848
0.0862045
0.220744
0.277273
0.136459
0.00608406
0
0
0
0
0.0791008
0.626202
0.186443
0.010736
0.000735167
0
0
0
0
0.0464038
0.197641
0.374276
0.0864882
0.00514617
0.00352291
0.0015048
0.00611609
0.00509165
0.00982191
0.175902
0.278736
0.0100201
0.000105024
0
0
0.00367363
0.0185522
0.0881813
0.45846
0.39041
0.0838622
0.032813
0.104414
0.103725
0.068528
0.115613
0.138637
0.351632
0.196335
0.150442
0.0143571
0.00688515
0.00184997
0.00542206
0.00580878
0.00939187
0.0951684
0.302573
0.272692
0.0883841
0.00651251
0.0143144
0.0152965
0.0832994
0.102685
0.124733
0.204037
0.211961
0.0974749
0.157255
0.0799524
0.0375831
0.0474435
0.0284129
0.0926634
0.456933
0.372728
0.149257
0.0996679
0.037801
0.00439735
0.0282309
0.0765785
0.334222
0.0993261
0.0367961
0.0170224
0.00125399
0.00710596
0.00533635
0.0702586
0.185436
0.160987
0.126102
0.000915859
0
0.000179142
0.00101514
0.000563834
0.043839
0.24909
0.539238
0.229174
0.044064
0.0166339
0.00413727
0.0118433
0
0.0122794
0.0916423
0.282024
0.269029
0
0
0.00029857
0.0016919
0.00874428
0.0369439
0.165445
0.505122
0.173912
0.00078559
0
0
0
0
0.0027637
0.0419833
0.458574
0.447264
0.000112227
0
0
0
0
0
0.00261
0.458006
0.192085
0.00223803
0.0169349
0.00265
0
0.0121581
0.0254542
0.0639845
0.27381
0.30541
0.0502057
0.0596539
0.00809199
0
0.00510516
0.006872
0.0188606
0.287771
0.495036
0.0518995
0
0
0
0.000265297
0.00124597
0.00328989
0.163158
0.495036
0.327869
0.0476995
0.00472112
0.00642577
0.00185708
0.00632138
0.00355712
0.0339187
0.323705
0.0876259
0.022034
0.00471873
0
0.00185708
0.00872181
0.0222705
0.125721
0.371123
0.215347
0.0290579
0.0221859
0.0122182
0.0190337
0.0442496
0.0280114
0.050679
0.259314
0.426174
0.249603
0.0245644
0.0375187
0.00763654
0.00392402
0.00808357
0.00466787
0.118557
0.408982
0.373718
0.0486167
0.0356891
0.0110871
0.00137504
0.0141525
0.0548732
0.241203
0.206579
0.0632358
0.0303027
0.0684389
0.0416077
0.0352931
0.0782626
0.0558187
0.241333
0.0821124
0.0897471
0.0318001
0.0630264
0.0326571
0.0226668
0.138528
0.27729
0.125359
0.221352
0.143735
0.0584591
0.0208973
0.0021735
0.00900027
0.0318644
0.0815095
0.0534859
0.0554883
0.0796777
0.081045
0.0410728
0.00281176
0.0253929
0.106248
0.0942742
0.2134
0.0204976
0.0254288
0.0145802
0.00701619
0.00295304
0.0153597
0.0834969
0.44517
0.169641
0.0117001
0.0216976
0.0145992
0.00331061
0
0.0202701
0.170016
0.69443
0.0175864
0.020464
0.0276135
0.0218478
0.0291235
0.0159029
0.00985286
0.0550421
0.0673552
0.00869859
0.0207092
0.0178653
0.0888383
0.545082
0.158834
0.00704396
0.0437023
0.0501891
0.164706
0.0234605
0.0162995
0.013759
0.00755936
0.00181973
0.00205493
0.0523291
0.40771
0.207796
0.100516
0.0573187
0.179478
0.462811
0.0748299
0.0167956
0.0159186
0.306091