0.00605209
0.00249472
0.000613815
0.0776729
0.403224
0.263755
0.0340358
0.00858938
0.00824357
0.0133419
0
0
0.0103242
0.234512
0.19613
0.0522242
0.0791131
0.0229449
0.00356746
0.00124055
0.000128941
0.0579721
0.51512
0.341948
0.0256399
0.0158197
0.0140392
0.0869827
0.00396959
0
0.00788843
0.324175
0.307602
0.0365387
0.0879844
0.0563292
0.0376117
0
0.0425016
0.0193581
0.0328035
0.0365769
0.0569444
0.168412
0.142629
0.0635686
0.118421
0.174692
0.0999888
0
0.0154156
0.0442904
0.146656
0.388899
0.311529
0.063232
0.120201
0.0422373
0.0415635
0.0650848
0.03331
0.156616
0.136759
0.292598
0.317693
0.396639
0.270475
0
0.00924934
0.0266303
0.0951596
0.180929
0.127992
0.0973217
0.0423909
0.0291402
0
0.00678985
0.0139809
0.105158
0.31375
0.274369
0.0713295
0.0176462
0.00094579
0
0.00873051
0.0230643
0.288932
0.338956
0.108329
0.226193
0.108462
0.112476
0.0127467
0.0375991
0.0255677
0.0992509
0.15681
0.251367
0.393998
0.302074
0.0483799
0.0212445
0.0611135
0.0425994
0.24195
0.125899
0.163808
0.041586
0.014539
0
0
0.000676341
0.00378292
0.140501
0.154782
0.386727
0.0430669
0.00541699
0
0
0
0
0.0570092
0.271465
0.346306
0.25316
0.149501
0.00648002
0.00164578
0.00473439
0.00649473
0.0456266
0.10813
0.508421
0.200338
0.0305913
0
0
0
0
0.00691534
0.359263
0.27017
0.080017
0.0243075
0.00644816
0.00251444
0
0
0.0047129
0.123361
0.1938
0.0885421
0.0512013
0.0771154
0.0403292
0.018552
0
0.0185061
0.159523
0.478595
0.115418
0.00218143
0.000557901
6.19889e-005
0
0
0.00521845
0.256891
0.478595
0.0798759
0.00556646
0.0399398
0.00361669
0.00144223
0
0.034424
0.478595
0.104349
0.0280999
0.0277485
0.143523
0.167317
0.0677225
0
0.00809308
0.0810748
0.0435177
0.0208077
0.0155813
0.127413
0.242396
0.0489256
5.46019e-005
0.0107162
0.0307094
0.475608
0.109368
0.0195618
0.152339
0.0458186
0.0054471
0
0.0161259
0.475608
0.312691
0.118319
0.019703
0.141791
0.0945057
0.00410742
0.00825678
0.0582362
0.405838
0.0315666
0.0130318
0.00904642
0.0441603
0.102794
0.00615868
0.0182035
0.0622385
0.0911599
0.0162171
0.0138969
0.011993
0.0142647
0.0227573
0.00447867
0.0446575
0.0624766
0.0575904
0.194911
0.0302713
0.00527489
0.0351788
0.0515242
0.00154278
0.162681
0.326621
0.667138
0.0632967
0.0171966
0.0472565
0.034671
0.00180797
0.0406751
0.271045
0.346198
0.231087
0.018686
0.0179896
0.0448046
0.0540849
0.114578
0.0630532
0.0170063
0.0124006
0.0231276
0.112879
0.0779962
0.0420429
0.152736
0.148362
0.155763
0.0400935
0.0464254
0.123074
0.091278
0.128415
0.146506
0.0661528
0.0149623
0.058203
0.0943971
0.102777
0.127754
0.405301
0.199818
0.109503
0.0750792
0.0343953
0.048213
0.0754179
0.108128
0.664872
0.155705
0.0615467
0.00201394
0.0427907
0.0235712
0.0224484
0.00944313
0.0437704
0.110399
0.263622
0.0284895
0
0.0102122
0.00680812
0
0.00015481
0.0244158
0.254716
0.346762
0.0664141
0.00335657
0.0198498
0.0109663
0.00643526
0.0115045
0.026387
0.37699
0.451289
0.04173
0
0.00612731
0.00408487
0
0
0.0219631
0.530699
0.00993657
0.00775503
0
0.0778217
0.411421
0.245497
0.00806993
0.00793007
0.00854008
0.22453
0.121578
0
0.0081555
0.210078
0.281839
0.0092346
0.0477562
0.0880804
0.0360706
0.0318564
0.0374241
0.100556
0.356208
0.242359
0.0390969
0.00152629
0.0155888
0.344231
0.247519
0.0334109
0.0157618
0.135097
0.235098
0.0511679
0.0268484
0.228364
0.296715
0.0951227
0.0147209
0.00391948
0.00745217
0.0262226
0.00164143
0.0250312
0.11824
0.323509
0.119138
0.0971573
0.0304527
0
0
0.0189679
0.0502858
0.145208
0.400375
0.17303
0.0369764
0.00017252
0.00210597
0.02169
0.00466683
0.0200472
0.253157
0.488257
0.322009
0.215262
0
0
0
0.0113453
0.0297643
0.199682
0.0916639
0.177506
0.0760383
0.0199076
0.00588987
0.00623307
0.0160459
0.0280298
0.0370293
0.086888
0.45758
0.207644
0.0368997
0.00981644
0.0103885
0.00504826
0.0239097
0.00817023
0.197765
0.459808
0.225546
0.000918306
0.000841409
0
0.00901125
0.0142529
0.0255096
0.0965802
0.459808
0.344224
0.0365426
0.00140235
0
0.00128732
0.0061045
0.0271335
0.211915
0.348281
0.201557
0.0251967
0.00147915
0.00156534
0.00084205
0.00775098
0.0532855
0.453684
0.278142
0.0538924
0.00372819
0
0
8.45631e-005
0.000761069
0.180803
0.123354
0.41881
0.2544
0.0537108
0.000211307
0
0
0.00273725
0.0455865
0.308103
0.217008
0.0903821
0.0201226
0.00143007
0.00572027
0.00322591
0.0142779
0.121748
0.450251
0.201001
0.00913182
0.00136207
0.00106022
0
0.000247082
0.00382495
0.197063
0.414853
0.073255
0.00360448
0.00639763
0.00176703
0
0.000148249
0.0211654
0.479957
0.182793
0.123714
0.01461
0.00953451
0.0196615
0.0235683
0.0197327
0.0281562
0.140246
0.15651
0.0682717
0.0119103
0.0151179
0.0283122
0.0293458
0.0262167
0.0499044
0.396234
0.230664
0.0308229
0.00190316
0.0133884
0.000543932
0
0
0.0113674
0.427249
0.281693
0.0339541
0.00203141
0.0126306
0.00240915
0
0.00645778
0.0451619
0.427249
0.170375
0.0119604
0.00228323
0.00170913
0.00291735
0.00419646
0.00318704
0.0336048
0.332437
0.398572
0.00468241
0
0
0
0.00280401
0.00162354
0.0391796
0.392605
0.178341
0.00461548
0.000259617
0.00169715
0.00122326
0
0.123394
0.177903
0.387087
0.0857406
0.00248002
0.0140676
0.00439458
0
0.0170128
0.225904
0.261839
0.177571
0.262154
0.00215403
0
0.00141237
0.00423711
0.014281
0.1276
0.16964
0.351533
0.115233
0
0.00173214
0.00254641
0.0102121
0.0736215
0.262525
0.298305
0.385996
0.0900098
0.0502735
0.0448313
0.00914495
0
0.0208103
0.0944816
0.126382
0.166935
0.313571
0.091503
0.027778
0.00412484
0
0.00380693
0.0335526
0.0838637
0.342004
0.122894
0.0112705
0.00572574
0.0010236
0.0115756
0.0757854
0.174099
0.278001
0.424025
0.351481
0.0561165
0.0038181
0.00657132
0.030158
0.0892931
0.201352
0.20078
0.347787
0.326171
0.0244307
0.000380698
2.00367e-005
0
0.000319753
0.00127901
0.0179306
0.349002
0.357682
0.0295595
0.00123356
0.00216954
0.00024106
0.0012532
0.00501279
0.0183893
0.465913
0.329416
0.0397941
0.00106187
0.00663992
0.0246717
0.0394491
0.042199
0.0296679
0.232939
0.359346
0.0698469
0.0133014
0.0481221
0.015076
0.0111092
0.0350895
0.0179061
0.246543
0.052468
0.0928468
0.0866265
0.145234
0.192253
0.0567577
0.110111
0.0147377
0.0220387
0.226154
0.104613
0.103298
0.100933
0.0551802
0.0531655
0.111365
0.0415831
0.398592
0.0287283
0.128194
0.213103
0.289845
0.125255
0.116184
0.174919
0.0888999
0.0479711
0.124062
0.177014
0.290492
0.201572
0.0626974
0.122313
0.195151
0.0704415
0.367158
0.155213
0.0814753
0.0667226
0.014881
0.00122138
0.00573919
0.0618641
0.0381652
0.291026
0.19524
0.39117
0.238988
0.000891581
0.00165579
0
0.05551
0.0294581
0.129322
0.0670596
0.165537
0.246251
0.107918
0.0438815
0.0210773
0.110362
0.0405283
0.237624
0.0453574
0.457518
0.366397
0.130828
0.0490738
0
0.102293
0.0468728
0.0759991
0.0999203
0.492221
0.283626
0.00825985
0.0118389
0
0.0049633
0.00526871
0.0104292
0.0590118
0.474312
0.28007
0.0267003
0.0144333
0
0
0.0151875
0.0441845
0.0398385
0.346102
0.260787
0.0967079
0.0515267
0
0.0123709
0.0071461
0.00463532
0.0821399
0.261949
0.146466
0.0882799
0.041683
0
0
0.00844114
0.016489
0.0580686
0.290226
0.181095
0.0511222
0.00221565
0
0
0.00908095
0.0505188
0.16352
0.229256
0.0885791
0.0305209
0.0024213
0.00968519
0.0124913
0.0361378
0.163387
0.10083
0.316782
0.289531
0.143668
0.00431465
0
0.00152714
0.00516737
0.0157296
0.239118
0.394198
0.39833
0.166472
0.000345899
0.0013836
0.0179635
0.0346621
0.287077
0.0680113
0.0586136
0.0103651
0.00614487
0.0234429
0.0480874
0.0997952
0.112205
0.197026
0.10179
0.0520049
0.0124958
0.0123021
0.03423
0.148227
0.20591
0.123507
0.13598
0.0952041
0.171359
0.163931
0.0929742
0.0148247
0.0470498
0.156816
0.156972
0.414331
0.0408496
0.0981951
0.147771
0.227162
0.18032
0.397926
0.344503
0.178934
0.178042
0.312284
0.0543909
0.00514694
0.0131615
0.00754549
0.0729546
0.0673195
0.0377344
0.154065
0.563809
0.0541614
0
0.00704649
0.0119415
0.0474666
0.0467505
0.0503862
0.232681
0.179235
0.0941803
0.040378
0.209851
0.206826
0.252573
0.113755
0.0290746
0.0475307
0.271493
0.108206
0.00147324
0.0929819
0.201547
0.209508
0.0971667
0.0611542
0.116149
0.193922
0.0124142
0.000743537
0.00741753
0.0648263
0.13246
0.110989
0.0998218
0.170575
0.0416921
0.00223061
0.00520476
0.0254643
0.17353
0.267373
0.193736
0.141356
0.198636
0.0593446
0.0198388
0.00930771
0.00816594
0.266658
0.430544
0.0931868
0.0379499
0.0557073
0.000694915
0.0251878
0.065154
0.123256
0.387277
0.40934
0.0714221
0.0150244
0.00430931
0.0232861
0.00162113
0.00125448
0.00901804
0.12239
0.142424
0.156186
0.125103
0.110769
0.0644697
0.0144884
0.00428997
0.0164696
0.1483
0.289903
0.298971
0.100742
0.0761067
0.0129047
0.00874081
0.0157038
0.0780481
0.268279
0.140237
0.0921851
0.017662
0.00476778
0.0264617
0.00543611
0.00659626
0.0300016
0.416284
0.551786
0.233317
0.0175714
0.0112488
0.0847009
0.0248122
0.0127152
0.0344499
0.0992781
0.177518
0.111185
0.0274197
0.0522368
0.092083
0.0259872
0.0186707
0.0748597
0.108877
0.0340881
0.0655712
0.0312542
0.0417554
0.0199945
0.00357989
0.0195508
0.0467064
0.360329
0.56478
0.231965
0.0331163
0.0227874
0.0138819
0.00175395
0.0132675
0.0721456
0.470196
0.258998
0.195691
0.042972
0.0260867
0.0202492
0.062393
0.109179
0.156788
0.0358541
0.144878
0.0988791
0.100013
0.127302
0.0322943
0.12288
0.182738
0.18438
0.102879
0.16831
0.11551
0.0745432
0.113251
0.109864
0.0596759
0.0560981
0.0433979
0.0301818
0.0639627
0.0954448
0.318229
0.475986
0.0630225
0.0321062
0.108331
0.158781
0.209946
0.253313
0.207945
0.304727
0.196272
0.0130056
0.114169
0.212745
0.229372
0.15278
0.0576255
0.0424536
0.0177337
0.0419116
0.0131857
0.170005
0.310274
0.263129
0.143386
0.00442227
0.0490803
0.0268649
0.0138682
0.000445877
0.0223772
0.240648
0.241192
0.198079
0.120837
0.0587393
0.0508668
0.0150444
0
0.0724347
0.519626
0.345173
0.126092
0.0115165
0.0219834
0.0284793
0.0141755
0.0123774
0.148868
0.231379
0.0944056
0.0281302
0
0.0121963
0.00739355
0.00291832
0.0582658
0.382003
0.197463
0.0460157
0.0117965
0.000277831
0
0
0.000575032
0.0136553
0.229076
0.495136
0.0970229
0.0131758
0
0.00664961
0.00977175
0.00486387
0.099165
0.495136
0.334502
0.00953596
0.0128627
0.0040977
0
0.00269432
0.00500375
0.057582
0.339434
0.229649
0.0717771
0.00565329
0.000839044
0.00329151
0.00141065
0.000638854
0.0659651
0.30214
0.418874
0.12072
0.00571471
0.000503426
0.0230406
0.0131864
0.0596576
0.0701334
0.286719
0.163556
0.0580853
0.0824616
0.054455
0.00475659
0.00484572
0.00958298
0.212992
0.280327
0.426784
0.125056
0.0986897
0.136901
0.0332961
0.0133941
0.0575163
0.0336463
0.213837
0.293615
0.0788473
0.00856881
0.00885276
0.0311016
0.0205951
0.0828789
0.0134679
0.181863
0.294069
0.176767
0.112403
0.0829662
0.0492181
0.0287265
0.0597617
0.285624
0.217478
0.318967
0.0498248
0.00996345
0.0299105
0.0102813
0.00550159
0.149166
0.187165
0.161813
0.272415
0.0601209
0.0158281
0
0
0.0898881
0.473639
0.014217
0.048284
0.13124
0.164363
0.142625
0.0577808
0.0146225
0.0190035
0.0497076
0.0398451
0.0264315
0.0195985
0.0708776
0.182265
0.103209
0.0142207
0.0198595
0.0804776
0.0575433
0.0367604
0.147131
0.0598192
0.0237568
0.000293527
0
0.139962
0.573546
0.298041
0.0388697
0.0296382
0.027886
0.0847137
0.0447013
0
0.046985
0.573546
0.0214596
0.0249378
0.00549812
0.00372622
0.242373
0.215867
0.0141525
0.00600573
0.0285508
0.0187285
0.032576
0.0337654
0.0515966
0.183279
0.186016
0.0482476
0.0394098
0.0318099
0.437956
0.181008
0.00664621
0.0014548
0.157577
0.0966676
0.0018105
0.00110278
0.284824
0.476552
0.189189
0.0134733
0.00454261
0.105897
0.0811027
0.0437729
0.139018
0.33574
0.0264594
0.0144688
0.0112197
0.0491736
0.0921432
0.0692343
0.0704974
0.0654751
0.0225613
0.0571239
0.019442
0.000962567
0.0104675
0.185449
0.350037
0.216894
0.06558
0.0193319
0.129695
0.0270274
0.00237315
0.00421965
0.0108665
0.0263105
0.0980757
0.397042
0.297013
0.106535
0.0519596
0.00106528
0.00190482
0.0194156
0.126915
0.315602
0.531535
0.134029
0.0133928
0.00309077
0.00197473
0.00460771
0.131617
0.270819
0.254402
0.105514
0.0280097
0.000589254
0
0.00118484
0.0202221
0.260798
0.22453
0.185115
0.112769
0.0395337
0.0452491
0.013042
0.00218546
0.00267111
0.0217406
0.19009
0.334888
0.224782
0.0337215
0.0207503
0
0.00131127
0.00683508
0.101434
0.482206
0.359914
0.199392
0.0471043
0.0555464
0.0164787
0.0325698
0.0444783
0.0730057
0.0177486
0.0575789
0.199278
0.159175
0.0229565
0.00449252
0.0660201
0.220794
0.299292
0.0729275
0.131665
0.160452
0.0553579
0.0783149
0.00190352
0.0270486
0.158781
0.132881
0.0366942
0.0584901
0.0864052
0.0459726
0.0242259
0.000894338
0.0604438
0.558396
0.532879
0.022272
0.0591319
0.0390464
0.015238
0
0.0331522
0.205661
0.207442
0.16038
0.0460989
0.0393571
0.0215132
0.00428576
0
0.0812751
0.423935
0.245471
0.0486715
0.0624269
0.0408617
0.0259373
0.00230628
0
0.0283148
0.110903
0.490024
0.355299
0.0641521
0.0658746
0.0104505
0.00046853
0
0.0485043
0.151079
0.155805
0.226104
0.144235
0.20161
0.170905
0.00519938
0.00624455
0.136503
0.435305
0.142009
0.0160775
0.0485021
0.0781858
0.0436996
0.00116388
0.0506497
0.187045
0.204044
0.0131129
0.0230957
0.00976173
0.0431761
0.0289125
0.00704994
0.000202304
0.0193232
0.0966798
0.0746204
0.048828
0.0858806
0.454707
0.348891
0.00428854
0.00141613
0.0127739
0.0496365
0.0296367
0.0372391
0.0235484
0.380339
0.337892
0.0201579
0.0515255
0.0878968
0.0624844
0.0378789
0.114083
0.107187
0.00867366
0.0118321
0.0337381
0.4005
0.108754
0.157961
0.0631537
0.12824
0.255076
0.0312081
0.0338912
0.256317
0.0396692
0.0607753
0.0915009
0.068912
0.109508
0.149184
0.0974334
0.109468
0.0658604
0.350556
0.100115
0.114115
0.0379195
0.0714519
0.260022
0.120053
0.121561
0.457844
0.317156
0.0485025
0.0448776
0.00846855
0.00672661
0.0313284
0.00578929
0.00793417
0.189032
0.239298
0.0227704
0.024
0.00276618
0
0
0
0.0722567
0.468531
0.282216
0.0471463
0.00962984
0.00115224
0.00313483
0.0353878
0.0391074
0.0308696
0.235851
0.468531
0.146224
0.00985302
0.00806566
0.0149791
0.00321541
0.0105835
0.0315875
0.380741
0.0613232
0.0020012
0.00892274
0.000235149
0
0
0
0.087786
0.415469
0.219849
0.0097987
0.00751511
0
0.0024486
0.00256421
0
0.0594623
0.415469
0.294845
0.0422669
0.006576
0.00230924
0.00428859
0
0
0.0619526
0.35237
0.385397
0.00446513
0.0109538
0
0
0
0
0.109524
0.415469
0.365592
0.05828
0.0282977
0.000953345
0.00727366
0.00595958
0
0.0196705
0.222024
0.383069
0.0690552
0.0276881
0.00158891
0.00536964
0.00388554
0.00396969
0.0598626
0.253835
0.293981
0.00534715
0.0447293
0.00158891
0
0
0.0335162
0.205119
0.3618
0.250113
0.048965
0.0420911
0.00264818
0
0
0.0587843
0.268671
0.376653
0.118804
0.0239126
0.00718202
0.00358476
0.0247946
0.0137023
0.0371545
0.244949
0.273995
0.029437
0.0293375
0.018644
0.0521427
0.165592
0.10505
0.182867
0.372028
0.117474
0.222728
0.239857
0.0448706
0.0238204
0.0406368
0.0211315
0.0294291
0.121518
0.233051
0.119981
0.348777
0.163211
0.329696
0.297014
0.0904657
0.092223
0.100425
0.05436
0.0193808
0.0133552
0.0273749
0.0608463
0.170078
0.241039
0.170805
0.13929
0.0162184
0.0634935
0.0484888
0.0334705
0.0227327
0.104243
0.442802
0.21375
0.104432
0.0923552
0.0199123
0.119791
0.141649
0.379291
0.338086
0.109858
0.0491681
0.0237416
0.00583547
0.055069
0.108996
0.111585
0.207506
0.347248
0.112963
0.0413996
0.045966
0.0764039
0.02481
0
0.0246998
0.0899884
0.118512
0.0400588
0.0272111
0.0458813
0.0254592
0.00915315
0
0.0295381
0.467958
0.408031
0.0682118
0.0189014
0.0117589
0.00884227
0.0677518
0.0133672
0.025305
0.0489511
0.153348
0.0937926
0.0468003
0.052363
0.0923511
0.0202601
0
0.0128205
0.144462
0.467958
0.467958
0.13991
0.0193824
0.0261581
0
0.00200307
0.0177564
0.283336
0.386955
0.10761
0.0266705
0.00306854
0.000161503
0.00107249
0.00607756
0.0232887
0.0426082
0.290863
0.0957179
0.104771
0.0883612
0.00784889
0
0
0.00428619
0.0752507
0.353991
0.48057
0.146319
0.0216696
0.00167168
0.00246788
0.00539677
0.00280476
0.0164268
0.2021
0.252377
0.306945
0.108687
0.0134829
0.00352673
0.00418422
0.00849031
0.0085822
0.046015
0.0205222
0.262886
0.248152
0.0105946
0.00211604
0.000942705
0.00381294
0.00723753
0.0162629
0.0464368
0.491403
0.344387
0.0183752
0.00811526
0.00879734
0.00142148
0.00527851
0.0343254
0.0501153
0.237998
0.141221
0.0187296
0.00486916
0.00289751
3.91594e-005
0
0.00179221
0.0718945
0.546386
0.255012
0.0104532
0.00518873
0.00952547
0.0181147
0.0153532
0.0393442
0.0985659
0.233645
0.137851
0.0375991
0.0525328
0.0183242
0.0242814
0.00844823
0.0234005
0.163535
0.187451
0.197898
0.156373
0.000335157
0
0
0
0.00451267
0.0483764
0.516212
0.287464
0.0475848
0.0595718
0.0198648
0
0
0.0027076
0.0633099
0.382796
0.387299
0.272149
0.147387
0.0722381
0.0146174
0.00482283
0.0140592
0.120627
0.23642
0.142718
0.132068
0.367023
0.249138
0.0412411
0.0337598
0.0778132
0.0797505
0.166594
0.0529476
0.165553
0.11694
0.104902
0.0336989
0.0536232
0.0490063
0.17965
0.347063
0.219403
0.170517
0.094782
0.129237
0.0834727
0.128996
0.198833
0.297397
0.268673
0.0993845
0.121177
0.38164
0.100889
0.035705
0.0125382
0.027388
0.0160768
0.0232738
0.022261
0.283568
0.47951
0.0192074
0.0139993
0
0
0
0
0.121339
0.489546
0.164201
0.0399613
0.0335018
0.0298338
0.0632658
0.0666534
0.0387896
0.0302181
0.167341
0.300198
0.0212637
0.00696993
0
0
0.000427352
0.000597541
0.0516043
0.230207
0.242437
0.00387457
0.0101233
0.000359608
0
0
0.086377
0.282446
0.343223
0.260566
0.0675009
0.00952624
0.000599347
0.00712507
0.0317083
0.190422
0.348574
0.429523
0.159781
0.00349036
0
0
0
0.00584256
0.0526932
0.0860344
0.207826
0.12903
0.0227704
0
0
0.0185188
0.210345
0.256453
0.112888
0.19699
0.262263
0.294747
0.0282369
0.0187695
0.0362261
0.0494819
0.0468144
0.050592
0.142492
0.192526
0.438475
0.17793
0.245551
0.110937
0.0362978
0.00580192
0.00128475
0.0105293
0.0925667
0.103252
0.00644765
0.0140032
0.113715
0.322314
0.122835
0.0193612
0.0384601
0.0746257
0.245616
0.223872
0.193281
0.225697
0.260241
0.0235848
0
0.00134335
0.0460287
0.150274
0.216594
0.259593
0.0822517
0.00575383
0
0.000177806
0.000414881
0.118869
0.119081
0.178857
0.158417
0.134179
0.00300254
0.00715692
0.06777
0.106373
0.0365401
0.182145
0.404447
0.350621
0.0710305
0.0355397
0.00296986
0.000742464
0
0.305514
0.250077
0.29445
0.281071
0.0572121
0.00780973
0.0396475
0.060672
0.154229
0.0534896
0.0304379
0.0185779
0.0468238
0.0736403
0.104699
0.0875158
0.0388506
0.0799595
0.0109063
0.000207669
0.00353311
0.0149522
0.185019
0.570648
0.300962
0.0182016
0.023771
0.107092
0.034703
0.127665
0.0826159
0.0512644
0.0568108
0.0694538
0.0344968
0.0330367
0.0718767
0.021779
0.0623632
0.0335648
0.0731149
0.462041
0.405396
0.0571561
0.0890055
0
0
0
0.000127293
0.0565799
0.367765
0.246748
0.0298896
0.00356806
0.000425314
0.000772792
2.40794e-005
0.000390666
0.0161224
0.130261
0.397893
0.139375
0.00790167
0.00368773
0.0119522
0.0146082
0
0.0109807
0.301271
0.447523
0.0401486
0.0270443
0
0.00170746
0.00208689
0
0.000154962
0.166527
0.447523
0.196188
0.00945894
0.00158985
0.00180769
3.31129e-005
0.000197635
0.00292858
0.0338086
0.30224
0.155623
0.00819824
0.00246033
0.00106285
4.73042e-006
0
0.00369516
0.0347057
0.230023
0.149285
0.0101605
0
0
0
0
0.000386285
0.0484661
0.506869
0.330041
0.00280532
0.00251071
0.000443066
0
0
0.00615859
0.0470393
0.498719
0.370164
0.02098
0.0169597
0.00101711
0
0
0.00375753
0.0143532
0.289935
0.278688
0.0854914
0.18846
0.0269805
0
0
0.000416779
0.00345219
0.205412
0.29716
0.509836
0.0306972
0.00169519
0
0
0.00626254
0.0184503
0.227787
0.262075
0.100666
0.175035
0.00478429
0
0
0.000694631
0.000294074
0.0492164
0.126724
0.401257
0.370635
0.178513
0.0506753
0.0778353
0.0320068
0.0659621
0.107462
0.0931531
0.421191
0.19398
0.201801
0.153154
0.170498
0.143397
0.142502
0.0698865
0.045376
0.124397
0.321455
0.0603338
0.0159631
0.0116372
0.00171878
0
0.00508522
0.0309515
0.369919
0.219632
0.0950387
0.0836037
0.0292044
0.0120315
0
0.0344004
0.0382305
0.179638
0.238957
0.133052
0.116815
0.100126
0.130694
0.0889151
0.0244135
0.0806344
0.238179
0.340091
0.0850993
0.000436265
0.000810207
0
0.00487536
0.0157623
0.0571036
0.31111
0.259927
0.109183
0.0958364
0.0272804
0.0123361
0
0.0522251
0.0517974
0.246382
0.405685
0.173339
0.0375177
0.00567145
0
0.00292522
0.0228306
0.0220637
0.234031
0.0607847
0.00588557
0
0
0
0.0182968
0.0334653
0.0389382
0.100333
0.0286569
0.0289078
0.00566021
0
0.0415613
0.313286
0.204125
0.0430406
0.0578717
0.134387
0.141478
0.0556152
0
0
0.00853664
0.0185467
0.0152257
0.0584259
0.163784
0.779784
0.192897
0
0.0343868
0.118322
0.0828239
0.0214735
0.0484777
0.00206246
0.0884619
0.0217896
0.00162808
0.0920069
0.229348
0.0551861
0.00346953
0.00198388
0.0371046
0.416744
0.15207
0.0468128
0.14749
0.194917
0.0107387
0.00503703
0
0.0236813
0.428177
0.190479
0.0064327
0.0494832
0.0852241
0.0230298
0.00218911
0.00248167
0.0704104
0.507765
0.306444
0.107991
0.0950453
0.0960425
0.00482736
0.00839506
0
0.0658161
0.394406
0.318578
0.213823
0.0760673
0.0637404
0.018567
0.0299314
0
0.135708
0.17846
0.190658
0.236726
0.0710161
0.0312135
0.149869
0.113706
0.0888638
0.103868
0.373733
0.182311
0.24053
0.118406
0.0767758
0.0187605
0.0468396
0
0.0408287
0.153936
0.191365
0.185404
0.0798501
0.0601819
0.104737
0.134677
0.151556
0.23286
0.0299855
0.186915
0.149096
0.0815045
0.019897
0.0360643
0.0987337
0.115204
0.281133
0.0443147
0.119696
0.0354177
0.0232751
0.132237
0.29976
0.132879
0.264986
0.237036
0.0881253
0.0950371
0.135084
0.0931261
0.042864
0.0534916
0.165142
0.182305
0.381203
0.0799727
0.0538265
0.0187736
0.00899213
0.0264678
0.141641
0.267829
0.267114
0.037942
0.0202831
0.0198589
0.00315173
0.00149097
0.114993
0.330401
0.077243
0.0783394
0.00946956
0.00430846
0.00384091
0.00525288
0
0.108753
0.489788
0.41885
0.044221
0.0935432
0.0476433
0.0246209
0.0220621
0
0.013498
0.0901775
0.113944
0.084815
0.0561264
0.0370437
0.0430927
0.0385007
0
0.0261696
0.300366
0.489788
0.0796672
0.00132884
0
6.00531e-005
0.000540478
3.65629e-005
0.0166128
0.26963
0.300604
0.00377589
0.000899326
4.19373e-005
0
0
0.000582927
0.020931
0.344275
0.289958
0.0147163
0.0093019
0.0110242
0.0195646
0.00735968
0
0.0707251
0.351124
0.397054
0.0140338
0.0229624
0.00146429
0.00496404
0.0021458
0
0.130437
0.417964
0.326841
0.0784396
0.0153642
0.000156994
0
0
0.000579983
0.0123672
0.219486
0.199065
0.129999
0.128549
9.41963e-005
0
0
6.43308e-005
0.000768983
0.0401815
0.0727992
0.340598
0.129451
0
0
0
0
0.0474868
0.225195
0.247877
0.382856
0.345827
0
0
0
0
0.00188194
0.0212342
0.182381
0.522349
0.140349
3.08536e-005
0.000277683
0
0
0
0.000956483
0.0138259
0.24721
0.18851
0.000215975
0.0020579
0.000211941
0
0
0.0111389
0.0179831
0.273507
0.24831
0
0
0
0
0
8.02732e-005
0.0831426
0.496637
0.44126
0.00828629
0
0
0
0
0.00119669
0.050078
0.496637
0.194119
0.00378792
0.00289049
0.00056664
0
0
0.00679297
0.00532243
0.16041
0.295691
0.0243778
0.00579902
0.000339984
0
0
0.000953132
0.000456147
0.185272
0.513369
0.0205602
0.000268866
0
0
0
0.000827657
0.00591196
0.283568
0.513369
0.0794299
0.000802278
0
0
0
8.91916e-005
2.97305e-005
0.386197
0.181567
0.0994738
0.0411429
0.00223298
0.00105696
0.00317088
0.000577434
0.000476787
0.0833005
0.0932524
0.392093
0.150619
0.0156309
0.00395222
0.00977999
0.00237726
0.000948223
0.0214611
0.475028
0.211597
0.050529
0.00372163
0.00739871
0.0221961
0
0
0.20434
0.310335
0.475028
0.246932
0.0260514
0.0212666
0.0850428
0.00165553
0.000818116
0.0949399
0.0494609
0.454727
0.222143
0.0149662
0.00801612
0.0145015
0.00333384
0.000793505
0.00463835
0.10526
0.34471
0.253141
0.119982
0.0486879
0.0228498
0.0104709
0.00449489
0.00625046
0.189138
0.379936
0.215645
0.0134796
0.0335987
0.175538
0.0132125
0.0437128
0.117717
0.276096
0.204772
0.18816
0.0257032
0.0269807
0.103357
0.0725099
0.0872918
0.150287
0.0669775
0.112015
0.120425
0.208971
0.137425
0.0243165
0.00900727
0.00805389
0.00331823
0.0690078
0.0581275
0.0984496
0.19272
0.173402
0.0537165
0.0036635
0.039478
0.154666
0.338118
0.0814463
0.0943076
0.0705456
0.0894484
0.0084949
0.0516695
0.0520017
0.163971
0.60946
0.0687498
0.0217852
0.0973092
0.186188
0.0350709
0.00351564
0.0773389
0.347496
0.160095
0.15843
0.0413821
0.0248022
0.0534292
0.042424
0.0757459
0.114584
0.196039
0.181594
0.151253
0.0682682
0.0200833
0.0626566
0.0491113
0.0718142
0.180744
0.208972
0.129971
0.132406
0.036852
0.0286811
0.373749
0.184074
0.0973905
0.116959
0.266425
0.15492
0.353048
0.284535
0.152885
0.193777
0.136323
0.0371519
0.092297
0.109254
0.107609
0.114821
0.0972895
0.041605
0.0621585
0.0399684
0.0335004
0.129458
0.107706
0.0757618
0.120919
0.171122
0.055186
0.100854
0.153678
0.162321
0.373202
0.0845149
0.0727872
0.242289
0.220578
0.117326
0.109924
0.0615747
0.0517543
0.116743
0.13224
0.0772139
0.133085
0.116931
0.0469478
0.24023
0.23851
0.11956
0.364572
0.317248
0.0124272
0.067404
0.088078
0.0264789
0.0290144
0.163684
0.274901
0.183739
0.0280125
0.127562
0.0465112
0.0483435
0.0181018
0.00495088
0.217446
0.47092
0.306469
0.351876
0.016923
0.0735885
0.0921232
0.0597496
0.133292
0.118355
0.0577679
0.0922249
0.0734221
0.105807
0.0724022
0.0862732
0.0625008
0.109819
0.153916
0.14834
0.155138
0.324624
0.174196
0.00269385
0.0021313
0.00178372
0.019003
0.0313177
0.0781339
0.1663
0.338635
0.182048
0
0
0.000824273
0.0294736
0.00400367
0.0085692
0.377504
0.461668
0.105326
0.00854478
0.00633908
0.017323
0.0545601
0.0736798
0.0630759
0.0966483
0.234486
0.0664872
0.0472592
0.0163381
0.0396285
0.0557168
0.0276696
0.0422343
0.375143
0.37602
0.0972795
0.00456196
0.00105594
0
0.00364372
0.000404857
0.0124993
0.209537
0.356678
0.380292
0.0448386
0.0073916
0
0
0
0.00635561
0.0503559
0.316675
0.0642284
0.0785008
0.022114
0.0118765
0.00607287
0.00159053
0.0372149
0.311938
0.315129
0.398908
0.257781
0.0779783
0
0
0
0.0142601
0.103753
0.271995
0.441793
0.074741
0.00553711
0
0
0
0
0.00154591
0.106846
0.444912
0.188609
0.00529207
0
0
0
0.00149893
0.00951347
0.124897
0.444912
0.186654
0.0475463
0.00123208
0.0116218
0.020898
0.00351095
0.0011101
0.0775859
0.444912
0.202301
0.0372275
0.00862457
0.0305686
0.0552497
0.0503158
0.070409
0.0329445
0.477471
0.233535
0.0224356
0.00050793
0.0036325
0.00936377
0.00414028
0.0141668
0.0881103
0.444205
0.328802
0.105801
0.0152903
0.0177681
0.0587801
0.00389906
0.00590458
0.100015
0.413627
0.119895
0.00862808
0.00396932
0.0449709
0.0555635
0.0665622
0.10652
0.0256031
0.29852
0.0828902
0.0188494
0.0246195
0.0759486
0.0839875
0.022226
0.070776
0.0931329
0.260548
0.178416
0.090401
0.0301744
0.0414427
0.178965
0.0149457
0.0585711
0.22828
0.332412
0.0888467
0.0903734
0.0286949
0.0332173
0.140434
0.066829
0.0970602
0.279445
0.169501
0.0481231
0.0267395
0.0774881
0.105548
0.090821
0.0142062
0.0726307
0.310229
0.176343
0.0400549
0.0200423
0.0756764
0.113101
0.264159
0.140444
0.0843859
0.438346
0.263309
0.0377652
0.0242985
0.0182113
0.01595
0.0298346
0.029071
0.0726133
0.235234
0.52528
0.0690429
0.00136841
0.00939075
0.0225173
0.011052
0.00875882
0.100536
0.314749
0.097887
0.0240968
0.00383322
0.0255366
0.0434234
0.188866
0.117204
0.179494
0.246237
0.300311
0.0676894
0
0.025121
0.0298575
0.0534697
0.101849
0.27963
0.278125