0
0
0
0
0
0
0
0
0
0
0
0
0
0
0
0
0
0
0
0
0
0
0
0
0
0
0
0
0
0
0
0
0
0
0
0
0
0
0
0
0
0
0
0
0
0
0
0
0
0
0
0
0
0
0
0
0
0
0
0
0
0
0
0
0
0
0
0
0
0
0
0
0
0
0
0
0
0
0
0
0
0
0.00328738
0.000580127
0
0
0
0
0
0
0.00814353
0
0
0
0
0
0
0
0.00271451
0.094519
0.433454
0.00406089
0.0405536
0.0021344
0
0
0
0.0190016
0.000565269
0.0015415
0.00574988
0.0137339
0.0448605
0.0018886
0
0
0.000565269
0.106048
0.0775099
0.0683218
0.201303
0.292588
0.105641
0
0
0.018378
0.022021
0.150284
0.0428294
0.0242379
0.0365862
0.00314766
0
0
0.000673629
0.0514383
0.417995
0.283465
0.323819
0.544988
0.176068
0
0
0
0.165237
0.103717
0.0666458
0.0978449
0.106291
0.0386648
0
0
0.0264444
0.519309
0.167153
0.0648692
0.0585484
0.0520868
0.00524741
0
0
0.22665
0.039895
0.15009
0.14036
0.230775
0.381831
0.0925238
0
0.00568078
0.00770686
0.206868
0.194661
0.192776
0.182194
0.289313
0.0555497
0
0.0397655
0.153595
0.387854
0.0318902
0.00929822
0.00519965
0.00385993
0
0
0.011644
0.239873
0.538826
0.0276051
0.00278516
0.000141405
0.000329945
0
0
0.0289941
0.264382
0.196118
0.0756132
0.110357
0.0403623
0.0313406
0.00528132
0
0.0358731
0.184492
0.307249
0.0653991
0.0438132
0.0296199
0.00230962
0
0.00958765
0.160368
0.391775
0.459888
0.116332
0.109246
0.0758081
0.00327579
0.000696085
0.00106551
0.0167263
0.0960435
0.14857
0.152804
0.324502
0.430965
0.0611976
0.0100056
0.00177585
0.00570392
0.0107853
0.262558
0.0802745
0.0266767
0.0176976
0.0171222
0.00834217
0.0923402
0.212903
0.265678
0.0959689
0.0973381
0.110367
0.204552
0.204845
0.0634518
0.119079
0.0925064
0.0429566
0.0066488
0.0786848
0.137053
0.22355
0.0852029
0.0344781
0.0624952
0.0642679
0
0.00301407
0.0360643
0.0193448
0.0668426
0.124356
0.242568
0.521335
0.114622
0
0.00270892
0.0209461
0.114596
0.207779
0.241486
0.0409568
0.0277233
0.0230517
0
0
0.00470918
0.0526305
0.297843
0.467915
0.173847
0.143251
0.0269445
0
0
0
0.000389007
0.0279915
0.0755438
0.167247
0.596936
0.0665109
0.0144
0.138302
0.0764647
0.00433375
0.00957634
0.0243406
0.0499375
0.391537
0.166429
0.0893833
0
0.00112234
0.00156662
0.190104
0.270692
0.187225
0.241612
0.0231529
0.0150145
0.131242
0.0607756
0.0727297
0.0726087
0.0980609
0.100913
0.230357
0.0854692
0.105102
0
0
0
0
0
0
0
0
0
0
0
0
0
0
0
0
0
0
0
0
0
0
0
0
0
0
0
0
0
0
0
0
0
0
0
0
0
0
0
0
0
0
0
0
0
0
0
0
0
0.00747382
0
0
0
0
0
0
0
0
0.00855008
0
0
0
0
0.0537947
0.372615
0.10757
0.185343
0.112167
0
0
0
0.0537947
0.00135985
0.00227165
0.0158742
0.00127133
0.00125921
0
0
0
0.000453284
0.0160333
0.163009
0.092935
0.0046101
0.00088664
0
0
0
0.00317299
0.00415017
0.0712275
0.150738
0.0583772
0.0101791
0
0
0
0.00360623
0.0112733
0.513537
0.740024
0.19135
0.00530739
0
0
0
0.00238011
0.0149543
0.193667
0.047616
0.0026991
0.000864774
0.000124881
0
0
0.0005368
0.0585564
0.411294
0.12318
0.0341676
0.0425548
0.00698535
0
0
0
0.0268063
0.538375
0.244098
0.0275571
8.61391e-006
0
0
0
0.00032208
0.196179
0.55665
0.122678
0.00241599
0.00102663
0
0
0
0
0.1097
0.300978
0.105807
0.087137
0.130316
0.0324402
0
0.00500728
0.00391037
0.153897
0.151354
0.116728
0.0718367
0.117395
0.0599051
0.0117955
0.0712429
0.0486686
0.388465
0.542142
0.0453849
0.00777207
0.00699574
0.00386685
0
0.00177106
0.0222602
0.420863
0.198992
0.0364327
0.010308
0.0233749
0.074467
0.145164
0.104776
0.10315
0.0818177
0.0681512
0.105397
0.0760769
0.0586932
0.073989
0.0199275
0.0568727
0.0540485
0.114388
0.12516
0.0487853
0.0894672
0.0741614
0.0952256
0.0663616
0.183076
0.219054
0.0956271
0.0335069
0.0252283
0.0444135
0.0834299
0.277786
0.312337
0.170837
0.0503255
0.0253013
0.0607519
0.0147659
0.056961
0.123335
0.324076
0.39028
0.470695
0.176797
0.0309078
0.0311306
0.00125203
0.00823792
0.0178764
0.0221182
0.173362
0.218519
0.120729
0.00489969
0.00474641
0.0194634
0.0465676
0.112092
0.0542969
0.247295
0.244339
0.021875
0.0289212
0.0159647
0.000751221
0.00489232
0.0169797
0.0471305
0.261423
0.370851
0.164316
0.0382022
7.26165e-005
0.00238441
0.0232464
0.0551931
0.177081
0.44591
0.489937
0.0721243
0.000339578
0.00308944
0.0653358
0.0973963
0.185463
0.0509226
0.12039
0.149291
0
0
0.00771137
0.0512192
0.151127
0.340786
0.161552
0.0969579
0.0309495
0
0.00739063
0.00727916
0.0285486
0.0624708
0.124437
0.356318
0.41917
0.34502
0.00459385
0.0178686
0.086717
0.128185
0.106132
0.175504
0.319723
0.24595
0.0570587
0.0014277
0
0.0114873
0.0151185
0.113978
0.241958
0.268133
0.19122
0.00230069
0.00221879
0.0810521
0.0902733
0.13866
0.0555342
0.0813864
0.163025
0.187947
0.0143124
0.0202303
0.0245307
0.0816117
0.102179
0.111913
0.241985
0.325316
0.166195
0.00378536
0.00196
0.116058
0.249286
0.278121
0.208543
0.308619
0.320704
0.147544
0.00325923
0.00811125
0
0
0
0
0
0
0
0
0
0
0
0
0
0
0
0
0
0
0
0
0
0
0
0
0
0
0
0
0
0
0
0
0
0
0
0
0
0
0
0
0.00734815
0
0
0
0
0.0167266
0.119221
0.036945
0.107891
0.130741
0
0
0
0.00565627
0
0
0.00130527
0.0172758
0.0339284
0
0
0
0
0.0192586
0.11037
0.17375
0.684433
0.56028
0
0
0
0.000808039
0.00879558
0.117964
0.0892517
0.062462
0.0250232
0
0
0
0.00139167
0.00514734
0.228647
0.452186
0.163427
0.00352835
0
0
0
0.00019881
0.0125387
0.206681
0.231282
0.251686
0.111306
0
0
0
0.00019881
0.0100616
0.409014
0.495957
0.235108
0.0157281
0.00625177
0.0010346
0
2.84015e-005
0.01399
0.37338
0.355684
0.0641352
0
0
0
0
0.00066528
0.105234
0.51814
0.0954141
0.00127528
0
0.001227
0.0018405
0
0.00465696
0.0246075
0.276079
0.383926
0.0836083
0.00532787
0.0112028
0.00117274
0
0.00206654
0.0960155
0.377108
0.0818684
0.00626603
0.00319672
0.00662224
0.00323503
0
0.0184375
0.339625
0.45222
0.0242548
0
0.00406597
0.00450525
0.00510025
0.0192555
0.050356
0.298302
0.105218
0.00774376
0
0.077689
0.104575
0.221218
0.118606
0.149046
0.22144
0.375656
0.0331983
0.00299839
0.00927608
0.0182359
0.0193212
0.0535171
0.117765
0.133676
0.147669
0.0759656
0.0453733
0.0757726
0.178371
0.143855
0.18357
0.192621
0.0232431
0.00412839
0
0.000379193
0.0376423
0.111412
0.223961
0.134443
0.0897512
0.00967577
0.0048173
0
0.000631988
0.0208059
0.0938245
0.211122
0.419279
0.462524
0.0661756
0.081589
0.0379585
0.0146535
0.0424092
0.0768215
0.0680771
0.0735307
0.142664
0.173474
0.0752515
0.0134226
0.00158992
0.0284291
0.0234427
0.0334982
0.168669
0.54267
0.0207839
0.00123299
0
5.95073e-005
0.00181296
0.0144147
0.0738864
0.267062
0.317337
0.031475
0
0.000840869
0.0448818
0.0213443
0.115735
0.202764
0.324072
0.139681
0.0787256
0.00950834
0
0
0.00203978
0.0175229
0.0766355
0.191408
0.426254
0.0891012
0
0.00140145
0.0350015
0.0110211
0.0440907
0.320195
0.422822
0.271774
0.0157514
0.0128216
0.0230436
0.13853
0.105615
0.282459
0.271955
0.215134
0.0317626
0.0244581
0.0705662
0.104328
0.123104
0.0969178
0.156462
0.188847
0.0456482
0.014744
0.106036
0.0581648
0.0384661
0.149482
0.0534692
0.051764
0.247162
0.479281
0.218649
0.0553139
0.101729
0.0962623
0.140763
0.0578904
0.0842163
0.233487
0.311608
0.128066
0.0153956
0.0299994
0.0429389
0.0628067
0.0719016
0.116131
0.0755354
0.0140053
0.00481732
0.0125863
0.0506313
0.0894304
0.120557
0.206926
0.31746
0.171954
0.00180947
0.00134309
0.00382863
0.0132239
0.0214951
0.0276916
0.0349032
0.146106
0.250206
0.102849
0.012966
0.000309346
0.000132577
0.00798961
0.0299457
0.123084
0.54298
0.55259
0.0440884
0.00123166
0.00238402
0
0
0
0
0
0
0
0.00238402
0.0147325
0
0.015335
0.00483787
0.000212145
0
0
0
0.0147325
0.0190842
0.0517788
0.0384533
0.0368902
0.0172646
0
0
0
0.0166882
0.186276
0.628085
0.417586
0.0504879
0.00757936
0
0
0
0.103127
0.000949966
0.00731372
0.0219221
0.0135851
0.0122452
0
0
0
0.000949966
0.000986239
0.0157168
0.10996
0.413695
0.17418
0
0
0
0.00010443
0.016083
0.161881
0.156219
0.0193584
0.00511
0
0
0
0.00664976
0.00530705
0.229739
0.497116
0.58547
0.179756
0
0
0.0035627
0.00310615
0.00269632
0.0526387
0.177988
0.426306
0.119594
0.00500741
0.000651461
0
0
0.00911632
0.161576
0.317772
0.282856
0.0315052
0.029518
0.00527798
0
0
0.0124686
0.0440403
0.211358
0.485477
0.18636
0.0272932
0.00319105
0.00677295
0.0045153
0.0582864
0.162997
0.235227
0.313867
0.0789555
0.0654982
0.0092942
0.00406377
0.00270918
0.031102
0.233801
0.255215
0.0975565
0.00819375
0.0348778
0.00576795
0.000596592
0.00373148
0.132121
0.432361
0.119764
0.01686
0.00786585
0.0170801
0.00336824
0.0185807
0.0421904
0.0546788
0.327731
0.482274
0.102
0.00259042
0.0314004
0.00812827
0.00664901
0.0115442
0.112106
0.302604
0.296259
0.03711
0.0237255
0.115942
0.0690484
0.0839474
0.095869
0.129363
0.253052
0.0668659
0.0523904
0.0342217
0.0305219
0.0105081
0.0423726
0.0960308
0.06042
0.143915
0.23295
0.211212
0.134384
0.100354
0.0521503
0.0609681
0.0879427
0.0742578
0.102596
0.0922837
0.155174
0.139275
0.183534
0.121708
0.137679
0.130074
0.166823
0.1228
0.239656
0.378885
0.395625
0.137063
0.0965127
0.105447
0.250908
0.10881
0.141436
0.157328
0.117195
0.0907698
0.054023
0.0172005
0.017979
0.0601234
0.323959
0.131487
0.0846181
0.0342783
0.0335351
0.0175194
0.00213868
0.0203149
0.445707
0.114292
0.0878417
0.131563
0.159138
0.209343
0.113199
0.067095
0.0693618
0.162158
0.323952
0.0889072
0.0909691
0.0508907
0.0441161
0.055354
0.0405876
0.0967004
0.474386
0.188963
0.0178876
0.00465921
0.000642984
0.00112551
0.00926153
0.0352257
0.0360752
0.398605
0.209146
0.00946892
0.00809085
0.0219611
0.00463698
0.0181953
0.148445
0.162311
0.41947
0.245325
0.0202304
0.00776536
0.00107164
0
0
0.000433932
0.00977365
0.411649
0.280781
0.0984449
0.0130106
0.0323346
0.0304931
0.0398551
0.00255914
0.0070202
0.3973
0.118287
0.0478716
0.0606837
0.087779
0.0249506
0.0158058
0.0715912
0.221447
0.229227
0.0779311
0.0825717
0.098469
0.100425
0.110178
0.100085
0.184847
0.323767
0.117594
0.131273
0.126543
0.0662983
0.12374
0.184739
0.191735
0.0284356
0.0312334
0.132965
0.0908466
0.153212
0.165317
0.312002
0.432585
0.285001
0.111608
0.118175
0.0679518
0.0149739
0.0153952
0.0217555
0.0268178
0.149716
0.139953
0.208074
0.14181
0.0192214
0
0
0.0244317
0.111379
0.158826
0.268331
0.296137
0.0759238
0.00596233
0.0302953
0.0648931
0.0965542
0.250604
0.417354
0.145703
0.0751257
0.0648616
0.021521
0.00699918
0.0269231
0.0930523
0.238722
0.494388
0.188334
0.0365604
0.0409413
0.00802241
0.00376732
0.0109546
0.0314233
0.0428342
0.00974962
0
0
0
0.00133704
0.0211535
0.211651
0.199434
0.141824
0.00505395
0
0
0
0.00632784
0.0659928
0.151368
0.150411
0.092723
0.0164423
0
0
0
0.000521766
0.0893317
0.479137
0.612838
0.367123
0.0179009
0
0.00785596
0.00138635
0
0.0117145
0.279733
0.175175
0.0439772
0.00455972
0.000930846
0.00103721
0
0.00219623
0.0156481
0.326252
0.487654
0.215533
0.0398989
0.00523928
0.00726049
0.0180498
0.0575854
0.0172665
0.300769
0.265506
0.146368
0.073551
0.0249321
0.0256347
0.00202897
0.0136905
0.0696086
0.215927
0.281512
0.107881
0.102742
0.0749107
0.11672
0.0921015
0.259882
0.046945
0.0778637
0.293846
0.32056
0.074093
0.0154814
0.0044788
0.0364801
0.138193
0.0948607
0.222221
0.204961
0.28148
0.0671399
0.0249052
0.00298036
0.0171587
0.0974235
0.163402
0.02731
0.131932
0.0866869
0.0289969
0.0228232
0.0859099
0.124517
0.437194
0.23596
0.0697112
0.11435
0.204963
0.184885
0.0760846
0.0222869
0.0351562
0.313301
0.112739
0.295128
0.287575
0.107121
0.0222705
0.00522166
0.00358131
0.00510465
0.0317321
0.205768
0.130256
0.153155
0.0162828
0.0112428
0.0845145
0.0882679
0.0848195
0.155448
0.21422
0.228412
0.230512
0.128229
0.185028
0.107827
0.000414568
0.000952207
0.0810634
0.429562
0.213538
0.135507
0.0185122
0.0836253
0.132542
0.0440299
0.0657798
0.326213
0.146377
0.00774481
0.0118769
0.0276414
0.0304363
0.0796813
0.0861533
0.105268
0.146396
0.307829
0.0330817
0.0146086
0.0540764
0.073544
0.0402966
0.0566137
0.0810495
0.363378
0.31051
0.037847
0.0132118
0.00355063
0.0643167
0.118397
0.0401418
0.067925
0.219829
0.544843
0.0408979
0.0166372
0.00161005
0.0440452
0.0578893
0.0169317
0.0315975
0.3863
0.152261
0.0257878
0.00685986
0.0177495
0.0400105
0.0304421
0.0409155
0.0302952
0.287931
0.202745
0.00877108
0.00651293
0.004809
0.00684279
0.015272
0.0241205
0.0367609
0.430714
0.320888
0.00764452
0.00194225
0
0.0038634
0.00313939
0.00569835
0.00600549
0.351818
0.37417
0.00047418
0
0
0
0
0.00292044
0.00376699
0.48966
0.262308
0.00405746
0.00159358
0.00144996
0
0
0.00264931
0.0107936
0.432487
0.251262
0.0854165
0.00385461
0.0145344
0.0304646
0.0457782
0.0445885
0.0654956
0.315685
0.381168
0.0160563
0.00466069
0.0088252
0
0
0.0040684
0.00810762
0.425498
0.246401
0.0735759
0.0343356
0.0818179
0.0148228
0.0202676
0.133953
0.145604
0.246607
0.080043
0.0980799
0.0129402
0.0235986
0.139828
0.198866
0.163078
0.0878054
0.0646335
0.0445139
0.139813
0.145829
0.197186
0.259344
0.205135
0.221557
0.118609
0.0942064
0.0346758
0.052176
0.122862
0.106828
0.0482159
0.0632409
0.263473
0.249355
0.0533087
0.152873
0.15535
0.391906
0.127286
0.131833
0.0929726
0.259377
0.258796
0.0904066
0.0883955
0.117971
0.141955
0.235976
0.216407
0.0382271
0.0315403
0.0302224
0.0449146
0.116813
0.0893217
0.0694861
0.157679
0.360269
0.162486
0
0.00950406
0.0670791
0.34198
0.125826
0.170436
0.0774485
0.103359
0.0650841
0.100013
0.0582527
0.100003
0.493292
0.104262
0.0563499
0.10006
0.139228
0.11475
0.0736862
0.0367438
0.251656
0.0496942
0.152346
0.119737
0.091571
0.108152
0.00868092
0
0
4.99792e-005
0.104606
0.451871
0.322206
0.135085
0.064183
0.0111663
0.0169583
0.0117783
0.00104674
0.0135817
0.0596
0.0811844
0.170471
0.434414
0.107652
0.0342561
0.00869121
0
0.0606056
0.268028
0.165812
0.109327
0.325194
0.155252
0.137599
0.164937
0.0113531
0.0285793
0.186329
0.135215
0.073371
0.0593646
0.0595411
0.0833214
0.0631813
0.0162697
0.0276244
0.0354772
0.0302809
0.0444877
0.0734802
0.1313
0.328638
0.251023
0.168333
0.0364059
0.116447
0.0414313
0.0282639
0.0466373
0.0853939
0.17845
0.217425
0.0260965
0.0125521
0.0116136
0.00174649
0.0299062
0.0767519
0.303529
0.568367
0.330897
0.0343698
0.0653453
0.000219951
0.00432967
0.00707807
0.0245346
0.0426807
0.255982
0.205012
0.180347
0.0954093
0.00474786
0.0301779
0.0188628
0.144275
0.185695
0.120072
0.0774252
0.115391
0.00780539
0
0
0.00381291
0.136618
0.33019
0.408243
0.19808
0.0200388
0.013009
0
0.00461117
0.0184006
0.175223
0.48949
0.274787
0.132952
0.0141813
0.0442395
0.0531716
0.0983587
0.0185317
0.153601
0.218752
0.0891393
0.0312986
0.0255243
0.0888257
0.0755608
0.0716411
0.0127213
0.125045
0.197295
0.0986444
0.0706849
0.105462
0.00227609
0.00326804
0.0152015
0.0210781
0.0922079
0.268783
0.378935
0.204346
0.00673456
0.0257165
0.0274752
0.0109979
0.00757105
0.0719071
0.12513
0.546728
0.393638
0.0611095
0.0902147
0.037475
0.0143747
0.00570487
0.106649
0.263869
0.0985826
0.0898516
0.0774287
0.210529
0.0406088
0.022188
0.00294676
0.0947043
0.216216
0.179632
0.0930416
0.158529
0.0597508
0.0848067
0.0379881
0.0267067
0.0589031
0.200528
0.318118
0.234347
0.0599044
0.0581804
0.0692432
0.103652
0.13808
0.272156
0.407148
0.369582
0.146903
0.0527811
0.355926
0.0146059
0.018169
0.00456938
0.0501479
0.0665126
0.0639058
0.03134
0.273905
0.541851
0.0130737
0.0107365
0.0031649
0.00833366
0.00478213
0
0.00558844
0.373489
0.0851813
0.0183937
0.063172
0.144709
0.324964
0.219072
0.128464
0.0364909
0.0701676
0.180815
0.0231898
0.0356667
0.0552959
0.0892318
0.0133383
0
0.0170271
0.124559
0.437115
0.0324199
0.00736577
0.00597102
0.000689922
0.00249974
0.00097707
0.00773303
0.341499
0.287304
0.104195
0.0496059
0.142081
0.0994129
0.0369035
0.110291
0.061302
0.183571
0.15094
0.0392156
0.0399863
0.0299697
0.0190527
0.00416624
0
0.030841
0.161304
0.126521
0.279199
0.345739
0.333422
0.152947
0.040046
0.0222023
0.0364761
0.112367
0.0151443
0.0183287
0.0824675
0.181831
0.099128
0.0183331
0.0540757
0.0466078
0.010916
0.0371372
0.0448157
0.193195
0.239412
0.25669
0.0698185
0.0311774
0.0496577
0.0223763
0.00975607
0.107727
0.199279
0.390366
0.137438
0.0142341
0.00890982
0.00408229
0.00680241
0
0.0788011
0.210243
0.530209
0.403125
0.0443747
0.00255713
0.00221297
0.00932062
0.0903585
0.02366
0.0701799
0.0761174
0.191656
0.106198
0.0919392
0.0249359
0.0608917
0.160485
0.0195865
0.0602241
0.0600803
0.187095
0.144907
0.121039
0.0202411
0.0987302
0.000691275
0.0130559
0.0777595
0.347787
0.443914
0.101004
0.049419
0.00639122
0.0272129
0.00833865
0.00405665
0.0474729
0.234872
0.567814
0.159541
0.0783766
0.00448886
0.0202301
0.00917674
0.0462413
0.0243581
0.15806
0.287856
0.193615
0.0820223
0.0109568
0
0.0107745
0.051916
0.0414045
0.044751
0.196864
0.220008
0.304034
0.247283
0.0102593
0.185299
0.455337
0.11664
0.0935595
0.104747
0.149652
0.0543232
0.00737529
0.00499905
0.139658
0.311836
0.142692
0.0235579
0.0406995
0.156272
0.200796
0.118362
0.036411
0.0146725
0.0179536
0.00860817
0.0221119
0.0297038
0.066378
0.215302
0.276838
0.0271993
0.00646958
0.00163022
0
0.0338802
0.149059
0.429233
0.355106
0.179359
0.0201246
0.0379363
0.0655682
0.0251273
0.00290401
0.00321719
0.0745836
0.180518
0.186011
0.0837744
0.0166695
0.00327919
0
0.00484002
0.0945331
0.350604
0.40431
0.207784
0.0975859
0
0
0
0.0025411
0.121449
0.329629
0.162789
0.0345318
0.000704245
0
0
0.00309479
0.0139639
0.0822457
0.380801
0.253222
0.0534807
0.00180835
0.0187656
0
0
0.000363014
0.0611002
0.250949
0.302543
0.127572
0.0136615
0.0130651
0
0.00185687
0.00206931
0.0303088
0.316548
0.485388
0.263579
0.023489
0
0.000887175
0.0122149
0.0161756
0.0155956
0.123345
0.277129
0.119179
0.00238693
0.0237427
0.0132571
0.0101679
0.00254065
0.00205978
0.00823373
0.361423
0.326091
0.062529
0.00557421
0.00147863
0.0101679
0.00254065
0.012468
0.139044
0.344075
0.276503
0.0952525
0.0225443
0.0036372
0.0108324
0.000500864
0.00168351
0.010109
0.139412
0.483119
0.351119
0.152144
0.0971266
0.0520873
0.0263338
0.0152336
0.0261006
0.203487
0.232675
0.15418
0.164234
0.154457
0.200163
0.200508
0.201937
0.115527
0.0860244
0.0383965
0.0793321
0.173786
0.0476418
0.0202239
0.00421523
0.00190991
0
0.0449215
0.359879
0.407869
0.321118
0.172441
0.114139
0.0876699
0.0312864
0.00304397
0.00551544
0.0837811
0.295208
0.0264733
0.0385001
0.084145
0.185031
0.196664
0.0623264
0.0237482
0.00522966
0.0118959
0.0299846
0.0173252
0.0339026
0.0557355
0.0636467
0.0119938
0.0202169
0.00759203
0.041786
0.363864
0.129581
0.0551784
0.0979139
0.0354011
0.0100627
0.00470601
0.00716337
0.139025
0.740051
0.215066
0.0243938
0.0225719
0.0193157
0.0151468
0.0336949
0.0054923
0.222105
0.016742
0.0351904
0.0779419
0.0541676
0.0161512
0.00325142
0.00578824
0.00461413
0.0212712
0.0124046
0.199734
0.408213
0.165413
0.027988
0.00203062
0.000332137
0.00543156
0.01021
0.282521
0.221505
0.186231
0.0847067
0.0121441
0.00503221
0.00964706
0.000434259
0.0676292
0.0965203
0.32115
0.556741
0.31454
0.0416723
0.000676575
0.000553561
0.000933593
0.0125701
0.00316763
0.229346
0.341678
0.138295
0.0196215
0.000720796
0.000648726
0.00157055
0.00105101
0.00682644
0.240612
0.275408
0.305671
0.0722653
0.00347065
0.00454109
0.0024452
0
0.0118628
0.290155
0.474673
0.0958614
0.0136243
0
0.00454109
0.00493759
0.00525904
0.0359875
0.319282
0.315389
0.0880648
0.0257717
0.000263704
0.0317876
0.0212831
0.00763002
0.00346793
0.0466683
0.0700539
0.262798
0.218616
0.0160244
0.00405051
0.000986591
0
0.000161271
0.000197109
0.00450798
0.224862
0.531381
0.0214929
0.00369712
0
0
0.0241133
0.069353
0.0420221
0.179627
0.283446
0.00192355
0.0128257
0.008085
0.00315667
0.00269424
0.00137976
0.0014077
0.295396
0.531381
0.0124126
0.0109038
0.00018748
0.000282542
0.224821
0.394325
0.109375
0.0691488
0.0963221
0.0689097
0.0434714
0.0837259
0.0831187
0.201163
0.262304
0.088429
0.0114886
0.00983779
0.0728383
0.100905
0.107647
0.147522
0.0405107
0.13896
0.170949
0.175827
0.080331
0.143938
0.0698085
0.155488
0.15094
0.183004
0.300944
0.245487
0.179189
0.0121846
0.0561841
0.104577
0.112816
0.263442
0.0440964
0.0550023
0.0141247
0.000703922
0.00219538
0.0944013
0.115838
0.0822523
0.100594
0.028893
0.00271549
0
0
0.0144666
0.266094
0.358251
0.148611
0.121631
0.159255
0.103071
0.0480414
0.037681
0.00431225
0.0637692
0.0905468
0.140543
0.303483
0.0645518
0.00460033
0.00185628
0.00344739
0.00609828
0.126735
0.221859
0.47846
0.410679
0.0423664
0.00109881
0.000612134
0.00931086
0.00690146
0.169296
0.267247
0.145712
0.0605215
0.040861
0.00769165
0.00428494
0.065176
0.0249947
0.419361
0.436419
0.238938
0.0794916
0.0845415
0.00769165
0.00167137
0.0155181
0.000503935
0.0704708
0.10427
0.196369
0.218738
0.216405
0.0538415
0.0116996
0.108627
0.0175344
0.268712
0.136114
0.0887798
0.324063
0.0204622
0.0023066
0.00177301
0.0178524
0.0179083
0.185545
0.162007
0.16138
0.164722
0.0399603
0.000332952
0.000998855
0
0.00255833
0.0246304
0.0767304
0.312701
0.436754
0.119276
0.0156394
0.00320464
0.0297541
0.0130555
0.134623
0.0964543
0.0578451
0.329878
0.28664
0.006241
0
0
0.00186507
0.0243923
0.0956634
0.130945
0.522191
0.0467705
0.00221244
0.000477617
0
0
0.00604883
0.0704816
0.258649
0.291231
0.192666
0.0898047
0.0169605
0.00341699
0.000136581
0.00118281
0.0310578
0.110126
0.285078
0.22023
0.00252518
0
0
0
0.0100814
0.102283
0.17011
0.438278
0.277757
0.119591
0.0361484
0
0
0.0014402
0.0429356
0.113258
0.509675
0.271587
0.156051
0.0406179
0.00294432
0.000319908
0.000760929
0.000355864
0.00494495
0.0786268
0.516579
0.198257
0.0459463
0.000420617
0.000191945
0.00114539
0.00254798
0.000434916
0.0669196
0.34922
0.172917
0.0765776
0
0
0
0
0.00739398
0.179917
0.516579
0.182738
0.0766972
0
0
0
0
0
0.184392
0.364907
0.188311
0.152802
0.0699851
0.00492424
0.00421483
0.00474641
0.00086197
0.0601234
0.109583
0.158147
0.494266
0.27292
0.0510963
0.0245965
0.00570555
0.0144635
0.0723061
0.322235
0.152353
0.117173
0.0572837
0.00583344
0.00583344
0.0236331
0.00814413
0.152708
0.0931373
0.0643588
0.168747
0.159519
0.0508101
0.0408341
0.0393884
0.0529171
0.372228
0.0480926
0.118274
0.364991
0.124006
0.0328771
0.0101111
0.00325983
0.0266721
0.117591
0.0885916
0.104545
0.143448
0.0446382
0.0302727
0
0.0168388
0.0591614
0.141555
0.0945202
0.00904258
0.0484863
0.0591579
0.0280429
0.0168518
0.00597996
0.0474681
0.523497
0.234507
0.00788747
0.0202089
0.0198168
0.00988008
0
0
0.0709505
0.585119
0.0449462
0.0228081
0.0332179
0.124701
0.240595
0.0515841
0.0172784
0.0197414
0.0582389
0.00572005
0.00164034
0.020585
0.194216
0.593157
0.159916
0.103722
0.0430069
0.0116119
0.191679
0.00539778
0.0722796
0.0651699
0.0667767
0.100261
0.0180652
0.0251807
0.337311
0.135825
0.00663327
0.0957843
0.0951366
0.146101
0.35482
0.179283
0.127381
0.146795
0.00806534
0.103495
0.160691
0.165108
0.159844
0.129199
0.0317282
0.0317397
0.0270317
0.107325
0.180645
0.275936
0.269391
0.183776
0.0548252
0.0343962
0.0446511
0.0754432
0.00109602
0.0388684
0.109208
0.151456
0.340317
0.180669
0.0761432
0.0724392
0.0513731
0.0674088
0.0340698
0.140678
0.202048
0.376479
0.113419
0.195213
0.22721
0.236652
0.12611
0.0610548
0.0620723
0.0646307
0.0399978
0.0246753
0.0256685
0.111767
0.17817
0.0815739
0.0133251
0.00349835
0.0137811
0.0248222
0.0303338
0.08926
0.317857
0.305495
0.209827
0.0192799
0.0323207
0.0423963
0.0718937
0.0369751
0.0704065
0.182966
0.274382
0.554351
0.0447268
0.00209901
0.0160385
0.0404166
0.0447522
0.0603154
0.147453
0.375818
0.0992529
0.0193887
0.000435298
0.00456897
0.010845
0.0238412
0.0790592
0.144643
0.201956
0.311379
0.0596629
0.0218322
0.0150596
0.00287122
0.0167933
0.0400298
0.0464911
0.316865
0.333189
0.0490907
0
0.00402933
0.0179585
0.0390755
0.0701893
0.059455
0.286663
0.378938
0.0687077
0.0313085
0
0.00122239
0.00779865
0.029975
0.093031
0.536797
0.181032
0.0210625
0.0164763
0.00458557
0.00176945
0.01101
0.023942
0.0666088
0.285002
0.323503
0.0200594
0.00222121
0.00111241
0.0019214
0.0102815
0.0388167
0.140781
0.398882
0.182906
0.0218631
0.0259141
0
0
0.00688229
0.0320636
0.124474
0.375554
0.213291
0.0181584
0.00370202
0.00778689
0.0116803
0.0520549
0.111981
0.248206
0.473579
0.230603
0.00823305
0
0.00332122
0.00926936
0.00494102
0.0505085
0.161173
0.315842
0.318434
0.0319639
0.00997964
0.00199273
0.010135
0.00325601
0.0283607
0.119747
0.402903
0.252434
0.0422586
0
0.0232485
0.0648855
0.0237261
0.0917994
0.16384
0.275152
0.404887
0.0632286
0
0.0139491
0.0709448
0.0212405
0.061329
0.0860157
0.336255
0.335376
0.0272174
0.0124209
0
0.000663879
0.00202331
0.00456351
0.0098555
0.162692
0.424702
0.0305852
0.00983706
0
0
0.000289044
0.00295276
0.013154
0.324687
0.288929
0.0135575
0
0
0.00464715
0.0141632
0.0319445
0.0297974
0.247705
0.405982
0.0107353
0
0
0
0.00202331
0.0206693
0.0448581
0.460446
0.191785
0.0378638
0.0112539
0.00464805
0.000739772
0.000739772
0.0147249
0.0314093
0.341792
0.124117
0.0166739
0.0104909
0.00774675
0.0051784
0.0051784
0.0262344
0.041126
0.472102
0.209123
0.00648492
0
0
0
0
0.0460465
0.0684389
0.443346
0.147826
0.00612674
0.00528747
0
0
0
0.0885944
0.0856791
0.516894
0.159145
0.0048388
0.00563199
0.00118978
0.00216191
0.00216191
0.00547016
0.0154185
0.434509
0.30971
0.00557919
0.00709972
0.00124407
0
0.00139082
0.0048454
0.0183274
0.483636
0.16825
0.036761
0.0341926
0
0
8.20972e-005
0.0279282
0.0592087
0.392243
0.28654
0.0592798
0.0413016
0
0.000223599
0.0503227
0.0594039
0.0523085
0.339244
0.303215
0.00284994
0.0281001
0.0119553
0
0.0305629
0.0122177
0.0363566
0.421691
0.417706
0.00795551
0.0658164
0.0529824
0
0.115922
0.0508305
0.0872503
0.304852
0.191978
0.0180543
0.0139195
0.00100718
0.00373248
0.148988
0.0912621
0.0764757
0.279967
0.34038
0.0391778
0.101773
0.0295115
0.0490362
0.11067
0.0578421
0.0555759
0.236561