0.00591875
0
0
0
0
0
0.0454072
0.298879
0.131469
0.0184853
0
0
0
0
0
0.0332552
0.418788
0.1438
0.00551664
0
0
0
0.0001119
0
0.0641127
0.32411
0.306676
0.0308089
0
0
0
0
0
0.02843
0.523061
0.402604
0.00995673
0
0
0
0
0
0.0472119
0.290739
0.141728
0.0177899
4.08191e-005
0
0
0
0
0.0760419
0.245771
0.326315
0.0255661
0
0
0
0
0
0.00873037
0.339327
0.416875
0.0619541
0
0
0
0
0
0.0162497
0.269129
0.547605
0.0181096
0.000116921
0.000253105
0.000470053
0
0.00117044
0.0222893
0.14851
0.315009
0.00965147
0.00688046
0.00163929
0.00133844
0
0.00195074
0.0274653
0.199118
0.296105
0.0303943
0
0
0
0
0.00670012
0.04801
0.260775
0.483425
0.00346101
0
0
0
0
0.0111669
0.13626
0.539517
0.285789
0.0192874
0.0142751
0.00319892
0.00282575
0.000811199
0.0023357
0.041458
0.179011
0.164731
0.0616306
0.0066545
0.00177248
0.00216649
0.00699743
0.0143789
0.0211343
0.105921
0.190091
0.0429298
0.00280895
0
0
0
0.00230576
0.136411
0.566445
0.204034
0.214681
0.0196627
0
0
0.000678734
0.00107677
0.0317177
0.22177
0.583021
0.12152
0.0208172
0.00611363
0.00161391
0.00596655
0.0102775
0.00769597
0.0281979
0.144696
0.215213
0.111837
0.0304672
0.0229465
0.0026239
0.0161583
0.0206103
0.00342791
0.0498977
0.318311
0.0357266
0.000427952
7.55211e-005
0.000760066
0.000998799
0.00038581
0.0517105
0.508666
0.605099
0.141829
0.00309512
0.00241831
0.000108581
0.00115273
0.000927138
0.0366135
0.273974
0.138949
0.0540103
0.0161538
0.017594
0.00290594
0.0163631
0.0354621
0.00950707
0.0728603
0.0880073
0.0142176
0.00870575
0.00271215
0.00878816
0.0256584
0.0282433
0.0319596
0.256779
0.432193
0.0588248
0.001228
0.00213011
0
0.000759719
0.00177559
0.00619778
0.258734
0.298896
0.00261013
1.45213e-005
0.000275905
0
0.000379034
0.00261139
0.0501062
0.686176
0.0385744
0.00815358
0.00124518
0.00407179
0.0100819
0.0196743
0.00991904
0.0459692
0.184958
0.0247193
0.00322895
0.00678093
0.00815491
0.0206588
0.0277155
0.0245611
0.0587133
0.14306
0.0823204
0.00064906
0
0.000529742
0.000442915
0.000269261
0.000664025
0.157476
0.600756
0.151175
0.00270331
0.0214615
0.00100442
0.0150098
0.00213165
0.0161035
0.180129
0.6404
0.0275717
0.00259541
0.0367348
0.0313205
0.0548893
0.0395522
0.0593532
0.0514699
0.107979
0.0535909
0.00917449
0.0560897
0.0686758
0.0889219
0.179651
0.11813
0.108342
0.0186499
0.417473
0.0160419
0.136562
0.0622932
0.0814598
0.0100198
0.0340545
0.0671515
0.440399
0.301597
0.0147425
0.119192
0.120538
0.155057
0.223406
0.0762671
0.136008
0.395337
0.0901423
0.0144826
0.0338467
0.029128
0.0442684
0.125387
0.0658307
0.0736184
0.0278714
0.137862
0.0597721
0.0382997
0.0239908
0.0407086
0.0298056
0.0671325
0.0487139
0.0700968
0.15523
0.0120108
0.0166863
0.0234805
0.0537066
0.194928
0.0991014
0.141059
0.463718
0.492266
0.101707
0.103689
0.00262201
0.00749468
0.0363448
0.074376
0.0662302
0.466789
0.00728087
0
0
0
0.00112333
0
0.0225591
0.22352
0.36165
0.0152111
0
0
0
0
0
0.00786464
0.652368
0.512048
0.00870345
0
0
0
0.00210702
0
0.0105204
0.0214498
0.0496191
0.00952838
0
0
0
0.000145869
0
0.00054222
0.10352
0.130576
0.0177814
0
0
0
0
0
0
0.285529
0.382268
0.0700046
0
0
0
0
0
0.0311739
0.334719
0.660902
0.0090328
0
0
0
0
0
0
0.069477
0.145312
0.0253241
0.0059422
0.00544385
0
0
0
0.0187043
0.219082
0.277006
0.0223648
0
0
0
0
0.00741244
0.112299
0.299875
0.258973
0.000877506
0
0
0
0.00200727
0.0143613
0.172607
0.545269
0.176789
0.0097871
0.0220886
0.043644
0.000810643
0
0.00105892
0.0654734
0.256669
0.170971
0.00235681
0.113019
0.1927
0.00135107
0.0140509
0.0158158
0.146937
0.451785
0.191614
0.031054
0.0079024
0.00133987
0.00535949
0.00614082
0.0080225
0.0894798
0.474655
0.124207
0.211154
0.0566785
0.00223312
0.00893248
0.00368449
0.00735579
0.0402305
0.200923
0.287439
0.0347801
0.216049
0.175712
0.0377222
0.0429857
0.0432545
0.0957967
0.349167
0.0796963
0.408258
0.281581
0.0929876
0.0625274
0.0257914
0.0319103
0.0497645
0.15649
0.0886148
0.221708
0.0411508
0.000352579
0.00141031
0.00318291
0.0265178
0.0202707
0.0800064
0.295403
0.289764
0.0467265
0
0
0.0141182
0.0376533
0.00505546
0.0919509
0.249693
0.508334
0.201097
0.00836163
0.0098722
0.00530485
0.0441964
0.0337845
0.055641
0.107031
0.416207
0.2235
0
0
0.0235303
0.0627555
0.00842577
0.0768453
0.278273
0.269357
0.0271356
0.00155187
0
0.00524288
0.00677346
0
0.0275955
0.210106
0.279853
0.0171729
0.00258645
0
7.13016e-005
0.000641715
0
0.0436385
0.431233
0.172271
0.0666497
0.00258645
0
0.00873813
0.0112891
0
0.113165
0.412473
0.144038
0.0281603
0.00431075
0
0.000499111
0.004492
0.0186004
0.375336
0.400653
0.12649
0.00282385
0.00151728
0.00126444
0.000183805
0.00165425
0
0.0658158
0.432263
0.238153
0.0069405
0.010295
0.0021074
0.00180543
0.000992549
0.00200852
0.058234
0.595813
0.133028
0.0210127
0.00885053
0.00885107
0.00128664
0.0115797
0.0176395
0.210555
0.219778
0.280484
0.0765262
0.0266104
0.0147518
0.000771982
0.00694784
0.00251993
0.0505816
0.32595
0.359818
0.011981
0.0285191
0.00802717
0.00755215
0.000294397
0.00230573
0.0155939
0.333674
0.243635
0.00770879
0.0238672
0.0160699
0.0190107
0.0233742
0.00717399
0.0865943
0.488422
0.249616
0.047093
0.00861263
0.00229186
0
0
0
0.0703708
0.276383
0.139697
0.0570679
0.0223692
0
0
0
0.00497685
0.14929
0.423832
0.0728531
0.00227713
0.0017735
0.00255786
0.0047117
0.0182736
0.0112705
0.0578541
0.419786
0.271369
0.0188116
0.0135174
0
0
0.00316848
0.00617216
0.0154045
0.459313
0.0796919
0.0576943
0.0180907
0
0
0
0.00755648
0.0769128
0.31058
0.198242
0.0222157
0.00258438
0
0
0
0.00363348
0.0319843
0.554759
0.00922519
0
0
0
0.00998807
0.00513159
0.133606
0.046527
0.0120819
0.0243902
0.00237262
0.000418698
0
0.00728574
0.000283515
0.0138537
0.00513361
0.0195912
0.165739
0.00826981
0
0
0.01427
0.0359211
0.464119
0.212294
0.145242
0.617065
0.331509
0.00069783
0
0.0118323
0.0019846
0.0935202
0.0460312
0.188793
0.0335034
0.00858769
0.00330527
0
0.00112761
0
0
0.00366335
0.0167398
0.0417607
0.11232
0.0897325
0
0.000161087
0
0
0.024364
0.0453939
0.375308
0.248005
0.0130339
0
0.00187935
0
0
0
0.0945075
0.316965
0.531171
0.533595
0.0489244
0.000268478
0
0
0
0.0991784
0.00675161
0.136537
0.100936
0.00058193
0
0
0.00140493
0.024732
0.0243555
0.00428846
0.342138
0.301399
0.000969884
0.00371066
0.00371066
0.0209183
0.0507236
0.0236664
0.0193902
0.391721
0.354343
0.0272519
0
0
0
0
0.00575652
0.0123594
0.498145
0.425053
0.0088232
0
0
0
0
7.62799e-005
0.019995
0.413964
0.234001
0.0105545
0.0119155
0.0119155
0.0187333
0.0329745
0.0065817
0.283644
0.34729
0.0838648
0.0173324
0.00714929
0.00777326
0.00586253
0.0155151
0.0329607
0.0435734
0.519838
0.260214
2.21513e-005
0
0
0
0.00488333
0.00681638
0.2189
0.318728
0.0626038
0
0
0
0.00678452
0.034249
0.125959
0.576311
0.173118
0.00859798
0.00398442
0.000787644
0.00656211
0.0050162
0.00645258
0.0707895
0.460912
0.130111
0
0
0.00349369
0.0093177
0.00129268
0.0248473
0.289102
0.307039
0.0764148
0.00547397
0.000994695
0.00905745
0.013016
0.0313263
0.0537124
0.215541
0.232279
0.0233284
0.0231026
0.00696287
0.0150957
0.0216934
0.0190874
0.031773
0.196262
0.0935935
0.024515
0.000346797
0
0.00117163
0.00151367
0.000783466
0.11637
0.428685
0.00988848
0.0038734
0.000577995
0
0.000181913
0.00163722
0.0498804
0.519881
0.349295
0.0575545
0.00954462
0.00874645
0.00263608
0.00210248
0.00302137
0.00269135
0.117066
0.2032
0.00318939
0.00103199
0
0
0
0
0.0453564
0.461747
0.224738
0.0614866
0.0173486
0.00340667
0.00354704
0.000515615
0.00464054
0.0521634
0.396196
0.162092
0.207833
0.0589315
0.010664
0.00591173
0.0174232
0.00278432
0.0177758
0.152239
0.206402
0.0233902
0.00240825
0
0
0
0
0.0840635
0.487258
0.203325
0.0894331
0.00753068
0
0
0.028523
0
0.19143
0.488822
0.222274
0.145383
0.0363454
0.00463654
0.00123381
0.0263917
0
0.0144173
0.197311
0.23484
0.079576
0.105655
0.0850474
0.0255715
0.00798192
0
0.0108454
0.244255
0.283924
0.0822753
0.00322704
0
0
0.0439862
0
0.19391
0.378206
0.287509
0.0676647
0.0369902
0.0648932
0.0426191
0.0133032
0.00790859
0.156937
0.339229
0.431594
0.180715
0.185878
0.105782
0.0378934
0.0210314
0.00566066
0.00821705
0.0739122
0.173123
0.306258
0.105723
0.0569617
0.0368045
0.0240497
0.00943444
0.00317561
0.0249304
0.576725
0.0923458
0.0721724
0.0863044
0.0814519
0.0404998
0.0206987
0.113088
0.180046
0.191677
0.173337
0.0824102
0.102215
0.286387
0.0923422
0.0265481
0.0363009
0.0889011
0.244243
0.168341
0.0589388
0.0701507
0.0051337
0.0091639
0.0162337
0.110974
0.103681
0.105439
0.497038
0.413745
0.0855775
0.0100603
0.00719545
0.0110348
0.0291763
0.0205748
0.0789722
0.0908712
0.0976288
0.119527
0.0359359
0.0897061
0.118224
0.105852
0.141175
0.0450796
0.244453
0.406529
0.20826
0.0887357
0.0475514
0.113578
0.070645
0.179408
0.0197038
0.216342
0.264684
0.0382206
0.0126552
0.00295603
0.000724186
0.000241395
0
0.0532679
0.144823
0.352151
0.340728
0.084231
0.00170723
0
0
0
0.0723317
0.082059
0.207947
0.129538
0.176657
0.0295119
0.0121727
0.0074481
0.0245048
0.0158854
0.0355078
0.248367
0.515853
0.345116
0.0285925
0
0
0
0.0252399
0.0173205
0.225148
0.367968
0.104746
0
0
0
0
0.00773207
0.0189143
0.36962
0.288087
0.0654455
0
0
0
0
0
0.0135851
0.122843
0.384523
0.178442
0.00208343
0
0
0
0.00272468
0.0257588
0.302163
0.482677
0.0993696
4.48124e-005
0
0
0
0
0.0517071
0.354931
0.173656
0.0072555
0
0.000597948
0.000321972
0.00207951
0.00525004
0.179712
0.280529
0.0730187
0.0067455
0.00776533
0.0230026
0.0459583
0.0458973
0.142531
0.0326769
0.515282
0.352439
0.0129576
0.0194959
0.00571559
0.0022538
0
0.010273
0.0999946
0.421555
0.144828
0.0882886
0.129484
0.0965173
0.0692861
0.0323538
0.0615886
0.118483
0.0717007
0.0182073
0.0132615
0.0877544
0.147158
0.142278
0.082971
0.230076
0.0392319
0.00752576
0.0456586
0.0141248
0.121779
0.15983
0.0792546
0.0334277
0.0733652
0.0725731
0.0988002
0.0751622
0.144426
0.267495
0.415647
0.262242
0.0812454
0.0870013
0.145519
0.0243133
0.0286957
0.024963
0.211345
0.401758
0.306523
0.143209
0.142738
0.0440054
0.0239096
0.0244991
0.0065135
0.0252241
0.0257473
0.00905875
0.0732627
0.0505683
0.0506347
0.0233088
0.000790737
0
0
0
0.0128085
0.191407
0.106279
0.384029
0.069935
0.0121654
0.00259483
0.0333675
0.0617513
0.0766429
0.106167
0.274229
0.613595
0.0855787
0.00131789
0
0
0
0.00349633
0.0448022
0.4413
0.0237593
0.00283853
0
0
0.0032489
0
0.063208
0.218849
0.0968362
0.0212701
0
0.00244418
0.00523122
0.0124852
0
0.252976
0.435936
0.122792
0.310656
0.0149792
0
0
0.00541484
0
0.0195146
0.056468
0.395934
0.257888
0
0.0363447
0.0505335
0.0226225
0
0.0759016
0.267393
0.406875
0.0352298
0.00452505
0.0184828
0.0392011
0.0179715
0
0.161767
0.314146
0.255147
0.0327255
0.0214153
0.0270103
0.0911557
0.0653471
0.0658258
0.166293
0.231542
0.351888
0.102339
0.0371786
0.223684
0.184339
0.0424456
0.0120265
0.0385313
0.212029
0.243034
0.108898
0.18843
0.253663
0.232475
0.154438
0.195732
0.0723852
0.102416
0.164374
0.0186868
0.0162294
0.0272859
0.0822185
0.0904243
0.152899
0.273139
0.233519
0.164229
0.0419206
0.0206694
0.0707041
0.342757
0.122985
0.0819867
0.100329
0.149805
0.0976326
0.0774106
0.120057
0.075026
0.110953
0.184513
0.358426
0.212319
0.130651
0.132306
0.0347585
0.0380863
0.168568
0.235242
0.104233
0.12398
0.101548
0.101202
0.165214
0.00978098
0.036753
0.0389455
0.0843649
0.176659
0.146564
0.103202
0.119475
0.00550529
0.00950155
0.109103
0.140856
0.149044
0.110872
0.209063
0.129244
0.205637
0.00310079
0.00674138
0.185716
0.214608
0.218523
0.160368
0.078535
0.0320642
0.0170128
0.0166347
0.00352115
0.225013
0.456933
0.416151
0.158086
0.166824
0.0723062
0.0416732
0.0425234
0.00200589
0.0444338
0.121225
0.253825
0.0475745
0.0311619
0.0145566
0.0255383
0
0.000286555
0.0357714
0.272563
0.455977
0.0850267
0.00565524
0
0
0
0
0.0291845
0.185107
0.363961
0.114133
0.039381
0.020496
0.0110588
0.0179679
0
0.00794359
0.100456
0.491046
0.351907
0.0924093
0.00962205
0.00170831
0.00256685
0.0043641
0.0805518
0.278387
0.1784
0.0432385
0.00522625
0
0
0
0.0125497
0.273309
0.554327
0.0797091
0.0232155
0.00178007
0
0
0
0
0.0308822
0.144847
0.247851
0.27767
0.141748
0.0305292
0
0
0.00316573
0.0944646
0.363901
0.2193
0.186088
0.16291
0.0804176
0
0
0.0345811
0.402605
0.40556
0.0216601
0.112045
0.0213439
0.00125505
0
0.0147472
0.0575413
0.21492
0.086097
0.0938314
0.358371
0.137085
0.0216252
0.0061163
0.0659853
0.0149928
0.109041
0.226953
0.121447
0.249553
0.0897259
0.0455973
0
0.00210674
0.0856717
0.0938848
0.0773305
0.127882
0.399185
0.0985232
0.00388186
0.00334351
0.0900733
0.0564367
0.0540039
0.0322301
0.0761084
0.14638
0.15963
0.120527
0.0628088
0.0878798
0.202877
0.0587525
0.00545599
0.0103208
0.0362
0.111028
0.19502
0.153772
0.347478
0.170252
0.113276
0.0382562
0.0287941
0.0932956
0.0425255
0.0291517
0.0611313
0.17214
0.380366
0.0747483
0.0127089
0.000985495
0.00160223
0.0070804
0.0476857
0.108924
0.59179
0.229317
0.0302529
0.000120305
0
0.00159076
0.00699559
0.0229106
0.0310316
0.24715
0.352865
0.0288341
7.21829e-005
0
0
0
0
0.00758946
0.319635
0.306517
0.0145454
0
0
0
6.71876e-005
0.00469399
0.0129214
0.361017
0.470222
0.0150422
0
0
0
0
0
0.00964493
0.393832
0.29574
0.0114203
0
0
0.0014761
0.00456191
0.00811894
0.0371566
0.393457
0.215281
0
0.016363
0.0237988
0.0152261
0.0316994
0.104441
0.196128
0.293639
0.394346
0.0665154
0.00276674
0
0.00704483
0.0319333
0.015747
0.0465329
0.376416
0.182671
0.160021
0.032064
0.0490755
0.0941015
0.19254
0.177761
0.132327
0.198879
0.0837294
0.0159676
0.132071
0.119657
0.0540112
0.106082
0.141291
0.149957
0.115678
0.0585901
0.0871823
0.152788
0.149393
0.169618
0.210348
0.0770144
0.0170637
0.00968356
0.0292524
0.0854284
0.0520675
0.146308
0.240303
0.33565
0.236313
0.0894951
0.0499894
0.00501286
0.00889785
0.0570681
0.2362
0.472207
0.295585
0.118487
0.00559048
0.00380757
0.0823986
0.0542808
0.0817935
0.145034
0.203425
0.181393
0.0586065
0.0559579
0.0660775
0.080371
0.0108407
0.100895
0.114255
0.0989039
0.0804369
0.0431453
0.123461
0.11807
0.0788754
0.00333156
0.091153
0.320883
0.528735
0.208062
0.070033
0.073626
0.0476278
0.129621
0
0.0512659
0.148231
0.18159
0.130626
0.127094
0.256756
0.102116
0.00112206
0.252461
0.163885
0.0342603
0.0118459
0.0101989
0.000263361
0.000148599
0.00282338
0
0.281877
0.278794
0.0761058
0.018655
0.0185193
0.0218762
0.0355326
0.0435307
0.000864262
0.376367
0.455576
0.0404336
0.00679636
0.0158708
0.000438935
0
0
0
0.437003
0.332579
0.10293
0.140805
0.0503361
0.024774
0.0428986
0.025102
0
0.0703549
0.156554
0.142596
0.122687
0.11433
0.0628012
0.0522105
0.0581939
0.00120843
0.00114092
0.0203353
0.133698
0.353372
0.301834
0.0683306
0.0128275
0.00896411
0
0.116268
0.0991546
0.151427
0.292688
0.195718
0.116969
0.0614166
0.0349163
0.00845903
0.000162988
0.00216688
0.0494824
0.212169
0.489839
0.362951
0.0154775
0.00954291
0.00254431
0
0.0120492
0.0588941
0.190957
0.207781
0.148125
0.0286258
0.00137001
0.00152659
0.00677961
0.0358486
0.0672765
0.102722
0.189916
0.395199
0.0892731
0.00797243
0.0178102
0
0
0.00297993
0.0415069
0.214523
0.302165
0.0802258
0.0192722
0.0106861
0.00303491
0.00194638
0.0050383
0.0110757
0.0842222
0.573974
0.369557
0.0338083
0
0.0217262
0.0436118
0.0880002
0.101426
0.064645
0.209501
0.0702941
0.0264719
0.0376887
0.0910527
0.106581
0.162102
0.169873
0.0351549
0.0173785
0.0167479
0.0305872
0
0.0158249
0.0320202
0.0452162
0.0418906
0.020415
0.601223
0.44782
0.0560286
0.00731189
0.0784472
0.186532
0.14527
0.241024
0.090914
0.14747
0.234133
0.066759
0.159435
0.14226
0.10278
0.0475861
0.0496898
0.0182153
0.0015904
0.00816359
0.0562886
0.460008
0.094172
0.0399068
0.0154067
0.00561536
0.00191139
0.0002272
0.013924
0.346009
0.0664574
0.133527
0.182321
0.236575
0.202476
0.0802614
0.0153277
0.0186327
0.0253657
0.384883
0.199243
0.115789
0.292212
0.0988318
0.0133798
0.0015904
0
0.261943
0.288026
0.00724792
0.000615345
0.00128576
0
0
0
0.00151063
0.267343
0.416477
0.00282407
0
0
0
0
0
0.00222722
0.312929
0.285814
0.0370151
0.0131481
0.0309326
0.00675706
0
0
0.000333426
0.300568
0.434451
0.00418105
0.000477616
0
0.000574389
0
0
0.000703226
0.396515
0.383515
0.0766749
0.00227159
0
0.00212783
0.0096452
0.00230488
0.00816845
0.183066
0.29262
0.245157
0.0403072
0.0380114
0.0461561
0.0605702
0.0244154
0.00952965
0.0480057
0.498738
0.0537579
0.00475062
0.00277959
0.000694898
0
0
0.000583445
0.210997
0.503487
0.181349
0.0377617
0.0771791
0.0444965
0.00694414
0.0261677
0.0143851
0.0423599
0.118773
0.154284
0.0791063
0.179042
0.147088
0.104091
0.0333382
0.00549044
0.0045766
0.00777201
0.00860183
0.110922
0.276525
0.278342
0.123872
0.0244571
0.00358683
0.00339539
0.224188
0.122776
0.0884413
0.316166
0.237644
0.0554597
0.0442616
0.0238331
0.00477231
0.0129534
0.0604136
0.314866
0.431112
0.291446
0.0967624
0.0127351
0.00838195
0.00565898
0.0129978
0
0.0760353
0.176314
0.327014
0.180848
0.0870383
0.0938169
0.0347695
0.0279506
0
0.0138395
0.0849779
0.156382
0.0982433
0.144299
0.168807
0.0575965
0
0.0630529
0.394487
0.358753
0.183926
0.102006
0.0721351
0.0566738
0.0318048
0.0514589
0.0340402
0.192887
0.364946
0.131256
0.0631344
0.122032
0.109421
0.0577457
0.0212985
0.211781
0.452411
0.0894568
0.0138832
0.0467127
9.15112e-005
0.0123807
0.00380839
0.0446693
0.181381
0.301463
0.164036
0.276101
0.0868237
0.00379451
0.0276815
0.00261034
0.0867628
0.145664
0.203234
0.0695009
0.0100594
0.0433565
0.00266704
0.0220706
0.0261046
0.0972743
0.149544
0.524697
0.181193
0.108456
0.0458891
0
0.0343909
0.00827113
0.014912
0.0433282
0.105107
0.19178
0.325012
0.0751061
0.0606884
0.00958235
0.000302176
0.00335634
0.00122828
0.011066
0.0928129
0.138116
0.287983
0.419033
0.00177462
0.00180726
0.0258022
0.0663265
0.315957
0.240434
0.149352
0.0377332
0.0386393
0.00746522
0.000503627
0
0.00683343
0.0351176
0.132815
0.0851498
0.251838
0.449682
0.0323026
0
0.0072113
0
0
0.00925395
0.00677904
0.206662
0.274617
0.0286843
0.0145394
0.00432678
0
0
0.014859
0.00376259
0.113149
0.408932
0.225193
0.0256839
0
0
0.000167598
0.00641629
0.00564355
0.250172
0.469079
0.0434917
0.00152234
0
0
0
0.00891539
0.00222885
0.153981
0.477603
0.233476
0.0125179
0.000177494
0.00146049
0.0133753
0.0052392
0.00601474
0.0166196
0.34075
0.39239
0.0404563
0.0622176
0.0562248
0.104122
0.047056
0.0798472
0.023989
0.118976
0.383326
0.153483
0.00124246
0
0.00128483
0.0012916
0.000322899
0.0200463
0.195796
0.382792
0.0677544
0.165544
0.0473362
0.0339067
0.00995649
0.00553753
0.00331451
0.0566978
0.402053
0.264388
0.116814
0.140125
0.228759
0.341762
0.180923
0.0407012
0.0120788
0.0967165
0.100034
0.10801
0.121673
0.204679
0.458942
0.174716
0.0144205
0.00157691
0.000241496
0.0926213
0.329903
0.173383
0.169815
0.118531
0.0286619
0.001726
0.00484628
0.128614
0.201537
0.11892
0.120839
0.157921
0.166116
0.109664
0.012082
0.00120748
0.0163339
0.0483977
0.210892
0.062461
0.0626137
0.119597
0.0767081
0.00460078
0.00339751
0.00438893
0.318956
0.405552
0.0666726
0.0264893
0.0115794
0.00797589
0
0.00203851
0.0075476
0.424208
0.0869642
0.118906
0.0565161
0.0404453
0.0826032
0.00766797
0.00566252
0.011912
0.0475106
0.166362
0.499886
0.145092
0.0192991
0.00841583
0
0.00339751
0.00525336
0.0489955
0.2448
0.0516179
0.0568238
0.0315994
0.0032203
0
0
0.00272689
0.102571
0.21978
0.163794
0.224289
0.152903
0.0576974
0.00161586
0.0165518
0.0102902
0.0193147
0.0993667
0.329163
0.167997
0.0573517
0.00354653
0
0
0.00163613
0.0141288
0.0486866
0.368696
0.599805
0.176394
0.0163494
0
0
0.00082664
0.00368383
0.0492834
0.136653
0.177508
0.198837
0.17958
0.0516403
0.0176094
0.00948199
0.000698477
0.00876297
0.140566
0.3498
0.156835
0.168057
0.0828764
0.00251563
0.00314812
0.029101
0.00836316
0.280123
0.462531
0.140597
0.044591
0.0299553
0
0.000655972
0.00160027
0.0489024
0.254706
0.424118
0.0608074
0.0472954
0.0551749
0
0.0120474
0.0602166
0.0294326
0.146698
0.414076
0.223657
0.0431581
0.0242807
0.00544451
0.00874303
0.064564
0.0678461
0.0683173
0.22446
0.424791
0.0722216
0.0159039
0.017854
0.0218677
0.0349855
0.0737657
0.152935
0.350448
0.105445
0.0293831
0.0215306
0
0.039373
0.118309
0.0349632
0.0803205
0.244823
0.286209
0.0911283
0.0594534
0.0226067
0.0451498
0.0781685
0.0797379
0.052065
0.121116
0.0989017
0.0896806
0.0367692
0.00313006
0.0118342
0.0454243
0.0446551
0.0737235
0.332084
0.285208
0.147502
0.0059422
0
0.00958513
0.018312
0.051526
0.0119559
0.0295651
0.169229
0.260603
0.134949
0.0276512
0.106033
0.147076
0.0250627
0.0030211
0.0510466
0.422187
0.559899
0.0155386
0.00319721
0.0465268
0.0810918
0.0072585
0.0509107
0.304054
0.333621
0.109713
0.0216452
0.0357006
0.011483
0.000130826
0.00493317
0.0108806
0.0549625
0.136027
0.034528
0.144578
0.434217
0.133573
0.00464116
0
0.00335817
0.116385
0.415075
0.364904
0.0188902
0.00851267
0.00689649
0
0.0345322
0.0429173
0.128292
0.159604
0.130378
0.0835697
0.147531
0.0851362
0.0324881
0.0104475
0.00920514
0.00244974
0.00302545
0.0170413
0.153111
0.452973
0.102002
0.0056825
0.0515445
0.00552308
0
0
0.0230662
0.120353
0.50228
0.302523
0.0793886
0.0381109
0.0653867
0.0240182
0.0468862
0.14699
0.128578
0.149971
0.0465189
0.0335972
0.11566
0.0387656
0.00197603
0.0710011
0.212986
0.152678
0.310047
0.142136
0.198221
0.0206821
0
0
0
0.00272262
0.0133802
0.148496
0.310874
0.160412
0.0761719
0.00857313
0.00258798
0
0
0.00194103
0.047724
0.31685
0.252439
0.0713454
0
0
0.0161322
0.0323021
0.0297918
0.247821
0.282494
0.273536
0.112129
0.0103494
0
0
0
0.00224121
0.135558
0.410018
0.431765
0.136534
0.0321863
0.0116083
0.00237499
0.00120806
0.000184222
0.00644743
0.0859403
0.178524
0.261649
0.0326804
0.0116697
0.00395833
0.0108068
0.00128956
0.000128878
0.0153037
0.120563
0.249649
0.0162086
0
0
0
0
0.0161988
0.116104
0.385644
0.670093
0.013137
0
0
0
0
0
0.00657944
0.327157
0.211329
0.0832134
0.012893
0.00050733
0.00517208
0.000449276
0.000331774
0.00360463
0.0254136
0.144594
0.397231
0.066258
0.00113076
0.000442088
0
0.000199065
6.63548e-005
0.0046768
0.525017
0.117507
0.00288755
0
0
0
0
0.000499148
0.0784973
0.396662
0.488611
0.0223741
0
0
0
0
0
0.011982
0.121076
0.432343
0.0753887
0.0108085
0.00039888
0
0
0
0.00161381
0.125531
0.322645
0.239434
0.0754952
0.0129285
0.00014355
0.000266593
0.000700413
0.00637548
0.331642
0.436265
0.0158458
0.000235791
0
0
0
0
0.0121146
0.360702
0.291956
0.03703
0.011951
0.0180484
0.0126023
0.0234043
0.0258968
0.0935092
0.0676719
0.26353
0.449329
0.192719
0.0840517
0.0420371
0.0169266
0.0191969
0.023688
0.0764322
0.15747
0.311835
0.137018
0.0789693
0.0873434
0.0284995
0.0756341
0.0820616
0.207774
0.168222
0.0997876
0.0677317
0.116667
0.0677248
0.0889478
0.106548
0.164319
0.06224
0.0799465
0.210785
0.287037
0.0852644
0.124819
0.0744753
0.118552
0.117083
0.0337151
0.0483766
0.253677
0.0963458
0.0256698
0.0232187
0.0044183
0.0366486
0.0426684
0.0531264
0.106063
0.311553
0.079929
0.0252986
0.0498308
0.00731336
0.0630623
0.0526265
0.0105266
0.0502351
0.427084
0.266885
0.0346319
0.0353267
0.0127826
0.0277661
0.0273424
0.0866184
0.198127
0.546941
0.129821
0.0710672
0.00680734
0
0.0314
0.0216032
0.038544
0.0344534
0.0580017
0.139753
0.123575
0.0473333
0.0344839
0.107575
0.131541
0.0176729
0.00936878
0.0715634
0.281608
0.368494
0.00698487
0.00310638
0.0406596
0.100153
0.530704
0.161328
0.094905
0.111278
0.0377389
0.00367819
0.0158431
0.0920036
0.176445
0.17641
0.0470805
0.107814
0.19488
0.13123
0.0164106
0.0591516
0.165099
0.342086
0.013485
0.00615567
0.0878029
0.392964
0.429105
0.0232373
0.0129047
0.00512222
0.037639
0.0216468
0.0319306
0.110243
0.170128
0.208509
0.116527
0.0930536
0.015948
0.0281951
0.109674
0.0294297
0.0575934
0.280891
0.249245
0.0517239
0.110123
0.129736
0.2848
0.0778357
0.082267
0.064222
0.116268
0.159368
0.175518
0.159094
0.077345
0.0881585
0.0134134
0.0292672
0.021929
0.054506
0.201062
0.131373
0.0286778
0.00225272
0.0150948
0.0305742
0.0167467
0.00230979
0.0829938
0.337499
0.194495
0.109825
0.0879129
0.0754772
0.00744483
0.010909
0.0168847
0.0148644
0.204671
0.294958
0.0475898
0.00971102
0.00969121
0.0027715
1.73669e-005
0.00207879
0.0124392
0.466554
0.55967
0.0219762
0.0477898
0.0162641
0.0584794
0
0
0.025617
0.101977
0.0751115
0.178886
0.350308
0.177749
0.186708
0.0775153
0.00786349
0
0.00233606
0.00478333
0.085821
0.419878
0.348739
0.0251441
0.00410819
0.0015218
0.00461874
0.190144
0.260986
0.0478369
0.238615
0.0782785
0.111555
0.15297
0.0486578
0.00671424
0.00973668
0.0368556
0.0466707
0.33408
0.136809
0.301519
0.114514
0.0191457
3.79418e-005
0
0
0.00797554
0.072621
0.212822
0.574437
0.0678522
0.0161012
0.00289674
0.000292349
0
0
0.0160526
0.316513
0.198384
0.231861
0.0842892
0.00239469
0.000912472
0.032387
0.0101399
0.0568773
0.0552022
0.357117
0.168272
0.0814826
0.0202772
0.00204644
0.0199347
0.0226998
0.0312729
0.20959
0.480092
0.0858768
0.00412311
0.00305969
0.000327793
0
0
0.016349
0.178446
0.560807
0.263881
0.0049269
0.000421448
4.68275e-005
0
0
0.00292185
0.0656734
0.231039
0.0416425
0.0301719
0.0214178
0.00229455
0.00315448
0.0638351
0.0440986
0.180423
0.350421
0.0797042
0.0344883
0.00295014
0.000327793
0.00283383
0.0818067
0.0354741
0.0781714
0.545104
0.243528
0.00138415
0
0
0
0.000658898
0.000381104
0.0398399
0.471363
0.164779
0.00124996
0.00251653
0.0167683
0.0196016
0.0410152
0.0979415
0.174349
0.333582
0.108245
0.0115741
0
0.00201924
0.00189545
0.0332756
0.0230113
0.0546974
0.249204
0.108331
0.0118915
0.0142106
0.045883
0.0498275
0.0414436
0.0779513
0.126793
0.25958
0.0651121
0.0253262
0.0189653
0.058613
0.0336788
0.0618428
0.200644
0.245658
0.245242
0.188319
0.186963
0.163977
0.0396038
0.033827
0.0235233
0.0879271
0.19548
0.242472
0.0889072
0.0466719
0.0224033
0.0788067
0.0723914
0.0265963
0.13243
0.248347
0.367294
0.212785
0.0994979
0.0206387
0.0295153
0.0177239
0.00732245
0.0762694
0.302832
0.0759152
0.140832
0.368427
0.198438
0.0788268
0.0170908
0.00602814
0.0206987
0.0827052
0.0247464
0.112285
0.358868
0.151485
0.290208
0.0648652
0.00846137
0.0100161
0.0160432
0.190902
0.236233
0.121046
0.0307732
0.0524957
0.00364276
0.00846238
0.0505754
0.169083
0.136712
0.13936
0.0796161
0.0549544
0.286727
0.125313
0.0592296
0.0737692
0.131824