0.0755607
0.023707
0.00114849
0.0044277
0.003671
0.0100703
0.0166523
0.118043
0.35737
0.229823
0.025528
0.00634549
0
0.00119121
0.00857391
0.00888954
0.0561544
0.815232
0.0218729
0.0207628
0.00887343
0.00793262
0.0204761
0.0182049
0.0132608
0.00990329
0.0305386
0.0766943
0.0261394
0.0148964
0.00667524
0.0125823
0.0226568
0.0167059
0.0121494
0.0827999
0.174849
0.00215277
0.00229864
0.000303057
0.00152681
0.00747565
0.00959961
0.0101108
0.50989
0.320697
0.0019375
0.0107624
0.00336858
0.0023921
0.00797294
0.00847746
0.00103659
0.710373
0.0416264
0.00588605
0.00592442
0.0128759
0.0216353
0.0260768
0.0187409
0.00440159
0.0497286
0.0533226
0.0134129
0.0245705
0.0196884
0.0414491
0.0340588
0.0213802
0.00137142
0.0684084
0.223704
0.00179767
0.0065803
0.00174785
0.00193915
0.0020115
0.00330922
0.000274404
0.513039
0.30433
0.00113098
0.000715794
0.000153586
0.00202835
0.00242476
0.00405556
0.0145779
0.701883
0.0343513
0.00641405
0.0128595
0.00864698
0.0305603
0.0116594
0.0158926
0.00192082
0.0676861
0.0515484
0.00649725
0.003226
0.0010751
0.0234422
0.0120428
0.0151661
0.0121681
0.123528
0.172893
0.000334386
0
0
0.00125373
0.00119269
0.000713332
0.091225
0.540901
0.0885037
0
0
0
0.00107196
0.00489366
0.0223601
0.492382
0.490518
0.0243334
0.00639441
0.00431648
0
0.0118235
0.011059
0.00280677
0.0611096
0.107894
0.00585476
0.0126841
0.027828
0.0121655
0.00939584
0.036627
0.0437446
0.26689
0.100184
0.0188853
0
0
0
0.000449794
0.00981289
0.145129
0.529972
0.184397
0.134992
0.120404
0.0432985
0.00128305
0.000228091
0.00660917
0.1809
0.34714
0.216697
0.0144007
0.00545976
0.0195455
0.0272523
0.00672674
0.0686903
0.225853
0.240761
0.067381
0.127357
0.185037
0.158667
0.0349578
0.0203409
0.0462642
0.284962
0.122863
0.237136
0.296956
0.146543
0.0459182
0.00278153
0
0.000227684
0.0160306
0.0369549
0.157349
0.496748
0.0682972
0.0179766
0.00166892
0
0
0.000756204
0.0028176
0.449099
0.171818
0.226821
0.174855
0.0362009
0.0075551
0.00159379
0.0266594
0.0120269
0.109397
0.30981
0.146413
0.0680201
0.020416
0.000532825
0
0.00529343
0.0229266
0.306504
0.344177
0.0210213
0.0174699
0
0
0
0.00337018
0.00574186
0.386634
0.413502
0.0192406
0.0306701
0.00303891
0.0138276
0
0.00331179
0.00650725
0.347163
0.190064
0.0530871
0.00243637
0
0
0
0.0235913
0.0406488
0.340397
0.231439
0.0528739
0.00401003
0
0
0
0.0231826
0.0455508
0.392617
0.374667
0.0266738
0.0144078
0.00500613
0.052092
0.00205266
0.000354725
0.00207787
0.256676
0.282791
0.070218
0.0428464
0.0451868
0.144405
0.0810923
0.0867863
0.0705426
0.176077
0.28914
0.0323859
0.00467809
0.00051633
2.71752e-005
0
0.00248307
0.0145451
0.364476
0.346921
0.0284988
0.00831948
0.00985857
0.00591839
0.015109
0.0685116
0.157221
0.423428
0.038885
0.0150079
0.0117231
0.0463596
0.0736415
0.076723
0.112695
0.132753
0.0712477
0.0152289
0.00814745
0.0364979
0.0430525
0.0421672
0.0397093
0.0634789
0.169511
0.268677
0.081372
0.00551985
0.00188114
0.0076117
0.00563144
0.014827
0.0833069
0.265868
0.331486
0.0878916
0.00303461
0.00521399
0.00366006
0.00718444
0.0122635
0.0463294
0.262785
0.703367
0.0361292
0.0434393
0.0492223
0.00401286
0.0602257
0.011524
0.0150182
0.00813289
0.0154993
0.11128
0.117762
0.0999824
0.0334859
0.0618554
0.0224905
0.0125241
0.00743129
0.0506585
0.368417
0.177254
0.0567993
0.00491908
0.0344236
0
0.00144086
0.00468226
0.0449992
0.294696
0.395936
0.423458
0.206492
0.0429712
0.00960477
0.0134261
6.86125e-005
0.0399538
0.112968
0.0606854
0.0361345
0.0594863
0.0821156
0.0291594
0.0149359
0.0129705
0.0537559
0.108246
0.0787229
0.0468357
0.0464984
0.13792
0.0487825
0.0277842
0.0221016
0.0784773
0.266837
0.20382
0.210749
0.143581
0.0388887
0.0255713
0.0458231
0.169992
0.139933
0.326033
0.119555
0.10895
0.0349244
0.0416686
0.0333462
0.0554918
0.34069
0.451061
0.0457482
0.0408922
0.0231007
0.0133686
0.127835
0.0568759
0.0568024
0.0118332
0.0466997
0.098185
0.0399514
0.0297709
0.00181056
0.0709354
0.0519243
0.0782632
0.03
0.0704361
0.209778
0.0417339
0.0665677
0.0147382
0.0346789
0.0342536
0.0330033
0.107763
0.437073
0.444371
0.0372582
0.031329
0.0064766
0.0101225
0.0451744
0.0703903
0.0547063
0.461876
0.0644544
0.0661246
0.0635628
0.000974308
0.0222649
0.0266541
0.0244511
0.0204059
0.029395
0.0376535
0.139433
0.228358
0.0660245
0.0220192
0.0535804
0.0407801
0.0600217
0.0293703
0.397539
0.0999109
0.0684732
0.00162385
0.00154446
0.020518
0.0345378
0.0119344
0.122315
0.636947
0.196952
0.196165
0.0316825
0.0101481
0.00380046
0.00444772
0
0.113061
0.0327497
0.0411861
0.0733949
0.0835745
0.0290325
0.047129
0.101461
0.0258624
0.0351056
0.177931
0.131405
0.114842
0.0901605
0.140709
0.0317423
0.135936
0.0121652
0.149945
0.334242
0.0773046
0.0616251
0.0421876
0.0298391
0
0.00358785
0.00063315
0.104382
0.642682
0.0926788
0.0234075
0.0415923
0.133967
0
0.00597975
0.00893929
0.367236
0.145355
0.218818
0.148586
0.068278
0.0659215
0.00141544
0.0176776
0.0056719
0.075107
0.20212
0.327568
0.0619356
0.0324062
0.00349651
0
0.00470109
0.0252494
0.0861296
0.373148
0.142843
0.0057557
0.0149478
0.0569858
0
0.000835424
0.051715
0.411546
0.290506
0.290609
0.00340095
0.00383232
0.00209791
0
0.00139098
0.09544
0.301248
0.281736
0.288946
0.00548004
0
0
0
0.0297642
0.0524402
0.118728
0.325171
0.253779
0.0184435
0
0
0
0.0292486
0.0623447
0.191999
0.367245
0.204785
0.0030776
0.00281052
0
0
0.00912785
0.0578624
0.114626
0.437093
0.148962
0.0191429
0.0196736
0
0
0.00918932
0.0580999
0.126828
0.205278
0.0888334
0.0160521
0.00292711
0.000154058
0
0.00190508
0.0144306
0.161847
0.33184
0.02881
0.0124638
0.0204898
0.00107841
0.00282137
0.00868895
0.0746065
0.302601
0.280013
0.102283
0.0371486
0.0178083
0.0241897
0
0.000620964
0.0242959
0.1472
0.577506
0.0785606
0.0494235
0.0295062
0.0408092
0.00169282
0.000725497
0.00734888
0.329339
0.133216
0.0081387
0.00106418
0.0050985
0.000268342
0.00518746
0.0164942
0.111496
0.293875
0.165271
0.018242
0.00810681
0.0350957
0.0376815
0.0420346
0.0326642
0.0987822
0.693754
0.29582
0.0259524
0.00447817
0.00463472
0.00383745
0.00311248
0.00600878
0.00535662
0.202945
0.258454
0.107467
0.0819781
0.0881919
0.0352738
0.0252208
0.0184268
0.00382884
0.163696
0.202238
0.0383267
0.00529786
0.00453702
0.000841457
0
0.00130308
0.0078399
0.0842011
0.136722
0.100951
0.0758722
0.108245
0.00805717
0.0215453
0.0463353
0.0291258
0.0651087
0.409955
0.129577
0.0100262
0.00272221
0
0.0146712
0.0421437
0.108578
0.420699
0.457004
0.318544
0.068174
0.0995161
0.0360022
0.0414234
0.065385
0.0623573
0.251833
0.120569
0.0619068
0.0456078
0.0636437
0.00572921
0.0329487
0.0508953
0.0499411
0.089375
0.215144
0.0541864
0.0696753
0.0176907
0.000818458
0.0259723
0.0406158
0.0914298
0.179884
0.445248
0.128509
0.0718184
0.0797043
0.0400521
0.0505793
0.0534893
0.0260366
0.197186
0.542651
0.07628
0.0846663
0.10223
0.116126
0.143782
0.100201
0.0436485
0.365447
0.0910324
0.0121927
0.0440929
0.0250783
0.000242911
0.00443039
0.0185825
0.0266684
0.108405
0.168931
0.0602729
0.0155062
0.0315959
0.00170038
0.0133689
0.00850223
0.00551003
0.115567
0.130834
0.0515383
0.117695
0.13777
0.118717
0.0610566
0.0803278
0.0174416
0.107073
0.222702
0.417947
0.673384
0.26054
0.0435382
0.0131957
0.0167856
0.00269633
0.0426859
0.148266
0.0943724
0.00472452
0.00320312
0.000302034
0.00615115
0.00107943
0.000279362
0.0199178
0.363156
0.147033
0.00466009
0.000278453
0.000215101
0.000878736
0.000147161
0
0.0163542
0.278915
0.375763
0.229138
0.0416104
0.00374939
0.00525035
0.000190274
0.00458199
0.00977824
0.52003
0.457861
0.0601147
0.0304107
0.0269724
0.0192624
2.7182e-005
0.0320739
0.0205909
0.34804
0.0612378
0.00265462
0.000533188
0.000925212
0
0
0
0.0334651
0.427803
0.0488465
0.00115956
0.00031529
0.00311339
0
0.00171887
0.0127419
0.209419
0.485206
0.163662
0.0243146
0.0319556
0.0180342
0.0103448
0
0.0106042
0.025557
0.52146
0.0744284
0.0126412
0.0251396
0.0339728
0.0148817
0.0120321
0.0195832
0.218891
0.163763
0.0196633
4.32222e-005
0
0.00171145
0.00683643
0.0123662
0.117865
0.369139
0.0346652
0.018664
0
0
0.00059969
0.0113941
0.0547317
0.272191
0.260781
0.180589
0.0128726
0.0342559
0.0426985
0.0657577
0.100805
0.0679214
0.167919
0.357376
0.0408213
0.010227
0.0570931
0.0213066
0.0294204
0.17363
0.211504
0.502704
0.265448
0.0372461
0.0108713
0.00168108
0.0068874
0.00120056
0.00207323
0.0372779
0.211248
0.0973849
0.0747925
0.0468994
0.0202
0.0750244
0.00972743
0.0108724
0.00729249
0.0929291
0.057575
0.0651
0.0177407
0.0113972
0.00878927
0.00280218
0.0618458
0.200919
0.618626
0.278743
0.0726393
0.0535254
0.0211147
0.114293
0.0273447
0.183018
0.315207
0.386926
0.168105
0.164588
0.0738585
0.0312108
0.0789763
0.0467356
0.061519
0.0128221
0.0141936
0.0802131
0.301448
0.0381752
0.0250991
0.0343578
0.0756174
0.0948742
0.0322917
0.0204007
0.206889
0.115917
0.0486089
0.0243528
0.135039
0.0723389
0.333346
0.342992
0.0895514
0.049445
0.131244
0.00879191
0.00604831
0.0470036
0.080717
0.293996
0.464801
0.27152
0.1428
0.305433
0.0158559
0.0112645
0.00677237
0.0302284
0.039309
0.0132761
0.0176999
0.331137
0.256185
0.12476
0.15896
0.0585758
0.00618008
0.005452
0.000688762
0.00438508
0.253996
0.167166
0.0306566
0.0184972
0.00537847
0.0391191
0.12634
0.225058
0.290829
0.269956
0.204721
0.0879427
0.222133
0.0639837
0.00619132
0.027673
0.0352725
0.156702
0.319765
0.264372
0.123517
0.0500722
0.0717108
0.13452
0.0558355
0.104686
0.116833
0.23928
0.212394
0.217237
0.0992234
0.146715
0.150344
0.0494202
0.00931983
0.0423945
0.126922
0.11848
0.173778
0.383426
0.195639
0.233831
0.0540237
0.0718098
0.0438801
0.0330884
0.0417431
0.137205
0.246479
0.302536
0.215829
0.0622143
0.0163746
0.0315377
0.0174438
0.111122
0.0454091
0.0919803
0.104891
0.0808108
0.0257614
0.00462699
0.00498166
0.0470292
0.117194
0.022596
0.137996
0.266506
0.0991811
0.0821653
0.0250323
0.00777593
0.0988185
0.00488736
0.027487
0.189661
0.269612
0.103802
0.0435358
0.00140527
0.00181674
0.00341563
0.00899555
0.0154577
0.342299
0.712405
0.0843545
0.032062
0.00115514
0
0.00816379
0.014661
0.0521677
0.136289
0.122076
0.0470704
0.0194631
0.0113275
0.00173957
0.0226391
0.0293609
0.205219
0.475318
0.128792
0.0327761
0.00370709
0.00167628
0.000129365
0.00664186
0.00319657
0.0484988
0.195827
0.483033
0.0369299
0.0024584
0.000237635
0
0.006488
0.00350218
0.169888
0.372973
0.394754
0.157155
0.0449244
0.00384048
0
0.00370664
0.141587
0.284637
0.444609
0.102797
0.0396782
0.0157012
0.00383693
0.00573402
0.008883
0.17851
0.263285
0.146922
0.0723396
0.0857634
0.112963
0.0392758
0.0415179
0.0275861
0.0523665
0.1306
0.259044
0.203715
0.290109
0.123472
0.0648963
0.00873054
0.0124422
0.155113
0.14101
0.142946
0.11263
0.147712
0.167715
0.333417
0.044801
0.035331
0.183839
0.151231
0.0693205
0.0757575
0.0596299
0.0624913
0.024409
0.0189089
0.0291087
0.263819
0.114934
0.0240603
0.0528452
0.0658838
0.0652014
0.0336574
0.058719
0.171635
0.167716
0.3808
0.155075
0.0543422
0.0337397
0.0605146
0.193912
0.0296869
0.0630747
0.178625
0.440428
0.0915157
0.0292855
0.0196084
0.0428966
0.185955
0.282079
0.35899
0.0526514
0.0115489
0.0500904
0.0580809
0.0909204
0.163483
0.10155
0.0956304
0.0968732
0.0465666
0.0106717
0.11901
0.108567
0.0721767
0.200418
0.174399
0.264296
0.114213
0.126799
0.103173
0.104629
0.0672892
0.0332839
0.0923513
0.197691
0.280696
0.197621
0.117473
0.123375
0.401248
0.41411
0.117824
0.0798196
0.170213
0.2122
0.116005
0.0522645
0.00871952
0.0233276
0.0368281
0.0540494
0.063832
0.150723
0.194054
0.112111
0.0272004
0.00686133
0.00312189
0.0188078
0.0365991
0.225974
0.388045
0.117243
0.0541958
0.0292356
0.033461
0.159785
0.235961
0.157842
0.0608762
0.14523
0.0961429
0.0378069
0.0104715
0.00339818
0.0185991
0.0759129
0.113551
0.476882
0.501177
0.041102
0.0100693
0.0067553
0.00237012
0.0047806
0.0171967
0.0146387
0.192611
0.307853
0.0426597
0.00233874
0.0155579
0.0269513
0.00480355
0.0191111
0.0261651
0.13785
0.29564
0.139965
0.0319252
0
0
0.00590854
0.0115701
0.0901246
0.506838
0.349809
0.0243753
0.000270069
0.031958
0.0449188
0.021045
0.0872723
0.231724
0.425202
0.207442
0.0612164
0.0282501
0.0792418
0.0525518
0.00614904
0.0143532
0.0126281
0.0556173
0.137617
0.158797
0.204188
0.21994
0.0250189
0.0242811
0.00772888
0.000651578
0.00455956
0.0196673
0.0870844
0.410545
0.153654
0.0783231
0.0363514
0.0995302
0.128781
0.194476
0.086595
0.0930281
0.244638
0.353446
0.0431644
0.0242692
0.017329
0.00436464
0.00960393
0.00638095
0.07399
0.543713
0.136771
0.21894
0.223708
0.0578852
0.0623204
0.0203387
0.0109401
0.0276671
0.0144696
0.147429
0.114168
0.165225
0.154316
0.162846
0.0350833
0.0169259
0.0199884
0.0353211
0.290976
0.372074
0.113988
0.0641368
0.0254315
0.0354299
0.0280704
0.0343782
0.0811818
0.436066
0.171224
0.137886
0.0857034
0.14293
0.108691
0.0908227
0.136989
0.276187
0.0194463
0.0272846
0.0937617
0.151468
0.0993178
0.0256826
0.000871724
0.000290575
0.00435178
0.00163855
0.0094411
0.132593
0.499881
0.184006
0.0244188
0
0
0
0.0452389
0.023728
0.0690947
0.104936
0.191025
0.0910925
0.0125343
0.0198465
0.0460996
0.00273092
0.0119172
0.0362987
0.319328
0.624603
0.183487
0.000550812
0.000421023
0.00351423
0
0.00453442
0.0476506
0.491386
0.138124
0.00277231
0
0
0
0
0.0206978
0.0615376
0.354733
0.215753
0.0546408
0.0184747
0.00552757
0.000418324
0
0
0.00302313
0.280136
0.500714
0.108011
0.000331978
0
0
0
0
0.0128534
0.196362
0.346188
0.082277
0.0229827
0.0150355
0.00292827
0.0121242
0.0160954
0.0297494
0.0972299
0.256985
0.155877
0.150416
0.0957057
0.0306635
0.142217
0.0887638
0.0505659
0.0610465
0.0893652
0.0869072
0.29497
0.186177
0.204414
0.0391501
0.0338525
0.0626917
0.067281
0.121894
0.072567
0.116084
0.179281
0.0709972
0.367609
0.131741
0.114202
0.050054
0.0223022
0.0310572
0.112253
0.32232
0.467459
0.189995
0.168276
0.0803403
0.0378038
0.00141684
0.00382979
0.074732
0.0333811
0.12333
0.238842
0.194318
0.0640206
0.0211318
0
0.000572087
0.0816719
0.121403
0.236688
0.406725
0.0689246
0.0342388
0.0360218
0.000202406
0
0.00934062
0.0499332
0.294248
0.514787
0.0547128
0.0153586
0.0204705
0
0
0.00837091
0.0442619
0.377925
0.210227
0.108495
0.0871217
0.0213681
0.00129315
0.00178338
0.0579315
0.131217
0.195427
0.181336
0.196793
0.382373
0.22864
0.0286908
0.00107003
0.0224237
0.0380715
0.0909733
0.333116
0.0543959
0.0425878
0.00474267
0
0.0109827
0.00823841
0.0610487
0.359038
0.215667
0.186058
0.213408
0.109217
0.000452171
0.0293963
0.0238939
0.19388
0.333536
0.021321
0.0694838
0.214224
0.254388
0.0622348
0.027278
0.0392684
0.0293751
0.0207659
0
0.00401552
0.0212822
0.0917472
0.211441
0.438517
0.188171
0.0302755
0.00785817
0.0220626
0.0667517
0.110276
0.133738
0.0294951
0.0638984
0.0673409
0.149078
0.158566
0
0.000573646
0.00867506
0.107549
0.603179
0.243961
0.0738557
0.0437418
0.0278655
0
0
0.000627353
0.00473935
0.202413
0.358489
0.0804403
0.00412925
0.000575958
0.00609023
0.00476936
0.00542721
0.0358419
0.190658
0.404741
0.0807547
0.010059
0.00402139
0
0
0
0.0894783
0.492967
0.167869
0.0140103
0.000881657
0.000345575
0.00270492
0
0.0193473
0.228297
0.345631
0.336889
0.0475174
0.00436165
0.00176572
0.0566408
0.0336963
0.0250914
0.0564209
0.125738
0.447074
0.105511
0.0709736
0.0566481
0.135235
0.130934
0.0776929
0.0140342
0.00667919
0.0443503
0.026131
0.06438
0.129008
0.0531221
0.0215784
0.0664327
0.310628
0.129663
0.58603
0.111084
0.0532374
0.0327823
0.0981966
0.169592
0.193576
0.0801215
0.0162605
0.11486
0.0559848
0.0944425
0.112872
0.0854863
0.160655
0.128215
0.170743
0.0450695
0.0699985
0.0824098
0.0374287
0.0491572
0.128379
0.0728114
0.0582323
0.0456338
0.0728288
0.164039
0.368478
0.206752
0.159891
0.0221965
0.0286141
0.0669296
0.198898
0.117754
0.100722
0.123307
0.0527096
0.0643961
0.040371
0.0439476
0.0396661
0.035186
0.0942268
0.223755
0.559386
0.22876
0.111328
0.0120584
0.00307342
0.0156435
0.0296512
0.163349
0.139258
0.0810554
0.0571216
0.037429
0.000379578
0.0016297
0.00444598
0.0564277
0.447623
0.38087
0.023442
0.00626134
0.004135
0.00368584
0.00517668
0.00404785
0.0139667
0.109576
0.195379
0.203308
0.0896661
0.0195112
0
0
0
0.0158545
0.166233
0.574893
0.264843
0.0282714
0.00971203
0
0
7.84665e-005
0.03339
0.311899
0.308679
0.0122413
0
0
0
0
0.00753044
0.0528257
0.240626
0.208127
0.0211326
0.00366984
0.00103706
0
0
0
0.0044184
0.0947619
0.50256
0.213165
0.00702286
0.000510324
0.0138717
0.00346792
0.000997311
0.0348828
0.167564
0.460964
0.31936
0.0314279
0
0.0341284
0.0405121
0.106422
0.15806
0.13299
0.0306589
0.0139372
0.0307643
0.017465
0.259309
0.239524
0.325344
0.176138
0.0542448
0.00117979
0.00346641
0.0571388
0.141272
0.0241597
0.0222276
0.0720306
0.197428
0.304439
0.129238
0.167768
0.0363037
0.000427272
0.0727918
0.235211
0.430547
0.291208
0.202384
0.0418329
0.175747
0.0496257
0.0417449
0.286496
0.155955
0.124161
0.050565
0.00142888
7.52045e-005
0
0.0115645
0.152295
0.398855
0.0617749
0.0199708
0.0217809
0.00043917
0.000536764
0
0.0114609
0.307011
0.194835
0.236545
0.226895
0.0660181
0.011585
0.000526431
0.0733854
0.0416252
0.126485
0.439509
0.145107
0.0543331
0.0130686
0.00307419
0.00375735
0.0084725
0.0181341
0.385944
0.231465
0.00988338
0.00740461
0.00988914
0.00398208
0.0494745
0.0162202
0.0598345
0.292772
0.0844432
0.0321922
0.0409102
0.0633658
0.0358441
0.217448
0.0676605
0.310775
0.295817
0.296906
0.0838361
0.0212721
0.0365126
0.0278746
0.0795121
0.0138302
0.0494116
0.270705
0.160515
0.0996068
0.0707327
0.195839
0.123255
0.420906
0.0634113
0.219808
0.204913
0.00323472
0.0103699
0.0236475
0.0415151
0.108148
0.156025
0.0672561
0.182942
0.11507
0
0.00195538
0.0885797
0.191768
0.397609
0.101926
0.0442849
0.0315353
0.0153032
0.0534206
0.0407952
0.112339
0.18911
0.207793
0.192423
0.0307783
0.123403
0.0992683
0.00881641
0.0530376
0.533034
0.354543
0.255535
0.059629
0.0142087
0.0187994
0.0133139
0
0.000583037
0.0490626
0.233003
0.325104
0.0149993
0.00178608
0.000106523
0
0.00860525
0.00215299
0.0503872
0.383758
0.23809
0.0476036
0.00140802
9.12523e-005
0.00293302
0.000193673
0.0173122
0.357386
0.395328
0.0909422
0.00231061
0.00914735
0.00483719
0
0.00704212
0.00931901
0.159991
0.497051
0.117968
0.000146382
0.00539001
0.00290231
0.00175981
0.0562891
0.0193242
0.0735654
0.329335
0.101716
0.108813
0.0164971
0.00421017
0.0224567
0.135299
0.109965
0.0804467
0.101191
0.0369274
0.0783451
0.0207364
0.0295171
0.0641578
0.0370626
0.0286903
0.0763594
0.641492
0.214941
0.0473226
0.0057918
0
0.0090083
0.189452
0.203894
0.150133
0.279697
0.282869
0.0992087
0.0102729
0.00327689
0.0123963
0.0622341
0.114007
0.00890241
0.0808276
0.0985303
0.0340312
0.0698551
0.061686
0.0775928
0.10401
0.179991
0.0316912
0.0277085
0.0912322
0.239787
0.185606
0.106347
0.125981
0.17999
0.320858
0.0070956
0.0144671
0.031351
0.0136988
0.0961957
0.195715
0.165639
0.163084
0.390455
0.0152754
0.0141682
0.0627834
0.329814
0.229579
0.230605
0.167617
0.00926271
0.0144721
0.00558663
0.0114408
0.0505731
0.226496
0.148088
0.0368755
0.0268371
0
0
0.00294265
0.00949943
0.0303973
0.390662
0.480912
0.0484777
0.0208645
0.00741071
0.0200406
0.00564916
0.0139368
0.0673215
0.26396
0.163896
0.0690888
0.0507249
0.0285161
0.000566465
0.0228051
0.0193679
0.121358
0.310637
0.470463
0.121787
0.0392366
0
0
0.000485583
0.00294931
0.00678174
0.181125
0.29387
0.0469595
0.00116169
0.0116166
0.00290415
0
0.0040313
0.0272016
0.163924
0.486423
0.162011
0
0.0152652
0.000690695
0.00353303
0.00201279
0.0179651
0.0629344
0.3645
0.14174
0.00680923
0.00562949
0.000829296
0
5.77125e-005
0.00123941
0.0304416
0.486423
0.380517
0.00230113
0.0131188
0.00398169
0.00522778
0.0213096
0.0693209
0.0833481
0.261694
0.136803
0
0.0201753
0.021824
0.0601739
0.0577089
0.0568367
0.0830336
0.204458
0.123927
0.056364
0.00187412
0.000468529
0.00590112
0.000632405
0.00836574
0.0388151
0.48469
0.437464
0.0450988
0.0153526
6.69328e-005
0.0413078
0.00442684
0.0124971
0.0937311
0.210102
0.48469
0.232981
0.124142
0.0431555
0.0468343
0.0192371
0.00576208
0.0181976
0.0927356
0.0771239
0.17552
0.392961
0.0414101
0.0139466
0
0.00102194
0.00124904
0.00914294
0.0215254
0.284083
0.145195
0.00104442
0.0171592
0.0018389
0.00188242
0.0300376
0.0632405
0.221766
0.362405
0.51987
0.0470665
0
0
0
0
0.00523895
0.0497225
0.404683
0.310847
0.0711316
0.0124151
0.0167355
0.0106049
0.0149904
0.000767782
0.00850207
0.127273
0.232101
0.166869
0.0732509
0.103025
0.0411259
0.0830227
0.00537447
0.0234934
0.0729584
0.447868
0.172242
0.00497243
0.00692657
0.0106369
0
0
0.0209732
0.156743
0.400574
0.539801
0.0752687
0.0204908
0.0224821
0
0
0.0125839
0.0423728
0.0825945
0.104654
0.177748
0.0931614
0.0521519
0.0268358
0.00161321
0.0112281
0.0386746
0.0147681
0.0725792
0.513752
0.133068
0.041382
0.00198936
0.00345699
0.00332071
0.00539877
0.120462
0.413199
0.245988
0.0182484
0.0125015
0
0
0
0.00595423
0.0389627
0.286806
0.513752
0.0568634
0.00632632
0
0.000493856
0.000265923
0.000480508
0.00122722
0.0364004
0.406672
0.174248
0.00330817
4.39721e-005
0.00855175
0.00460479
0
0.00037824
0.0274441
0.262229
0.441186
0.0279632
0.00231971
0.00513105
0.00357078
0.000661014
0.00932969
0.107559
0.473164
0.0709083
0
0
0.00122168
0.000657827
0
0.0140238
0.0693645
0.473164
0.143389
0.026643
0.0153701
0.00715603
0.00605005
0.0046271
0.00190324
0.00985373
0.0673627
0.309879
0.23169
0.0246734
0
0.00120867
0.000988912
0.0285929
0.0397598
0.0512105
0.113
0.487749
0.0716502
0.000533302
0.000172667
0.000141273
0.00771824
0.0216951
0.102124
0.084392
0.337341
0.0866616
0.00960918
0.0084607
0.00692239
0
0.000941262
0.00354709
0.0436163
0.608774
0.11019
0.00144893
0.00120867
0.000988912
0.163422
0.220466
0.0242206
0.00292164
0.0220316
0.0750948
0.0990423
0.131278
0.122751
0.114139
0.245949
0.040264
0.0121801
0.0550045
0.271819
0.284786
0.177157
0.16603
0.0451401
0.0497279
0.024408
0.0111714
0.0853322
0.336162
0.269796
0.0377109
0.0238706
0.113924
0.095861
0.0241584
0.0203002
0.178504
0.313634
0.165068
0.0452493
0.128225
0.014671
0.0178373
0.014206
0.0488098
0.0839425
0.226287
0.222262
0.16474
0.188012
0.08227
0.00340016
0.0299774
0.0792345
0.36759
0.22687
0.269741
0.274152
0.156065
0.0879324
0.0761317
0.00708937
0.0323209
0.0580063
0.0709659
0.135494
0.112838
0.172744
0.183973
0.160229
0.00794661
0.0450308
0.163211
0.110468
0.164525
0.255693
0.197552
0.0372902
0.0044334
0.00257331
0.00497533
0.0586755
0.0401061
0.242336
0.147784
0.0334614
0.0163726
0.0170564
0.00278598
0.00198102
0.0138116
0.0313934
0.607881
0.457489
0.0227047
0.0612782
0.036354
0.0189702
0.0313044
0.0433195
0.0208256
0.0712092
0.100283
0.0770327
0.0987367
0.156377
0.0966679
0.0709026
0.0400612
0.0235304
0.232055
0.360581
0.0805566
0.000829112
0.00595542
0.00392108
0.000179707
0.00186186
0.0054704
0.266916
0.367599
0.0664528
0.00911599
0.00049544
0.0146424
0
0.00140587
0.010908
0.069632
0.453991
0.320371
0.0521977
0.0776311
0.0433447
0.0219319
0.0108996
0.0162994
0.12078
0.299026
0.0792897
0.158939
0.0744764
0.0425553
0.0227333
0.00912628
0.00896643
0.041515
0.333371
0.401419
0.0686247
0.00419588
0.00447457
0
0.000160982
0.00288154
0.00812435
0.170704
0.290582
0.337038
0.0796209
0
0
0
0
0.000758295
0.0478525
0.245838
0.224735
0.0274999
0.00921157
0.00374126
0.00104502
0
0
0.102791
0.442799
0.442799
0.066454
0
0
0
0
0
0.024372
0.442799
0.271733
0.176954
0.00292144
0.00131439
0.002441
0
0
0.00481304
0.0609629
0.250986
0.403394
0.0422135
0.00219064
0.00406834
0
0
0.00288782
0.0187186
0.425623
0.14115
0.00429756
0
0
0
0
0
0.199212
0.425623
0.425623
0.111811
0
0
0
0
0
0.0742137
0.10203
0.406971
0.0940366
0.00423171
0.000590831
0
0
0
0.00419219
0.0451878
0.44174
0.32295
0.0177064
0.00235939
0
0
0
0
0.142121
0.44174
0.160643
0.0067671
0
0
0
0.0023548
0.019477
0.0646871
0.44174
0.160136
0.0459559
0.0305612
0.00305348
0.00186857
0.00392467
0.00120077
0.0338181
0.34081
0.659434
0.0536539
0.0104142
0
0
0
0.00075277
0.0326275
0.111836
0.405028
0.068948
0.0356897
0.0167839
0.0117573
0.00380833
0.0083853
0.0560301
0.308627
0.169623
0.105501
0.107487
0.0242559
0.0122922
0.00107848
0.00634901
0.0631157
0.0758567
0.103657
0.0883041
0.1086
0.0444077
0.0337873
0
0.0440457
0.0107971
0.0191395
0.0514719
0.0784526
0.234552
0.0487351
0.00973044
0.00315179
0.00418305
0.000425928
0.000586169
0.00398231
0.100363
0.595493
0.0507858
0.00139006
0.000450256
0.000368391
0.0307067
0.0183706
0.0303819
0.129854
0.297353
0.0464471
0.020641
0
0.0134101
0.00298149
0.000881518
0.00541588
0.181935
0.595493
0.0900047
0.0305128
0.0133922
0.00678981
0.0183575
0.00257748
0.00391219
0.00139448
0.0244832
0.133892
0.0878307
0.0325085
0.0654839
0.0528014
0.0402986
0
0.00111521
0.0461033
0.119045
0.037438
0.0338339
0.0810869
0.18927
0.000235542
0.000549597
0
0.00796072
0.0585204
0.0690028
0.194129
0.641643
0.119355
0.0477177
0
0
0.00674307
0.047337
0.0548446
0.232971
0.529507
0.114551
0.184703
0.000329625
0.000595188
0.0246686
0.0281068
0.0298712
0.0206541
0.0446225
0.243328
0.330806
0.00939418
0.00222356
0.00334854
0.0152191
0.0418399
0.0376928
0.0401236
0.25986
0.23281
0.000549374
0
0.00320287
0.00943925
0.0160785
0.0837372
0.285865
0.558801
0.353367
0.0178763
0.00370593
0.00022573
0
0
0.00298737
0.087307
0.0983194
0.0650333
0.0339555
0.0800763
0.06139
0.00259136
0.0114711
0.0251168
0.0361288
0.110287
0.116149
0.113965
0.220607
0.276892
0.042043
0.0257019
0.0757005
0.10867
0.155376
0.0806977
0.0545407
0.109135
0.121958
0.00122751
0
0
0.0143836
0.0415428
0.0347163
0.0778042
0.36018
0.715489
0.0684467
0.00190641
0.00406355
0.0501558
0.0634065
0.0669999
0.0532573
0.0824933
0.189978
0.0802928
0.0276655
0.0843868
0.0841291
0.215261
0.116253
0.106005
0.0818609
0.22274
0.0702993
0.0246916
0.104609
0.207707
0.00996555
0.00670889
0.0169016
0.120921
0.504771
0.193739
0.0407083
0.019289
0.050139
0.0776291
0.0321416
0.0525823
0.0551369
0.437394
0.269487
0.126302
0.172904
0.220688
0.218292
0.0417168
0.024163
0.0113835
0.0400941
0.00527871
0.00271877
0.0234989
0.304703
0.381308
0.00981892
0
0
0.00190837
0
0
0.00355654
0.456722
0.142948
0.0173134
0.0134695
0.00683012
0.066519
0.0339127
0.0259493
0.0811831
0.310621
0.341413
0.00214361
0
0
0.00318061
0
0
0.0119225
0.456722
0.417832
0.025188
0.000677999
0
0
0
0
0.000203499
0.229999
0.445772
0.146354
0.0471695
0
0
0
0
0.000523232
0.145043
0.301645
0.000215922
0
0
0
0
0
0.000339164
0.306343
0.417252
0.00611214
0.00324812
0
0
0
0
0.000872054
0.354152
0.179975
0.206693
0.123617
0.00981164
0
0
0
0.012112
0.115499
0.0770678
0.178717
0.0948578
0.0466599
0.0376379
0.00799505
0.00293533
0.0179929
0.0796088
0.400648
0.0128896
0.0156307
0.00140166
0
0
0
0.00946106
0.384701
0.484552
0.0476163
0.0210967
0.00731883
0.00837376
0.00345517
0.000419332
0.012112
0.487042
0.0683922
0.0636766
0.020971
0.0386996
0.064006
0.0367024
0.0145146
0.00271158
0.0328857
0.0968558
0.0291532
0.0114063
0.0187749
0.0732395
0.0702786
0.0428585
0
0.060406
0.487827
0.0596231
0.0128269
0.00550675
0.0108132
0.015561
0.00434794
0.00162695
0.340225
0.501452
0.0494623
0.011967
0.00582255
0.0287387
0.0322494
0.0156402
0
0.529567
0.0442739
0.0209484
0.00772495
0.0411076
0.272887
0.114249
0.0409564
0.00255348
0.022643
0.00543348
0.00506041
0.0014098
0.0592735
0.421053
0.19142
0.122497
0.079485
0.0742493
0.316484
0.0568343
0.00716328
0.0220343
0.157412
0.0780111
0.0260551
0.0106165
0.339961
0.323552
0.0242767
0.00102333
0.0204202
0.18698
0.120814
0.131762
0.132178
0.394269