0.190653
0.0379071
0.056855
0.0834542
0.0575964
0.0540798
0.0622081
0.0192711
0.305145
0.124062
0.0902378
0.028545
0.063287
0.131657
0.0520202
0.0933575
0.0211631
0.200556
0.234269
0.0756218
0.135016
0.151146
0.095936
0.209188
0.167861
0.0578148
0.426208
0.160253
0.133431
0.157205
0.241352
0.278728
0.0758249
0.164764
0.0218858
0.267001
0.0592651
0.0841337
0.0166919
0.0545236
0.13515
0.0536421
0.0777527
0.0479389
0.0390797
0.0274136
0.0377099
0.00509725
0.0286065
0.242735
0.286458
0.418233
0.432218
0.0461993
0.0455105
0.115746
0.0868551
0.175643
0.220764
0.0495841
0.0674562
0.0384033
0.0117775
0.0418968
0.209193
0.0397006
0.169854
0.136665
0.0875066
0.296003
0.191479
0.0306667
0.107363
0.0573998
0.00429721
0.00275259
0.0448969
0.110025
0.151747
0.371036
0.0819862
0.365202
0.327615
0.0321908
0.0105458
0.0266373
0.049478
0.07705
0.261659
0.082147
0.0903467
0.117032
0.0828917
0.0363337
0.0323159
0.013164
0.144521
0.152117
0.0859758
0.33361
0.308125
0.292704
0.0278569
0.0315441
0.0299059
0.0913905
0.109233
0.103153
0.18998
0.246942
0.136597
0.0300755
0.0462384
0.0218216
0.0355339
0.068702
0.0134402
0.204764
0.170861
0.23765
0.0672084
0.0462256
0.00807189
0.0257608
0.0133921
0.0595874
0.268414
0.307302
0.229845
0.0412541
0.0392295
0.0282432
0.0446711
0.0350342
0.0227657
0.410538
0.46806
0.194464
0.0340391
0.0154741
0.0063779
0.0421
0.0150124
0.123176
0.149021
0.112909
0.0774337
0.0444821
0.0272791
0.0116135
0.00369635
0.00937331
0.0422441
0.17191
0.129215
0.158314
0.153065
0.0347608
0.00951298
0.000354189
0.0120938
0.0470718
0.430619
0.228813
0.0408911
0.00964646
0.00088652
0.0010902
0.00517673
0.00636304
0.202894
0.553399
0.151691
0.0868781
0.114135
0.0039627
0.000490643
0
0.0139153
0.405171
0.1824
0.0893123
0.122005
0.0917891
0.013994
0.0282983
0.00639331
0.0276979
0.0532789
0.20436
0.174139
0.100052
0.0119932
0.034724
0.0706798
0.0622701
0.0713873
0.0651893
0.292425
0.0588803
0.0525523
0.086807
0.00640234
0.0454238
0.0634265
0.172721
0.267262
0.223734
0.0437933
0.0126924
0.010813
0.0920787
0.173311
0.254747
0.610947
0.182722
0.0787476
0.173468
0.116033
0.0191976
0.108076
0.100647
0.0801811
0.0422241
0.0350603
0.0526203
0.108865
0.145722
0.112711
0.156666
0.116086
0.0479789
0.00686661
0.0966597
0.144414
0.0738156
0.0368914
0.00985205
0.218614
0.295559
0.238032
0.48701
0.147414
0.0973091
0.0807386
0.11215
0.219524
0.287218
0.194577
0.148725
0.180775
0.101296
0.0409666
0.0198934
0.0733797
0.223103
0.199589
0.0828268
0.0802359
0.0582642
0.120546
0.0098912
0.0127225
0.055124
0.226673
0.303231
0.102708
0.125038
0.111388
0.0421774
0.0259598
0.0212626
0.116042
0.349536
0.357775
0.0922452
0.114758
0.0476933
0.0234934
0.0216375
0.114197
0.289011
0.265382
0.323481
0.145939
0.0979919
0.043456
0.00809763
0.0155257
0.0294016
0.0795295
0.223645
0.302231
0.127435
0.160436
0.151382
0.0229604
0.0233156
0.0240275
0.0719136
0.106149
0.094416
0.0638676
0.083379
0.0807362
0.0344989
0.152742
0.294964
0.383186
0.247861
0.258074
0.131517
0.0818438
0.0732793
0.0497373
0.169875
0.142588
0.0746092
0.119876
0.200977
0.0736733
0.069764
0.0412135
0.0826134
0.264089
0.166167
0.0745717
0.0872449
0.0452064
0.134401
0.0950981
0.105925
0.390035
0.214067
0.304227
0.180902
0.244286
0.119046
0.0272006
0.0480273
0.0197937
0.226314
0.149092
0.106806
0.0349619
0.0675369
0.0369043
0.0332711
0.0282308
0.042976
0.198848
0.157094
0.314493
0.105249
0.0688067
0.0187868
0.0311839
0.0147647
0.114578
0.206052
0.0256342
0.0797772
0.0602696
0.0659171
0.0465413
0.025317
0.0069908
0.0092558
0.000190872
0.00726956
0.09465
0.200568
0.150084
0.0778616
0.040878
0.0404803
0.0578553
0.0017844
0.030101
0.245587
0.250208
0.0474743
0.0149294
0.0165696
0.00204564
0.0288361
0.0307795
0.00926113
0.37448
0.725966
0.168777
0.021914
0.018306
0.0130118
0.0333036
0.00289392
0.0103833
0.134783
0.182088
0.0523586
0.0244302
0.00397359
0.0312706
0.0207829
0.00761806
0.0939164
0.323641
0.320643
0.0178722
0.00424989
0.00256033
0.0184034
0.00936564
0.0167874
0.0275539
0.280115
0.439492
0.0584736
0.00637353
0.00162255
0.00531287
0.00798199
0
0.111407
0.51905
0.340236
0.0266219
0.000777189
0
0.00160405
0.00942298
0.0277836
0.147545
0.251868
0.14921
0.0100831
0.00158082
0.00248765
0.00378249
0.0124983
0.0142577
0.282403
0.285178
0.0676089
0.00716325
0.000225832
0.00053277
0.00368641
0.0102878
0.0456574
0.169984
0.428432
0.126831
0.00716413
0
0
0
0.0223501
0.0361033
0.431741
0.504238
0.0322452
0.000834935
0
0
0
0.0155548
0.0450114
0.265053
0.0876556
0.00864476
0.000677635
0
2.24956e-005
0.000427415
0.0013533
0.111222
0.28611
0.0171562
0.00316182
0.0047379
0
0
0
0.0168027
0.322053
0.45317
0.198645
0.00226811
9.6805e-005
0
0
0
0.000589152
0.111786
0.453722
0.0285499
0
0
0
0
0
0.0560744
0.459224
0.0931615
0.00711142
0.00136046
0.00488018
0.000437199
0.00393479
0.0224902
0.107204
0.266955
0.0462702
0.0134741
3.66931e-005
0.000697169
0.0171971
0.0267775
0.0651402
0.384592
0.21802
0.0956998
0
0
0
0
0
0.00303204
0.236202
0.462915
0.01927
0.0149476
0
0
0
0
0.0474769
0.466035
0.399492
0.0516521
0.0149863
0.00106902
0.00155928
0.0310555
0.0502506
0.0822104
0.361707
0.163981
0.0484551
0.00490326
0.0127585
0.055709
0.0589928
0.0547929
0.19355
0.206572
0.101609
0.0161836
0.018826
0
0
0
0.00247745
0.170488
0.444152
0.229155
0.00796084
0.00281298
0.00352562
0.00778239
0.0157041
0.0716038
0.492529
0.372794
0.0889663
0.014356
0.00392759
0.0623849
0.0969904
0.175843
0.0855777
0.140022
0.0463074
0.0136442
0.0167983
0.0421587
0.147346
0.104999
0.223155
0.128926
0.0304182
0.00387491
0.00462326
0.0083734
0.005609
0.053805
0.0234587
0.133424
0.195154
0.616302
0.188197
0.0134442
0.0787253
0.036268
0.127809
0.0815499
0.229054
0.15222
0.382307
0.173735
0.0458036
0.0750037
0.110435
0.149781
0.0954722
0.148677
0.08646
0.0116304
0.000911941
0.029304
0.114607
0.0757843
0.0617693
0.056134
0.048536
0.073574
0.0232068
0.0110522
0.0404022
0.222101
0.264927
0.266394
0.116101
0.157894
0.0495244
0.113146
0.189043
0.0902081
0.25144
0.361011
0.217764
0.0902324
0.0346001
0.131319
0.127634
0.424211
0.109748
0.0977541
0.0359821
0.0813162
0.0781111
0.0452301
0.00944418
0.0155551
0.0154922
0.0417431
0.130821
0.273324
0.0971999
0.058225
0.0419458
0.0113124
0.0168298
0.100543
0.127749
0.437485
0.118488
0.209228
0.0873725
0.0859507
0.117019
0.0279121
0.0149504
0.188736
0.249889
0.300363
0.44601
0.218724
0.116593
0.108249
0.0601793
0.0664897
0.108229
0.0467884
0.245818
0.167093
0.0217978
0.00489701
0.0015975
0.00152226
0.0218394
0.0423803
0.0198214
0.251993
0.512439
0.0632035
0.00643846
0
0
0.000787588
0.0107651
0.0683974
0.194613
0.316501
0.150914
0.0162277
0.00452108
0.0107616
0.0128298
0.0360883
0.0239585
0.133991
0.511121
0.277704
0.0310038
0.00323301
0
0.000112512
0.0151415
0.0198492
0.123346
0.311751
0.033545
0.00323528
0
0
0
0
0.0478889
0.306299
0.349285
0.0301743
0.000375147
0
0
0.00157633
0.0078117
0.00671482
0.1092
0.468712
0.1362
0.0141515
0.00104267
0
0.00188537
0.00154257
0.010168
0.292607
0.498432
0.180137
0.0210683
0
0
0.0131976
0.010798
0.104183
0.358993
0.197974
0.0114292
0.00163702
0
0
0.00751903
0.0148285
0.237565
0.403176
0.0678813
0.0101612
0.0251721
0.0237346
0.000140935
0.031981
0.0409794
0.0934745
0.276717
0.448346
0.159824
0.0248082
0
0
0.0119489
0.0220961
0.162859
0.266093
0.269648
0.156082
0.171794
0.0505702
0.000986542
0.0500209
0.0689265
0.4571
0.251836
0.00781877
0.00899932
0.0389531
0.0522587
0.0012467
0.0238849
0.11091
0.449348
0.0307867
0.000544974
0.0031117
0.0231011
0.015271
0.0033796
0.0598977
0.458321
0.148899
0.109866
0.0641176
0.148674
0.24291
0.123004
0.0141837
0.0501809
0.116411
0.125605
0.00864124
0.00090829
0.0368131
0.108963
0.0540562
0.0742146
0.0843478
0.162086
0.0651574
0.0291851
0.00515031
0.0043161
0.0378579
0.00168504
0.00500565
0.168852
0.270377
0.012629
0.0482265
0.00807913
0.00258966
0.0362851
0.00336093
0.152106
0.469978
0.321469
0.0218854
0.0486418
0.00858385
0.0174848
0.207001
0.0235464
0.100988
0.0513917
0.0739114
0.0478056
0.0763029
0.0134652
0.0153698
0.224583
0.120286
0.499927
0.209668
0.238848
0.00288599
0.00692132
0.000874366
0
0.0048181
0.00542281
0.217489
0.327713
0.0985892
0.000120403
0.00028094
0
0.000922373
0.00547771
0.0415928
0.296716
0.295059
0.0321508
0.0180543
0.0147061
0.00145728
0.0039246
0.0502624
0.130252
0.414918
0.255493
0.0736145
0.00716468
0.010747
0
0.00701727
0.0409917
0.159283
0.462654
0.327495
0.0193667
0.00185602
0.00122511
0.00428861
0.00439675
0.0359789
0.129189
0.377507
0.167739
0.0176924
0.0510455
0.0340998
0.0278576
0.0134486
0.0695155
0.123458
0.41484
0.230527
0.0361286
0.00225663
0.00414154
0.0145426
0.032243
0.0627418
0.228425
0.385184
0.157459
0.0171046
0.0214655
0.0361147
0.0260157
0.0463034
0.189127
0.346471
0.307307
0.137763
0.00793084
0.102209
0.198958
0.0779649
0.0147403
0.0350781
0.0214411
0.10363
0.132497
0.0401638
0.0786034
0.242506
0.0821255
0.0102844
0.0223462
0.0567393
0.217063
0.280982
0.0960798
0.0590897
0.22046
0.0587647
0.0511706
0.196465
0.202015
0.189605
0.0928251
0.0194934
0.0533505
0.263758
0.0948826
0.0326934
0.0964221
0.166126
0.470334
0.320785
0.131024
0.158215
0.117462
0.202919
0.0412475
0.057749
0.102735
0.031815
0.010632
0.120223
0.0471876
0.0883721
0.291795
0.250897
0.168246
0.133854
0.0157957
0.00709051
0.0245703
0.113558
0.111012
0.159754
0.11505
0.120779
0.0587073
0.0250341
0.0197515
0.0798032
0.0106039
0.0531295
0.23962
0.555705
0.393737
0.111983
0.0019788
0.00399982
0.00557328
0.0100734
0.0599454
0.23441
0.240884
0.0600316
0.0153139
0.00404665
0.00202995
0.00444368
0.00272845
0.0204942
0.338206
0.358675
0.0468957
0.00310919
0
0
0.00193653
0.00021234
0.0238432
0.134649
0.377524
0.20323
0.0180303
0.000166045
0
0.000173732
0
0.0042678
0.189844
0.511616
0.287423
0.00135118
0
0
0
0
0.0418439
0.39613
0.254852
0.0277805
0.00148072
0
0.00206147
0.00168665
0.00564241
0.0843392
0.377513
0.281976
0.164919
0.0394415
0.000820512
0.0177123
0.0118066
0
0.00189854
0.214892
0.441992
0.162
0.0107357
0
0.000294495
0.00024095
0.00328456
0.00546098
0.0961072
0.199928
0.310558
0.209732
0.096921
0.0352477
0.00168665
0.0398427
0.0806739
0.243909
0.25372
0.138009
0.0813816
0.0195797
0.0210712
0.0119261
0.0695408
0.162387
0.279382
0.256241
0.125825
0.0978549
0.0481905
0.0492091
0.0268586
0.00931018
0.0112661
0.0305636
0.112013
0.21315
0.273804
0.306506
0.140964
0.0310662
0.164637
0.140282
0.136009
0.143903
0.0720142
0.166017
0.322758
0.297441
0.158443
0.106056
0.104526
0.0995111
0.197347
0.0838883
0.0579735
0.0381608
0.0302757
0.0659014
0.120647
0.0544054
0.0178991
0.0821569
0.0354608
0.106788
0.218636
0.0901374
0.100505
0.335674
0.264616
0.217734
0.174677
0.0162393
0.0594084
0.0863656
0.114043
0.12744
0.273546
0.165087
0.108331
0.0926778
0.00414095
0.221255
0.387307
0.290741
0.212825
0.0235549
0.0218936
0.00428712
0.0439165
0.0945992
0.0850374
0.224929
0.0530117
0.0353443
0.0342658
0.036615
0.0244296
0.142544
0.173205
0.237758
0.401697
0.0628799
0.0578043
0.134862
0.143353
0.0213001
0.0606276
0.013014
0.115057
0.254243
0.212425
0.216084
0.165591
0.351749
0.304422
0.279992
0.135299
0.125699
0.105083
0.0341811
0.113335
0.0183726
0.0182289
0.0114265
0.0678035
0.194643
0.244448
0.261955
0.0581235
0.0184563
0.0102003
0.0147818
0.00249989
0.0175355
0.169555
0.348364
0.389404
0.0894797
0.00173124
0.0467846
0.112263
0.264601
0.236991
0.278267
0.112402
0.0313224
0.0023776
0
0.00572477
0.00783905
0.0721937
0.115883
0.30475
0.321345
0.117228
0.00146165
0
0.00415851
0.0108666
0.0159425
0.0298785
0.0661409
0.303192
0.310831
0.0384669
0.00218095
0.00659018
0.0326524
0.0283404
0.0485498
0.111642
0.264718
0.20225
0.0832198
0.00376408
0.00199625
0.012812
0.00662474
0.038961
0.256338
0.442121
0.206797
0.00330781
0.000302095
0.00424051
0.0681561
0.023428
0.0701058
0.33419
0.389015
0.177988
0.048533
0.00211467
0.00607882
0.034118
0.0169909
0.0215018
0.0808202
0.221702
0.195214
0.0606056
0.00425887
0.017467
0.0352329
0.0386405
0.0203798
0.0585597
0.178201
0.289009
0.159191
0.0426377
0.00115162
0.0205994
0.00865937
0.0482755
0.125225
0.381885
0.215756
0.0684544
0.000996743
0.00223674
0
0.0132619
0.0801547
0.0950036
0.308487
0.52375
0.31382
0.00519765
0.036559
0.0181585
0.028056
0.110627
0.102707
0.0647073
0.02148
0.026938
0.0282858
0.00558258
0.00721108
0.0778206
0.429645
0.344103
0.0925688
0.00370264
0.00598236
0.0051026
0.0491076
0.0491283
0.0598464
0.0729184
0.164405
0.152747
0.0297063
0.0769371
0.0483316
0.0225514
0.00701833
0.0138068
0.173834
0.618329
0.317646
0.0215967
0.0368625
0.0260563
0
0.00229338
0.0293105
0.199458
0.240256
0.0118314
0.000277145
0
0
0
0.000327626
0.0182649
0.336403
0.458752
0.00384432
0
0
0
0
0
0.00118028
0.0839724
0.449227
0.0926583
0.00194002
0
0
0
0
0.000101674
0.198392
0.511985
0.0896756
8.16589e-005
0
0
0
0.00025553
0.0324225
0.362801
0.413984
0.0225631
0.000278305
0.000340151
0
0.00642117
0.00514523
0.0113502
0.0677112
0.177426
0.173334
0.194979
0.0538164
0.00289699
0.00114181
0.00433971
0.00283013
0.209599
0.642146
0.0945012
0.00233548
0.00238106
0.00114181
0.0597493
0.0832299
0.120666
0.127185
0.0854256
0.0405671
0.0607538
0.0387428
0.00673134
0.0114843
0.0132906
0.00030488
0.00144545
0.0423883
0.104643
0.283642
0.151301
0.0750379
0.223022
0.111877
0.0270733
0.00700278
0.00933669
0.0410781
0.207208
0.256596
0.28264
0.113135
0.234608
0.10188
0.042522
0.00351058
0.0104314
0.0701357
0.0844187
0.0665883
0.422125
0.399585
0.0622075
0.00904362
0
0.0023551
0.036317
0.102456
0.351238
0.277966
0.11811
0.0562985
0.0153555
0.000714964
0.00794206
0.0178008
0.0666945
0.141101
0.19735
0.0530941
0.0329632
0.00921328
0
0.0362976
0.0598859
0.279653
0.216039
0.373864
0.0933182
0.0111788
0.00121611
0
0.000152764
0.000611056
0.0275034
0.367167
0.353208
0.0144067
0.00163869
0.000409673
0
0
0.000339131
0.195083
0.463574
0.148882
0.110601
0.00666734
0.00925689
0.00241621
0.0172006
0.043888
0.226172
0.225483
0.19848
0.364508
0.216681
0.0679909
0.0261569
0.000662931
0.0059854
0.0417412
0.108563
0.23818
0.0395271
0
0.000396583
0.000213544
0.00315278
0.011638
0.294655
0.389906
0.198585
0.199073
0.0544975
0.00764128
0.00358866
0.0154525
0.110939
0.377947
0.19979
0.109991
0.303699
0.52778
0.218633
0.118564
0.0112365
0.00199646
0.0162077
0.00882541
0.00989146
0.0143432
0.138227
0.15528
0.289969
0.180169
0.02881
0.00589168
0.00358733
0.113671
0.199335
0.139056
0.0386372
0.0185231
0.0588367
0.207672
0.271651
0.0828511
0.0221281
0.0103536
0.0927358
0.208004
0.212985
0.0691789
0.0461222
0.0295536
0.0238327
0.000221528
0.00491002
0.00564386
0.0310884
0.322057
0.177694
0.0267775
0.000446322
0.000208845
0.000187321
0.0364983
0.0312009
0.0422525
0.402263
0.224854
0.0412843
0
0
0.00166889
0.00531567
0.0492552
0.267882
0.388811
0.0403546
0.00365121
0.00116932
0.00176743
0
0.0407567
0.0878394
0.309553
0.503796
0.0855134
0.0206373
0
0
8.46978e-005
0.0312059
0.0203006
0.0653639
0.227956
0.356626
0.0678419
0.0224203
0
0.0130359
0.0960659
0.010083
0.133788
0.155466
0.33845
0.320857
0.191009
0.00578235
0
0.0531592
0.0817768
0.20512
0.326675
0.219526
0.019365
0.00746963
0.000633166
0.0424228
0.231691
0.0891383
0.159944
0.202843
0.298298
0.0642048
0.10061
0.0780504
0.0171291
0.0429324
0.161512
0.146053
0.127061
0.0516367
0.00837394
0.113382
0.0576326
0.00786608
0.00939552
0.034172
0.116269
0.460649
0.282641
0.0106012
0.0670062
0.0345796
0.00251784
0.0653444
0.327476
0.221288
0.157937
0.0698261
0.0441266
0.136402
0.0335253
0.00419641
0.0618587
0.17045
0.129177
0.273815
0.425672
0.108972
0.12111
0.0178255
0
0.000356575
0.000832009
0.0214049
0.304051
0.188701
0.00175509
0
0
0
0
0
0.0372846
0.447896
0.32667
0.0309478
0
0
0.000419358
0.00487239
0.00582406
0.0144285
0.212326
0.356002
0.0450459
0.016579
0
0
0
0
0.000356456
0.193337
0.499838
0.225487
0
0
0.000806127
0.00536027
0.00205319
0.0429476
0.233584
0.239818
0.0398953
0.000618421
0.000806127
0.0221239
0.0530221
0.170134
0.240233
0.0773412
0.0430312
0.00996177
0.00357335
0.00180488
0.000115161
0.00293742
0.00111596
0.0185026
0.117025
0.515295
0.333664
0.00367091
0.000115161
0.00149281
0.0137122
0.124297
0.320346
0.322483
0.29754
0.176309
0.0125859
0.000191935
0.0755211
0.228177
0.257724
0.169052
0.0230839
0.000394253
0.000104037
0.00568362
0.00554194
0.337209
0.404439
0.1692
0.0420877
0.00928587
0
0
0.00426568
0.162758
0.0241401
0.0942743
0.236804
0.294539
0.146018
0.156664
0.121917
0.0482662
0.00621452
0.281347
0.205344
0.169211
0.116562
0.0650011
0.0812161
0.0985081
0.124789
0.216102
0.274936
0.0676129
0.0139522
0.00214737
0.000945286
0
0
0.00108949
0.291555
0.304567
0
0
0
0
0
0
0.0427791
0.453472
0.25836
0.0371016
0.00976257
0.00623828
0.006617
0.0056269
0.00718993
0.0296423
0.327273
0.327529
0.0086922
0
0
0
0
0
0.0144967
0.453472
0.15312
0.0010414
0
0
0.00275741
0.00987897
0.0596514
0.208017
0.339329
0.0359187
0.0104984
0
0
0.0374202
0.0895527
0.338797
0.354231
0.145554
0.200373
0.0459167
0.0369689
0.0399662
0.0193019
0.0123796
0.118137
0.0879055
0.342305
0.0437412
0.0518314
0.1777
0.152496
0.229337
0.157495
0.384374
0.125327
0.0979538
0.00901489
0.00764195
0
0.00718983
0.0799571
0.155755
0.268792
0.124141
0.0266451
0.00487588
0.000594669
0.0588977
0.183331
0.124039
0.0828222
0.0343981
0.00760418
0.00613181
0.000224523
0.0126262
0.173186
0.161139
0.390723
0.230249
0.215395
0.0297651
0.00240686
0.000374205
0.00853975
0.340038
0.488146
0.30289
0.0948098
0.0194736
0.000564996
0.000374205
0.000706258
0.00154026
0.0908783
0.329719
0.143454
0.00546598
0.000140504
0.000252115
0.000737981
0
0.0112019
0.0849982
0.393185
0.204435
0.00714014
0.00235935
0
0
3.81932e-005
0.003778
0.232687
0.492067
0.104669
0.00515361
0
0
3.81932e-005
0
0.000408508
0.220462
0.492067
0.109612
0.00015752
0
0
0
0
0.0124909
0.0791556
0.373678
0.155362
0.0360805
0.00343384
0.0156047
0.00974784
0.0633873
0.0488312
0.0835213
0.216367
0.0797881
0.0950136
0.00242158
0.122493
0.188412
0
0.0175484
0.273581
0.571313
0.0522346
0.00344979
7.90519e-005
0.0113315
0.0189597
0.0563344
0.047533
0.137079
0.359924
0.0165037
0.0191185
0.000774396
0.0811272
0.282793
0.0648424
0.0900739
0.221367
0.0727962
0.0915593
0.071217
0.0768213
0.131647
0.057726
0.0318693
0.0777778
0.141524
0.0561352
0.160842
0.371885
0.229454
0.165978
0.0106748
0.14293
0.0793589
0.0606979
0.0306462
0.0252856
0.0797722
0.0402972
0.0740301
0.108706
0.0561676
0.0501732
0.0387658
0.0280846
0.0875183
0.51794
0.447554
0.0762662
0.0349087
0.000522105
0.00344859
0.0022427
0.00608709
0.0867367
0.254912
0.161504
0.0321092
0.000249438
0
0
0
0.000373116
0.0553253
0.346166
0.316869
0.000303999
0
0.000816941
0.00104418
0.00104754
0.00279514
0.027918
0.283999
0.457252
0.0301009
0.00174607
0
0
0
5.33023e-005
0.0084737
0.274685
0.506507
0.0592674
0
0
0
0
0.00172579
0.03055
0.196489
0.350753
0.0162615
0
0
0
0.00879844
0.0412905
0.132917
0.229367
0.404342
0.0715389
0
0
0
0
0
0.00478099
0.0941394
0.443577
0.0716212
0.000716972
0
0
0
0
0.0224183
0.0861348
0.472909
0.327734
0.00371298
0.00211853
0.00599021
0.0219046
0.0507535
0.0582209
0.154649
0.268453
0.134619
0.0198628
0.0671059
0.014721
0.0161802
0.0263112
0.0177489
0.0708138
0.161697
0.211017
0.265656
0.00688817
0
0
0
0.00794822
0.0537312
0.4455
0.357456
0.0920435
0.118275
0
0
0
0
0.0235673
0.184335
0.313051
0.4455
0.125861
0.00313817
0.0008594
0.00175124
0.0021404
0.00584782
0.0122843
0.04473
0.31536
0.267085
0.0105454
0
0
0
0
0
0.000985695
0.380297
0.209179
0
0
0
0
0.00220712
0.00894962
0.0488964
0.438447
0.438447
0.0112373
0
0
0
0
0
0.000889798
0.438447
0.225066
0.0804322
0.05608
0.0448279
0.00628495
0.00198484
0.02192
0.00466061
0.158572
0.0819638
0.123445
0.34922
0.170478
0.0795896
0.0270521
0.0467432
0.006717
0.0217318
0.428151
0.136852
0.0446796
0.0243271
0.000958266
0
0
0
0.255505
0.231034
0.428151
0.415285
0.0791712
0.0106513
0
0
0
0.0385462
0.000469863
0.0459827
0.303379
0.140436
0.116813
0.0253492
0.0121137
0.000830317
0
0
0.0346501
0.439236
0.202859
0.0823853
0.00776537
0.000678528
0
0
0.0171888
0.35749
0.416565
0.0666981
0.0248655
0
0
0
0.00137708
0.000720038
0.276652
0.439236
0.0977108
0.0202896
0.000807411
0
0
0.00191217
0
0.0111243
0.283762
0.212674
0.044984
0.001835
0
0
0
0
0.000998004
0.292122
0.407221
0.0399267
0.000862723
0
0
0
1.48719e-005
0.104839
0.481232
0.106318
0.0166477
0.00239645
0
0
0.000282564
0.00116342
0.0487901
0.481232
0.289031
0.0111725
0.00143787
0
0
0.000275403
0.0010981
0.0238391
0.396075
0.545739
0.0111466
0.00263918
0.00264802
0.000651958
0.00485893
0.0155529
0.0672689
0.153148
0.189201
0.00816787
0.0218961
0.00710919
0.00635657
0.0763793
0.00742829
0.0203116
0.500486
0.368064
0.00078368
0.0039155
0.0219207
0.00522529
0.00574866
0.0165235
0.021912
0.0893033
0.0981065
0.00385138
0.0262199
0.0608628
0.0269775
0.0213964
0.104756
0.0806964
0.0253448
0.0651856
0.036306
0.0523356
0.0374794
0.0169637
0.0568852
0.0341632
0.0455882
0.0429256
0.0553455
0.0818531
0.441281
0.617679
0.00394008
0.0229711
0.0773557
0.0861285
0.0431486
0.0910804
0.0382646
0.0170866
0.0324095
0.0146891
0.0222102
0.0474696
0.0484942
0.116971
0.299263
0.217065
0.208413
0.156743
0.00268715
0.001409
0.000772359
0.00143135
0.00429289
0.0163376
0.0250355
0.226495
0.413094
0.031819
0.00195854
0
0
0
0.0106476
0.0118513
0.263886
0.546905
0.172466
0.00984788
0.023925
0.00444673
0.0199902
0.172923
0.128124
0.170752
0.111658
0.0214496
0.00753881
0.0731491
0.008155
0.00167525
0.101621
0.0781528
0.236029
0.284898
0.253653
0.0626714
0
0
0
0.000470801
0.000470801
0.0560663
0.267699
0.175773
0.00768487
0.000633587
0
0
0
0
0.0055992
0.390773
0.397225
0.0344003
0.0163506
0.00272862
0
0.0032956
0.00372001
0.04464
0.25834
0.328754
0.0284244
0.00475557
0.000320456
0
0
0.00297083
0.0183972
0.300338
0.49873
0.126718
0.009554
0
0
0
0
0.00111465
0.202177
0.336387
0.141441
0.0880625
0
0
0
0
0.00185775
0.0529318
0.332344
0.465432
0.0142478
0
0
0
0.000961461
0.00544827
0.10173
0.321648
0.203462
0.0707437
0.0147797
0
0
0
0
0.050657
0.329874
0.412536
0.172289
0
0
0
0
0.000221171
0.000884683
0.079745
0.405549
0.434569
0.0245934
0
0
0
0
0
0.0046974
0.385593
0.161072
0.0148527
0
0
0
0
0.00511703
0.091797
0.333706
0.434569
0.0425232
0
0
0
0
0
0.00980021
0.285674
0.425719
0.122819
0.00804945
0.00263803
0.000138843
0
0
0
0.144378
0.309649
0.392641
0.117039
0.00609646
0.00104394
0
0
0
0.0302297
0.410985
0.124595
0.00942652
0
0
0
0
0.00127239
0.084341
0.375345
0.373298
0.0340483
0
0
0
0
0
0.034357
0.0583117
0.317556
0.145264
0.00348925
0.00209799
0
0
0
0.00507875
0.00638044
0.358991
0.293896
0.0143574
0.00144437
0.000109403
0
0
0.0053985
0.112632
0.440721
0.119735
0
0
0
0
0
0.0139901
0.0215293
0.448204
0.438083
0
0
0
0
0
0.00693254
9.82946e-005
0.284657
0.453559
0.026182
0.000676174
0.000364094
0
0
0.000862274
0.00535195
0.155397
0.487065
0.0619688
0.00044578
0.000292882
0
0.000763705
0.000912924
0.0236795
0.419324
0.381783
0.000187328
0
0
0
0.00423622
0.0306039
0.029443
0.171162
0.194556
0.00243241
0.000280526
0.000520977
0
0.0113425
0.0891448
0.0445494
0.120472
0.669875
0.199194
0.00143879
0.0320408
0.0539597
0.0260584
0.0241024
0.0252519
0.0170549
0.0431403
0.082391
0.0251713
0.128876
0.185063
0.0829778
0.0571861
0.0803719
0.122303
0.144394
0.00775262
0.0100716
0.0750805
0.0215038
0.0381857
0.195421
0.0684833
0.153268
0.0957597
0.0441486
0.0611241
0.351829
0.101896
0.0427923
0.0409233
0.051008
0.0707779
0.123895
0.105073
0.0141926
0.0222712
0.00748851
0.00541707
0.00978122
0.0451235
0.0535954
0.355008
0.365199
0.0988887
0.0514021
0.00828874
0.000333794
0.00445067
0.0158956
0.0625951
0.179236
0.101614
0.105164
0.146009
0.0233966
0.0143585
0.00398811
0.0501541
0.11787
0.556973
0.333394
0.146342
0.0881366
0.00669435
0
0.00388128
0.104149
0.0258248
0.148059
0.41651
0.176352
0.0856964
0.0115854
0.0133854
0.0282316
0.294763
0.0633258
0.0301028
0.180951
0.109902
0.0921658
0.262353
0.25195
0.107699
0.153276
0.0501127
0.215147
0.246716
0.049113
0.0767688
0.0178531
0.0100267
0.0710543
0.333344
0.0707817
0.0595844
0.074172
0.0192647
0.0695468
0.0974876
0.104149
0.198236
0.0467771
0.0296527
0.00869678
0.00207405
0.00404762
0.0181662
0.22164
0.288102
0.0490333
0.00687887
0.0116855
0.00160822
0
0.013815
0.078285
0.227561
0.648691
0.185356
0.0908307
0.0511473
0.0189038
0.00565376
0.00425433
0.0105026
0.0373554
0.12624
0.0778101
0.0323691
0.0368648
0.00878662
0.00815556
0.0129846
0.0494994
0.030152
0.436948
0.216489
0.00829181
0
0
0
0.00402625
0.0228154
0.107085
0.386863
0.186483
0.0466401
0.0227688
0
0
0
0
0.104522
0.287068
0.36248
0.00446202
0.00585581
0.00182932
0.000874398
0.00291919
0.0139603
0.031561
0.352963
0.232664
0.0685527
0.0112987
0.00019407
0
0
0
0.0383846
0.303996
0.48766
0.125919
0.0247417
0
0
0
0
0.0125152
0.0740268
0.317661
0.352585
0.0900247
0
0
0
0
0
0.0124056
0.253259
0.219769
0.0227246
0
0
0
0
0.00472396
0.0637797
0.397076
0.564346
0.103469
0
0
0
0
0.00916702
0.0143271
0.287881
0.304735
0.17232
0.015196
0
0.000720244
0.0217507
0.00478572
0.00763743
0.0903397
0.291811
0.483673
0.075118
0.0498649
0.023429
0.0820997
0.0208263
0.00710672
0.0400952
0.335235
0.108892
0.00217085
0.00215617
0.0282587
0.0564001
0.0524899
0.0733988
0.136692
0.115175
0.172904
0.0411811
0.160478
0.385611
0.279362
0.0908847
0.0899261
0.0564449
0.0632828
0.443551
0.118201
0.0555109
0.0178502
0.0194925
0.00484501
0.000577907
0.00571051
0.0232378
0.46664
0.284096
0.0373555
0.0145731
0.00245948
0
0
0.00507396
0.011767
0.129464
0.0950076
0.189648
0.261002
0.0763221
0.0142709
0.00700234
0
0.00912798
0.23447
0.452211
0.156555
0.109078
0.00564872
0
0
0.00156204
0.0928341
0.19677
0.190203
0.016406
0.00516026
0.000910636
0
0.0110028
0.0785569
0.113156
0.0663984
0.0482371
0.00229088
0.00012358
0.000229505
0.00572145
0.12495
0.311132
0.111902
0.23462
0.471209
0.0512214
0.0149041
0.00151773
0
0.0168127
0.0628454
0.247268
0.146047
0.163367
0.00687519
0
0
0.00953575
0.253013
0.505094
0.0377864
0.0182323
0.00496275
0
0.000947555
0.00492336
0.00607591
0.111039
0.221878
0.0589721
0.127509
0.0987592
0.0102579
0.00843276
0.0327336
0.0048795
0.0276911
0.121198
0.179296
0.0267261
0.00576254
0
0
0
0.00984613
0.226717
0.564541
0.248744
0.120254
0.110298
0.0149212
0.00803452
0.0334676
0.0676112
0.135779
0.564541