0.226326
0.313324
0.057844
0.0090351
0.0682518
0.0804174
0.0156055
0.0649057
0.0832592
0.351812
0.184381
0.0585514
0.0720713
0.0278419
0.0397634
0.00958123
0.10272
0.284084
0.117858
0.144224
0.0333474
0.0064677
0.154092
0.17009
0.100286
0.240702
0.216174
0.256878
0.147758
0.143067
0.133951
0.152177
0.107288
0.0381624
0.0602635
0.349324
0.0756138
0.0662525
0.0482516
0.136548
0.0535212
0.0503188
0.0461829
0.0580859
0.126937
0.0666144
0.257661
0.128
0.185167
0.0791648
0.0809533
0.199651
0.20542
0.0773695
0.0716528
0.14021
0.194528
0.113911
0.0564802
0.0318757
0.0553647
0.0780024
0.0818668
0.0762685
0.164151
0.123813
0.0478916
0.0159032
0.0982295
0.394577
0.571896
0.131449
0.0814311
0.139289
0.0733577
0.0766062
0.0928359
0.118684
0.109642
0.127011
0.0550371
0.157225
0.0695925
0.0263227
0.037862
0.115722
0.223894
0.183769
0.228747
0.231499
0.121142
0.0379765
0.0107132
0.0737988
0.0971369
0.213684
0.203566
0.339445
0.141529
0.234608
0.0415018
0.0060339
0.116047
0.337926
0.266982
0.129513
0.183584
0.236689
0.200235
0.192961
0.143747
0.103237
0.115433
0.0814096
0.0771073
0.111611
0.254577
0.116992
0.165891
0.213928
0.174358
0.404066
0.240155
0.0260411
0.0160354
0.0635593
0.28388
0.119067
0.0494531
0.0412773
0.164182
0.0631371
0.147426
0.067372
0.249174
0.24438
0.161152
0.0875096
0.0550398
0.1844
0.0794227
0.0910858
0.0272577
0.125728
0.078479
0.0811869
0.118775
0.128903
0.337122
0.27633
0.0445057
0.0649576
0.127117
0.0857671
0.11223
0.125342
0.0750817
0.0464655
0.0191798
0.011941
0.0715749
0.162904
0.175897
0.109596
0.048426
0.0466459
0.152282
0.117847
0.0733046
0.124365
0.342605
0.15959
0.0776255
0.056536
0.010029
0.005675
0.0129981
0.0412332
0.213874
0.495611
0.0832814
0.0976631
0.117417
0.149537
0.0606504
0.00897196
0.01157
0.0549432
0.101025
0.1313
0.122976
0.141595
0.340833
0.118355
0.0677949
0.0128126
0.0492712
0.0742729
0.205873
0.0782786
0.110363
0.0374858
0.0287542
0.0718492
0.112645
0.215827
0.280113
0.367013
0.176853
0.13858
0.125954
0.156324
0.243002
0.137458
0.140328
0.148688
0.0535561
0.0840509
0.132641
0.243227
0.131331
0.0593852
0.0140153
0.029736
0.0441296
0.128106
0.270106
0.210984
0.241622
0.154708
0.0386131
0.0537361
0.0559328
0.149286
0.215052
0.120126
0.106802
0.209748
0.154079
0.0685058
0.0610437
0.0998148
0.121235
0.241708
0.288169
0.216189
0.247002
0.106483
0.0190867
0.0991039
0.106479
0.146838
0.0886761
0.287754
0.0552309
0.0419183
0.0826715
0.0257406
0.0565307
0.0594144
0.0858769
0.385048
0.270993
0.0422098
0.0389096
0.0722189
0.0710761
0.141508
0.0673331
0.0794262
0.0506817
0.107227
0.0649899
0.0953291
0.0890558
0.0765274
0.166187
0.104932
0.105918
0.0989698
0.0376718
0.0266947
0.0834885
0.103987
0.310683
0.481199
0.214003
0.144239
0.49626
0.101123
0.0182646
0.0144375
0.00625522
0.0227312
0.0543343
0.0478112
0.0866162
0.307318
0.221246
0.134017
0.0369617
0.0478139
0.00367313
0.00529033
0.0300928
0.05381
0.161057
0.0390783
0.00896405
0.0131752
0.0120681
0.113737
0.23357
0.192937
0.278402
0.155426
0.0556389
0.0238022
0.00870514
0.0263429
0.00612188
0.0286366
0.153337
0.432026
0.0435304
0.0236808
0.00319968
0.00152353
0.21343
0.2108
0.138146
0.154944
0.111444
0.241121
0.228345
0.257864
0.0877121
0.28018
0.151035
0.0536051
0.0571452
0.213768
0.0521105
0.0440752
0.0175046
0.00261515
0.156515
0.219627
0.103151
0.0630145
0.0368935
0.24554
0.280567
0.257791
0.0741302
0.213133
0.118909
0.0808721
0.12326
0.196627
0.0948078
0.152617
0.304043
0.074706
0.0640544
0.00920069
0.0152401
0.0308706
0.095279
0.0488675
0.0889959
0.175174
0.021382
0.00665205
0.184534
0.28832
0.24079
0.150984
0.121058
0.13359
0.183973
0.0991346
0.0875637
0.0157045
0.101047
0.0806081
0.186223
0.260792
0.224819
0.175857
0.0526811
0.0115459
0.167337
0.347
0.119359
0.308155
0.022148
0.00866777
0.0287171
0.0590356
0.0786334
0.319724
0.213925
0.104725
0.0575245
0.0317546
0.0227731
0.0831997
0.166604
0.282268
0.250979
0.125235
0.0185872
0.0358276
0.148432
0.247894
0.163612
0.0968869
0.0437605
0.232256
0.202388
0.0223536
0.0948994
0.0592875
0.220183
0.345952
0.298972
0.210301
0.157357
0.135533
0.00140931
0.0180711
0.10702
0.0973107
0.0902055
0.0776457
0.162569
0.0389682
0.0932605
0.0119351
0.0694969
0.339028
0.214445
0.0551574
0.0192855
0.0333094
0.00446042
0.0436841
0.0140948
0.0850604
0.0798215
0.297143
0.324517
0.164318
0.121631
0.0308331
0.0259901
0.00117357
0.0282056
0.450539
0.454538
0.130905
0.0101443
0.00618119
0.0108
0.0058524
0.0128475
0.0559498
0.29899
0.0828009
0.0138834
0.00672133
0.0101069
0.00171786
0.00637278
0.0311861
0.148823
0.208273
0.0416519
0.00690319
0
0
0.000210765
0.0179575
0.133643
0.241155
0.534188
0.119901
0.0118848
0
0
0
0.00329959
0.0219427
0.193815
0.335279
0.0365168
0.00370882
0
0
0
0.0147425
0.180507
0.442311
0.104225
0.0590679
0.0257362
0.00219804
0.00386056
0.0620922
0.0897558
0.15991
0.116065
0.138749
0.0802197
0.0895065
0.0137894
0.0416164
0.194375
0.125412
0.112728
0.0921133
0.0970849
0.0462755
0.0125448
0
0.000551508
0.0366608
0.0917557
0.428597
0.300658
0.0948163
0.100091
0.119355
0.0345721
0.00531548
0.172349
0.247025
0.531261
0.112872
0.142546
0.0575249
0.0703636
0.0437935
0.12221
0.0755667
0.0499229
0.152534
0.143205
0.118948
0.100932
0.0408734
0.0862326
0.161605
0.0399673
0.0743306
0.147051
0.105706
0.0704411
0.067418
0.128589
0.156828
0.132716
0.106211
0.239729
0.391658
0.114839
0.0304095
0.0648565
0.0731834
0.220529
0.252657
0.0633273
0.276888
0.405525
0.0772779
0.0367253
0.0686013
0.0542797
0.189935
0.135842
0.0579033
0.099855
0.0448968
0.0481919
0.0329249
0.0487664
0.0872278
0.213653
0.141323
0.206705
0.238807
0.152794
0.180124
0.0247492
0.0912674
0.0933071
0.259499
0.192941
0.0296147
0.104583
0.0921483
0.00764495
0.0422166
0.133504
0.182592
0.45009
0.380018
0.0739396
0.0298948
0.0213713
0.0699286
0.0756656
0.0426344
0.0519518
0.0329889
0.0127825
0.0515137
0.0793377
0.10962
0.312926
0.132493
0.0334122
0.038569
0.00716226
0.0024962
0.00473439
0.0250003
0.105089
0.51596
0.0814966
0.13602
0.17033
0.24989
0.146793
0.0654924
0.0137223
0.0131938
0.138437
0.170445
0.155652
0.21948
0.172637
0.0454042
0.102389
0.187583
0.0717529
0.350416
0.0241593
0.0221366
0.0211151
0.00159308
0.0507956
0.144351
0.125418
0.0850458
0.041449
0.105572
0.107224
0.151827
0.0374316
0.103078
0.150907
0.240974
0.190906
0.292683
0.150458
0.042628
0.00725258
0
0.0297442
0.07782
0.0602447
0.037233
0.110567
0.443968
0.20052
0.168823
0.0327221
0.138457
0.193134
0.262354
0.201703
0.271579
0.0384986
0.0259654
0.0726024
0.0420874
0.0347326
0.0318403
0.0789722
0.0517551
0.0782016
0.159873
0.215892
0.346455
0.0691524
0.0209956
0.0446044
0.108436
0.0494407
0.0580063
0.0720795
0.0322989
0.134803
0.13812
0.230382
0.0729614
0.0442876
0.0518779
0.0509145
0.0403973
0.12973
0.545203
0.332746
0.401392
0.0704191
0.0199661
0.0154755
0.0228403
0.158552
0.327411
0.225827
0.0530848
0.00872863
0.0189832
0.0349751
0.0125354
0.0256645
0.0934856
0.329017
0.202388
0.132032
0.0495116
0.013604
0.0176813
0.00726157
0.0129666
0.0493167
0.241832
0.414698
0.0981238
0.0732761
0.0088747
0.00435246
0.0112734
0.0154067
0.0770908
0.459989
0.334945
0.0554705
0.000181257
0.000543772
0.00384747
0.0120926
0.00816584
0.114987
0.353879
0.14034
0.0866854
0.0324454
0.0166928
0.0030429
0.00170535
0.0163421
0.388846
0.331155
0.0383073
0.00659684
0.00316759
0.00950276
0.00116101
0.00747482
0.0764143
0.12798
0.513306
0.187789
0.0683462
0.00716306
0.00565275
0.0330421
0.00428593
0.0119674
0.283261
0.279321
0.0362184
0.0489227
0.0453146
0.0170756
0.0573342
0.0244967
0.0833798
0.430799
0.0712074
0.00327614
0
0.000729638
0.00381891
0.00192233
0.0121437
0.267767
0.217642
0.00671007
0
0
0.00510746
0.00895912
0.0216209
0.150145
0.54438
0.236222
0.0449195
0.000250144
0.0216705
0.0292308
0.042219
0.0173729
0.0363765
0.218868
0.125793
0.0218711
0
0.0143209
0.0589045
0.180309
0.0512409
0.127228
0.324334
0.0303343
0.00318393
0.000545059
0
0.00146999
0.00574873
0.0320993
0.294655
0.192602
0.0318242
0.0113454
0.0105485
0.0071634
0
0.0362169
0.15725
0.418462
0.0570559
0.0365897
0.031157
0
0.0015163
0.0279533
0.09509
0.0713945
0.298279
0.125411
0.0185381
0.0184823
0.00209436
0.00837745
0.00575048
0.0857175
0.333802
0.589849
0.09515
0.0155773
0.00745812
0.0122313
0.0269567
0.0111424
0.0203925
0.200557
0.203391
0.0258443
0.00519532
0.0225881
0.0164577
0.0341507
0.0212845
0.021211
0.262109
0.219416
0.0124208
0.00821437
0.00198378
0.00209294
0.00837174
0.00213019
0.03989
0.456552
0.345242
0.038412
0.00196708
0.00548583
0.00162419
0.00119596
0.0193961
0.0897197
0.553199
0.284432
0.00574801
0.0151837
0.0667846
0.0285515
0.0621211
0.0721729
0.0350973
0.208982
0.10136
0
0.0116648
0.0481943
0.0319526
0.183704
0.315354
0.0780366
0.0535525
0.0100561
0
0.00385623
0.019101
0.00222708
0.0178868
0.124709
0.196321
0.494404
0.176789
0
0.00231374
0.0102163
0.000318155
0.200486
0.497449
0.170499
0.17767
0.0486212
0
0.0358405
0.0434001
0.0633409
0.213064
0.212494
0.18026
0.0686483
0.0597735
0.0326276
0.203602
0.190713
0.223835
0.160156
0.0593355
0.196398
0.183104
0.118765
0.152519
0.0334179
0
0.00708596
0.18164
0.260172
0.153984
0.101204
0.124485
0.0947239
0.295427
0.215829
0.156606
0.111152
0.0714607
0.146093
0.107372
0.191441
0.277091
0.252458
0.0318524
0
0
0.000959527
0.00178198
0.00121192
0.00172882
0.104345
0.393684
0.130708
0.044766
0.00934939
0.0171174
0.00959571
0.00996448
0.0285519
0.0715898
0.530884
0.105713
0.010073
0.00369991
0.0134192
0.0111146
0.0180386
0.0135507
0.219784
0.530884
0.169813
0.0221256
0.0144426
0.0387666
0.0366112
0.0331402
0.102042
0.153006
0.187222
0.106433
0.139683
0.145421
0.17701
0.0236855
0.00588238
0.0251242
0.025302
0.0233519
0.0943587
0.258783
0.317428
0.392693
0.0333783
0.00040977
0.00726324
0.0183434
0.226009
0.192526
0.159123
0.145955
0.0666774
0.0142596
0.00679459
0.0668434
0.0588552
0.0304371
0.118332
0.267099
0.431468
0.268616
0.0175874
0
0.00645239
0.00647043
0.0123258
0.191449
0.328897
0.142214
0.130759
0.011058
0.000419517
0.0064306
0.0206882
0.0562715
0.287536
0.353448
0.152485
0.103758
0.0137233
0.00212768
0.00283645
0.00295546
0.0120633
0.0859994
0.189995
0.388421
0.221043
0.027698
0
0.000738864
0.00295546
0.0262593
0.0810115
0.138441
0.227191
0.388517
0.174154
0.0802525
0.00373846
0.000422208
0.071196
0.240936
0.246664
0.264815
0.0908313
0.0245843
0.047758
0.00143447
0.00916631
0.139146
0.156416
0.128401
0.216441
0.0836307
0.0525633
0.0798658
0.01292
0.0356061
0.0645772
0.0560151
0.123576
0.280441
0.286457
0.186552
0.153095
0.0125704
0.0961871
0.289855
0.204959
0.289704
0.244604
0.0640059
0.0472295
0.0474233
0.0199031
0.230074
0.145363
0.092813
0.0701583
0.0635879
0.0428099
0.0548177
0.048073
0.0513674
0.0806484
0.0814429
0.0814188
0.0587843
0.0259897
0.101397
0.271601
0.14148
0.0916546
0.0923261
0.231135
0.155257
0.270962
0.0813462
0.0155206
0.0401523
0.17111
0.105562
0.207881
0.0939744
0.265939
0.143554
0.036866
0.0918154
0.162803
0.455152
0.307414
0.153964
0.0211395
0.0664828
0.0382407
0.00709209
0.10583
0.211286
0.100077
0.106567
0.0313334
0.00834985
0.0300246
0.0127162
0.0465178
0.180227
0.250476
0.237324
0.25004
0.0645724
0.0162572
0.247989
0.0978389
0.112845
0.146517
0.140902
0.120141
0.117671
0.0557558
0.00848658
0.0954172
0.0531362
0.304778
0.541564
0.213101
0.0664032
0.0493622
0.0569435
0
0
0.00521576
0.0289519
0.0683828
0.121224
0.315854
0.118637
0.0278553
0
0.00529829
0.00869254
0.00589535
0.0536333
0.220507
0.430811
0.0716186
0.00364294
0
0.00125353
0.00903371
0.0833957
0.291629
0.224621
0.131104
0.00965091
0.00840207
0
0.00883048
0.0136928
0.012479
0.217352
0.528594
0.264667
0.00225595
0.00052042
0
0.00638736
0.00958104
0.0428855
0.152948
0.179884
0.18787
0.0309417
0
0
0.00091248
0.00249066
0.17813
0.352899
0.0985573
0.0528971
0.0116203
0
0
0.0106456
0.0159684
0.113279
0.353086
0.249457
0.11213
0
0
0
0.0015208
0.0149833
0.385624
0.544385
0.0580914
0.0255283
0.00628229
0
0.00364572
0
0.00595259
0.165112
0.218716
0.0837876
0.0422509
0.0255968
0.0274361
0.0807238
0.0955244
0.0767749
0.180609
0.164552
0.109031
0.0407137
0.0334588
0.0759632
0
0
0.0196854
0.280256
0.342951
0.141385
0.0683981
0.0256459
0
0.00788624
0.0365842
0.0400278
0.157151
0.582366
0.34207
0.068897
0.0153875
0
0.46739
0.164975
0.0721616
0.0702226
0.0822366
0.0507947
0.074021
0.0342327
0.256192
0.342822
0.120031
0.0313216
0.0827136
0.12075
0.200963
0.15292
0.152027
0.174602
0.064942
0.0518783
0.0922163
0.12579
0.146407
0.0692637
0.0537732
0.0392048
0.0951549
0.0573341
0.0306915
0.0569862
0.240021
0.273465
0.235313
0.13896
0.0590505
0.0650174
0.0492863
0.0713412
0.0723092
0.157991
0.0819276
0.0357741
0.0213499
0.0547767
0.0310371
0.00604118
0.030393
0.0859714
0.357959
0.425442
0.0133084
0.000653688
0.00612557
0.0030655
0.0045601
0.0149937
0.0376692
0.150887
0.199349
0.0853708
0.0346216
0.0252512
0.00706536
0.000288475
0.00214196
0.016552
0.184437
0.653219
0.183152
0.00421446
0.00360731
0.000918596
0.00182086
0.0024303
0.0274908
0.304652
0.373387
0.0324423
0
0
0
0.00303476
0.00354867
0.0163245
0.129753
0.300448
0.163504
0.193365
0.0117911
0
0
0
0.0029564
0.118972
0.569944
0.208283
0.00391312
0
0
0
0.00408779
0.133727
0.200719
0.229288
0.102739
0.142111
0.00707467
0
0.0329638
0.0130609
0.0200027
0.0688343
0.132617
0.125638
0.366259
0.0385135
0.0821446
0.210689
0.0853217
0.0958158
0.0686771
0.0153632
0.012935
0.158322
0.0428354
0.303251
0.0176963
0.0131828
0.281651
0.272182
0.0661183
0.0293583
0.319232
0.0284801
0.0358705
0.261674
0.0775265
0.165995
0.203131
0.0451773
0.00934426
0.181981
0.0319786
0.323001
0.182239
0.0342521
0.0748921
0.0249718
0.000640882
0.00522261
0.0675827
0.0493136
0.222066
0.144415
0.092851
0.0265639
0.0175226
0.0102048
0.0156347
0.155544
0.195738
0.208716
0.337185
0.042979
0.0135867
0.0191994
0.0154481
0.00171645
0.0143168
0.0166577
0.383969
0.411191
0.0348809
0.000403301
0.0023215
0.00785496
0.00404732
0.0273961
0.101055
0.488909
0.0684281
0.234688
0.0851712
0.126726
0.0391254
0.0135393
0.0474111
0.136978
0.140524
0.0225276
0.15504
0.173827
0.314261
0.290222
0.0579986
0.00381541
0.0469362
0.0535237
0.171881
0.140911
0.058111
0.0226184
0.0114957
0.0105964
0.149659
0.196389
0.36854
0.0221713
0.124722
0.168473
0.0863672
0.147687
0.0661291
0.329969
0.264957
0.160359
0
0.0066327
0.0323007
0.0742169
0.226648
0.164771
0.0243336
0.00686035
0.00376993
0
0.00150386
0.00242309
0.0213053
0.316014
0.47427
0.0814817
0.000157219
0
0
0.00648079
0.0498917
0.109478
0.176863
0.088628
0.0818405
0.0480335
0.0109674
0
0
0.020492
0.345596
0.527555
0.207934
0.0261042
0.00110053
0
0
0.00109253
0.0016388
0.0454386
0.28547
0.134157
0.029718
0
0
0
0.000156076
0.00610178
0.177864
0.407098
0.0238772
0.00710071
0.00175257
0
0
0
0.00184325
0.153327
0.45145
0.0727049
0.00516795
0
0
0
0
0.00116387
0.15641
0.612169
0.0762714
0.00489495
0
0
0
0
0.00849709
0.144499
0.298309
0.0528015
0.0161741
0.00689884
0
0
0.000390709
0.0362367
0.0365853
0.432147
0.179561
0.0308486
0.0041393
0
0
0
0.00327449
0.123424
0.458938
0.0897476
0.00771894
0
0
0
0.00273496
0.0763917
0.0538859
0.51308
0.264347
0.0898039
0
0
0.030705
0.00763609
0.0202368
0.0313653
0.0776846
0.0348618
0.0396273
0.0765832
0.156516
0.0320964
0.036652
0.0822019
0.106176
0.19767
0.117832
0.178753
0.0860573
0.08711
0.119284
0.00597665
0.0393246
0.0853019
0.0419516
0.0685042
0.218803
0.226099
0.254299
0.0938448
0.305857
0.379013
0.387635
0.133804
0.0818545
0.257293
0.234829
0.113757
0.00180798
0.0179561
0.033641
0.0582318
0.109649
0.116213
0.0862348
0.0349712
0.00282066
0
0.00238739
0.00659172
0.0566488
0.321675
0.339049
0.064872
0.0223793
0.000823902
0.0071455
0.15814
0.117219
0.101276
0.0532808
0.166614
0.24901
0.207779
0.00601922
0
0.021347
0.0103709
0.0245162
0.145203
0.498351
0.418034
0.211263
0.00576731
0
0
0.00102173
0.0294928
0.240559
0.340037
0.0626949
0.014381
0.000362828
0
0.00250291
0.114212
0.188296
0.24684
0.101437
0.0425408
0.0166783
0
0
0
0.000321271
0.0199385
0.105356
0.368051
0.400128
0.161964
0.00253979
0
0.000753591
0.0245848
0.165906
0.411672
0.144391
0.227099
0.170031
0
0.00633817
0.00891874
0.28221
0.315255
0.161972
0.0150602
0.0300804
0.00438172
0.018465
0.129357
0.0514387
0.165608
0.257289
0.0830235
0.0212135
0.0206778
0.0101618
0.285017
0.010266
0.00479715
0.0735394
0.2337
0.427169
0.140103
0.0486282
0.0387047
0.016487
0.203189
0.0408306
0.064554
0.214244
0.236809
0.152652
0.0200099
0.0144619
0.2533
0.224375
0.0410582
0.0110835
0.0352329
0.0216731
0.00772362
0.00188995
0.00808439
0.319388
0.377367
0.031454
0.0173466
0.000701809
0.00851419
0.033907
0.0296081
0.0360649
0.329404
0.332832
0.0639875
0.0159591
0.0396732
0.0486301
0.0492032
0.00396673
0.00810667
0.269443
0.428974
0.261102
0.145436
0.00674316
0.0103045
0.0543625
0.0232008
0.0161704
0.191761
0.133106
0.0211946
0.0233364
0.00204001
0.0180932
0.0905137
0.167231
0.118189
0.147097
0.00786534
0.0112144
0.02722
0.00958207
0.254982
0.192941
0.321927
0.136329
0.0503254
0.118057
0.192382
0.189235
0.0360295
0.0490843
0.165653
0.102356
0.047741
0.0405286
0.00867649
0.089488
0.155516
0.155761
0.552273
0.293037
0.138175
0.0368661
0.0032831
0
0.00441122
0.0362505
0.129091
0.196626
0.0512499
0.063356
0.018616
0.00340431
0
0.00407235
0.0510309
0.473375
0.222004
0.0113402
0.000634413
0.000341607
0
0
0.0910669
0.224405
0.166812
0.330664
0.0653119
0.0190969
0.00229544
0.000164574
0.00609989
0.105681
0.414806
0.439235
0.122405
0.00337648
0
0.00460808
0.00115202
0
0.00180004
0.0129889
0.216223
0.348596
0.0598526
0.000367383
0
0
0.000342747
0.00267801
0.00600814
0.0611779
0.463113
0.242684
0.0306702
0
0
0.00648411
0.0340307
0.167485
0.186034
0.260658
0.103668
0.00257168
0.001802
0.000450498
0.00332553
0.0146721
0.052072
0.0305848
0.361767
0.441633
0.0770555
0
0
0.00169405
0.0119653
0.0323865
0.110563
0.319341
0.229012
0.0565027
0
0
0.00101643
0.00873883
0.0692322
0.197109
0.310745
0.304097
0.205934
0
0
0.018201
0.0551186
0.0906982
0.0816477
0.159125
0.341708
0.134388
0.00598089
0.0214655
0.0349582
0.0384599
0.11329
0.311437
0.324925
0.15623
0.129028
0.0173534
0.0492673
0.031042
0.000967686
0.00800649
0.0655278
0.0425963
0.134718
0.217701
0.0575978
0.0354309
0.0137294
0.0785836
0.0798048
0.305888
0.171516
0.0945287
0.0849617
0.0407405
0.00736006
0.0115906
0.0161014
0.00320453
0.0749417
0.221595
0.418228
0.231128
0.0272374
0.0223404
0.019388
0.0186371
0.0105222
0.231409
0.273804
0.520428
0.17955
0.025681
0
0.00164972
0.0659699
0.0397223
0.128344
0.0739367
0.162255
0.145781
0.0782277
0.000868019
0.00286925
0.0091082
0.0030956
0.00956991
0.0506956
0.323277
0.364455
0.103526
0.00146487
0.00633265
0.00924131
0.00665333
0.100815
0.0947895
0.365951
0.249432
0.0224308
0
0.00478209
0.00083306
0.000814132
0.00907239
0.0219762
0.377199
0.50137
0.0889083
0
0.010157
0.000617077
0
0.0055721
0.022858
0.11266
0.350574
0.120646
0.000637833
0.00708151
0.00102846
9.07822e-005
0.0424173
0.0922445
0.0610044
0.294012
0.152877
0.0146998
0.0218649
0.00431954
0
0.000645928
0.00402022
0.176395
0.543727
0.120193
0.00099126
0.0200302
0.00719924
0
0.0045215
0.0107679
0.0749244
0.469317
0.313893
0.0688585
0.00816787
0.00460963
0.00416324
0.0502792
0.155302
0.123439
0.132845
0.0955816
0.0889448
0.186906
0.0524905
0.0263184
0.0348847
0.104
0.0915702
0.0288843
0.0229105
0.22017
0.00372701
0.00435878
0.00214072
0.00697965
0.0259106
0.0604777
0.200588
0.432291
0.318203
0.123828
0.0263411
0.014985
0.00667514
0.0222735
0.0477404
0.0728231
0.354318
0.504142
0.309159
0.061159
0.0118408
0.00608977
0.0199372
0.0223778
0.00220534
0.000945855
0.166364
0.36337
0.203564
0.0681089
0.00760613
0.0188962
0.00793403
0.00247667
0.000104961
0.126142
0.266454
0.0343466
0.00858982
0.000881754
0.00269215
0.011783
0.0183223
0.148751
0.39492
0.397093
0.240827
0.0870552
0.0115458
0.0111907
0
0
0.0317826
0.354407
0.143018
0.174307
0.0970839
0.0292397
0.0271714
0.0260041
0.0189843
0.00314075
0.03628
0.063953
0.196818
0.249683
0.143169
0.157449
0.0513023
0.0257842
0.00523458
0.0126981
0.25459
0.346136
0.0791764
0.0152595
0.0103593
0.00303967
0.00179471
0.0019971
0.0837258
0.2152
0.614976
0.293467
0.0407719
0.00981273
0.00682555
0.00299119
0.000747797
0.0331194
0.00457277
0.139589
0.34929
0.0639885
0.099199
0.0163803
0.00258282
0.00216624
0.000963511
0.00646723
0.141517
0.460087
0.0815974
0.02325
0.00633241
0.000530287
0.0109556
0.0037034
0.0385343
0.247718
0.435736
0.0558753
0.00925189
0.00368871
0.000343517
0.00102493
0.00492086
0.00762599
0.156415
0.499609
0.108798
0.00948616
0.0194648
0.00124593
0.0134536
0.00839484
0.0136898
0.0989314
0.397421
0.129978
0.138094
0.0860609
0.0216123
0.0114118
0.00757862
0.00451571
0.031215
0.14424
0.0805734
0.333119
0.367113
0.098107
0.00499321
0.00328479
0.0258688
0.220151
0.395747
0.103087
0.0322615
0.0631035
0.0376379
0.0284459
0.0425798
0.0205234
0.115342
0.146163
0.119647
0.247877
0.204055
0.127195
0.0386283
0.027985
0.0586372
0.0668876
0.0936174
0.0218972
0.104996
0.190939
0.0722927
0.00658211
0.0463755
0.159779
0.0796136
0.0670254
0.0635691
0.134876
0.0844998
0.040294
0.0777358
0.208155
0.129482
0.189679
0.13368
0.131814
0.207398
0.160159
0.0859974
0.0410932
0.0695774
0.320857
0.277698
0.0837395
0.122877
0.133594
0.0887202
0.0617806
0.286383
0.464171
0.0136515
0.0415494
0.0125163
0.0317806
0.18719
0.232827
0.0875604
0.117197
0.0728361
0.0533775
0.0349054
0.00443411
0.0287638
0.119185
0.370951
0.201143
0.195755
0.0434538
0.00543609
0.0550369
0.0907343
0.147767
0.089656
0.0888594
0.14453
0.22256
0.0866863
0.0320265
0.0392346
0.0622272
0.0416926
0.0662583
0.0878816
0.520354
0.408597
0.0849091
0.0212319
0.0110298
6.99787e-005
0.0101071
0.0258879
0.223106
0.314696
0.0660968
0.0129057
0.0153249
0.00801039
0
0.00151738
0.0176833
0.230976
0.498173
0.0504883
0.00844823
0.0148333
0.0100432
0.0260924
0.0272353
0.0534155
0.0724853
0.508655
0.172637
0.0419286
0.0401409
0.0316405
0.0107465
0.0205377
0.0435248
0.0960227
0.338044
0.205391
0.137908
0.0124656
0.00813788
0
0.00239245
0.0200429
0.179642
0.50167
0.114469
0.00695579
0.00622392
0.00368267
0
0.00143547
0.00864553
0.0777309
0.412255
0.376513
0.0493187
0.0425852
0.0390023
0.00602975
0.028115
0.0483403
0.102497
0.222983
0.154642
0.0886508
0.0214078
0.0163668
0.0219735
0.042409
0.0391804
0.151079
0.357179
0.262721
0.0422198
0.00326014
0.000518289
0
0
0.00407088
0.0352399
0.182303
0.343585
0.126804
0.037928
0
0
0
0.00131
0.020977
0.0788154
0.362232
0.282784
0.0371352
0.00284283
0.0082222
0.0122531
0.0195419
0.0841531
0.255976
0.256414
0.187911
0.096456
0.00068935
0
0.0120232
0.0133679
0.0151331
0.0849308
0.315123
0.503222
0.0904265
0.0203138
0.00325068
0
0
0.00405889
0.0184757
0.251838
0.334338
0.17076
0.287725
0.0907215
0.00325994
0
0.0109494
0.00499806
0.0982809
0.244537
0.148051
0.0141514
0.000464382
0.00540824
0.00347152
0.000203595
0.0311941
0.232635
0.41381
0.381084
0.128575
0.0279064
0
0
0.0182489
0.011944
0.098896
0.357191
0.114936
0.358367
0.0800807
0.00305261
0.000983582
0.0191052
0.00354892
0.00700326
0.0407539
0.14864
0.508749
0.109163
0.00327822
0.0016393
0.0162185
0.00129527
0.00333385
0.0466879
0.275406
0.236646
0.0420166
0.00893578
0.000590149
0.0223996
0.00591486
0.00867747
0.142333
0.182987
0.50917
0.0834481
0.0184245
0.000983582
0.0154009
0.0105704
0.0310296
0.158271
0.121744
0.346168
0.345933
0.0930372
0.0175759
0.0127317
0.0104265
0.021658
0.0556298
0.0373229
0.132272
0.392501
0.209674
0.0500583
0.067803
0.0224154
0.10876
0.0821428
0.157698
0.32881
0.124914
0.0438529
0.0466038
0.0407222
0.0859336
0.109918
0.181995
0.102326
0.0751591
0.0738604
0.0678599
0.125823
0.15876
0.129629
0.226834
0.193756
0.0588846
0.142373
0.172368
0.066552
0.0202293
0.0408395
0.0318134
0.114638
0.144873
0.0567043
0.076938
0.0704914
0.0596283
0.167175
0.173682
0.19232
0.0862636
0.0955215
0.0801703
0.041636
0.0235145
0.0283819
0.0554575
0.08974
0.126563
0.245806
0.297737
0.0482282
0.0168078
0.0124009
0.0215505
0.0713204
0.244778
0.564907
0.209871
0.164253
0.0472022
0.0564709
0.0307812
0.102096
0.160676
0.145259
0.111827
0.0862079
0.062227
0.189882
0.242621
0.0557945
0.109523
0.119001
0.0865446
0.0687879
0.179346
0.222617
0.0345674
0.0221541
0.000735676
0.0264676
0.0667677
0.14862
0.350401
0.168463
0.107653
0.31512
0.430214
0.0534654
0.0273398
0.0358708
0.0396615
0.145146
0.177236
0.249973
0.0567672
0.0305027
0.0681825
0.108705
0.0226223
0.0702122
0.152423
0.143578
0.148054
0.156385
0.0940048
0.131509
0.0632663
0.121998
0.0380577
0.333246
0.178076
0.0795316
0.272469
0.0297855
0.0245052
0.0114707
0
0.0398584
0.173801
0.15799
0.309839
0.558041
0.18786
0.11405
0.0360339
0.0718777
0.0150688
0.0606551
0.0847262
0.165114
0.0648184
0.0683329
0.124616
0.121981
0.205592
0.0287576
0.323066
0.15232
0.0369263
0.025825
0.0217394
0.0426359
0.0808463
0.0688709
0.0128812
0.220018
0.461959
0.154616
0.33946
0.18044
0.165568
0.140498
0.123355
0.00260456
0.0466014
0.0448124
0.0479001
0.038071
0.0469838
0.0772174
0.119776
0.0369335
0.00241729
0.151389
0.393996
0.0579458
0.0876791
0.0570463
0.0261208
0.0322136
0.0222077
0.0246201
0.119847
0.380374
0.145793
0.153615
0.110974
0.128321
0.061204
0.0481033
0.107837
0.123938
0.133282
0.084323
0.110239
0.0463934
0.0314021
0.0157738
0.000745428
0.0010898
0.138839
0.528782
0.168981
0.311375
0.191156
0.143951
0.00784706
0.00584223
0.0478404
0.0535053
0.210951
0.254791
0.121925
0.0391375
0.0538525
0.0233417
0.0431941
0.0957213
0.133645
0.116256
0.180181
0.188072
0.0618305
0.0250301
0.0501735
0.0557028
0.0420805
0.137552
0.25765
0.322636
0.161552
0.0816915
0.084178
0.00661116
0.0336733
0.225505
0.201142
0.10225
0.126136
0.239069
0.113129
0.187
0.0522415
0.0612849
0.232339
0.458883
0.19114
0.0766863
0.208384
0.0345819
0.00935584
0.0256847
0.0115499
0.0102349
0.103368
0.151368
0.221333
0.380124
0.0360977
0.0315958
0.074178
0.00953784
0.0134015
0.0388412
0.0429813
0.311363
0.229415
0.0660836
0.099033
0.149302
0.0365336
0.0735399
0.288349
0.111244
0.0917477
0.268262
0.209742
0.158808
0.375438
0.0593354
0.0736642
0.13323
0.0362633
0.150006
0.284428
0.111569
0.063226
0.124363
0.0403506
0.0102768
0.00218884
0.00306076
0.167293
0.150162
0.334589
0.118713
0.133195
0.0386473
0.0570703
0.0194133
0.0505726
0.190876
0.230807
0.215816
0.192883
0.237133
0.114048
0.0450568
0.0126655
0.000333814
0.117247
0.185873
0.346917
0.170967
0.204995
0.278507
0.128871
0.0227502
0.024239
0.12073
0.110256
0.231152
0.127906
0.0530495
0.0570582
0.109734
0.104168
0.134787
0.201232
0.0495705
0.0427807
0.0935088
0.029889
0.170151
0.210917
0.142189
0.137242
0.0871515
0.207434
0.329831
0.132427
0.183626
0.277746
0.109015
0.0755656
0.108402
0.190315
0.0407545
0.101033
0.167209
0.224444
0.260573
0.165597
0.100882
0.119197
0.0967108
0.0513975
0.0531389
0.0695804
0.0419536
0.111107
0.153302
0.179324
0.128706
0.121713
0.0640825
0.042579
0.0261333
0.0448442
0.0695423
0.189329
0.483978
0.267553
0.0840865
0.0578719
0.172034
0.177729
0.140487
0.169701
0.203561
0.0601104
0.0265947
0.0192453
0.114428
0.210779
0.094214
0.0836723
0.108868
0.180554
0.117515
0.158354
0.127401
0.0284665
0.0209858
0.000210926
0.0245029
0.0281983
0.0798726
0.218841
0.183843
0.0740643
0.230544
0.282817
0.00841327
0.035145
0.0250382
0.0392512
0.117257
0.155209
0.327817
0.0328057
0.0337764
0.00882814
0.0387427
0.0308283
0.150197
0.220541
0.131732
0.0705857
0.273064
0.117358
0.000227583
0.0554359
0.0369573
0.162174
0.38052
0.198716
0.341688