0.135523
0.192845
0.179952
0.0563853
0.0114938
0.00963156
0.0110523
0.0122714
0.0562533
0.120669
0.206798
0.167835
0.0897455
0.0429941
0.0445555
0.0843962
0.0606577
0.0912561
0.0229934
0.0513351
0.297106
0.233258
0.223008
0.0520016
0.0218677
0.0722437
0.131587
0.0583559
0.199773
0.264626
0.167417
0.0753831
0.0444898
0.133613
0.33512
0.221193
0.0233981
0.035739
0.113958
0.0936477
0.0386887
0.0369896
0.0213264
0.0231009
0.0254989
0.00857438
0.0088862
0.122127
0.358243
0.139548
0.065271
0.00860707
0.00514713
0.0194944
0.0311778
0.0933924
0.192225
0.167807
0.038119
0.0121991
0.0460545
0.0678803
0.0358477
0.0185598
0.0293045
0.278339
0.696196
0.0776279
0.0199684
0.0143251
0.008076
0.0376502
0.0567756
0.01175
0.0739609
0.397384
0.157771
0.0289428
0.00731193
0.0196662
0.0391566
0.203374
0.0428723
0.0475848
0.17367
0.0600912
0.0460731
0.0318805
0.0346653
0.105486
0.0563392
0.0259495
0.137958
0.563509
0.049992
0.0117146
0.00892659
0.0917557
0.0734137
0.174785
0.0325523
0.0473728
0.200208
0.0208776
0.0207111
0.0461306
0.184681
0.236487
0.228102
0.0751385
0.040649
0.0540512
0.05411
0.11993
0.0620986
0.0206978
0.0729725
0.299887
0.148127
0.172542
0.0383164
0.0434678
0.161528
0.104619
0.021979
0.154036
0.272881
0.0467131
0.0624107
0.0861003
0.0320106
0.0454357
0.102782
0.085721
0.220792
0.39419
0.131432
0.246435
0.0359656
0.0197743
0.0774925
0.139534
0.0606511
0.171491
0.264016
0.200004
0.12938
0.0791068
0.0386245
0.0682348
0.081443
0.0324042
0.148878
0.0975581
0.117385
0.0862711
0.160642
0.162289
0.245868
0.075085
0.0664361
0.0584629
0.237362
0.162371
0.16513
0.0599604
0.00427628
0.0375104
0.10108
0.0578518
0.181441
0.137213
0.31378
0.228098
0.148089
0.0243436
0.0872103
0.0875082
0.0850101
0.149841
0.0371483
0.0906821
0.0529916
0.0511889
0.0768651
0.145963
0.059374
0.0704135
0.0253029
0.0737837
0.244222
0.113373
0.212119
0.172199
0.168981
0.110397
0.116371
0.0243376
0.10292
0.25214
0.173845
0.0390502
0.0188266
0.0423782
0.0357584
0.121667
0.167317
0.169913
0.248388
0.214518
0.0474217
0.168057
0.19432
0.174319
0.270049
0.143916
0.0105324
0.126768
0.0751482
0.186413
0.153423
0.10281
0.0548442
0.0557226
0.0103834
0.00084023
0.0690628
0.0858351
0.251345
0.397958
0.176124
0.0173243
0.0235033
0.00539889
0.0342622
0.0741937
0.0688522
0.149593
0.222498
0.138174
0.108276
0.156209
0.0310321
0.000345469
0.0396245
0.0694937
0.384317
0.368232
0.135635
0.0378951
0.07537
0.0151027
0.0648672
0.0810522
0.12166
0.107022
0.274926
0.204919
0.0263299
0.00732048
0.00738914
0.240524
0.157262
0.0750976
0.0204111
0.0243835
0.0568091
0.036179
0.0730663
0.195942
0.0820961
0.144422
0.13582
0.212892
0.211895
0.154551
0.0501758
0.00258323
0.0130906
0.284212
0.355312
0.151711
0.0563906
0.0389808
0.121053
0.090038
0.0434543
0.101386
0.144373
0.047351
0.010128
0.00275486
0
0.0414488
0.0843735
0.116073
0.282315
0.0969344
0.0385415
0.0303762
0
0
0.0361665
0.108606
0.172002
0.477253
0.0943311
0.122281
0.0662413
0.0530753
0.00892503
0.231381
0.194907
0.0693031
0.0895836
0.0287308
0.029101
0.0295151
0.0310006
0.0272858
0.313222
0.249888
0.0769928
0.0621959
0.0195922
0.0182692
0.0683264
0.116296
0.205366
0.104201
0.0717602
0.127968
0.115287
0.0997849
0.114812
0.0587961
0.0688847
0.0599172
0.0654927
0.072967
0.253514
0.228753
0.067405
0.142198
0.0779596
0.0702074
0.081338
0.070055
0.0985777
0.169229
0.283845
0.213868
0.206641
0.0982454
0.065225
0.0645994
0.0564851
0.0645666
0.24515
0.420889
0.0703412
0.147664
0.165167
0.0964225
0.0170646
0.0122749
0.0387415
0.053277
0.061298
0.0396237
0.122108
0.435522
0.441687
0.0172032
0.0016734
0.0164306
0.00558916
0.042388
0.110575
0.279617
0.157195
0.0370271
0.0265948
0.0256125
0.0671251
0.0623985
0.0957746
0.0424645
0.229442
0.338911
0.178229
0.0395644
0.0370654
0.0847566
0.0185177
0.0483224
0.0446438
0.0360996
0.180682
0.248616
0.00490898
0.0105683
0.0227414
0.0599926
0.0843677
0.0642088
0.0366901
0.0494355
0.0506932
0.00514178
0.0398115
0.112548
0.16419
0.127636
0.064691
0.12618
0.163178
0.128027
0.0349119
0.0397507
0.0514706
0.0384442
0.0722785
0.0885611
0.476209
0.512108
0.147779
0.030546
0.0634676
0.130843
0.119386
0.0415642
0.0730799
0.0466995
0.0239719
0.012758
0.00179629
0.0162685
0.0620782
0.0472137
0.035102
0.227937
0.104585
0.0208915
0.0030967
0.000891127
0.02352
0.0582414
0.0559185
0.0991918
0.115713
0.317656
0.301496
0.0802644
0.00217753
0.00824756
0.0380181
0.0393865
0.0143441
0.487887
0.531322
0.112497
0.0196763
0
0.00335999
0.022704
0.100698
0.168937
0.153505
0.0446097
0.0114688
0.00841318
0.000364925
0.00494092
0.0153137
0.0171794
0.107331
0.187073
0.0976954
0.0436382
0.0200207
0.000608209
0.00274324
0.00733579
0.0180802
0.180232
0.442608
0.146267
0.00516253
0.001144
5.21322e-005
0.000582152
0.00490867
0.0303299
0.209435
0.543795
0.0637626
0.0180749
0.00272524
8.6887e-005
0
0.00653911
0.0868872
0.481775
0.0948287
0.0779641
0.026872
0.0055473
9.76093e-005
0.000910826
0.00878694
0.0595564
0.227014
0.117839
0.0860656
0.0317741
0.00487322
0.00961567
0.014956
0.0200434
0.0779198
0.191537
0.224551
0.035391
0.0106288
0.000733638
1.39442e-005
0
0.0249423
0.244084
0.48762
0.165426
0.0394009
0.00340475
0.000696174
0
0.00308265
0.0814714
0.300277
0.544163
0.0927749
0.0763431
0.0371151
0.0608858
0.0652699
0.0459647
0.0684698
0.0916933
0.0671461
0.0179426
0.0190987
0.0289059
0.167481
0.117666
0.0337793
0.0870548
0.0745343
0.0205432
0.127348
0.0387771
0.00477075
0.0216896
0.0079895
0.0277413
0.35516
0.350735
0.312849
0.0299196
0.0100633
0.0112477
0.0631707
0.0468085
0.129013
0.53291
0.285064
0.0437586
0.0578489
0.108886
0.0862626
0.167766
0.0938371
0.0215532
0.0389935
0.0237711
0.0499445
0.168258
0.27286
0.11995
0.0697122
0.0274764
0.0329131
0.0229726
0.0293473
0.128823
0.0533262
0.143297
0.113103
0.132545
0.084645
0.188036
0.281606
0.091585
0.0462855
0.112232
0.418682
0.238123
0.086666
0.0370727
0.0384403
0.0378906
0.135458
0.244921
0.0722914
0.114819
0.0769083
0.0629948
0.0166739
0.117054
0.086794
0.0595258
0.0876765
0.00664088
0.00859533
0.0197381
0.078098
0.105111
0.278039
0.134303
0.0673371
0.0439974
0.0803728
0.152169
0.099804
0.032231
0.0168834
0.0558777
0.127443
0.266183
0.273356
0.0274381
0.00732643
0.0254438
0.0937321
0.109629
0.221259
0.214965
0.334593
0.308163
0.0393842
0.156916
0.166792
0.152834
0.0899233
0.0219794
0.017255
0.0678846
0.114953
0.159654
0.212541
0.197204
0.12745
0.0820879
0.0269641
0.080256
0.145937
0.106065
0.0331386
0.0806259
0.127905
0.213702
0.332321
0.118213
0.0603339
0.0901738
0.0588805
0.186343
0.289104
0.28706
0.163537
0.0842351
0.0306894
0.0995773
0.193699
0.077607
0.0601393
0.102431
0.0715261
0.0593943
0.0738171
0.0363842
0.0847047
0.0567927
0.0152771
0.0261466
0.112448
0.111478
0.131753
0.119682
0.059312
0.0786698
0.0183347
0.00545849
0.0690628
0.100272
0.187498
0.167769
0.0851007
0.0188067
0.0440045
0.0685558
0.00716724
0.130851
0.437257
0.566352
0.293079
0.128129
0.0267163
0.018186
0.0218908
0
0.0147376
0.129054
0.0937582
0.0439045
0.0184444
0.0073996
0.00754696
0.00249814
0.00246312
0.037905
0.389059
0.214233
0.0631246
0.00727608
0.00839
0.00786007
0.0088297
0.00122752
0.0420266
0.313228
0.311881
0.0869693
0.0125602
0.00200012
0.0033826
0
0
0.0582303
0.552091
0.404167
0.119503
0.018389
0.024863
0.0188975
0
0
0.0477327
0.239177
0.157138
0.0465302
0.00289576
0.00370589
0.00310563
0.00944613
0.018885
0.220113
0.178002
0.062324
0.0111584
0.000348649
0.000426127
0.00590915
0.0602296
0.0998725
0.074082
0.478883
0.247561
0.0465808
0.0170838
0.0220701
0.00777503
0.00446137
0.0153366
0.479101
0.422339
0.157648
0.00576264
0.00511099
0.0100595
0.0163483
0.0389594
0.0777985
0.262966
0.0481535
0.00285594
0
0
0
0.00396943
0.0304261
0.107091
0.283708
0.0118663
0.00754408
0
0
0
0.00307976
0.0353427
0.296825
0.469543
0.126993
0.0473104
0.000675098
0.00603113
0.00793237
0.0128665
0.0263135
0.110841
0.373324
0.0518805
0.0304756
0.0159568
0.00361868
0.00546109
0.026641
0.0830189
0.526406
0.116817
0.00639478
0.00927355
0
0
0
0.0289114
0.119233
0.278743
0.0463972
0.00324805
0.00132479
0
0.00942092
0.0269117
0.114915
0.223434
0.233909
0.107036
0.0117145
0.0281699
0.0159428
0
0.013284
0.140059
0.229009
0.47255
0.0780481
0.0161011
0.012608
0.00197226
0.0157015
0.075167
0.325454
0.483439
0.189712
0.0204416
0.00518697
0
0
0.0183755
0.0659549
0.235527
0.166026
0.0826884
0.00731575
0.00743306
0.000868941
0.00366869
0.0200252
0.165941
0.396227
0.103486
0.00575126
0.087213
0.0471376
0
0.00114333
0.0311159
0.160141
0.285842
0.274692
0.0348101
0.0483413
0.0661822
0
0.00829686
0.0227598
0.255034
0.585968
0.110495
0.00830567
0.00838347
0.0144605
0.030043
0.0191473
0.0367561
0.168017
0.221415
0.0238876
0.00318327
0.0717723
0.0637573
0.0881921
0.0202141
0.0308835
0.0446813
0.054727
0.0420278
0.0398905
0.0297735
0.0134275
0.00377846
0.0062615
0.0248449
0.250736
0.732876
0.0626163
0.00855024
0.108071
0.0304348
0.0447983
0.0543655
0.0237911
0.114343
0.364159
0.0471059
0.0238852
0.154304
0.161178
0.14324
0.0370099
0.0111314
0.0295113
0.101796
0.15508
0.114376
0.0668899
0.110105
0.0829788
0.0636324
0.0183081
0.0611774
0.144146
0.28321
0.237448
0.190453
0.260325
0.193075
0.173426
0.0208734
0.0261178
0.114336
0.0715423
0.0803833
0.110742
0.274751
0.17441
0.130426
0.10448
0.0122517
0.0584584
0.13594
0.205046
0.0713071
0.082177
0.0359371
0.0557991
0.212741
0.144616
0.0832051
0.109109
0.111873
0.252437
0.278496
0.139666
0.0822076
0.0871004
0.0325834
0.0688502
0.107505
0.136186
0.0808135
0.213886
0.144673
0.0375304
0.117605
0.121395
0.0569724
0.0987956
0.123229
0.149768
0.195933
0.102272
0.26931
0.315329
0.0853716
0.0825235
0.0729265
0.0578173
0.0324298
0.0426864
0.0622417
0.134826
0.0535646
0.00195034
0.00823196
0.00911308
0.00465277
0.0289287
0.140571
0.275245
0.329089
0.102322
0.00196968
0.00221348
0.00371784
0
0.0169101
0.0223706
0.0274144
0.287681
0.180693
0.0114328
0.0122536
0.00334429
0.00137827
0.00168421
0.0301666
0.129136
0.643672
0.331279
0.0376785
0.00442103
0
0
0.0248844
0.115277
0.175339
0.111736
0.0229917
0.00223222
0.00259647
0
0
0.0316837
0.171946
0.415118
0.11256
0.0178068
0.00969868
0.0141542
0
0
0.00738806
0.0208477
0.21241
0.259668
0.0805104
0.0208082
0.00467926
0
0
0.0149139
0.070638
0.627864
0.374249
0.0670685
0.0192368
0.00460703
0
0
0.0491412
0.309193
0.378125
0.0472223
0.0427564
0.0122661
0.0147046
0.00828553
0.00778253
0.178782
0.312788
0.15026
0.0160329
0.0589404
0.067508
0.0782759
0.0579987
0.0204475
0.0250944
0.163957
0.427335
0.203904
0.187189
0.0516455
0.0384585
0.0370662
0.00639479
0.030439
0.164897
0.0969094
0.135745
0.264335
0.237928
0.13146
0.112326
0.0544921
0.252547
0.148242
0.0776701
0.0282606
0.0722021
0.089688
0.0760416
0.0524641
0.0879115
0.209421
0.0601992
0.0777843
0.137679
0.0588862
0.0425675
0.104984
0.117601
0.354896
0.136442
0.178093
0.0224465
0.150599
0.195695
0.239458
0.112043
0.0686849
0.130839
0.242949
0.162834
0.0639194
0.233134
0.135178
0.192756
0.315797
0.0867913
0.206776
0.081045
0.024362
0.0780815
0.131787
0.0453327
0.0352815
0.146241
0.134794
0.186879
0.133183
0.03213
0.0397114
0.0502992
0.0546055
0.100412
0.340871
0.389233
0.0704332
0.116181
0.0780729
0.0865715
0.240736
0.173175
0.10701
0.125822
0.0648769
0.0981618
0.146071
0.0513549
0.0638228
0.34994
0.336697
0.137356
0.144957
0.178732
0.0472521
0.0537248
0.019046
0
0.00595994
0.0178258
0.0762811
0.270876
0.214842
0.00907462
0.0217544
0.0250024
0.00360665
0.0170816
0.0094209
0.0990002
0.369528
0.124291
0.00953529
0.0418434
0.00242789
0.0101202
0.105009
0.124101
0.157351
0.334452
0.169203
0.00530919
0.00610393
0.00166058
0.0260152
0.0246702
0.120204
0.457707
0.449
0.136807
0.0115986
0.00767303
0.00465923
0.00501824
0.00932925
0.00405208
0.131604
0.424875
0.0766552
0.011867
0.0164021
0.007689
0.0121573
0.030222
0.00486173
0.127992
0.344447
0.0590447
0.0135813
0.000255839
0.00121391
0.0432386
0.0136267
0.104466
0.338147
0.317332
0.0957918
0.0285976
0.00213688
0.00673799
0.056417
0.0137699
0.0202894
0.268646
0.475033
0.169324
0.0225261
0.0873058
0.0763735
0.0573473
0.0751285
0.0131588
0.0655854
0.110198
0.0623739
0.0264709
0.158959
0.10213
0.0900859
0.0719334
0.0607682
0.0382763
0.0204358
0.0760256
0.0684712
0.180677
0.115818
0.234405
0.0533095
0.00558553
0.212242
0.28839
0.265328
0.0445885
0.361332
0.17116
0.189019
0.0706726
0.044282
0.147296
0.187196
0.375259
0.146755
0.026192
0.08938
0.127887
0.0719108
0.0883482
0.114703
0.0648376
0.0629881
0.1592
0.0486824
0.0408145
0.0940869
0.350173
0.245979
0.127199
0.0800853
0.0564102
0.017195
0.0271484
0.05722
0.133953
0.166107
0.0659507
0.130136
0.0876423
0.0652844
0.135793
0.0719913
0.0937614
0.0729248
0.332419
0.321025
0.142117
0.0403917
0.0536268
0.131628
0.00380507
0.00207868
0.012971
0.157457
0.153869
0.053076
0.00404342
0.00340768
6.65398e-005
0
0.013489
0.0282664
0.243491
0.361638
0.160815
0.00118131
0
0
0.00517129
0.00302232
0.00313014
0.0697523
0.228591
0.121521
0.000939751
0.00205517
0.0117335
0.000194566
0.00192701
0.00314461
0.0606546
0.67132
0.339399
0
0
0.000778267
0
0.00767171
0.0825241
0.20236
0.185483
0.0509922
0.00155379
0
0
0.00341496
0.0361426
0.222005
0.383101
0.170402
0.0372982
0.000932272
0
0
0
0.00109596
0.00777287
0.108169
0.45703
0.230482
0.00734804
0
0
0.00204898
0.0117323
0.0336881
0.253444
0.435801
0.311971
0.0264061
0.0111801
0
0.00777521
0.0723071
0.164681
0.21571
0.191742
0.158887
0.0541444
0.0672301
0.00656555
0.0117334
0.0620046
0.0499729
0.130312
0.203608
0.219326
0.137878
0.170878
0.100624
0.008256
0.0228323
0.101512
0.336358
0.248719
0.249234
0.0495455
0.053407
0.00393933
0.0671305
0.019959
0.266638
0.399522
0.116517
0.156974
0.124713
0.197127
0.0852613
0.0984642
0.14074
0.0151382
0.118619
0.0983711
0.093071
0.0838106
0.0952256
0.161939
0.231813
0.185283
0.0423619
0.118502
0.101261
0.131017
0.20708
0.0757807
0.217176
0.142962
0.0824437
0.168223
0.166404
0.0404657
0.0310961
0.122706
0.277645
0.188978
0.218804
0.214472
0.202144
0.261333
0.121416
0.0747892
0.139802
0.216964
0.265392
0.127999
0.0988806
0.0394571
0.126545
0.08015
0.0763038
0.0967222
0.0524596
0.109991
0.0543685
0.0385235
0.0718535
0.460699
0.154908
0.0677841
0.0604219
0.059271
0.0597659
0.123897
0.120087
0.0740428
0.192156
0.0648372
0.187776
0.161518
0.0424242
0.0980611
0.0521856
0.0340739
0.0560241
0.338426
0.0661129
0.390307
0.37634
0.0440645
0.0420388
0.00448033
0.00152046
0.0302325
0.142909
0.110161
0.128756
0.0797929
0.030013
0.00448481
0.000554094
0.000912277
0.0126432
0.0250905
0.354727
0.394499
0.103418
0.0230578
0.00232972
0.000786639
0.0111677
0.0458635
0.168682
0.148818
0.131484
0.101823
0.017846
0.00244806
0
0.00638594
0.0265579
0.263191
0.638216
0.167339
0.0140685
0.0028133
0
0
0.00247335
0.0379683
0.0121708
0.310889
0.292608
0.0952126
0.0288779
0.00843758
0
0.00471255
0.0722019
0.0230289
0.0700637
0.136782
0.238196
0.183912
0.0247764
0
0.00792203
0.0732381
0.19343
0.616194
0.150044
0.020485
0.00480762
0
0
0.0356935
0.252332
0.211166
0.120359
0.0738827
0.0655785
0.114531
0.0747987
0.0550807
0.0204988
0.0931273
0.0244728
0.0347857
0.0432419
0.121245
0.232379
0.0787705
0.100886
0.0308508
0.0528826
0.0147297
0.0108404
0.0281969
0.111565
0.250901
0.212349
0.0128306
0.0791576
0.165453
0.122316
0.0599734
0.00757949
0.0510911
0.277923
0.265078
0.0551172
0.0463796
0.02821
0.0190648
0.0282481
0.00314413
0.0281617
0.356605
0.575821
0.0759641
0.0508116
0.087409
0.0818679
0.0230788
0.0288023
0.0499989
0.0674254
0.0481465
0.193077
0.0941236
0.0768502
0.0858449
0.116238
0.0163554
0.00490227
0.0295185
0.22891
0.182288
0.0569923
0.120665
0.215555
0.272557
0.0322922
0.0587996
0.095828
0.0372026
0.474864
0.260154
0.239218
0.0981013
0.112028
0.000842374
0.0267825
0.0617329
0.216305
0.025227
0.017405
0.0194997
0.0477019
0.210254
0.0527662
0.00260625
0.00141278
0.0541
0.00137717
0.00715793
0.00921652
0.0580085
0.619036
0.258641
0.0152684
0
0.00482412
0.06158
0.105409
0.0818181
0.0512103
0.109671
0.0451961
0.0379987
0.0392875
0.0688584
0.00537411
0.0411635
0.0271352
0.160877
0.363411
0.386697
0.143744
0.0619302
0.0314137
0
0
0
0.0109194
0.216263
0.255628
0.0480411
0
0
0
0.00015967
0.00143703
0.0468263
0.170761
0.454153
0.150005
0.0150985
0
0
0
0
0.030135
0.0908551
0.286653
0.130003
0.0093453
0.00146832
0.00501888
0
0
0.0242298
0.0834555
0.482127
0.460621
0.0810824
0.00932076
0.00824017
0.00312767
0.0951746
0.21613
0.153039
0.170225
0.104758
0.028752
0
0.141338
0.0384344
0.253016
0.303313
0.101416
0.0325359
0.024617
0.075692
0.0229673
0.0250684
0.00159517
0.0593281
0.133691
0.25753
0.238733
0.412649
0.133636
0.0490016
0.120545
0.0493436
0.142976
0.140732
0.359574
0.182565
0.139307
0.129873
0.12826
0.253712
0.0872499
0.155177
0.0995911
0.0153639
0.0200659
0.0362957
0.125186
0.104383
0.221476
0.0866029
0.117462
0.118547
0.0217075
0.014355
0.0704927
0.180725
0.337644
0.300937
0.109651
0.0724903
0.0221588
0.143395
0.129864
0.0507194
0.0712516
0.167266
0.397568
0.0919917
0.132526
0.0606158
0.0374072
0.0272385
0.0648082
0.134611
0.384552
0.0910586
0.0489714
0.0812567
0.0929334
0.0254494
0.0840002
0.116422
0.0723846
0.179163
0.0479392
0.0422296
0.0383616
0.0549263
0.1637
0.334257
0.323499
0.0276284
0.0332551
0.150025
0.072507
0.27391
0.0928195
0.0507735
0.0159994
0.102349
0.0840047
0.186194
0.0737926
0.133098
0.373071
0.200359
0.404608
0.137544
0.156032
0.0217537
0.0314115
0.00643568
0.0283843
0.0823077
0.105493
0.131671
0.105366
0.0861074
0.00612814
0
0.00256915
0.0208802
0.141515
0.383421
0.341895
0.0205965
0.00646486
0.000859449
0
0.0111138
0.130093
0.377916
0.101798
0.194511
0.0519815
0.0248468
0.000186664
0
0.00428192
0.100926
0.482239
0.354498
0.133856
0.0270955
0.00711065
0
0
0
0.0228223
0.13306
0.324053
0.330689
0.0239092
0.00133742
0
0
0
0.0553037
0.265857
0.309477
0.0623478
0.0969025
0.0213794
0.0228894
0.027526
0
0.0685013
0.256943
0.422022
0.176198
0.0440111
0.00221113
0
0
0
0.0564154
0.180503
0.338044
0.139689
0.194065
0.0509881
0.0112038
0.00197715
0.0238004
0.165951
0.279641
0.31685
0.0338912
0.0939713
0.0495385
0.166611
0.194041
0.0919863
0.103188
0.0615251
0.0780809
0.10519
0.0214094
0.0197117
0.289126
0.411816
0.0396673
0.0604291
0.111151
0.230225
0.121713
0.245636
0.184166
0.0781817
0.0218962
0.130277
0.0786486
0.11115
0.0592157
0.100631
0.0815166
0.0959106
0.0815484
0.0546271
0.14499
0.0103877
0.0258729
0.0734598
0.237777
0.0483379
0.0722888
0.0861609
0.105723
0.408756
0.205646
0.130374
0.0331378
0.0723878
0.0037848
0.0389454
0.0629238
0.125291
0.137987
0.0136994
0.0776482
0.0498655
0.108797
0.0885853
0.164509
0.112655
0.289823
0.36903
0.190642
0.15573
0.085375
0.0487239
0.0517737
0.0795965
0.0726761
0.230779
0.0666656
0.122062
0.074279
0.0184211
0.0173868
0.0509866
0.0715474
0.0384033
0.0269483
0.00547975
0.0416431
0.0306388
0.075351
0.0899674
0.290429
0.414502
0.0764703
0.0253144
0.05955
0.0748197
0.0518209
0.0219565
0.0185647
0.104945
0.0915475
0.0244152
0.0276568
0.00308093
0.0159418
0.0236041
0.0215423
0.0205149
0.239418
0.690767
0.0978766
0.00564948
0
0
0
0.0290759
0.0344516
0.169549
0.241419
0.0585073
0.0024205
0.00704998
0
0
0.00760709
0.03531
0.191334
0.47027
0.226685
0.0175956
0
0
0
0.00399148
0.00341817
0.0634052
0.45681
0.139073
0.00280036
0.00100714
0
0
0.000454714
0.00192584
0.0339474
0.460107
0.278311
0.0333901
0.0173903
0
0.00301572
0.0154366
0.0643096
0.0924093
0.368637
0.210197
0.0517564
0.0257383
0.00619374
0.00931517
0.0140871
0.129156
0.111993
0.223902
0.216052
0.204787
0.00705113
0
0
0.0119508
0.00234253
0.0299996
0.329739
0.259729
0.0405367
0.0506471
0.000218862
0
0.0199179
0.00938006
0.0336562
0.247113
0.447898
0.349234
0.0885058
0.0228712
0.00450379
0.000924769
0.0577292
0.037598
0.0310144
0.0978317
0.162204
0.254339
0.056173
0.0260838
0.0230079
0.0215492
0.00649789
0.0293137
0.0535943
0.136368
0.13244
0.00454378
0
0.00244313
0.00574695
0.00366971
0.0240241
0.197959
0.469516
0.58917
0.0624084
0.00131894
0.00261701
0.0029006
0
0.00356035
0.0438967
0.4044
0.205113
0.0958849
0.121112
0.0387626
0.0230658
0.00105695
0.0347152
0.0214263
0.0564083
0.114371
0.193002
0.390114
0.0964892
0.0876955
0.007927
0.0285324
0.00685711
0.0148224
0.519452
0.225742
0.0563126
0.00849776
0.00394752
0
0.00341197
0.0115908
0.0990347
0.201592
0.416752
0.295145
0.0503846
0.0118971
0.00483498
0.00283439
0.0269561
0.0267396
0.0335578
0.182977
0.525089
0.0622545
0.0719676
0.0198175
0.0165989
0.00140196
0.00484505
0.0377295
0.125853
0.43108
0.16745
0.0600398
0.0431438
0.02174
0.000194957
0.00770811
0.0734753
0.233266
0.326988
0.0487063
0.00561519
0.0199469
0.0109155
0.0179699
0.0225792
0.11897
0.311793
0.266838
0.0753368
0.0287954
0.0183061
0.0134194
0.00219587
0.0307319
0.00959708
0.0714839
0.224166
0.378857
0.101691
0.0381466
0.00492876
0
0.00150147
0.00884748
0.0668819
0.173359
0.367209
0.085151
0.0591604
0.0276834
0.00191565
0.00968715
0.0564832
0.290858
0.280894
0.310551
0.0465356
0.00542275
0.00224828
0
0.00596602
0.063221
0.263677
0.201882
0.345272
0.0146278
0.0016519
0.00552708
0
0.0155818
0.0200481
0.10464
0.102191
0.11024
0.0776213
0.107155
0.117901
0.0138305
0.0181987
0.0762276
0.215511
0.140478
0.00958881
0.0584442
0.120307
0.0691486
0.0133341
0.018359
0.117759
0.465767
0.145955
0.0898761
0.0120448
0.0267058
0.0270363
0
0.0272583
0.15124
0.542192
0.259475
0.0471999
0.0252041
0.107609
0.0650081
0.00286803
0.0270677
0.0652113
0.0141057
0.160709
0.0785368
0.0464671
0.107581
0.182748
0.17484
0.141991
0.110243
0.1045
0.194482
0.191141
0.086844
0.141125
0.0682199
0.0554745
0.130208
0.179401
0.0465576
0.164377
0.111099
0.0188783
0.122316
0.301778
0.224105
0.0916238
0.17174
0.0918617
0.297452
0.262365
0.0775299
0.171947
0.131516
0.089562
0.1003
0.0278366
0.0396088
0.0466472
0.182864
0.113263
0.145083
0.0745084
0.0343477
0.0494885
0.000647015
0.000774523
0.00993976
0.150941
0.0680501
0.240621
0.509673
0.132942
0.00539247
0.0405609
0.0667731
0.213054
0.360655
0.124465
0.052436
0.0296753
0.0440981
0.0499263
0.00194502
0.0449576
0.0568705
0.26895
0.0955981
0.206642
0.11356
0.0843175
0.0321066
0.00142136
0
0
0.00554953
0.00186277
0.0825393
0.347287
0.111771
0.00640662
0.00236894
0
0
0
0.000195022
0.0552627
0.487144
0.326072
0.0281603
0.0165233
0.0317464
0.00448478
0.00699846
0.00808156
0.0941137
0.102209
0.0872915
0.0376999
0.0252253
0.0301339
0.00326707
0
0.00086635
0.0378299
0.247033
0.561383
0.086597
0.00809738
0
0
0.0156737
0.00276594
0.0141476
0.206321
0.255402
0.0403507
0.0859723
0
0
0.0261228
0.0046099
0.00522496
0.087063
0.259914
0.311674
0.0149466
0.00230525
0.000165094
0.00223909
0.000395135
0.00394647
0.130267
0.500898
0.123547
0.173934
0
0.00114854
0.00586482
0.000658558
0.000979276
0.0324215
0.2721
0.487542
0.125088
0.0011446
0
0.00326459
0.000576105
0
0.00525604
0.0895843
0.395721
0.432592
0.0295139
0.00479072
0
0
0
0
0.0233378
0.356447
0.16488
0.00856037
0.00288295
0.00582043
8.23006e-005
0
0
0.0374291
0.410222
0.290264
0.0486649
0.00715834
0.00321244
0
0
0
0.0250334
0.375979
0.432353
0.119608
0.0516508
0.00731434
0.00192158
0
0
0.0139607
0.112776
0.233704
0.227181
0.153597
0.0632235
0.0134511
0.000963367
0.00116973
0.0429994
0.0771672
0.422653
0.0946792
0.0329714
0.00175329
0.000274511
0
0
0.00604217
0.14111
0.494615
0.108101
0.066625
0.0118972
0.00192158
0
0.000557333
0.0283247
0.28659
0.108001
0.146097
0.285552
0.110434
0.00792677
0.00356479
0.00215567
0.0333114
0.0404389
0.0914591
0.2799
0.358033
0.185233
0.0593653
0.00213887
0.000715357
0.00419479
0.0159503
0.37284
0.115991
0.155156
0.0642966
0.00294672
0
0.000758687
0.0360776
0.251824
0.265653
0.220219
0.282263
0.230774
0.0545302
0
0.000108384
0.0127737
0.0608762
0.0597296
0.294478
0.284062
0.191955
0.0720375
0
0
0
0.00254578
0.0614124
0.330958
0.27268
0.150985
0.0122152
0
0
0
0.00287924
0.0601741
0.162172
0.311341
0.318942
0.0618664
0
0
0.00375783
0.00603269
0.0382212
0.158284
0.332508
0.257698
0.0125392
0
0
0
0.000361659
0.151296
0.43277
0.139447
0.0632526
0.000705158
0.00607495
0.00260355
0.000373404
0.0075087
0.197063
0.283521
0.138132
0.0629003
2.75395e-005
0.0908543
0.0741094
0.0160382
0.0972184
0.145021
0.227138
0.173295
0.148567
0.010531
0.00364497
0.00156213
0.00261383
0.0087342
0.290087
0.389024
0.0977844
0.0608613
0.00570174
0.032419
0.0189184
0.0301001
0.11184
0.313326
0.0814984
0.137117
0.121868
0.00473665
0.0343587
0.119236
0.0508042
0.0844751
0.181648
0.188535
0.257334
0.173437
0.019074
0.033644
0.0558505
0.033061
0.0487712
0.216448
0.145585
0.16504
0.177643
0.0245392
0.029243
0.0754631
0.0667416
0.0827573
0.147939
0.350914
0.326737
0.136962
0.0176359
0.00552592
0.0258468
0.0277073
0.0292352
0.0855403
0.166112
0.234579
0.207931
0.0670062
0.00745308
0.00753781
0.0458815
0.106704
0.0368561
0.0924887
0.0605543
0.146849
0.181539
0.0890016
0.0223111
0.118629
0.148196
0.17819
0.179667
0.214933
0.0711712
0.0387228
0
0.00665954
0.0387013
0.200968
0.237814
0.0530951
0.0452612
0.061819
0.243711
0.0212987
0.0816707
0.208433
0.297537
0.0346782
0.123931
0.0345463
0.0173944
0.104632
0.0669713
0.0333167
0.0886403
0.055001
0.044896
0.139675
0.0405109
0.00204715
0.0540025
0.0474918
0.172268
0.584432
0.11124
0.0487752
0.0511021
0.0492862
0.0316122
0.175404
0.0355536
0.103379
0.1231
0.0374857
0.0206123
0.269968
0.302229
0.0658624
0.0906664
0.0412137
0.129068
0.18393
0.0892332
0.0213191
0.020942
0.00476469
0.000424222
0.00634506
0.00849068
0.081526
0.38965
0.170404
0.197392
0.00614896
0.0352801
0.0638656
0.00890867
0.00378285
0.0413359
0.233133
0.557554
0.0109723
0.108414
0.0977114
0.0251871
0.0173627
0.0245732
0.0724799
0.144669
0.154376
0.0403835
0.0343691
0.104999
0.301643
0.130654
0.0395965
0.113113
0.115346
0.206577
0.179737
0.0711982
0.0859189
0.0985851
0.00418438
0.00053593
0.0150476
0.0473388
0.44132
0.244404
0.182569
0.0711813
0.0457497
0.00833248
0.0262004
0.0514141
0.0547611
0.412003
0.0558189
0.0957521
0.184788
0.33384
0.119902
0.021086
0.0380692
0.0434838
0.0742259
0.0736865
0.249981
0.139879
0.177095
0.0850993
0.0918332
0.0910809
0.0588756
0.0628228
0.403045
0.183415
0.0704094
0.0167384
0.00605181
0.0325564
0.0337651
0.0163196
0.153891
0.456337
0.119614
0.0505044
0.0140091
0.03624
0.0103554
0.0109337
0.0536553
0.419061
0.0622089
0.137324
0.112187
0.151124
0.0475583
0.101468
0.0630686
0.0239009
0.0452266
0.155677
0.0741009
0.0846707
0.104166
0.0718801
0.0245224
0.0273565
0.167398
0.207529
0.321799
0.0539102
0.0176157
0.0076819
0.0554627
0.00205728
0.00308592
0.0615662
0.374356
0.350399
0.19957
0.123834
0.0934992
0.0323693
0.00178486
0
0.0501557
0.212528
0.13659
0.0263652
0.0082499
0.00890602
0.0944403
0.012081
0.029008
0.206652
0.306568
0.167264
0.185487
0.0444077
0.0451276
0.0943524
0.0677637
0.035484
0.115317
0.302012
0.0838156
0.159653
0.232144
0.327661
0.0448464
0.0111695
0.00492266
0.0169066
0.0454942
0.0769597
0.0947263
0.215757
0.344972
0.0603546
0.0151376
0.00820444
0
0.00152839
0.0658093
0.175821
0.0807472
0.202249
0.203721
0.145257
0.044222
0.0147288
0.0650012
0.0499077
0.101747
0.148238
0.386655
0.23514
0.13243
0.0658156
0.0192136
0.00847537
0.10991
0.171437
0.151848
0.127267
0.0190174
0.0026884
0.00294827
0.000958628
0.00604195
0.202229
0.386723
0.240503
0.0891538
0.0112761
0.0193218
0.027065
0.00750066
0.0458464
0.120339
0.266373
0.2064
0.199566
0.0452616
0.0188188
0.045221
0.0731511
0.0345078
0.186908
0.283695
0.208175
0.115188
0.0321251
0.128706
0.242694
0.125405
0.0683445