0.0623616
0.0301496
0.0247258
0.00538525
0.0236329
0.0405175
0.0638751
0.192032
0.209229
0.0341757
0.0293196
0.0446153
0.0497669
0.0683402
0.0712861
0.0753257
0.0893511
0.0584833
0.137799
0.0192058
0.0635104
0.0801386
0.150491
0.178051
0.273504
0.540746
0.279507
0.0947512
0.04819
0.0534854
0.129491
0.185001
0.211475
0.209469
0.226848
0.0485872
0.0514532
0.0873787
0.0649719
0.111448
0.0995242
0.0415085
0.021914
0.0203133
0.0541061
0.194862
0.290438
0.133846
0.140572
0.112825
0.0624721
0.0221411
0.00903098
0.224471
0.0596346
0.0680458
0.089192
0.139221
0.184928
0.209585
0.0915212
0.0269952
0.0157737
0.152578
0.254572
0.286323
0.184055
0.203969
0.380011
0.230329
0.0378748
0.18931
0.0629277
0.114615
0.0593158
0.0240512
0.209654
0.0594542
0.0498247
0.0498361
0.0860224
0.200745
0.134319
0.0563589
0.0605184
0.304461
0.0968129
0.14984
0.261251
0.2076
0.0807707
0.195638
0.188917
0.0385314
0.0889783
0.0567677
0.100664
0.071239
0.0936663
0.133823
0.470111
0.322799
0.128053
0.0800809
0.0201506
0.0966405
0.194872
0.120319
0.216156
0.16011
0.0513046
0.0819961
0.0312385
0.0168574
0.0432703
0.122024
0.13063
0.206027
0.153222
0.06575
0.112508
0.0318753
0.0922178
0.0756331
0.0869017
0.161162
0.198695
0.29853
0.208465
0.0777622
0.00695767
0.00161288
0.00837521
0.0610821
0.0826583
0.601409
0.321295
0.12863
0.0148441
0.00792515
0.0125639
0
0.0268859
0.144465
0.116234
0.0509201
0.027794
0.0673589
0.030361
0.0666229
0.0266989
0.0204708
0.171642
0.177276
0.0571582
0.0447328
0.038982
0.00618938
0.0115438
0.0163163
0.0453608
0.256927
0.463154
0.154736
0.00988374
0.00660731
0.00708488
0.011174
0
0.0140061
0.246144
0.406739
0.0663246
0.0381994
0.00441333
0.00127671
0.00159628
0.0352734
0.0814427
0.550349
0.212717
0.087284
0.0957907
0.00284768
0
0.0177474
0.0252714
0.0343394
0.0871049
0.249052
0.136333
0.291933
0.0985817
0.0449119
0.0685848
0.035757
0.0943728
0.0845031
0.278211
0.0692127
0.102196
0.00028644
0
0.00110547
0.0626191
0.0878895
0.384655
0.286451
0.100525
0.179522
0.0228484
0.0748532
0.00773829
0.0772275
0.324356
0.42843
0.115732
0.206022
0.201111
0.144381
0.13238
0.135416
0.0575316
0.0868233
0.0527331
0.207683
0.130024
0.0575641
0.0653156
0.127339
0.187191
0.129934
0.109446
0.217493
0.0685515
0.128564
0.159713
0.0794197
0.189261
0.0557846
0.100333
0.433399
0.154426
0.116741
0.0872826
0.177449
0.220712
0.211848
0.0988275
0.2003
0.233033
0.128536
0.18905
0.131239
0.114046
0.0269718
0.0167787
0.0259775
0.0518438
0.11033
0.160742
0.0754248
0.366274
0.200587
0.16198
0.0453303
0
0.0417313
0.216949
0.0986663
0.109966
0.0716543
0.201719
0.185456
0.108242
0.0222494
0.109663
0.150982
0.152813
0.0422833
0.17556
0.32053
0.139218
0.169143
0.00426286
0.122729
0.362302
0.275939
0.0545769
0.22729
0.100479
0.170528
0.0449912
0.010761
0.0301171
0.254435
0.151273
0.138051
0.105904
0.0369765
0.0919564
0.01228
0.0923438
0.0202138
0.259008
0.25591
0.0696532
0.244932
0.260037
0.0974724
0.144219
0.0247207
0.0606019
0.219903
0.186845
0.169465
0.25098
0.236846
0.0816384
0.121596
0.195491
0.029376
0.215319
0.26104
0.188153
0.0588703
0.0182616
0.103503
0.112965
0.0553357
0.180716
0.184191
0.12711
0.120541
0.0581773
0.0348549
0.124473
0.144249
0.0878069
0.122149
0.103588
0.0297218
0.34406
0.172004
0.0626382
0.124413
0.0466776
0.00333603
0.115209
0.0513404
0.110246
0.304735
0.510249
0.211121
0.175711
0.129465
0.0339126
0.0727737
0.0272144
0.0833865
0.0205732
0.052778
0.053698
0.020372
0.0203752
0.0454956
0.0221288
0.0115203
0.00203718
0.0142519
0.219687
0.264989
0.0186501
0.0146677
0.0609313
0.0568318
0.0155379
0.0188451
0.0569619
0.29844
0.251389
0.0518519
0.015855
0.0241473
0.00451705
0.0049915
0.00620202
0.0067566
0.565821
0.565821
0.089286
0.00423056
0.0148717
0.00878332
0.00719358
0.0024384
0.0346224
0.201707
0.249577
0.0123792
0.0111653
0.00921232
0.0205803
0.0104288
0.0160217
0.130571
0.351191
0.190119
0.0478284
0.00598929
0.000258113
0.0108172
0.0160542
0.00966231
0.0324824
0.356058
0.458332
0.028474
0.0034155
0.000275018
0.00194037
0.000894949
0.00299705
0.211621
0.473931
0.245377
0.00962645
0.000487929
0
0
0
0.00947178
0.167035
0.212719
0.0815228
0.0362619
0
0
0.00127539
0.00398024
0.00806793
0.430123
0.145788
0.0397823
0.00498449
0
0
0
0.000672755
0.0433329
0.274139
0.408688
0.0651479
0.00518027
0
0
0
0.000447091
0.0128382
0.473702
0.432627
0.0146052
0.00071207
0
0
0
0.00312964
0.0620904
0.330276
0.0535819
0.00225198
0
0
0
0
0.00113441
0.115021
0.243575
0.013521
0.00354301
0
0
0
0.00947034
0.0321049
0.365779
0.470364
0.149811
0.000429077
0
0
0
0
0.00111607
0.163498
0.365635
0.0246604
6.12967e-005
0
0.00146392
0.000476892
0.00119953
0.0890291
0.470364
0.0733846
0.00497011
0.00906094
0
0
0
0.0173435
0.0562371
0.336439
0.043084
0.0103655
0.00543656
0.00100995
0.00764186
0
0.0365037
0.258492
0.363343
0.0714132
1.85662e-005
0
0
0.00374384
0.000573225
0.00112854
0.21866
0.44691
0.0253919
0
0
0
0.0022463
0.000171967
0.0580487
0.44691
0.418373
0.00828265
0.0235646
0.0197694
0.0350996
0.0264089
0.00142315
0.0737311
0.409774
0.166847
0.0530375
0.02797
0.0587751
0.141205
0.0960309
0.0111389
0.151608
0.27346
0.0879677
0.00481622
0
0.00033819
0.00491222
0.00417842
0
0.141014
0.496592
0.187328
0.024334
0.00875396
0.00696476
0.0238489
0.0462224
0.0193338
0.342597
0.421404
0.0677257
0.0933433
0.0168324
0.0495849
0.105372
0.110991
0.0262955
0.123526
0.119441
0.102315
0.107761
0.0550441
0.181178
0.079842
0.110373
0.0169458
0.113262
0.194406
0.257234
0.0555005
0.00982512
0.00726998
0.0235504
0.0662664
0.0727384
0.483969
0.186105
0.0376378
0.229376
0.0921578
0.081847
0.035807
0.0799942
0.0834238
0.485203
0.209937
0.207675
0.0605504
0.170269
0.214565
0.0495504
0.15055
0.0109591
0.0482625
0.06395
0.111407
0.163289
0.262147
0.186324
0.0390163
0.257045
0.088757
0.0179143
0.0381591
0.125634
0.226739
0.207607
0.127625
0.0801386
0.251154
0.0400824
0.110136
0.0596607
0.176405
0.26635
0.265415
0.154893
0.105786
0.378188
0.0848706
0.068955
0.00455298
0.201495
0.0665335
0.0376601
0.0689744
0.0771998
0.0325573
0.0114453
0.0123566
0.0240857
0.0270781
0.0508025
0.260396
0.235141
0.210686
0.0970526
0.0289825
0.0135444
0.0212204
0.0157611
0.0266968
0.0106916
0.079114
0.12627
0.150343
0.0722836
0.0115626
0.0624406
0.0534965
0.00330247
0.115685
0.513686
0.570626
0.244656
0.0994753
0.0170114
0.0455898
0.00917782
0.0146873
0.221254
0.266608
0.0875411
0.0179058
0.00796995
0.00151949
0.00144011
0.00134676
0.00354447
0.305258
0.4757
0.0707551
0.0100469
0.00363071
0.00124007
0
3.86603e-005
0.000697481
0.106401
0.388454
0.225626
0.0373125
0.0219997
0.00714508
0.00240018
0
0.00338351
0.113251
0.478289
0.205561
0.0218827
0.0186268
0.00975446
0
0
0.00748762
0.16693
0.292925
0.0210259
0.00898513
0.000258899
0.000139407
0
0.000396403
0.0541751
0.388423
0.323658
0.0132716
0.0089238
0
0
0
0.00277482
0.0013227
0.113677
0.452935
0.0905235
0.027941
0.00209399
0.00109658
0
0
0.00610999
0.323902
0.452935
0.158764
0.140651
0
0
0
0
0.120112
0.393447
0.149267
0.0203205
0.00496343
0.0067662
0
0.00113052
0.0437177
0.271589
0.274102
0.0337389
0.0319873
0.0276537
0.0524529
0.000345326
0.00829697
0.097388
0.0400714
0.38586
0.411359
0.212822
0.0802096
0.011277
0
0.000678314
0.0498848
0.0651352
0.251442
0.190986
0.304107
0.100334
0.088437
0.00572825
0.00730717
0.0981169
0.463684
0.150385
0.00438719
0.0185648
0.0450778
0.0515522
0.00219919
0.00949989
0.178386
0.323782
0.0263826
0.000366127
0.0101626
0.0576262
0.00938423
0.0088027
0.0788364
0.515778
0.0842404
0.0855931
0.10814
0.202989
0.138389
0.100833
0.0229571
0.0250828
0.201719
0.0885652
0.0359129
0.0371264
0.0305695
0.14332
0.153448
0.0716261
0.0408524
0.261868
0.0514195
0.0170445
0.0132105
0.0140521
0.0599324
0.0148528
0.011064
0.142327
0.253941
0.0493548
0.0269103
0.0220175
0.00843129
0.0325162
0.0213729
0.136355
0.496254
0.235652
0.0200987
0.0283436
0.0220175
0.0234202
0.148499
0.154236
0.143065
0.0390554
0.0557192
0.028456
0.0448505
0.0366959
0.0140521
0.132823
0.267893
0.496254
0.327656
0.11316
0.00840074
0.00299592
0.00245121
0
0
0.013577
0.196196
0.395931
0.0537562
0
0.0093599
0.00805851
0.00121831
0.00739778
0.0181645
0.25418
0.301936
0.0335598
0.00498532
0.0049932
0.00408535
0.000774095
0.0692632
0.200724
0.373438
0.292781
0.0315267
0
0.00667304
0.00612712
0.00609298
0.0727575
0.237801
0.405223
0.320107
0.0360101
0.00182946
0.0171913
0.0234119
0.0211491
0.0438585
0.0576436
0.347052
0.142428
0.0352332
0.144786
0.0483224
0.0495622
0.0763507
0.126153
0.24117
0.33201
0.156121
0.0800753
0.00154972
0.0355727
0.0643309
0.0507565
0.0661137
0.230009
0.337407
0.145155
0.0491636
0.0392928
0.0888258
0.11719
0.0904566
0.162739
0.463412
0.263696
0.0631507
0.0222803
0.235572
0.114068
0.108202
0.120542
0.127694
0.131141
0.0713755
0.0450397
0.121376
0.289544
0.178129
0.154601
0.120318
0.121589
0.0501065
0.0702369
0.00666908
0.300942
0.0707188
0.171181
0.213421
0.0951266
0.109631
0.28627
0.174224
0.0329789
0.0382996
0.211629
0.293216
0.323586
0.104181
0.0927968
0.0928327
0.0631374
0.0660684
0.195359
0.00231152
0.00418533
0.0749625
0.111523
0.100474
0.0298127
0.00355666
0.027518
0.0236533
0.000255618
0.0308053
0.313323
0.402441
0.128965
0.0253336
0.00198406
0.0117408
0.00513411
0.00201306
0.00578068
0.140229
0.255619
0.181
0.0130303
0.0148026
0.00586946
0.00508006
0
0.00811562
0.47348
0.486569
0.245067
0.00688855
0.00296144
0.00148917
0.0007091
6.96765e-005
0.0294568
0.18194
0.252683
0.0666686
0.00948755
0.00324636
0.000349211
0
0.000487735
0.0224954
0.350785
0.412928
0.0683325
0.00980345
0.00477108
0
0
0
0.00468225
0.15161
0.330936
0.202599
0.00879166
0.00223915
0
0
0
0.00224283
0.207778
0.515706
0.255063
0.0055213
0.00176749
0.00127377
0
0.00018206
0.0389212
0.418716
0.231008
0.0744525
0.00505588
0.000629975
0
0
0.000714785
0.088347
0.365109
0.219284
0.322221
0.0713201
0.0486884
0.00077189
0
0
0.00329634
0.136533
0.335318
0.160243
0.0202823
0.00172928
0.00351325
0
0
0.00578171
0.0526118
0.0967857
0.333899
0.255733
0.254861
0.0622476
0.00527928
0.00628792
0.162094
0.240457
0.205251
0.159795
0.0817793
0.0836454
0.0340015
0.0152658
0.0195481
0.236894
0.203445
0.243478
0.0655914
0.0434873
0.0667434
0.056696
0.0785392
0.0138022
0.0172476
0.0339971
0.0718669
0.133615
0.209669
0.373615
0.24356
0.0674332
0.131012
0.302252
0.124189
0.0800723
0.0323159
0.0568437
0.23576
0.255465
0.286367
0.0274772
0.123886
0.184818
0.108817
0.0256257
0.0254236
0.038404
0.0535402
0.119311
0.0452466
0.0288676
0.0871593
0.0273168
0.0232894
0.160426
0.177451
0.123562
0.152536
0.157093
0.400458
0.215765
0.0790653
0.0318592
0.0200654
0.0871718
0.109802
0.201658
0.202865
0.121098
0.0995975
0.0393128
0.0192773
0.149654
0.413446
0.379446
0.235774
0.0308583
0.0407007
0.0206341
0.0141313
0.0593515
0.150981
0.165155
0.0589276
0.04326
0.0159425
0.0772876
0.0837462
0.107646
0.176455
0.235168
0.348535
0.0442064
0.0369758
0.216579
0.160399
0.071427
0.0194264
0.0146977
0.0774585
0.161421
0.20635
0.130418
0.131381
0.441387
0.449416
0.227895
0.0962192
0.0692416
0.0402923
0.0233662
0.0421082
0
0.0229415
0.0529796
0.129134
0.246295
0.23199
0.225344
0.0525127
0.0110585
0
0.00206141
0.00742069
0.0622277
0.228772
0.353043
0.276662
0.0952824
0.00608325
0.00426874
0.190274
0.337364
0.363661
0.178635
0.0481751
0.0192527
0
8.61919e-005
0.00227215
0.0147741
0.0437814
0.198539
0.295402
0.198995
0.0833431
0.00613836
0.000143653
0.00436349
0.0296307
0.0283895
0.0420318
0.0701528
0.299523
0.281999
0.0656182
0.00784799
0.0306705
0.0754986
0.054743
0.0631505
0.0737701
0.21926
0.271513
0.0714779
0.0187597
0.00321656
0.0127643
0.011914
0.0601806
0.412998
0.351108
0.140962
0.0186573
0.000894436
0.0183267
0.0429839
0.0548876
0.0945606
0.41884
0.252606
0.20153
0.0518363
0.0107078
0.0168782
0.109332
0.0928325
0.0381566
0.0731394
0.247024
0.290627
0.0966929
0.0337264
0.0381323
0.11749
0.17645
0.0721388
0.127571
0.214509
0.116771
0.083101
0.0550116
0.00925048
0.0245584
0.0426397
0.044044
0.232375
0.359082
0.302451
0.0758992
0.0202358
0.067623
0.0147923
0.119348
0.140722
0.321142
0.379135
0.143936
0.0324192
0.125923
0.000762865
0.00163274
0.0448879
0.188975
0.225088
0.0496385
0.0182219
0.00061215
0.000762865
0
0.000629685
0.16763
0.295044
0.358695
0.0497984
0.00287198
8.745e-005
0
0.000711161
0.000259419
0.00822656
0.0784099
0.454058
0.140131
0.0427073
0
0.000376642
0
0
0.00970505
0.110221
0.551889
0.230135
0.0666876
0
0
0
0.000187533
0.0496655
0.184365
0.2616
0.013513
0.000737672
0
0
0
0
0.0358653
0.406012
0.371716
0.00769653
0.000740961
0.00119343
0
0
0
0.0026757
0.0879717
0.424756
0.139648
0.0245802
0
0
0
0.000871491
0.00179593
0.163853
0.480748
0.275106
0.0337397
0.000244315
0.000418341
0
0.000351651
0.0355537
0.303942
0.263359
0.0237554
0.00429092
0.00702013
0
0.0420621
0.0340879
0.016098
0.0298223
0.147781
0.196146
0.278041
0.159057
0.0297378
0
0.00758794
0.0376562
0.1549
0.325787
0.194205
0.0273518
0.00143714
0.00246081
0.0701034
0.289884
0.534961
0.197223
0.0468559
0.0168801
0.0404764
0.0524279
0.0204526
0.0762069
0.0289536
0.00567133
0.0020179
0.0202488
0.0603522
0.172695
0.203668
0.113941
0.297839
0.152986
0.0318458
0.00475015
0.00367629
0.0102179
0.0921815
0.162724
0.303322
0.200804
0.271419
0.238087
0.0277476
0.00512332
0.00255646
0.0174298
0.0479553
0.0782679
0.478856
0.206851
0.0692628
0
0
0.000152252
0.00573283
0.0319933
0.399081
0.218796
0.180477
0.0341799
0.0114307
0.0088466
0.00271547
0.025768
0.048622
0.197112
0.185316
0.070751
0.0102525
0.00685843
0.00530796
0.0190083
0.124252
0.214469
0.279066
0.359988
0.0408215
0.00274791
0
0
0
0.00247984
0.0256549
0.452136
0.317908
0.0131684
0.000359037
0
0
0
0.0141572
0.0938957
0.453477
0.225518
0.0993584
0.0324617
0.00288255
0
0.0082137
0.0557666
0.137663
0.188689
0.175037
0.390037
0.237236
0.0510683
0.000801767
0
0.00928316
0.0426267
0.0536872
0.205047
0.0311736
0.00335983
0
0
0
0.0528231
0.185811
0.466805
0.128646
0.141851
0.0306782
0.00152399
0.00685595
0.0161154
0.274403
0.384337
0.167196
0.0458721
0.401873
0.379982
0.22321
0.0310863
0.000656635
0.00811824
0.0284853
0.00593015
0.0204665
0.0448246
0.0768991
0.175718
0.300743
0.0797555
0.00920964
0.00236246
0.00621481
0.0524754
0.159715
0.0690432
0.0236711
0.0543933
0.0647723
0.347545
0.301542
0.022563
0.0213479
0.0636186
0.13751
0.215063
0.306991
0.0385964
0.0372568
0.0240645
0.0119236
0.00251651
0.00355811
0.0141597
0.047475
0.389976
0.0997056
0.00686187
0
0.000351345
0
0.00746109
0.0474338
0.0627148
0.432119
0.124339
0.0233235
0.00381959
0
0.00284149
0.00842646
0.0621588
0.272611
0.389945
0.0195353
0.0010776
0.000934229
0.00053644
0
0.00101675
0.081246
0.304252
0.494497
0.0549451
0.0146971
0
0
0
0.00404206
0.0344672
0.0562953
0.315105
0.196111
0.0527568
0.00562486
0
0.0760857
0.0151795
0.0340364
0.0841129
0.373802
0.254695
0.0248955
0.0130925
0.0547413
0
0.0040701
0.0855309
0.22268
0.431619
0.131976
0.0216435
0
0
0.0679042
0.0113996
0.0928509
0.249942
0.437882
0.179042
0.00309193
0.0860224
0.0441665
0.00177726
0.00322372
0.0125676
0.0356755
0.297697
0.113604
0.0462146
0.000204375
0.0019176
0
0
0.0016636
0.0142996
0.372856
0.280607
0.198661
0
0
0.00420341
0.0141177
0.0246279
0.0225571
0.163338
0.245029
0.114568
0.00143063
0.0073991
0.00947893
0.0379157
0.0027123
0.00380477
0.208558
0.502725
0.433646
0.0183003
0.00457507
0
0
0
0.0103828
0.200923
0.240124
0.0815235
0
0
0
0.000888352
0.000679969
0.0140314
0.224453
0.501514
0.12708
0.00020456
0.00115917
0.00310907
0.0124363
0
3.88723e-005
0.130901
0.323088
0.186817
0.0164263
0.00410658
0
0.000126908
2.23955e-005
0
0.105284
0.501514
0.328197
0.016159
0.00128216
0
0.00288263
0.0230178
0.0494508
0.101325
0.210454
0.0515053
0.000564127
0.00319672
0.004534
0.0786766
0.374782
0.199574
0.0885657
0.0619294
0.00429084
0.000338476
0.00203257
0
0.000349981
0.00987384
0.0371317
0.130585
0.430965
0.313292
0.0268095
0.00191803
0
0.0140917
0.174505
0.1836
0.222557
0.42987
0.299352
0.0531132
0.00115082
0.0905229
0.223569
0.38346
0.0625962
0.0279402
0.0366519
0.00906207
0
0.00941316
0.388281
0.220168
0.130936
0
0.0024506
0.0108119
0.010732
0.00399954
0.230983
0.0241335
0.0909771
0.222483
0.0599282
0.0686331
0.243532
0.255343
0.108461
0.0410415
0.232507
0.121223
0.0991463
0
0.00569706
0.0695141
0.141136
0.11835
0.387505
0.239195
0.0212486
0.000653998
0
0
0
0.00102114
0.00965694
0.342801
0.216974
0
0
0
0
0
0.00220737
0.0289515
0.449656
0.240157
0.013219
0.000392399
0
0
0
0.00714801
0.0140184
0.396669
0.333958
0.0131499
0
0
0
0
0.00367895
0.0283994
0.449656
0.0911116
0.000727605
0
0.00235685
0.00973469
0.038661
0.0731476
0.181337
0.352599
0.0174425
0.00269497
8.20991e-005
0.0269222
0.0524095
0.160134
0.370367
0.374834
0.105752
0.242644
0.0901732
0.0346209
0.0164979
0.0727149
0.0748171
0.0481091
0.112517
0.240279
0.0735922
0.131909
0.165118
0.226301
0.277477
0.263547
0.192646
0.153324
0.0409645
0.00268829
0.00282587
0.00465104
0.0354405
0.113111
0.132635
0.273716
0.130135
0.00358398
0.000976961
0.00825995
0.100402
0.182157
0.168842
0.0451498
0.0411009
0.0135244
0.0011598
0.000172823
0.0448121
0.194075
0.269268
0.32492
0.158424
0.155369
0.0426997
0
0
0.0490507
0.544819
0.370088
0.199312
0.0385291
0.0264911
0.00625487
0
0.000276461
0.0025366
0.133651
0.333372
0.166157
0.00202096
0.00287598
0.00249335
6.76075e-005
0
0.0124111
0.130276
0.333819
0.231461
0.00819556
0.00530852
0
0
0
0.0226318
0.436166
0.382368
0.0739053
0.00213059
0.00172559
0.00208185
0.00234336
0.0152908
0.023265
0.330176
0.380833
0.125011
0.000720386
0
0.000976399
0.0039056
0
0.0480844
0.171894
0.258128
0.230862
0.0341603
0.00756614
0
0
0.031056
0.0298275
0.104961
0.244107
0.285892
0.0661592
0.00108088
0.0300717
0.0165074
0.0592413
0.0730487
0.365342
0.460221
0.114892
0.00326015
0
0.000188339
0.000753355
0.0494984
0.0465666
0.127708
0.439291
0.21219
0.0265996
0.00582872
0
0.00096732
0.0151117
0.0185553
0.0185655
0.0049593
0.0719344
0.188089
0.0753402
0.00260294
0.00961261
0.012147
0.0444522
0.00189499
0.00042943
0.0731286
0.495471
0.357131
0.0754067
0.0170634
0.0290678
0.0146
0.0213899
0.0121011
0.0492902
0.109333
0.0435858
0.00361948
0.0188563
0.00407049
0.00671576
0.00758281
0.00462913
0.0476761
0.465442
0.498604
0.158515
0.018201
0.00341378
0.01235
0
0
0.0322886
0.212931
0.236074
0.0580728
0.0110698
0.00231443
0.000121812
0
0
0.0263501
0.292451
0.385532
0.0402799
0.00158139
0.000991504
0.0017908
0
0
0.00696708
0.183673
0.508566
0.146404
0.00710635
0.00385738
0.00020302
0
0
0.00586021
0.113297
0.508566
0.148633
0.000948836
0.000630607
3.31898e-005
0
0.00228215
0.0277889
0.136736
0.369847
0.0624193
0
0
0.000205225
0.00389929
0.0137232
0.0508195
0.185685
0.422959
0.189376
0.00106845
0.00105101
5.53163e-005
0
0
0.00270559
0.038098
0.39947
0.155472
0.0063757
0
0
0
0
0.00242258
0.0370225
0.422959
0.422959
0.0394502
0.00339588
0.00330472
0.0109832
0.00506174
0.0143233
0.0915192
0.254659
0.247724
0.0774771
0.108647
0.00489126
0.00658995
0
0.000980354
0.0194982
0.0846033
0.178171
0.435223
0.00195458
0
0
0
0.000322641
0.0116596
0.184385
0.449188
0.20145
0.109189
0
0
0
0
0
0.0272749
0.288297
0.449188
0.171921
0.000552328
0
0
0
0
0.00206329
0.0153071
0.361169
0.275984
0.0226338
0
0
0
0
0.000390664
0.00333082
0.406474
0.227509
0
0
0
0
0
0
0.0318034
0.409394
0.409394
0.0417688
0
0
0
0
0
0.00162213
0.409394
0.248753
0.16638
0.0356469
0.00493524
0.0241022
0.0117016
0.0034726
0.00720926
0.166624
0.0983301
0.318784
0.256579
0.097289
0.105246
0.041124
0.0106133
0.00335691
0.0117938
0.457361
0.270991
0.0190381
0
0.000531114
0.00022762
0
0
0.180348
0.241289
0.457361
0.228542
0.0195018
0.00800812
0.00159334
0
5.31592e-005
0.013595
0.00242962
0.148507
0.305805
0.110108
0.0985506
0.0158357
0.00658052
0
0
0.00267642
0.127917
0.440856
0.106748
0.0486092
0.00261947
0.000870233
0
0
0.0365134
0.440856
0.337752
0.0272715
0.0128372
0.000577486
0
0.000142364
0.00211003
0.0185178
0.29681
0.440856
0.0257324
0.00835221
0.000424417
0
8.54184e-005
0.000887159
0.00325147
0.0550734
0.393213
0.143732
0.0185513
0.00248712
0
0.000583894
0.00233558
0.015687
0.0527779
0.397159
0.182092
0.0390448
0.00149227
0
0.000973157
0.00389263
0.00726464
0.199047
0.456633
0.0520612
0.00512765
0.00149227
0
8.34135e-005
0.000333654
0.00323552
0.238339
0.506782
0.10559
0.00993533
0.00212724
0.000136875
0.000139022
0.00055609
0.0694663
0.0770204
0.433123
0.292236
0.0500974
0
0
0.000220846
0.000883383
0.048007
0.0272207
0.133809
0.35052
0.0783714
0.000759416
0.00775145
0.00137505
0.000480116
0.00992376
0.186541
0.593115
0.130483
0.0168651
0.0056151
0.000623899
3.15494e-005
0.000126198
0.0130126
0.0449548
0.191926
0.229545
0.0258008
0.00347755
0.00776762
0.00962533
0.000643459
0.033499
0.0132144
0.0562284
0.0344834
0.0499532
0.062208
0.0332119
0.00716189
0.0482803
0.0092315
0.0034937
0.0250255
0.0165018
0.0665547
0.327021
0.779319
0.135548
0.0549415
0.0417829
0.0100404
0.0211852
0.0289887
0.0243112
0.0393455
0.0343841
0.0336903
0.0969986
0.0561947
0.0197164
0.028989
0.0467179
0.0539328
0.0822774
0.301835
0.0406921
0.105688
0.00140817
0.000497818
0.000255068
0
0.00455039
0.0567564
0.470937
0.0849245
0.00194994
0.000655239
8.37118e-005
0
0
0.000389578
0.0266585
0.476559
0.216933
0.00120642
0.0151505
0.00386351
0.00451949
0.00759102
0.00490888
0.026774
0.238581
0.0779687
0.00824066
0.00846767
0.000466908
0.00164041
0.00246061
0.000419929
0.0209972
0.476559
0.391745
0.0237067
0.000397108
9.59903e-006
0
0
0.00040248
0.0180909
0.305264
0.207175
0.0176286
0.00219646
0
0
0
5.74971e-005
0.00727522
0.198474
0.423381
0.113942
0.0102103
0
0
0
5.87133e-005
0.0169746
0.362835
0.399919
0.0492098
0.0366399
0
0
0
0
0.0555469
0.240052
0.461131
0.129983
0.00766203
0
0
0
0
0
0.0805979
0.378312
0.227256
0.0732962
0
0
0
0
0
0.0113896
0.301318
0.478537
0.0367571
0
0
0
0
0.0545329
0.0783562
0.29321
0.189487
0.134815
0
0
0
0
0.0135803
0.0141885
0.214957
0.478537
0.194722
0
0
0
0
0
0
0.0708992
0.423067
0.451919
0.0613148
0
0
0
0
0
0.00559406
0.273541
0.207345
0.000312622
0
0
0
0
0
0.0514784
0.365766
0.451919
0.0395988
0
0
0
0
0
0.00388693
0.255546
0.423101
0.213402
0.00625731
0
0
0
0
0
0.0662322
0.266317
0.454272
0.0691905
0.00198851
0
0
0
0.000161278
0.0227397
0.408527
0.136475
0.00258777
0.00334491
0.00334491
0
0
0
0.0700586
0.288929
0.407955
0.0427171
0.00557486
0.00557486
0
0
9.6767e-005
0.0355096
0.0961995
0.366491
0.139639
0.0065143
0
0
0
0.00052367
0.0217897
0.0465777
0.299477
0.371515
0.0138402
0
0
0
0.000314202
0.00518881
0.136585
0.410076
0.154402
0.00986605
0.000901223
0
0
0.000314202
0.0312164
0.11574
0.453489
0.353669
0.0250625
0
0
0
0.000188521
0.0197104
0.0171527
0.251857
0.453819
0.0879127
0.00100379
0.00186419
0.00412808
0.000217268
0
0.0029282
0.211971
0.500472
0.183289
0.00257917
0.00776137
0.0294137
0.00219301
0
0.0691607
0.320047
0.299913
0.110134
0.00702654
0.0130493
0.00688013
0.000362113
0.00740897
0.0169947
0.130865
0.2177
0.235185
0.0232191
0.026216
0.0495875
0.00972086
0.00229691
0.00110219
0.219623
0.623432
0.232671
0.0107741
0.0415082
0.0502639
0.0219261
0.00507442
0.0650425
0.0625219
0.195614
0.187252
0.0336747
0.0241038
0.028968
0.0606735
0.0414997
0.0153842
0.132791
0.169955
0.257961
0.0577867
0.0413011
0.0825567
0.0888991
0.0555856
0.163384
0.187401
0.090047
0.0757332
0.0389536
0.0194454
0.0355744
0.117003
0.209685
0.0402271
0.0130776
0.0109148
0.0483786
0.0982983
0.123376
0.154241
0.0537064
0.11749
0.244537
0.0348935
0.0285505
0.11304
0.142503
0.0918135
0.258622
0.0580511
0.18696
0.022557
0.0964798
0.100928
0.0910047
0.182688
0.167912
0.106042
0.0264247
0.121986
0.238641
0.0741702
0.0485154
0.0721315
0.137175
0.305923
0.277482
0.123871
0.297965
0.11499
0.0123911
0.0136502
0.0324227
0.0163923
0.0350358
0.117977
0.113998
0.0765066
0.105237
0.0125665
0.00695312
0.0133175
0.00218508
0.045916
0.385902
0.72789
0.141753
0.121511
0.0312525
0.0036389
0.0181512
0.0294381
0.0653331
0.0841648
0.0896308
0.11901
0.122344
0.0493189
0.0161235
0.0489194
0.0144845
0.0541734
0.0758593
0.161058
0.124536
0.0359416
0.00445469
0.000142556
0.001283
9.33085e-005
0.00582506
0.182081
0.428579
0.0746673
0.061335
0.000636384
2.03651e-005
0.000183286
0
0.0877889
0.2228
0.620681
0.178818
0.0375026
0.00906453
0.00684728
0.020139
0.0028028
0.00758686
0.0251312
0.137721
0.0561306
0.0510351
0.00215337
0.00841627
0.00876335
0.000813209
0.0277758
0.0505021
0.378827
0.249929
0.0377692
0
0
0
0
0.0923144
0.0761235
0.302878
0.211974
0.137135
0
0
0
0
0.0322309
0.0173917
0.160896
0.519868
0.03591
0.00383833
0.00356225
0.00225786
0
0.0332949
0.0260813
0.18213
0.350418
0.152603
0.00511584
0.000323176
0.000242959
0
0.0160303
0.00614805
0.0748008
0.538419
0.184444
0.000973702
0
0
0
0
0
0.027436
0.351173
0.445963
0.0294107
0
0
0
0
0
0.0016523
0.241727
0.200718
0.00116746
0
0
0
0
0
0.0229028
0.44023
0.416496
0.0176464
0
0
0
0
0
0.031325
0.357165
0.437995
0.116318
0.00513056
0.0124753
0.0124753
0
0
0
0.0848778
0.309231
0.450791
0.0529241
0.0207921
0.0207921
0
0
0.000583449
0.0258043
0.408103
0.0635205
0.00252829
0.00748517
0.00748517
0
0
0.0176958
0.202616
0.393546
0.23255
0.0188891
0.0124753
0.0124753
0
0
0.00567082
0.0915213
0.239472
0.550286
0.11711
0.0100948
0.0044205
0
0
0.0036342
0.0505466
0.25708
0.423031
0.135785
0.0126779
0
0
0
0.00720392
0.126481
0.286386
0.225118
0.0153141
0.0026523
0.0026523
0
0
0.0278503
0.138591
0.211842
0.0822711
0.0135199
0.00776881
0.000289763
0
0
0.0888562
0.24084
0.253701
0.533392
0.165222
0.0548849
0.00733758
0.0136269
0.0026431
0.00418091
0.0976367
0.11409
0.380432
0.178957
0.167226
0.0443316
0.0356327
0.0271157
0.0411545
0.0333639
0.209128
0.197063
0.0981058
0.0670002
0.0304655
0
0
0.0954178
0.153684
0.130922
0.266455
0.110239
0.0839843
0.0594825
0.0118691
0.0182096
0.0840454
0.0911213
0.0448204
0.168733
0.0806043
0.111984
0.111031
0.0414653
0.0425301
0.148983
0.153767
0.0824589
0.1891
0.143057
0.097058
0.112367
0.0226662
0.0523218
0.11788
0.220641
0.073555
0.0974847
0.0256014
0.0301877
0.0604293
0.0291322
0.113256
0.255014
0.247458
0.0229709
0.0335187
0.0508892
0.0982624
0.0935554
0.0147004
0.241539
0.325338
0.413456