0.074811
0.0560942
0.0379544
0.0161683
0.0222447
0.0116983
0.006302
0.00670035
0.0303185
0.139592
0.0363418
0.0362201
0.0728097
0.0320203
0.0178943
0.0172606
0.0296243
0.123079
0.223276
0.217004
0.228067
0.266719
0.0554992
0.0128831
0.00715836
0.0434597
0.0762174
0.366245
0.262386
0.123146
0.129496
0.077855
0.114931
0.234971
0.404935
0.351784
0.0516984
0.00415555
0.0116095
0.0979177
0.0330521
0.0159909
0.0424852
0.0375951
0.08318
0.0699074
0.00244516
0.0087123
0.038086
0.0241964
0.0230321
0.0675043
0.0291598
0.0826232
0.181885
0.0396062
0.00310896
0.0305548
0.0199294
0.118407
0.321232
0.398474
0.289277
0.506088
0.00323105
0.000346395
0.00803875
0.00114421
0.0180718
0.0849443
0.122038
0.370452
0.11786
0.010039
0.00670389
0.0101056
0.0296475
0.00482762
0.0228238
0.0117697
0.0789288
0.18417
0.0846826
0.0643008
0.0393091
0.0353275
0
0.00780505
0.00886291
0.0894499
0.517513
0.00953134
0
0
0.00226693
0.00055112
0.0126901
0.0116749
0.267886
0.59152
0.106363
0.0202687
0.0012698
0.00136016
0
0.0154177
0.0135059
0.268608
0.0996653
0.0953074
0.188992
0.111744
0.084677
0.0710415
0.00599104
0.0106561
0.055818
0.103357
0.193859
0.345485
0.228008
0.129868
0.118402
0.0433215
0.0627118
0.133646
0.439484
0.183937
0.0876199
0.0261396
0.0160747
0.0204201
0.00347976
0.00598064
0.17565
0.246846
0.262403
0.137748
0.102877
0.0343408
0.0430547
0.0249192
0.027055
0.195232
0.115506
0.113836
0.194506
0.183411
0.0454933
0.0136097
0.0573966
0.032371
0.0651961
0.31765
0.26342
0.0787404
0.0958322
0.0260942
0.00682359
0.0389824
0.0219937
0.0494101
0.174254
0.157391
0.0625862
0.0850012
0.0492901
0.017202
0.0380821
0.0108611
0.113419
0.553202
0.322939
0.0893918
0.119868
0.0601248
0.0127266
0.0420041
0.00699166
0.189903
0.158608
0.225926
0.0432804
0.0044359
0.00192139
0.00188246
0.00202445
0.0029739
0.0281507
0.196391
0.169896
0.0303837
0.000190376
0.000190376
0
0
0.00179272
0.0726945
0.376226
0.182121
0.0401027
0.0367563
0.00511665
0.00140559
0.00659834
0.00944737
0.251821
0.481664
0.0986607
0.012865
0.00290922
0
0
0
0.0219536
0.501052
0.10677
0.0324221
0.00485749
0
0
0
0
0.00238493
0.0589052
0.136778
0.045261
0.0138954
0.0132443
0.00147158
0
0.000678694
0.00414574
0.0480491
0.345568
0.0456671
0.00028358
0
0
0
0
0.00473066
0.25528
0.799432
0.0715936
0.00198506
0.00189204
0.000210226
0
0.000407217
0.00162887
0.207433
0.0894933
0.0224852
0.0041877
0.0108499
0.00164146
0.00392322
0.00241644
0.00996793
0.0345007
0.100323
0.00955729
0
0.00154999
0.0158874
0.0077679
0.00724238
0.0206591
0.105182
0.558141
0.0177493
0.000598242
0.00154999
0.000234494
0.00056046
0.00103611
0.00439629
0.202792
0.482361
0.0295869
0
0.000221427
0.0108278
0.00298275
0.00144917
0.0205821
0.55337
0.025645
0.00668621
0.00166475
0.0350719
0.139771
0.019654
0.0120041
0.0104792
0.0390883
0.00261635
0.00375097
0.0036708
0.243697
0.55938
0.101515
0.0175328
0.00499171
0.00744805
0.126683
0.0613243
0.0472243
0.102546
0.107216
0.00362727
0.000212061
0.0095553
0.181332
0.0358147
0.0561717
0.0886476
0.43991
0.499573
0.0708362
0
0.00118486
0.0271498
0.143472
0.0434536
0.0424227
0.103931
0.0422492
0.00902859
0.00190442
0.0143926
0.0747118
0.108498
0.0598737
0.0195348
0.0436037
0.0596785
0.0665002
0.0747655
0.145783
0.134963
0.493123
0.00746805
0.00669219
0.038361
0.0253495
0.00541715
0.00027206
0.0459647
0.373807
0.300693
0.00845634
0.00204953
0.016012
0.0358071
0.039813
0.0725515
0.493123
0.329505
0.0736108
0.0117399
0
0
0.0167517
0.0679494
0.109831
0.174244
0.155848
0.245043
0.00959151
0.00478531
0
0
0.00773917
0.0292135
0.0561206
0.223837
0.0913027
0.00553965
0
0
0.010051
0.0548555
0.15274
0.639409
0.246332
0.308201
0.180319
0.0453123
0.0108903
0.00104858
0.0169387
0.0764624
0.226384
0.232806
0.194245
0.0292221
0.0195795
0.0107458
0.0279435
0.00310483
0.0397055
0.0166294
0.178866
0.276901
0.153876
0.0303527
0.0239685
0.0465725
0.00517472
0.0364318
0.0319769
0.0868386
0.186611
0.322621
0.174455
0.103829
0.0501975
0.00517472
0.0582982
0.0345988
0.135495
0.26133
0.570767
0.303834
0.187018
0.0797959
0.00862453
0.0421804
0.0381264
0.0347316
0.290965
0.111455
0.0375679
0.0222558
0.0117942
0.0209352
0.00883146
0.0499612
0.0647954
0.110541
0.0618777
0.085662
0.0241213
0.0131668
0.0437056
0.0161189
0.0519441
0.0992335
0.268254
0.426658
0.324508
0.140648
0.0186252
0.0348921
0.0105114
0.0767251
0.0282775
0.264522
0.385028
0.381703
0.0859173
0.0135829
0.0619344
0.0127988
0.0581643
0.0517413
0.0364451
0.0666852
0.0501887
0.0323351
0.0488019
0.0269288
0.0193518
0.010319
0.0452537
0.0923139
0.0939909
0.0593161
0.10567
0.0598016
0.0386353
0.128054
0.006702
0.059895
0.433006
0.256218
0.137319
0.0283758
0.0251924
0.0220396
0.0168101
0.00572717
0.1304
0.449572
0.102217
0.0340225
0.0567876
0.0276594
0.0429705
0.180333
0.138989
0.52259
0.107552
0.0727297
0.0363038
0.0418604
0.00556187
0.0148602
0.0965043
0.045352
0.099663
0.225663
0.0701002
0.0518808
0.00446019
0.00949163
0.0182126
0.0694318
0.0899265
0.274944
0.0790053
0.0472978
0.0336664
0.0223769
0.00334188
0.0224684
0.218722
0.32987
0.22189
0.0783175
0.0673338
0.0959118
0.00267612
0.0425415
0.104433
0.536582
0.418604
0.161341
0.262839
0.108881
0.0353266
0.00275396
0.0101825
0.0116708
0.014784
0.0148142
0.13862
0.603421
0.131283
0.012651
0.0121519
0.007042
0.00306057
0.00483533
0.000873528
0.171344
0.13499
0.127746
0.074344
0.0192777
0.066891
0.0949242
0.354264
0.13517
0.0625329
0.319249
0.138567
0.0479959
0.0912328
0.0497902
0.0310677
0.187319
0.183555
0.147207
0.540558
0.0493396
0.00180373
0.00971254
0.00105734
0
0.00914408
0.00406314
0.200036
0.384701
0.0291467
0.00240297
0.0114762
0.00221643
0.000229631
0.0491283
0.0561846
0.499844
0.251597
0.0591936
0.0229928
0.0872402
0.0154156
0.0120133
0.071978
0.0711891
0.127878
0.148951
0.0360987
0.0357948
0.102506
0.0577559
0.0405012
0.105121
0.0601165
0.196262
0.180261
0.0998902
0.0939562
0.0932744
0.0296294
0.000835696
0.0386401
0.0727472
0.402876
0.0686801
0.134817
0.189188
0.471002
0.268477
0.0658926
0.0112927
0.0239313
0.0904509
0.0634821
0.0702928
0.0679929
0.0759961
0.0696472
0.0231879
0.0688671
0.0764444
0.218231
0.0693715
0.10099
0.105263
0.251437
0.373784
0.0258893
0.0208793
0.0351529
0.0961561
0.443776
0.00240476
0.000636759
0.000636759
0
0.00376821
0.000418689
0.0505814
0.3811
0.242202
0.00400794
0.00445731
0.00728541
0.0616253
0.0834017
0.146246
0.507699
0.243527
0.162854
0.0615342
0.00973587
0.00445731
0.000171139
0.00628035
0.000697816
0.0105327
0.105521
0.197437
0.121034
0.119803
0.0675958
0.192393
0.130273
0.0740975
0.0715004
0.0671827
0.037346
0.00891481
0.0016286
0.00443747
0.0848348
0.155906
0.225447
0.421716
0.0736965
0.164171
0.181789
0.0844594
0.056645
0.0388822
0.110444
0.12022
0.172091
0.0683909
0.0571631
0.0414191
0.0810754
0.0754906
0.306443
0.314555
0.112075
0.058014
0.0243375
0.0533476
0.116036
0.283406
0.266636
0.199251
0.306802
0.0639183
0.0305755
0.0572057
0.0582377
0.179788
0.124518
0.080818
0.0101041
0.00508131
0.00824155
0.00933835
0.0135664
0.100186
0.364733
0.167844
0.0663097
0.00841407
0.000598215
0.00220239
0.00205271
0.000467512
0.0184552
0.132031
0.419498
0.155241
0.023086
0.0217155
0.00327136
0.001967
0.0132706
0.094462
0.476683
0.502634
0.090252
0.0180344
0.00389692
0
0
0.0105432
0.0890527
0.305944
0.0814994
0.0191416
0.00091773
0.00171926
0.00040131
0.0036118
0.000527846
0.176657
0.464307
0.0566432
0.00991099
0.000485186
0.00274939
0.000240786
0.00216708
0.00474131
0.195359
0.468533
0.175682
0.0113199
0.0177939
0.0033513
0
0.0097512
0.049359
0.273712
0.468533
0.026524
0.00524828
0.054203
0.00401499
0
0.0164353
0.0712106
0.358677
0.302623
0.0186695
0.00205507
9.0624e-005
0.000808728
0.0010616
0.00271795
0.103413
0.32775
0.0566439
0.00177585
0.00156097
0.00287253
0.0106769
0.0202818
0.165861
0.435181
0.290051
0.337369
0.00529401
0.00426545
0.0493548
0.0147143
0.00928626
0.0167489
0.0985222
0.208324
0.0452979
0.00527063
0.000361767
0.0745274
0.112572
0.0515154
0.170268
0.285255
0.0425348
0.00623342
0.00813256
0.000170271
0.00682248
0.0137943
0.0878291
0.296635
0.190539
0.00984507
0.00760791
0.0180318
0
0.0172943
0.0479915
0.285588
0.405724
0.0821413
0.0287168
0.000561518
0.00274629
0.00766937
0.122167
0.107024
0.12603
0.262663
0.127894
0.0674274
0.000640937
0.00192281
0.0127823
0.073115
0.0669116
0.38111
0.50441
0.131594
0.00892728
0.00917673
0.00997874
0.00437092
0.0198456
0.0418272
0.240974
0.242689
0.0267305
0.035328
0.0101261
0.0102112
0.0230893
0.0120079
0.0350283
0.250654
0.297884
0.0113311
0.0216746
0.000102381
0.000221706
0.00147383
0.00385957
0.0269701
0.357581
0.4495
0.0486016
0.00581256
0.000199355
0.000292507
0.000543228
0.00049873
0.0882184
0.464675
0.348777
0.00627388
0.0412894
0.00746158
0.014727
0.0434248
0.0306715
0.0824266
0.217421
0.138192
0.0125633
0.0260071
0.00753013
0.0307536
0.0598478
0.133324
0.113127
0.0805385
0.0131936
0.0272476
0.0126034
0.000134009
0.00145289
0.00269822
0.0299386
0.214934
0.679763
0.143975
0.00840061
0.0508321
0.0123285
0.0133267
0.0109908
0.153893
0.192831
0.459011
0.0300858
0.0786346
0.0731653
0.0418221
0.0926652
0.085273
0.128271
0.0990312
0.0503042
0.0141238
0.0963288
0.0715768
0.0536491
0.158457
0.297096
0.392345
0.0491545
0.0148623
0.0214563
0.0641439
0.236218
0.180764
0.136239
0.0419697
0.144415
0.129367
0.138424
0.00956091
0.159986
0.270656
0.231772
0.331854
0.242815
0.180907
0.0353132
0.0102202
0.0957453
0.140766
0.100999
0.280144
0.0858358
0.00184596
0.00038856
0.00116939
0.000640458
0
0.0182645
0.267603
0.318257
0.119294
0.030457
0.0563482
0.0277407
0.0236921
0.0157164
0.06092
0.0825717
0.583482
0.261184
0.00667234
0.00448537
0.00321631
0.00393104
0.00314678
0.0154309
0.179406
0.396115
0.143145
0.0921145
0.0495488
0.0471746
0.0595322
0.028082
0.0817679
0.106146
0.0867926
0.11465
0.0842851
0.133838
0.0912199
0.0212244
0.0156624
0.0308828
0.00792919
0.0644736
0.268245
0.364184
0.135376
0.104769
0.00346436
0.00223749
0.00849438
0.0730101
0.112162
0.180314
0.192148
0.0977199
0.0404204
0.0443945
0.026104
0.0343683
0.00380003
0.141588
0.397191
0.582286
0.130373
0.0279503
0.0213669
0.00372915
0.00126668
0.000360117
0.0429831
0.352307
0.137952
0.018648
0.00786893
6.05731e-005
0
0.00144047
0.0156677
0.142565
0.442794
0.100516
0.0872491
0.00849605
0.00217277
0.000543192
0.00845618
0
0.0330788
0.323876
0.399121
0.0503365
0.00453458
0.00379319
0
0
0.000805349
0.0322085
0.409045
0.275995
0.248578
0.03159
0.023332
0.0240664
0.00120803
0.111278
0.230851
0.331043
0.116666
0.14197
0.0136155
0.00844907
0.0374764
0.0777895
0.152832
0.187626
0.120913
0.1689
0.204189
0.0245804
0.00506944
0.0608722
0.117367
0.00961593
0.0356943
0.243273
0.245758
0.336247
0.0851716
0.0930213
0.12165
0.0243818
0.0466522
0.0691163
0.223733
0.384501
0.221652
0.143306
0.0582578
0.143384
0.0765522
0.086514
0.107808
0.0515774
0.0821655
0.16115
0.0391626
0.0236515
0.037144
0.12558
0.0628286
0.0314064
0.0429617
0.0118337
0.0982386
0.145531
0.168362
0.0799561
0.147557
0.170125
0.139598
0.261988
0.312196
0.133112
0.0837585
0.0537162
0.0670551
0.136422
0.256694
0.106528
0.166852
0.169588
0.0693205
0.0998237
0.556814
0.129382
0.144405
0.0178555
0.00492786
0.0241457
0.0209949
0.142228
0.152332
0.171664
0.0610179
0.0349279
0.0356929
0.0267927
0.036745
0.0366321
0.179583
0.153699
0.387873
0.261024
0.0935038
0.0484793
0.0964504
0.182351
0.132569
0.068174
0.107214
0.295326
0.0632271
0.0233139
0.0203465
0.213998
0.297148
0.323428
0.337869
0.146669
0.151576
0.0560716
0.0709806
0.00846295
0.00661362
0.00531892
0.00879817
0.0651044
0.0768653
0.323637
0.167871
0.0359966
0
0
0
0.00216374
0.0181937
0.167852
0.461285
0.107617
0.0100086
0.00444303
0.0409363
0.0428782
0.135118
0.229787
0.123172
0.164353
0.0269979
0.025812
0
0
0.00107472
0.032857
0.107965
0.461285
0.461285
0.0182631
0.00577999
0
0
0
0
0.0103196
0.183201
0.423654
0.0315124
0.00190974
0.0117241
0.00394101
0.0040497
0.00399693
0.068666
0.184621
0.290119
0.0237726
0.0179025
0
0
0
0
0.0905149
0.489473
0.265692
0.00759346
0
0.00211707
0.000257258
0.00541515
0.0294956
0.183581
0.489473
0.140884
0.0315664
0.000907315
0.13348
0.0878243
0.0515998
0.015149
0.135284
0.12456
0.166196
0.0818255
0.0923371
0.323017
0.110851
0.0964554
0.025674
0.022546
0.00248651
0.0195333
0.0842461
0.186744
0.0413344
0.0115217
0.0236846
0.104078
0.258912
0.515342
0.22497
0.210542
0.0936519
0.229809
0.0375047
0.0235559
0.0362878
0.0595025
0.06211
0.131098
0.190312
0.228985
0.0674002
0.554212
0.187029
0.0221261
0.0202682
0.00203874
0.0024918
0.0147387
0.0132935
0.0524597
0.186566
0.132698
0.315604
0.0851128
0.0294321
0.0249082
0.0149514
0.0253863
0.0768078
0.238954
0.217459
0.0560152
0.0637851
0.0627877
0.0200538
0.0115239
0.0134126
0.131829
0.239303
0.244678
0.330959
0.109097
0.102312
0.123479
0.0282825
0.00308219
0.00449316
0.0220446
0.0804389
0.24923
0.054091
0.0123031
0.00850561
0.00288086
0.00312661
0
0.0356662
0.1267
0.518017
0.195185
0.0159259
0.0142101
0.000411551
0
0.0178399
0.0271031
0.0589766
0.250275
0.118327
0.0720341
0.0424195
0.00524224
5.15875e-005
0
0
0.0223741
0.419331
0.518017
0.139529
0.00734986
0.000283775
0
0
0.0104202
0.0989825
0.511176
0.229923
0.00669237
0.0055886
0
0
0
0.00228831
0.0854529
0.258734
0.244387
0.0789355
0.050537
0.042294
0
0
0
0.0041221
0.267929
0.535418
0.115433
0.00170374
0
0
0.00609765
0.0188505
0.00751746
0.0987101
0.286613
0.103557
0.0518599
0.0303624
0
0
0.00121065
0.0398655
0.0973159
0.212329
0.186131
0.250113
0.20932
0.00714795
0.0462056
0.079721
0.103437
0.199478
0.0876411
0.188266
0.242336
0.265146
0.0919831
0.0246859
0.0749528
0.100561
0.0256565
0.0528341
0.125397
0.252978
0.21016
0.00429742
0.0607213
0.176195
0.201327
0.0996519
0.0211157
0.181781
0.300871
0.362337
0.110102
0.142776
0.107654
0.124964
0.179021
0.0249353
0.0379287
0.0362934
0.0619649
0.0732932
0.283252
0.106026
0.0914967
0.122992
0.0411107
0.0424138
0.181234
0.0939411
0.086722
0.246975
0.132269
0.0629711
0.108468
0.00608539
0.0444581
0.0480701
0.152333
0.174062
0.609801
0.171875
0.0268081
0.0587789
0.00586523
0.00586523
0.0159027
0.138767
0.320734
0.0944793
0.171127
0.118999
0.0787113
0.0190135
0.0206646
0.117597
0.0738042
0.0507589
0.0367682
0.391778
0.23649
0.254249
0.113809
0.0127658
0.0229409
0.0332573
0.035683
0.351076
0.142256
0.0254424
0.00727644
0.00196746
0.00449299
0.0342867
0.157703
0.304413
0.112303
0.296245
0.0879563
0.0520383
0.0127413
0.0247405
0.248103
0.307114
0.204184
0.00726711
0.108545
0.0880649
0.189813
0.175142
0.0569735
0.043039
0.00831888
0.00742998
0.000521704
0.000309065
0.00705298
0.0485885
0.377743
0.445011
0.169502
0.000394241
0.000521704
0.0159109
0.0823784
0.0590561
0.0601346
0.0909806
0.0458082
0.162831
0.14489
0.0196783
0.00365193
0.000515109
0.00719881
0.121405
0.602319
0.160279
0.0363381
0.0162005
0.00365193
0
0
0
0.00163717
0.253961
0.327209
0.050419
0
0
0
0
0.002766
0.0162274
0.220544
0.425484
0.0342533
0.00689273
0
0
0
0
0.0850095
0.476946
0.118283
0.0016745
0
0
0
0.0011889
0.0199841
0.170296
0.47373
0.211612
0.0173167
0.00086345
0
0.0201322
0.0128404
0.017914
0.055062
0.190071
0.443403
0.131748
0.04604
0.0207761
0.1153
0.0400992
0.0247924
0.0494827
0.046515
0.0749908
0.0948766
0.0502341
0.0786066
0.0422699
0.023934
0.138408
0.314478
0.386957
0.335738
0.0738315
0.00576148
0.00629539
0.335312
0.115346
0.172934
0.150308
0.0961681
0.146474
0.0381638
0.00554739
0.135534
0.0202267
0.0409521
0.148847
0.0909413
0.0877269
0.136118
0.0559184
0.0821625
0.0242299
0.101832
0.075396
0.113534
0.102697
0.133318
0.17889
0.216452
0.278353
0.0748475
0.0365125
0.00751134
0.0610078
0.101106
0.0835879
0.109914
0.106978
0.17121
0.111374
0.0734733
0.0213402
0.0354213
0.0979205
0.238294
0.151835
0.365963
0.507385
0.243988
0.0286399
0.0114366
0.0187246
0.0698961
0.171702
0.11713
0.0801946
0.0497694
0.0216273
0.00189812
0
0.00253706
0.0736196
0.499315
0.341893
0.0290869
0.00385882
0.00231992
0.0258114
0.00390651
0.0278308
0.0499273
0.190866
0.138508
0.206536
0.0977473
0.0451569
0.00601855
0.00348947
0.0180756
0.0374009
0.254321
0.530794
0.231759
0.0249192
0.00386654
0
0
0.000136535
0.024089
0.371728
0.32288
0.00592736
0.000426509
0
0.00550681
0.0251917
0.0266384
0.0463405
0.222922
0.155174
0.0115012
0.00573552
0
0.00253192
0.00309457
0.000955747
0.00836509
0.153662
0.500169
0.243704
0.0044912
0
0.00114839
0.00994767
0.0294426
0.0717079
0.297868
0.348466
0.283814
0.0025094
0
0.0223925
0.131411
0.176817
0.0881238
0.0922848
0.0188358
0.0239912
0.0373055
0.000932446
0.0661681
0.25472
0.263938
0.168062
0.050493
0.0393821
0.0341594
0.122345
0.0644985
0.0319291
0.099277
0.13731
0.1789
0.423897
0.117253
0.0958857
0.00042444
0.00990681
0.0954773
0.239973
0.177422
0.302092
0.377657
0.0755808
0.279214
0.0367179
0.0607074
0.177896
0.0896627
0.0379472
0.050559
0.00900738
0.0109395
0.00978233
0.0913976
0.161381
0.481026
0.0547903
0.002531
0.00651686
0
0
0.00183047
0.0486975
0.319265
0.155278
0.102844
0.0357107
0.0935053
0.0630517
0.00889309
0.124962
0.041537
0.205103
0.455129
0.0468904
0.0224581
0.0133546
0
0
0.0117998
0.027233
0.465062
0.363405
0.0230243
0.00804989
0.00243084
0.0069891
0.0130545
0.0444615
0.0900697
0.283345
0.133115
0.0196841
0.0167001
0.0179733
0.055135
0.12975
0.275045
0.26114
0.165746
0.367899
0.107881
0.110544
0.0170159
0.0238142
0.0153655
0.044785
0.0666259
0.268008
0.213023
0.203422
0.217968
0.147311
0.207204
0.153634
0.158138
0.14165
0.0995089
0.0137862
0.0048762
0.0110303
0.032125
0.063081
0.144124
0.163093
0.140371
0.012418
0.00171116
5.51155e-005
0.0497531
0.251673
0.402217
0.0893195
0.0341569
0.0187873
0.0012785
0.0710601
0.0766906
0.200621
0.172781
0.154287
0.175741
0.0936214
0.0700649
0.0129427
0.0127716
0.0193181
0.502772
0.434354
0.190134
0.108955
0.0320751
0.00931628
0.00151431
0
0
0.0212676
0.226214
0.351157
0.010432
0.000367418
0
0
0
0.00167312
0.0304065
0.371028
0.276504
0.0205435
0.000292276
0
0
0
0.00869936
0.284949
0.426486
0.153804
0.00462727
0.00198448
0
0
0
0.00189881
0.0918548
0.465896
0.225794
0.0108102
0
0
0
0.00462317
0.00981137
0.0831019
0.283184
0.196472
0.0727975
0.00114156
0
0.000459934
0.0797855
0.0730321
0.0886288
0.109575
0.245566
0.0997022
0.0343552
0.00696757
0.0496185
0
0.00291478
0.042685
0.422341
0.388082
0.0549323
0
0
0
0.0290611
0.0314915
0.0198014
0.154575
0.570954
0.0846526
0.0561172
0.048773
0.0920576
0.111684
0.0629723
0.0318871
0.0738806
0.0327669
0.0294948
0.0912055
0.0765216
0.146099
0.0950588
0.126787
0.134957
0.136438
0.388601
0.171523
0.258896
0.226282
0.235582
0.177179
0.245936
0.0212104
0.0564736
0.00825783
0.00139492
0.0278198
0.0989397
0.146193
0.183499
0.223261
0.187334
0.0368802
0.127851
0.14016
0.161744
0.219483
0.190189
0.00720432
0.013665
0.0490963
0.0270963
0.17669
0.124932
0.162058
0.0804324
0.0179309
0.0106134
0.0122938
0.0215739
0.0152912
0.118175
0.361255
0.39296
0.094269
0.00067821
0.00749065
0.0121001
0.0474866
0.0122217
0.0855477
0.0928889
0.164977
0.140236
0.0213034
0.00603513
0.00737627
0.0162614
0.0302093
0.0810885
0.146478
0.626561
0.241979
0
0.00543846
0.006647
0.00027783
0.00242788
0.0190712
0.173891
0.365105
0.0233924
0
0.000776923
0.000949572
0.00232199
0.0125637
0.0918735
0.13427
0.470359
0.0598433
0.00267517
0.00326308
0.0039882
0.0019156
0.00502512
0.00724478
0.0404503
0.470359
0.0930675
0
0.000466154
0.000569743
0
0
0.0187676
0.0475144
0.470359
0.286384
0.00445862
0.0183595
0.0057343
0.0109427
0.0344802
0.193713
0.11509
0.191981
0.0845319
0.0236702
0.0422066
0.0206867
0.0281522
0.0638074
0.151076
0.0685579
0.318466
0.0996603
0.0988071
0.00253177
0
0.00164386
0.00134498
0.0555238
0.0517352
0.330151
0.471001
0.0662569
0.0171261
0
0.011507
0.00941486
0.0316984
0.0260438
0.168374
0.481614
0.310149
0.103669
0.0302385
0.0139068
0.0306994
0.0250488
0.00651747
0.202696
0.0429198
0.183774
0.412068
0.0507386
0.0261305
0.00530544
0
0
0.0214132
0.0106105
0.300905
0.175545
0.00868579
0.0045782
0.0037458
0
0.00141844
0.0993271
0.17872
0.361435
0.522335
0.0582973
0.0119412
0
0
0
0.0119731
0.0207014
0.337286
0.282885
0.105184
0.0996364
0.00713505
0.00564597
0.00129664
0.00452189
0.00694816
0.103145
0.211101
0.256594
0.215358
0.0821116
0.0751914
0.0130448
0.0121472
0.00986718
0.0526177
0.4593
0.131374
0.0534406
0.0142768
0
0
0
0
0.113597
0.33445
0.427826
0.349399
0.0561258
0.0168605
0
0
0
0.0764333
0.0766853
0.152841
0.238943
0.101268
0.0564265
0.0166161
0.00789789
0.00276443
0.0120126
0.0227784
0.0776889
0.469416
0.165454
0.0214262
0.0127721
0.00553611
0.000310012
0.000429976
0.0695204
0.357349
0.398923
0.0470552
0.0147373
0
0
0
0.0150046
0.018401
0.274704
0.469416
0.0890345
0.00210533
0
0
0
0
0.000177592
0.0214871
0.451437
0.240577
0.0156318
0.00108363
0.000755493
0
0
0.00124314
0.00889982
0.230467
0.408259
0.097796
0.0117765
0
0
0
0.00124314
0.0800406
0.484841
0.107161
0.00162341
0
0
0
0
0.00917694
0.0556015
0.422784
0.150717
0.0465761
0.0190382
0
0.00149349
0.0034848
0.000599511
0.00140553
0.0330217
0.185541
0.299622
0.0446121
0
0
0
0.019366
0
0.000246336
0.061619
0.578015
0.0779215
0.00721492
0.0170455
0.0429202
0.00481919
0.0144207
0.0489673
0.0619887
0.318936
0.0954954
0
0.00195782
0.00456824
0.00285551
0.000165183
0
0.0354849
0.578015
0.128472
0
0.000279688
0.00341918
0.220883
0.262556
0.0230801
0.0239551
0.0156322
0.0244649
0.0459571
0.159842
0.159506
0.197477
0.217577
0.0809083
0.0247825
0.00986633
0.025736
0.352332
0.35266
0.144364
0.104496
0.0869723
0.0324697
0.0760661
0.110354
0.158235
0.143482
0.0469075
0.0517886
0.0730346
0.0893191
0.0443188
0.149827
0.111076
0.0468506
0.260846
0.249187
0.0614156
0.0284251
0.0122205
0.0291271
0.0296806
0.0547079
0.07186
0.248771
0.193776
0.0375241
0.0357843
0.00518589
0.0242924
0.0832264
0.0960445
0.20496
0.630587
0.270682
0.01979
0.0461329
0.0207717
0.0114927
0.0327456
0.0321531
0.0166541
0.13955
0.170021
0.10687
0.0738188
0.0241532
0.0220775
0.0278617
0.0397122
0.0905015
0.324342
0.211633
0.120008
0.00616721
0.000266628
0.00296212
0.00864799
0.00786438
0.0334463
0.404004
0.136889
0.00245027
0.00273247
0
0
0
0.00335719
0.0284395
0.557776
0.373312
0.0608973
0.0185266
0.00658375
0.00559383
0.00204207
0.00949586
0.0215345
0.20099
0.140622
0.0118367
0.0379169
0.00236202
0.00412997
0.00915497
0.0105893
0.0218096
0.315106
0.316756
0.20899
0
0
0
0
0.00348021
0.02445
0.171794
0.362946
0.122725
0.0115765
0
0
0
0.00199235
0.0172739
0.0436551
0.466649
0.385529
0.0207933
0.0034579
0.00677573
0.0265063
0.00147139
0.028953
0.178851
0.194795
0.215087
0.169531
0.0467816
0.0157817
0.0230781
0.000589999
0.0335362
0.147932
0.316737
0.365313
0.11056
0.00195381
0
0
0
0.00162857
0.00592788
0.124943
0.325618
0.439639
0.0967635
0
0
0
0
0.000504863
0.0114387
0.227387
0.264135
0.028644
0.00377096
0.00121355
6.3871e-005
0.00350002
0.0125733
0.101763
0.381151
0.445048
0.119128
0
0
0
0
0
0.0104333
0.358932
0.333966
0.173347
0.00747362
0.00415987
0
0
0
0
0.0380677
0.219057
0.400727
0.15224
0.0101295
0
0
0
0
0.0107771
0.420222
0.210638
0.00745542
0
0
0
0
0
0.0722863
0.397143
0.420222
0.149814
0
0.00237929
0
0
0
0.0188733
0.0555819
0.361532
0.234072
0.00549475
0
0
0
0
0.00192791
0.0196615
0.351677
0.425824
0.0153337
0.0021562
0.00011431
0.000212291
0
0
0.127901
0.425824
0.183072
0.00209679
0.0103916
0.000297294
0
0
0.00559952
0.0519299
0.425824
0.212613
0.029187
0.0459778
0.00895698
0.00267697
0
0.00016877
0.00145076
0.253406
0.721372
0.0555763
0.0149808
0.000730975
0.00135753
0
0
0.00891537
0.0760254
0.334094
0.103692
0.0798423
0.0152944
0.000814516
0.00296394
0.00691586
0.00896885
0.256974
0.260177
0.0733399
0.104773
0.0342747
0.0155293
0.000169019
0.00107922
0.00412745
0.0200988
0.0899192
0.11719
0.170778
0.053593
0.0197645
0.0103052
0.00163551
0.0034023
0.010711
0.0209435
0.0653142
0.23896
0.0376675
0
0.00205826
0.00480261
0.00025418
0.000472049
0.00510733
0.0804465
0.60615
0.0404076
0
0.000294038
0.000686087
0.00106756
0.0024971
0.0187337
0.103293
0.326698
0.0291905
0.0032497
0.00663693
0.000686087
0.000152508
0.00028323
0.00851221
0.118201
0.60615
0.0353064
0.000412621
0.000904955
9.80124e-005
0.00320168
0.00800459
0.00362697
0.0345247
0.0572299
0.14747
0.272534
0.0232482
0.0124753
0.0210953
0.0324342
0.0178674
0.0882759
0.079104
0.133599
0.163483
0.0548802
0.0191939
0.00850331
0.0267379
3.29722e-005
0.0041936
0.0136154
0.228862
0.540697
0.115996
0.0337648
0.230495
0.0902116
0.00703215
0.0201087
0.0271464
0.228564
0.424497
0.159657
0.026925
0.0600505
0.0713194
0.027095
0.0250034
0.0148603
0.0183337
0.0390635
0.0602005
0.0674941
0.113241
0.202882
0.0677928
0.0017977
0
0.00238009
0.139692
0.0853261
0.0741717
0.339895
0.251347
0.014858
0.00841042
0.00621346
0.0320315
0.0569949
0.0638223
0.0293819
0.447717
0.602947
0.0619152
0.00107862
0
0.000340013
0.0103547
0.0177538
0.0231855
0.0851062
0.10578
0.0625878
0.0179352
0.00853432
0.00579965
0.120307
0.102454
0.0250665
0.236517
0.045601
0.0953846
0.0675058
0.029153
0.0346871
0.190502
0.219372
0.394723
0.180757
0.222009
0.0980143
0.0930588
0.0525757
8.67994e-005
0.00946376
0.0146886
0.0145552
0.277963
0.0770725
0.154465
0.467466
0.250964
0.0433895
0.0223736
0.0253077
0.21067
0.0681424
0.0142518
0.0239968
0.102742
0.03822
0.0373568
0.0927556
0.0775067
0.181784
0.244411
0.169656
0.0886087
0.210187
0.0605204
0.0274941
0.0931053
0.0991991
0.162448
0.0876768
0.0123621
0.0235664
0.364721
0.227885
0.0653761
0.0140681
0.0154627
0.0922508
0.156238
0.10946
0.0943706
0.56392
0.309402
0.118724
0.0107006
0.0104951
0.0901273
0.321891
0.101671
0.040244
0.0458541
0.00981074
0.000892531
0.0080925
0.0242397
0.218219
0.49256
0.0396379
0.00507511
0.00155257
0.000492688
0
0
0.00304857
0.371555
0.241578
0.0764505
0.0533958
0.123143
0.0549845
0.0250231
0.000539259
0.000359506
0.155774
0.406666
0.0201507
0.00845852
0.0043394
0.00344881
0
0
0.00829501
0.356288
0.509571
0.0879463
0.00291438
0
0.000542122
0.00162637
0.00114489
0.00516658
0.147902
0.47045
0.273772
0.0928195
0.00365843
0.0139716
0.0113846
0.00190814
0.00493177
0.0905542
0.311824
0.00938867
0
0
0.000903537
0.00271061
0.0080142
0.0361661
0.251775
0.318589
0.026086
0.00646069
0.00892277
0.0158213
0.0189743
0.013357
0.0345224
0.283814
0.207414
0.394896
0.182511
0.0226521
0.0707031
0.0186815
0.000466935
0.000700402
0.0755425
0.0551874
0.277628
0.0729489
0.0739044
0.158801
0.0762914
0.0196551
0.0244836
0.0196745
0.359329
0.0273558
0.0176851
0.0339017
0.0508613
0.0289169
0.00326854
0.00490281
0.339002
0.368241
0.0282276
0.00686789
0.0523263
0.083244
0.0708954
0.0218342
0.040806
0.3955
0.0271901
0.0793464
0.0314143
0.0806092
0.154749
0.12444
0.0562554
0.0572262
0.0204927
0.0127764
0.0138403
0.040822
0.0667572
0.185327
0.133811
0.119911
0.0886724
0.00939805
0.421678
0.147145
0.0618986
0.0919269
0.0672482
0.0827986
0.0528731
0.0944878
0.272057
0.540025
0.241762
0.20617
0.0794138
0.0647474
0.06123
0.120354
0.0957939
0.103903
0
0.00223823
0.0106392
0.0422343
0.304213
0.0617601
0.0234616
0.0296359
0
0
7.10226e-005
0.00284347
0.0415382
0.634585
0.184046
0.0295276
0.029287
0.0105743
0.13625
0.0390293
0.0712169
0.0586313
0.210242
0.0685344
0.0359599
0.0269968
0.0260131
0.0852463
0.0109899
0.0404274
0.0460453
0.397633
0.348142
0.106077
0.0643151
0.108034