0
0
0
0
0
0
0
0
0
0
0
0
0
0
0
0
0
0
0
0
0
0
0
0
0
0
0
0
0
0
0
0
0
0
0
0
0
0
0
0
0
0
0
0
0
0
0
0
0
0
0
0
0
0
0
0
0.00415752
0.00178179
0
0
0
0
0
0.211107
0.531296
0.0291026
0.0124725
0
0
0
0
0.0311115
0.00137989
0
0
0
0
0
0
0
0.00137989
0.0209617
0.00791472
0
0
0.0282759
0
0
0
0.012697
0.0632427
0.236052
0.0109547
0.000331239
0
0
0
0
0.0119052
0.448241
0.805885
0.0329479
0
0.0131993
0
0
0
0.0892001
0.0286904
0.0290092
0.00217698
0.0052863
0.0413509
0.0165792
0.00328149
0
0.00825561
0.106301
0.0477967
0.0114657
0.0370041
0.0622779
0.0276321
0.00546916
0
0.0861241
0.327402
0.491283
0.0096882
0.00154494
0.0165223
0.0038441
0.0019689
0
0.0352032
0.521085
0.504231
0.0092086
0.0108146
0.0177851
0.00640683
0.00328149
0
0.202751
0.102244
0.00761516
0.00337816
0.0116607
0.028514
0.00320326
0.000634014
0
0.108071
0.131611
0
0
0
0.00388169
0
0
0.00391331
0.171475
0.501546
0.081136
0.00125769
0.00340787
0.00675213
0.000742713
0.000380408
0
0.344146
0.501546
0.000969516
0
0
0.000945282
0
0
0.0288313
0.501546
0.068897
0
0
0
0
0
0
0.0189268
0.132334
0.0287376
0
0
0
9.47204e-005
0.000159199
0.00143279
0.0319948
0.0929182
0.182184
0
0
0
0
0
0
0.177691
0.531272
0.0543713
0
0
0
0.000157867
0.000265332
0.00238799
0.531272
0.531272
0.00964517
0
0
0
0.000423429
0.000261808
0.00235627
0.0141792
0.0446405
0.00458118
0
0
0
0.000254057
3.74011e-005
0.000336611
0.000639699
0.00843537
0.0419727
0
0
0
0.000705715
0.000436347
0.019667
0.665056
0.477412
0.0333875
0
0
0
0.000423429
6.23352e-005
0.0384797
0.480243
0.163141
0.00262561
0
0
0
0
0
0
0
0.00262561
0
0
0
0
0.0582987
0.0193336
0.0105284
0.00949091
0.00167487
0.0309416
0
0
0
0
0
0.0827025
0.786229
0.17236
0.00268684
0
0
0
0.0211434
0
0.0044206
0.0632938
0.0150094
0.00883094
0.0206969
0.040244
0.062767
0.112141
0.0470959
0.0627349
0.0983692
0.0153728
0.0946931
0.23869
0.164073
0.177802
0.154506
0.12478
0.235338
0.195151
0.0960338
0.0215976
0.027985
0.00946167
0.0197122
0.173182
0.0319461
0.0090962
0.0441144
0.0151962
0.174296
0.21699
0.0529425
0.0409539
0.405678
0.141516
0.138331
0.236029
0.214856
0
0
0
0
0
0
0
0
0
0
0
0.0110832
0.00195586
0
0
0
0
0
0
0
0
0
0
0
0
0
0
0
0
0.554925
0.152929
0.275895
0
0
0
0
0.00289122
0.00838606
0.0143696
0.000496795
0
0
0
0
0
0.0194864
0.179116
0.159538
0.00168017
0
0
0
0
0.00138716
0.00481869
0.0695649
0.282864
0.0292114
0.0145739
0
0
0
0
0.013927
0.62578
0.63329
0.0259534
0.00208199
0
0
0
0.000198165
0.0245899
0.272123
0.12643
0.000310458
0
0
0
0
0.00199962
0.162879
0.439289
0.0921799
0
0.000336192
0
0
0
0.0127257
0.00843919
0.439289
0.439289
0.00108316
0
0
0
0
0.000110629
0.0799916
0.439289
0.228789
0.000720514
0
0
0
0
0.00225124
0.261644
0.414398
0.0138482
0
0.000822628
0
0
0
0.0172665
0.427899
0.264995
0.00226136
0
0.000453707
0
0
0
0.0679584
0.156145
0.424103
0.040637
0.0020842
0
0
0.000633296
0.00197378
0.0169165
0.427899
0.257892
0.00637239
0.00133448
0
0
0.00443307
0.00473717
0.0562997
0.401467
0.0479541
0.000322546
0
0
0
0
0
0.164231
0.29721
0.000888398
0
0
0
0
0
0.010552
0.440211
0.42922
0.0396769
0.0016813
8.84894e-005
0
0
0.00206664
0.00125727
0.142318
0.289659
0.00215493
0.000240186
1.26413e-005
0
0
0.00155312
0.00470672
0.440211
0.0827169
0
0
0
0
0
0
0.0775139
0.416116
0.0385571
0
0
0
1.61745e-005
2.7185e-005
0.00255743
0.384307
0.416116
0.0864789
0.00291881
0
0
6.9686e-005
0.000627175
0.00253696
0.0842045
0.416116
0.0525249
0.00175128
0
0
0.000487802
0.00439022
0.0478809
0.416116
0.290719
0.0116575
0
0
0
4.03647e-005
2.49577e-005
0.0339686
0.420577
0.176387
0.00583484
0
0
0
2.42188e-005
3.56538e-006
0.166916
0.420577
0.061746
0.010083
0
0
0
0.00016475
0.00161022
0.0906139
0.420577
0.0770496
0.000466557
0
0
0
0
0.00112976
0.414668
0.420577
0.0230456
0.00168791
0
0
0
5.28577e-005
0.00012956
0.175525
0.26418
0.0144304
0.000362297
0
0
0
0.000435923
0.000906923
0.060082
0.054834
0.00195025
0.000221343
0
0
0
8.80962e-005
0.00567154
0.535013
0.488331
0.00423897
0.000152438
0
0
0
0.00147118
0.0447265
0.535013
0.163653
0.000957703
0.00461546
0.0128554
0
0
0.137097
0.0102106
0.0370361
0.0130983
0.00285956
0.0327726
0.103885
0.0405559
0.00677654
0.390404
0.0727736
0.106755
0.0867545
0.0301053
0.00243007
0.00183649
0
0
0.133053
0.136861
0.650846
0.0533084
0.00465824
0.0368325
0.0896153
0.0680406
0.0112942
0.325686
0.0484838
0.127035
0.132756
0.0436535
0.00581455
0
0.000292042
0.00165491
0.000630293
0
0
0
0.0119162
0.000745282
0
0.171913
0.106246
0.0452517
0
0
0
0.00188461
0.12385
0
0.00716406
0.0423991
0.0111789
0.0534083
0.0439992
0.117351
0.200981
0.00505292
0
0.564486
0.69814
0.0456425
0.0363324
0.0174036
0.0404287
0.0255993
0.000365508
0.0298202
0.331256
0.080839
0.0179676
0
0
0
0
0.00060918
0.203149
0.44132
0.0736532
0.00246869
0
0
0
0
0
0.00554648
0.44132
0.36105
0.0113133
0.000383632
0.000127877
0
0
0
0.0484022
0.44132
0.273905
0.00153278
0
0
0
0
0.00055226
0.258798
0.389334
0.020842
0.000323316
0.000174093
0
0
0
0.0179739
0.406333
0.264084
0.0154572
0.00226321
0.00121865
0
0
0.000378806
0.00332443
0.123359
0.438849
0.13437
0.00624887
0.00121865
0
0
0
0.0134187
0.256102
0.422815
0.16814
0.0393007
0.00853056
0
0
0
0.0892942
0.460359
0.132797
0.0325583
0.00334958
0.000654999
0.00713706
0.0126415
0.0392511
0.321318
0.277813
0.0387613
0.0287396
0.0366569
0.00371856
0.0499595
0.0460634
0.0767514
0.0669752
0.241003
0.393447
0.23346
0.0644599
0.00458499
0.00873846
0.0112309
0.0472311
0.0957769
0.158687
0.313953
0.207701
0.200973
0.0061976
0.0611692
0.05316
0.0810263
0.484227
0.073522
0.0152463
0.0121126
0.0471393
0.00644022
0.0356044
0.0258677
0.15454
0.334885
0.015846
0.0109533
0.0128908
0.0338192
0.00972688
0.0196428
0.0220568
0.540424
0.116915
0.103673
0.161139
0.102338
0.193836
0.0121104
0.0618946
0.048095
0.116954
0.120273
0.0481959
0.0466807
0.0303902
0.139412
0.0899606
0.189484
0.0800347
0.181616
0.10384
0.0135995
0.0126586
0.0189879
0.0257447
0.0197089
0.0102741
0.105523
0.274238
0.104876
0.0081597
0.00759517
0.0113928
0.0140922
0.0459011
0.137315
0.517169
0.188571
0.0824188
0.0081597
0.0210977
0.0316465
0.135905
0.158118
0.129446
0.0775439
0.0430568
0.121399
0.00489582
0.0126586
0.0189879
0.094556
0.325787
0.459975
0.286948
0.0956891
0.0110414
0
0
0
0.000891514
0.0163872
0.1846
0.36572
0.0279966
6.93134e-005
0
0
0
0
0.0125819
0.444871
0.323614
0.00781025
0.0121456
0
0
0.000701158
0.0320082
0.180455
0.352029
0.198489
0.0234795
0
0
0
0.0011686
0.0291758
0.134818
0.493703
0.137827
0.00188254
0
0
0
0
8.13218e-006
0.0207324
0.437229
0.114064
0.00221689
0
0
0
0
0.00337585
0.0976761
0.437229
0.0501284
0.0002884
0
0
0
0.000655788
0.00318702
0.106748
0.411484
0.0180474
0.00123294
0
0
0
0.00378407
0.0115719
0.420111
0.437229
0.00654946
0.00017304
0.00166313
0.000589897
0.000313333
0
0.0248565
0.142195
0.392204
0.00877123
0.00126894
0.0173821
0.0111698
0.0047234
0.000381092
0.026399
0.0327529
0.025634
0.0139681
0.0169277
0.00185727
0.00235043
0.00232905
0.00529172
0.0927527
0.604719
0.548933
0.00157162
0.000276235
0.0142778
0.016453
0.0163033
0.0180502
0.129213
0.249339
0.0807638
0.0108836
0.0103862
0.0689873
0.000893865
0.0172808
0.0524906
0.10295
0.082536
0.0493397
0.0873913
0.0898183
0.000956936
0.00148978
0.225458
0.485872
0.0708611
0.0531994
0.0153681
0.0247878
0.00899037
0.0210253
0.00148978
0.0316181
0.208062
0.384711
0.0575746
0.0284325
0.033135
0.0194737
0
0.00248296
0.113911
0.485872
0.405096
0.036545
0.00738822
0.00813458
0.000930471
0
0.000191571
0.238412
0.449451
0.0203121
0.00121326
0.000595561
0.000764563
0
0
0.00190365
0.270547
0.376965
0.00936632
0
0.000114684
0.000458737
0
0
0.000319286
0.0661502
0.449451
0.192837
0.00708431
0.00195754
0.00535194
0
0
0
0.116935
0.449451
0.146802
0.00381381
0.00102893
0.00321116
0
0.00514346
0.0342413
0.360547
0.321381
0.0372569
0.00910237
0.000849224
0
0
0.010222
0.0649236
0.274512
0.321755
0.149521
0.129002
0.0328994
0.00237273
0
0.00162372
0.00176127
0.132519
0.425991
0.11976
0.0330183
0.00777194
0.000251378
0.00226241
0.00270619
0.00293545
0.0469361
0.157248
0.148098
0.38967
0.248612
0.0678077
0.00377068
0.00898037
0.0477831
0.194431
0.233951
0.091478
0.120348
0.0714397
0.00963517
0.0160554
0.0177233
0.135589
0.287554
0.179405
0.0950387
0.0647641
0.0704768
0.021592
0.0860377
0.00156493
0.00331407
0.0245317
0.0923469
0.0572078
0.300752
0.365541
0.239964
0.0486303
0.0587293
0.268043
0.100061
0.0966167
0.0259829
0.117186
0.260284
0.289727
0.325637
0.0370967
0.102775
0.183382
0.0737261
0.0382489
0.00874651
0.0403599
0.0365792
0.107583
0.0502802
0.025256
0.064433
0.0280223
0.0260418
0.0517647
0.270444
0.135243
0.13768
0.0767829
0.317597
0.136316
0.099806
0.0227755
0.0110696
0.0667866
0.15935
0.235684
0.0810812
0.0794757
0.0643187
0.0547755
0.0129947
0.0197652
0.348822
0.563815
0.271997
0.038296
0.0265184
0.0240387
0.0123979
0.0482366
0.121626
0.208468
0.116474
0.0451233
0.0288841
0.0596994
0.0776697
0.0710616
0.0782382
0.300283
0.293699
0.0968045
0.0270419
0.146362
0.142071
0.0787452
0.021664
0.00191209
0.0379907
0.176082
0.356773
0.192913
0.101166
0.309277
0.501265
0.172178
0.0422125
0.109137
0.0495668
0.0460833
0.0878736
0.00286311
0.0257403
0.0400104
0.076276
0.147438
0.281526
0.221924
0.0425037
0.00558046
0.00485633
0.00265338
0.00428895
0.0468119
0.134219
0.268655
0.527746
0.0273659
0.00485633
0.00557005
0.10758
0.378075
0.2528
0.146743
0.0907408
0.0215918
0.00155871
0.00115627
0.00937613
0.00902963
0.0632576
0.155345
0.203131
0.266407
0.131073
0.00215658
0.00809388
0.00116027
0.000277546
4.89788e-005
0.00429772
0.0150383
0.234605
0.284865
0.0025168
0.00116027
0
0.00194282
0.000342852
0.0144264
0.0530008
0.491917
0.215447
0
0
0.00204649
0.000639382
0.000962173
0.00718554
0.136139
0.381515
0.0922707
0.000515251
0.00193379
0
0.00323804
0.000571419
0.0122987
0.326643
0.491917
0.0452663
0
0
0.000143152
0.00109641
0.000709034
0.0063133
0.112377
0.4547
0.116903
0
0
0.0026461
0.00391584
0.0110359
0.0114488
0.14666
0.241963
0.0481438
0.00206618
0.000642793
0
0.00104993
0.00019758
0.00417073
0.389848
0.4547
0.0268821
0
0
0.014413
0.00395176
0.0115041
0.00163554
0.36287
0.383507
0.0268113
0
0.0012683
0
0.000173398
0.00599512
0.183317
0.295379
0.0138165
0.000530241
0.00034438
8.60948e-005
0
0.000288997
0.010719
0.303457
0.435326
0.0687356
0.000505045
0.000655596
0
0
0
0
0.206874
0.424446
0.0855662
0
0
0
0
0
0.000314269
0.162769
0.439444
0.314872
0.000204688
0
0
0
4.99998e-005
0.00394381
0.204162
0.325238
0.0632327
0.00175505
0.00227822
0
0
0
0.0153038
0.239944
0.374482
0.0303598
0.00105303
0.00136693
0
0
0
0.00109209
0.074968
0.485856
0.228457
0.00201577
0
0
0
0
0.000717386
0.0415798
0.485856
0.264062
0.0127892
0
0
0.00683141
0.000425858
0.0232778
0.251418
0.340142
0.0366393
0.00678463
0.0011188
0.004765
0.0256137
0.0394695
0.0267737
0.0297147
0.0554801
0.227533
0.253511
0.15307
0.00989851
0.00702942
0.000834142
0.0288341
0.0532955
0.494936
0.268548
0.0212152
0.00198302
0.00517797
0.0354291
0.25324
0.419178
0.116408
0.0532312
0.0476928
0.0368287
0.0655954
0.0118914
0.0430915
0.0455843
0.0119668
4.79596e-005
0.00478222
0.0809192
0.173647
0.277395
0.0358638
0.177981
0.215506
0.00860703
0.00771105
0.00271669
0.0192548
0.0932026
0.302619
0.253402
0.117545
0.281923
0.215009
0.0222815
0.00170853
0.00344211
0.0179904
0.0978152
0.0203016
0.514063
0.288019
0.0805154
0.0022492
0
0.00026556
0.00500124
0.0965146
0.26843
0.120012
0.207535
0.00987777
0.0175346
0.00617763
0.00103269
0.0117082
0.117506
0.171814
0.114326
0.0690557
0.00592666
0.0105207
0.00370658
0
0.0490019
0.393017
0.258086
0.341203
0.0900714
0.00410427
0
0
0
0
0.0364487
0.349056
0.327181
0.0257997
0.000935136
0
0
0
0.00178393
0.130871
0.486355
0.152147
0.0786867
0.0411884
0.00843587
0
0
0.0268948
0.22605
0.254278
0.113383
0.243744
0.314626
0.0521295
0.00245406
0
0.0138044
0.0641679
0.113237
0.173177
0.0241214
0.00615704
0.000900633
0
0
0.0437081
0.193502
0.487178
0.0630415
0.113101
0.0535867
0.00440396
0.00175061
0.0316362
0.291519
0.384471
0.220626
0.0239258
0.214078
0.478965
0.172402
0.0314068
0.00374525
0.0228169
0.0413556
0.00892598
0.00831362
0.0233959
0.0925341
0.131576
0.237908
0.145915
0.0158523
0.00227915
0.00188522
0.0174019
0.132447
0.0864193
0.0182435
0.0183844
0.153117
0.450648
0.302665
0.027872
0.00431533
0.018964
0.0335284
0.237573
0.264833
0.121828
0.0837508
0.0197557
0
0.000630255
0.000602676
0.00157066
0.026777
0.265395
0.165442
0.0045517
0
0.000290361
0
0.000486195
8.57993e-005
0.0484733
0.485674
0.22263
0.00221716
0
0
0.000286414
0.000443647
0.00927875
0.248973
0.315997
0.0282395
0.000667457
0
0
0.000577341
0.000866011
0.00418695
0.36701
0.513368
0.0446035
0
0
0
0
0.000134091
2.36631e-005
0.0334601
0.406506
0.188998
0.000515396
0
0
0.00938983
0.00416768
0.00173382
0.0276598
0.419313
0.177363
0.00258597
0.000779493
0.00119688
0.000159228
0.000238842
0
0.293888
0.44298
0.043413
0
0
0
0.00461215
0.00203153
0.000459308
0.250662
0.44298
0.0480162
0.0052027
0.00545645
0.00209352
0.00890829
0.00293307
0.0187269
0.0937417
0.393259
0.0998761
0.0469795
0.00359445
0.0196732
0.0139876
0.00488845
0.0434311
0.0769155
0.460428
0.34261
0.0287837
0.00150707
0.0164577
0.0777662
0.0704046
0.0522027
0.0611276
0.252157
0.0525504
0.112195
0.0220979
0.191148
0.115829
0.0474571
0.151356
0.0653507
0.330801
0.301279
0.118256
0.0632944
0.212289
0.00208882
0.000756147
0.0135499
0.0400833
0.333769
0.247572
0.0180958
0
0.00112475
0
0
0.00183967
0.00750796
0.201258
0.393452
0.111811
0
0
0.0167173
0.00126025
0.0523734
0.0250902
0.197721
0.354683
0.128303
0.0251017
0.0256906
0
0
0.0011038
0.00174768
0.0544987
0.488574
0.375589
0.00252364
0
0.000335027
0.00010995
0.0149153
0.026059
0.126746
0.260303
0.0790827
0.000267002
0.0008443
0.00229338
0.0843066
0.277301
0.178488
0.108328
0.0633477
0.0104757
0.000802938
0.00164579
0
0
0.00373294
0.0212376
0.107801
0.39965
0.432861
0.0320591
0
0
0.0187926
0.127105
0.168328
0.307555
0.337982
0.322454
0.0610781
0
0.0597998
0.19068
0.331558
0.130011
0.0302797
0.0246014
0.00954137
0.00302507
0.00534733
0.391761
0.187085
0.163569
0.058994
0.00308763
0.00953533
0.0159023
0.0139622
0.165847
0.0149582
0.0401172
0.181621
0.15968
0.111336
0.220284
0.333505
0.0869359
0.011975
0.194942
0.0692587
0.116376
0.0909778
0.0137805
0.0681173
0.279598
0.223674
0.300809
0.280426
0.0242833
0.0103381
0.00254204
0
0
0.00167025
0.0036674
0.263177
0.284725
0.00191049
0
0
0
0
0.00380361
0.0279448
0.439957
0.222489
0.0150629
0.00951691
0.00423674
0
0
0.0226647
0.0510878
0.358363
0.402654
0.0174082
0
0
0
0
0.00228217
0.0137659
0.428496
0.132631
0.00638366
0.00732612
0.00391713
0.000893828
0.00498779
0.096081
0.200686
0.305013
0.0156075
0.00591989
0.0181765
0.0209922
0.0351057
0.139356
0.42282
0.355027
0.0994652
0.306563
0.105629
0.0891928
0.0356509
0.0062568
0.00831299
0.0645418
0.117236
0.208295
0.0812925
0.127001
0.275706
0.255103
0.119693
0.145476
0.217353
0.157506
0.0367178
0.000380294
0.00285022
0.0137479
0.0159086
0.0935068
0.228026
0.277361
0.10625
0.00441498
5.43277e-005
0.000724992
0.101987
0.20675
0.102323
0.118244
0.0422709
0.0054215
0
0
0.0411607
0.214062
0.215923
0.262936
0.186539
0.105946
0.0254094
0
0
0.0413253
0.61307
0.295495
0.170576
0.0823426
0.00951225
0.000304462
0
0.000209665
0.000314497
0.0835331
0.317485
0.0824778
0.00432935
0.000508301
0
0
0.00146765
0.00220148
0.0396795
0.47872
0.218389
0
0
0
0
0.000125799
0.00501519
0.364316
0.326831
0.0189596
0.00295167
7.0256e-005
0
0
0.000880593
0.00132089
0.13351
0.523222
0.152789
0.0178978
0.01112
0.00196235
0
0.000513124
0.000770744
0.0195282
0.491609
0.252266
0.000864062
0
0
1.42732e-005
0.00231571
0.000157282
0.0140252
0.373613
0.253385
0.00775365
0.00220592
0.00231351
0.00231571
0.000844483
0.000486414
0.0526916
0.491609
0.228958
0.0266403
0.0296893
0.0226578
0.00328241
0.0108993
0.000262137
0.0305546
0.328315
0.176045
0.0198605
0.0196922
0.032506
0.0317208
0.0571032
0.0874525
0.0293184
0.157607
0.208498
0.0102758
0.0536604
0.0171556
0.147202
0.0819858
0.0534041
0.0674385
0.106562
0.0920342
0.177991
0.263186
0.102835
0.200369
0.00847448
0.0123683
0.00901096
0.218263
0.537697
0.0320486
0.0321396
0.00865269
0.0198912
0.0126583
0.00742099
0.0187336
0.141249
0.254532
0.194732
0.424168
0.108498
0.0424275
0.00950424
0.000185717
0.0193483
0.0105895
0.0309278
0.241186
0.24146
0.0510053
0.0246029
0
0
0
0
0.0196486
0.269596
0.375921
0.0263197
0
0.00150828
0
0.00766566
0.00844461
0.012239
0.229722
0.473648
0.0963881
0.00807384
0
0
0.000877548
0.000154861
0.00326777
0.162174
0.523196
0.158984
0
0
0
0
0.00119483
0.0182991
0.109564
0.345273
0.0704608
0
0
0.00107955
0.00323866
0.0109382
0.0598
0.154734
0.449772
0.153226
0.00984394
0.000768528
0
0
0
0.000256048
0.0299656
0.360988
0.168116
0.00559611
0.00711188
0
0
0
0
0.0323407
0.449772
0.448154
0.0418331
0.000549385
0.0013914
0.00599691
0.0124417
0.0231276
0.0918369
0.329095
0.146405
0.0741366
0.0561868
0.00222727
0.0049865
0.00795673
0.00304662
0.0191441
0.172454
0.188279
0.325234
0.00376635
0
0
0
0
0.0176757
0.221882
0.462371
0.168722
0.0648213
0
0
0
0
0.00151257
0.0552256
0.349936
0.462371
0.144595
0.000739939
0.000593771
0.000485812
0
0
0.0135711
0.0408364
0.300545
0.323814
0.00982865
0
0
0
0
0
4.27592e-005
0.319649
0.181425
0
0
0
0
0
0.00280084
0.0546259
0.446909
0.446909
0.0221337
0
0
0
0
0
0.00353784
0.446909
0.298539
0.0980507
0.0575557
0.014685
0.00184523
0.000901905
0.00283315
0.00579373
0.139545
0.130293
0.245268
0.259555
0.136576
0.0351862
0.0112479
0.00953207
0.00965622
0.0203643
0.475811
0.161978
0.0147692
0.000942638
0
0
0
0.000415877
0.212543
0.3043
0.500327
0.14244
0.0180447
0.00272623
0
0
0
0.0459719
0.00603551
0.148216
0.243131
0.118022
0.0657357
0.0093883
0.00267229
0.00126614
0.000145839
0
0.129024
0.477381
0.0894051
0.0406988
0.00352625
0
0
0
0.0463921
0.477381
0.235777
0.0233576
0.00717996
0
0
0
0.00129939
0.00706142
0.367217
0.421478
0.0192403
0.00430798
0
0
0
3.97885e-005
0
0.0286316
0.372892
0.138222
0.00629262
0.000256879
0
0
0
0.00483316
0.0114515
0.177538
0.480043
0.118229
0.0533304
0.0331344
0.0210848
0.0462498
0.000451229
0.154255
0.407295
0.0500135
0.000612841
0
0
0
0
0.0396691
0.177377
0.499363
0.152024
0.0323452
0.0319983
0.0198806
0.0289043
0.0812932
0.0120327
0.00577342
0.0359837
0.267937
0.149783
0.0544302
0.0769691
0.110937
0.134636
0.031453
0.000595093
0.00734465
0.0641138
0.0758347
0.0228454
0.0498879
0.230775
0.331403
0.090627
0.0808158
0.143502
0.0454674
0.0324699
0.0281372
0.0453837
0.140908
0.302417
0.0682706
0.0161383
0.0184583
0.00191086
0.0206666
0.0196866
0.0854127
0.486774
0.486774
0.000218135
0
0.00111013
0.0935681
0.568064
0.0742283
0.0183575
0.0140389
0.00525633
0.00962293
0
0.0221381
0.0412274
0.240361
0.194266
0.166526
0.0822472
0.0503257
0.0418006
0.00236169
0.00200158
0.0662277
0.448218
0.177599
0.0783803
0.0420493
0.0411906
0.224813
0.00393616
0.0121727
0.0049322
0.135376
0.154682
0.0895361
0.0912102
0.335971
0.0100987
0
0.0180753
0.0049103
0.00510106
0.146547
0.292865
0.0610092
0.0337381
0.00416488
0
0.0025507
0.000450124
0.000111269
0.0942934
0.514758
0.202936
0.0142893
0.168932
0.000468818
0.0107129
0.00189052
0.000336123
0.0452766
0.128164
0.0420998
0.350786
0.173764
0
0.00153042
0.000270074
0
0.0507337
0.395098
0.196776
0.346103
0.00513421
0
0
0
0
0.0212862
0.307852
0.233271
0.0273833
0.0308815
0
0
0
0
0.00369127
0.170912
0.483465
0.0917794
0.102217
0.00407069
0
0
0
0.0347102
0.30493
0.222769
0.167293
0.104392
0.0284948
0
0
0
0.0177155
0.124718
0.513048
0.22458
0.0173446
0.0014259
0.000611102
0
0
0
0.0391839
0.372111
0.147744
0.063024
0.00237651
0.0010185
0
0
0
0.00626096
0.300619
0.449946
0.061843
0.0112934
0.0010185
0
0
0.00098958
0.0109349
0.280182
0.327197
0.0960916
0.00396084
0.0016975
0
0
0
0.000996655
0.183383
0.508262
0.122256
0.000292777
0.000125476
0
0
0
0.000423688
0.0581037
0.395986
0.382728
0.0292598
0
0
0
0
0
0.00620706
0.367943
0.134182
0.00326837
0.000209126
0
0
0
0
0.0571584
0.439401
0.406191
0.0398571
0
0
0
0
0
0.0143569
0.338907
0.406964
0.136964
0
0
0
0
0
0.00299969
0.12337
0.306997
0.408511
0.0208631
0
0
0
0
0.00326239
0.0343654
0.459284
0.0847521
0
0
0
0
0
0.00754043
0.109243
0.444394
0.236106
0.0222246
0.00692328
0.00295524
0
0
0.0237394
0.0602612
0.105358
0.411264
0.0920939
0.000235204
0
0
0
0.000537402
0.00600235
0.0251157
0.43895
0.261567
0.00240264
0
0
0
0
0.000143784
0.176764
0.342817
0.101349
0.0119181
0.00977774
0
0
0.0231724
0.0300839
0.0748492
0.434304
0.367863
0.0214302
0.00586664
0
0.013337
0.0165194
0.0483703
0.00462536
0.246602
0.381383
0.00905846
0.000980282
0.00119812
0
0
0.00229781
0.0407278
0.201875
0.552767
0.020174
0.00686197
0.00838686
0
0.00428774
0.0262824
0.0700416
0.254899
0.368584
0.00853992
0.0016338
0.00199687
0.0142318
0.0142318
0.0985578
0.174064
0.132068
0.29191
0.00363651
0.0114366
0.0139781
0.00203311
0.0218579
0.190656
0.138308
0.202044
0.282862
0.00844023
0.0041416
0.00506196
0
0.0582034
0.205897
0.0846111
0.126513
0.0697301
0.00225685
0.0893895
0.0385299
0.137052
0.354052
0.478928
0.231269
0.127998
0.0944099
0.00193293
0.00690267
0.0084366
0
0.0360534
0.22927
0.199832
0.156992
0.0445561
0.0157979
0.066801
0.00941768
0.0288527
0.0369668
0.337726
0.0779162
0.00961469
0.00242322
0.0512601
0.209513
0.115807
0.100167
0.0297025
0.0481568
0.373947
0.0258516
0
0.00175714
0.0586931
0.0553955
0.0667605
0.0562141
0.341215
0.0596069
0.0666198
0.0264007
0.157252
0.152755
0.0595211
0.0321934
0.0928564
0.134275
0.271214
0.0646003
0.014187
0.0209335
0.055772
0.0179783
0.019316
0.222419
0.604055
0.212986
0.00489398
0
0
0.00271826
0.00258584
0.0110077
0.0126281
0.370285
0.224799
0.00103762
0
0
0
0.00597775
0.0739796
0.035386
0.517342
0.161951
0.00674829
0
0
0.00653134
0.011861
0.0319205
0.0740496
0.445943
0.14687
0.0605791
0.0142151
0
0.0140063
0.0224866
0.0547665
0.0707061
0.415111
0.144792
0.0117108
0
0
0
0.0144118
0.0971065
0.049969
0.341152
0.125514
0.0631749
0
0
0
0.0131239
0.0613531
0.156697
0.347455
0.193157
0.212928
0.0191996
0
0.00585802
0.00553775
0.0123442
0.0281866
0.281833
0.389152
0.450172
0.00494024
0
0
0.001406
0.00562399
0.0178625
0.323822
0.0931399
0.023784
0.000143998
0
0
0.00103379
0.00512154
0.0901481
0.298147
0.118185
0.0245581
0.000239997
0
0
0
0.000140909
0.0993097
0.507898
0.359055
0.157833
0
0
0
0.000147685
0.00059074
0.00597191
0.177418
0.503065
0.0609705
0
0
0
0
0
0.0139932
0.344736
0.115363
0.0211437
3.39974e-005
0
0
0
0.000395157
0.0486105
0.413266
0.295015
0.0394436
0
0
0
0
0.00532494
0.0324726
0.321146
0.243434
0.0300179
0
0
0
0
0.0027661
0.0314466
0.422465
0.157035
0.0100903
0
0
0
0
0.0372746
0.210601
0.508685
0.404798
0.0829576
0
0
0
0
0.0187913
0.0367611
0.160056
0.353746
0.183966
0.0301318
0.0304997
0.0136596
0.00149484
0.0174114
0.0737185
0.110456
0.112824
0.0187665
0
0
0.00383238
0.00255492
0.142691
0.316855
0.402631
0.0930805
0.0428087
0.0122663
0.0196763
0.0469225
0.0283483
0.169599
0.381801
0.265725
0.215456
0.259133
0.118287
0.0532764
0.0559858
0.00783224
0.00601224
0.0620221
0.0982767
0.331151
0.241657
0.290707
0.0346025
0.0335915
0.0136578
0.0384546
0.0331648
0.273415
0.157603
0.058545
0.0349204
0.035815
0.114581
0.0656583
0.124163
0.285893
0.120249
0.329362
0.0707568
0.0426842
0.0115992
0.07831
0.0971253
0.129702
0.169426
0.303779
0.199167
0.0723118
0.09417
0.00535917
0.00024449
0.00390803
0.0179075
0.0157365
0.24562
0.327727
0.0498444
0.0255456
0
0.00171143
0.00248362
0.00231723
0.024169
0.423997
0.189304
0.0348571
0.0110797
0.000502687
0.00229792
0.0253854
0.0187852
0.0706355
0.294587
0.321707
0.0239416
0.00336127
0
0
0.0027431
0.000805232
0.0557291
0.542977
0.165494
0.0120405
0.00163375
0
0.000504229
0.000616281
0
0.0187943
0.313776
0.17855
0.0131721
0.00200103
0.00313694
0.00150289
0
0
0.0111769
0.462281
0.173603
0.00113768
0
0
0
0
0
0.0201538
0.424512
0.232418
0
0
0
0
0
0
0.0193415
0.554879