0.0369374
0.0582403
0.0383336
0.0367618
0.072289
0.065123
0.115832
0.190047
0.101102
0.0363156
0.0115493
0.0116229
0.0144642
0.0161524
0.0964249
0.276399
0.255389
0.121035
0.0762041
0.144842
0.11424
0.144056
0.146727
0.0583857
0.0772729
0.145402
0.283463
0.0457225
0.0206916
0.00922921
0.0300226
0.259563
0.340869
0.351575
0.274179
0.274369
0.0196652
0.00277457
0.0139527
0.0139527
0.0185901
0.129054
0.229645
0.130023
0.0848512
0.0370167
0.0156211
0.0232735
0.01827
0.0305264
0.179673
0.34031
0.294729
0.082345
0.00334386
0
0.00199324
0.0170804
0.238395
0.468238
0.294709
0.0897362
0.0459222
0.023407
0.0177104
0.0183027
0.00148134
0.106822
0.217686
0.264853
0.165168
0.0448978
0.0576588
0.0204674
0.0197227
0.0179279
0.022274
0.0769761
0.319834
0.269957
0.0700336
0.170799
0.0931606
0.0203049
0.0742973
0.0609447
0.0184878
0.167711
0.210731
0.253251
0.0167604
0.0496316
0.0419736
0.00612573
0.0433417
0.0445863
0.254605
0.243486
0.10266
0.109449
0.104585
0.0693265
0.122674
0.0526084
0.0300206
0.159724
0.370917
0.393463
0.108266
0.0655473
0.0568089
0.189818
0.106728
0.0136482
0.0782883
0.0527403
0.110569
0.0400144
0.0149275
0.10747
0.215765
0.085344
0.0284583
0.165191
0.0816887
0.0454821
0.214168
0.114868
0.0846733
0.18968
0.0435299
0.0452038
0.0861982
0.154498
0.182586
0.641787
0.142969
0.0809884
0.140959
0.0802164
0.0452579
0.125241
0.136382
0.118163
0.0163197
0.000923984
0.0446316
0.0664049
0.0394919
0.0428527
0.0674498
0.0581907
0.0577791
0.0212888
0
0.0161017
0.0451629
0.0600545
0.0469612
0.0830217
0.115253
0.156158
0.479161
0.022852
0.0130322
0.039538
0.0583615
0.0208903
0.037332
0.0735236
0.157016
0.468203
0
0.00271033
0.0178674
0.0188783
0.0105609
0.0395328
0.129608
0.568353
0.0502045
0.000178825
0.00140773
0.0276136
0.0242993
0.00676644
0.039491
0.0695909
0.1635
0.0658674
0.00461261
0.000201104
0.0149942
0.012449
0.0025433
0.041358
0.144683
0.165427
0.243119
0
0.000201104
0.0030873
0.00186025
0.000299022
0.0268274
0.142856
0.547109
0.195707
0.000480119
2.87291e-005
0.00102498
0.000936738
0
0.12514
0.356244
0.504718
0.0440489
0.0233467
0.00646053
0.0230368
0.00716146
0.0116508
0.0347612
0.146633
0.110958
0.0607268
0.042441
0.0138829
0.0579723
0.0345908
0.0167061
0.0227709
0.0289859
0.11426
0.109557
0.00193007
0
0.00597594
0.000446013
0.000668262
0.160102
0.378136
0.482089
0.157387
0.0215249
0.000445056
0.0118253
0.00340052
0.0229159
0.181082
0.19388
0.545124
0.103579
0.117912
0.065508
0.0403396
0.0750416
0.0224425
0.0171944
0.0108312
0.122789
0.041838
0.162974
0.190825
0.0358906
0.0901883
0.0522214
0.0440358
0.0590954
0.116154
0.183984
0.135133
0.0200236
0.00890569
0.00691134
0.0638354
0.316304
0.213474
0.434392
0.0651022
0.117286
0.0942762
0.0354461
0.0774403
0.16105
0.281853
0.190036
0.156653
0.0240815
0.190624
0.220915
0.0874394
0.11571
0.107338
0.0440295
0.0395461
0.0688706
0.0299202
0.113345
0.269068
0.284538
0.215913
0.151374
0.0477764
0.0185359
0.0502163
0.0317075
0.0668569
0.0784204
0.0391911
0.153659
0.287637
0.157798
0.0738805
0.0724906
0.107315
0.0588107
0.0697981
0.132833
0.126313
0.210207
0.137342
0.025299
0.0942388
0.020737
0.0236463
0.024206
0.116392
0.210794
0.0271452
0.0212309
0.0244126
0.0632609
0.0124422
0.00443479
0.00278638
0.0911068
0.37294
0.130353
0.0695674
0.0458549
0.0571492
0.00209873
0
0.00218406
0.0994271
0.399276
0.0557537
0.0050536
0.00247537
0.00139916
0.00125924
0.00739727
0.0201594
0.130497
0.700641
0.0600185
0.00788513
0.00326943
0.000839493
0.00316477
0.00576599
0.00387889
0.0756877
0.325882
0.291302
0.0859016
0.0187344
0.0193726
0.0174587
0.0590446
0.0819884
0.00696306
0.0487113
0.172869
0.0947909
0.0403053
0.0464685
0.0766802
0.0523065
0.0972077
0.158012
0.497342
0.154483
0.0268121
0.00503861
0.0635892
0.279263
0.18327
0.372206
0.146261
0.0359121
0.10803
0.0447611
0.0309115
0.149358
0.00745626
0.105646
0.115709
0.00469244
0.0113402
0.00999861
0.0291915
0.0272895
0.0209113
0.0775397
0.214569
0.142065
0.0635068
0.0261057
0.00455138
0.0163004
0.0823814
0.0596993
0.0576867
0.227511
0.437206
0.0569243
0.0010225
0.0049287
0.0059049
0.00743107
0.0218601
0.137131
0.550712
0.482731
0.0167645
0.00338085
0
0
0.0161151
0.0107434
0.0941808
0.161469
0.0621599
0.0435171
0.00786692
0.0056635
0.00530937
0.0322513
0.0225302
0.339694
0.204716
0.0501875
0.0195842
0.00957258
0.00463238
0.00299113
0.00962955
0.0268782
0.143832
0.424405
0.118543
0.00566719
0.0007771
0
0
0.0100688
0.00688231
0.524986
0.493992
0.0660627
0.00168593
0
0
0
0.0014384
0.00708029
0.311653
0.0379391
0.00394874
0.00384431
0.00840251
0.00103254
0.00079985
0.003537
0.0487218
0.307766
0.00301302
0
0.00187107
0.00236674
0.000147506
8.77594e-005
0.00887648
0.214468
0.523953
0.113384
0.00659995
0
0
0
0
0
0.0496267
0.523953
0.0176517
0.000241068
0
0
0
0
0.00104719
0.37642
0.143784
0
0
0
0
0
0.0018417
0.0277434
0.267678
0.085668
0
0
0
0
0
0.0284285
0.133032
0.29643
0.181232
0
0
0
0
0
0
0.0258195
0.559566
0.0393701
0
0
0
0
0
0.0393577
0.274176
0.559566
0.0349214
0
0
0
0
0
0.0769535
0.187494
0.187145
0.0342976
0.0014326
0
0
0
0.0199365
0.195925
0.223578
0.116503
0.00956668
0
0
0
0
0
0.152436
0.462283
0.247038
0.024734
0
0
0
0
0.0359338
0.404388
0.541532
0.0336119
0.0126346
0.00565844
0.00141517
0.000943444
0.00107684
0.0479957
0.23122
0.145107
0.043303
0.00384873
0.00450599
0.0152595
0.00941735
0.0233677
0.0717516
0.135807
0.0677519
0.00619124
0.0118495
0
0.000202167
0.000134778
0.000646106
0.0996726
0.555216
0.376357
0.00561932
0.000462885
0.00185154
0.00462715
0.00595275
0.009808
0.147958
0.514052
0.256618
0
0.0168621
0.0117198
0.0349194
0.0378959
0.10907
0.139731
0.112202
0.0410312
0.0152366
0.0569364
0.0227323
0.0148129
0.0504747
0.0643763
0.0598173
0.0713204
0.0203243
0.0334457
0.0211743
0.019533
0.0144861
0.0672024
0.0563031
0.27404
0.692262
0.261618
0.0179741
0.0374021
0.0229375
0.0407906
0.075512
0.0822591
0.0850293
0.128752
0.11929
0.0430309
0
0
0.00969092
0.0802727
0.330094
0.0458769
0.00021504
0
0
0.00485425
0.0133997
0.0240306
0.093499
0.599744
0.0498923
0.00963381
0
0.0174262
0.00183726
0.00734903
0.0256484
0.124535
0.295644
0.013904
0.00104858
0
0
0.0175787
0.0703241
0.049323
0.256014
0.494002
0.0161743
0.00570287
0
0.0290437
0.036184
0.0279533
0.0640299
0.120404
0.14895
0.0267092
0.00741624
0.000237428
0.0236308
0.109854
0.053442
0.258609
0.26354
0.0131404
0.00700948
0.00245546
0.00166199
0.0281373
0.0161936
0.0764949
0.118842
0.320565
0.103642
0.00699476
0.00390007
0
0.0199845
0.0159891
0.0457615
0.462492
0.62136
0.0156049
0.000835166
0.000557153
0
0.00369262
0.0246905
0.0733824
0.267796
0.110689
0.00453578
0.000237586
0.00015839
0.000468651
0.00435938
0.0153909
0.261938
0.375599
0.0297884
0.00403587
0
0
0
0
0.00573224
0.0559285
0.409767
0.228489
0.0123803
0
0
0
0.000241136
0.00710389
0.240697
0.590321
0.1019
0.0264915
0.00548762
0
0
0
0.0409
0.366906
0.218275
0.00827097
0.00497468
0
0
0
0
0.258323
0.41454
0.125251
0.0108266
0.0042946
0.0132261
0.00648132
0.00215864
0.041014
0.0140468
0.259009
0.419292
0.132349
0.0593633
0.00700577
0.00362129
0
0
0.0738035
0.280502
0.299246
0.220265
0.077099
0.0529317
0.0650189
0.00359774
0.0683567
0.489988
0.189653
0.0304165
0.0198875
0.0204298
0.0463152
0.0132511
0.00347715
0.102716
0.495938
0.0313726
0.00290281
0.0146406
0.0288564
0.0260772
0.007467
0.00192413
0.370557
0.088437
0.185329
0.1515
0.240601
0.119144
0.121311
0.0805613
0.00579525
0.111445
0.118497
0.101726
0.0471182
0.125975
0.109806
0.0660318
0.0217089
0.0103919
0.136038
0.14213
0.00510747
0.00433176
0.0131618
0.00764623
0.000163598
0.00126426
0.0298999
0.501559
0.0478979
0.0344392
0.0144552
0.0289589
0.00567695
0
0.0746024
0.38242
0.552183
0.0582899
0.033994
0.0198659
0.0520948
0.0576404
0.0388228
0.00973069
0.0196386
0.143113
0.0648955
0.0573987
0.0300268
0.151949
0.0930964
0.227681
0.03647
0.19785
0.167592
0.0191574
0.00927081
0.00297701
0.00463933
0.000415281
0
0.141458
0.350428
0.0896569
0.0192518
0.000231086
0
0
0
0.0187872
0.34126
0.367599
0.00956768
0.0364087
0.0154513
0.00596892
0.0289316
0.0170285
0.122526
0.12287
0.274733
0.0830293
0.00756052
0.000385144
0
0.00174823
0.016309
0.109764
0.546148
0.339862
0.0320917
0.00661264
0
0
0.000769809
0.000769809
0.0380821
0.315265
0.183906
0.00165316
3.74199e-005
0.000149679
0
0.0020813
0.00162514
0.0602477
0.34783
0.200624
0
0.000944663
0
0
0.00607139
0.0115332
0.109556
0.557275
0.1317
0.00217877
0
0
0
0.00898111
0.0197129
0.202472
0.487217
0.160092
0.00491722
0.00336281
0.000885114
0
0.00610379
0.0026453
0.118861
0.343823
0.201333
0.00517332
0.00555436
0.00258598
0.0132226
0.0079568
0.0117036
0.0675458
0.0923963
0.120295
0.0317967
0.00030207
0.00226102
0.00527572
0.00264414
0.0259903
0.48761
0.469175
0.231215
0.00688043
0.00050345
0.0217982
0.043269
0.00206919
0.0145221
0.329276
0.197066
0.190343
0.0493565
0.00187443
0.00749771
0.0124649
0.101498
0.206684
0.0130992
0.002908
0
0
0.00538168
0.0263942
0.0504894
0.336717
0.283868
0.00211264
0
0
0.00401015
0.000267775
0.0010711
0.0168099
0.157973
0.318781
0.0193053
0.0017448
0
0
0
0
0.0194646
0.582975
0.438575
0.0092738
0
0
0
0.00280163
0.0206266
0.0764394
0.285917
0.0532153
0
0
0
0.00208763
0.000815826
0.0102816
0.183241
0.488828
0.0383488
0
0
0
0.000298233
0
0
0.0317786
0.414327
0.146805
0.00266668
0
0
0
0
0
0.0447294
0.585065
0.197086
0.000380954
0
0
0
0.00110937
0.0183087
0.243748
0.324668
0.0236532
0
0
0
0
0.00592444
0.079323
0.423251
0.218868
0.0569732
0.0310103
0
0
0
0
0.000954172
0.0664212
0.571901
0.12404
0.000490067
0.000132747
0
0
0.000751261
0.00893299
0.104243
0.397035
0.143014
0.0651347
0.0134337
0.000381273
0
0.00801255
0.0678531
0.208104
0.201569
0.162331
0.0677158
0.0239111
0.0103558
0
0.0223831
0.0952796
0.170777
0.357387
0.232507
0.0856409
0.133114
0.0321957
0.0179932
0.000952304
0.00597161
0.0339682
0.103225
0.202295
0.213744
0.158545
0.0783003
0
0.101848
0.023135
0.0171522
0.169977
0.20878
0.26626
0.443004
0.290235
0.0535819
0.0476763
0.109859
0.149995
0.245195
0.109811
0.0594671
0.0902826
0.0167343
0.0314241
0.0971557
0.184094
0.146431
0.125849
0.0556192
0.100547
0.0601893
0.0215638
0.0911919
0.276901
0.0938846
0.204598
0.138212
0.0696977
0.0837721
0.217959
0.161976
0.150221
0.33512
0.210257
0.341397
0.115508
0.0744637
0.238289
0.19003
0.105572
0.227621
0.038727
0.0570081
0.0274968
0.0219381
0.0595941
0.16101
0.0703137
0.0246574
0.0815802
0.0290805
0.0138585
0.0159205
0.0546856
0.186011
0.382832
0.0358877
0.0507437
0.0651808
0.0962441
0.0752837
0.0469527
0.0178019
0.0523447
0.297992
0.270494
0.179639
0.316568
0.190407
0.250932
0.148123
0.0631654
0.187566
0.270367
0.134949
0.129603
0.331896
0.0155775
0.00517225
0.0117246
0.031747
0.134871
0.326266
0.0518848
0.120686
0.075491
0.00140092
6.7275e-005
0.00146932
0.0323228
0.174325
0.278745
0.351533
0.141286
0.0401787
0.0668814
0.145681
0.223552
0.207381
0.220187
0.228418
0.0197856
0.023136
0.0551218
0
0.0129764
0.0944875
0.334773
0.336225
0.241796
0.129657
0.0142544
0.0123671
0
0
0
0.00900241
0.0484256
0.178524
0.400666
0.0298208
0.00313447
0
0
0
0.00328806
0.0501988
0.287369
0.327432
0.023851
0.013302
0
0
0.000761326
0.0566721
0.188964
0.303624
0.201367
0.0015868
0.00131649
0
0
0
0
0.337154
0.492316
0.166571
0.00389487
0.00798122
0
0.00192295
0.00503981
0.00580363
0.0518387
0.444118
0.224735
0.0597024
0.00938017
0.00419483
0.0331065
0.0362622
0.0234856
0.0257915
0.309629
0.166145
0.0681611
0.0158828
0
0.000274707
0.00451147
0.0472352
0.330118
0.462357
0.144961
0.0428239
0.00587368
0.00699138
0.0696194
0.0315503
0.123404
0.19817
0.242413
0.193943
0.151325
0.01589
0
0
0.0112181
0.111973
0.244284
0.00685887
0.00185288
0
0
0
0
0.00223261
0.316132
0.450193
0.0192337
0.0135247
0.0105375
0
0
0
0.013094
0.139179
0.300441
0.0205647
0.0143497
0
0
0
0
0.0175054
0.282284
0.559651
0.0767424
0.116055
0.135235
0
0
0
0.00273637
0.17985
0.249782
0.0165647
0.00304612
0.00602669
0
0
0
0.00210972
0.312329
0.409459
0.0151302
4.53136e-005
0.000860955
0
0
0
0.0030827
0.067531
0.393153
0.105547
0.033552
0.077345
0
0
0
0
0.0666694
0.587507
0.23342
0.00206421
0.0110493
0
0
0
0.00244892
0.355101
0.36274
0.0126391
0.000438669
0
0
0.000830918
0.0012417
0.00886796
0.184313
0.197085
0.0297404
0.0211819
0.00125994
0.00249275
0
0
0.00111034
0.0771682
0.629059
0.264358
0.000263201
0
0
0.00138486
0.00869188
0.0446319
0.108008
0.327294
0.110062
0.00653401
0.000755963
0.00415459
0.0234363
0.00834272
0.00796306
0.0161136
0.0496801
0.107393
0.158217
0.0437927
0.0159952
0.174599
0.0265496
0.00290739
0.00702388
0.0206037
0.179021
0.345665
0.278039
0.162594
0.0973196
0.150618
0.125587
0.116508
0.0476665
0.0229677
0.045071
0.0101779
0.0266587
0.51976
0.354431
0.10625
0.0475389
0.00361165
0.0318825
0.0988285
0.119585
0.321012
0.207906
0.0806246
0.0431804
0.00956647
0.00427117
0.0285678
0.0705526
0.112993
0.154647
0.239541
0.116846
0.0719673
0.0170252
0.0153874
0.0405789
0.0931621
0.110098
0.217859
0.348062
0.106607
0.00882806
0.000581376
0
0.00434331
0.0160206
0.0549312
0.389093
0.34351
0.0758115
0.00462112
0.000968961
0
0
0.0447745
0.0851237
0.534887
0.0766479
0.0302082
0.00896574
0.00321899
0.00615502
0.0424444
0.125881
0.162514
0.279498
0.178923
0.193431
0.101336
0.0152694
0.0129751
0.0169049
0.0507023
0.102413
0.307037
0.13579
0.0136606
0.000575702
0.0022898
0
0
0.0584554
0.134462
0.500593
0.202396
0.069817
0.0394363
0.0153237
0
0.0155559
0.108938
0.180847
0.500593
0.208691
0.281203
0.414337
0.20885
0.0624532
0.026993
0.0041767
0.01712
0.109913
0.035041
0.0420168
0.230262
0.354795
0.19062
0.0682073
0.0237513
0.000506679
0.00425322
0.300108
0.132452
0.188745
0.0580798
0.00620938
0.0665989
0.220202
0.133164
0.233008
0.0930606
0.0375803
0.130198
0.111374
0.127398
0.0760833
0.0939004
0.0106929
0.015066
0.000183333
0
0.00401975
0.0444593
0.239825
0.146093
0.0206678
0
4.58332e-005
0
0
0
0.0143071
0.509785
0.247251
0.0148652
0
0
0.00128333
0
0.00444887
0.132653
0.321169
0.0463998
0.00404062
0
0.000320833
0
0
0.00424543
0.264643
0.584828
0.0681037
0.000168659
0
0
0
0
0.000971183
0.0281077
0.394266
0.118655
0.0184076
0.00814567
0.000283155
0.000645362
0.0216156
0.0149502
0.0812323
0.299073
0.0795606
0.0527161
0.0569463
0.00318062
0.000609836
0.000609836
0.00527992
0.165975
0.562724
0.0415164
0.00281555
0.000768561
4.04508e-005
0.00426885
0.00576804
0.00588568
0.105382
0.512995
0.178821
0.0515962
0.00537993
0.000283155
0
0.000937667
0.0213884
0.174138
0.172257
0.0168064
0.00681224
0.00252072
0.000840239
0
0
0.0314504
0.26328
0.401888
0.188167
0.0672414
0.102335
0.0014004
0.00483807
0.00351589
0.0434858
0.241361
0.25949
0.015631
0.00052348
0.0177213
0.0148593
0.0432719
0.0119081
0.15333
0.313388
0.452459
0.302189
0.0893853
0.0534579
0.0913249
0
0
0.00340528
0.029053
0.238905
0.204619
0.0212587
0.0452496
8.68859e-005
0
0
0
0.00187211
0.349264
0.367656
0.00809749
0.00642698
0
0.018355
0.00545918
0.0226866
0.0319426
0.169001
0.339796
0.1842
0.0241333
0.0320504
0.00258898
0.000779883
0
0
0.155614
0.530198
0.318075
0.0113469
0.00435912
0
0
0.000318272
0.00327692
0.227281
0.369673
0.0182092
0.000883764
0
0.000146035
0.00249148
0.0540284
0.0901531
0.202961
0.220745
0.0194662
0.00618634
0.000438105
0
0
0
6.71445e-005
0.072187
0.483621
0.261256
0.00704636
0
0
0
0.0354224
0.047523
0.23906
0.405779
0.347693
0.0505019
0
0.0276578
0.113337
0.224014
0.171169
0.109127
0.0401034
0.00243372
0.0028031
0.00317587
0.265705
0.357028
0.267871
0.0854458
0.0253549
0.0279411
0.00587546
0.00650557
0.147897
0.000105115
0.0261731
0.174012
0.106083
0.335252
0.24883
0.163723
0.0566775
0
0.101974
0.136172
0.263648
0.0697838
0.169896
0.28635
0.169084
0.140548
0.151748
0.211179
0.0744744
0.0313956
0.00232982
0.000982549
0.00550592
0.0037857
0.00821534
0.31209
0.22289
0.00233591
0
0
0
0
0.00129372
0.0125739
0.523772
0.133326
0.0335598
0.039275
0.00388303
0.0104657
0.0506073
0.0487343
0.091017
0.32421
0.247646
0
0
0
0
0
0.00353038
0.0300091
0.523772
0.124833
0.000349742
0
0.00665717
0.000644585
0.00455785
0.0136811
0.0698959
0.530691
0.0582579
0.00131889
0.00353033
0.0494887
0.00471689
0.0770816
0.198592
0.176548
0.353052
0.201882
0.0306642
0.00148223
0.0173344
0.00451209
0.0179098
0.0251683
0.0456376
0.467597
0.0973295
0.0784617
0.0529192
0.158617
0.0574032
0.188221
0.165222
0.0852384
0.239897
0.0537395
0.00603526
0.0088108
0.0342278
0.0287534
0.191075
0.394185
0.109342
0.100064
0.0219276
0.00362116
0.0227445
0.0957166
0.104583
0.14612
0.173894
0.00774715
0.006839
0.0219211
0.0457986
0.106042
0.20135
0.222252
0.34999
0.281075
0.0282942
0.055274
0.0168189
0.0643357
0.300305
0.269571
0.302408
0.223675
0.126292
0.000935861
0.00456302
0.000448576
0.0001583
0.0388725
0.249889
0.128463
0.0126965
0.00394587
0
0.000112144
0
0.0011081
0.0503914
0.431644
0.257614
0.00136557
2.94681e-005
0
0
0.00364934
0.0225527
0.317906
0.362108
0.0516228
0.0134386
0.0025794
0
0
0
0.00931837
0.28716
0.536144
0.0624533
0.00868462
0.00710559
0
0
0.00650344
0.0042644
0.0500794
0.374822
0.359145
0.0176542
6.75529e-005
0.0012835
0.00375263
0.0401801
0.0184385
0.0234971
0.146344
0.3689
0.163501
0.07422
0.0175683
0.0302456
0.0231392
0.0219283
0.26368
0.497138
0.114763
0.0212786
0.00534848
0.0089845
0.00625438
0.0927488
0.0436193
0.154352
0.171059
0.125978
0.0632307
0.0813789
0.160846
0.0504094
0.00286226
0.00132394
0.0323954
0.109046
0.173254
0.00997747
0.00106161
0.00510823
0.00685787
0.0554993
0.0548481
0.158145
0.294403
0.157045
0.0476039
0.0619444
0.0401462
0.0501484
0.00503058
0.0010707
0.0256154
0.201863
0.297928
0.0332133
0.00151315
0.00537918
0.00388919
0.0311378
0.0710737
0.100393
0.568343
0.512815
0.0736497
0.0548504
0.0318225
0.00686056
0.033966
0.0347608
0.0339168
0.0576513
0.0334307
0.120176
0.23688
0.0587291
0.0257879
0.00482528
0.00496583
0
0.000436197
0.0176993
0.304442
0.466422
0.0349095
0.00354995
0.0195615
0.045044
0.0204315
0.128991
0.137587
0.180419
0.156226
0.0556687
0.00365795
0.00279065
0.00643486
0
0.0148874
0.0573899
0.474295
0.474295
0.0818042
0.00690784
0.000484468
0
0
0
0.00593487
0.214668
0.29593
0.00403214
0.000484468
0.000807446
0
0.0014987
0.00192012
0.0680567
0.169168
0.437937
0.0593948
0.000807446
0.00339127
0
0
0
0.00955644
0.242814
0.454488
0.106314
0.0100239
0.00565212
0
0
0
0.00778783
0.0843156
0.480214
0.274515
0.00909957
0.000120793
0.00064219
0.00957347
0.00572365
0.108923
0.117097
0.251172
0.153917
0.00355785
0.00942448
0.00449533
0.019144
0.00532842
0.0646645
0.11957
0.159086
0.269581
0.155089
0.000845548
0
0
0
0.00808261
0.027288
0.273318
0.4783
0.0185159
0.00199281
0
0
0
0.00469366
0.00952798
0.153816
0.514784
0.319796
0.0427001
0.00150314
0.0042396
0.000488188
0.00568354
0.0243805
0.0339691
0.11182
0.30338
0.160615
0
0
0
0
0
0.00120651
0.0279709
0.495451
0.0351187
0
0
0
0.000476147
0.00160127
0.0240095
0.166943
0.498915
0.204428
0
0
0
0
0
0
0.026289
0.499385
0.231889
0.0549343
0.00208386
0.0209186
0.00296087
0.00586392
0.00699033
0.0161433
0.324392
0.185493
0.186607
0.125949
0.180245
0.0469455
0.0648143
0.0232576
0.0174531
0.0947604
0.347061
0.07857
0.00695164
0.0134701
0.00202313
0
0
0.0122318
0.41694
0.332612
0.420742
0.177889
0.122938
0.0178283
0.00188874
0
0.00463231
0.116736
0.0207452
0.106253
0.179315
0.121965
0.0923668
0.0591055
0.01399
0.00179582
0.00403685
0.0089511
0.156306
0.371068
0.0901852
0.103952
0.0301561
0.00568549
0
0.000349132
0.055107
0.38121
0.283614
0.0682877
0.0196286
0.00170798
0.00302754
0.000336393
0.00242508
0.00537225
0.449432
0.509073
0.0252705
0.0187735
0.000243997
0.0050459
0.000560655
0
0.00413019
0.0967676
0.453345
0.149161
0.0220741
0.00372086
0.00114883
0
0
0
0.0427009
0.339018
0.270583
0.0240591
0.00982892
0.00804184
0
0
0.00142444
0.245077
0.48236
0.0421871
0.00521923
0.00020059
0.00102907
9.6106e-005
0.000834414
0.00658539
0.142829
0.419229
0.143622
0.0336048
0.00140413
0.00114883
0
0.0058409
0.0137764
0.0418384
0.329144
0.485361
0.0753622
0.0128063
0.00902582
0.00537909
0.00123701
0.0558378
0.0381299
0.182623
0.218932
0.0759583
0.0241258
0.0866174
0.146316
0.0217715
0.00770119
0.0815512
0.307216
0.395667
0.194304
0.0353004
0.00560653
0.00138649
0.00627642
0.0129229
0.00975664
0.0709078
0.235376
0.186219
0.0895247
0.0698878
0.0859939
0.0316874
0.0186497
0.0480924
0.0913212
0.172063
0.154036
0.0246162
0.000370222
0.00652941
0.00718839
0.00100534
0.0538451
0.125748
0.331556
0.37611
0.103369
0.0334055
0.00606595
0.00141529
0.116482
0.395205
0.216122
0.107008
0.0468431
0.00546128
3.55583e-005
0.0353526
0.0979622
0.076847
0.43087
0.312955
0.214029
0.124793
0.0453757
0.0142751
0.00628535
0.0103676
0.0126305
0.019331
0.0246696
0.142536
0.215965
0.22404
0.0899101
0.0521613
0.0169411
0.0680679
0.00184757
0.000404882
0.0251442
0.071221
0.402668
0.403722
0.267318
0.143438
0.096956
0.119809
0.0916232
0.0874775
0.0777775
0.0715962
0.0475818
0.070963
0.0980325
0.223413
0.0205471
0.0381435
0.0341196
0.0259175
0.0749756
0.177998
0.291389
0.361939
0.016371
0
0
0
0.00416221
0.0776199
0.328367
0.226641
0.0600646
0.00251593
0
0
0
0.000339317
0.0242941
0.389939
0.347039
0.0247167
0.0411075
0.00189196
0.0212433
0.0537439
0.045227
0.0645375
0.265082
0.192011
0.108141
0.000821364
0.00027028
0.00727935
0.0540681
0.0575416
0.0977835
0.47456
0.371695
0.0318349
0.000299387
0
0
0
0
0.00510156
0.138159
0.376278
0.0311469
0.00130641
0
0
0
0
0
0.0890143
0.426471
0.218431
0
0
0
0.0059135
0.00814614
0.0202408
0.294446
0.451467
0.0330521
0.00914489
0
0
0
0
0.00140723
0.198389
0.424686
0.200123
0.0305765
0
0
0
0
0
0.0210676
0.155029
0.407632
0.24573
0.000593852
0
0
0
0
0
0.0185751
0.505245
0.0396908
0
0
0
0
0.000207146
0.0347915
0.146421
0.382753
0.298835
0.00567346
0
0
0
0
0
0.0318185
0.424236
0.369135
0.0636243
0.00630181
0.00163672
0.000288834
0
0
0.001784
0.233348
0.366442
0.356054
0.0729821
0.0193723
0.00202183
0
0.00378422
0.0052865
0.055612
0.4334
0.0665736
0.000882451
0
0
0
0
0.00209277
0.154962
0.411799
0.290886
0.0832649
0
0
0
0.00630704
0.0106674
0.041447
0.154655
0.429085
0.186566
0.0156703
0.000960874
0
0.0172909
0.00803246
0.00190031
0.0836028
0.424002
0.358837
0.00853937
0
0
0.0213688
0.00790585
0.00615864
0.201155
0.322468
0.207831
0
0
0
0.0155892
0.0214949
0.0151378
0.151105
0.290557
0.271886
0.0157882
0
0
0.0166418
0.0399201
0.0450127
0.0315131
0.349387
0.484904
0.0409327
0.000358469
0
0.00454354
0.00334629
0.0103912
0.0551047
0.241186
0.402443
0.142313
0.0258779
0
0
0
0.0346628
0.0614643
0.24213
0.326449
0.065835
0.00342949
0.000907419
0.0161966
0.0225293
0.0446861
0.06885
0.192348
0.213161
0.174299
0.0344167
0.0318642
0.0542609
0.0053018
0.0278504
0.0926868
0.196022
0.328832
0.266738
0.198678
0.057686
0.00681562
0.00534986
0.0711902
0.0540465
0.0513565
0.0879614
0.141012
0.231137
0.147097
0.0612892
0.0798027
0.114954
0.124295
0.177461
0.196685
0.19263
0.110931
0.148473
0.119779
0.0180792
0.113265
0.0542738
0.0625264
0.0911444
0.0636933
0.143275
0.304929
0.195223
0.0325802
0.192337
0.265674
0.458915
0.176906
0.0314026
0.00315794
0
0
0.040002
0.261697
0.174093
0.5111
0.243817
0.0672971
0.00884911
0
0.00191469
0.00156657
0.0201974
0.200839
0.112282
0.0617503
0.0116212
0.00114105
0.000667096
0.00129482
0.0144433
0.242052
0.120086
0.125138
0.140249
0.0537652
0.0118313
0.00111183
0.00215803
0.00567628
0.0303618
0.0927782
0.115092
0.0851733
0.027879
0.00528584
0
0.0101159
0.0133645
0.05348
0.0950562
0.0435917
0.29382
0.115434
0.017644
0.00631781
0.0540603
0.0741982
0.145469
0.0371396
0.0995819
0.272361
0.0616387
0.00571448
0.000126778
0.00368447
0.000807015
0.00807443
0.0370268
0.271422
0.727568
0.226921
0.0042113
0
0.0241963
0.0219793
0.00975106
0.0256717
0.0166963
0.269014
0.243502
0.127093
0.0528999
0.127794
0.0685244
0.0598303
0.00948148
0.00932948
0.083624
0.237781
0.19292
0.123102
0.33657
0.267601
0.053404
0.0306218
0.134834
0.390687
0.29311
0.051313
0.00449813
0.0191968
0.0864926
0.0299479
0.0815512
0.0847979
0.0943723
0.228104
0.189885
0.0633931
0.0833583
0.201555
0.105021
0.00317233
0.0016543
7.39536e-005
0.0387016
0.0598421
0.057166
0.312537
0.390788
0.0344039
0.00638449
0.000498899
0.00336737
0.0316992
0.0618542
0.0430314
0.28626
0.433144
0.187095
0.0271464
0.0176179
0.00498792
0.214174
0.254499
0.0969367
0.121711
0.125571
0.0494479
0.00253689
0.0198901
0.0628088
0.342278
0.220648
0.086303
0.0912139
0.100645
0.0626161
0.0507522
0.00400294
0.0046011
0.0106478
0.0181956
0.0293331
0.058406
0.196682
0.458097
0.3815
0.0278648
0.00114917
0.000374808
0.000659863
0.0207398
0.00174778
0.0595846
0.547126
0.0376169
0.0542608
0.0569955
0.106588
0.0408194
0.0585308
0.0184398
0.0552594
0.163896
0.244343
0.111098
0.00949028
0.00763013
0.00438423
0.0528619
0.00291297
0.0220597
0.274355
0.519107
0.0785152
0
0
5.9402e-005
0.00298609
0.000808997
0.0199448
0.269817
0.454528
0.256883
0.0770946
0
0
0
0.00610745
0.068144
0.166232
0.272993
0.0718624
0
0
0.000415814
0.00782811
0.0178573
0.0671061
0.198262
0.180102
0.0361029
0.020273
0.00794295
0
0.00431674
0.0386526
0.234789
0.160773
0.294928
0.390963
0.242252
0.000547902
0.00101753
0
0.00738156
0.115946
0.125885
0.161856
0.317375
0.285814
0.0398288
0.0168987
0.00995202
0.0349594
0.124344
0.0971409
0.124397
0.123595
0.0726707
0.0347389
0.00712273
0.00788258
0.018103
0.236389
0.132915
0.176948
0.281541
0.134808
0.0607156
0.0661524
0.0177128
0.0297079
0.12714
0.0822368
0.0526865
0.209537
0.242372
0.0922384
0.0513585
0.0543194
0.10733
0.0593152
0.0486125
0.0802296
0.191513
0.14179
0.145659
0.0773584
0.183612
0.288376
0.0453287
0.0231089
0.162455
0.160069
0.166407
0.0539302
0.10971
0.108957
0.138491
0.063778
0.0397934
0.17669
0.264992
0.110883
0.0536202
0.199814
0.19483
0.313728
0.0703931
0.0453855
0.0433953
0.0347125
0.044257
0.0463028
0.056208
0.198828
0.27012
0.0566867
0.0337633
0.033408
0.0461162
0.069796
0.00899403
0.0812043
0.283761
0.264322
0.0395341
0.0432148
0.123677
0.107204
0.0344471
0.0221953
0.165317
0.163333
0.38795
0.144513
0.0263873
0.18329
0.137521
0.0967429
0.081505
0.148247
0.172655
0.359595
0.128092
0.0168983