0.320793
0.0908596
0.0759106
0.075667
0.00937873
0
0
0
0.0771999
0.23255
0.13267
0.212646
0.287642
0.046983
0
0.000202916
0.00114986
0.0138156
0.577857
0.0728751
0.0288191
0.0138238
7.50812e-005
0.000917165
0.00549889
0.000592199
0.121656
0.477086
0.1079
0.0627469
0.0726907
0.0042068
0.00152861
0.0154476
0.0121944
0.0463903
0.150492
0.0984203
0.225129
0.393611
0.129193
0.00999773
0.0694595
0.00554759
0.0474465
0.31685
0.0614604
0.238245
0.313681
0.139714
0.0169121
0.127208
0.00375415
0.226136
0.289204
0.106609
0.0560339
0.102285
0.0151626
0.0220321
0.0573464
0.0415398
0.106521
0.277157
0.0764654
0.0516428
0.0685876
0.0187063
0.0378524
0.0970836
0.0262791
0.260649
0.29301
0.0417131
0.0736423
0.0497283
0.0269407
0.00725439
0.0235332
0.000800863
0.166162
0.330891
0.0369976
0.0139674
0.00924785
0.0121761
0.0194133
0.00425373
0.0110935
0.251814
0.248537
0.117681
0.0456267
0.0114015
0.00359575
0.00468808
0.019338
0.00560604
0.189667
0.434326
0.503297
0.0375351
0.00100161
0
0
0.00309501
0.0227406
0.242773
0.160337
0.0322325
0.0105491
0.00260384
0.0125657
0.00545474
0.00283649
0.0108107
0.137496
0.124434
0.0491395
0.0128402
0.00223496
0.0165858
0.00019883
0.00159042
0.0179869
0.20763
0.336384
0.402953
0.00430552
0
0.0054626
0
0.00441783
0.018448
0.0975412
0.642952
0.329216
0.00824719
0
0.00910433
0
0.0026507
0.0111045
0.118421
0.122067
0.0467739
0.0103397
0.000345613
0.00748633
0.000544123
0
0.0213194
0.167632
0.107221
0.0462067
0.0159927
0.018449
0.0121041
0.00909151
0.0192463
0.0469222
0.142449
0.575929
0.130848
0.00480949
0
0.00143468
9.68439e-005
0.000871597
0.00899399
0.232146
0.3574
0.0721915
0.0167215
0.0235838
0.00772403
0.00582153
0.0203729
0.0620818
0.545033
0.0507532
0.0349322
0.0298181
0.0421107
0.0454402
0.038531
0.0598703
0.0606694
0.086877
0.0404392
0.0849336
0.132582
0.057359
0.0696414
0.0398464
0.0385123
0.0257755
0.0287119
0.232913
0.0327047
0.0225597
0.04704
0.0484293
0.0345185
0.0633957
0.251292
0.586024
0.140376
0.0336337
0.0721091
0.0834866
0.10849
0.0605431
0.284542
0.408445
0.183775
0.0108188
0.0477529
0.195353
0.188948
0.0703742
0.0044574
0.00350513
0.00299237
0.00320043
0.00427143
0.0308033
0.418496
0.413904
0.0802519
0
0
0
0.00445059
0.00912773
0.0226248
0.110115
0.271247
0.169232
0.0689312
0.179273
0.117455
0.0109771
0.00549311
0.0156269
0.163283
0.427398
0.250126
0.106254
0.0721804
0.0824385
0.0386015
0.0126737
0.0232878
0.141665
0.173058
0.0470154
0.00555653
0.00584912
0.00128793
0.0111403
0.0814012
0.0758094
0.16958
0.210058
0.109184
0.0521045
0.0604821
0.0175742
0.00955955
0.0126754
0.0486932
0.149121
0.146781
0.0914667
0.0378806
0.00967015
0.0502642
0.0530434
0.0299286
0.1658
0.585229
0.521145
0.192865
0.0411912
0.0236383
0.0498824
0.0347517
0.192606
0.107351
0.128784
0.127606
0.0317365
0.0312753
0.0364231
0.0236805
0.108025
0.472143
0.113659
0.0220525
0.0169675
0.000395734
0.00773497
0.00653114
0.0138797
0.401571
0.100388
0.142972
0.25341
0.386917
0.0848299
0.0344356
0.0186323
0.00615962
0.03648
0.295219
0.215402
0.0502644
0.0552597
0.0183764
0.033763
0.0146148
0.00273886
0.140031
0.591501
0.0566497
0.0197355
0.0109427
0.0061945
0.0317166
0.0547603
0.0375248
0.127472
0.468491
0.0751734
0.052936
0.0245944
0.0321423
0.0364687
0.0681922
0.0755183
0.106055
0.0916424
0.0547893
0.0419151
0.05789
0.0557427
0.0832079
0.137389
0.0885286
0.123681
0.0595512
0.0582933
0.181462
0.109673
0.186177
0.0980094
0.0499776
0.0809693
0.109002
0.059897
0.0351526
0.0399444
0.0106028
0.00907294
0.0127213
0.0114341
0.022656
0.025739
0.022997
0.174091
0.170135
0.0180316
0.00281604
0.0106378
0.0103531
0.0107851
0.0259968
0.0119696
0.0271741
0.216153
0.0531148
0.0466347
0.025314
0.0104193
0.0139828
0.00770027
0.00218512
0.263307
0.84806
0.0724814
0.0156102
0.00795786
0.00548826
0.00669458
0.000738922
0.0275683
0.241974
0.138455
0.00530513
0.000163163
0.000903478
0.00294988
0.00138343
0.0166299
0.14743
0.529387
0.0980684
0.00104561
0
0
0.00178589
0.00325101
0.0188845
0.00713509
0.313272
0.439126
0.0191218
9.78981e-005
0
0.00210559
0.00343314
0.000117109
0.0532244
0.441445
0.243652
0.004965
0
0
0.0099718
0.0049627
0
0.266668
0.443394
0.0149604
0.000526729
0.000769969
0
0.00127341
0.00295393
0.0105588
0.489725
0.243388
0.00158886
7.5247e-005
0.00128328
0
0.000373624
0.000787102
0.0577545
0.157837
0.30606
0.131409
0.0036871
0
0
0.00455493
0.00151831
0.0168942
0.398383
0.185608
0.0550068
0.00092117
0
0
0
0.00195377
0.156433
0.397155
0.0560253
0.000685494
0
0.000204484
0.000277243
0.00249519
0
0.170362
0.245925
0.0283293
0.00599612
0.00332833
0.00107886
0.00240307
0.0321729
0.0420246
0.380404
0.345446
0.0380718
0.00951024
0.00126242
0
0.000166346
0.00149711
0.00666612
0.299088
0.351071
0.0324631
0.0111164
0.00075745
0
0.00116442
0.0197343
0.0321402
0.42788
0.0936273
0.0232854
0.00643692
0.00412727
0.00382863
0.0027319
0.0371851
0.187979
0.280386
0.042344
0.00788733
0.00865364
0.0144617
0.0216283
0.0136282
0.240287
0.45019
0.119244
0.178572
0.048326
0.00867286
0
0
0.000531193
0.0575881
0.162062
0.321756
0.0484275
0.0252056
0.0021461
0
0.00186422
0.00152527
0.233901
0.485119
0.20205
0.00357954
0.00188234
0.0117419
0.0342892
0.0441334
0.0359391
0.196699
0.230985
0.0102789
0.00218121
0.00639654
0.011341
0.0521063
0.0693921
0.0603398
0.15767
0.322859
0.0408867
0.0142533
0.00238567
8.91078e-005
0
0.00539053
0.00641812
0.183781
0.332971
0.0365057
0.00385565
0.0100997
0
0.00417678
0.0109718
0.0136085
0.448785
0.58696
0.0395832
0.00612222
0.0806634
0.0988487
0.0924222
0.0528217
0.0265467
0.0492068
0.157073
0.0606471
0.0318381
0.198061
0.400595
0.298469
0.103373
0.0129951
0.00395752
0.0479624
0.0505786
0.0181666
0.108034
0.088562
0.0594986
0.0256478
0.036485
0.396977
0.33066
0.0746394
0.219496
0.206639
0.229713
0.176006
0.0764846
0.050584
0.112461
0.0867027
0.237197
0.0624429
0.094361
0.167163
0.176491
0.0692933
0.022813
0.0176771
0.00577572
0.0690699
0.0963136
0.0671332
0.0251653
0.0201996
0.0210767
0.0301518
0.0286866
0.00256816
0.2032
0.299719
0.0837244
0.0755875
0.061394
0.0414224
0.0159133
0.012521
0.0214137
0.323156
0.345249
0.0199102
0.0050404
0.00139564
0.00647637
0.0100801
0.0168351
0.0193955
0.663382
0.059811
0.0331138
0.0131305
0.0543463
0.0625774
0.0545887
0.0577493
0.0475533
0.0957835
0.0196221
0.0372224
0.195535
0.136287
0.186926
0.0510347
0.0348206
0.0258309
0.0579264
0.0520584
0.126909
0.0144032
0.0925708
0.165387
0.159593
0.0582824
0.0945398
0.0417043
0.0492126
0.197564
0.632529
0.347872
0.223345
0.0779696
0.0629755
0.0764204
0.0332402
0.00172667
0.01164
0.233494
0.107535
0.0325335
0.00663914
0.00274024
0.00203945
0.00300551
0.00204268
0.043061
0.588646
0.139825
0.0114301
0.00183488
0.00171921
0.00369267
0.000351712
0.00434617
0.0252062
0.440016
0.227958
0.0202267
0.00475317
0.00471934
0.00301991
0.00210128
0.00327063
0.0152781
0.438257
0.249195
0.0320247
0.00343232
0.000467217
0.00193921
0.000211027
0.025035
0.126843
0.482696
0.058339
0.00271826
0
0.00427239
0.0139845
0
0.0499298
0.274119
0.375326
0.0163698
0.000285359
0
0.00798328
0.0101973
0
0.0273972
0.0796249
0.368528
0.108919
0.0404979
0.00931412
0.00205532
0.0082213
0
0.0762199
0.242255
0.43769
0.143128
0.0717731
0.0322926
0.00123319
0.00493278
0
0.113052
0.325734
0.321971
0.0202052
0.00455674
0
0.0124152
0.000985069
0.0469494
0.285425
0.265581
0.121245
0.0184403
0.0392878
0.0126966
0.0662198
0.00394468
0.202636
0.119106
0.265215
0.310238
0.203795
0.111425
0.0296049
0.0157666
0
0.0404512
0.141156
0.154216
0.224306
0.166823
0.24756
0.0606907
0.110366
0.00398524
0.108552
0.290882
0.0760241
0.053996
0.018105
0.0395271
0.0197048
0.0351544
0.018141
0.342751
0.351834
0.0408
0.0658412
0.034766
0.0404392
0.0171924
0.00252964
0.0671289
0.453134
0.115754
0.0575886
0.12385
0.0866925
0.170774
0.0803866
0.0630189
0.047994
0.206721
0.0754346
0.0760213
0.0943018
0.0816671
0.205408
0.117055
0.0435596
0.151688
0.242663
0.10832
0.0544414
0.0508371
0.0155515
0.0296495
0.0152866
0.0521082
0.120473
0.208997
0.0322845
0.0503213
0.0310936
0.00211407
0.020565
0.0229379
0.279727
0.366398
0.158521
0.0192104
0.0407225
0.0786622
0.0432368
0.187711
0.127219
0.115065
0.155129
0.0893184
0.018513
0.0334283
0.0516949
0.00599741
0.185027
0.28762
0.463351
0.335193
0.113888
0.00833774
0.00384585
0.000337199
0
0.0102129
0.0189951
0.209404
0.208963
0.0275012
0.00137106
0.00197606
0
0
0.00659303
0.0320148
0.497561
0.239322
0.0114497
0.00173031
0.00797983
0.00772993
0
0.0829584
0.159563
0.362679
0.159325
0.0132423
0
0.00391261
0.00516828
0
0.0423345
0.150213
0.546878
0.0830816
0.00106204
0.0104461
0.0170854
0.020611
0.00377481
0.00257716
0.0566725
0.500545
0.207031
0.0323356
0.129157
0.0368744
0.0368802
0.016565
0.0139693
0.0822113
0.221507
0.226422
0.281228
0.000969621
0.000662267
0.0018337
0
0.0364876
0.176009
0.346449
0.115728
0.00732868
0.011565
0.002159
0.00227434
0.0204397
0.0948987
0.313487
0.254065
0.217978
0.149334
0.149993
0.0161148
0.0120863
0.018149
0.00783864
0.0144999
0.00953179
0.0655189
0.32976
0.330892
0.0843049
0.0397239
0.0521833
0.00295647
0.000404219
0.000750717
0.0240871
0.354635
0.0405096
0.0115624
0.0789998
0.143692
0.0787158
0.0894654
0.0410114
0.0616653
0.190545
0.199064
0.174431
0.369837
0.472065
0.0360561
0.00418276
0.000107245
0.0105526
0.121203
0.0304685
0.141742
0.0474631
0.0604898
0.0382409
0.0380218
0.0130819
0.055045
0.00755803
0.07154
0.241801
0.368427
0.240222
0.0398002
0.0136284
0.0111414
0.0383141
0.00827662
0.023368
0.205885
0.13458
0.28668
0.0932888
0.00462133
0.0036963
0.0548554
0.0247643
0.0785323
0.371844
0.314401
0.44124
0.125295
0
0.0115682
0.0449253
0.0195373
0.0199484
0.0704689
0.421483
0.294743
0.0342507
0.00335057
0.00277217
0.00404839
0.0010121
0.00172395
0.0280989
0.292433
0.287277
0.0895966
0.011997
0
0
0
0.0239796
0.0804561
0.183917
0.315499
0.153902
0.00319226
0.00384296
0.00803123
0.00239944
0.00064019
0.0152044
0.149201
0.440439
0.287216
0.0142817
0
0
0
0.00576794
0.0530387
0.292694
0.275064
0.0926562
0.0274921
0.00105641
0.000187576
0
0.0290136
0.0981373
0.242554
0.208062
0.249749
0.166706
0.0341791
0.00306731
0.00621401
0.000122754
0.0116298
0.164432
0.50053
0.198462
0.0297976
0.00617331
0.00131303
0
0.00293175
0.0130692
0.0536245
0.171208
0.207765
0.220742
0.250596
0.0291258
0.0103567
0.030801
0.0739381
0.113962
0.130751
0.21755
0.141758
0.0927656
0.0187036
0.023254
0.0530416
0.0777932
0.245264
0.14556
0.207867
0.0702012
0.110147
0.0740765
0.044723
0.0155391
0.00515836
0.0124747
0.0208406
0.133511
0.178489
0.46391
0.164366
0.0556131
0.15307
0.154031
0.13215
0.0629977
0.0823653
0.0546856
0.314784
0.305584
0.215386
0.0823141
0.0646759
0.184283
0.121823
0.0856138
0.0648981
0.0320752
0.0880117
0.109969
0.0603172
0.0523089
0.0652231
0.0637693
0.109846
0.274728
0.125817
0.176481
0.144208
0.242478
0.199558
0.175434
0.116205
0.0375508
0.0684177
0.0482674
0.122189
0.222876
0.257109
0.104408
0.0572032
0.062133
0.0488151
0.382714
0.211029
0.188361
0.285619
0.0260176
0.0374901
0.0298767
0.0589091
0.120865
0.191902
0.149466
0.18039
0.0260454
0.0163094
0.0341256
0.0844322
0.111899
0.188343
0.268192
0.28379
0.184511
0.0208463
0.190084
0.171418
0.099328
0.0782036
0.0322368
0.182009
0.124302
0.138829
0.0649975
0.105475
0.298947
0.423758
0.2578
0.0818766
0.0780041
0.0634195
0.0828986
0.00849556
0.000881036
0.0139174
0.0462356
0.0592188
0.152446
0.197607
0.216605
0.0488341
0.00369813
0.000341339
0.0070782
0.0124827
0.0140514
0.0832442
0.344924
0.445413
0.0205083
0.000491419
0.00758133
0.0796031
0.189656
0.157862
0.104665
0.0902399
0.0469989
0.0147363
0.00230819
0.00248337
0.0111094
0.0213656
0.038242
0.18552
0.507193
0.261584
0
0
0
0.00194384
0.00583152
0
0.0532851
0.268056
0.19172
0.0132905
0.000446449
0
0.0116667
0.0166847
0.0185631
0.135734
0.451613
0.160803
0.0228448
0.00825281
0
0.0011663
0.00845203
0.00444067
0.199253
0.383136
0.157616
0
0
0
0.0187398
0.0595601
0.0239701
0.31229
0.471928
0.062391
0
0
0.00426721
0.0435208
0.17542
0.125173
0.0942003
0.170099
0.0449154
0.00629704
0.011691
0.0183473
0.160883
0.496001
0.355834
0.0347247
0.0119895
0.000213789
0.00787939
0.00895282
0.00048462
0.0553288
0.245878
0.105373
0.146946
0.250686
0.0280329
0
0
0.00339234
0.108274
0.37788
0.266132
0.159644
0.0810768
0.0133224
0.00453465
0.00244173
0.0354699
0.0790177
0.105893
0.218488
0.109588
0.0252666
0.0193935
0.0788218
0.0666954
0.0270562
0.117861
0.064078
0.252223
0.201367
0.122946
0.0700714
0.150012
0.067446
0.123555
0.057278
0.0848042
0.0744191
0.0693845
0.0757593
0.0570986
0.0812029
0.12476
0.0670774
0.0400649
0.0190187
0.0418105
0.249133
0.672561
0.157321
0.146016
0.0672625
0.00475001
0.0170142
0.0251581
0.12448
0.195843
0.078919
0.0205514
0.0250455
0.00726201
0
0
0.0230542
0.214538
0.398371
0.0562741
0
0
0
0.00336512
0.00157194
0.0122458
0.0233237
0.299061
0.422362
0.0402606
0.0214776
0.00567722
0
0
0.018924
0.0418903
0.520636
0.310285
0.0445082
0
0
0.002406
0
0.035391
0.284224
0.372975
0.0540552
0.00447821
0.000610458
0.000126632
0.0172849
0.0119068
0.0461896
0.111484
0.0654128
0.0613644
0.182493
0.027245
0.00265779
0.00401
0
0.00678611
0.0753188
0.493474
0.374932
0.0942251
0.00297113
0.00384243
0.02807
0.0747901
0.308446
0.171559
0.186103
0.0905266
0.0700835
0.012906
0.00752968
0.0451739
0.0283833
0.0565895
0.0165403
0.0042949
0.0268275
0.216017
0.12494
0.0328365
0.263135
0.140898
0.0509693
0.00431439
0
0.00617939
0.119773
0.178989
0.208247
0.069544
0.20211
0.398952
0.0938492
0.0278857
0.00503978
0.0325086
0.03742
0.0210434
0.410025
0.384271
0.235071
0.0289811
0
0.000568335
0.0128685
0.0472755
0.229508
0.204628
0.0995665
0.0228938
0.00711291
0.00118038
0.006719
0.00681044
0.0310565
0.182167
0.174511
0.0424751
0.00966748
0.00426775
0.0019673
0.0404416
0.0276603
0.0557601
0.34764
0.326212
0.0901764
0.0156572
0.00101644
0
0
0.000209821
0.00858552
0.302894
0.242159
0.0120714
0.00447244
0
0
0
0.0136801
0.0998052
0.627273
0.162775
0.110041
0.0426249
0.0114396
0.000337156
0.0212605
0.0334197
0.0749278
0.230407
0.0990017
0.226812
0.183062
0.0626107
0.000938295
0.00105752
0.041359
0.0937568
0.0792816
0.106159
0.0291128
0.0035149
0
0
0.00623984
0.163416
0.286161
0.447642
0.0460579
0.0633315
0.0222073
0.0051876
0.0255248
0.0960953
0.439872
0.36033
0.141103
0.0196278
0.0937964
0.128172
0.0861628
0.027755
0.0177338
0.0257529
0.0357106
0.0125346
0.00951399
0.00869163
0.0224389
0.141439
0.343333
0.24162
0.058171
0.00121819
0.000905024
0.0157514
0.0302272
0.0448122
0.0591922
0.0679982
0.125196
0.206444
0.110416
0.0202053
0.013568
0.00533136
0.115824
0.668666
0.29121
0.0468988
0.0182508
0.00457814
0.00150837
0.000757915
0.00013375
0.00691419
0.105275
0.305891
0.157112
0.0290873
4.51478e-005
0
0
0.00683049
0.0317478
0.171383
0.323349
0.124787
0.0127335
0.000554039
0
0.00126319
0.000222916
0.0570066
0.453195
0.280817
0.0247638
0.000948104
0.000316035
0
0.00192676
0.00313703
0.0103434
0.447194
0.355573
0.0651529
0.0217013
0.00387827
0
0
0.0224644
0.100115
0.137592
0.192863
0.158696
0.0781075
0.00182214
0
0.00227636
0.0159592
0.0981606
0.106672
0.215328
0.235653
0.143803
0.00323838
0.000975583
0.00633679
0.0103172
0.0061937
0.235314
0.174396
0.173517
0.225088
0.012755
0
0.0197366
0.0061903
0.017728
0.0288034
0.111276
0.523851
0.432097
0.0112282
0.00682908
0.0728384
0.0567685
0.0888938
0.055982
0.0322029
0.0423299
0.0196439
0.00885757
0.0378974
0.0395853
0.0356042
0.043644
0.0158462
0.132557
0.62292
0.0838228
0.0122434
0.00865581
0.0842653
0.0694049
0.0649833
0.026415
0.025751
0.0251178
0.00356234
0.000813695
0.0589751
0.0244795
0.0305011
0.0389711
0.0157597
0.135509
0.643338
0.101411
0
0.0116042
0.0025456
0.00237815
0.00633429
0.00156468
0.115419
0.391896
0.0383804
0.00116066
0.00028925
0
0
0.00916861
0.0027944
0.126424
0.291875
0.0901578
0
0
0.00106649
0.00130765
0.0010556
0.00128854
0.0587421
0.590252
0.166901
0
0.000596126
0
0
0.00092621
0.00215042
0.0305706
0.463147
0.239955
0.0048207
0
0.00031608
0
0.00194607
0.0108368
0.0950922
0.292649
0.161421
0.00173046
0.00213165
0.00221256
0.0156626
0.140467
0.119396
0.19066
0.144135
0.0790801
0.00305463
0.00364147
0
0
0.000181901
0.00815621
0.032372
0.330795
0.426969
0.0184118
0.000302145
0
0
0.0337829
0.0699607
0.193565
0.343794
0.481916
0.0539159
0.00636913
0.0177789
0.116065
0.295254
0.155128
0.117685
0.0565773
0.0403382
0.0154404
0.00653171
0.259118
0.272099
0.183936
0.0668506
0.0205504
0.0226868
0.0500546
0.0424219
0.117713
0.00315778
0.0128716
0.073957
0.0832573
0.15236
0.23048
0.313248
0.169015
0.0322692
0.171801
0.0513782
0.0582392
0.0378552
0.0342507
0.0777938
0.19703
0.37512
0.336246
0.266615
0.0589883
0.0111531
0.002937
0
0.00168526
0.00543609
0.0190483
0.217067
0.221101
0.0103376
0.000284271
0
0.00598469
0.00256487
0.0199131
0.0998312
0.410976
0.227783
0.0139437
0.00536043
0.0017622
0
0.00567687
0.0146155
0.093775
0.407577
0.384685
0.0723384
0.0019899
0
0.00997449
0.00427479
0.00827861
0.0475592
0.420543
0.0698225
0.0280429
0.013776
0.0372513
0.0202911
0.0264551
0.16665
0.220191
0.214803
0.00400176
0.0189492
0.0442526
0.0747831
0.125911
0.171278
0.371015
0.199664
0.0321401
0.251686
0.260112
0.1275
0.0633129
0.0338185
0.025149
0.0598261
0.0582513
0.123487
0.0410581
0.258493
0.426706
0.218053
0.191828
0.0912438
0.102644
0.0426667
0.0101779
0.000728947
0.00142107
0.0423417
0.0774811
0.131294
0.134245
0.0935186
0.034134
0.00331313
0.00121491
0.000411179
0.151085
0.47817
0.0896577
0.026592
0.00490812
0.00417859
0.00102304
0.00203149
0.0862818
0.315723
0.165072
0.172037
0.0713591
0.0191221
0.0237282
0.010336
0.000290212
0.0499165
0.509238
0.383284
0.102459
0.0226034
0.000664523
0.0141753
0.00620158
0.000202732
3.57763e-005
0.105737
0.418207
0.167822
0.00607961
0.00174998
0.0054833
0
0.00611058
0.00534311
0.0360759
0.246305
0.333029
0.0978728
0.0441994
0.0414617
0.0122769
0
0.0243277
0.245312
0.366901
0.146868
0.01543
0.00222726
0.00890905
0
0.0361618
0.0455376
0.268242
0.34623
0.248067
0.0523797
0.0348652
0.0809163
0.0253393
0.0325637
0.0168189
0.0275386
0.0940119
0.127515
0.150702
0.14959
0.0640187
0.0752168
0.0435233
0.0127721
0.0741952
0.0225553
0.0858534
0.49147
0.242366
0.0377469
0.100269
0.207328
0.09561
0.190375
0.101895
0.131298
0.0582523
0.0574071
0.123699
0.148726
0.260262
0.0827124
0.147294
0.0146526
0.0575553
0.258082
0.149426
0.16711
0.304471
0.0986814
0.0503091
0.0193562
0.00485328
0.0457362
0.0265347
0.00389861
0.018375
0.0809269
0.0466965
0.0196752
0.00949707
0.0260809
0.169164
0.744671
0.230592
0.00588816
0.0292278
0.0303133
0.0156945
0.0202553
0.0192958
0.0684908
0.0115775
0.0113873
0.0449341
0.035472
0.0338587
0.0101362
0.00250877
0.039735
0.0803605
0.256963
0.15124
0.0410864
0.0325631
0.00104438
0.000199061
0
0.00192183
0.0150666
0.298526
0.204303
0.00095943
0.000745789
0
0
0
0.0059668
0.0114532
0.296021
0.354924
0.00888271
0
0.00476304
0.00110233
0
0.00295845
0.0086346
0.140805
0.23839
0.00947663
0.00264881
0.00343119
0.000140413
0
0.00462117
0.00769455
0.187592
0.687585
0.0506875
0.0011057
0.000337565
0
0
0.00991728
0.0139619
0.123856
0.307155
0.0292993
0.000630518
0.000562608
0
0
0.00647387
0.02486
0.115624
0.393071
0.170773
0.0195036
0.00353678
0
0
0.00911743
0.00785176
0.0953422
0.614056
0.107847
0.00521965
0.0219141
0.00159368
0
0.00378756
0.00218671
0.042077
0.322812
0.329754
0.04269
8.16485e-005
0
0
0.00143609
0.0156164
0.071903
0.231708
0.230533
0.0565619
0.0579604
0
0
0
0.00329953
0.0277295
0.100244
0.281135
0.288895
0.0416951
0.00170896
0
0
0
0.00778859
0.146115
0.363309
0.13456
0.0889693
0.000244137
0
0
0
0.00294902
0.0553948
0.295732
0.596721
0.139621
0
0
0
0
0.00250655
0.00435745
0.0640809
0.281452
0.321136
0.0348487
0.000564894
0
0.00104168
0.000446433
0
0.00316775
0.25051
0.179664
0
0
0
0
0.000316174
0.00038882
0.064537
0.465234
0.546656
0.026016
0
0
0
0
0
0.00435991
0.322007
0.230796
0.177793
0.0686618
0.0064813
0.00331695
0.00142155
0
0.000213135
0.0816074
0.0759391
0.341092
0.290148
0.0526688
0.0317928
0.00300951
0
0.00254167
0.00772171
0.496336
0.169551
0.028969
0
0
0
0
0
0.0927571
0.244944
0.483441
0.176837
0.00268128
0.00144377
0
0
0.00960124
0.0287197
0.028974
0.249702
0.303396
0.0589595
0.0400992
0.00413978
0
0.00831989
0.00625187
0.0106671
0.145804
0.439665
0.0794212
0.0308079
0.00317307
8.88456e-005
0.00534732
0.00375112
0.068314
0.381375
0.21391
0.0128257
0.0240112
0
0
0.0175077
0.025417
0.0247093
0.299595
0.474012
0.085632
0.0380704
0
0.000889941
0.00709763
0.0183959
0.00331918
0.135652
0.377593
0.167087
0.0424293
0.00612004
0.00101973
0.00407894
0.0132767
0.0774207
0.152363
0.293798
0.248652
0.115275
0.00367202
0.00721768
0.0781529
0.0479319
0.0121274
0.278755
0.490734
0.106829
0.0298159
0.000183846
0.00583849
0.00860839
0.0437718
0.093245
0.22951
0.23593
0.0711379
0.0548556
0.00128692
0.0170913
0.0667199
0.108797
0.268208
0.162593
0.12218
0.0635617
0.0904716
0
0.00673788
0.0750889
0.0776958
0.393089
0.109584
0.0636897
0.00278593
0.0139405
0.0175546
0.0922241
0.0925505
0.368993
0.208683
0.215571
0.103979
0.0142499
0.0350634
0.00495112
0.020612
0.043516
0.0730051
0.408019
0.123282
0.0419047
0.0198582
0.0227143
0.0113255
0.0523466
0.0124335
0.331809
0.142938
0.0574899
0.0501703
0.0610666
0.102493
0.00896703
0.05059
0.0863559
0.0522115
0.0899006
0.0410371
0.0187029
0.0341113
0.134716
0.146119
0.216807
0.117634
0.0781012
0.163787
0.0880333
0.208281
0.226369
0.0338424
0.0123356
0.0618933
0.0393413
0.0348471
0.139664
0.0601228
0.135371
0.102975
0.0891536
0.202519
0.239043
0.0963194
0.102574
0.0160267
0.00423034
0.000218746
0.00288024
0.0166089
0.0403055
0.121002
0.0119983
0.00769822
0.0147677
0.00131215
0.0593562
0.0613274
0.0291248
0.081112
0.677916
0.0546595
0.00475889
0.0122094
0.00525201
0.0113254
0.0587658
0.0424651
0.0250104
0.0346387
0.0195237
0.00982294
0.00895755
0.00592547
0.445783
0.418463
0.104468
0.0317368
0.13915
0.0185399
0.00482876
0.0052594
0.00181087
0.0877038
0.0898059
0.00859115
0.0945047
0.518902
0.0861387
0.00496197
0.0267476
0.00301832
0.0377398
0.0540995
0.00521756
0.086804
0.276284
0.177509
0.0590524
0.0254222
0.0140644
0.502872
0.299082
0.0272754
0.0601741
0.146823
0.0112087
0.0141402
0.0461599
0.0175053
0.159155
0.115369
0.0349177
0.11348
0.188989
0.105473
0.123608
0.0589443
0.00219403
0.000699202
0.00537848
0.00566535
0.014469
0.0828566
0.187122
0.186059
0.098121
0.000313432
0
0.000202334
0.000809336
0
0.0172905
0.141125
0.551724
0.0352133
0.0100462
0.00116534
0.0165179
0.0396575
0.0345562
0.0846961
0.202504
0.298711
0.0932776
0.0205474
0.000424447
0.00141634
0.00566535
0
0.0162648
0.161802
0.557887
0.131995
0.00879019
0
0
0
0
0
0.0404727
0.471477
0.455533
0.0516141
0
0
0
0
0
0.00404197
0.309978
0.134997
0.033183
0.000441033
0
0
0
0
0.0340259
0.37235
0.372633
0.104219
6.30046e-005
0
0
0
0.000135968
0.0151345
0.208307
0.45312
0.130898
0.00847666
0
0
0
0
0
0.0736355
0.307217
0.347556
0.101452
0.00279081
0
0.00454355
0.000801804
0.0110556
0.0371109
0.310974
0.211353
0.0052343
0
0
0.000859131
0.00299073
0.0164725
0.0820779
0.276401
0.445716
0.0950695
0.00465135
0
0.0339787
0.0143608
0.0130365
0.0435792
0.0879709
0.366989
0.284632
0.0280084
0.0133325
0.00700234
0.0011449
0.0188134
0.0302479
0.0503361
0.287575
0.468705
0.145791
0.0274943
0.00928882
0.00798165
0.0250784
0.0522272
0.131994
0.314114
0.27561
0.0386885
0
0.0520666
0.0245858
0.00300021
0.0356382
0.0684866
0.137058
0.243166
0.107934
0.0192357
0.0536779
0.0227245
0.0318976
0.0689537
0.071768
0.257503
0.451082
0.214071
0.0726536
0.02713
0.0437142
0.0663701
0.127597
0.132901
0.170421
0.178588
0.0754683
0.0917022
0.0314134
0.078481
0.066106
0.169432
0.113912
0.0751809
0.0917889
0.154387
0.0975935
0.0966833
0.0524814
0.0945101
0.105133
0.160311
0.062481
0.0259264
0.0515443
0.0729521
0.0620362
0.123603
0.0907792
0.24434
0.100282
0.12138
0.112097
0.00750614
0.050812
0.0542406
0.120424
0.0491098
0.0923718
0.161866
0.0594799
0.0365362
0.0478143
0.0508983
0.0949422
0.304335
0.078956
0.110299
0.0553848
0.0176185
0.0117945
0.0133587
0.0224623
0.0801749
0.264049
0.101994
0.144074
0.0115608
0.00015378
0.0104057
0.0159969
0.011881
0.121097
0.49719
0.349096
0.031187
0.0426961
0.0272525
0.0500307
0.0528418
0.0122505
0.00498335
0.008415
0.00228929
0.0143201
0.063789
0.0327676
0.0418702
0.059904
0.0182278
0.0515423
0.0210962
0.0136591
0.0390944
0.405531
0.0499362
0.0129981
0.00525267
0.0117135
0.00381943
0.00425154
0.00609085
0.43883
0.525405
0.124375
0.0287274
0.122885
0.0780214
0.0185949
0.0492312
0.0369313
0.274411
0.0064084
0.0046953
0.0548509
0.121599
0.0208755
0.0105913
0.0047049
0.00848846
0.00687919
0.00123093
0.00245966
0.356978
0.465032
0.0516521
0.012839
0.00223433
0.00529253
0.00302452
0.0444468
0.0182652
0.0913215
0.239205
0.133988
0.0134002
0.0114516
0.00431042
0.0205595
0.00399801
0.00234418
0.263958
0.578744
0.256878
0.0429486
0.00300508
0.00185186
0.00583984
0.0392971
0.01592
0.56228
0.459732
0.0453887
0.0268303
0.00986188
0.000867044
0.01598
0.0778221
0.0596448
0.129783
0.0778634
0.0369998
0.0419788
0.0727817
0.0659689
0.115913
0.0178846
0.0102199
0.195945
0.426775
0.166534
0.0479038
0.00937548
0.00773689
0.0238347
0.0443366
0.0821104
0.0545586
0.0718324
0.0486395
0.00520992
0.0107295
0.0117591
0.0327678
0.0627997
0.0647454
0.0326712
0.0212521
0.0441115
0.0185284
0.050261
0.151053
0.359107
0.126567
0.0781381
0.0385654
0.0146375
0.0120374
0.00319892
0.0336365
0.132005
0.663399
0.0362338
0.101396
0.0945859
0.0765244
0.0529624
0.00013949
0.0026503
0.0131598
0.114173
0.065431
0.124123
0.191733
0.100525
0.0475712
0.00533153
0.037893
0.0327679
0.261223
0.164864
0.0581403
0.0164007
0.00814337
0.00241319
0.0119854
0.0708457
0.102096
0.491388
0.343426
0.0912755
0.0261506
0.0240886
0.00148842
0.0256345
0.0902489
0.110012
0.330875
0.0393239
0.0792873
0.180827
0.0848211
0.0186475
0.0269962
0.118076
0.076847
0.188879
0.0363723
0.0434727
0.215066
0.169649
0.0500293
0.0918686
0.149461
0.0927348
0.148246
0.245786
0.190046
0.0403533
0.0782942
0.00524167
0.0312342
0.0605867
0.108719
0.200927
0.302022
0.390355
0.140334
0.0719991
0.003145
0.0892953
0.0733046
0.0620835
0.107638
0.0243795
0.0232611
0.162555
0.240926
0.0779469
0.0684975
0.0984817
0.112547
0.128642
0.0475788
0.0490501
0.131939
0.157762
0.0270721
0.101128
0.211853
0.17673
0.113236
0.19535
0.234353
0.253924
0.064142
0.0242964
0.0703263
0.0649714
0.0143527
0.0540119
0.0931429
0.179201
0.232693
0.178835
0.0642845
0.0469066
0.0340131
0.0381149
0.0633874
0.0575663
0.0838039
0.166485
0.0319253
0.040494
0.0604295
0.210524
0.170868
0.0598531
0.168905
0.123574
0.124514
0.107465
0.0726908
0.00514685
0.0749366
0.272242
0.340909
0.0821457
0.0959494
0.0608701
0.109469
0.0469754
0.031385
0.0144877
0.0518624
0.0550368
0.0890174
0.0647075
0.0337772
0.042718
0.0507097
0.0145887
0.0655053
0.0865301
0.168463
0.18188
0.0627224
0.0481466
0.0689795
0.0156254
0
0.0331523
0.237338
0.365267
0.234628
0.0544564
0.0344013
0.0268069
0.0219556
0
0.0493884
0.383771
0.368876
0.0461979
0.0502443
0.0640588
0.0322001
0.0518707
0.0499589
0.155065
0.0570693
0.0832499
0.0573118
0.069776
0.102793
0.0304949
0.023308
0.113967
0.240568
0.178226
0.0506478
0.200132
0.128102
0.101908
0.0183988
0.061734
0.0207353
0.0339129
0.186521
0.282661
0.205207
0.25023
0.2168
0.0764239
0.179767
0.0879639
0.119166
0.0683592
0.300481