0
0
0
0.0746253
0.56789
0.00260322
0
0
0
0
0
0
0.0295958
0.321605
0.00340848
0
0
0
0
0
0
0.110456
0.56789
0.00111639
0
0
0
0
0
0
0.0479539
0.417881
0.000486925
0
0
0
0
0
0.000185669
0.0422778
0.484191
0.0131591
0
0
0
0
0
0.00129968
0.05934
0.385333
0.0307969
0.00170258
0
0
0
0
0.000187162
0.0798977
0.565948
0.00307447
0
0
0
0
0
0.00131013
0.0926926
0.468068
0.0218158
0.000882947
0.000710686
0.000868617
0.00474246
0
0.00873697
0.185987
0.492479
0.139253
0.0422015
0.0145569
0.00145813
0.0496196
0.0146484
0.0703577
0.0681856
0.0822881
0.049708
0.0370809
0.0307582
0.0321072
0.0244498
0
0.00711752
0.23651
0.547259
0.152621
0.0428262
0.0184111
0.018142
0.0517574
0.00878243
0.0498017
0.0711193
0.085352
0.091585
0.0922184
0.0319607
0.0507177
0.195256
0.0637664
0.156149
0.0378314
0.0151023
0.015298
0.0149729
0.0264842
0.101934
0.202996
0.0857138
0.15936
0.0707642
0.129178
0.128357
0.0603461
0.0206911
0.108531
0.107846
0.0820808
0.120037
0.068331
0.0260618
0.0400245
0.0603967
0.0564185
0.15765
0.195855
0.229206
0.302677
0.0494176
0.105649
0.105419
0.0981868
0.0487843
0.142359
0.0136514
0.0203839
0.0780579
0.0673014
0.111741
0.0791131
0.00888411
0.00144552
0.00945409
0.000949393
0.0172554
0.108013
0.223888
0.380771
0.125102
0.000476386
0
0.000949393
0.0222546
0.0415451
0.114802
0.0282048
0.130353
0.121721
0.0212137
0.00659699
0.0106426
0.00228297
0.0108524
0.0732983
0.167974
0.631626
0.238503
0.00869505
0.000619875
0.00228297
0
0.000562896
0.0117749
0.0702166
0.145617
0.063742
0
0
0
0
0
0.0029564
0.0922409
0.55422
0.144641
0
0
0
0
0.00174371
0.0506471
0.0879724
0.209827
0.0664511
0.000494674
0
0
0.0567294
0.00555678
0.0586793
0.0949875
0.653181
0.233988
0.0538606
0
0.0123103
0
0.000979207
0.0153639
0.150371
0.47078
0.0623061
0.0116631
0
0
0.0297064
0.0341438
0.0652022
0.154841
0.245601
0.0203029
0.024239
0.0052881
0.0546413
0.127714
0.0310744
0.125431
0.12707
0.41283
0.215805
0.0783645
0
0.0229448
0.153622
0.10061
0.412622
0.24768
0.116639
0.0783062
0.0862287
0.0258451
0.108213
0.0664048
0.046435
0.0338156
0.048599
0.0646247
0.00823372
0.0171188
0.042749
0.195025
0.0361017
0.0151616
0.00706499
0.0125191
0.0366672
0.0381775
0.0455034
0.0771189
0.179044
0.210232
0.108773
0.197004
0.132975
0.0253965
0.037051
0.135448
0.147061
0.428046
0.101886
0.0341275
0.010155
0.0170819
0.126171
0.309833
0.34025
0.222109
0.420398
0.00793942
0.0107523
0.0340011
0.0688587
0.0503073
0.0964736
0.0687886
0.0486824
0.0610504
0.00368483
0.023504
0.0396097
0.0741413
0.0602336
0.127168
0.0523665
0.0108965
0.00523704
0.0117706
0.0336061
0.0330558
0.0673936
0.337884
0.594626
0.326911
0.117108
0.132213
0.0238074
0.0834123
0.11265
0.153254
0.182468
0.142728
0.017781
0.00163901
0.0112931
0
0
0
0.118779
0.558433
0.000883077
0
0
0
0
0
0
0.0383675
0.331375
0.000336581
0
0
0
0
0
0
0.111695
0.558433
0.00519874
0
0
0
0
0
0
0.060663
0.423865
0.00235607
0
0
0
0
0
0.000591293
0.0620335
0.513828
0.00811244
0
0
0
0
0.000309823
0.00662498
0.0684556
0.358651
0.0333387
0.000263763
0.000780262
0.000953654
0
0
0.00379863
0.107559
0.59863
0.013401
0
0
0
0
0.00216876
0.0376032
0.1072
0.39309
0.0327839
0
0.000111466
0.000136236
0.0117839
0.00715391
0.0528317
0.196081
0.420428
0.182584
0.0292144
0.0255633
0.0231719
0.0248118
0.00729306
0.0286762
0.0329244
0.119005
0.0947017
0.0911164
0.0443618
0.0537381
0
0.0506236
0.21631
0.31432
0.38203
0.134191
0.0118634
0.0243071
0.00686672
0.0182917
0.0355098
0.06113
0.0481075
0.207242
0.0919881
0.0452009
0.0622555
0.0651577
0.0426963
0.0700837
0.0290858
0.0273803
0.0320131
0.0385817
0.0705901
0.0698817
0.0835876
0.104164
0.246149
0.129361
0.0103515
0.0117952
0.0187581
0.100362
0.0842781
0.0717474
0.0457095
0.0429042
0.0170057
0.00785848
0.159248
0.14042
0.108888
0.0879938
0.103646
0.298423
0.356571
0.153868
0.0418201
0.131378
0.165982
0.12501
0.113887
0.112958
0.0206391
0.0495157
0.0294312
0.000979024
0.0437422
0.035233
0.0167816
0.00988023
0.00774125
0.0348703
0.0356344
0.0428592
0.0539935
0.235498
0.152322
0.0640379
0.00111966
0.0135764
0.179769
0.20289
0.0852954
0.019216
0.0243965
0.021536
0.0127592
0.0104406
0.0120875
0.490053
0.60863
0.140005
0.0206882
0.106892
0.119383
0.0950435
0.000671795
0.0828989
0.0199951
0.048973
0.0627053
0.0423659
0.0767083
0.0398449
0.0156591
0
0.00399065
0.117583
0.173556
0.115484
0.0471703
0.16388
0.108319
0.0457067
0
0.0278629
0.097482
0.399268
0.155355
0.00837992
0.022343
0.0246295
0.0249287
0
0.0279346
0.130309
0.674956
0.383397
0.0179776
0.012346
0.0166097
0.00923768
0
0.0203663
0.187375
0.158452
0.117847
0.0448757
0.106693
0.0818476
0.0479514
0.000853192
0.0547526
0.143237
0.098047
0.231971
0.140804
0.0731346
0.0305379
0.0475876
0.0372109
0.102753
0.261736
0.564705
0.219068
0.0274977
0.0253257
0.0100125
0.0129147
0.0304619
0.0939595
0.268364
0.204052
0.11219
0.08357
0.0836251
0.0906669
0.119617
0.234357
0.21345
0.0806537
0.0210839
0.069742
0.0573987
0.0718434
0.0647555
0.0821168
0.077273
0.156282
0.0249876
0.00633698
0.00211931
0.00772764
0.311549
0.248832
0.129867
0.0612404
0.104244
0.0700339
0.00642598
0.0148697
0.0466777
0.277272
0.131767
0.112658
0.131633
0.0960532
0.00684883
0
0
0.0534395
0.715885
0.135537
0.0377637
0.0200557
0.0217687
0.00183741
0.00449337
0.00804847
0.0156938
0.354925
0.230084
0.0585641
0.0113782
0.0114135
0.00739325
0.0167775
0.0235167
0.0290203
0.102784
0.0378965
0.00260652
0.000486845
0.00568431
0.000440853
0
0.00307796
0.0713215
0.806831
0.0965989
0.0110724
0.000825906
0.000440853
0.00579471
0.00479704
0.00914925
0.0260044
0.183595
0.0401803
0.0262048
0.00634198
0.00321743
0
0
0
0.144615
0.569738
0.00969094
0
0.000369139
0.000685544
0
0
0
0.148442
0.338416
0.0021787
0
0.000615231
0.00114257
0.0263192
0.0124229
0.00505411
0.15564
0.405603
0.20969
0.100048
0.0435677
0.0144199
0.0438654
0.0957649
0.131962
0.37916
0.192418
0.0192106
0.0171972
0.0288969
0.0182098
0
0
0.00920884
0.261899
0.432035
0.00475368
0.000797385
0.000365679
0.000177404
0
0.000970989
0.029829
0.173403
0.255679
0.0316877
0.00913605
0.00189107
0
0.00751726
0.0602253
0.175283
0.614861
0.186628
0.0063325
0.00629562
0.00255975
0.0023188
0.00580769
0.0238121
0.0955327
0.323029
0.101094
0.0719447
0.0564549
0.0132375
0.000243705
0.00290844
0.0134825
0.0500423
0.0902537
0.0931206
0.0771391
0.0300823
0.00555369
0.00157223
0.0511953
0.0359854
0.0540722
0.0182329
0.0363676
0.0333179
0.0184104
0.0117464
0.0379807
0.071246
0.0821201
0.0984701
0.15594
0.0482149
0.17149
0.107288
0.0237937
0.0301328
0.273108
0.73209
0.294311
0.053246
0.0067646
0.0415315
0.0226842
0.0154309
0.0874255
0.0293565
0.0276445
0.0135761
0.000305961
0.0148709
0.0133168
0.0032865
0.0033181
0.0234508
0.110602
0.123103
0.0536376
0.0114023
0.026944
0.022085
0.00248047
0.00280809
0.0462101
0.0782575
0.438585
0.15959
0.00119797
0.00436945
0.0038812
4.38192e-005
0.000941572
0.0323779
0.303593
0.730295
0.186916
0.00684137
0.0135601
0.00890663
0
3.56967e-005
0.0773606
0.0711533
0.15258
0.0907799
0.0128457
0.00504491
0.00320802
0.000233168
0.000446039
0.00881288
0.15239
0.369692
0.112026
0.00587216
0.00429479
0.00349718
0.0029699
0
0.00744929
0.165918
0.444304
0.183241
0.0100407
0.00256285
0.0013652
0
0
0.0282912
0.161925
0.533994
0.405786
0.0198565
0
0
0
0
0.0450358
0.0802599
0.33862
0.100946
0.000543533
0.0013327
0.00144584
0.00200351
0
0.00626826
0.064863
0.479938
0.241585
0.00426732
0
8.15044e-005
0.000244513
0
0.0014684
0.107315
0.442478
0.173309
0.00887303
0
0
0.00518655
0.0109718
0.0688169
0.0831463
0.46914
0.20832
0.0266331
0
0
0.0433252
0.0579656
0.0982734
0.183575
0.434058
0.12491
0.00660789
0.0150473
0.0121988
0.0198619
0.0357907
0.0538571
0.168362
0.125772
0.0181889
0.0193274
0.184013
0.167453
0.13883
0.160964
0.105934
0.127763
0.284985
0.100774
0.0580024
0.0731311
0.0111483
0.0481366
0.0660742
0.102536
0.0696954
0.0600322
0.0265142
0.179233
0.57689
0.127324
0.0731997
0.0555274
0.0692235
0.0165191
0.000553685
0.000553685
0.0214439
0.24362
0.114192
0.0746681
0.0532158
0.0189374
0.000408585
0
0
0.0425705
0.504633
0.0234003
0.00834486
0.00126699
0.00021288
0.00183655
0
0.00304506
0.083202
0.541371
0.0813561
0.0236652
0.00962278
0.00459649
0
0
0
0.0632749
0.541939
0.0499902
0.00433377
0.00576413
0.00164482
4.53858e-005
0
0.00353827
0.0674688
0.605822
0.021979
0.00535495
0.00133844
4.53858e-005
0.0126446
0.00359296
0.00867027
0.0239403
0.116129
0.0217313
0.0192545
0.00691261
0.000654994
0.00345191
0.00284102
0.00334054
0.095595
0.684596
0.0758316
0.0223296
0.0489556
0.0311503
0.0419772
0.032646
0.0179257
0.0329538
0.113908
0.0271082
0.0196523
0.0597873
0.0831485
0.0984031
0.0411408
0.00835192
0.0321149
0.0884577
0.290527
0.273666
0.12244
0.0392337
0.169159
0.281324
0.239941
0.162901
0.0307052
0.0238345
0.0353277
0.0765101
0.0300495
0.1367
0.0737942
0.00414207
0.0226902
0.0295144
0.324131
0.37354
0.15107
0.0488327
0.279118
0.333803
0.179382
0.055987
0.0336291
0.054814
0.0610974
0.104926
0.0376918
0.0301878
0.164088
0.292665
0.320831
0.0381296
0.0055822
0.00552523
0.00341247
0.0016498
0.0650359
0.088028
0.128888
0.268246
0.0339538
0.0382923
0.0320813
0.00558088
0.000712556
0.122943
0.306277
0.251661
0.0869287
0.0354995
0.00525936
0.01155
0.0172283
0.0106328
0.182712
0.566079
0.214532
0.155491
0.0311587
0.0241917
0.00417869
0.00239957
0.00567279
0.078753
0.130772
0.0318211
0.0493438
0.00577775
0.0189407
0.0112422
0.00340334
0.00765394
0.0990418
0.449415
0.0628989
0.00661796
0.00041887
0.00566602
0.00165036
0.00349327
0.0228573
0.119659
0.499828
0.114543
0.0377959
0.00365417
0.00673486
0.000826912
0.000299423
0.00168675
0.12614
0.611518
0.164611
0.00162359
5.98386e-005
0.000720458
0.00012714
0.000499039
0.0192002
0.0402472
0.368563
0.078917
0.000202273
0
0
0
0.000342786
0.0104343
0.0998803
0.493277
0.119908
0
0.000281086
0.00159282
0
0.00964328
0.0157253
0.118233
0.493277
0.0638971
0
0
0
0
4.89695e-005
0.0131288
0.1665
0.493277
0.0790272
0
0.0019676
0.0140099
0.00190677
0.0160721
0.0125992
0.191302
0.441119
0.126872
0.00678136
0.0291045
0.0219969
0.00719374
0.0406591
0.051974
0.239232
0.25661
0.291799
0.0474695
0.0472662
0.0301444
0.0336004
0.0307691
0.138668
0.153071
0.371601
0.0583737
0.00708962
0.0547136
0.137612
0.0775935
0.071697
0.0384558
0.195598
0.0847075
0.0608927
0.0496273
0.0825007
0.183098
0.356811
0.112068
0.150794
0.183942
0.175705
0.126735
0.019498
0.00790476
0.00440002
0.0277466
0.0819925
0.219095
0.0853485
0.113859
0.057132
0.016266
0.0206405
0.0045298
0.0955479
0.300144
0.302558
0.278563
0.030145
0.0206209
0.0183216
0.0216019
0.0297184
0.186509
0.155454
0.30377
0.295742
0.0427412
0.0816577
0.0360973
0.144483
0.0317086
0.0789435
0.339705
0.342966
0.0272672
0.0317298
0.0424894
0.05653
0.0655918
0.0100857
0.0662667
0.137942
0.15968
0.0123823
0.00425055
0.0446473
0.191123
0.572225
0.0321291
0.0293033
0.0221488
0.0513797
0.0519758
0.0245986
0.135319
0.10181
0.151
0.0519975
0.0775994
0.155535
0.102993
0.000885829
0.00233396
0.0682066
0.133202
0.60038
0.147375
0.063766
0.0458466
0.0241172
0
0
0.00538921
0.0977636
0.450431
0.0239638
0.00213906
0.00102866
0
0.00565994
0
0
0.055654
0.401548
0.129433
0.00714654
0.0118632
0.00835621
0
0
0.00257441
0.0666249
0.563085
0.0708868
0.00572545
0.00385282
0
0.0101917
0
0.0156276
0.110541
0.423394
0.177132
0.00908422
0.00578367
0.0118235
0.0463599
0.00250905
0.00107531
0.0308762
0.302606
0.175128
0.0241327
0.084528
0.125666
0.144156
0.023594
0.00934072
0.00709806
0.0333933
0.0232121
0.0113476
0.0886081
0.375118
0.0927545
0.0150059
0.0280326
0.0844663
0.224262
0.250342
0.0243804
0.0428145
0.184017
0.328366
0.0322854
0.00485899
0.0104693
0.0198688
0.0327206
0.00838819
0.0409236
0.559885
0.046579
0.0320087
0.0196775
0.044061
0.191734
0.387111
0.145145
0.0504962
0.0397887
0.121427
0.138117
0.151176
0.156254
0.169779
0.115479
0.034454
0.0536166
0.0775347
0.138618
0.0398734
0.161347
0.204919
0.297967
0.263622
0.0260755
0.0278845
0.0425042
0.229365
0.0629159
0.154043
0.161819
0.227228
0.10781
0.176151
0.258271
0.220743
0.0995707
0.205086
0.120834
0.0578383
0.101094
0.0121837
0.00562663
0.0326638
0.0301001
0.127219
0.417607
0.169362
0.0474784
0.151649
0.140323
0.0208844
0.0417296
0.00895401
0.0604961
0.0673413
0.0549142
0.0664663
0.150539
0.0172374
0.188718
0.284576
0.14089
0.0466737
0.0941385
0.0750788
0.12245
0.245974
0.206135
0.362626
0.366958
0.0689273
0.0398616
0.323022
0.108341
0.0298421
0.0525441
0.0699556
0.0153298
0.0341593
0
0.0558701
0.528485
0.105114
0.0349389
0.0114197
0.0191929
0.00712956
0.0495754
0.00391803
0.0113859
0.0912174
0.0502424
0.0529234
0.0922546
0.10983
0.196697
0.322624
0.0257312
0.0263453
0.173205
0.0344307
0.0567548
0.0202577
0.0319882
0.153719
0.528485
0.0726348
0.116966
0.515627
0.0595153
0.014826
0
0
0.000783283
0.0193482
0.00942134
0.196119
0.446979
0.0577446
0.0076268
0.00119385
0.0114824
0.00314487
0.00475136
0.0193498
0.0602006
0.114067
0.0613925
0.0828471
0.0230936
0.00061873
0.0322621
0.386099
0.144502
0.134639
0.331054
0.198901
0.109607
0.101965
0.0411498
0.0281574
0.122665
0.0834263
0.104908
0.28833
0.0625232
0.00192538
0.00968764
0.0709137
0.0489391
0.0227314
0.017908
0.116607
0.182434
0.0436478
0.00660732
0.0128161
0.117931
0.264659
0.153547
0.140389
0.107002
0.453014
0.199003
0.0524115
0.0336178
0.0851789
0.0514674
0.0470588
0.0234862
0.194451
0.32825
0.236239
0.0687948
0.00122106
0.0958294
0.171967
0.292579
0.233632
0.24944
0.0270142
0.00388355
0.00267252
0.00627274
0.0385447
0.167656
0.133594
0.252779
0.391114
0.0936433
0.0941631
0.0345142
0.0606684
0.0165075
0.0256644
0.0729185
0.2328
0.202312
0.0830769
0.053502
0.0119794
0
0.0810802
0.215111
0.27677
0.349195
0.230383
0.0959658
0.0391581
0.0249936
0.0227365
0.114786
0.18093
0.0954523
0.322662
0.0876054
0.0587777
0.12413
0.105249
0.0920288
0.029865
0.0204354
0.0242169
0.0378205
0.0062085
0.00649109
0.0493827
0.145997
0.624326
0.0865466
0.0235955
0.0135121
0.0052165
0.0668279
0.0513662
0.0475029
0.0770102
0.109601
0.0723013
0.0659272
0.0116157
0.0740556
0.0103475
0.0119474
0.0253619
0.13887
0.624326
0.118703
0.0241062
0.00282957
0.0109245
0
0
0.00114491
0.0585439
0.494451
0.0468963
0.00251887
0.00145855
0
0.00165759
0.0080719
0.0683222
0.162295
0.283119
0.0600726
0.0121069
0
0.00219705
0
0
0.00107486
0.0786004
0.575232
0.0598518
0.00504198
0.00479933
0.000635664
0.00202263
0.0134532
0.0980338
0.228665
0.408776
0.0807321
0.0421819
0.0028796
0.00240403
0.0346984
0.0455684
0.18397
0.205035
0.194415
0.115726
0.111084
0.0117518
0.0565397
0.228051
0.055071
0.0254663
0.0163582
0.0355303
0.0382133
0.0894065
0.0221628
0.229646
0.0333722
0.0501656
0.272159
0.26469
0.320843
0.175739
0.330449
0.05743
0.0364141
0.186752
0.0348941
0.0383908
0.00987671
0.0249991
0.0860607
0.294237
0.148937
0.251211
0.0945802
0.0513298
0.284036
0.204839
0.192272
0.0623791
0.0356875
0.0265502
0.0145815
0.148453
0.0389097
0.104101
0.0714665
0.124897
0.0540666
0.266382
0.32386
0.128835
0.0156583
0.113397
0.41521
0.282198
0.231281
0.0478496
0.0634234
0.0134869
0.0216211
0.0589087
0.0324347
0.0955938
0.105693
0.147093
0.078016
0.188846
0.196788
0.200677
0.037019
0.00244634
0.00751625
0.0102427
0.0230537
0.0157059
0.24655
0.342316
0.137697
0.0274642
0
0
0.0393358
0.0444214
0.0940089
0.389095
0.35466
0.152279
0.0499998
0.0101374
0.00763149
0
0.00497421
0.0406386
0.11687
0.256078
0.164316
0.0452852
0.0116072
0.00212825
0
0.00205953
0.167992
0.358988
0.346894
0.162529
0.0022533
0
0.000455378
0.0126687
0.0213292
0.0441982
0.193016
0.258009
0.0934258
0.00332833
0
0.00229044
0.00823497
0.00413543
0.0164311
0.192608
0.547401
0.142707
0.00437538
0.000944831
0
0
0.00133281
0.0608472
0.175067
0.242687
0.149381
0
0
0
0
0.000190402
0.0202886
0.179664
0.547401
0.159619
0.00846291
0.00206132
0.0113561
0.0335993
0.0161702
0.00330573
0.0739923
0.406941
0.141122
0.0139895
0.0526892
0.0459578
0.0533007
0.0760059
0.0320916
0.12634
0.308087
0.102367
0
0
0
0.00340231
0.00231002
0.00575249
0.173524
0.468947
0.0751304
0
0
0
0.00567051
0.0178823
0.016079
0.295548
0.499664
0.169201
0.0216004
0.108352
0.0867486
0.0474875
0.0488056
0.12186
0.145299
0.141515
0.0493554
0.210841
0.19444
0.197525
0.0790485
0.0146358
0.131867
0.135316
0.114637
0.108891
0.00453526
0.00680289
0.0167624
0.00923169
0.0354791
0.081831
0.290152
0.377346
0.240762
0.163506
0.108732
0.155254
0.0369073
0.0421729
0.188807
0.422238
0.280896
0.140288
0.230509
0.185314
0.0881862
0.0189509
0.00160185
0.0744124
0.167962
0.112484
0.174234
0.07556
0.0956741
0.0540858
0.0224073
0.0356998
0.172181
0.333559
0.0741424
0.145617
0.214508
0.135249
0.119426
0.0184681
0.0112129
0.134066
0.240279
0.275644
0.170378
0.123253
0.0611182
0.107253
0.0226267
0.0510748
0.198843
0.34706
0.303677
0.174348
0.00808456
0.0164638
0.0363348
0.0294642
0.124069
0.118896
0.11795
0.0133674
0.0242019
0.00127141
0.00753468
0.0169665
0.0248206
0.618065
0.135691
0.0219966
0.00274027
0.00252941
0.0509577
0.00989288
0.0814854
0.0411331
0.244907
0.109398
0.110008
0.0587028
0.0255911
0.00874593
0.00528533
0.0282447
0.0512606
0.618065
0.0757085
0.00982081
0.000866129
0.00104024
0
0.000672943
0.00063814
0.0490362
0.511444
0.0618663
0.00736342
0.0072874
0.00184423
0.0161708
0.00332287
0.0207331
0.119428
0.324932
0.142577
0.0841665
0.0325617
0.00714359
0
0.0047106
0.0131905
0.0867836
0.60602
0.0442055
0.00440136
0.00260677
0.00110654
0.0297492
0.0184228
0.0294539
0.149632
0.276381
0.171454
0.114129
0.054507
0.00985306
0.149969
0.033418
0.039493
0.0753645
0.186911
0.159581
0.202233
0.0703407
0.0368965
0.367923
0.0498118
0.00564186
0.00366816
0.00771346
0.0401527
0.114621
0.0701502
0.0890699
0.266799
0.0829643
0.0342674
0.0737316
0.0868254
0.131699
0.193368
0.109522
0.0904282
0.599425
0.0830925
0.00418108
0.0039031
0.00110192
0.00629161
0.0332952
0.0387487
0.256616
0.0197372
0.128303
0.321579
0.239403
0.10176
0.0209219
0.0876036
0.0459751
0.0940212
0.130773
0.0365383
0.0875539
0.0538249
0.0351915
0.02677
0.0671299
0.0603986
0.270471
0.0481047
0.0489736
0.0830639
0.149404
0.147633
0.0741176
0.150164
0.179919
0.275415
0.222189
0.0483159
0.0278806
0.0367191
0.0471642
0.0105882
0.0431421
0.0877553
0.556346
0.0853409
0.020328
0.0138386
0
0.000966187
0.0187106
0.0224015
0.0620667
0.171188
0.0964904
0.0221004
0.00830316
0
0
0.0688643
0.141953
0.199328
0.262957
0.13049
0.0120158
0.00830316
0
0
0
0.000725135
0.0391177
0.447267
0.221803
0.00709222
0.00498189
0
0
0
0.00394614
0.0489037
0.671969
0.0503932
0.00405398
0
0
0.000535891
0.0273077
0.0880697
0.241293
0.260371
0.0389005
0.00344119
0
0
0.00375123
0.0263887
0.196814
0.550099
0.209459
0.187807
0.00429773
0
0
0.000893151
0.00506118
0.00523625
0.0570007
0.36628
0.226266
0.0106209
0
0
0.00625206
0.0354283
0.101207
0.209489
0.345687
0.00971492
0.00169521
0.00261269
0.00441373
0.00280917
0.00983034
0.23922
0.434252
0.0460875
0.0039593
0.00302499
0.00559343
0.0372745
0.0163405
0.0143714
0.36621
0.500981
0.152745
0.0963981
0.0254408
0.0191866
0.00795903
0.016546
0.0130285
0.107866
0.232891
0.163851
0.0527494
0.0393312
0.0340426
0.100362
0.12557
0.0116606
0.181823
0.272994
0.16947
0.00437977
0.00186123
0.00230437
0.0125904
0.00981316
0.0256767
0.224431
0.2483
0.119308
0.0135925
0.00531805
0.0296075
0.00539769
0.0110789
0.0703931
0.389253
0.447045
0.088926
0.0389567
0.0143551
0.00457225
0.0462772
0.0422424
0.0126408
0.154409
0.167272
0.143532
0.0253857
0.00698166
0.00677949
0.0145581
0.00236321
0.0208984
0.26701
0.497378
0.233261
0.0110033
0.00323906
0.0171427
0.00231318
0.00239966
0.0378592
0.125446
0.383476
0.0838041
0.0478172
0.00507365
0.0212084
0.00544636
0.00857614
0.0420437
0.124053
0.400914
0.102719
0.000710342
0
0.0018697
0.00280454
0
0.0118414
0.209522
0.449643
0.0847635
0.0117421
0.00199458
0.000724687
0.000390216
0
0.00718947
0.281011
0.48714
0.137869
0.0688425
0.0148645
0.0538012
0.0290004
0.114595
0.0162293
0.0490961
0.147921
0.0691528
0.0269575
0.0115287
0.0627762
0.114135
0.537156
0.0079593
0.00149213
0.0131725
0.0283887
0.0935383
0.0135796
0.0493848
0.0170776
0.0305082
0.000631715
0.099389
0.462464
0.288528
0.194807
0.0296255
0.198748
0.193033
0.292827
0.0116158
0.0089387
0.0987076
0.239879
0.00268614
0.00283761
0.0290667
0.117874
0.546997
0.0422535
0.000563268
0.00428083
0.00122947
0.00925223
0.0366162
0.0829756
0.172701
0.241227
0.102901
0.0291679
0.014993
0.0247145
0.0631962
0.0104567
0.0972297
0.198047
0.446879
0.0890514
0.00997157
0.00774138
0.0369817
0.00972756
0.0189938
0.0707041
0.160774
0.384023
0.231642
0.101891
0.0704724
0.0466822
0.0493543
0.0567663
0.0746677
0.0807396
0.0433462
0.0369628
0.0318067
0.0264694
0.16516
0.117228
0.0230135
0.00930807
0.00472996
0
0.0014796
0.00429674
0.0247084
0.443234
0.0824865
0.0240028
0.0707986
0.0764737
0.0802685
0.120475
0.0818212
0.11354
0.27819
0.251559
0.00440925
0.00929884
0.00411271
0
0.0103572
0.00855941
0.0457159
0.681623
0.0275991
0.0716477
0.0359015
0.26355
0.196704
0.0601322
0.0453404
0.0619644
0.140954
0.0872154
0.0835355
0.0422249
0.125981
0.0841026
0.00859032
0.0132263
0.0874232
0.376098
0.0148251
0.0679798
0.140349
0.515759
0.310019
0.0527596
0.019497
0.0178622
0.0637252
0.0524114
0.0763891
0.0859596
0.24428
0.177846
0.0286556
0.0176345
0.103147
0.220488
0.101473
0.012337
0.00527255
0.00181421
0
0
0
0.0680099
0.421717
0.299144
0.00213161
0
0
0
0
0
0.0202518
0.528893
0.127129
0.0256214
0.0097425
0.00783135
0.00584329
0.00190876
0.00525524
0.077912
0.27025
0.338644
0.022817
0
0
0.00972667
0
0.00246901
0.0224663
0.352613
0.21003
0.00400824
0
0
0.000149782
0.000848767
0
0.0101061
0.345434
0.262302
0.00953919
0
0
0.00104848
0.00594137
0.00633816
0.024698
0.505449
0.222557
0.0281444
0
0
0.00307154
0.000633922
0.000271681
0.00547734
0.268984
0.281098
0.0194968
0.00832942
0.0014699
0
0.00443746
0.00190177
0.00815658
0.46829
0.149715
0.0223756
0.00965382
0.00185484
0.00901832
0.00234317
0.00609113
0.0231488
0.327831
0.124387
0.0301093
0.016414
0.0320447
0.071147
0.00391059
0.0406493
0.0471713
0.475535
0.180337
0.00382772
0.00827482
0.00132202
0.000566291
0.0028188
0.00345593
0.0048949
0.347992
0.155843
0.0133443
0.00962383
0.00087412
0.00396404
0.00436648
0.0104105
0.0124358
0.599423
0.0590705
0.00727686
0.00278774
0.0185349
0.023029
0.00139371
0.0376943
0.0598563
0.34206
0.0343376
0.00305419
0.00806174
0.0140125
0.00103381
0.00626502
0.106939
0.186801
0.491763
0.0595881
0.00969141
0.00548015
0.000428238
0.00102822
0.00393253
0.00519937
0.00993315
0.400077
0.0640469
0.00463646
0.00693022
0.00172751
5.13502e-005
0.00480411
0.0170579
0.0757305
0.590502
0.00349499
0
0.00256662
0.00384992
0
0.00993775
0.166346
0.226741
0.198812
0.000245073
0
0
0
0
0.00485027
0.218859
0.472042
0.20806
0.0210145
0.000569668
0.00191493
0.000549989
0.000120799
0.00548156
0.0481703
0.224073
0.283629
0.00556846
6.26059e-005
0.00014608
0
7.24794e-005
0.00313003
0.158264
0.564617
0.185007
0.0439399
0.00366571
0.0124992
0.002229
0.000963122
0
0.163447
0.331411
0.255604
0.180828
0.0268971
0.0842698
0.0733257
0.0451582
0.0142241
0.0993079
0.149959
0.288584
0.00557757
0.000419489
0
0
0
0.000223071
0.233056
0.4207
0.142002
0.0774808
0.0288016
0.0108425
0.0178667
0.00516915
0.00613412
0.204296
0.37217
0.369363
0.1225
0.0298788
0.0834485
0.187197
0.279831
0.078861
0.0248422
0.0384338
0.11656
0.0210349
0.0131116
0.0303844
0.182546
0.403374
0.164455
0.138164
0.0991562
0.0461471
0.141983
0.131031
0.0603742
0.197218
0.121874
0.0266704
0.0491457
0.185953
0.4022
0.057062
0.187292
0.0946685
0.297707
0.218731
0.0692609
0.0464516
0.119516
0.0875346
0.135445
0.016998
0.0174892
0.0586988
0.1086
0.106999
0.139445
0.159276
0.274285
0.433149
0.0113215
0.00325458
0.00167035
0.00125885
0.00916441
0.0173597
0.0436118
0.59739
0.0636786
0.13624
0.0584478
0.0950537
0.0686252
0.0490597
0.0758107
0.113622
0.0929178
0.211107
0.0453893
0.0113649
0.00554473
0.00209808
0.00564032
0.0666769
0.116077
0.209659
0.00645068
0.00900404
0.0737913
0.14464
0.124209
0.0810548
0.0855233
0.107371
0.0418521
0.085567
0.0181268
0.0185792
0.0536995
0.0807262
0.0381883
0.039655
0.126753
0.217448
0.0383316
0.000348089
0.0241087
0.0227831
0.0163887
0.0611769
0.131227
0.257908
0.231936
0.297309
0.00243662
0.00350882
0.00341564
0.00966811
0.0191338
0.0302211
0.185558
0.703481
0.076885
0.00703791
0.0010726
0.00146895
0.00339641
0.00110946
0.00419339
0.0228712
0.169193
0.0818508
0.00777995
0
0
0.00565361
0
0.00143511
0.0151034
0.238835
0.192541
0.000663781
3.49358e-005
0
0.000485201
0.000158495
0.00142262
0.0172529
0.509338
0.250672
0.00065562
0
0
0.000807659
0
0.000205016
0.0166614
0.687945
0.0903735
0.00947965
0
0
0.00199192
0.000411103
0.000176187
0.00427501
0.156946
0.121153
0.00484199
0.00540169
0.000953239
0
0.00287772
0.00123331
0.0039521
0.221189
0.336784
0.000627901
0
0
0.000284559
5.8729e-005
2.51696e-005
0.00482282
0.410286
0.438812
8.97002e-005
0.000771669
0.000136177
0
0.000411103
0.000176187
0.00220755
0.602988
0.071101
0.000492378
0.0059491
0.000917901
0
0.00211718
0.00280211
0.00874608
0.170406
0.100911
0.0125469
0.00678496
0.000131129
0
0.00327963
0.00442537
0.0192261
0.1762
0.217288
3.56032e-005
0.000849872
0.000131129
0
0.000302455
0.000549555
0.00524765
0.553414
0.343205
0.00525269
0.00096928
1.87327e-005
0
0.000468518
0.000880952
0.0115356
0.623454
0.0734123
0.0215891
0.00619625
0
0
0.00463312
0.00204313
0.0196615
0.14422
0.0784426
0.0116992
0.00920001
0
0.000164452
0.00668587
0.00623102
0.0480582
0.219169
0.273488
0.0106318
0.000885179
0
0
0.000661875
0.000329109
0.0269096
0.480487
0.280136
0.00618163
0.00304415
0
9.86712e-005
0.0023835
0.000890146
0.0539964
0.678041
0.0567236
0.00177678
0.00444008
0
0.000441097
0.0109175
0.0312982
0.0921259
0.137259
0.075636
0.000228605
0.000913363
0.00113985
0.000264658
0.0065505
0.0682708
0.339083
0.131195
0.262976
0.000985363
0.00234122
0
0.000264658
0.00539087
0.00375679
0.0168798
0.476667
0.433938
0.000137163
0.000953298
0.00189975
0.000158795
0.00323452
0.00531584
0.0427021
0.520652
0.0255948
0
0.000808634
0.0024259
0
0.000227376
0.0711146
0.289391
0.0975633
0.0354825
0.00942564
0.00171554
0.00330108
0
0.00159163
0.115386
0.339192
0.314288
0.221317
0
0.00134772
0.00404317
0
3.24823e-005
0.0167167
0.0865824
0.335194
0.26151
0.0032833
0.000808634
0.0024259
0
0.000227376
0.0393064
0.176933
0.586776
0.0719292
0.0750232
0.0257348
0.0322437
0.0130205
0.00126215
0.0335192
0.16151
0.377025
0.0433889
0.178847
0.0903183
0.0552559
0.0345453
0.00929811
0.0102083
0.0874635
0.148442
0.368393
0.0587041
0.0460118
0.000251354
0.00142434
0.000102309
0.011758
0.0981326
0.525366
0.339207
0.19735
0.158162
0.00175553
0.0188617
0.00599918
0.00371067
0.0748382
0.252934
0.0421559
0.245694
0.110382
0.0527469
0.060801
0.0207076
0.0977784
0.139906
0.0265782
0.0692246
0.0671966
0.0403152
0.0237954
0.0293299
0.0136153
0.12182
0.167195
0.0519125
0.388851
0.392027
0.175067
0.0221467
0.0782175
0.0180507
0.0475631
0.08524
0.205481
0.430957
0.246932
0.0602074
0.0344583
0.0481593
0.0197121
0.0498711
0.0528589
0.149166