0.0454345
0.0616812
0.0376988
0.0405772
0.064853
0.0993838
0.00964997
0.0388605
0.017363
0.151604
0.0950493
0.0206869
0.0252618
0.0420425
0.0405759
0.058947
0.0678443
0.0663623
0.114936
0.27968
0.042777
0.0638923
0.063577
0.0375466
0.0102296
0.0397113
0.0230809
0.434938
0.690437
0.0481503
0.0164049
0.0314387
0.0189466
0.023502
0.0227357
0.037361
0.223695
0.114038
0.00792343
0.00360533
0.00220872
0.00126985
0.0363602
0.0435665
0.0824975
0.371321
0.132443
0.0267168
0.0201863
0.0506579
0.011409
0.0138184
0.0760491
0.0944403
0.431939
0.342441
0.0209933
0.000160547
0.00114286
0.000761908
0.0165731
0.0342436
0.0890792
0.487592
0.186761
0.00248729
0
0.0251068
0.0448676
0.0700658
0.114204
0.1555
0.201168
0.0319709
0.0128946
0.0183282
0.0994991
0.0396795
0.0454769
0.154448
0.178089
0.222865
0.102193
0.0249968
0.00871262
0.0420342
0.0354539
0.0562908
0.193097
0.269405
0.242747
0.0567746
0.000893549
0.023836
0.107872
0.0923158
0.126177
0.17137
0.209235
0.330643
0.39276
0.0327151
0.0428872
0.0848936
0.0419894
0.0872499
0.186366
0.261237
0.263318
0.190874
0.0677583
0.0164917
0.00107138
0.00282443
0.0076578
0.0430147
0.0690433
0.440606
0.323758
0.130888
0.0375706
0
0
0.000155208
0.00903844
0.0669323
0.293567
0.309588
0.100271
0.0383566
0.00365668
0.051001
0.0284862
0.0436386
0.10182
0.166988
0.263476
0.273156
0.166932
0.00881251
0.126608
0.0347979
0.00856948
0.0463061
0.309418
0.205167
0.0971729
0.019822
0.000616621
0
0
0.000603968
0.144801
0.600808
0.160447
0.0481378
0.0104493
0.00431635
0
0.00198469
0.00165388
0.322686
0.0663371
0.160675
0.205315
0.147033
0.0216386
0.0489008
0.0101714
0.00904058
0.0261003
0.24725
0.140124
0.113979
0.0844345
0.0397266
0.00679388
0.0185258
0.0266448
0.14107
0.416204
0.0921768
0.00170186
0.000668417
0.00133391
0.000782344
0.00495328
0.00890018
0.211811
0.301453
0.0608144
0.00659963
0
0
0.00547641
0.00566805
0.0888345
0.556496
0.181186
0.111693
0.0260607
0.00881991
0.0093374
0.00547641
0.0347854
0.0330935
0.138154
0.191892
0.1988
0.145674
0.0827712
0
0.0383348
0.0396763
0.0512344
0.285845
0.0964964
0.00426532
0.00437753
0
0
0.00133632
0.000719557
0.0716671
0.386699
0.198091
0.0708459
0.00281674
0
0
0
0
0.0589891
0.408258
0.124196
0.0734288
0.0783162
0.0520066
0
0.00935425
0.0050369
0.0554704
0.281664
0.222662
0.0442837
0.0184962
0.0131146
0
0.00281802
0.0318173
0.130398
0.604
0.269683
0.202278
0.00714941
0
0.000672319
0.000672319
0
0.0196455
0.223239
0.369935
0.247524
0.0276601
0
0.00470623
0.00470623
0.000802385
0.0244319
0.143487
0.229408
0.0752537
0.0070914
0.0175662
0.0677961
0.016118
0.0659702
0.155559
0.531798
0.172407
0.154385
0.0411874
0.0392056
0.188285
0.0467793
0.0274018
0.135
0.164187
0.502371
0.142248
0.0253534
0
0.00251566
0.00251566
0.00116588
0.025446
0.200276
0.514985
0.322957
0.0604806
0.043689
0.036123
0
0.000166555
0.0321425
0.201399
0.142526
0.110873
0.0450585
0.0147942
0.0742517
0.0297369
0.0083771
0.0690054
0.0915073
0.122384
0.155812
0.0936533
0.0385595
0.0427659
0.00975802
0.00485228
0.0734931
0.14277
0.073192
0.172103
0.0776407
0.00744222
0.00402377
0
0.00403099
0.0175605
0.0177101
0.216152
0.387452
0.112102
0.00128778
0.00110996
0.000713512
0.00285405
0.00388635
0.0365555
0.0841997
0.264951
0.371786
0.0195047
0.00162189
0.000679249
0.00677315
0.0121912
0.0078425
0.131045
0.486244
0.440091
0.0360861
0.0137107
0.0261775
0.0342426
0.00401561
0.0334135
0.221634
0.166059
0.0231017
0
0
0.00203905
0.0102668
0.0781575
0.144828
0.141813
0.0308874
0.000558732
0
0.00540642
0.027986
0.0310587
0.20745
0.291765
0.158126
0.210915
0.0758005
0.0448164
0.0337389
0.0473667
0.0659785
0.0894782
0.192317
0.178324
0.0734
0.00586053
0.0534327
0.0431701
0.0519994
0.132437
0.237391
0.642997
0.168593
0.0209904
0.000456247
0.00447734
0.020003
0.0435728
0.0274238
0.0972508
0.220451
0.267784
0.230913
0.00443133
0.00768064
0.0195555
0.0210318
0.0135807
0.0803853
0.175311
0.230793
0.0359747
6.51781e-005
0.00880866
0.0162068
0.0404258
0.151626
0.140439
0.503346
0.345831
0.123786
0.000456247
0
0.00730674
0.024467
0.0645235
0.220095
0.341156
0.142971
0.168651
0.0123257
0.00555838
0.0114197
0.0722193
0.0413308
0.0615001
0.0968508
0.131969
0.0778245
0.0416094
0.038493
0.0120813
0.136193
0.0657142
0.0190465
0.127353
0.322017
0.0883536
0.000731847
0
0.0175682
0.0501987
0.0450842
0.137247
0.229085
0.668889
0.0421039
0.0132077
0.00882179
0.0113633
0.065913
0.0706285
0.0210939
0.351486
0.0983209
0.0403511
0.0274395
0.037783
0.0109552
0.0355224
0.0164234
0.00700917
0.0500341
0.152992
0.0807937
0.0284549
0.0221292
0.0119501
0.00549061
0.0102568
0.0141493
0.0990328
0.54619
0.0650427
0.0113394
0.00772345
0.00143362
0.0104404
0.0130796
0.00228257
0.128287
0.660013
0.290266
0.0896415
0.00181522
0.00078724
0.00190872
0.00437757
0.00380429
0.129385
0.0620429
0.124445
0.0453305
0.003239
0.00189792
0.00111313
0.00721645
0.0123838
0.0745532
0.0396992
0.277551
0.141141
0.0604709
0
0.00779193
0.0080646
0.0153584
0.0332839
0.231429
0.319719
0.222036
0.000326853
0
0
0.000101298
0.00152416
0.0775208
0.132342
0.670637
0.349804
0.0249227
0
0
0
0.00185279
0.0434207
0.0609667
0.182629
0.142839
0.130267
0
0.00367769
0.00198029
0.021056
0.0764889
0.126834
0.0764895
0.0535644
0.0854741
0.0409712
0.0714182
0.0868715
0.096567
0.309462
0.189716
0.458816
0.183501
0.110885
0.00352905
0.00655394
0.0516395
0.107587
0.193402
0.145681
0.0770874
0.0520291
0.117818
0.221356
0.231974
0.222501
0.210431
0.32404
0.0608776
0.0124071
0.00354471
0.0381353
0.151111
0.157786
0.130587
0.109461
0.194781
0.0197301
0.00813182
0.0042188
0.0620125
0.233972
0.119287
0.0612732
0.0866268
0.0743003
0.0188904
0.00473924
0.00238228
0.041083
0.358629
0.50048
0.160514
0.0708991
0.0953727
0.00404609
0
0.00201138
0.0407782
0.218309
0.371328
0.0957391
0.142531
0.25914
0.0274152
0.0183737
0.0126293
0.0233677
0.0788145
0.0299969
0.0155618
0.0510935
0.0663892
0.109395
0.159373
0.0329557
0.0273445
0.0354235
0.0105721
0.00416934
0.0354001
0.0395605
0.0951696
0.0860772
0.0223303
0.018636
0.042269
0.0480141
0.0260357
0.140821
0.395027
0.290853
0.658249
0.290238
0.0356399
0.0613311
0.0189557
0.001218
0.0457715
0.132666
0.0768966
0.397766
0.339355
0.0471556
0.000366669
0.00253124
0.013364
0.0189678
0.023787
0.0692763
0.272183
0.348278
0.114304
0.0222368
0.045053
0.0654538
0.0250477
0.0535123
0.330999
0.296149
0.0902661
0.0443526
0.0117524
0.00151874
0.0314348
0.0278138
0.100044
0.277297
0.0921782
0.1263
0.094618
0.0350234
0.047705
0.0942613
0.064518
0.215318
0.0641697
0.122746
0.127741
0.12941
0.104383
0.154502
0.0791324
0.0293985
0.0802408
0.0938314
0.107992
0.031998
0.121865
0.222332
0.278773
0.248073
0.0731218
0.289943
0.0742822
0.0226078
0.145668
0.088353
0.163071
0.175593
0.0894257
0.0982156
0.0982303
0.00823653
0.0220395
0.0560414
0.0637967
0.340158
0.322042
0.295063
0.150599
0.0629903
0.058277
0.0445232
0
0.0185688
0.0888506
0.13017
0.319253
0.127428
0.205291
0.174303
0.0823415
0.00231501
0.0439852
0.00890186
0.132108
0.22387
0.224826
0.195463
0.0141734
0.0133381
0.00718932
0.0419544
0.142746
0.147279
0.250711
0.136819
0.0832315
0.114751
0.0716651
0.0472106
0.113816
0.0203985
0.311854
0.402151
0.138737
0.223294
0.210442
0.0417192
0.00659774
0.0395503
0.0101044
0.0535519
0.0336632
0.0669629
0.150145
0.386316
0.108272
0.0640184
0.0566606
0.0203729
0.0460244
0.0100571
0.0154829
0.14967
0.102066
0.0855076
0.0910291
0.124239
0.0422491
0.13241
0.144259
0.0439547
0.241424
0.0987656
0.56124
0.321673
0.173555
0.111429
0.10993
0.015834
0.020179
0.120537
0.189727
0.117886
0.0495417
0.0178739
0.00225277
0.0038156
0.000544043
0
0.0320716
0.203142
0.299785
0.164128
0.0202261
0.0193892
0
0
0
0.0223084
0.074012
0.405658
0.209877
0.0324982
0.0142326
0.0126779
0
0
0.00581355
0.158711
0.580774
0.38249
0.0622426
0.0381172
0
0
0
0.00637202
0.0507661
0.234811
0.206389
0.00490898
0.0132529
0
0
0
0.00674196
0.0499225
0.413602
0.320854
0.00220967
0.00285894
0.000643779
0
0.00542659
0.0221427
0.0617531
0.449834
0.240551
0.0306235
0.0328681
0
0.000863995
0.014202
0.0211698
0.0425019
0.412456
0.359358
0.0222049
0.0163831
0.00450645
0.00604797
0.064375
0.0721363
0.121837
0.300118
0.113822
0.00768543
0.0519052
0.0481743
0.0667468
0.0697497
0.110809
0.0731635
0.0416115
0.0042458
0.0108829
0.240211
0.239828
0.164974
0.0996498
0.109525
0.0595957
0.19208
0.142041
0.0496318
0.242952
0.0958263
0.0390743
0.0740221
0.0889923
0.0264994
0.0361108
0.0118954
0.0740019
0.577665
0.363009
0.0699937
0.037417
0.0364399
0.00456744
0.012237
0.00118251
0.00786043
0.228999
0.37241
0.0827805
0.0254288
0.0266677
0.00786154
0.00540493
0.00936577
0.0178998
0.0956936
0.214378
0.0474574
0.0641082
0.144262
0.00351849
0.0218568
0.00534593
0.0346384
0.546255
0.466409
0.0276636
0.00435007
0.00207554
0.0120558
0.0338465
0.0480927
0.042538
0.200991
0.28074
0.0339168
0.0232516
0.0363479
0.07648
0.106928
0.0381557
0.0290825
0.0370259
0.030514
0.026544
0.130407
0.365028
0.140274
0.418814
0.371887
0.0744953
0.202969
0.133257
0.0420783
0.0358015
0.125879
0.0480021
0.10283
0.0716269
0.0480822
0.0668722
0.0811038
0.0468711
0.0830133
0.145985
0.067412
0.157614
0.133001
0.0939206
0.265535
0.22812
0.0964975
0.0688253
0.115259
0.209417
0.069366
0.0475823
0.0346629
0.0238251
0
0.0112972
0.0156132
0.0768299
0.166176
0.0701246
0.0691209
0.063652
0.0428338
0.0415106
0.0503498
0.0142858
0.0923096
0.236
0.0546879
0.0392703
0.0196399
0.0142167
0
0.000912756
0.0664506
0.558405
0.356929
0.142369
0.0368591
0.0390708
0.037334
0.033987
0.029829
0.0182354
0.520046
0.0386815
0.0460905
0.0827829
0.0650849
0.0874581
0.0771055
0.0589868
0.0420246
0.0728011
0.0521976
0.0303646
0.0491752
0.0477756
0.131099
0.0531604
0.138315
0.0696679
0.157148
0.162143
0.0896805
0.0464542
0.0615414
0.0766387
0.0592525
0.0795347
0.0705232
0.522239
0.365761
0.0503861
0.0694591
0.0657642
0.0617707
0.0191708
0.0910425
0.118775
0.522537
0.0862674
0.0119515
0.0107284
0.0286121
0.0426052
0.0170116
0.0492987
0.0239142
0.0923332
0.180285
0.0948846
0.164617
0.0384823
0.00751151
0.0462997
0.0631598
0.0102036
0.106051
0.393391
0.0833887
0.0292761
0.019198
0.0119355
0.00169356
0.0170467
0.0203964
0.18754
0.426746
0.525163
0.386004
0.0545991
0.00943616
0.0069735
0.00133955
0.000574092
0.0695722
0.0356351
0.102841
0.156244
0.0228091
0.00599127
0.0133828
0.0204514
0.00208749
0.0666368
0.0297275
0.378871
0.247866
0.0318457
0.0161845
0.0106986
0.00239321
0.00109919
0.0344065
0.060889
0.45552
0.310692
0.0236137
0.00153417
0.00125523
0
0
0.0152257
0.154617
0.524993
0.299148
0.00575994
0
0
0
0
0.0176405
0.0450802
0.373452
0.212207
0.0150373
0.00467051
0.0117914
0
0
0.0183194
0.141199
0.469516
0.261652
0.0575315
0.01651
0.0269678
0.00285868
0
0.0391933
0.134431
0.44603
0.14796
0.0113383
0.00323721
0.0883339
0.00649208
0
0.0383425
0.14023
0.265666
0.119744
0.0491425
0.057758
0.273569
0.0894232
0.00796933
0.0870955
0.202009
0.355029
0.118984
0.0459015
0.0308921
0.01145
0.0105351
0.0428444
0.148654
0.101247
0.132246
0.0897755
0.0317133
0.0365035
0.00483922
0.0272661
0.21008
0.336434
0.284722
0.131217
0.041077
0.0222871
0.0799623
0.112771
0.122023
0.0524627
0.254153
0.257729
0.0748822
0.105394
0.0992001
0.162488
0.0182886
0.0681119
0.196575
0.419736
0.0263921
0.0358873
0.0403422
0.0770048
0.162112
0.0335543
0.0302755
0.101585
0.11001
0.0121834
0.0158418
0.0132803
0.124102
0.572669
0.18299
0.0165735
0.0111412
0.00812148
0.0430252
0.0333212
0.125568
0.138746
0.183266
0.0563701
0.0595669
0.0997321
0.100417
0.00991162
0.00960935
0.0601442
0.0935341
0.572669
0.252496
0.0514071
0.0107243
0.00699128
0.000902871
0.00292215
0.00233698
0.0521582
0.457211
0.255354
0.0213756
0.00645724
0.00934212
0.0455051
0.0283134
0.0204336
0.0300307
0.160895
0.204795
0.0436382
0.0215495
0.0936088
0.00345886
0.000309539
0.00375305
0.0368074
0.59263
0.286934
0.0408257
0.0355951
0.0297254
0.126628
0.0370462
0.014079
0.0437259
0.137418
0.195922
0.0594986
0.0741874
0.224514
0.138749
0.0620899
0.0177734
0.0128351
0.018967
0.0480807
0.0203758
0.0305138
0.0918659
0.218292
0.0611325
0.0363213
0.0205308
0.0256858
0.0314994
0.0294522
0.058614
0.157098
0.368175
0.163436
0.0341046
0.0417466
0.0634263
0.0417394
0.0148175
0.0302596
0.173103
0.706856
0.162456
0.0361356
0.0276687
0.0162817
0.0043905
0.013439
0.0351389
0.264052
0.129364
0.0334535
0.0110846
0.0347795
0.0317329
0.000793425
0
0.0334587
0.491076
0.245358
0.138292
0.0666176
0.0221292
0.042135
0.00751335
0.0370147
0.0117313
0.454624
0.0746362
0.0991095
0.0338557
0.0884126
0.162053
0.0595202
0
0.020502
0.158046
0.105959
0.260489
0.240868
0.116249
0.313751
0.152266
0.0231605
0.00377871
0.124846
0.100691
0.122592
0.129634
0.0554516
0.0838663
0.0126143
0.0621905
0.0344722
0.277428
0.185335
0.1026
0.183815
0.112605
0.0756158
0.0118021
0.0742324
0.0715428
0.147886
0.0497847
0.268445
0.288442
0.124688
0.236883
0.183343
0.111352
0.00646596
0.043658
0.0967743
0.165361
0.265229
0.203066
0.338473
0.205491
0.261582
0.0352204
0.00842997
0.145355
0.113801
0.0738298
0.0530641
0.0291112
0.00407138
0.0196752
0.00943012
0.026484
0.131067
0.519273
0.233372
0.04423
0.0234531
0.00453527
0.00233264
0
0.00817804
0.0470111
0.113081
0.103676
0.136105
0.230656
0.0688834
0.151537
0.0958666
0.00187066
0.0576959
0.429797
0.272676
0.117124
0.134876
0.0246246
0.14265
0.328429
0.0328822
0.039495
0.546227
0.280162
0.012057
0.00457949
0.00156378
0
0.0017974
0.0017437
0.146674
0.520575
0.163794
0.00510847
0.00255743
0
0
0.00299566
0.00949646
0.030028
0.277883
0.195839
0.0170874
0.0377812
0.000223397
0.0284233
0.163944
0.0550807
0.0588939
0.246934
0.135881
0.0400816
0.102527
0.00318994
0.0237072
0.0346297
0.0364556
0.145549
0.287379
0.102975
0.030796
0.00240973
0.0806698
0.0105899
0.00167527
0.0243409
0.0837876
0.185717
0.137218
0.116942
0.0410849
0.251598
0.13934
0.0333243
0.0953736
0.0470881
0.453504
0.185977
0.0735376
0.0592851
0.0151293
0.0516244
0.0461703
0.0166572
0.0963553
0.464701
0.20211
0.230315
0.0545482
0.0523817
0.149465
0.134862
0.140391
0.241613
0.0833001
0.0641338
0.0478187
0.0416947
0.0770395
0.112961
0.0425061
0.174259
0.378
0.111759
0.212281
0.0927772
0.0764923
0.00919962
0.0309371
0.0368343
0.172038
0.31984
0.198961
0.110315
0.0953602
0.0260081
0.0220058
0.135028
0.0611222
0.181375
0.475265
0.162227
0.253629
0.0759962
0.077901
0.017957
0.0660202
0.00703098
0.117058
0.087562
0.0418234
0.15797
0.080084
0.0941199
0.0381092
0.0123557
0.0106101
0.0332334
0.0307655
0.0210602
0.0760318
0.0280561
0.545949
0.215082
0.0148276
0.00130306
0.0107662
0.165333
0.0716077
0.130506
0.0405765
0.0773725
0.0523953
0.00877221
0.0115676
0.0507661
0.0956998
0.0466098
0.0392321
0.0135795
0.4541
0.505937
0.00550651
0.0192793
0.0526571
0.0121793
0.00628764
0.0123182
0.0186082
0.444526
0.224906
0.00953444
0.0129398
0.00867381
0.0493566
0.0226035
0.0275619
0.0642905
0.15852
0.142433
0.0199476
0.0236574
0.0584634
0.0236842
0.0101675
0.0214793
0.041556
0.467626
0.478113
0.0014237
0.00357506
0.00705849
0.0234204
0.0148408
0.0437833
0.0732148
0.256975
0.317947
0.0419143
0.000705211
0
0.143957
0.0944742
0.0484664
0.0908465
0.165832
0.0650518
0.0391377
0.0284532
0.067084
0.539191
0.121583
0.0602918
0.0693602
0.044465
0.013392
0.0226927
0.0397987
0.175928
0.0687061
0.0282781
0.0465343
0.058706
0.18353
0.199774
0.132733
0.0503654
0.0623788
0.533417
0.098371
0.0441667
0.0421409
0.0357895
0.0298664
0.0887644
0.101996
0.255068
0.130668
0.0695145
0.00806981
0.0163814
0.0825671
0.0493556
0
0.0379501
0.0638445
0.112494
0.138461
0.055789
0.0646209
0.244733
0.168166
0.0061068
0.00364721
0.0394492
0.501434
0.290545
0.0315461
0.00395251
0.0192574
0.013508
0.000388582
0.0416198
0.129959
0.47962
0.230879
0.00647339
0.0487549
0.0765644
0.085627
0.0227409
0.0740819
0.332252
0.0269528
0.0903717
0.0595087
0.0873092
0.16859
0.234867
0.154322
0.00868436
0.0360643
0.0386175
0.0322895
0.0395371
0.0881561
0.177632
0.226794
0.371803
0.0722848
0.0577895
0.193537
0.062546
0.00480047
0.0789748
0.0626514
0.124423
0.12296
0.12857
0.338107
0.223753
0.0597544
0.00796246
0.0618834
0.0686404
0.135452
0.264014
0.306093
0.307706
0.0199404
0.0170562
0.01562
0.049113
0.106451
0.0685703
0.169441
0.19
0.0526592
0.0150169
0.0420356
0.0554805
0.0362679
0.0512717
0.048336
0.226623
0.552551
0.100523
0.106878
0.0555216
0.0142316
0.033103
0.0282343
0.039398
0.074047
0.204713
0.153584
0.0779452
0.048858
0.0172083
0.0147443
0.0112262
0.0645185
0.159615
0.552551
0.217333
0.0211056
0.019023
0.024661
0.0092845
0.022439
0.00922255
0.0649089
0.349808
0.13798
0.041362
0.0680143
0.0366716
0.036332
0.0879479
0.0113733
0.0729446
0.180286
0.182055
0.029093
0.0299621
0.00730446
0.00253345
0.00418325
0.0242013
0.0862697
0.487026
0.225776
0.0379841
0.0627535
0.0137607
0.0164208
0.0270034
0.0709405
0.215297
0.487026
0.350972
0.030461
0.143862
0.0523353
0.0418755
0.0479173
0.0223846
0.113409
0.16742
0.0803971
0.175813
0.193528
0.0501355
0.0967006
0.0315151
0.0632867
0.0936134
0.178199
0.103973
0.0810216
0.0350106
0.00980984
0.0110269
0.0220755
0.09158
0.220375
0.369438
0.291466
0.335243
0.0768427
0.0604706
0.0131934
0.0102701
0.0502644
0.0978481
0.466428
0.308544
0.326711
0.260331
0.0851154
0.0444216
0.0166456
0.0348013
0.0741223
0.0453458
0.100961
0.252803
0.235438
0.199979
0.0478809
0.0988978
0.0387144
0.0624622
0.0525481
0.0619215
0.367147
0.183137
0.142783
0.00555447
0.00218244
0.0266216
0.087469
0.345613
0.105743
0.21781
0.183699
0.162696
0.0133519
0.0459726
0.0765436
0.0889233
0.276528
0.154621
0.0656047
0.0570801
0.0768287
0.0312703
0.101778
0.0623135
0.0157271
0.0315452
0.0355789
0.0366385
0.018777
0.0110148
0.0137913
0.277117
0.514215
0.0140552
0.029344
0.0404435
0.0562449
0.0405944
0.0797565
0.0299634
0.106066
0.0612098
0.0206132
0.0499855
0.0870573
0.0180026
0.00863438
0.0383277
0.0304
0.494659
0.533577
0.00843309
0.012045
0.0167365
0.00339526
0.00103318
0.00405602
0.0148111
0.245889
0.36795
0.00187914
0.00392322
0.00487948
0.00219112
0.00177428
0.00848011
0.0298343
0.142823
0.214204
0.0406001
0.00478045
0
0
0
0.00119079
0.0150208
0.518707
0.487404
0.00112748
0.00161039
0.000697069
0
0
0
0.0588877
0.350558
0.201848
0.095099
0.00893274
0
0.0707282
0.0217856
0.0199773
0.0231539
0.0986665
0.284387
0.234075
0.0710304
0.0529694
0.458403
0.190404
0.0125873
0.00208452
0.00834246
0.0304222
0.131913
0.109459
0.166437
0.0566621
0.018348
0.0125884
0.0681112
0.178972
0.20655
0.413608
0.0848545
0.0351108
0.272527
0.188188
0.0594617
0.0258913
0.0190673
0.0510646
0.158521
0.0649434
0.0725045
0.369204
0.3771
0.13925
0.0852342
0.0192901
0.0184191
0.0252346
0.0142034
0.111104
0.345989
0.179499
0.0415622
0.134629
0.0336884
0.0808582
0.0506162
0.114798
0.362208
0.0559143
0.0935858
0.155704
0.233845
0.0493129
0.0270496
0.0708517
0.0200319
0.0399406
0.0719281
0.076054
0.0678421
0.310308
0.177501
0.103518
0.0558298
0.0240357
0.0545465
0.219143
0.0764218
0.0278685
0.111544
0.0343018
0.0441441
0.0766537
0.144185
0.25576
0.326468
0.121276
0.0338553
0.0535101
0.0465797
0.108532
0.152508
0.318589
0.211162
0.107251
0.149163
0.0701051
0.210205
0.167906
0.101687
0.0535492
0.0401381
0.0230323
0.329433
0.319156
0.0896957
0.0704219
0.053465
0.0909901
0.109048
0.150897
0.180435
0.121073
0.0833962
0.0597803
0.0630341
0.0523104
0.0940728
0.0797478
0.200631
0.127807
0.156466
0.0815138
0.0512819
0.0340089
0.0234742
0.0702636
0.109718
0.505511
0.273578
0.0894204
0.0708184
0.0374512
0.0264787
0.019191
0.0659215
0.0886474
0.214
0.273304
0.148314
0.0218222
0.0199543
0.00975982
0.00504494
0.0571555
0.114491
0.329173
0.35989
0.0839018
0.0290253
0.00623776
0
0
0.011454
0.0338781
0.399922
0.181376
0.0324573
0.0760966
0.0136878
0
0.012195
0.0926274
0.154042
0.594543
0.260518
0.103042
0.0199814
0.0072682
0.000356552
0
0.0106446
0.0257491
0.193287
0.108179
0.0448394
0.0209967
0.0130078
0.000594254
0.0139467
0.0483651
0.0721185
0.427893
0.147517
0.0259543
0.0298286
0.00900401
0
0.0257956
0.075498
0.102809
0.273312
0.204615
0.0793819
0.0300497
0.0282615
0
0.0154774
0.0137335
0.112527
0.53708
0.220408
0.0298574
0.0111111
0.00501865
6.25822e-005
0.0295008
0.0474296
0.0686396
0.264054
0.140321
0.0313414
0.0435411
0.00819897
0
0.0177005
0.0171688
0.160402
0.53708
0.194206
0.0371637
0.0165465
0.026809
0
0
0.00461916
0.110135
0.417145
0.0408265
0.0308978
0.0109081
0.0172631
0.000632197
0.00149994
0.0219199
0.0614118
0.45676
0.117235
0.0110409
0.0211041
0.00270307
0
0
0.0145709
0.160815
0.472925
0.0475894
0.00607698
0.00265108
0.000300348
0
0
0.0261203
0.111989
0.489581
0.167065
0.0343483
0.00966884
0.0246466
0.00838476
0.0267746
0.0168258
0.00603467
0.202537
0.146922
0.0148172
0.00467948
0.0451225
0.028383
0.3865
0.229345
0
0.0558768
0.08099
0.00658301
0.00175917
0.00845697
0.00230455
0.00468033
0.0127978
0.0444557
0.514248
0.231415
0.0109418
0.0856066
0.0584521
0.115534
0.2814
0.0778852
0.0327688
0.422571
0.24393
0
0
0.0120936
0.0231293
0.50768
0.261357
0
0.00413541
0.0106439
0
0
0
0.0377762
0.354601
0.146587
0.0596039
0.00176013
0
0.00580075
0.08536
0.0269693
0.152425
0.472024
0.147307
0.00399374
0.0666425
0.05785
0.000648949
0.0149034
0.00883864
0.113386
0.354302
0.218531
0.0144807
0
0
0.0108439
0.00598789
0.0204186
0.075651
0.28295
0.242176
0.347196
0.0307584
0.0071466
0.08893
0.0741568
0.163956
0.103893
0.0346372
0.0974503
0.17286
0.0321194
0.0158556
0.00860791
0.0351401
0.0510907
0.232512
0.385685
0.339065
0.130876
0.0262069
0
0.0674113
0.0711805
0.250428
0.207311
0.127613
0.076029
0.144409
0.0637238
0.00615849
0.148033
0.108919
0.113965
0.176523
0.0410306
0.0449458
0.0700224
0.0246872
0.0535249
0.169053
0.119044
0.10587
0.297761
0.184797
0.0777638
0.0533776
0.00882088
0.0195595
0.295524
0.262592
0.259481
0.15057
0.0454447
0.0579129
0.0974491
0.00550096
0.0767557
0.427316
0.198789
0.124869
0.124072
0.127538
0.113041
0.0672627
0.00594836
0.180387
0.0504409
0.0743603
0.0820839
0.161062
0.188057
0.102381
0.0885662
0.087382
0.0491293
0.130614
0.184641
0.104849
0.0542444
0.0607166
0.0445467
0.0928675
0.337105
0.377273
0.0912927
0.0303267
0.0443933
0.142762
0.217141
0.140231
0.0906852
0.0678555
0.13011
0.0554771
0.0697532
0.128663
0.142765
0.160029
0.110945
0.170682
0.266131
0.344727
0.0447895
0.0468939
0.0170737
0.00883878
0.00932479
0.0340122
0.110573
0.325548
0.342336
0.0411638
0.00648666
0.000569182
0.0135844
0.0355396
0.175509
0.208987
0.317578
0.213859
0.0199847
0.0414443
0.122771
0.103485
0.041173
0.152826
0.195182
0.220091
0.157859
0.020666
0.0326406
0.0689895
0.207869
0.0965852
0.329887
0.25075
0.140675
0.0394515
0.08661
0.0508265
0.0224117
0.00762796
0.0169632
0.14427
0.142313
0.172774
0.0949633
0.0931928
0.113186
0.0373529
0.00196594
0.0219325
0.0834399
0.175622
0.381448
0.19501
0.100553
0.185253
0.0436165
0.0865426
0.0510241
0.221896
0.160356
0.0366897
0.0714878
0.161033
0.395386
0.0440252
0.017163
0.0164881
0.0373005
0.19714
0.296083
0.246875
0.0357788
0.0350778
0.00271213
0.000142744
0.031986
0.054723
0.126608
0.209347
0.164111
0.0668754
0.238303
0.0237525
0
0.0191916
0.0274887
0.204519
0.355058
0.247
0.0409834
0.0783544
0.00438885
0.00432317
0.0055391
0.00805999
0.115712
0.301987
0.249039
0.22862
0.342324
0.0277173
0.00679517
0.00274165
0.00392695
0.0698408
0.225068
0.349342
0.0498081
0.114324
0.0177498
0
0
0.0123362
0.141374
0.323085
0.0816598
0.0258863
0.0110315
0.00253568
0
0
0.0226934
0.137013
0.676503
0.221286
0.110977
0.16912
0.0180863
0.00186805
0.000914916
0.00576148
0.0479669
0.166548
0.123013
0.0338435
0.0169524
0.00382094
0.000485175
0.00640441
0.0179567
0.0709606
0.334394
0.21638
0.00361021
0.00291261
0.00142811
0.000158678
0
0.0127298
0.0796082
0.522061
0.161121
0.0318851
0.176674
0.0213436
0.071586
0.0799321
0.0182623
0.1268
0.505609
0.160414
0.0174462
0.00348184
0.00652783
0.00360925
0.00194306
0.00548707
0.0474364
0.260003
0.127411
0.107861
0.0714599
0.0129842
0.00714483
0.00609722
0.00701816
0.168944
0.367481
0.144996
0.0559354
0.246175
0.0231341
0.196873
0.254197
0.087069
0.0780243
0.157106
0.121787
0.0429326
0.0585373
0.0424995
0.360673
0.269263
0.180883
0.0103056
0.00813627
0.0500497
0.202062
0.132956
0.0106443
0.0578964
0.0325532
0.0214994
0.149417
0.224198
0.28537
0.157452
0.130379
0.125339
0.348821
0.0843695
0.0238427
0.0186436
0.0526019
0.20638
0.0263144
0.0508112
0.115933
0.428155
0.22151
0.131624
0.0145526
0.00623432
0.00502003
0.0582291
0.053224
0.131755
0.182429
0.160231
0.0218528
0.0616835
0.0409924
0.0245278
0.153649
0.09899
0.264319
0.439015
0.122887
0.0301094
0.000634977
0.0137947
0.0440088
0.140635
0.0513259
0.128076
0.213437
0.291383
0.0508742
0.0254799
0.0280107
0.045487
0.127269
0.147979
0.208129
0.124092
0.0610171
0.0944463
0.262057
0.0264017
0.0405826
0.196462
0.10546
0.11014
0.0796126
0.179445
0.115312
0.123619
0.0299961
0.144645
0.14892
0.174012
0.164218
0.0199076
0.0458103
0.0971415
0.36527
0.160685
0.250335
0.0841991
0.138982
0.194896
0.177962
0.138358
0.0707476
0.241599
0.0881216
0.0952459
0.116332
0.0792771
0.0441305
0.0916997
0.20721
0.131968
0.0295265
0.0402348
0.0899112
0.142687
0.118496
0.106985
0.098376
0.134156
0.174253
0.181329
0.0946254
0.168008
0.173829
0.168456
0.132766
0.283503
0.0994376
0.0638938
0.0317296
0.0403209
0.0633658
0.267866
0.15535
0.0951279
0.214881
0.128175
0.408385
0.124214
0.132353
0.151243
0.035177
0.0571932
0.139667
0.115644
0.0237777
0.151689
0.188554
0.0558764
0.0497023
0.0440768
0.0782577
0.100594
0.189937
0.0359644
0.159376
0.195247
0.0831032
0.0929736
0.0400062
0.0553862
0.0585679
0.0904508
0.0638958
0.304185
0.347665
0.127625
0.0349632
0.0341446
0.0570378
0.0369811
0.0870178
0.188972
0.294893
0.432106
0.219633
0.108792
0.0601707
0.213566
0.103981
0.0781151
0.0593161
0.0773086
0.0859006
0.0397048
0.109733
0.0582216
0.25618
0.141925
0.0747505
0.108594
0.0653062
0.156445
0.22584
0.088874
0.0388231
0.187781
0.128937
0.107672
0.304788
0.128471
0.134413
0.0997752
0.119016
0.121593
0.293103
0.240009
0.116858
0.301841
0.101487
0.148166
0.190271
0.0470281
0.0272374
0.044078
0.0213036
0.0421762
0.027665
0.0249642
0.219096
0.282553
0.159016
0.203609
0.0977146
0.0252547
0.0684625
0.0538611
0.082834
0.187825
0.23569
0.286899
0.113309
0.193536
0.0747433
0.117037
0.0748494
0.0405797
0.204321
0.162727
0.0242001
0.0936279
0.149526
0.166302
0.398299
0.160112
0.138057
0.220058
0.116573
0.0809084
0.107689
0.0600155
0.0107836
0.0284824
0.0439992
0.113214
0.145124
0.247958
0.142281
0.0316154
0.00624558
0.00782252
0.00433398
0.0173924
0.16109
0.269949
0.255082
0.169598
0.0708908
0.0177211
0.0599122
0.238176
0.101779
0.199446
0.158508
0.155622
0.121508
0.056206
0.00785548
0.00678773
0.0928718
0.0398734
0.295714
0.402065
0.263648
0.199633
0.0627256
0.0195245
0.068741
0.0326958
0.00440316
0.0314724
0.0757261
0.128898
0.157328
0.283715
0.095957
0.161269
0.0760408
0
0.0120206
0.0834539
0.205199
0.274947
0.0944483
0.105105
0.149988
0.0818913
0.0204314
0.0589825
0.111058
0.116848
0.192988
0.219928
0.30935
0.487259
0.134611
0.0107473
0.0185097
0.015103
0.0660994
0.232507
0.319328
0.10974
0.0459001
0.0292116
0.0014588
0.0308452
0.0711129
0.155792
0.272195
0.260279
0.190369
0.101001
0.114687
0.03042
0.0217624
0.0396572
0.127358
0.153224
0.246945
0.168971
0.162453
0.0384252
0.00274936
0.0610269
0.0642645
0.139647
0.228082
0.340127
0.275858
0.122018
0.0234817
0.0125178
0.0506904
0.0888456
0.236265
0.13621
0.158313
0.0972703
0.108578
0.0928746
0.0684067
0.0202943
0.02042
0.0840582
0.0720813
0.127251
0.105164
0.0580331
0.0703868
0.263203
0.100297
0.0202268
0.0309302
0.0534674
0.352263
0.235434
0.0924739
0.02844
0.0334495
0.0143736
0.0414343
0.253957
0.170378
0.415733
0.333402
0.0506489
0.00890399
0.156038
0.165443
0.0972425
0.116432
0.113845