0.260606
0.049068
0.0625002
0.0761907
0.0276724
0.0307256
0.17517
0.121622
0.213733
0.192397
0.0221406
0.18776
0.132696
0.0628795
0.163973
0.22389
0.288999
0.354177
0.286117
0.0964126
0.0876245
0.15954
0.125666
0.0495471
0.0258015
0.0386419
0.133268
0.22127
0.0793534
0.143876
0.134912
0.0933231
0.112569
0.148832
0.207576
0.18551
0.0964293
0.00798989
0.108163
0.0980891
0.161496
0.0721722
0.0858014
0.183134
0.34636
0.152098
0.0251943
0.0403206
0.161022
0.202459
0.0367527
0.158571
0.307092
0.224588
0.105369
0.0276179
0.0585253
0.0553015
0.106218
0.120741
0.111573
0.198786
0.275916
0.119152
0.0198048
0.0292822
0.0852973
0.149253
0.216345
0.163065
0.300458
0.252335
0.231201
0.0663796
0.0897172
0.136426
0.0680832
0.0520801
0.187106
0.200359
0.0616169
0.310292
0.112524
0.207205
0.144371
0.114642
0.117608
0.0511757
0.0818107
0.0849005
0.24145
0.0579308
0.10707
0.0709709
0.111051
0.185551
0.158129
0.165692
0.0970841
0.228846
0.206295
0.380874
0.258103
0.0877305
0.101253
0.059346
0.0703414
0.108796
0.157239
0.0595249
0.124978
0.180755
0.15681
0.133378
0.0249002
0.0429944
0.0782906
0.102921
0.0927838
0.0664703
0.207939
0.092683
0.111572
0.0767695
0.143415
0.0605288
0.184402
0.220103
0.243806
0.476484
0.0552121
0.0298546
0.0241304
0.053884
0.146695
0.147713
0.0954992
0.099443
0.341256
0.0950817
0.1417
0.0609676
0.136209
0.206605
0.061269
0.0689037
0.131656
0.101433
0.0279303
0.0488066
0.0670121
0.194127
0.0934362
0.0882984
0.0715806
0.230872
0.142878
0.0891125
0.0840862
0.100718
0.220265
0.315427
0.0436714
0.049229
0.0976977
0.0684055
0.0954417
0.175216
0.0819365
0.296941
0.140569
0.094501
0.14433
0.295369
0.171202
0.207083
0.11704
0.0648619
0.360955
0.203159
0.0452078
0.0658963
0.0444204
0.0559123
0.0571413
0.0684563
0.0956671
0.211454
0.174532
0.139736
0.23248
0.0850931
0.0315086
0.0843572
0.129339
0.0813991
0.143979
0.071944
0.069468
0.211233
0.178223
0.0711529
0.126759
0.111714
0.0264203
0.116416
0.0998502
0.105298
0.586068
0.241434
0.0799442
0.129412
0.290164
0.0921585
0.0653599
0.0812137
0.0874123
0.0855034
0.0576447
0.045241
0.170693
0.0696631
0.0561721
0.0288997
0.0157732
0.182192
0.0356443
0.0427854
0.141567
0.340277
0.0562663
0.221777
0.146306
0.0903445
0.0899172
0.42177
0.149347
0.0953653
0.124197
0.101424
0.0698964
0.0203756
0.00997532
0.15289
0.376816
0.228867
0.321687
0.163587
0.04166
0.118325
0.0887347
0.0778824
0.151025
0.0475926
0.124784
0.151453
0.169529
0.0488692
0.155439
0.137216
0.081981
0.184613
0.156998
0.180953
0.0650427
0.0683865
0.121185
0.160179
0.178936
0.073156
0.232202
0.193318
0.288782
0.224896
0.0581234
0.0146619
0.0417709
0.0711432
0.157823
0.348773
0.258201
0.306267
0.0514069
0.0493357
0.0881891
0.10681
0.126599
0.171856
0.104835
0.0595006
0.128655
0.00467397
0.012109
0.0589379
0.150187
0.122616
0.0663117
0.138406
0.143297
0.409643
0.0757338
0.0152034
0.0275576
0.0689468
0.0903113
0.0629735
0.126148
0.0942194
0.181939
0.0170295
0.0967897
0.152896
0.140677
0.0928589
0.0779
0.111908
0.28541
0.591802
0.149984
0.143232
0.102057
0.0654902
0.0609508
0.0532089
0.219549
0.0607025
0.0595995
0.188163
0.114336
0.114076
0.0835087
0.0598469
0.127751
0.196178
0.136909
0.0731274
0.160458
0.0808542
0.189505
0.144332
0.17787
0.0750186
0.25487
0.063336
0.0932858
0.0989231
0.104498
0.196861
0.130744
0.0979548
0.187893
0.318799
0.212688
0.184767
0.147365
0.0506942
0.329244
0.127534
0.15451
0.125833
0.0674037
0.128849
0.118051
0.0799052
0.0957021
0.0981758
0.101227
0.147179
0.0520399
0.116803
0.0866214
0.123599
0.0786321
0.128194
0.129865
0.128392
0.266953
0.139601
0.162442
0.25735
0.386827
0.182097
0.0321577
0.0882804
0.0532965
0.0560476
0.014685
0.231784
0.225879
0.378646
0.18072
0.0444738
0.0469527
0.114455
0.168305
0.108356
0.154031
0.077261
0.104272
0.0451208
0.108057
0.0979038
0.0559426
0.130484
0.101489
0.15189
0.309083
0.339991
0.195763
0.0936629
0.05553
0.0215237
0.0766658
0.0532026
0.224864
0.117204
0.125079
0.0575808
0.0877199
0.0539686
0.0697745
0.177701
0.134044
0.210567
0.380248
0.265677
0.132772
0.185088
0.0484597
0.0639687
0.19122
0.140615
0.11644
0.22015
0.114182
0.129454
0.0123304
0.0439618
0.0204608
0.0522745
0.0607282
0.112794
0.0577142
0.0289485
0.0725549
0.0260329
0.122571
0.0794135
0.126571
0.113541
0.127128
0.467122
0.207641
0.04862
0.0369156
0.0864867
0.0385077
0.064131
0.122879
0.187095
0.390018
0.386903
0.0862527
0.0131353
0.136211
0.138463
0.085371
0.229587
0.0255314
0.0686531
0.0279192
0.00947835
0.0221047
0.0651138
0.0761167
0.1435
0.0418964
0.094149
0.27719
0.104785
0.0277305
0.0381493
0.028181
0.0485162
0.136553
0.0506182
0.144271
0.268013
0.29273
0.0336755
0.00416959
0.0447109
0.0816698
0.0526438
0.115159
0.355319
0.595484
0.275649
0.0253943
0.00215706
0.0166292
0.0315553
0.0365474
0.121212
0.10137
0.203538
0.159475
0.0216597
0.0267655
0.0152232
0.00961851
0.0149614
0.031318
0.178649
0.295642
0.258468
0.0387046
0.0192151
0.0495015
0.0465829
0
0.0242911
0.280191
0.341513
0.179936
0.0188456
0.00172002
0.000409163
0.00157822
0.0038412
0.0928704
0.41937
0.435975
0.256197
0.0263747
0.000245717
0.000782772
0.0066547
0
0.0683566
0.152244
0.261077
0.142077
0.0574591
0.0146119
0.0176259
0.0183857
0.000534435
0.0198173
0.19202
0.308057
0.119217
0.118898
0.0120559
0.00280823
0.00944071
0.000890725
0.0817207
0.322136
0.361557
0.11813
0.0235605
0
0.000243766
0.00242325
7.64513e-005
0.0553051
0.393724
0.483543
0.118686
0.0259868
0.0295168
0.00341699
0.0323584
0.0071868
0.0962868
0.257133
0.202459
0.0828394
0.0653071
0.0202574
0.0177199
0.0382489
0.000167019
0.130521
0.178495
0.0744115
0.0741776
0.0308612
0.148116
0.100734
0.055154
0.00845169
0.101734
0.338132
0.258776
0.0425479
0.100794
0.250552
0.0432978
0.151716
0.00964915
0.0817968
0.111268
0.0238257
0.0175761
0.246281
0.55581
0.150579
0.13052
0.00243983
0.0370423
0.0198827
0.0238954
0.113128
0.0649109
0.159836
0.0825125
0.0151783
0.00633727
0.0180872
0.0139391
0.0930895
0.295076
0.25471
0.22411
0.0562586
0.00526263
0.0104221
0.0235378
0.00106963
0.0014269
0.0423398
0.214298
0.419018
0.0649357
0.00606947
0.000676052
0.00276881
0.000639858
0.00575052
0.0726987
0.41555
0.518698
0.0908129
0
0.00279086
0.0111634
0.142117
0.0716837
0.0507281
0.0649989
0.181414
0.103752
0.15097
0.0750903
0.113248
0.166337
0.207805
0.106514
0.0626004
0.0525806
0.137976
0.135765
0.0934596
0.0749202
0.136871
0.142016
0.0504846
0.145872
0.398475
0.0659607
0.0992056
0.12358
0.110064
0.208102
0.387484
0.271669
0.237349
0.173504
0.0945931
0.085674
0.106827
0.0390052
0.12589
0.153963
0.126363
0.038064
0.0207665
0.0329448
0.0195192
0.030634
0.0127992
0.166311
0.182009
0.139816
0.0491418
0.0372504
0.0638729
0.0389701
0.0972283
0.0576306
0.237572
0.313328
0.241134
0.0722357
0.0678013
0.0613618
0.00967679
0.0193604
0.00554937
0.358761
0.50175
0.330971
0.192673
0.0652249
0.065911
0.00978806
0.0429789
0.0375933
0.100211
0.119109
0.0829078
0.0229304
0.0397691
0.0369294
0.0224729
0.0864297
0.0734003
0.160639
0.245967
0.242318
0.033127
0.0691277
0.0148776
0.0178356
0.0597076
0.115203
0.213466
0.276183
0.245271
0.150303
0.0122475
0.019699
0.00254151
0.027376
0.0694921
0.456429
0.35293
0.39987
0.0509098
0.00714853
0.00128113
0.000940278
0.0109312
0.128355
0.116572
0.240757
0.181921
0.0242308
0.0104174
0.00983284
0.00641103
0.00797879
0.0699622
0.181598
0.259144
0.231589
0.0433131
0.000867138
0.010555
0.0190721
0.00596119
0.131144
0.324931
0.266515
0.198333
0.0238471
0.000719102
7.99001e-005
0
0.0005458
0.0593673
0.4237
0.475134
0.179205
0.0177901
0
0
0
0.000320127
0.0877864
0.179494
0.175888
0.177694
0.0219642
0.000316933
0.00460016
0.0117406
0.0032858
0.0885293
0.302103
0.271272
0.13441
0.0582085
0
0.00171815
0.0127069
0.00969639
0.0881638
0.287816
0.416239
0.0951534
0.00863571
0.0343259
0.00510494
0.012523
0.010731
0.0518394
0.338265
0.395977
0.0898098
0.125007
0.176754
0.0451233
0.140819
0.0800647
0.167533
0.171659
0.227188
0.0663132
0.0385524
0
0
0.00563069
0.00689801
0.0644495
0.202588
0.432854
0.0904737
0.00762733
0.0256126
0.00766548
0.00632053
0.0100325
0.0802213
0.243407
0.199642
0.149009
0.0994875
0.0636571
0.0554417
0.087815
0.0431827
0.213853
0.262954
0.350782
0.208171
0.026788
0.133153
0.0956678
0.0266663
0.0953988
0.391167
0.217311
0.371902
0.0547936
0.00342078
0.0737575
0.0110867
0.00487594
0.008663
0.0923669
0.228222
0.242234
0.0489543
0.0323964
0.119089
0.0035921
0.0196135
0.0110051
0.0757877
0.201531
0.176483
0.0664837
0.00486759
0.245473
0.156919
0.00731476
0.166102
0.436358
0.210041
0.0774197
0.0405177
0.0811587
0.208398
0.185848
0.010201
0.0793858
0.290134
0.0733333
0.0578653
0.0116371
0.135854
0.290646
0.0103006
0.0394404
0.00806573
0.0159793
0.0122584
0.00505574
0.0166438
0.217683
0.443154
0.0659071
0.0330032
0.00339119
0.00102132
0.0499867
0.0482251
0.00471927
0.228662
0.37814
0.056961
0.00711653
0.0117314
0.0425463
0.00117971
0.0239317
0.0450875
0.261579
0.548732
0.0699805
0.00504674
0.00301928
2.57569e-005
0
0.00174102
0.0216407
0.145634
0.303078
0.0694217
0.0313039
0.00285699
0
0
0.00104461
0.023568
0.16962
0.470106
0.192809
0.0688826
0.0245648
0.00364412
0
0.0375667
0.0992726
0.147933
0.312726
0.0756162
0.169741
0.0369056
0
0
0.02254
0.0935095
0.127595
0.197068
0.182128
0.458056
0.257856
0.0255088
0.0443052
0.0912541
0.11818
0.0786365
0.182234
0.0186579
0.0157833
0.0273008
0.0398577
0.12451
0.212283
0.492722
0.105454
0.119729
0.021581
0.0184911
0.015617
0.00697308
0.0831976
0.0625893
0.141939
0.0895258
0.215274
0.0611318
0.0440118
0.0501659
0.0322705
0.168665
0.125722
0.502097
0.051977
0.196037
0.0429429
0.257274
0.187685
0.0399519
0.170592
0.23109
0.367094
0.0601585
0.0569946
0.0217336
0.0163515
0.00665672
0.0062263
0.270903
0.330442
0.268754
0.129893
0.0641624
0.0265839
0.00313484
0.00351669
0.0227165
0.159818
0.0768125
0.27832
0.0217621
0.0501359
0.0211084
0.262475
0.197521
0.0444652
0.154696
0.145933
0.0922109
0.0524745
0.266862
0.0442885
0.180004
0.208778
0.0622537
0.161461
0.255452
0.10038
0.0797138
0.0300328
0.0071327
0.000234312
0
0.0317676
0.347766
0.420168
0.14737
0.0195472
0.00841821
0.000126552
0
0
0.0657924
0.0972037
0.254406
0.0338224
0.0479091
0.20417
0.0144363
0.155699
0.1465
0.0365234
0.253558
0.431314
0.0731844
0.0235032
0.0589275
0.000885863
0.169813
0.222322
0.0852492
0.353202
0.386117
0.15545
0.00446392
0
0
0
0
0.0556625
0.372965
0.454328
0.173199
0.00404247
0.000139908
0
0
0.00122374
0.051514
0.22382
0.236665
0.0768791
0.00660513
0.00833198
0.000383914
0.0334133
0.0771756
0.0830882
0.267998
0.15909
0.0632949
0.0485211
0.0477005
0.000639857
0.0092183
0.0197881
0.162498
0.181447
0.233072
0.0648809
0.0139215
0.0431791
0.00636265
0.0114541
0.0115501
0.0211999
0.209053
0.168403
0.0787933
0.117352
0.239554
0.0758284
0.151027
0.0734201
0.183279
0.206506
0.0969421
0.101492
0.0896315
0.0222874
0.000987562
0.0266561
0.0402202
0.143583
0.295981
0.311035
0.496157
0.256688
0.0794955
0.0438765
0.098853
0.0595747
0.137437
0.200813
0.0578513
0.0675212
0.0769527
0.122671
0.111448
0.104165
0.0282258
0.192232
0.304786
0.128174
0.0765889
0.0315345
0.140294
0.132694
0.0412628
0.17546
0.333428
0.201628
0.148922
0.155711
0.172672
0.116098
0.0685982
0.0672086
0.0329092
0.198328
0.356451
0.11514
0.0303971
0.0869043
0.111177
0.0888507
0.0630373
0.188068
0.372339
0.177739
0.084932
0.0696967
0.0215601
0.179181
0.156416
0.00825167
0.242874
0.26355
0.124928
0.0447382
0.0950881
0.0923454
0.214851
0.199064
0.0160764
0.0982129
0.158828
0.331874
0.0651015
0.0436656
0.040505
0.18769
0.0930532
0.053098
0.231703
0.219479
0.217137
0.0164814
0.0570529
0.195003
0.410536
0.072322
0.0181783
0.0850481
0.160774
0.02874
0.0165968
0.0104254
0.139751
0.239918
0.05521
0.0120872
0.0224477
0.0277738
0.0003527
0.0131405
0.0189481
0.208795
0.494661
0.0271119
0.00172674
0.00320681
0
0.0274141
0.00156381
0.00713931
0.226397
0.356449
0.0262706
0.0092972
0.0172073
0.0322827
0.00101859
0.00135273
0.00754115
0.386592
0.494661
0.0224671
0.0527662
0.00192408
0.00916728
0.000367242
0.0245213
0.0412281
0.165848
0.268899
0.0154189
0.143224
0.025104
0.00187291
0.00204496
0.0179061
0.0308448
0.0871944
0.0646338
0.0391879
0.426558
0.204284
0.0112696
0.0578431
0.00640923
0.00472226
0.253435
0.410008
0.0129405
0.157796
0.00818402
0.0612519
0.186994
0.0261987
0.00174993
0.0837757
0.11744
0.0435998
0.426558
0.21616
0.210291
0.179387
0.0717433
0.0761199
0.199896
0.122293
0.0499574
0.0498617
0.0644015
0.0507905
0.201723
0.0546238
0.0992175
0.0873244
0.167103
0.0847096
0.412575
0.367435
0.0911266
0.159279
0.0809084
0.12664
0.264946
0.101101
0.0960761
0.0886436
0.0645493
0.0565867
0.16661
0.122527
0.113769
0.206043
0.201867
0.144753
0.219013
0.168164
0.0668713
0.0512301
0.00825154
0.0160087
0.00572416
0.0208686
0.0232808
0.267643
0.235789
0.0320017
0.0110594
0.00947573
0.00179412
0.0101202
0.0649434
0.0222233
0.356844
0.281491
0.040872
0.0439381
0.0198056
0.019787
0.0378443
0.0317963
0.0344034
0.231959
0.211594
0.0335404
0.00794108
0.000641183
0.00685574
0.0210686
0.000407408
0.031744
0.536345
0.451829
0.0466476
0.00817817
0.0246855
0.00263776
0.0118471
0.0579881
0.00905556
0.211541
0.216932
0.0325592
0.0302471
0.0352327
0.00454026
0.00643789
0.0167365
0.00313629
0.2653
0.386831
0.0583764
0.00594892
0
0.000389118
0.00739326
0
0.0346814
0.362833
0.317599
0.0568656
0.00495476
0
5.55883e-005
0.00105618
0
0.0235904
0.396858
0.474736
0.0975584
0.0259196
0.00932881
0.00191483
0.0106776
0.027528
0.00395303
0.133728
0.178184
0.0550185
0.118928
0.0978552
0.0263757
0.0752762
0.172923
0.0241416
0.108871
0.120321
0.120095
0.00394353
0.00018641
0
0.0063677
0.0305594
0.00927409
0.30956
0.394437
0.0753087
0.0808961
0.0575223
0.0391618
0.0445739
0.223763
0.0468269
0.466468
0.474117
0.177059
0.13699
0.138724
0.107201
0.0701567
0.0551248
0.0165322
0.0965653
0.101567
0.0998361
0.155439
0.230214
0.231251
0.107284
0.00905406
0.0940413
0.122185
0.0804229
0.140676
0.0973634
0.10438
0.113217
0.0925132
0.129964
0.0475433
0.360906
0.255733
0.154836
0.202512
0.124809
0.0965669
0.131817
0.145211
0.146779
0.228907
0.198962
0.422452
0.0898873
0.0894407
0.0878875
0.0838796
0.0246624
0.0502615
0.0703839
0.0762723
0.28261
0.230751
0.020587
0.0323237
0.061806
0.0311152
0.0199502
0.0225358
0.0736793
0.377596
0.138593
0.0247891
0.0160337
0.109445
0.0783699
0.0693084
0.112487
0.183183
0.431647
0.206749
0.000584963
0.0374268
0.175908
0.141252
0.0874436
0.236014
0.148292
0.410315
0.331903
0.00662724
0.0394841
0.0348156
0.0620703
0.0208432
0.0169409
0.050591
0.198931
0.243166
0
0.0158285
0.192229
0.227931
0.00533582
0.00379529
0.0323374
0.174633
0.335561
0
0.0619198
0.0758812
0.145507
0.107041
0.160256
0.0355913
0.24819
0.282336
0
0.0263809
0.2753
0.385124
0.0446941
0.0187044
0.00477059
0.251228
0.0297505
0.00213293
0.00149285
0.243666
0.250345
0.00721873
0.00580985
0.00416078
0.0459294
0.00953913
0.00493931
0.0439021
0.287067
0.331249
0.0199659
0.0823092
0
0.0409851
0.044843
0.00355488
0.00370343
0.303073
0.420661
0.00917447
0.0033858
0.000594397
0.0481003
0.0341572
0.0376116
0.158451
0.292852
0.479824
0.0296351
0.0296492
0
0.0631903
0.118947
0.00522757
0.0335541
0.139079
0.185847
0.00663355
0.131568
0.0226848
0.151859
0.338795
0.0180882
0.00446638
0.027961
0.0523175
0.00715704
0.143996
0.118578
0.436901
0.109534
0.0889195
0.217079
0.204152
0.167186
0.00725178
0.0542223
0.0443976
0.130301
0.346789
0.187184
0.25689
0.128323
0.0560581
0
0.141755
0.139237
0.247702
0.0943262
0.0730874
0.172313
0.151217
0.130792
0.129343
0.0541129
0.0681773
0.0503611
0.196578
0.118746
0.101372
0.192441
0.210459
0.171663
0.0815424
0.0211075
0.0588164
0.0419111
0.144811
0.273648
0.269989
0.190086
0.226311
0.117674
0.0677115
0.0274153
0.12021
0.179685
0.160358
0.23874
0.237545
0.280448
0.153578
0.0384713
0.160489
0.112365
0.0378368
0.0570242
0.0551561
0.0500968
0.0791029
0.152766
0.105376
0.0700776
0.0999167
0.043481
0.0699446
0.123221
0.0304422
0.0452361
0.442531
0.446933
0.108344
0.105616
0.0819021
0.0516371
0.129283
0.154803
0.235311
0.166414
0.0194151
0.0812223
0.181566
0.195252
0.0917306
0.256544
0.197838
0.169774
0.149626
0.0912208
0.0712585
0.0336516
0.0067236
0.0222677
0.0535333
0.0153612
0.0159344
0.296846
0.223272
0.0865986
0.0183932
0
0.00318111
0.00828351
0.0084435
0.0273225
0.518891
0.410297
0.0970517
0.0611609
0.0521952
0.0553372
0.0749949
0.0412694
0.00631745
0.115407
0.0870435
0.0670523
0.0367258
0.0249617
0.0321309
0.0254577
0.058264
0.0734452
0.414736
0.341852
0.0579673
0.00534979
0
0
0
0.00404726
0.025506
0.255123
0.276508
0.0429364
0.0220475
0
0.00552035
0
0.0459984
0.0258234
0.329974
0.434471
0.0880986
0.0114462
0.00190298
0.00260196
0.00447516
0.0315739
0.150772
0.299692
0.268517
0.0366772
0.00705209
0
0
0
0.0386669
0.111937
0.346162
0.417722
0.0629067
0.024119
0.00585925
0.0150287
0.0287158
0.076411
0.0305307
0.316012
0.279516
0.0909002
0.117858
0.0155748
0.0106293
0.0485284
0.202334
0.0650332
0.271603
0.218692
0.251763
0.00207677
0
0
0
0.0306782
0.021287
0.269615
0.316263
0.0589352
0.0391718
0.00968233
0
0.00040119
0.069038
0.0289579
0.407266
0.361876
0.178814
0.109243
0.00795661
0.00249486
0.051908
0.170398
0.0532098
0.139366
0.18387
0.258237
0.0596057
0.000925999
0.00855733
0.0829619
0.18514
0.16646
0.369773
0.276017
0.167603
0.0346313
0.0108033
0
0.00225274
0.100496
0.0344286
0.26835
0.314268
0.0999966
0.0352597
0.00154333
0
0.00245665
0.160822
0.113853
0.212734
0.400023
0.182853
0.0883787
0
0.0101465
0.0225343
0.205833
0.216053
0.216895
0.129021
0.111508
0.0816783
0
0.00417677
0.193528
0.431696
0.104261
0.0216304
0.0115061
0.0863717
0.076838
0.000869705
0.000711577
0.00429014
0.221152
0.140324
0.0684029
0.191585
0.184754
0.0409874
0.00144951
0.00147513
0.291517
0.529432
0.0755367
0.00335083
0.0192952
0.0404639
0.0108332
0.000418292
0.00375229
0.189328
0.332754
0.00644661
0
0
0.00906165
0.0180684
0.0518734
0.128724
0.233514
0.379142
0.0147702
0
0
0.0604155
0.0274196
0.00712264
0.0362256
0.298945
0.347458
0.00255905
2.82166e-005
0
0
0.0518211
0.132629
0.405424
0.378995
0.210726
0.00418095
0.000407645
0
0.0346899
0.0266295
0.133697
0.22329
0.141807
0.0937826
0.00270246
0.00524274
0.00649873
0.049332
0.115731
0.296307
0.350919
0.0826277
0.0171688
0
0.0270976
0.027737
0.0232614
0.0115784
0.169024
0.431658
0.194562
0.0362721
0.00207558
0.00030995
0
0.0263762
0.033589
0.41403
0.431658
0.0999332
0.00812204
0.000250912
4.42786e-005
9.87719e-005
0.0103589
0.0245894
0.0742836
0.168849
0.159056
0.0953152
0.157682
0.167752
0.0813999
0.0207555
0.0936664
0.157971
0.112681
0.087485
0.113986
0.178485
0.0590181
0.0481662
0.145234
0.119774
0.0709411
0.0789643
0.0769027
0.135334
0.190825
0.410293
0.369694
0.104676
0.206289
0.241204
0.0705985
0.170451
0.194214
0.172198
0.125239
0.123376
0.128931
0.085493
0.196302
0.075302
0.163611
0.0867945
0.136966
0.0576755
0.010536
0.0556469
0.0720261
0.1974
0.0479047
0.257126
0.120899
0.129334
0.109039
0.0501663
0.0826924
0.130417
0.286601
0.172776
0.174248
0.0939332
0.0916076
0.0579849
0.0180802
0.0374191
0.169297
0.301871
0.185172
0.430506
0.166226
0.0664592
0.118148
0.112176
0.228964
0.0847619
0.132434
0.0711616
0.0739478
0.0546557
0.0239707
0.0790332
0.0478318
0.133212
0.0699661
0.103842
0.100842
0.0437344
0.147978
0.125574
0.252717
0.13747
0.0618763
0.257602
0.238857
0.0533441
0.237222
0.0825347
0.169966
0.0537177
0.200349
0.338339
0.256277
0.178642
0.0566211
0.0680313
0.0955421
0.341665
0.19634
0.110301
0.172704
0.0130795
0.00751195
0.0158106
0.017658
0.0914783
0.170692
0.270076
0.208283
0.0683488
0.0218715
0.02994
0.00376821
0.0104216
0.0953324
0.145082
0.433183
0.490591
0.153453
0.0696862
0.0591311
0.0230289
0.0163139
0.097869
0.0998161
0.164421
0.0771831
0.0904164
0.0989476
0.0952476
0.0240421
0.0334906
0.0983427
0.0582365
0.19386
0.278271
0.255943
0.00704208
0.0172376
0.00407805
0.00174197
0.0287192
0.0330645
0.212809
0.285048
0.0414699
0.00598077
0.00407334
0.00244683
0.000611708
0.0132077
0.0375742
0.287065
0.399677
0.07917
0.0420915
0.0540937
0.0379801
0.0281332
0.0169912
0.0220251
0.142946
0.316841
0.0709098
0.00845727
0.0257121
0.0328506
0.0161575
0.0195688
0.060775
0.367082
0.530809
0.103953
0.00604766
0.00139271
0
0.000133548
0.00774504
0.0124376
0.199027
0.284967
0.0603013
0.0255668
0.000198959
0
0.00022258
0.022884
0.0147544
0.227621
0.407733
0.107151
0.00463382
0.00224855
0.00183973
0
0.00480985
0.0560359
0.285799
0.383009
0.0811462
0.0139472
0
0
0
0
0.0557842
0.351792
0.473244
0.0917339
0.0537194
0.0030122
0.00531318
0.0110242
0.0584245
0.0151456
0.110106
0.248049
0.107833
0.0328916
0.00815385
0.0390607
0.317152
0.312406
0.0104538
0.0172001
0.0742497
0.0322866
0.0424291
0.0127544
0.0252429
0.0115666
0.0159965
0.0094845
0.262934
0.4992
0.141545
0.148446
0.0456628
0.202318
0.275289
0.155662
0.0134278
0.0832319
0.329241
0.16029
0.0315387
0.00841101
0.0897476
0.269114
0.177909
0.000736391
2.76879e-005
0.00256373
0.00116014
0.0471871
0.0702883
0.341199
0.334724
0.157142
0.00616153
0.00108733
0
0.000260451
0.0643732
0.0114019
0.180089
0.265228
0.154102
0.0208785
0.00894183
0.0389918
0.0246057
0.0228146
0.00683527
0.253634
0.410503
0.461556
0.0299762
0.0044939
0.00306785
0.00182316
0.00538889
0.0627522
0.354692
0.291475
0.0752501
0.00561577
0.000985445
0
0
0.000742979
0.140769
0.429407
0.187382
0.0392784
0.00302335
0.000494512
0.000301618
0.00214456
0.000976919
0.00521657
0.18731
0.39877
0.413086
0.0185265
0.00084059
0
0
0.00155568
0.0110959
0.168295
0.255185
0.193312
0.0125247
0.00213435
0.000778682
0.00180503
0.045061
0.0223791
0.0105579
0.0149448
0.0571755
0.127964
0.225178
0.191061
0.0762019
0.0712348
0.0622788
0.00705959
0.0584653
0.0643028
0.0895801
0.13957
0.18975
0.0443783
0.0194943
0.0214501
0.0304081
0.00834549
0.0548697
0.185406
0.32412
0.238645
0.0581602
0.0535924
0.027603
0
0.0202472
0.0645222
0.344339
0.324458
0.53981
0.123221
0.0742404
0.115037
0.0606958
0.0730026
0.0828738
0.0877259
0.0489257
0.0628572
0.00815949
0.183499
0.205645
0.118101
0.36987
0.229329
0.0354241
0.0438878
0.0523545
0.107981
0.0886388
0.0745674
0.0198401
0.0787734
0.0837492
0.261135
0.183391
0.418062
0.0941531
0.259824
0.11006
0.0662715
0.22502
0.222515
0.0984382
0.128684
0.192281
0.133462
0.20754
0.199978
0.038197
0.28965
0.0763479
0.129878
0.0339007
0.115739
0.128299
0.259958
0.195865
0.0101152
0.096613
0.0166256
0.235024
0.133715
0.0855298
0.105138
0.26262
0.185841
0.0679303
0.161736
0.081412
0.12997
0.10314
0.0929426
0.10053
0.219156
0.283681
0.0783007
0.0596552
0.0228515
0.250026
0.304532
0.0713836
0.119196
0.181034
0.123889
0.0127175
0.00632063
0.0456239
0.103174
0.168035
0.0666638
0.105202
0.171848
0.118262
0.0349288
0.0511462
0.146686
0.0392304
0.0887112
0.116931
0.170018
0.154506
0.131525
0.0530419
0.0140028
0.0787923
0.279614
0.362245
0.0680494
0.140976
0.129017
0.151319
0.15769
0.075211
0.315075
0.373203
0.29843
0.0388875
0.0598172
0.104668
0.0733034
0.0424245
0.0540471
0.0773711
0.00785998
0.0441107
0.172788
0.0805295
0.107975
0.101995
0.0378593
0.027835
0.0281271
0.0615316
0.287925
0.595272
0.123946
0.154933
0.147407
0.063273
0.0709115
0.192809
0.109636
0.0725217
0.0385843
0.0142971
0.31907
0.332184
0.01003
0.0496221
0.10209
0.0853117
0.102095
0.16208
0.0364789
0.0402879
0.02103
0.00247803
0
0.00250604
0.105721
0.306785
0.343127
0.0487043
0.0178279
0.00210062
0
0
0.000232749
0.142511
0.491546
0.311912
0.0734679
0.141443
0.112908
0.00394025
0.0081779
0.0246322
0.0831354
0.154631
0.109066
0.0280161
0.0729396
0.0335267
0.00215175
0.0118159
0.0195433
0.124784
0.402297
0.277778
0.115575
0.0397302
0.0246899
0.0124387
0.00141972
0.00141972
0.0564556
0.3265
0.22995
0.133817
0.190515
0.0605232
0.0856713
0.0571137
0.0682218
0.0596928
0.161472
0.203311
0.183515
0.0222869
0.0137491
0.0014292
0.00618958
0.00500033
0.135198
0.35458
0.299793
0.123318
0.0973655
0.0577699
0.0129941
0.0164594
0.0553055
0.174109
0.469926
0.272362
0.0873049
0.0557345
0.0102253
0.04745
0.0736912
0.128521
0.0727124
0.0657197
0.0437891
0.0253684
0.00666451
0.000194576
0.0437429
0.132932
0.471798
0.158025
0.0598929
0.00922122
0.000690055
0.0359497
0.0465211
0.0278842
0.0137086
0.0843512
0.128431
0.307845
0.0598477
0.0156874
0.00317808
0.0262418
0.0254676
0.00937024
0.434474
0.433375
0.371696
0.0105128
0.0043489
0.000241787
0.000161191
0.0242587
0.126836
0.447947
0.153642
0.0250797
0
0
0.00184588
0.00189764
0.0158771
0.0742693
0.221398
0.0945616
0.014323
0.000682623
0.000871991
3.4541e-005
0.000952349
0.00198586
0.00653293
0.344595
0.447947
0.30126
0.003441
0
0.0022282
0.00173819
0.00312926
0.00546269
0.132343
0.363141
0.300771
0.00880413
0.00223736
0.0283342
0.0568899
0.0296675
0.00074624
0.085061
0.137771
0.176391
0.139586
0.0275294
0.037679
0.0353925
0.00588841
0.00498504
0.0861731
0.310328
0.280424
0.511159
0.144801
0.0764696
0.101992
0.0328695
0.00245573
0.162053
0.109755
0.129951
0.0954491
0.0378723
0.270724
0.118644
0.0447204
0.00885278
0.232519
0.256996
0.214982
0.187508
0.119432
0.017684
0.0159146
0.0130972
0.0186513
0.0234223
0.200211
0.300582
0.360974
0.0878998
0.0510184
0.0093093
0.0158321
0.0170679
0.0243642
0.139904
0.249744
0.208653
0.0875744
0.117991
0.0871323
0.0759427
0.0454744
0.0779613
0.207591
0.283927
0.181766
0.0639274
0.0722869
0.0168425
0.0406549
0.102126
0.103491
0.21628
0.332223
0.298388
0.239738
0.113286
0.0375477
0.0299292
0.00170438
0.0435239
0.142707
0.117108
0.160511
0.120748
0.145553
0.122552
0.0813442
0.0117381
0.0561775
0.179903
0.128404
0.0727291
0.230721
0.207953
0.00973959
0.0734608
0.0882009
0.17211
0.216327
0.161758
0.244288
0.355891
0.259514
0.113572
0.20254
0.0894757
0.174545
0.14901
0.0759846
0.0956874
0.363357
0.0817988
0.0663001
0.0882525
0.0645575
0.0551508
0.164261
0.170045
0.0230371
0.136806
0.0226886
0.041083
0.148293
0.135131
0.179466
0.443124
0.258158
0.0330273
0.0295153
0.0906667
0.078554
0.12585
0.185685
0.148605
0.110839
0.108264
0.046137
0.12763
0.0593864
0.0340412
0.14723
0.315201
0.273246
0.334502
0.119026
0.121631
0.0616124
0.0897916
0.089007
0.0577737
0.0966993
0.289504
0.274216
0.100268
0.0643958
0.0223976
0.203494
0.206621
0.0179011
0.115852
0.232959
0.147055
0.0711398
0.140334
0.100102
0.0771495
0.0563857
0.106568
0.127778
0.314167
0.205095
0.051532
0.157476
0.11004
0.085236
0.167775
0.206208
0.228267
0.29906
0.106372
0.0493742
0.134942
0.169635
0.184156
0.177594
0.0144415
0.0631673
0.121939
0.11431
0.0652631
0.0635369
0.0970456
0.117018
0.0870987
0.0120371
0.0624698
0.141648
0.19789
0.191739
0.226387
0.197531
0.12588
0.167984
0.0931211
0.286789
0.295388
0.101219
0.0481357
0.0399719
0.0989152
0.154777
0.0721141
0.0614058
0.212066
0.371592
0.187153
0.218565
0.0182278
0.128801
0.0363844
0.00156772
0.0114544
0.0316826
0.0322016
0.14344
0.218648
0.208071
0.124038
0.108747
0.0399975
0.0235293
0.0112428
0.0151865
0.278075
0.561741
0.261487
0.0775874
0.0817013
0.00663653
0.0496673
0.0722752
0.103143
0.0826294
0.175982
0.0620153
0.0734588
0.183324
0.0286645
0.0858907
0.0317689
0.0408761
0.181486
0.341262
0.172752
0.111216
0.0310607
0.0535371
0.0471667
0.00398249
0.0123229
0.108195
0.298206
0.0431891
0.029621
0.00396311
0.0434156
0.055399
0.0039264
0.0939894
0.333461
0.523698
0.0230733
0.0212424
0.0551988
0.0298581
0.0469523
0.016644
0.0198917
0.0736806
0.214764
0.0697582
0.0659187
0.0175821
0.0310051
0.0376632
0.02588
0.0364801
0.142829
0.523698
0.254884
0.0810147
0
0.00191769
0.00358813
0.000328775
0.0493596
0.230253
0.357985
0.0234607
0.00135432
0.000992757
0.000992269
0.000226547
0.000198149
0.0177219
0.172791
0.422107
0.093611
0.000783794
0.001053
0.0132986
0.0118607
0.00217678
0.00928947
0.0874165
0.422107
0.189691
0.015998
0.0160448
0.00902642
0.0131023
0.00311484
0.00462402
0.0821443
0.422107
0.381974
0.0558237