0.285472
0.217726
0.0606313
0.00525561
0.0030089
0.00295428
0.0217379
0.0310648
0.112188
0.233924
0.0489625
0.0128284
0.00772353
0.0281275
0.0460628
0.193151
0.183827
0.222047
0.233459
0.313117
0.316658
0.0832432
0.00678396
0.0193376
0.0426218
0.0153071
0.0430525
0.280077
0.0911435
0.0914273
0.203232
0.231245
0.110809
0.280521
0.0544256
0.110908
0.0469551
0.00125787
0.00231919
0.0425217
0.121304
0.146023
0.251575
0.15628
0.0781664
0.0127513
0.00262571
0.00545853
0.0650062
0.110509
0.135476
0.0865396
0.0233994
0.00378824
0.0807941
0.00684028
0.0162343
0.36355
0.532316
0.180569
0.244913
0.0386351
0.0467399
0.0309145
0.00736416
0.0382097
0.22664
0.271496
0.0896234
0.0428183
0.0188283
0.0209036
0.0339287
0.0136856
0.00783183
0.106844
0.0991751
0.101116
0.165023
0.0606141
0.0342773
0.0481854
0.0980552
0.0111532
0.0846983
0.0948396
0.0547407
0.169657
0.106206
0.0778741
0.079595
0.0406992
0.0512014
0.112788
0.0996065
0.0694634
0.168041
0.10065
0.0813999
0.314365
0.297088
0.0200155
0.10726
0.0303087
0.150077
0.294881
0.143969
0.0406432
0.0426974
0.0563676
0.0118706
0.0125654
0.0155913
0.0311436
0.0281101
0.0223857
0.0419673
0.0458979
0.104269
0.0495951
0.013267
0.0232475
0.0626198
0.00715499
0.00730253
0.0430145
0.28253
0.239815
0.00618603
0.0359128
0.0143158
0.0526018
0.0412001
0.0201712
0.0437856
0.493616
0.189415
0.0101654
0.019997
0.0235439
0.0828254
0.00530828
0.0346247
0.560087
0.0125297
0.0490143
0.052016
0.0107295
0.00926851
0.0294553
0.00823959
0.00570615
0.0189043
0.0103574
0.0136644
0.0399615
0.0173022
0.00539821
0.0294009
0.0260984
0.0283597
0.0296042
0.283391
0.0256559
0.0112166
0.000680912
0.0031941
0.0376237
0.00649804
0.0200134
0.452555
0.391234
0.00696498
0.00683183
0.000570601
0.00327157
0.0355971
0.0148393
0.0553347
0.613695
0.00778332
0.00223017
0.00854185
0.004714
0.00205086
0.0321845
0.0296203
0.0354744
0.0216498
0.045645
0.0130958
0.0141447
0.0070637
0.00190142
0.021276
0.0167548
0.0187283
0.0376589
0.115165
0.00224564
0.00190786
8.85222e-005
0.0034181
0.0402464
0.0431293
0.163669
0.607743
0.0364535
0.00995814
0.00418296
0
0.00102307
0.0281885
0.048178
0.297922
0.546753
0.0772183
0.0273979
0.0404393
0.0108213
0.0364749
0.0533242
0.0195457
0.00810652
0.0601363
0.0396379
0.0405439
0.0524171
0.0293568
0.0596186
0.122425
0.0269263
0.0200738
0.0684314
0.111311
0.0119047
0.0165969
0.00291164
0.0120721
0.0312326
0.0300745
0.438073
0.452566
0.129324
0.014934
0.12522
0.112405
0.0290439
0.0425312
0.0317844
0.224314
0.212845
0.0668688
0.117979
0.0986028
0.0568255
0.0176812
0.0574639
0.00807001
0.0119093
0.0824857
0.0873066
0.174046
0.169673
0.175608
0.0676427
0.0597487
0.0081414
0.000525629
0.0411443
0.0894379
0.0878406
0.225326
0.219003
0.0327805
0.0679959
0.0305072
0.0468089
0.0982475
0.139541
0.192222
0.162649
0.144503
0.171681
0.15953
0.0355622
0.0118794
0.0246687
0.0559402
0.0985716
0.0937258
0.149689
0.0762359
0.100308
0.0322627
0.013522
0.0423057
0.161621
0.136648
0.179189
0.0734827
0.0378892
0.116872
0.114534
0.103491
0.156514
0.0799854
0.0905678
0.0454416
0.0895332
0.194964
0.118943
0.0284091
0.0632977
0.0257184
0.212357
0.115717
0.14468
0.0652276
0.149884
0.0993234
0.0550235
0.116699
0.161731
0.0669518
0.0721111
0.132224
0.0896412
0.0489559
0.0455635
0.0550187
0.0198525
0.0313345
0.0430039
0.018365
0.0358163
0.279518
0.284138
0.114605
0.0749409
0.00254067
0.00866609
0.0409058
0.00604096
0.0179871
0.0882885
0.347813
0.250878
0.107561
0.0586162
0.127751
0
0
0.0155966
0.328217
0.562606
0.148796
0.0130392
0.00269568
0
0.010885
0.00211977
0.00430865
0.196872
0.361112
0.186937
0.0288073
0.000426033
0.00466517
0.0188437
0.0196876
0.0202785
0.0698223
0.159344
0.107662
0.00129584
0.00333207
0.0122425
0.00498243
0.01184
0.0131974
0.159739
0.588739
0.245929
0.000431428
0
0.00255524
0.0315071
0.265958
0.189503
0.0297643
0.248281
0.170902
0
0
0.0178866
0.0271634
0.0659518
0.0186064
0.00819329
0.0131837
0.00491924
0.00450382
0.00366924
0.00589606
0.125957
0.280718
0.0169079
0.00920071
0.00118786
0.00592634
0.0156484
0.00667884
0.00499117
0.031155
0.369518
0.215069
0.00606376
0.0100145
0.00657959
0.00016826
5.60865e-005
0.00433845
0.148365
0.738309
0.24741
0.0173435
0.00034591
0
0.00117782
0.000392606
0.0207226
0.182907
0.253243
0.00286167
0.00430457
0.000516959
0.00311398
0.00501976
0.00179373
0.0218882
0.29882
0.15452
0.000223671
0.00201304
0.00093183
0.00323378
0.000244961
0.00956471
0.227379
0.281299
0.427883
0.0524088
0.00556967
0
0
0.000399618
0.000133206
0.0652662
0.475019
0.355867
0.00187604
0
0
0
0
0.0117478
0.185612
0.218642
0.025349
0
0
0.000178183
0.00209279
0.000194016
0.0110488
0.268185
0.288731
0.00447676
0
0
0.000182504
0.00198578
0.000876405
0.0265508
0.355935
0.352356
0.145703
0
0
0
0
0
0.0156361
0.2538
0.354773
0.023348
0
0
0
0
0.00215423
0.0710127
0.495913
0.0841845
0.00134726
0
0
0.000159106
0.00187339
0.00423671
0.101961
0.333208
0.0140238
0.00332228
0.00226873
0
4.76218e-005
0.00156607
0.00533417
0.331105
0.31812
0.104824
0.00211521
0
0
0
0
0.00560118
0.223026
0.370006
0.0831809
0.0197124
0.0158811
0
0
0
0.018316
0.489885
0.369037
0.0089057
0.00296105
0.00267115
0.00015483
0
0.00121325
0.0144992
0.288942
0.112261
0.0133524
0.000930523
0.00784065
0.00925381
0.00153834
0.000667122
0.0547924
0.198789
0.0472506
0.0283419
0.0197623
0.0161692
0
0
0
0.13078
0.458317
0.178848
0.00190393
0.0028985
0.00302464
0.00146864
0.00179575
0
0.424446
0.577607
0.0663844
0.00954875
0.00779149
0.0348471
0.0373404
0.0104454
0.00586354
0.0570851
0.0975478
0.0245629
0.0128164
0.0148499
0.0335309
0.0361461
0.0322742
0.0236142
0.0190099
0.0134824
0.0092811
0.00106628
0.000927661
0.0089267
0.0117308
0.014975
0.0118638
0.570227
0.63638
0.0453933
0.00577474
0.0010033
0.0203418
0.0259123
0.045723
0.0612198
0.206769
0.172656
0.0320562
0.0492284
0.0231752
0.02806
0.0458098
0.129124
0.0911068
0.0756932
0.0828206
0.0426532
0.104356
0.0431708
0.0973323
0.0357733
0.0806089
0.0814463
0.117869
0.123825
0.14426
0.0448404
0.000446557
0.028405
0.0494153
0.142646
0.199901
0.251994
0.082946
0.0641689
0.0661164
0.0335255
0.112507
0.0994839
0.125792
0.0791175
0.210063
0.12193
0.117632
0.00320145
0.00136118
0.00613126
0.0390066
0.383298
0.114226
0.0289887
0.0216251
0.024915
0
0
0.00364377
0.109966
0.338417
0.0389816
0.0014379
0.00239027
0
0.00105869
0.00952825
0.00824056
0.064163
0.659012
0.0340625
0.00282142
0.00272595
0
0.00858367
0.00726178
0.00955244
0.101704
0.431439
0.0467109
0.000826489
0.0157032
0
0.00443508
0.0331607
0.0419127
0.087871
0.31326
0.0302299
0.000416652
0.00791636
0.00056755
0.0121151
0.225795
0.336779
0.0442429
0.116663
0.0240425
0.000249991
0.00474982
0.00397285
0.0239015
0.11455
0.155498
0.0896225
0.246488
0.0251176
0.00291657
0.0554145
0
0.019095
0.266607
0.656962
0.0803488
0.0668133
0.0048492
0.00174994
0.0332487
0
0.00606511
0.269256
0.255158
0.0161288
0.0024644
0.00131899
0
0.00101271
0.00152756
0.0543404
0.371867
0.225794
0.0152587
0
0
0
0.00708894
0.00840525
0.0030861
0.171261
0.400895
0.0685104
0.00115326
0.000169837
0
0.00168784
0.000562614
0.0586267
0.480534
0.406442
0.0525582
0
0
0
0.0118149
0.0039383
0.163717
0.241121
0.0834325
0.00456383
0
0
0
0.0035947
0.0242353
0.366672
0.26737
0.0575028
0.000259069
0.00669726
0.000352489
0
0.00997982
0.0589596
0.211511
0.483727
0.198846
0.0256401
0.00217045
0.00946552
0.00895416
0.0115702
0.0133243
0.370461
0.351144
0.128035
0.0552992
0.106807
0.0483725
0.0626791
0.0514759
0.0613535
0.357904
0.104695
0.0154748
0.000704508
0.00669997
0.000352632
0
0.0058572
0.152735
0.282027
0.0105071
0.00239533
0.000422705
0.000957139
5.0376e-005
0.00479685
0.06604
0.500496
0.302022
0.102157
0.0612631
0.0460278
0.114752
0.0258365
0.0230677
0.019623
0.11711
0.24536
0.167807
0.0934535
0.0135311
0.0261726
0.00238356
0.0212741
0.0781788
0.437146
0.0573052
0.00767471
0
0
0
0.000836495
0.0281619
0.201756
0.338724
0.0552414
0.0187196
0.00516612
0
0
0.00585547
0.102424
0.281868
0.221173
0.115121
0.30534
0.0692663
0
0
0.00518375
0.0852161
0.209072
0.297435
0.161751
0.260961
0.028011
0.00190885
0.00572656
0.0991926
0.238252
0.417026
0.199576
0.020872
0.00835336
0.00540231
0
0
0.00225259
0.150625
0.217074
0.0922212
0.000285079
0.00094326
0.000771758
0
0.000463351
0.00221633
0.346132
0.396761
0.0321436
0.0386635
0.0249609
0.00230994
0.00542603
0.0162781
0.0797417
0.255188
0.391108
0.0871971
0.000171048
0
0
0.00325562
0.0114907
0.0652407
0.403652
0.40603
0.0440944
0
0
9.98894e-005
4.28097e-005
0.00491021
0.0433454
0.313127
0.245288
0.0107115
0.000289816
0
0.00229183
0.00708977
0.0331261
0.112125
0.207468
0.0707077
0.00421418
0
0
0
0
0.00781495
0.21921
0.39842
0.161284
0.0110717
0
0
0.00265433
0.00722893
0.0334234
0.364843
0.577526
0.0456894
0.00254519
0.00974847
0.000657581
0.00961474
0.0340139
0.0636102
0.11817
0.0969184
0.0126124
0.0138766
0.0196115
0.0322688
0.0359761
0.0582118
0.0242912
0.00900868
0.0250265
0.0130498
0.0212103
0.00873565
0.00460306
0.0130442
0.0491255
0.0740936
0.397445
0.730073
0.0329916
0.0293498
0.0330767
0.0596455
0.0273829
0.0766583
0.0268824
0.0711168
0.198423
0.025357
0.0380802
0.000426363
0.00383727
0.0027311
0.0765375
0.502747
0.0154596
0
0
0
0.0304374
0.0120363
0.0358188
0.0799735
0.276276
0.0521662
0.000332848
0.00632409
0.00400456
0
0
0.000250998
0.157837
0.622746
0.0285108
0.00107268
0
0
0.0234832
0.0131743
0.083042
0.138875
0.363634
0.0739823
0.0278439
0.0124278
0.00667427
0.0903268
0.0863328
0.150336
0.0645001
0.135984
0.0363876
0.00132137
0.025106
0.0158977
0.0510356
0.154307
0.411856
0.132661
0.0896866
0.00942949
0.000792824
0.0150636
0.00953862
0.0745527
0.0499212
0.224122
0.199065
0.162819
0.0405069
0.0337326
0.01815
0.0264962
0.0404716
0.0395772
0.350226
0.569156
0.194157
0.0118726
0.00424263
0.00259286
0.0158977
0.00122285
0.0454041
0.299585
0.0895011
0.0133106
0.000633596
0
0.000203077
6.76924e-005
0.0140923
0.227306
0.423764
0.160789
0.0740164
0.00815071
0.00168697
0.00142154
0.000473847
0.000174693
0.0118601
0.382146
0.288925
0.0667109
0.0060405
0
0
0
0.00404294
0.0717268
0.403816
0.254552
0.273498
0.162442
0.0462769
0.0111765
0.000588239
0.0909574
0.324504
0.19751
0.132484
0.0922716
0.0484794
0.0170633
0.00335408
0.00440331
0.134566
0.18913
0.122107
0.207491
0.148087
0.113245
0.0719249
0.0193493
0.0194979
0.0175753
0.122606
0.123618
0.159925
0.269178
0.307048
0.172176
0.0371216
0.0179667
0.168357
0.147321
0.182971
0.209911
0.152869
0.381157
0.155136
0.0405277
0.132226
0.0451967
0.103008
0.0647387
0.0926481
0.0713173
0.0277483
0.017486
0.00527527
0.0115778
0.0439913
0.288105
0.250633
0.0176548
0.0162115
0.0015967
0.00571387
0.0190228
0.0445243
0.126022
0.301989
0.148437
0.0923291
0.0275724
0.0676081
0.00968603
0.00529188
0.0429573
0.0765576
0.591464
0.507443
0.0222501
0.00245051
0.00113557
0
0.0142675
0.0208777
0.101047
0.328002
0.225162
0.00457506
0.00123168
0.00930844
0.0321687
0.0619707
0.0624563
0.13334
0.220783
0.0699848
0.0397408
0.103704
0.174878
0.10878
0.155296
0.0866004
0.185165
0.296569
0.389908
0.00916718
0.0590678
0.0283866
0.0700655
0.0712397
0.0748792
0.156567
0.0827761
0.0807952
0.102683
0.428481
0.179984
0.17849
0.0872405
0.0669804
0.0192881
0.0160597
0.00476014
0.0267722
0.146062
0.141822
0.164109
0.163867
0.0391915
0
0
0
0.00844633
0.0586283
0.161054
0.343055
0.156703
0.0167093
0.00948597
0.0039821
0.00653254
0.0753278
0.464518
0.168052
0.120162
0.0404014
0.00760532
0
0
0.000525207
0.0155889
0.196177
0.507635
0.322786
0.045732
0.00158841
0
0
0
0.00220279
0.00764081
0.210625
0.252509
0.0514009
0.00248483
0
0
0.000324439
0.00566108
0.0366881
0.252143
0.422536
0.0344609
0.000800429
0
0
0
0.00367131
0.0860904
0.45154
0.253069
0.0187595
0
0
0
0
0.0463584
0.206893
0.450222
0.225842
0.0182684
0
0.000692292
0.00196253
0.00414757
0.0238684
0.106146
0.239417
0.433727
0.0170255
0.00546057
0.00461007
0.00901445
0.00646908
0.0186723
0.0548347
0.0623227
0.200518
0.0259592
0.0070784
0.0120188
0.00183894
0.00551683
0.105907
0.47248
0.448231
0.207015
0.0168521
0.019817
0.0421098
0.0030649
0.00919471
0.0300709
0.207153
0.0812783
0.182183
0.0588867
0.104078
0
0
0.0107212
0.0814826
0.511181
0.0737248
0.0031491
0
0
0.00247237
0.0139457
0.0648292
0.0945757
0.249347
0.0960399
0.0610188
0.0134219
0.00225558
0
0
0.0236326
0.139729
0.615631
0.12104
0.00188946
0
0
0.00896043
0.00543931
0.0949237
0.129988
0.316353
0.122698
0.0634968
0.020124
0.00896043
0.0053153
0.0451058
0.120298
0.113621
0.0793846
0.0373113
0.0704346
0.0157798
0.0046225
0.00250121
0.0276373
0.132013
0.388683
0.278252
0.021116
0.0196048
0.00225425
0.00208553
0.0105345
0.0211488
0.0870047
0.0900804
0.145709
0.113628
0.114095
0.0290925
0.0105345
0.00150493
0.0167062
0.0722599
0.175369
0.683709
0.222105
0.0635059
0.0094621
0.00150493
0
0.00247114
0.146857
0.335002
0.24357
0.0133876
0
0
0
0.000692321
0.0128386
0.143493
0.158601
0.219292
0.187156
0.0688791
0.0531282
0.00914303
0
0.000726611
0.0181722
0.149827
0.634641
0.138827
0.00413485
0.00033179
0
0
0.0846388
0.165765
0.139351
0.282575
0.0966674
0.0270397
0.0475428
0.0130803
0.00465678
0.0269249
0.0555427
0.029658
0.116571
0.249016
0.226488
0.129401
0.0420137
0.134066
0.0748947
0.120674
0.0446079
0.115542
0.258419
0.273875
0.0936962
0.174877
0.0201581
0.219159
0.316926
0.0901337
0.0382947
0.0934161
0.0948071
0.113301
0.0378817
0.228992
0.277152
0.257455
0.0791374
0.0813529
0.129196
0.199223
0.156829
0.240734
0.0908504
0.129697
0.152668
0.0364751
0.0515971
0.047836
0.0428603
0.00601267
0.0726981
0.110864
0.339785
0.339369
0.0204875
0.0181722
0.00248965
0.0237842
0.00317165
0.0936594
0.185512
0.0582537
0.0799188
0.019057
0.0611017
0.0231
0.0575194
0.0341537
0.30797
0.35417
0.088476
0.116341
0.00866164
0.0291489
0.00149379
0.0528002
0.0179216
0.573189
0.156882
0.198502
0.229421
0.00595895
0.0875634
0.0597841
0.0507475
0.0325167
0.0952571
0.0842567
0.0710111
0.0551808
0.093901
0.328
0.139105
0.16822
0.101747
0.0633515
0.245047
0.0894439
0.0656138
0.00286906
0.0411566
0.0570007
0.162815
0.0942334
0.420177
0.0951874
0.0979531
0.0248949
0.0519844
0.125457
0.194995
0.368541
0.258
0.174003
0.0191553
0.04594
0.0129321
0.110508
0.345987
0.099999
0.0674707
0.034268
0.0165771
0.00252219
0.00656286
0.00184744
0.0363893
0.321529
0.431891
0.0965025
0.00102054
0.00248072
0.062334
0.0765667
0.00775926
0.0888117
0.17136
0.127929
0.123921
0.0891607
0.0628149
0.00890486
0.0109381
0.00110847
0.192182
0.568308
0.156059
0.0109422
0.00351063
0.017365
0
0
0
0.0049645
0.231005
0.296207
0.0670274
0.000677512
0
0
0
0
0.0523644
0.26594
0.275117
0.0306449
0.00103392
0
0
0
0.0031681
0.123414
0.536373
0.121838
0.00501916
8.86218e-005
0
0
0
0.0194752
0.122499
0.535668
0.144065
0.00187796
0.000147703
0
0.0276699
0.000210781
0.00284109
0.13039
0.369663
0.226332
0.0168639
0.0128033
0.0172126
0.11281
0.000351302
0.0165151
0.0432976
0.140324
0.0447241
0.0306167
0.0500015
0.146309
0.016602
0
0.0182718
0.210129
0.634245
0.129828
0.0337104
0.0647291
0.00759402
0.0972881
0
0.0282823
0.0946364
0.206291
0.0265513
0.0594429
0.232073
0.205286
0
0
0.00522906
0.109372
0.428232
0.122702
0
0
0
0.00307698
0
0.0273969
0.0963232
0.266944
0.120717
0.0496529
0.0361661
0.00307698
0
0
0.00100241
0.151518
0.601816
0.137282
0
0
0
0
0
0.0118833
0.205642
0.386237
0.115607
0.0732896
0.0317046
0
0.00379909
0.00135808
0.0260503
0.0444052
0.138263
0.136221
0.154246
0.0596613
0.00379909
0.000542728
0.00226347
0.0282953
0.0364264
0.380616
0.335465
0.172727
0.0278451
0.000542728
0
0
0.00985038
0.101188
0.175864
0.163567
0.286184
0.0789158
0
0.00446822
0.00446822
0.00544145
0.0195996
0.189669
0.432175
0.413958
0.0648295
0
0
0.000227265
0.00536946
0.0181927
0.294678
0.238071
0.0880037
0.00689119
0
0
0.0668491
0.130055
0.133997
0.256972
0.124748
0.0836611
0.0129501
0.00162609
0.00331499
0.00331499
0.00128525
0.00532619
0.0979937
0.27662
0.381191
0.0407509
0
0.00047357
0.023516
0.039346
0.0841503
0.231118
0.259668
0.514741
0.148305
0.00883506
0.00738934
0.179577
0.265236
0.176574
0.130122
0.0477992
0.0228901
0.0286913
0.00497027
0.185597
0.268889
0.180128
0.17294
0.0816555
0.0570623
0.0383025
0.101291
0.146517
0.000623445
0.070691
0.0768717
0.121491
0.191947
0.192947
0.243919
0.253263
0.0181138
0.115899
0.144674
0.0451353
0.148901
0.127919
0.212006
0.252241
0.302671
0.253365
0.215421
0.0523478
0.00896662
0.0229061
0.013889
0.00698001
0.0114721
0.0322092
0.242579
0.29034
0.0080247
0.00151543
0
0.0085458
0.00754858
0.0251339
0.0379486
0.44391
0.219604
0.0394678
0.00135875
0.0262886
0.0131228
0.0299846
0.048218
0.056713
0.343311
0.415781
0.0466545
0.00919704
0
0.00838732
0.012581
0.00886976
0.0285132
0.44821
0.145439
0.0197969
0.00518919
0.0110582
0.0254527
0.104386
0.171868
0.129785
0.315124
0.0609122
0.0347912
0.00311351
0.0335176
0.163533
0.257301
0.304003
0.224508
0.0754352
0.278291
0.165207
0.055771
0.0872912
0.0467864
0.137946
0.0525938
0.0685534
0.218187
0.150968
0.257759
0.152526
0.251622
0.262227
0.231252
0.0644168
0.0967746
0.0227063
0.0273736
0.0147138
0.00988669
0.0480975
0.215839
0.128169
0.0793794
0.0592145
0.0185377
0.00231115
0.00129591
0.0970232
0.302868
0.281079
0.0282668
0.00433293
0.00113061
0.00559245
0.0384751
0.0934465
0.179204
0.18862
0.300204
0.0828102
0.0123669
0.040821
0.00915959
0
0.0541065
0.472401
0.501347
0.145115
0.0186777
0.000718151
0.0114121
0.00489092
0
0
0.0733514
0.287024
0.27571
0.00809076
0
0
0
0
0
0.0502979
0.272633
0.357983
0.0277253
0
0
0
0
0.0293024
0.294356
0.392112
0.079445
0
0
0
0
0
0.0170008
0.238591
0.45001
0.237924
0.00172766
0
0
0
7.85406e-005
0
0.0326756
0.241302
0.524835
0.0404462
0.0191782
0.0392659
0.00490795
0.0129821
0
0.0107473
0.06016
0.198553
0.0198044
0.0369242
0.142865
0.14656
0.00104207
0.00293071
0.171499
0.466556
0.42137
0.00818096
0.00585648
0.0144237
0.00285036
0.0126311
0.00835319
0.022358
0.0903405
0.188713
0.026184
0.0170425
0.0360205
0.0499881
0
0
9.86762e-005
0.0882009
0.377555
0.0479309
0
0
0
0
0
0.00423043
0.089666
0.340822
0.033553
0.0244568
0.0144053
0.00359081
0
0
0
0.126499
0.524277
0.0474643
0
0
0
0
0
0.000505671
0.0491594
0.602048
0.0578264
0.00440799
0.00612837
0.00598468
0
0
0.00520718
0.0595724
0.182116
0.0457318
0.186928
0.0735018
0.0133972
0.00361296
0.00361296
0.000694058
0.00610094
0.0483333
0.132977
0.39376
0.0790801
0.00803833
0
0
0.000694058
0.0183129
0.406101
0.0813821
0.160966
0.0613308
0.0227329
0.000516137
0.000516137
9.91512e-005
0.00186262
0.0667884
0.0766285
0.650819
0.168927
0.0140708
0.00318888
0.00318888
0
0
0.0103641
0.10507
0.32127
0.0463956
0
0.000455554
0.00111785
0.000809478
0.00437597
0.0272064
0.109707
0.491775
0.222723
0.0192558
0.000455554
0.000455554
0
0
0.000231109
0.0752146
0.406617
0.155688
0.00307486
6.50792e-005
6.50792e-005
0
0
0
0.0669799
0.43483
0.34738
0.0350265
0.00128222
0.00154573
0.00188923
0.00511832
0.021023
0.0565257
0.2216
0.27704
0.0427776
0.0369923
0.00398893
0.00113354
0.0100649
0.0142096
0.0575579
0.132138
0.351169
0.274258
0.00213704
0
0
0
0
0.0103215
0.196823
0.386941
0.0610652
0.04089
0
0
0
0
0.000768361
0.0547264
0.529153
0.330607
0.134924
0.002752
0
0.00312246
0.0019104
0.011087
0.0271801
0.0808808
0.357593
0.356393
0.0312363
0.00441716
0
0.00122101
0.00183152
0
0.00515426
0.385311
0.149681
0.000173662
0
0
0
0
0.00371621
0.136671
0.377489
0.453086
0.0320227
0.00544379
0
0
0
0
0.00977355
0.35085
0.257077
0.144741
0.0488136
0.0333702
0.00827151
0.0143415
0
0.000910436
0.155011
0.120851
0.351583
0.196915
0.0955601
0.0448891
0.0270789
0.00174974
0.00661883
0.0276515
0.359824
0.19391
0.0619709
0.0012283
0
0
0
0.000201237
0.139228
0.165142
0.614044
0.190523
0.00395191
0
0.00419939
0.00104985
0.00233563
0.0349972
0.0240901
0.22692
0.291514
0.0779616
0.059076
0.0155895
0.00189559
0.0191085
0.00818938
0.000852546
0.150173
0.441372
0.207399
0.0315082
0.00432676
0.000270799
0.0114651
0.00491363
0.0420358
0.446603
0.252697
0.00475683
0.00721001
0.00454943
0.00113736
0.00329121
0.00201203
0.0218166
0.329264
0.385443
0.0378965
0.0137869
0.000649919
0.000162479
0.00163787
0.000701947
0.000266776
0.0687326
0.295876
0.185695
0.0170355
0
0
0
0
0
0.0344745
0.447782
0.233349
0.0632618
0
0
0.000178316
3.14675e-005
0.00534394
0.203905
0.422463
0.0835
0.00384225
0
0
0
0
0.00310848
0.110513
0.522705
0.166073
0.0115157
0.000565327
0.00104989
0.00124821
0.00111814
0.00302767
0.0140496
0.542745
0.426732
0.227291
0.00126979
0.00629441
0.0103132
0.000656253
0.023092
0.0280412
0.0562315
0.0914488
0.127231
0.0209221
0.0233445
0.0215205
0.00724039
0.0109804
0.0327752
0.450822
0.21077
0.0586987
0.00464814
0.0122616
0.0114056
0.00452688
0.010515
0.0184079
0.0582048
0.076023
0.0414437
0.0131602
0.0328485
0.017001
0.0111458
0
0.000496835
0.0056097
0.0772569
0.425295
0.031408
0
0
0
0
0
0
0.0285431
0.461555
0.0534967
0
9.04552e-005
0.000814098
0.0354441
0.0167553
0.0392679
0.0800673
0.434233
0.0351172
0
0
0.00423184
0.00011436
0.00102924
0
0.0932931
0.570964
0.0379826
0
0
0
0
0
0.000595263
0.0240152
0.475285
0.118281
0.0544023
0.0240515
0.00531634
0
0
0.000992104
0.00672324
0.0979057
0.0751289
0.411307
0.178141
0.00903938
0.0042708
0.0028472
0.00416684
0.148997
0.611963
0.0520098
0.00551184
0.0046951
0.000894544
0.00997931
0.00665288
0.00884328
0.0523363
0.152343
0.0427308
0.102101
0.069609
0.0217517
0
0
0.000116715
0.000175073
0.00107367
0.0275699
0.356276
0.264233
0.00814109
0.00608286
0
0
0
0
0.0489794
0.309967
0.427499
0.0384327
0.00332466
0.00221644
0.00530318
0.00201719
0.0114243
0.0170442
0.167058
0.214164
0.0234936
0.0123523
0.000236883
0.0026917
0.000475007
0.00216317
0.0248037
0.249281
0.535975
0.0898748
0.0142308
0
0
0
0
0.0225498
0.106841
0.30142
0.0707075
0.0322038
0
0
0
0
0.00282611
0.0333109
0.424869
0.321024
0.0372139
0.000638174
0
0
0.000156341
0.0126423
0.0720332
0.298456
0.231215
0.138228
0.00619862
0
0
0
0.00169567
0.0111281
0.236003
0.553347
0.123305
8.34757e-005
0
0
0
0
0.00203752
0.118133
0.332254
0.432729
0.0319867
0.00342204
0
0
0
0
0.00798707
0.27278
0.204623
0.00290303
0
0
0
0
0.00050295
0.0572348
0.374864
0.461483
0.0219488
0.00134221
0
0
0
0
0.00363762
0.361147
0.337243
0.16216
0.0232198
0
0
0
0
0.000633882
0.0651046
0.166684
0.446337
0.0881716
0.00174499
0
0
0
0.00443717
0.01325
0.433534
0.112731
0.0018787
0
0
0
0
0.000380329
0.138191
0.363148
0.440905
0.0560394
0.0071805
0
0
0
0.0026623
0.0294247
0.0466524
0.391882
0.109674
0.00541024
0.00323597
0
0
0.00186183
0.00279275
0.0443863
0.431529
0.252923
0.0131989
0.00632995
0.0015051
0.00161425
0.00283224
0
0.0973987
0.489916
0.101084
0.0222627
0.00104847
0
0
0.00304954
0.00328428
0.0494629
0.469192
0.137571
0.0200078
0.0144918
0.0144788
0.00651597
0.00794114
0.00266079
0.0213969
0.407068
0.591067
0.0658183
0.00349546
0.0056543
0.0113938
0.0278608
0.00210152
0.0204614
0.1861
0.383343
0.129917
0.00992201
0.00580273
0.0275704
0.0372478
0.00957997
0.026278
0.253156
0.208007
0.0366222
0.0229294
0.0489039
0.0415708
0.0555743
0.00519008
0.0211659
0.0351313
0.0736905
0.0451773
0.0365608
0.0435967
0.0868163
0.0914204
0.0103991
0.0987419
0.0922878
0.28758
0.228853
0.0958692
0.0185804
0.115952
0.0643349
0.0336379
0.0381535
0.0214296
0.11603
0.105121
0.102108
0.0116089
0.100276
0.0423298
0.0369613
0.102142
0.0518056
0.0818061
0.139014
0.195069
0.0396531
0.205142
0.171917
0.0297917
0.0764612
0.062319
0.191393
0.16098
0.171267
0.0121887
0.0694814
0.0582546
0.0831422
0.0800951
0.0482331
0.0308537
0.111796
0.245372
0.0182436
0.009631
0.00477329
0.031928
0.00428579
0.00781064
0.00191738
0.156015
0.623429
0.0422722
0.000333842
0
0.00196298
0.0843836
0.0484354
0.0788978
0.112369
0.0849746
0.0449251
0.107425
0.103327
0.0869228
0.0383918
0.0327493
0.200309
0.359965
0.419358
0.046966
0.00531555
0.00893598
0.0225978
0.0062952
0.00562504
0.00328515
0.140407
0.6298
0.0758422
0.00653622
0.0122985
0.00220284
0.016842
0.0211362
0.021047
0.0395649
0.162115
0.0449644
0.0158879
0.0409614
0.0197203
0.00415372
0.0081548
0.100513
0.290358
0.520022
0.109757
0.0103315
0.0422006
0.00778223
0.0145976
0.0269272
0.0399014
0.0420635
0.140365
0.0587182
0.0232742
0.105569
0.0430045
0.020958
0.021939
0.0774145
0.0148379
0.0528849
0.0627289
0.0624135
0.197256
0.0582731
0.0308207
0.00618026
0.0360077
0.0181935
0.0232043
0.0465088
0.177697
0.626935
0.342276
0.0340081
0.0506467
0.118769
0.0198713
0.0319014
0.0217764
0.0333087
0.102022
0.132143
0.0402501
0.0424893
0.04843
0.082107
0.0301329
0.0346491
0.0891439
0.147951
0.203822
0.0585049
0.00463662
0.00119467
0.0054072
0.00419998
0.00295983
0.0355025
0.210007
0.39915
0.316866
0.0414373
0.00836267
0.00623755
0.00197782
0.00311748
0.0112454
0.109407
0.692606
0.0317561
0.0150066
0.00886713
0.0370065
0.0121948
0.0170288
0.037877
0.0377395
0.107215
0.114578
0.0437074
0.0167861
0.0143951
0.0107219
0.0358965
0.0603761
0.0216244
0.127361
0.34042
0.0187897
0.00260578
0.00433537
0.00107532
0.00520893
0.00808802
0.0179011
0.385898
0.585284
0.0142901
0.0029583
0.000619338
0.00127559
0.00980967
0.00970522
0.00539526
0.461221
0.105776
0.0260396
0.00434297
0.0118109
0.00936722
0.0253949
0.0270653
0.0125356
0.0739318
0.143674
0.020455
0.0123426
0.012525
0.0119615
0.048769
0.0600643
0.0227219
0.115505
0.559609
0.0566774
0.00335515
0.00505285
0.00429661
0.012995
0.0021242
0.00204155
0.279513
0.542904
0.337379
0.0413581
0.030887
0.00699572
0.0191506
0.00331497
0.00191572
0.0997874
0.0993555
0.00925674
0.0148164
0.0214433
0.0261572
0.056312
0.0386266
0.00921935
0.0965024
0.115505
0.0264281
0.0161846
0.038514
0.0585186
0.0606661
0.0283263
0.0134291
0.0594653
0.325688
0.612864
0.129575
0.0878413
0.00731537
0.0221833
0.00904427
0.0261844
0.033273
0.114776
0.387085
0.0944973
0.0644674
0.0427361
0.0454908
0.0174412
0.0482863
0.0397346
0.145626
0.0569986
0.028742
0.0498774
0.0392693
0.0494374
0.050519
0.0433825
0.0737923
0.0972127
0.040202
0.0414711
0.0712216
0.0217546
0.0366563
0.0556476
0.0556225
0.0578064
0.054959
0.150111
0.0589568
0.0616209
0.0790731
0.124339
0.0687776
0.0819979
0.0201521
0.0166169
0.0207571
0.0399267
0.149895
0.300098
0.12224
0.116568
0.130693
0.00659297
0.0715139
0.0469221
0.0831171
0.0718559
0.147379
0.0817495
0.0914663
0.0682711
0.0141939
0.0961621
0.0456862
0.145888
0.202969
0.433542
0.168601
0.098124
0.0626729
0.042681
0.0105485
0.0434358
0.0769015
0.193814
0.27268
0.0431056
0.0575467
0.0597514
0.0113968
0.0183972
0.0433424
0.110786
0.147795
0.122674
0.0292236
0.0530729
0.0514509
0.0679093
0.0356587
0.058429
0.100538
0.216986
0.292162
0.15149
0.136622
0.0580524
0.0775088
0.0134894
0.069094
0.131493
0.217575
0.115513
0.0365663
0.174087
0.091009
0.122528