0.0958879
0.338178
0.0663948
0.010456
0.00185163
0.00101857
0.000679045
0.0108968
0.0161937
0.172086
0.211791
0.0309795
0.010913
0
0.0523755
0.155414
0.0901811
0.0895212
0.104514
0.56357
0.288932
0.0143344
0.0164795
0.010441
0.00475331
0.0139575
0.0302343
0.148442
0.222525
0.123673
0.00746985
0.105443
0.223739
0.229809
0.111871
0.090101
0.0531751
0.0220121
0.00278169
0.00171919
0.0031025
0.215229
0.270663
0.0845356
0.0470168
0.0126162
0.00062905
0
0.00253849
0.0158659
0.177287
0.109914
0.114337
0.0199564
0.0338006
0.0167371
0.0101224
0.00588584
0.246127
0.526235
0.355233
0.0769334
0.0373132
0.0152814
0.00142234
0.0161879
0.0180799
0.176707
0.337345
0.138847
0.118273
0.0232908
0.0246361
0.0113
0.0026621
0.0209734
0.048909
0.060065
0.138108
0.257633
0.0757393
0.0479134
0.123075
0.0324254
0.023237
0.0388538
0.0347374
0.117139
0.0950221
0.0873254
0.0242166
0.0087791
0.0327584
0.0453192
0.0991121
0.154265
0.291668
0.342654
0.0667562
0.121111
0.196952
0.102645
0.0375515
0.0379906
0.102912
0.263474
0.166097
0.151573
0.0408922
0.0931603
0.0452529
0.0354437
0.0390682
0.0542264
0.0329524
0.0240813
0.0338208
0.0117517
0.0395911
0.108315
0.0761975
0.0612445
0.0745842
0.0327613
0.0348005
0.0179183
0.190177
0.216881
0.0672694
0.0227738
0.00527685
0.152169
0.07097
0.0518456
0.135069
0.300135
0.0803349
0.0652434
0.0932603
0.0112989
0.169168
0.147196
0.119891
0.452915
0.00816383
0.058991
0.0753863
0.0551536
0.0161081
0.00985542
0.0115161
0.0288841
0.0138711
0.039518
0.181037
0.0621603
0.0319075
0.0205414
0.00845734
0.0148815
0.0202141
0.0349133
0.112653
0.028815
0.0438184
0.0701458
0.00302234
0.0129856
0.0553583
0.117215
0.478712
0.151531
0.0870463
0.0229382
0.0375138
0.0127517
0.015961
0.054449
0.125703
0.538782
0.0315037
0.158614
0.0683092
0.019778
0.133866
0.0338744
0.0289133
0.0137077
0.0217559
0.0323677
0.0472941
0.0785547
0.0490462
0.127691
0.0599917
0.0629842
0.0742761
0.0525735
0.119893
0.0763828
0.00454343
0.00420509
0.101527
0.091589
0.136414
0.235763
0.308756
0.0648266
0.135366
0.0278223
0.0115217
0.109897
0.153183
0.153858
0.263096
0.129398
0.0569061
0.0674635
0.0547419
0.0709838
0.0345118
0.0632882
0.0546224
0.134664
0.110855
0.156677
0.14847
0.137932
0.122177
0.0825833
0.1136
0.0679005
0.0891432
0.144213
0.0714899
0.101088
0.0456563
0.0267015
0.0355293
0.160578
0.0879024
0.12768
0.115404
0.14017
0.149352
0.0849698
0.0240339
0.0713509
0.192229
0.106764
0.0547053
0.0806002
0.0916494
0.119843
0.175418
0.0395803
0.139329
0.0629129
0.0325385
0.0141809
0.0739495
0.0527348
0.117872
0.129088
0.042855
0.175748
0.0585506
0.0610586
0.0184372
0.0456506
0.11242
0.159571
0.109813
0.00938919
0.129882
0.0488609
0.0492934
0.014396
0.0669937
0.0557513
0.146091
0.179966
0.0220128
0.254377
0.0511847
0.0686025
0.0337413
0.0389371
0.0398427
0.0943384
0.0962104
0.0942637
0.0347921
0.0512081
0.0574254
0.055951
0.0629784
0.0389152
0.0438598
0.0820341
0.240508
0.0655691
0.115884
0.0661147
0.0951792
0.0663154
0.0481219
0.0815351
0.193182
0.11965
0.0651113
0.0371965
0.0531395
0.0279071
0.0352781
0.11117
0.0429241
0.185955
0.302467
0.0173982
0.0383305
0.0409907
0.0762308
0.107327
0.0386457
0.295824
0.257784
0.0253019
0.0326479
0.00954643
0.00391772
0.017214
0.0153225
0.020886
0.0887509
0.142888
0.0528532
0.329425
0.162307
0.0593509
0.0204337
0.01759
0.0512024
0.0926431
0.129914
0.0373025
0.0717093
0.0596416
0.0913326
0.205546
0.14807
0
0.0242757
0.0685381
0.214331
0.600103
0.102337
0.0468301
0.0558907
0.0108191
0.00240263
0.00606322
0.00882639
0.0319142
0.392949
0.163407
0.0429863
0.00597542
0.00220874
0.00132381
0.00524435
0.0232791
0.0336389
0.260229
0.0860992
0.0179686
0.0212034
0.00212934
0.00074972
0.00480486
0.0034886
0.0951737
0.65708
0.0802367
0
0.00262466
0.00391397
0.00524804
0.0962658
0.0538297
0.0311283
0.403125
0.0681409
0.000476144
0.0192569
0.0273978
0.0167616
0.022225
0.019145
0.0338841
0.0533771
0.019317
0.0264425
0.0310141
0.00555051
0.15873
0.0851627
0.0124175
0.0251665
0.0205632
0.0120623
0.0250408
0.0406703
0.0671917
0.0313871
0.341313
0.135168
0.0248067
0.0540833
0.0105339
0.00133574
0.0120866
0.0148295
0.381684
0.707618
0.165889
0.0158336
0.0158021
0.000613223
0.00129128
0.0174497
0.0554343
0.174634
0.055143
0.00311506
0.00178565
0.000152153
0.00808035
0.0039768
0.0129239
0.0420926
0.307244
0.0516225
0.000391385
0.00183563
0.000173353
0.00839735
0.00863754
0.0103422
0.139663
0.42835
0.256442
0.044972
0.00130216
0.000320358
0
0.000104115
0.00657114
0.0351757
0.663863
0.195443
0.0180725
0.00230261
0.00188396
0
0
0.00555134
0.147625
0.117439
0.00854415
0.000317685
0.00171245
7.08231e-005
0.000686481
0.00385313
0.0201417
0.250495
0.0311352
0.00344043
0.000247394
0.000906609
0.000206732
0.000736721
0.00503961
0.0689464
0.370302
0.272226
0.0411599
0.00137748
0.000758313
0.000620438
0
0
0.030673
0.364509
0.0813015
0.00375851
0
0
0
5.20343e-005
0.0051807
0.161761
0.671799
0.0106141
0.00316409
3.50531e-005
6.50986e-005
0.00177515
0.00872547
0.0136579
0.108618
0.223106
0.00644295
0.0130578
0.00148146
0.00098969
0.0023359
0.0159741
0.0288712
0.178018
0.106474
0.0426618
0.000802132
0
0
0.000113145
0.00510648
0.0591254
0.246966
0.509432
0.0180506
0.00185676
7.613e-005
0.000141384
0.000188576
0.0087297
0.32232
0.551981
0.247568
0.0101392
0.0200239
0.00685318
0.00508468
0.00932664
0.0212295
0.0423659
0.122736
0.0343374
0.0109837
0.0284248
0.0239949
0.00811623
0.0198032
0.026237
0.0230729
0.0177681
0.0054177
0.00629198
0.014107
0.00364286
0.000726383
0.00467276
0.00450068
0.415735
0.685038
0.055778
0.0248676
0.0336921
0.0267671
0.00347508
0.00977979
0.0255847
0.163272
0.369005
0.0396473
0.0453405
0.119546
0.107363
0.0241484
0.0824953
0.0323219
0.0189768
0.0117793
0.0230921
0.0650084
0.0879268
0.105125
0.0475354
0.15314
0.0174208
0.0131062
0.0564825
0.0668103
0.0833676
0.0724206
0.102466
0.0312242
0.0801966
0.168232
0.162065
0.268012
0.0816588
0.106902
0.0361654
0.0598224
0.0564133
0.285652
0.12389
0.0690658
0.0566021
0.114697
0.0595297
0.0386069
0.0792469
0.0881773
0.0427651
0.010096
0.0190647
0.0536695
0.0901583
0.0769889
0.0378965
0.0736045
0.0979663
0.0125703
0.0387646
0.0681634
0.106391
0.163949
0.126555
0.0318736
0.0432735
0.0534319
0.122729
0.044637
0.0505116
0.0931853
0.190062
0.157084
0.0535897
0.0599945
0.0702784
0.0743175
0.0604127
0.0832506
0.186949
0.401047
0.0399187
0.00357908
0.00513641
0.0130247
0.148895
0.119648
0.0634435
0.101822
0.0960878
0
0.000256734
0.00209127
0.0737307
0.351036
0.100643
0.025902
0.0238032
0.00492925
0.0187485
0
0.010717
0.0883161
0.498536
0.154982
0.0409438
0.0763812
0.0638494
0
0
0.001531
0.0623294
0.621475
0.175639
0.00921354
0.00574468
0.000608919
0.00556745
0.00804904
0.00886608
0.0449102
0.444272
0.119251
0.00184647
0.00122866
0.00371281
0.0202905
0.220687
0.145634
0.00897417
0.229669
0.0910229
0.00307744
0.00860059
0.0259896
0.0348105
0.0391501
0.0401517
0.0244831
0.399818
0.252008
0.0184708
0.00426089
0.000509415
0.0646243
0.249809
0.448909
0.112863
0.13071
0.1285
0.0143651
0.00291878
0.0035659
0.010808
0.316409
0.159706
0.00249014
0.00930791
0.00680709
0.000327549
0.00248834
0.00751936
0.0906968
0.471076
0.169725
0.000136566
0.000929416
0
0
0
0.00599793
0.0206973
0.274599
0.312981
0.0632568
0.00184949
0.0042636
0.000545915
0.000114632
0.00359913
0.0818939
0.538312
0.218945
0.0238174
0.0123152
0
0
0.0182652
0.0131136
0.164263
0.248621
0.089374
0.000861161
0.000704587
0
0
0
0.0120008
0.376214
0.174594
0.0404107
0.00602813
0.00493211
0
0
0.011579
0.0730111
0.116648
0.422061
0.120876
0.025564
0.0573051
0.0147845
0.0108427
0.0277702
0.0189712
0.487947
0.388915
0.052202
0.0640933
0.0755072
0.0625621
0.0247751
0.0255213
0.117403
0.199259
0.0333733
0.002028
0.0017186
0.00140613
0
0
0.0181028
0.182428
0.0866763
0.00741162
0
0
0
0
0.0118459
0.0823659
0.359411
0.334226
0.0898924
0.00244978
0.0152029
0.0134391
0.020346
0.00418416
0.0239734
0.33818
0.132595
0.059424
0.0184543
0
0.0192181
0.0189007
0.0414192
0.202604
0.637147
0.0424235
0.00174438
0
0
0.00177017
0.0224061
0.106727
0.14426
0.283957
0.0145063
0
0
0
0.00295028
0.0373435
0.388977
0.373698
0.106024
0.0492124
0.0478203
0.0172363
0
0.0758143
0.119081
0.162693
0.270107
0.354905
0.0238933
0.00491147
0.00163716
0
0.0486355
0.161752
0.300784
0.30085
0.139578
0.000342138
0.000817235
0.000209476
0
0.000343154
0.0119323
0.220312
0.378152
0.019432
0.00387058
0.00295991
0.00149321
0
9.87579e-005
0.0906055
0.212995
0.284414
0.0177833
0.000888855
0
0
0
0.0120401
0.0855064
0.207813
0.278716
0.072035
0.00622198
0
0
0
0.0191137
0.289162
0.574049
0.188
0.0285536
0.00665331
0.00626264
0.00386449
0.00323752
0.0042026
0.133747
0.165696
0.0801459
0.00901147
0.0121262
0.0172947
0.0150923
0.00539587
0.0278479
0.0295035
0.0385873
0.00799916
0.00725161
0.00526168
0.00281732
0.00101746
0.000462503
0.00867895
0.336485
0.768272
0.0646433
0.00916981
0.00659512
0.0207153
0.01637
0.000770838
0.0306755
0.134106
0.250544
0.0208291
0.00168941
0.112345
0.0960266
0.104899
0.00604681
0.065317
0.0225889
0.0643054
0.033195
0.0864757
0.156136
0.127617
0.101406
0.0174679
0.0500922
0.047471
0.111575
0.100851
0.23351
0.079042
0.140591
0.109348
0.000507343
0.0702707
0.111703
0.172629
0.0329177
0.0390016
0.12065
0.175646
0.0729044
0
0.0407579
0.0618029
0.276841
0.0947735
0.0955418
0
0
0.0268455
0.128297
0.377309
0.0745774
0.026275
0.0388775
0.0127727
0
0
0.00383507
0.0868742
0.389353
0.0894491
0.0115319
0.00724029
0
0
0
0.0161073
0.197215
0.559245
0.0522956
0.0093575
0.00709424
0.000498241
0
0
0.00230104
0.221626
0.424344
0.0371998
0.0138499
0.010616
0
0.0388725
0.0764019
0.0429019
0.0631799
0.250845
0.191857
0.067542
0.0420419
0
0.0656606
0.193292
0.39039
0.223348
0.0557775
0.0746165
0.0411442
0.0252251
0
0.0254971
0.0466855
0.0272531
0.316885
0.257695
0.0518662
0.0816806
0.064426
0.00417356
0.0486065
0.191413
0.264628
0.397005
0.149335
0.0203735
0.0570671
0.0564628
0.0292149
0.0150925
0.115183
0.254442
0.0977331
0.0110812
0.000411398
7.25997e-005
0
0.0025229
0.0500584
0.386151
0.267802
0.0833149
0.060597
0.00105615
0.000704103
0.0487885
0.0135608
0.00611425
0.146257
0.369256
0.174507
0.0656137
0.00943875
0.00179862
0.00397435
0.00632193
0.0201311
0.253636
0.427282
0.258176
0.258284
0.102433
0.0201594
0.0292731
0.00870372
0.0589819
0.297897
0.108043
0.105423
0.15188
0.0277806
0.0331398
0.0796378
0.0119791
0.164169
0.212334
0.0489037
0.123969
0.236119
0.192098
0.0743985
0.0532653
0.0395282
0.0592189
0.132854
0.162412
0.277279
0.295434
0.142986
0.0617211
0.0523768
0.0416308
0.160023
0.202705
0.16691
0.244851
0.293337
0.258605
0.0778586
0.0396161
0.102664
0.151224
0.150426
0.0302795
0.0242709
0.0589406
0.0920689
0.0145216
0.0168441
0.142008
0.0966765
0.302674
0.176597
0.0273867
0.0329058
0.0283462
0.0337697
0.106922
0.259264
0.158179
0.32706
0.15335
0.0505633
0.0778145
0.105584
0.0128991
0.00519476
0.0326317
0.189154
0.4665
0.420665
0.070729
0.0721783
0.0179443
0.0116001
0.0520494
0.058321
0.0776188
0.184584
0.133005
0.0332792
0.0946806
0.156447
0.0762573
0.105033
0.121233
0.0442685
0.0323013
0.0169633
0.02083
0.103603
0.231736
0.163918
0.210002
0.079781
0.084451
0.206086
0.26372
0.0933283
0.206735
0.187243
0.0339005
0.0960837
0.0690037
0.0261417
0.0431822
0.046903
0.158972
0.402768
0.351301
0.174362
0.25173
0.0708306
0.00248913
0.00165041
0.00495123
0.00583274
0.0300288
0.0840394
0.192826
0.160945
0.0419803
0.0174239
0.00275068
0.00825204
0
0.0210734
0.16386
0.463507
0.0922106
0.0383822
0.00149348
0.00275068
0.00825204
0.0541989
0.12048
0.23388
0.352729
0.209471
0.0450309
0.0104543
0.00458447
0.0137534
0.0192541
0.0642435
0.378483
0.415118
0.138188
0.0245979
0.00679444
0.000419717
0.0012424
0
0.00974942
0.208455
0.41157
0.0278078
0.0126182
0.00028989
0.00204226
0.00253088
0
0.0165705
0.237379
0.163275
0.00646409
0
0.00407666
0.000657662
0.00197299
0.00736603
0.130555
0.449015
0.235613
0.0407518
0.00757093
0
8.99796e-005
0.000269939
0
0.143721
0.543831
0.11796
0.0141547
0.00467079
0.0141091
0.0176298
0.0152586
0
0.0336325
0.240093
0.121599
0.0281415
0.0109902
0.0299494
0.0274123
0.0214995
0
0.039122
0.0457648
0.135605
0.0409617
0.0259729
0.00372542
0.00188917
0.0056675
0
0.126261
0.580882
0.216383
0.158593
0.0705881
0.00681902
0.0103052
0.0309156
0
0.115939
0.119148
0.130478
0.237821
0.106234
0
0
0
0.15846
0.425037
0.00858517
0
0
0
0
0
0
0.150717
0.337364
0.0366259
0.00255923
0.00167453
0
0
0
0.00226065
0.216147
0.519718
0.0187849
0
0
0
0
0
0.00376775
0.145119
0.472886
0.120409
0
0
0
0.00195941
0.00280469
0.00261288
0.135871
0.205545
0.0254043
0.0102611
0.00702012
0.00235446
0.00453399
0.0238844
0.0486167
0.259763
0.241419
0.0123016
0.0185146
0.0142578
0.0164812
0
0
0.000610579
0.0685443
0.433592
0.0720392
0.00115856
0.000224234
0.000336351
0
0
0.00452751
0.23223
0.6783
0.0722033
0.00810992
0.00156964
0.00235446
0.000971511
0.063581
0.146053
0.254987
0.16847
0.0198087
0.00482736
0.00392412
0.00588618
0.0219643
0.091673
0.135674
0.171292
0.227313
0.20588
0.110567
0.00439853
0.0078832
0
0.0118752
0.0181465
0.270255
0.543836
0.0659451
0.00289641
0.000560588
0.000840882
0.0131426
0.0356867
0.0819461
0.284943
0.349877
0.154367
0.137692
0.00733089
0.00472992
0.0814625
0.0430603
0.0589129
0.098853
0.180644
0.20469
0.182073
0.0254625
0.0896897
0.192597
0.114931
0.110226
0.10858
0.150939
0.177784
0.0814881
0.0651077
0.218885
0.0576091
0.0671344
0.200386
0.168539
0.274384
0.144268
0.228388
0.0291005
0.0536122
0.261887
0.0889615
0.220518
0.135083
0.352391
0.194078
0.0912941
0.0862848
0.172814
0.20292
0.217828
0.150705
0.0484285
0.0729892
0.0571967
0.00746094
0.0396292
0.0651952
0.310838
0.248446
0.207595
0.0323565
0.038852
0.0706174
0.0438484
0.0595994
0.135429
0.25002
0.0994584
0.146754
0.0990542
0.151545
0.0662752
0.0339642
0.0688717
0.195301
0.298986
0.205427
0.158065
0.0323769
0.0329937
0.118055
0.124155
0.0694012
0.420207
0.0821542
0.0939622
0.0691645
0.0599465
0.132935
0.178177
0.0666308
0.086586
0.10873
0.0104441
0.0730473
0.013796
0.221449
0.426564
0.199541
0.077965
0.0868737
0.044792
0.12641
0.167159
0.0537949
0.0467534
0.0762972
0.260422
0.14004
0.0691701
0.186788
0.0602626
0.17474
0.00667211
0.236646
0.449284
0.190197
0.0720815
0.0281978
0.0195915
0.000987129
0.00661079
0.000804764
0.0576505
0.178742
0.215848
0.0993899
0.0377485
0.0219106
0
0.000447091
0.00134127
0.0154971
0.199222
0.341864
0.0962986
0.0202002
0.00313009
0.0054282
0.0162454
0
0.0877929
0.423943
0.148989
0.00793016
0.00119755
0.00279429
0
0
0
0.0486753
0.62065
0.264757
0.00862966
0.000171079
0.000399185
0
9.33501e-005
0.00028005
0.0133231
0.283751
0.295253
0.0402327
0.00839847
0
0.0153177
0.000318023
0.00286221
0.00977364
0.271536
0.310108
0.0288875
0.016963
0.0288047
0
0
0.00372497
0.0791755
0.549978
0.154469
0.0048754
0
0
0.0307662
0.00222616
0.0461103
0.148211
0.428345
0.106482
0.00281984
0.0297695
0.0704517
0.0417557
0.00071608
0.00592348
0.0042966
0.0824215
0.152096
0.0508074
0.0705514
0.17564
0.0188402
0.000698009
0.00263335
0
0.014831
0.0221739
0.0278679
0.154047
0.326311
0.139211
0.00852188
0.0586184
0.0734252
0.11667
0.0568726
0.00561581
0.0972598
0.361515
0.17301
0.0294513
0.00566285
0
6.38893e-005
0.00153921
0.00337619
0.180981
0.611435
0
0
0.00231419
0.134214
0.423507
0.0348174
0.00178596
0.000446489
0
0
0
0.00430371
0.121726
0.360459
0.117719
0.0029766
0.000744149
0
0
0
0.000904968
0.0789501
0.61765
0.0528105
0.0125017
0.00312542
0
0.01021
0.00447085
0.008176
0.170248
0.360034
0.117138
0.0208362
0.00520904
0
0
0
0.00261927
0.05939
0.369814
0.0857009
0.000532732
0.000133183
0
0
0
0.011681
0.0690757
0.590984
0.174461
0.00130771
0
0
0.0383032
0.0080263
0.00955523
0.121177
0.265436
0.124894
0.0177413
0.00902174
0.0060835
0.033226
0.00267533
0.0201372
0.0759793
0.422133
0.274928
0.061749
0.0197354
0.0425845
0
0
0.00394409
0.086638
0.418433
0.153253
0.00292831
0
0
0.00401144
0.0499029
0.115015
0.340035
0.261885
0.0617652
0.0159175
0.000917326
0
0.00339552
0
0.0058999
0.0759632
0.308554
0.277436
0.102605
0.041461
0.0129053
0.00604507
0.0514183
0.0940097
0.350686
0.31164
0.255447
0.111587
0.0763116
0.00158541
0.0275432
0.212363
0.227713
0.230571
0.116692
0.0175104
0.0232939
0.0025153
0.00173752
0.258644
0.314987
0.173325
0.0768992
0.103869
0.0409685
0.00984353
0.00859237
0.0987396
0.0253525
0.233816
0.157878
0.281708
0.156941
0.145919
0.048212
0.0481343
0.0114836
0.226239
0.388287
0.131407
0.133915
0.061817
0.0850158
0.0235841
0.0758613
0.245978
0.246721
0.0764216
0.0288575
0.0276581
0.0362459
0.0133648
0.0193995
0.021216
0.235725
0.16394
0.0357343
0.0257788
0.00798592
0.011709
0.0388395
0.0853307
0.192409
0.378795
0.341364
0.099187
0.0237715
0.0122859
0.00661546
0.0103195
0.0181751
0.0443686
0.380056
0.274978
0.0990036
0.0234013
0.0412427
0.0533768
0.140257
0.116474
0.270868
0.322231
0.0561444
0.0393984
0.0169006
0.0158989
0.0536549
0.143506
0.187209
0.191017
0.144864
0.021259
0.0420057
0.00351652
0.103076
0.270176
0.182518
0.152833
0.051008
0.0101316
0.0385013
0.0694317
0.0528553
0.0867113
0.154181
0.321666
0.20488
0.237519
0.0717971
0.0112918
0.11229
0.0870666
0.148738
0.403126
0.397421
0.171245
0.0678106
0.00904706
0.00197719
0.00590538
0.000964876
0.132019
0.337756
0.0390996
0.00792811
0
0
0
0.000255988
0.0152413
0.166902
0.508895
0.0564619
0.00394226
0
0
0.0088296
0.0676676
0.0593404
0.300758
0.291061
0.0648211
0.0123106
0.00361221
0.00241487
0.00308701
0.0176303
0.10643
0.403463
0.373794
0.00952947
0.0103056
0.0042755
0.00559102
0
0
0.0248469
0.100682
0.408855
0.0518471
0.00555594
0
0
0.0190299
0.000782938
0.0350152
0.162131
0.359799
0.0223804
0.000891821
0.0218933
0.0715532
0.000966247
0.00801334
0.13723
0.272046
0.372145
0.028044
0.00745028
0.00221669
0.00289874
0.0172884
0.00114476
0.0465567
0.290753
0.486954
0.0383993
0.00133659
0.00397765
0.0402679
0.16381
0.00641632
0.0384775
0.106177
0.12565
0.0150293
0.000429782
0.0665519
0.346595
0.266386
0.0324896
0.00390835
0.00293193
0.000338026
0.00365855
0.00499951
0.111789
0.484441
0.116707
0.00119438
0.0125262
0.148188
0.264935
0.0713227
0.0062184
0.024006
0.20513
0.163085
0.0119251
0.0152394
0.0242486
0.015891
0.0271385
0.0391818
0.117478
0.332291
0
0.000373388
0.00360013
0.0718059
0.498413
0.031828
0.0051094
0.00127735
0
0.017399
0.0196658
0.0144451
0.102867
0.287794
0.0478978
0.00851567
0.00212892
0
0
0.00261372
0.0235235
0.107986
0.524934
0.148851
0.000470831
0.0175191
0.0210937
0.00686537
0.0189409
0.0168718
0.160076
0.473084
0.0479908
0
0
0
0.0835225
0.0602466
0.0296505
0.101738
0.138205
0.080503
0.0576019
0.0560804
0.0145973
0.0717465
0.0277548
0.0122363
0.038905
0.1461
0.193537
0.218446
0.122517
0.105873
0.0473491
0.0735787
0.0598239
0.261692
0.281966
0.0271453
0.101672
0.0962199
0.0268961
0.0579185
0.043481
0.0308584
0.0855363
0.0678304
0.174024
0.582972
0.313814
0.0845554
0.0158126
0
0.000899427
0.0176002
0.0925367
0.136445
0.202551
0.10492
0.0306358
0.0112909
0.0111173
0.0133338
0.0700345
0.102465
0.221666
0.358072
0.224136
0.00872746
0.0226985
0.000594393
0
0
0.0329692
0.109003
0.308949
0.193793
0.0412554
0.0125731
0.00662813
0.00237465
0
0.0307186
0.111583
0.542425
0.336185
0.120017
0.0126948
0.0343794
0.0205633
0.056851
0.0481683
0.133633
0.143468
0.182541
0.0402836
0.0994574
0.0528553
0.0246379
0.0397336
0.0202497
0.0757018
0.0427671
0.166868
0.321198
0.0175076
0.0067749
0.00189351
0
0.0055409
0.0326048
0.229512
0.353118
0.198045
0.177092
0.0020452
0.000270501
0
0
0.0108145
0.0452437
0.299647
0.588415
0.191722
0.0250046
0.00708323
0.00388304
0.00209087
0.00803344
0.0064186
0.0286813
0.329062
0.255644
0.162721
0.0392437
0.0376527
0.0349692
0.0438189
0.0305915
0.0456933
0.195897
0.271927
0.0149542
0.000258237
0
0
0.00114763
0.00125261
0.048936
0.453867
0.464026
0.191883
0.0259004
0.0159834
0.00409033
0
0.000875723
0.0169837
0.325525
0.0663713
0.209805
0.121939
0.0880785
0.077796
0.0990049
0.0449103
0.0666637
0.0328257
0.0124315
0.276074
0.234692
0.112697
0.145104
0.129255
0.0283603
0.0623512
0.0184051
0.281081
0.316035
0.165792
0.058443
0.00639076
0.000803606
0.00301773
0.0393988
0.0982055
0.109651
0.349973
0.507072
0.130447
0.00917862
0.00562524
0.00181064
0.0484286
0.0240716
0.018998
0.226817
0.189187
0.223154
0.116193
0.0354769
0.00340896
0.0145347
0.00942823
0.0123798
0.0802476
0.222711
0.33719
0.132667
0.00066579
0.0108628
0.00584921
0.020792
0.0251021
0.250469
0.364119
0.130692
0.0317787
0.00233555
0.00022169
0.0110453
0.00688332
0.0109486
0.12222
0.508504
0.273669
0.0481748
0
0.00155183
0.000835601
0.0124752
0.00324532
0.0311282
0.27566
0.332079
0.108686
0.00355207
0.00508658
0.00273893
0.00973597
0.00243959
0.00568596
0.132021
0.381441
0.180958
0.0147107
0.00267703
0.000445471
0.00171944
0.0154417
0.0943777
0.555655
0.256351
0.0133158
0.00182629
0.000726655
0.000481306
0.00944101
0.02725
0.0505587
0.226952
0.224155
0.0383729
0.0160017
0.00427541
0.00392463
0.0103205
0.0477126
0.00149624
0.0475596
0.403678
0.320321
0.0913667
0.0363441
0.0370507
0.0419582
0.109206
0.0374896
0.0543245
0.0986262
0.090774
0.0378557
0.071284
0.132015
0.120039
0.0402845
0.0244198
0.112134
0.26253
0.118366
0.0751332
0.0681378
0.0429041
0.0284427
0.0726247
0.0498525
0.107661
0.131177
0.0976778
0.0355624
0.105303
0.0951922
0.0804566
0.00467485
0.00367973
0.010232
0.0614116
0.391613
0.138232
0.00124249
0.0170076
0.0216519
0
0.00150467
0.00344715
0.115533
0.435253
0.04244
0
0
0
0.0439847
0.024303
0.058924
0.170511
0.378659
0.0618494
0.0066314
0.0179619
0.0368541
0.000710136
0.00281798
0.0124709
0.126652
0.575777
0.0522711
0.00980985
0
0
0.0192021
0.0138157
0.0242146
0.163773
0.320533
0.00768116
0.0325556
0.0241676
0.0167739
0.0331665
0.0172225
0.0270617
0.0632592
0.0941189
0.0360861
0.266963
0.271418
0.042363
0.00848587
0.00502487
0.0195827
0.104636
0.650105
0.0239398
0.009893
0.0102639
0.00702134
0.017013
0.00866106
0.0334967
0.0418722
0.281742
0.0172041
0.0747028
0.270007
0.0603175
0.00572655
0.00144378
0.00202559
0.000151784
0.0132507
0.0268146
0.142372
0.303258
0.0293043
0.00203746
0.0134587
0.00576802
0
0.046357
0.0250155
0.131058
0.350135
0.116951
0.0036956
0.00146105
0.00516032
0.0013064
0.0130402
0.00225319
0.0573102
0.402683
0.0424806
0.00237689
0.0084321
0.00453142
0
0.0284018
0
0.0934361
0.679679
0.0756506
0.0101537
0.0124874
0.00535176
0
0.0146636
0.00447517
0.0580167
0.230525
0.212396
0.0820012
0.00178392
0.000764537
0
0
0
0.00971801
0.217851
0.480755
0.0185552
0.00749246
0.00321105
0
0.00912789
0
0.0264079
0.360446
0.208147
0.0905732
0.00107035
0.000458722
0
0
0
0.000388752
0.222445
0.547902
0.194822
0.0138617
0
0
0
0
0
0.0629885
0.323941
0.462286
0.124947
0.00226117
0.0041931
0
0
0
0.0107832
0.162563
0.201022
0.00468915
0
0
0
0
0
0.0714905
0.366633
0.543903
0.0785756
0
0
0
0
0
0.0103952
0.192901
0.355365
0.187044
0.0496835
0.0176506
0
0
0
0.00876778
0.0418251
0.180035
0.272877
0.220378
0.045393
0
0
0
0.00481707
0.0166963
0.430019
0.210204
0.0557638
0
0
0
0
0
0.0429074
0.176433
0.526872
0.211834
0.00488458
0
0
0
0
0.0111305
0.0283129
0.265508
0.217437
0.044327
0.0079672
0
0
0.000584213
0.0021808
0.00204368
0.217977
0.418192
0.168278
0.0143757
0.00134078
0
0
0
0.0242662
0.494553
0.238527
0.019735
0.00124002
0.000402706
0
0
0.00124662
0.0067311
0.373997
0.288517
0.082179
0.0174758
0.00505358
0
0
0.001979
0.0373908
0.201332
0.657806
0.290713
0.0141947
0.0129106
0.0118773
0.00273984
0.0106489
0.0692824
0.0983857
0.174175
0.0842869
0.0239951
0.0297778
0.0332114
0.0262962
0.0432368
0.0424079
0.186922
0.274523
0.154589
0.0448323
0.0283765
0.0379466
0.00588274
0.0119793
0.0412718
0.0463092
0.0430996
0.0525404
0.0256164
0.0569155
0.113441
0.0387686
0.0278512
0.0466872
0.0491137
0.0803844
0.0966232
0.0438665
0.0812337
0.0749935
0.0875567
0.0484765
0.0746378
0.0995119
0.14968
0.113775
0.0234275
0.0582724
0.0984797
0.0609568
0.0446823
0.056226
0.17087
0.10194
0.122841
0.0174418
0.0757329
0.14669
0.0953734
0.036014
0.0734817
0.233437
0.314116
0.22257
0.0544431
0.0507984
0.119609
0.0579778
0.00763667
0.0718316
0.0894371
0.149449
0.15561
0.166719
0.0215369
0.0213917
0.0283355
0.0627061
0.00323094
0.0158359
0.046606
0.216504
0.537152
0.0434267
0.017455
0.000115075
0
0.0314875
0.0910061
0.106562
0.0694695
0.0636194
0.0155391
0.224833
0.0975701
0.0251673
0.00193856
0.052118
0.132536
0.412156
0.396704
0.0136269
0.040291
0.0377981
0
0
0
0.00308931
0.148418
0.547098
0.0213745
0.00659783
0.00318664
0.00170968
0.00334531
0.000907118
0.00976427
0.0705329
0.2612
0.0217479
0.038601
0.0770434
0.0227144
0
0.00523945
0.043286
0.420478
0.441673
0.00900926
0.00570283
0.00266346
0
0.000477902
0.00169187
0.0347019
0.181356
0.259522
0.0229709
0.0407572
0.0293401
0.00157867
0.00693864
0.00509983
0.0185374
0.00975082
0.0471548
0.0148126
0.0701221
0.294008
0.0499371
0.0153964
0.00710935
0.00891043
0.00162667
0.0392326
0.00926566
0.140283
0.773127
0.178143
0.00992041
0.013704
0.066454
0.0273715
0.0808759
0.0303723
0.0554273
0.0651968
0.00987965
0.0574641
0.0527972
0.0600525
0.0246996
0.0604392
0.0257095
0.0554115
0.0870791
0.0917715
0.0492037
0.0109146
0.00303302
0.0023491
0.00279294
0.00212514
0.0287974
0.344795
0.26053
0.233701
0.0337528
0.00635366
0.00140946
0
0.000293107
0.0012107
0.210409
0.678374
0.0514166
0.0338831
0.0629949
0.0369539
0.00501522
0.00432259
0.0116478
0.0420034
0.111182
0.166392
0.0739129
0.0667955
0.0319902
0.0206865
0.000488512
0.00100243
0.0256672
0.253629
0.290925
0.00985498
0.00106546
0
0
0.000125563
5.38126e-005
0.0405926
0.415137
0.615787
0.0338473
0.000318409
0
0
0.000878939
0.000376688
0.00562231
0.317553
0.151231
0.0294748
0.00838745
0.00187696
0.0226459
0.00182077
0.00240474
0.0101136
0.179388
0.265643
0.011603
0.00266511
0.000810176
0.0137435
0.0219722
0.0118573
0.0122167
0.17025
0.57378
0.203038
0.046894
0
0.000220401
0.000429836
0.000184216
0.000678566
0.121983
0.263226
0.512592
0.153545
0.0078701
0.00170784
0.00148533
0.00145167
0.00933452
0.0170211
0.277189
0.0380095
0.0138238
0.00292761
0.012783
0.0237565
0.00567116
0.0103183
0.0879157
0.160504
0.102927
0.023212
0.00428132
0.0194177
0.021758
0.00836975
0.032181
0.0334097
0.0897349
0.643935
0.299091
0.0527188
0.00567137
0.00659058
0.00364698
0.0309514
0.00985459
0.0472715
0.330617
0.226073
0.0820983
0.0512483
0.0252698
0.00382473
0.0200999
0.0347478
0.083824
0.122748
0.0299754
0.0105297
0.01506
0.0316449
0.0226459
0.0859894
0.0472646
0.0967258
0.0591333
0.0313479
0.0385191
0.0187031
0.0370644
0.0360841
0.0660943
0.0769727
0.128934
0.154844
0.141848
0.0897032
0.100092
0.0462815
0.0833708
0.0584507
0.0824581
0.0960955
0.0845561
0.0475875
0.0663515
0.066451
0.108316
0.197626
0.100043
0.0497085
0.1349
0.0315917
0.0433816
0.0954788
0.096908
0.0700844
0.162786
0.136038
0.0955841
0.0686971
0.0666558
0.0434094
0.0361653
0.218107
0.236662
0.221581
0.121395
0.0431394
0.0590283
0.157352
0.129162
0.0695756
0.0268326
0.0554077
0.0855575
0.0366969
0.0214114
0.0696882
0.200571
0.279087
0.13606
0.0745242
0.0142038
0.043215
0.0352325
0.0113276
0.057323
0.131692
0.131113
0.03956
0.117581
0.126549
0.0541483
0.0276312
0.0333714
0.140188
0.149183
0.190702
0.0886032
0.0408563
0.00672382
0.0129514
0.0738194
0.117094