0.104121
0.0590386
0.0445851
0.0563121
0.0281365
0.0384585
0.0374566
0.0784655
0.13396
0.0373959
0.0358003
0.0415514
0.0717611
0.109494
0.0560822
0.107315
0.194084
0.266324
0.133219
0.0913471
0.0661617
0.255457
0.0977695
0.0519865
0.0619275
0.111507
0.134128
0.0819348
0.140952
0.156815
0.254231
0.0649762
0.0450306
0.0790592
0.497145
0.364254
0.0138236
0.0300715
0.0369996
0.0393292
0.064302
0.0563998
0.0527946
0.0362868
0.090966
0.0582209
0.115738
0.132489
0.105915
0.105509
0.0658864
0.0232071
0.00156673
0.0522232
0.0213015
0.0700386
0.171414
0.101348
0.0577329
0.0413799
0.0233962
0.115302
0.129975
0.0569395
0.468249
0.705551
0.0887154
0.0629007
0.0341669
0.002574
0.00663122
0.072496
0.0219331
0.137859
0.120462
0.0376344
0.0243682
0.00386801
0.000878987
0.000364193
0.00648189
0.139844
0.386972
0.134764
0.00994927
0.00288962
0
0
0.00389412
0.0113394
0.0253651
0.368142
0.379847
0.0138704
0.00588076
0.00118905
0
0
0.0072078
0.155386
0.586106
0.264682
0.00213591
0.000378478
0
0
0
0.00228543
0.221005
0.277263
0.0227412
0.000549628
0
0
0
0.00407455
0.035154
0.44262
0.14225
0.000618979
6.02318e-005
0
0
0
0.00194557
0.15216
0.249827
0.436365
0.0298598
0
0
0
0
0
0.0122748
0.49823
0.260174
0
0
0
0
0
0
0.106662
0.312015
0.0158854
0
0
0
0
0
0.00155784
0.226895
0.188154
0.000231411
0
0
0
0
0
0.0360629
0.462663
0.395261
0.042483
0
0
0
0
0
0.000222548
0.209859
0.247735
0.00074625
0
0
0
0
0
0.0401743
0.531631
0.0531798
0
0
0
0
0
0.000470772
0.108422
0.37797
0.0135116
0.000840794
0
0
0
0.00490233
0.0115711
0.351789
0.23701
0.0527398
0
0
0
0
0
0
0.148811
0.478946
0.00436065
0
0
0
0
0
0.00903316
0.503103
0.313361
0.00464949
0.00633823
0
0
0
0.00556474
0.0454936
0.321267
0.072648
0.0105625
0.00814331
0.00108381
0.00641826
0.00159752
0.00743569
0.0999862
0.207144
0.0287692
6.58643e-005
0
0
0
0
0
0.116567
0.565426
0.0660618
0.000893761
0
0.000650284
0.00385095
0.000958509
0.00138479
0.411212
0.516766
0.00524842
0.0242667
0.00323118
0.00729872
0.0293424
0.0080868
0.0423559
0.105665
0.101117
0.0282919
0.0893417
0.00809929
0.00991046
0.0471227
0.0302104
0.0493482
0.0326698
0.0210431
0.0251118
0.00974779
0.000651703
0.00397919
0.0168625
0.0103278
0.0302838
0.693621
0.417177
0.00789635
0.0667746
0.00804349
0.00400375
0.0345089
0.0334463
0.0678184
0.396144
0.135066
0.0533683
0.0689338
0.0268783
0.0441715
0.0694544
0.0774572
0.0353082
0.0278573
0.0168254
0.0187549
0.0784356
0.105619
0.145855
0.139024
0.16969
0.0165592
0.0435252
0.013018
0.0112603
0.0820012
0.0301193
0.0202226
0.0715398
0.0709052
0.0546062
0.217904
0.0892039
0.0570578
0.0974215
0.0872139
0.136365
0.299431
0.63752
0.145981
0.246444
0.0607773
0.0116124
0.0459369
0.0443039
0.0389384
0.143956
0.102966
0.0280744
0.0766428
0.0581237
0.069479
0.0825803
0.155222
0.222391
0.21381
0.0475993
0.0144845
0.0344058
0.120275
0.0905948
0.0686732
0.0299445
0.0280836
0.0686611
0.0791167
0.0345029
0.0985027
0.154632
0.165231
0.182658
0.135611
0.507548
0.503501
0.0195399
0.0155971
0.0372773
0.0668826
0.161503
0.00762984
0.0657836
0.200733
0.0696941
0.0150967
0.00487383
0.00262502
0.0169138
0.0098175
0.00245355
0.23838
0.504702
0.0312979
0.00782988
0.0029243
0.000375003
0.00133565
0.00435794
0.0167598
0.0814718
0.387494
0.20698
0.0049169
0
0
6.86972e-005
0.00717275
0
0.184658
0.576685
0.116944
0.00561528
0
0
0.00147448
0.000982987
0.00636999
0.233885
0.277074
0.0036552
0.000681534
0
0
0.000483913
0.000991376
0.0636033
0.402665
0.131836
0.00303296
0.00015211
0
0
0.000290348
0.00448075
0.000499992
0.158974
0.402154
0.0235969
0.00430421
0
0
0.00338739
0.00225826
0.0196062
0.509486
0.43234
0.0093206
0.000846673
0
0
0.00203244
0.00392727
0.125435
0.327688
0.0201246
0.000369233
1.94333e-005
0
0
0
0.00661123
0.380924
0.273151
0.00183697
0
0
0
0.00118301
0.000394336
0.0530521
0.108999
0.495012
0.148028
0.00220059
3.23889e-005
0
0
0.000358887
0.0109331
0.383967
0.401842
0.0244586
0.000226457
0
0
0.00828105
0.0450357
0.120239
0.376861
0.0575546
0.000196323
0
0
0
0.00128432
0.000428108
0.169436
0.241926
0.00469984
0.00102982
0
0
0
0.000183475
0.0330124
0.493867
0.332215
0.0991428
0.00197223
0
0
0
0.00899027
0.0563172
0.214635
0.316446
0.146423
0.0113945
0
0
0
0.00128432
0.0456707
0.422435
0.0499082
0.00371321
0.000390946
0
0
0
0.00244544
0.159466
0.364053
0.00430285
0.00139886
0
0
0
0
0.019475
0.464419
0.183279
0.137046
0.0648466
0.00432565
0
0
0
0.0288018
0.202516
0.338106
0.0195821
0.00997997
0
0
0
0.00344912
0.174234
0.540931
0.184026
0
0
0
0
0
0
0.0767693
0.339759
0.0346419
0
0
0
0
0
0.000432717
0.273407
0.280713
0.00733723
0
0
0
0
0
0.00375619
0.249456
0.523675
0.0287209
0
0
0
0
0
0.0154835
0.465514
0.343243
0.0109748
0.000236722
1.2459e-005
0
0
0.000824176
0.00633136
0.356871
0.146337
0.00186652
0.00485225
0.0014348
0
0.00064327
0.0044035
0.0273926
0.363809
0.0490895
0.0101329
0
0
0
0
6.39269e-005
0.031057
0.510064
0.126106
0.0015151
0.00136021
0.000192512
0
0
0.000447488
0.0697157
0.609232
0.0495896
0.00139386
0.0188855
0.0161749
0.00341084
0.00280576
0.0166658
0.0378578
0.192969
0.0288604
0.0159106
0.0135523
0.0204735
0.016979
0.0634998
0.346996
0.107124
0.0532568
0.0230584
0.00449751
0.00881081
0.0118124
0.00316271
0.00369586
0.0131932
0.156701
0.642911
0.0172823
0.00650415
0.00675493
0.0211163
0.0112243
0.0518346
0.440399
0.275656
0.106048
0.00323538
0.00360614
0.0360061
0.0229855
0.0387341
0.0381319
0.0226419
0.0101069
0.0261887
0.0602513
0.0365792
0.0475811
0.0121181
0.363658
0.346725
0.0268563
0.00566857
0.014131
0.0185372
0.029263
0.0451023
0.072693
0.0892079
0.0989355
0.116334
0.0219717
0.00729945
0.0198877
0.00679165
0.0247751
0.017806
0.422709
0.626897
0.203253
0.00873329
0.00437967
0.00466404
0.000307124
0.00608995
0.0236684
0.295344
0.220534
0.0087616
0
0
0
0.0024265
0
0.0482479
0.392083
0.206538
0.02239
0
0
0.000531796
0.000354531
0.000914594
0.00297108
0.235133
0.368637
0.0491516
0
0
0
0
0
0.0081527
0.308599
0.560497
0.0768963
0
0
0
0
0.000232131
0.0469876
0.350976
0.0897937
0.00887961
0
0
0.00110376
0.000735839
0.0025699
0.244178
0.472867
0.0703833
0.00765167
0
0
0.000662255
0.000441504
0.00162492
0.0150703
0.329319
0.352868
0.0454102
0.000568716
0
0
0
0.00296094
0.074703
0.391522
0.337571
0.151524
0.0175867
0.0114188
0
0
0.0832986
0.363524
0.29426
0.0371846
0.00327213
0
0
0.00114554
0.0160736
0.248238
0.266751
0.0823702
0.00487138
0.000220124
0.00418234
0.0127518
0.111753
0.193868
0.048384
0.215226
0.39411
0.24487
0.0982966
0.0341187
0.0218177
0.00121594
0.0148287
0.257194
0.252379
0.253954
0.0809457
0.0173853
0.0979731
0.115186
0.096079
0.144659
0.197367
0.134284
0.0163758
0.00104046
0.000674167
0.0158795
0.0153908
0.137288
0.213217
0.317257
0.387688
0.100996
0.00728322
0.0004045
0.0128028
0.00375825
0.0509729
0.159651
0.207183
0.111837
0.0843079
0.0705079
0.0149188
0.22529
0.12644
0.108925
0.117173
0.177082
0.3621
0.32537
0.198842
0.0128202
0.21909
0.0616728
0.0753339
0.0744452
0.155218
0.155664
0.0362346
0.00251152
0.000487965
0.00211307
0.062707
0.143838
0.163818
0.0224823
0.0134539
0.000318067
0
0.0055227
0.0398018
0.341073
0.394747
0.11285
0.0652435
0.213943
0.142353
0.0678118
0.0111213
0.0847507
0.167713
0.178816
0.111796
0.0131767
0.0247866
0.0517669
0.0940273
0.11569
0.232539
0.514137
0.22989
0.0703364
0
0
0
0.000664161
0.00671996
0.0498168
0.296767
0.25338
0.00875373
0
0
0
0.00110694
0.00426001
0.0748398
0.508747
0.174121
0.00327711
0
0
0.0113584
0.0497985
0.14175
0.193471
0.30338
0.0717593
0.00259943
0
0
0.00051823
0.0157951
0.0928321
0.270264
0.508747
0.0453852
0.00125843
0
0
0
0.000169106
0.000206685
0.0849852
0.384697
0.0379958
0.000180225
8.27373e-005
0
0
0
0
0.125741
0.442408
0.0234819
8.27373e-005
0
0
0
0.00170133
0.0141681
0.338356
0.468624
0.00686009
0
0
0
0
0.00211154
0.0213996
0.385636
0.307019
0.00676729
0
0.000704644
0.00229572
0.00299049
0.00328423
0.00193877
0.222968
0.390277
0.0101735
0.000355092
0.000795642
0.00861295
0.0209334
0.0250108
0.185193
0.227218
0.102538
0
0.000213055
0
0.000538508
0.00275034
0.0042092
0.0368854
0.522456
0.30532
0.00393066
0
0
0.0054825
0.0394149
0.0272825
0.255009
0.407338
0.163452
0
0
0.00793908
0.0281405
0.0478566
0.138648
0.116965
0.0302734
0
0.000402084
0.000491437
0.00361551
0.00518995
0.117672
0.508871
0.248837
0.00841963
0
0
0
0.00267528
0.0193145
0.0420374
0.156161
0.225924
0.0853922
0.00327994
0.00309875
0.00126935
0
0.000125455
0.0147736
0.398132
0.547288
0.127149
0.000641679
0
0
0
0
0.0587212
0.269492
0.100419
0.000928234
0
0
0
0
0
0.0880573
0.530865
0.15709
0.000926125
0
0
0
0
0
0.0045604
0.167955
0.31879
0.0413691
0
0
0
0
0
0.00742668
0.361626
0.530865
0.0547234
0
0
0
0.000917835
0.00367134
0.127746
0.467762
0.157066
0.011754
0.000394879
0
0
0.00152972
0.0109053
0.0936374
0.283751
0.311075
0.119372
0.123405
0.0058023
0
0
0
0.00886055
0.260971
0.44878
0.0685545
0.00428828
0.000659949
0
0
0
0.00295087
0.0529225
0.205248
0.208975
0.31272
0.0548852
0.00245685
0.0144724
0.0395399
0.148021
0.164407
0.166411
0.125746
0.188157
0.046343
0.0248143
0.105775
0.15538
0.221956
0.102462
0.0435049
0.149475
0.185054
0.0852048
0.177475
0.0141065
0.00804124
0.0151128
0.0165407
0.0743464
0.129197
0.461486
0.233663
0.0428476
0.177142
0.307038
0.0936373
0.0422935
0.0229078
0.0588575
0.254425
0.250389
0.233067
0.0748244
0.132215
0.123597
0.141821
0.0249848
0.200191
0.10041
0.0280782
0.0666841
0.0803826
0.110706
0.130146
0.238453
0.0191522
0.305083
0.148617
0.123497
0.016053
0.260166
0.402681
0.103172
0.086035
0.0120871
0.049778
0.0434756
0.0512369
0.13602
0.297124
0.211662
0.0367848
0.0723678
0.00784673
0.181541
0.173885
0.332578
0.121422
0.0814676
0.0767729
0.141853
0.0754999
0.00918452
0.117884
0.128544
0.130691
0.0369943
0.0455157
0.0566039
0.295807
0.241358
0.109557
0.138874
0.157479
0.0496283
0.0221966
0.160703
0.166207
0.136765
0.0187567
0.00112811
0.0760146
0.0847409
0.204711
0.0858129
0.0960738
0.390744
0.541135
0.222338
0.0271376
0.0169123
0.0154866
0.0689768
0.0426382
0
0.0143354
0.163192
0.288202
0.265974
0.155353
0.113057
0.00711918
0
0
0
0.0150773
0.0930975
0.198976
0.370365
0.253585
0.00359512
0
0.00816335
0.153744
0.423089
0.373189
0.0995561
0.0141784
0.00477884
0.0387788
0.00475741
0.00308013
0.00264224
0.065437
0.155873
0.162865
0.22939
0.0247749
0.0070195
0.00349575
0
0
1.03026e-005
0.00302389
0.0491948
0.391661
0.166317
0.000313468
0
0
0
0
0.00932919
0.0908033
0.398573
0.0916348
0
0
0.000268565
0.000441168
0.0021788
0.010622
0.244921
0.392228
0.0224532
0
0.000268565
0
0
0
0.0110328
0.427973
0.436297
0.0183342
0
0
0
0
0.000195978
0.0092424
0.0813509
0.404896
0.118805
0.000458644
0.000851768
0
0.0534554
0.107441
0.0356652
0.182181
0.328193
0.110314
0.00321051
0.00596238
0
0
0.0023405
0.00951967
0.25953
0.436047
0.0470592
0.00321051
0.00596238
0
0.0842776
0.274412
0.0404668
0.177299
0.423524
0.121343
0.0578641
0.0510041
0.00501612
0.00691323
0.0199654
0.0394964
0.193716
0.11318
0.00619684
0.00317461
0.00353492
0.000135904
0.000135904
0.00245399
0.0711484
0.476695
0.254067
0.00178697
0
0
0.0136806
0.00917495
0.0185191
0.067669
0.237893
0.122567
0.00293666
0.000453515
0.00233034
0.00151966
0.000951325
0.00466312
0.0488134
0.494147
0.507001
0.0127837
0
2.99127e-005
0
0
0
0.0226219
0.264938
0.117941
0
0
0
0
0
3.87063e-005
0.0486585
0.533055
0.222174
0
0
0
0
0
0
0.00334138
0.193988
0.323636
0.0101137
0
0
0
0
0
0.000876158
0.293048
0.543735
0.0431756
0
0
0
0
0.000159854
0.0336932
0.403014
0.222123
0.0042931
0.00213856
0
0
0.00903514
0.0297946
0.0232189
0.072029
0.10543
0.138242
0.0596861
0.00796139
0
0
0
0.00493651
0.215005
0.69946
0.0853656
0.00128313
0
0
0.0177582
0.14698
0.228356
0.157424
0.18387
0.0453993
0.0169422
0.00477683
0.0117979
0.0719674
0.0816624
0.0225426
0.0032889
0.0211817
0.145089
0.145209
0.028791
0.223868
0.273806
0.0890925
0.0162979
0
0.000777979
0.0687779
0.134489
0.112559
0.00932287
0.175833
0.375021
0.215182
0.0654569
0.00523164
0.00907808
0.0270391
0.00923036
0.303634
0.466792
0.411731
0.104084
0.0132532
0
0.00238626
0.0196704
0.0598049
0.258014
0.176112
0.0149257
0.00481282
0
0.000706389
0.00687223
0.0222871
0.139743
0.309913
0.0789287
0.00332641
0.00204688
0
0.0132543
0.0310185
0.12946
0.21053
0.414396
0.141055
0.052115
0.00981774
0
0
0.000313375
0.00234818
0.189077
0.523356
0.0170635
0
0
0
0
0.00219363
0.0130504
0.401716
0.171086
0.0939974
0.0224955
0
0
0.0123164
0.0225094
0.141006
0.1767
0.0632063
0.257309
0.148054
0.0322074
0.000576291
0.00265302
0.0630329
0.267105
0.108242
0.352367
0.011912
0
0
0
0.00212619
0.0272936
0.123204
0.392582
0.074431
0.0272616
0.00542628
0.00995338
0.00976168
0.03714
0.353285
0.42608
0.25213
0.0120287
0.127539
0.178763
0.0830054
0.00492252
0.0136
0.13363
0.228213
0.0248516
0.00861802
0.00704779
0.0420017
0.0607224
0.137237
0.0634466
0.0599875
0.0326262
0.00998131
0.00348434
0.0142806
0.0100582
0.0190296
0.0871993
0.192998
0.619314
0.33358
0.0474316
0.00611146
0.00379791
0.0257506
0.151476
0.301674
0.205101
0.243327
0.0387886
0.00781895
0.000814561
0.0011771
0.00258991
0.0389254
0.313851
0.0919656
0.000767838
0
0.000814561
0
0
0
0.0492689
0.51355
0.131626
0.00226447
0
0
0.000772337
0.000706259
0.0294361
0.279896
0.320415
0.0148505
0.00127973
0
0.000772337
0
0.00215598
0.0222778
0.351508
0.499681
0.016989
0.00025021
0
0
0
0
0.0062154
0.0361735
0.34983
0.153209
0.00492951
0.00115384
0.00214284
0
0.0107846
0.114532
0.0770344
0.241703
0.165553
0.105956
0.118213
0.0396103
0
0.00918313
0.0252438
0.217228
0.465808
0.0330289
0.000392064
0
0
0.00200572
0.00550988
0.0390134
0.203043
0.567689
0.0851172
0.0627142
0.0927434
0.016772
0.0323537
0.00738479
0.0252758
0.101912
0.172775
0.088076
0.0150906
0.00781544
0.00628269
0.00427798
0.000776592
0.0132549
0.0698827
0.309635
0.533352
0.138712
0.00931888
0.000112987
0.05253
0.00678414
0.0151472
0.0666561
0.0591891
0.0714996
0.0601409
0.0555171
0.0263207
0.0179771
0.00356297
0.0078441
0.0411357
0.113441
0.478994
0.42775
0.0704448
0.0050428
0
0
0
0.00199772
0.0573953
0.316471
0.0593435
0.0006082
0
0
0
0
0
0.0506603
0.561984
0.143974
0
0
0.000680378
0.000120067
0
0.00099742
0.016617
0.318787
0.225664
0.00520153
0.000236208
0
0
0
0
0.0135262
0.40863
0.422382
0.00855732
0
0
0
0
0.00249423
0.0293221
0.369365
0.204747
0.0015711
0
0
0.00205299
0.0467605
0.130722
0.17443
0.149515
0.147072
0.00848966
0
0
0
0
0.00105662
0.0125808
0.214757
0.525204
0.0323177
0
0
0
0.00387617
0.0391247
0.144695
0.183217
0.525204
0.141785
0.005511
0.0011632
0.0468842
0.209213
0.223771
0.206021
0.0471239
0.0678786
0.00575095
0
0.149373
0.166408
0.321109
0.158459
0.0973085
0.0164064
0.105499
0.0335116
0.0545857
0
0.00105967
0.0310168
0.0774154
0.204136
0.168984
0.412209
0.11929
0.00866184
0.0718565
0.010868
0.0878472
0.0730364
0.127847
0.0716259
0.448741
0.201527
0.226331
0.244769
0.0570153
0.057922
0.0183459
0.00658164
0.00146556
0.0230964
0.0209105
0.146448
0.391448
0.00403458
0
0
0
0
0
0.00250737
0.302742
0.218563
0.00498389
0.0209834
0.00958586
0.0109694
0.00548156
0.077731
0.0799917
0.331327
0.507177
0.000397559
0
0
0
0
0
0.00673154
0.433281
0.263911
0.0204811
0.00997981
0.00285853
0
0.00460348
0.0249308
0.0578
0.248788
0.0888863
0.0501775
0.0842684
0.0921638
0.0327782
0.0608078
0.241578
0.144315
0.127335
0.460764
0.103293
0.0385397
0.00476421
0
0.00268803
0.00800523
0.0141307
0.256256
0.248517
0.407069
0.362536
0.146618
0.0282239
0.0308156
0.0615864
0.0266104
0.0770174
0.00328911
0.0134529
0.0567266
0.120017
0.126982
0.119046
0.195764
0.051191
0.0118844
0.000212362
0.00538985
0.0963196
0.202821
0.220609
0.0985486
0.067356
0.00457567
0.000714316
0.027402
0.203978
0.396093
0.24896
0.119871
0.0430521
0.0352712
0.00560377
0.00340964
0.00294297
0.113061
0.564145
0.312292
0.183634
0.0262017
0.00894274
0.000286831
7.17077e-005
7.59364e-005
0.00181961
0.1351
0.373537
0.114298
0.00736136
0.000181266
0
7.59364e-005
0
0.00731457
0.0836202
0.406168
0.158903
0.0018333
0
0
0
0
0.0354139
0.465782
0.342229
0.0430083
0.000968462
0.000398979
0.00159592
0
0
0.00739191
0.248134
0.420734
0.0510852
0
0.000664965
0.00265986
0
0
0.0320958
0.100539
0.289878
0.215764
0.00899156
0
0
0
0.00587847
0.0192575
0.0784947
0.226042
0.396678
0.0501449
0.0143197
0.00679325
0.00587847
0.00182934
0.0247842
0.330847
0.459602
0.11184
0.00439281
0.00131819
0.00058108
0.000203259
0.0163324
0.0257471
0.241657
0.326599
0.256597
0.0264844
0.012063
0.00160231
0.00868862
0.065044
0.0625679
0.0579477
0.0399105
0.0352267
0.0674536
0.0634133
0.0732859
0.0562153
0.0346284
0.0260997
0.0222723
0.00357215
0.108884
0.429092
0.462593
0.116066
0.0460158
0.074919
0.137932
0.13856
0.0337636
0.0307356
0.0499018
0.0764358
0.1146
0.0431637
0.018209
0.0392164
0.0712422
0.0165338
0.0597491
0.229164
0.476093
0.187119
0.0548114
0.000840022
0.000148239
0
0
0.0138984
0.18258
0.265422
0.0209822
0.00197454
0
0
0
0
0.00217163
0.129148
0.532947
0.0543684
0
0.000120003
2.11771e-005
0.00051528
0.000956949
0.0106372
0.106391
0.301002
0.0786698
0.00247748
0
0
0
0
0.00151636
0.114355
0.610879
0.184976
0.00303001
0
0
0
0.000118383
0.00124972
0.0404896
0.387262
0.0607968
0
0
0
0
0.000828683
0.0130742
0.0514967
0.521784
0.236944
0.00559715
0
0
0
0
0
0.0255073
0.376337
0.125068
0.00219553
0
0
0
0
0
0.00496319
0.416859
0.360842
0.00280517
0.00144981
0
0
0.000286404
0.0159764
0.0527798
0.305334
0.235713
0.0136048
0.0490789
0
0
0
0.0119282
0.0262417
0.216206
0.240241
0.217246
0.00245442
0
0
0
0
0.00485797
0.187512
0.468495
0.0343088
0.045342
0
0
0
0
0.00314576
0.0674699
0.506356
0.352452
0.148329
0
0
0
0.00127645
0.00175312
0.0302353
0.0563956
0.267519
0.38647
0
0
0
0
0
0
0.00408154
0.290714
0.104321
0
0
0
0
8.11381e-005
0.00422248
0.159968
0.442488
0.415133
0
0
0
0
0
0
0.0229727
0.466079
0.304702
0.0478507
0.0142252
0.000459332
0
0
0
0
0.14372
0.233332
0.324535
0.141948
0.0224662
0.00128907
0
0
0
0.0527796
0.454508
0.0631104
0.00146729
0
0
0
0
0
0.178789
0.451036
0.454508
0.0370872
0.00141472
0
0
0
0
0.0441444
0.0538118
0.316737
0.244184
0.0579274
0.0114285
0
0
0
0.0033087
0.00648846
0.230414
0.472658
0.0675484
0.0180596
0
0
0
0
0.12972
0.472658
0.116923
0.00407547
0
0
0
0
0.00376713
0.0207393
0.39412
0.309524
0.00491297
0
0
0
0
0.000167043
0
0.0860859
0.409492
0.0942535
0.00509246
0
0.000435338
0.00174135
0
0
0.0344373
0.356291
0.190065
0.00698513
0
0.000725563
0.00290226
0
0.00101438
0.191382
0.430432
0.0113139
0
0
6.21911e-005
0.000248765
0
0.00358859
0.173417
0.577785
0.0936805
0.001003
0.001003
0.000103652
0.000414608
0.00295017
0.013285
0.0204493
0.473801
0.355262
0.0484627
0.0102124
0.0016756
0.000738636
0.00129207
0.0697053
0.0274191
0.211636
0.227769
0.11345
0.0344443
0.014227
0.00553652
0.021963
0.0234185
0.125291
0.550996
0.237707
0.0276286
0.010573
0.000239372
0.00235826
0.0176982
0.0788379
0.0889335
0.136605
0.148259
0.07576
0.0456714
0.00389436
0.00707648
0.0286514
0.111052
0.101778
0.116418
0.095879
0.0693714
0.0360907
0.0773681
0.133731
0.0184462
0.0150855
0.0304815
0.0864179
0.165994
0.145448
0.223531
0.314695
0.168425
0.0172992
0.035248
0.0960254
0.153548
0.188885
0.130358
0.0644274
0.020205
0.0571564
0.0150893
0.00408325
0.121187
0.161488
0.313789
0.399578
0.147176
0.0239978
0.040162
0.00299025
0
0.0166618
0.0108514
0.0301673
0.0469127
0.110927
0.22397
0.0938575
0.00691645
0
0.0270375
0.0113415
0.00342871
0.011831
0.160145
0.558663
0.489854
0.0478611
0
0.0484496
0.038123
0.0667116
0.141638
0.06807
0.0367847
0.0280252
0.0103408
0
0.070681
0.0405784
0.0167145
0.0992168
0.125044
0.245277
0.311717
0.0695763
0
0.0018835
0.000790074
0
0
0.0234909
0.280577
0.276114
0.0112079
0
0
0
0
0
0.00125903
0.276281
0.466251
0.00490888
0.00246997
0.00492381
0.00277695
0.00196223
0.0175249
0.0439107
0.216157
0.239999
0.0175443
0.0101975
0
0
0.000280318
0.0036592
0.0128652
0.22601
0.567031
0.0420317
0.00056549
0
0
0
0
0
0.0648625
0.38906
0.0449334
0.00827012
0
0
0
0
0
0.0112857
0.45196
0.324582
0.00262823
0
0
0
0
0
0.0430782
0.427569
0.0789408
0.00341892
0
0
0
0
0
0.00731775
0.420647
0.325619
0.0366145
0
0
0
0
0
0.000183912
0.147503
0.433792
0.329662
0
0
0
0
0
0
0.0223197
0.501394
0.0309895
0
0
0
0
0
0
0.143867
0.353547
0.267616
0.00844155
0
0
0
0
0
0.0299546
0.392468
0.456078
0.0458635
0
0
0
0
0
0
0.15923
0.437661
0.314065
0.00768079
0
0
0
0
0
0.0410351
0.370929
0.0322473
0
0
0
0
0
0.000628349
0.147826
0.431495
0.260837
0.00301343
0
0
0
0
0
0.0523093
0.143826
0.36477
0.0313358
0
0
0
0
0
0.00784495
0.0391706
0.404513
0.193539
0
0
0
0
0
0.000644017
0.178834
0.410893
0.0230145
0
0
0
0
0
0.00697532
0.054024
0.581286
0.207568
0.00083455
0.00386117
0.00128706
0
0
0.00038641
0.00412211
0.297421
0.381707
0.0013372
0.00109407
0
0.000375202
0.00029523
0.00255415
0.0126466
0.243939
0.512128
0.0324428
0.0111932
0.0035347
0.00262642
0.00134966
0.00808166
0.00783361
0.433755
0.285257
0.00510656
0.00672178
0.00163277
0.00478594
0.00974142
0.0195636
0.0126629
0.208215
0.234528
0.0173274
0.0155848
0.00528482
0.0479528
0.0513724
0.0354197
0.0475108
0.272634
0.569613
0.123302
0.0461636
0.0316287
0.0207449
0.0178128
0.0435104
0.0387441
0.166071
0.180897
0.0766433
0.0790287
0.0713959
0.0421055
0.0272717
0.0356825
0.055335
0.128188
0.292768
0.0187223
0.0341248
0.0324309
0.227263
0.13297
0.0295754
0.0877353
0.0978745
0.171022
0.0568283
0.0357087
0.0471928
0.293226
0.085422
0.0208569
0.0178945
0.0631798
0.139803
0.132587
0.0643545
0.0482834
0.0101174
0.00794817
0.00594397
0.123451
0.132088
0.200204
0.189248
0.161906
0.0563791
0.0114567
0.00795822
0.00623896
0.0570154
0.0960654
0.187765
0.280379
0.0895788
0.0465708
0.0120002
0.0703724
0.178688
0.286401
0.206573
0.205506
0.391164
0.25162
0.13862
0.0803541
0.0748296
0.0243584
0.0668447
0.0556448
0.0755588
0.0824533
0.208711
0.107008
0.0662826
0.0337968
0.00899348
0.0278455
0.0774138
0.061409
0.0564528
0.263982
0.193581
0.194347
0.0810665
0.0209908
0.147544
0.0997432
0.0698891
0.144227
0.260212
0.175092
0.120715
0.118056
0.018394
0.169043
0.335269
0.250021
0.159038
0.214017
0.169588
0.138176
0.154501
0.061495
0.0316622
0.0319327
0.0419682
0.0209298
0.0901577
0.112017
0.187579
0.114179
0.0267014
0.0836587
0.0221138
0.0668813
0.019978
0.0278664
0.0455768
0.210489
0.664294
0.203982
0.0965629
0.156205
0.159647
0.0760001
0.11802
0.0604472
0.0597748
0.0466682
0.0449036
0.0689392
0.0783431
0.192918
0.168974
0.135137
0.0291563
0.0507903
0.127235
0.127649
0.0148708
0.0033427
0.0102574
0.00740283
0.00499099
0.00514686
0.0509152
0.456388
0.159832
0.037843
0.00618155
0.000135589
0.00158236
0.00345335
0.00430839
0.0226696
0.540706
0.420495
0.0159083
0.0101852
0.0349264
0.0734089
0.0780376
0.0146795
0.0407417
0.132859
0.0894516
0.0855547
0.0293068
0.0184534
0.0603936
0.0443427
0.0173496
0.0390972
0.245575
0.277752
0.131472
0.00963158
0.000892453
0.0010305
0.000175389
0.000224997
0.000146613
0.193337
0.363384
0.373461
0.0266892
0.00624717
0.00171749
9.03943e-005
0
0
0.0466667
0.508846
0.169247
0.025423
0.0122131
0.0209486
0.00140408
0.00157498
0.0168084
0.136288
0.233201
0.293802
0.0400757
0.0645558
0.0189643
0.0124668
0
0.005755
0.0589316
0.35289
0.409823
0.0806923
0.00205941
0.000208286
1.09624e-005
0
0
0.00375811
0.206052
0.545722
0.340869
0.00515224
0.00049345
0.000528934
0.00299729
0
0.0137576
0.0493657
0.294957
0.0798248
0.0263432
0.00596476
0.0139487
0.00249354
0.000831182
0.010224
0.177444
0.340387
0.186668
0.0449098
0.00639951
0.0116979
0.04403
0.00903256
0.0473101
0.0472468
0.339202
0.513342
0.0231938
0.00516886
0.00218781
0.0123635
0.000547459
0.0163119
0.0127633
0.120912
0.57338
0.192731
0.018752
0.057508
0.025771
0.00383222
0.00268644
0.00246357
0.186276
0.173077
0.0771997
0.0132495
0.00696037
0.0587061
0.00819847
0.0520729
0.0214938
0.113677
0.124411
0.105688
0.081928
0.0826899
0.0387836
0.00701183
0.0168704
0.0119659
0.0438211
0.468132
0.307911
0.0434006
0.143317
0.0393836
0.0200252
0.0294094
0.0392003
0.0587668
0.14812
0.147972
0.0476567
0.0531262
0.0677716
0.184694
0.160137
0.0865231
0.058202
0.0768489
0.163546
0.179778
0.259515
0.0530013
0.0382068
0.00584978
0.012052
0.0466406
0.107181
0.33682
0.200909
0.138289
0.0874137
0.119518
0.0566182
0.0336246
0.0480395
0.0192247
0.115472
0.0318341
0.0113609
0.0551632
0.339496
0.188253
0.0258607
0.0838501
0.0579826
0.0811897
0.132676
0.0883471
0.109089
0.335919
0.146797
0.00889877
0.047359
0.0574973
0.269251
0.119181
0.0574838
0.052456
0.189037
0.185563
0.0268468
0.0770898
0.0380164
0.062929
0.109418
0.264234
0.242754
0.270645
0.186305
0.0209513