0.0590408
0.0727803
0.0380796
0.0594947
0.135197
0.153624
0.0585024
0.123145
0.194445
0.0658105
0.132179
0.0362246
0.0714027
0.148654
0.227934
0.119284
0.153256
0.205166
0.293296
0.0322273
0.0536938
0.13512
0.146561
0.199025
0.0838445
0.140245
0.17055
0.181887
0.0570165
0.0467597
0.115706
0.122847
0.161939
0.181254
0.146412
0.48854
0.0384044
0.0952452
0.0563425
0.0445623
0.0657746
0.252184
0.137572
0.177019
0.230202
0.0244266
0.0439723
0.0582824
0.0695634
0.131319
0.271868
0.150279
0.132507
0.111909
0.150704
0.13214
0.0773402
0.0489213
0.0454146
0.153409
0.138967
0.110305
0.50786
0.144664
0.294097
0.150847
0.0993606
0.119167
0.0984882
0.0729408
0.0444837
0.115903
0.0219274
0.00730503
0.00416409
0.0163913
0.0253429
0.0551352
0.0803091
0.117002
0.153098
0.103247
0.0169254
0.0274206
0.0922429
0.0792857
0.0546613
0.053497
0.187841
0.289138
0.134318
0.276857
0.0370411
0.0116137
0.0212533
0.00395563
0.0185762
0.0489162
0.0258961
0.483323
0.613117
0.0642648
0.0041878
0.00639511
0.0281435
0.0238881
0.113138
0.0883864
0.122303
0.0315891
0.0462708
0.0545447
0.067853
0.0441213
0.0442444
0.079467
0.122322
0.213088
0.0433343
0.0288637
0.0415323
0.0788427
0.0914113
0.0943803
0.0480793
0.130591
0.504821
0.308777
0.0454635
0.00692611
0.00805067
0.0221207
0.0115645
0.0567787
0.0769829
0.578281
0.14282
0.00940623
0.0190682
0.0269601
0.0136501
0.0163413
0.0227807
0.283484
0.0911303
0.00558227
0.00333247
0.015312
0.0312141
0.0955167
0.0956048
0.0628247
0.10797
0.0838486
0.0304443
0.0277124
0.0221318
0.0396173
0.0548669
0.122302
0.160249
0.158513
0.451478
0.00877853
0
0.00651702
0.0100799
0.0101556
0.0234115
0.0331742
0.456648
0.217235
0.0223656
0.00589487
0.000697287
0.00506757
0.00496982
0.02337
0.176308
0.571767
0.111717
0.0879211
0.0751894
0.0520726
0.0777005
0.0175391
0.0683955
0.0821958
0.106452
0.11103
0.154595
0.0766625
0.0893056
0.112194
0.0217419
0.0228341
0.0294679
0.0638674
0.157313
0.121934
0.0490581
0.017508
0.0103986
0.00202853
0.0581221
0.256393
0.609708
0.208267
0.271799
0.0611929
0.0353406
0.021925
0.0655523
0.185246
0.294823
0.280637
0.109838
0.165677
0.0323927
0.0957763
0.105505
0.0719436
0.0191817
0.0629088
0.13451
0.120301
0.107341
0.0215607
0.0678987
0.0683675
0.099458
0.0418924
0.0746197
0.245771
0.111617
0.196278
0.0236403
0.040512
0.0750496
0.214403
0.188932
0.451199
0.271035
0.140554
0.178753
0.0255681
0.05182
0.0556977
0.137026
0.171528
0.253578
0.321297
0.0692777
0.0552785
0.00756189
0.0342186
0.0204039
0.0894221
0.0672917
0.0979958
0.247912
0.243282
0.151219
0.0103626
0.0364472
0.0177128
0.060509
0.0952971
0.235785
0.379464
0.135102
0.0835701
0.019248
0.103346
0.0647718
0.0342687
0.151335
0.0784362
0.170865
0.235621
0.0360437
0.00979368
0.0940376
0.105234
0.113167
0.42698
0.342855
0.162829
0.153468
0.0602945
0.0175371
0.00400914
0.00196047
0.00861722
0.0893805
0.266455
0.255246
0.123557
0.0458366
0.0870373
0.0143175
0.020529
0.038094
0.127619
0.313217
0.240942
0.101817
0.0219726
0.00196363
0.0178105
0.0499139
0.0857527
0.263037
0.374688
0.226959
0.12262
0.0302756
0.00770391
0.020593
0.0706216
0.0400069
0.146288
0.292481
0.351127
0.311086
0.0588926
0.062966
0.0601352
0.0449477
0.0557226
0.0464986
0.051258
0.147838
0.177496
0.0452537
0.0452393
0.0546517
0.0159912
0.0106198
0.170714
0.231086
0.401157
0.120278
0.0410896
0.0710263
0.0272486
0.042677
0.117349
0.130698
0.06051
0.190881
0.0710407
0.0875057
0.334034
0.157691
0.046867
0.0122991
0.143661
0.371245
0.224425
0.0328579
0.0550849
0.0166239
0.00356729
0.00572876
0.00143538
0.0535952
0.0614968
0.0793473
0.0511826
0.340175
0.144887
0.00729907
0.0114045
0.000729163
0.0227483
0.0143572
0.0139844
0.0148351
0.18344
0.309606
0.0355626
0.0128049
0.000729163
0.0381317
0.0868419
0.0241859
0.0412188
0.566947
0.566947
0.0213254
0.00342974
0.000437498
0.0146789
0.0174724
0.00285175
0.0615799
0.340139
0.117648
0.00147867
0.00151184
0
0.00123287
0.00128229
0.000177584
0.20666
0.448252
0.101777
0
0
0
0.00159771
0.00403016
0.00359775
0.0407115
0.448252
0.32353
0.00503499
0.001068
0
0
0
0.00154152
0.178411
0.448252
0.167645
0.000566266
0.000566266
0
0
0.00368788
0.012152
0.305871
0.291795
0.0440214
0
0
0
0.000447338
0.00241671
0.017533
0.481583
0.0929091
0.00462096
0
0
0
0
0.000249386
0.163294
0.335499
0.322564
0.0375656
0
0
0
0
0.00402524
0.0200848
0.481583
0.175497
0.00207647
0
0
0
0
0.000575034
0.151871
0.271153
0.00350175
0
0
0
0
0
0.000858125
0.262133
0.132275
0.000848488
0
0
0
0
0
0.0694457
0.480171
0.406571
0.0228867
0
0
0
0
0
0.0048935
0.329856
0.184183
0
0
0
0
0
0
0.135222
0.480171
0.0348419
0.0149676
0.00166567
0.000555223
0
0.000703506
0.0334828
0.186067
0.346026
0.0342401
0.0395239
0.00277612
0.000925372
0.00232944
0.0142395
0.123375
0.367915
0.229402
0.0216979
0
0
0
0
0.00492454
0.0173298
0.289768
0.44712
0.00734849
0
0
0
0
0.00820757
0.0989793
0.475416
0.263307
0.0101651
0.0126377
0.000469466
0.000142828
0.00722155
0.0217169
0.110965
0.351275
0.128729
0.0616153
0.0113543
0.00196889
0.00391637
0.00691734
0.0221311
0.130465
0.207326
0.129286
0.0113069
0
0
0
0
0.00326052
0.220407
0.4945
0.103835
0.0453405
0
0
0
0.0086256
0.0514251
0.508207
0.370518
0.105809
0.105056
0.0145325
0.00418963
0.0221373
0.0488453
0.0605843
0.1499
0.0715938
0.0789531
0.0472496
0.0065509
0.00185799
0.0164082
0.0822215
0.128222
0.215322
0.207768
0.0202334
0.0543995
0
0
0
0.0824636
0.194571
0.655268
0.174952
0.0653426
0.022053
0.00201218
4.69121e-005
0
0.137979
0.261917
0.321568
0.235102
0.010054
0.0522553
0.0121276
0.00128846
0.0117305
0.0725292
0.124929
0.173296
0.254827
0.0739409
0.103177
0.0161335
0.00887464
0.0180816
0.0859293
0.0921678
0.11444
0.266277
0.131719
0.0825628
0.00365118
0.000170073
0.00154985
0.149862
0.247034
0.201037
0.290655
0.0526812
0.115847
0.0379238
0.0316505
0.00258308
0.112114
0.376084
0.2382
0.412808
0.201246
0.00677916
0.0117469
0.0180201
0.0217446
0.0145645
0.0183164
0.0379305
0.0372235
0.0388272
0.00273295
0.045548
0.35543
0.181857
0.0290293
0.00246578
0.0151642
0.0569171
0.0284236
0.00370538
0.0221035
0.0619838
0.15849
0.0513035
0.0103077
0.0252098
0.0383011
0.0123882
0.000290854
0.204867
0.64525
0.517177
0.0570302
0.00168556
0.00963567
0.0202166
0.00622632
0.000939524
0.0794266
0.412329
0.076398
0.00969506
0
0.00206717
0.013109
0.00279405
0.00548409
0.228559
0.462383
0.03406
0.00209097
0
0.000490239
0.00199071
0.000375097
0
0.100629
0.462383
0.182515
0.0165086
0.00348945
0.00165535
0.000639478
0
0
0.0972712
0.462383
0.154033
0.00830863
0.00581576
0.00249247
0
0
0.0147906
0.203562
0.252254
0.00851057
0.00242517
0
0
0
0.00145723
0.0949989
0.410418
0.179947
0.00269394
0.0014551
0
0
0.00128251
0.00739485
0.00500655
0.205296
0.440278
0.0667847
0.0108248
0.00163089
0.000325749
0
0.000208176
0.0442062
0.440278
0.440278
0.0885334
0.0556242
0.00145135
0
0
0.00071615
0.208808
0.340048
0.0624359
0.00109484
0
0
0
0.0012927
0.0117332
0.426592
0.213904
0.00736615
0.000156406
0
0
0.00085897
0.0317911
0.125135
0.154038
0.385467
0.316218
0.0625639
0.0195081
0.000197979
0
0
0.0266022
0.335089
0.221559
0.12083
0.0161978
0
0.00619366
0.0660368
0.150667
0.263476
0.302746
0.0319772
0
0
0
0
0.00258806
0.0715124
0.264866
0.169404
0.0175533
0
0
0
0
0.00155283
0.186091
0.45261
0.177835
0.0400029
0.0139271
0.000519254
0
0.0186614
0.110142
0.296602
0.281316
0.3576
0.218039
0.0349441
0.00183916
0
0.0111968
0.0424531
0.204847
0.291996
0.0587456
0.0166465
0
0
0
0.00303443
0.0347962
0.275437
0.258425
0.0188213
0.00617847
0
0
0
0.00505738
0.187038
0.435296
0.125277
0.252983
0.137592
0.012306
0.000647685
0
0.00375288
0.0668503
0.185965
0.177937
0.0688158
0.0201514
0
0
0.000983592
0.0306682
0.442247
0.442247
0.1305
0.00682438
0
0
0
0
0.00894361
0.206376
0.275212
0.0252785
0.00338036
0
0
0
0.00202371
0.0363249
0.418749
0.205991
0.0095144
0.000924797
0
0
0
0.00279479
0.050372
0.474004
0.334337
0.018295
0.000590947
0.000560796
0
0
0.00167688
0.114927
0.474004
0.193961
0.00103091
0.00102015
0
0
0
0.0101578
0.0582287
0.426342
0.121336
0.00306045
0.00268306
0.000337199
0.0120565
0.0149933
0.0233689
0.094987
0.309922
0.133574
0.00225387
0.0014085
0.0017215
0
0
0.00293691
0.162107
0.490964
0.0810594
0
0.000845098
0.00130647
0.0240544
0.0474737
0.0381011
0.32491
0.490964
0.0534719
0.000321981
0.0166711
0.00113416
0.0373956
0.0706269
0.0891542
0.185601
0.233
0.230952
0.0522161
0.0278135
0.0375677
0.0291416
0.0307531
0.063239
0.199929
0.120283
0.248187
0.260535
0
0.00208584
0.0925211
0.186585
0.119476
0.456019
0.453907
0.0628202
0.0327574
0.0390315
0.0147071
0.0340827
0.083365
0.063406
0.12649
0.0487488
0.0800509
0.191537
0.00308148
0.0128575
0.0665907
0.178887
0.0531872
0.00495203
0.00892858
0.0113587
0.0122816
0
0.15595
0.410762
0.357755
0.0732965
0.00536554
0.00148369
0.00168705
0.000971185
0.0121642
0.00720583
0.180542
0.355098
0.108679
0.0190941
0.0117975
0.0247445
0.0211189
0.00123391
0.0531756
0.338228
0.494325
0.222777
0.0378289
0.000431341
0.00214482
0.000121999
0
0.118688
0.266039
0.190207
0.0554353
0.00877858
0.00172425
0
0
0
0.0313404
0.423367
0.326074
0.0429689
0.00738474
0.00287375
0
0
0
0.0455076
0.130772
0.287528
0.22676
0.0393144
0.000246321
0
0
0.000311835
0.00671826
0.305767
0.486902
0.231834
0.00899987
0.00137033
0
1.64124e-005
0.00125962
0.0741923
0.446625
0.161954
0.0531645
0.00589045
0.00037564
0
0
0.0101794
0.137624
0.389348
0.185793
0.258731
0.0243768
0.0109479
0
0
0.000818712
0.00355719
0.228527
0.290876
0.15655
0.0386769
0.00315819
0.00071452
4.30903e-005
0.000491227
0.00560123
0.0936087
0.118139
0.390459
0.27229
0.188892
0.0103254
2.58542e-005
0.0491696
0.135846
0.345747
0.180384
0.182385
0.0210399
0.0235667
0.00190978
0.0243672
0.157354
0.109117
0.22757
0.0699936
0.141863
0.0310644
0.154716
0.107433
0.190374
0.0183885
0.00868072
0.102684
0.12734
0.306466
0.216136
0.318727
0.083867
0.0246901
0.145449
0.109189
0.218948
0.0971883
0.254982
0.0819962
0.262032
0.137151
0.176689
0.120312
0.0331242
0.0722337
0.0274502
0.127479
0.0651534
0.201669
0.169697
0.151702
0.239431
0.304326
0.195554
0.0830958
0.0895852
0.0438968
0.0656574
0.0761987
0.15211
0.111768
0.113923
0.231433
0.189847
0.26683
0.0500713
0.124966
0.0432177
0.101336
0.0926022
0.143072
0.251518
0.262775
0.36665
0.115187
0.181223
0.0974409
0.0915373
0.147989
0.208177
0.0736722
0.0260384
0.0254257
0.0206339
0.0883429
0.104229
0.151911
0.0470412
0.024753
0.00220456
0.004384
0.0678251
0.17479
0.467303
0.272767
0.106943
0.0827377
0.14883
0.126452
0.0774337
0.168622
0.0658606
0.140518
0.122915
0.131878
0.0454906
0.0976477
0.181518
0.198503
0.360292
0.24077
0.264588
0.106523
0.0759534
0
0
0
0.00291156
0.0548172
0.141425
0.385167
0.142215
0.00480324
0.00114142
0.00139507
0
0.00171283
0.030228
0.251825
0.43864
0.0915374
0
0
0.0190386
0.0694539
0.154077
0.256586
0.180772
0.170644
0.0482959
0
0.000684851
0.00254528
0.00698562
0.0749357
0.214836
0.43864
0.308335
0.0410508
0
0.00386959
0.00472949
0
4.47657e-005
0.0194906
0.261452
0.274806
0.0205005
0
0.00232175
0.00293941
0.00451184
0.0134295
0.064159
0.337535
0.365171
0.0493261
0
0.00232175
0.0028377
0
0.00285437
0.144471
0.488703
0.178194
0.0174299
0
0.00139305
0.00170262
0
0.00906094
0.205937
0.379806
0.260315
0.0817073
0
0
0.000451122
0.0128096
0.0342445
0.0863719
0.344885
0.315372
0.0332076
0.00257947
0.0249541
0.00460661
0.0214762
0.0356676
0.0736626
0.125473
0.034659
0.00651963
0.0301702
0
0
0.000612268
0.0261158
0.277401
0.583979
0.302438
0.0530117
0
0.0127609
0.00457635
0.0329353
0.106967
0.241324
0.307828
0.0438167
0.005815
0.006174
0.014794
0.0048484
0.175202
0.210237
0.143183
0.081504
0.0344973
0.0166616
0.00995527
0.00129623
0.000324057
0.176813
0.397689
0.281625
0.0563871
0.0163877
0.000739479
1.73446e-005
0.0181067
0.00226327
0.0575895
0.0706281
0.256612
0.335949
0.103873
0.00829353
0.00988622
0.00124703
0.000102181
0.0541
0.155603
0.501403
0.307392
0.0558198
0
0
0
0
0.0236243
0.193187
0.287682
0.0206735
0
0
0
0.000782129
0
0.0504855
0.390147
0.389372
0.0109811
0.000885604
8.73344e-005
9.93878e-005
0
0
0.00367955
0.0973921
0.475815
0.0977889
0
0
0
0.000469277
0
0.00190069
0.137081
0.475815
0.186451
0.000126515
0.000611341
0.00043226
0.00414589
0.000567221
0.0440115
0.25523
0.264889
0.0627822
0.00720595
0.00384191
0.000495942
0.0173045
0.0103326
0.00330381
0.0195608
0.155802
0.391328
0.381281
0.087279
0.000297565
0.00404334
0.0192195
0.0325036
0.108936
0.416681
0.131509
0.0023034
0.00509424
0.00215696
0.110556
0.388502
0.194412
0.0587563
0.0322893
0.115363
0.177608
0.094357
0.00129418
0.038187
0.00586355
6.52956e-005
0.00724172
0.0601518
0.149606
0.33531
0.2132
0.0290839
0.239169
0.107883
0.0575829
0.0324364
0.0408977
0.0357909
0.159424
0.224213
0.172683
0.204559
0.261351
0.0618087
0.00459076
0.00352885
0.0295222
0.152711
0.18635
0.0751163
0.402401
0.131251
0.00608851
0.00309292
0
0.00248799
0.0572998
0.191756
0.430841
0.189756
0.0988638
0.0730346
0.110343
0.0452817
0.00775048
0.0522921
0.0755306
0.123702
0.100501
0.0213906
0.0377182
0.115419
0.0996253
0.0589036
0.252597
0.270331
0.111934
0.234315
0.0469207
0.00201597
0.0127949
0
0.000962601
0.0706122
0.133061
0.377832
0.109108
0.0107219
0.000688877
0.0130087
0
0.00673821
0.264213
0.458809
0.401194
0.122876
0.102944
0.0808539
0.0376652
0.0589085
0.0291678
0.110729
0.176976
0.0767097
0.0802616
0.286264
0.364685
0.222092
0.127805
0.0348462
0.0238557
0.022293
0.0351391
0.1768
0.139281
0.036688
0.00629994
0
0.00258124
0.099773
0.310189
0.194865
0.205383
0.487108
0.279229
0.0772924
0.00625449
0.00210838
0.0418555
0.0948248
0.0592046
0.00150118
0.121427
0.232511
0.287139
0.170454
0.0421722
0.0181184
0.00268643
0
0
0.00946198
0.02559
0.154541
0.340303
0.417356
0.0632259
0.00412358
0
0.035248
0.255381
0.206308
0.143345
0.053146
0.00452652
0.0149945
0.00802759
0.00328474
0.00112427
0.0188738
0.0276367
0.170495
0.509896
0.160306
0.00128021
0
0
0
0
0
0.00717472
0.271428
0.374892
0.0348496
0.00193005
0
0
0
0
0.0159927
0.322227
0.240054
0.0542543
0.0105521
0
0
0
0
0.121793
0.499797
0.174033
0.000731221
0
0
0
0
0
0.0934048
0.499797
0.130124
0.00450218
0
0
0
0
0.000370956
0.020315
0.277776
0.393501
0.0467705
0.00675495
0.000555281
0.00636969
0.00237414
0.0062547
0.05503
0.17561
0.263206
0.011613
0.0164541
0.00800934
0.00150206
0
4.44321e-005
0.059793
0.560815
0.319905
0.00576369
0.00467625
0.00289935
0.0269818
0.00241227
0.000311024
0.0300242
0.311732
0.285383
0.00178012
0.0370198
0.0650636
0.0275861
0.00960369
0.00337992
0.00904206
0.192291
0.297675
0.038742
0.00611648
0.017852
0.00285743
0.000428135
0.000416616
0.0124159
0.372437
0.436403
0.0336803
0.000691395
0.00207419
0.0414065
0.0252523
0.0211869
0.00250526
0.13601
0.341216
0.0435487
0.0143528
0.0496467
0.00457016
0.00203444
0.00291631
0.00457687
0.211091
0.509824
0.208547
0.0216984
0.00445972
0
0
0
0.0115496
0.293716
0.185496
0.0165285
0
0
0
0
8.5989e-005
0.0110788
0.409281
0.395731
0.0503025
0.000230814
0.000153876
0
0
0
0.0029829
0.157941
0.281038
0.16191
0.0172833
0
0
0
1.06512e-005
0.00343759
0.190034
0.464748
0.35142
0.0123171
0
0.00037383
0.0113901
0.0460503
0.0906181
0.155309
0.171328
0.0249488
0.000670166
0.000446777
0.0256444
0.276657
0.340938
0.180283
0.0441718
0.0132887
0.00678281
0.00549312
0.000268066
0
0.00252349
0.0446663
0.113322
0.212288
0.34808
0.268628
0.0298559
0
0.000376384
0.108118
0.382027
0.308434
0.312937
0.164846
0.166129
0.0373861
0
0.148731
0.341079
0.189598
0.0555485
0.0119807
0.000837334
0.00761513
0.016661
0.0607979
0.231019
0.137565
0.0282438
0.00498667
0.00129483
0
0.00258542
0.0492647
0.465393
0.0913442
0.186721
0.271885
0.146421
0.103867
0.0912933
0.109957
0.0467585
0.0957264
0.202285
0.0926772
0.0767599
0.0167515
0.0107246
0.0118442
0.0439662
0.0594765
0.485483
0.0521679
0.0071638
0
0
0
0
0.0155164
0.0576497
0.444342
0.0140273
0.0013316
0
0
0
0
0.057075
0.21542
0.468188
0.0527115
0.000666211
0
0
0
0
0
0.0343707
0.468188
0.0297698
0
0.00587273
0.00391516
0
0
0.0561113
0.185597
0.468188
0.0519119
0.0329168
0.00197417
0
0
0.00507441
0.102941
0.314748
0.20016
0.09971
0.130339
0.0290161
0.00360809
0.0080577
0.0594411
0.253475
0.225133
0.0309549
0.0228624
0.000863941
0.0245065
0.032491
0.0450935
0.0497184
0.282706
0.313917
0.257065
0.0120035
0.00159512
0.0292689
0.07234
0.210864
0.282954
0.473183
0.215
0.0175227
0.0329328
0.0727918
0.0310612
0.0176687
0.0384348
0.0629836
0.100418
0.030717
0.00358931
0.00301316
0.00732883
0.0274568
0.289402
0.377836
0.0231503
0.00175495
0
0
0.00580085
0.00232731
0.0638245
0.0955442
0.24595
0.235882
0.182633
0.0257608
0.000512759
0.00314991
0.00309028
0.401487
0.547378
0.260844
0.0415162
0.00295576
0
0
0.000197987
0.000197987
0.0145331
0.281942
0.393458
0.0167949
3.29835e-005
0
0
0
0
0.0109423
0.156496
0.4494
0.0408276
0
0
0
0.000329979
0.0120135
0.196709
0.438715
0.251604
0.00727049
0.000230884
0
0
0
0.0817844
0.116325
0.26645
0.320033
0.0423793
0
0
0
0.0026118
0.000764263
0.0217222
0.188348
0.517736
0.0957318
0
0.00175727
0.00301581
0.0318541
0.0149884
0.0148924
0.113807
0.30358
0.090474
0
0.0123009
0.0689554
0.000944488
0.0492355
0.155806
0.461197
0.341995
0.0296155
0
0
0.000944488
0.0145877
0.0308267
0.0971874
0.308065
0.203305
0.00724445
0
0
0.0207136
0.0262517
0.00999324
0.00850913
0.000253099
0.0247084
0.221199
0.0640092
0.0197641
0.0390361
0.00405257
0.00499386
0.00112383
0.00263558
0.0362586
0.506855
0.367768
0.0453098
0.00334524
0.0194714
0.0201177
0.00398379
0.00174831
0.00930955
0.117194
0.0620997
0.0349906
0.0225724
0.0128041
0.0297125
0.000227999
0.00792853
0.0269277
0.493288
0.479708
0.0491786
0.00634465
0.000127241
0.000508962
0
0.00328346
0.0327139
0.224379
0.259503
0.0475469
0.000284012
0
0
0
0.00252887
0.0464945
0.344373
0.380149
0.0506721
0.00198809
0.00148406
0.00356274
0
0.0178138
0.00988941
0.272009
0.45724
0.0685811
0.000671147
0
0
0
0.014287
0.0190213
0.17135
0.479146
0.126783
0.00331348
0
0
0.00498614
0.0136069
0.0929629
0.182932
0.310253
0.0934673
0.000593079
0
0.00486167
0.0488
0.0510349
0.160652
0.1782
0.344403
0.164623
0
0.00152446
0
0
0.00291826
0.0278329
0.0699539
0.416294
0.187797
0.00232373
0.00254077
0
0
0.000416895
0.0311371
0.0676456
0.437086
0.436191
0.00779163
0.0140176
0.0140871
0.0474319
0.03335
0.0483749
0.109749
0.189157
0.182001
0.0719884
0.0465117
0.00845225
0.0185115
0.00418085
0.00431208
0.0138332
0.0559408
0.173887
0.419189
0.00104582
0
0
0
0.00555114
0.0380545
0.302135
0.425128
0.107855
0.00417262
0
0
0
0.000204814
0.00458597
0.0619123
0.400137
0.449773
0.026619
0
0
0
0
0
0
0.049217
0.446843
0.10576
0.0183446
0.0248661
0.0110983
0
0
0.0317016
0.0542317
0.470617
0.0145343
0
0
0
0
0
0
0.153046
0.470617
0.170552
0.0644926
0.0435569
0.00665896
0
0
0.00279202
0.105876
0.470617
0.0900032
0.0526774
0.125949
0.0887227
0.0417995
0.027181
0.112844
0.0509753
0.147216
0.0176184
0.0459232
0.242454
0.237039
0.203212
0.133255
0.150903
0.0239131
0.00773421
0.153403
0.2627
0.24198
0.0653078
0.00597135
0.00236721
0.0079964
0.0261013
0.181624
0.0693441
0.461894
0.461894
0.235572
0.0632523
0.0123923
0.00578537
0.000818676
0.00870321
0.00559111
0.0510724
0.202531
0.138152
0.162275
0.0741012
0.0290574
0.00106293
0
0.00105109
0.0632859
0.447988
0.267343
0.081707
0.0141102
0.000524987
0
0
0.0434777
0.302282
0.447988
0.123056
0.0578872
0.00859725
0.000370376
0
0
0.00744104
0.228195
0.447988
0.104356
0.0315441
0.00280562
0
0
0
0.000477222
0.042211
0.259896
0.262365
0.107955
0.00311617
9.59188e-005
0
0
0.000711319
0.164916
0.191887
0.261589
0.14564
0.0180084
0
0
0
0.00316966
0.18685
0.397013
0.138457
0.0391418
0.00276904
0
0
0
0.00733988
0.300037
0.511001
0.27922
0.0542309
0.01969
0.000102228
0
0
0.000178716
0.106319
0.248579
0.468687
0.209389
0.0204269
0
0
0
0.000922883
0.0128168
0.0976872
0.265205
0.145758
0.0165806
0
0
0
0.00652649
0.138643
0.442308
0.404781
0.145965
0.0250472
0.000515885
0
0.000892994
0.00211439
0.00212045
0.0651712
0.212971
0.181881
0.0426321
0.000309531
0
0.00148832
0.0439129
0.0222188
0.0154745
0.00969241
0.0193019
0.072435
0.0530696
0.0594877
0.0527124
0.0389946
0.0253344
0.00140543
0.00944974
0.0580541
0.506234
0.545842
0.0826006
0.0286154
0.0888637
0.0517517
0.03551
0.0316529
0.00727444
0.087207
0.0734363
0.166878
0.0844174
0.0467355
0.0312296
0.00413811
0.0019676
0.0127515
0.200841
0.372789
0.276613
0.0851169
0.00192077
0.00129724
0
0.00648623
0.00679675
0.139934
0.322276
0.120998
0.00364699
0
0
0
0.00520209
0.00413588
0.0414349
0.422906
0.259634
0.00439457
0.00261657
0.00484743
0.000172437
0
0.00266627
0.0392548
0.2279
0.233655
0.0210725
0.000995217
0.00232217
0
0
0.000249154
0.0102869
0.478312
0.478312
0.0166599
0.00491092
0
0
0.00127228
0.00381683
0.0111587
0.284891
0.183939
0.00625435
0.00818487
0
0
0.000181754
0.000545262
0.00256192
0.335481
0.391865
0.0369524
0.00294655
0
0
0
0
0.00594443
0.355398
0.40807
0.0129586
0.00491092
0
0
0
0
0.00156065
0.23824
0.467375
0.0529071
0.00180512
0
0
0
0
0
0.143983
0.370425
0.1069
0.0147658
0
0
0
0
0
0.0297036
0.357636
0.446617
0.00608951
0
0
0
0
0.00130141
0.0533771
0.382684
0.131095
0.0723398
0
0
0
0
0.000780846
0.00678217
0.294484
0.446617
0.0766119
0
0
0
0
0
0
0.10774
0.436616
0.229656
0.0509231
0.0174919
0
0
0
0
0.0753554
0.385953
0.197954
0
0
0
0
0
0
0.0617902
0.433736
0.436616
0.041448
0.00489228
0
0
0
0
0.0188873
0.33847
0.167433
0.289882
0.0901963
0.00403639
0
0
0
0.0320308
0.131964
0.108768
0.489962
0.233541
0.030332
0.00322151
0
0
0.00171925
0.0107041
0.386497
0.18368
0.0185252
0.000481836
0
0
0
0.0108523
0.118813
0.294946
0.466156
0.0552882
0.00337285
0
0
0.00217939
0.00369525
0.0196511
0.0529108
0.33358
0.230977
0.0169575
0.00302291
0
0
0
0.00151052
0.0151267
0.237104
0.363654
0.0225352
0.00326293
0
0
0
0.000215788
0.0834379
0.377899
0.136102
0.00143259
0
0
0.00555899
0.00679433
0.00251753
0.0239644
0.462731
0.462731
0.0102403
0.00104994
0
0.00333539
0.00407659
0.00088771
0.00163185
0.185149
0.391959
0.0386636
0.00644788
0.000329966
0
0
0
0.00726293
0.170169
0.476927
0.108596
0.0091665
0.00304379
0.000244676
0.000633821
7.04245e-005
0.00507963
0.331298
0.476927
0.0317236
0.00925399
0
0
0
0.00153028
0.00537281
0.157686
0.352565
0.0787677
0.0363921
0.000440417
0.000146806
0.00105637
0.00210014
0.0262845
0.12348
0.548306
0.326331
0.0659353
0.0240629
0.00277847
0.00719748
0.00256904
0.00632078
0.00502743
0.0437385
0.332408
0.15966
0.0580996
0.00166708
0.00431849
0.00342871
0.0188621
0.089858
0.223234
0.166173
0.111821
0.0338764
0.00166708
0.0119958
0.00603301
0.0381122
0.0433704
0.0422171
0.391775
0.180334
0.0909387
0.00100025
0.00719748
0.0368888
0.177744
0.112711
0.0475766
0.0819914
0.010365
0.135478
0.153289
0.148003
0.13286
0.115589
0.142644
0.0557141
0.0073521
0.0305738
0.147319
0.257784
0.191636
0.132476
0.485382
0.208281
0.0974746
0.0532313
0.0230302
0.0691036
0.0804234
0.137612
0.132783
0.301446
0.190405
0.151634
0.0446847
0.0734215
0.0976377
0.128697
0.0593608
0.123954
0.0160484
0.0441538
0.0165415
0.00317231
0.024005
0.0229681
0.144095
0.18537
0.0371105
0.0172063
0.0221683
0.00279278
0.00355885
0.0198081
0.0120707
0.54329
0.68945
0.0344964
0.0453875
0.0418758
0.0334397
0.0209018
0.0600587
0.0321746
0.0374408
0.0251507
0.041723
0.0760277
0.0452998
0.00830443
0.0282435
0.0753367
0.0470706
0.141571
0.161803
0.0626052
0.00256179
0.00104311
0
0.000482262
0.00123209
0.00240463
0.245702
0.406824
0.014112
0.00214331
0.00173852
0
0
0
0.00197133
0.212302
0.527134
0.0684911
0.0257726
0.0238742
0.00203994
0.00361624
0.0053541
0.00919286
0.0735277
0.219448
0.0445517
0.0680537
0.0250857
0.00723005
0
0
0.002051
0.0838766
0.527134
0.217051
0.00374546
0.000218463
0
0
0
0.0042827
0.0702975
0.351918
0.148595
0.0467288
0
0
0
0
0.00256962
0.0118716
0.210628
0.422515
0.04874
0.0102748
0.00241948
0
0
0.00256962
0.0450866
0.371781
0.295855
0.106692
0.0091619
0
0
0
0.00154177
0.0122062
0.277403
0.505134
0.123861
0
0
0
0
0
0
0.0495761
0.317833
0.379509
0.0308713
0
0
0
0
0
0.00624379
0.250012
0.201743
0.00168138
0
0
0
0
0
0.0624071
0.48223
0.483438
0.0396806
0
0
0
0
0
0.0053921
0.336806
0.34107
0.0974482
0.00234493
0.00126265
0
0
0
0
0.0791191
0.308715
0.310798
0.0629745
0.00883856
0
0
0.002101
0.00256788
0.0152319
0.473729
0.13924
0.00140696
0.000757591
0
0
0.00146669
0
0.0895259
0.473729
0.381559
0.0356117
0.00675516
0.000951964
0.000512596
0.010567
0.00978951
0.0394277
0.10286
0.454526
0.146692
0.00393481
0
0
0.00691125
0.00866549
0.00101352
0.0201746
0.526335
0.313481
0.00140476
0.000642911
0
0.00414675
0.0070332
0.00360593
0.198367
0.398774
0.060336
0.00713735
0.00367931
0.00296441
0.00555797
0.0153115
0.0150666
0.0517129
0.348009
0.0785215
0.00625156
0.00729229
0.00441113
0.000909657
0.0201184
0.0198821
0.0198985
0.598599
0.548211
0.0502782
0.0273746
0.00142394
0
0.00249303
0.0145006
0.0183504
0.16978
0.229959
0.111373
0.127925
0.00996761
0
0.000571801
0.0106459
0.043159
0.23323
0.124275
0.0485035
0.0497272
0.0117055
0.00215312
0.0239936
0.0514133
0.100996
0.0894098
0.0747142
0.0676298
0.0943881
0.0217802
0.00478143
0.0351132
0.100228
0.0172594
0.136876
0.0869221
0.146488
0.200442
0.0438133
0.00489451
0.0029736
0.00847646
0.0661757
0.199002
0.113784
0.2818
0.211587
0.217167
0.0905668
0.0170422
0.0972102
0.136375
0.183527
0.0885336
0.117096
0.134507
0.0443715
0.0213332
0.0803968
0.155015
0.16165
0.22703
0.139754
0.134475
0.0841127
0.256712
0.180289
0.0552482
0.313187