0
0
0
0.00026523
0.0898753
0.119776
0.300513
0.0536642
0
0
0
0.00185053
0.0063319
0.159912
0.189501
0.302255
0.0387898
0
0
0
0
0.00185661
0.323218
0.375638
0.0943059
0.00871871
0
0
0
0
0.0241279
0.54095
0.305662
0.0920941
0.00611016
0
0
0
0.00996775
0.0214107
0.198828
0.286795
0.147985
0.0106108
0
0
0.00315908
0.0297164
0.0735831
0.184245
0.196132
0.0392095
8.20804e-005
0
0
0
0
0.0275032
0.436663
0.414188
0.0720025
0.00136368
0
0
0.000312834
0.00180896
0.0157033
0.207835
0.484253
0.0778314
0
0
0.00307869
0.025084
0.0886379
0.152323
0.261595
0.139876
0.0412653
0.0134144
0.00388519
0.0247185
0.0593314
0.0749267
0.0221035
0.158314
0.0379099
0.0777922
0.0722099
0.0208135
0
0.00287107
0.00933479
0.0364967
0.295759
0.545623
0.195452
0.012015
0.0015697
0.0125168
0.0144367
0.036802
0.0285443
0.272854
0.108458
0.134758
0.0370487
0.0143831
0.108399
0.102983
0.129637
0
0.0885235
0.0758188
0.0720504
0.0545884
0.0963371
0.146563
0.101882
0.0999408
0
0.0621298
0.0317841
0.147285
0.254507
0.173322
0.130195
0.0350908
0.0549562
0.0394041
0.268798
0.0774747
0.0619857
0.0188202
0.126913
0.261124
0.124334
0.0860164
0.00562916
0.121578
0.0236395
0.0848708
0.0836693
0.253076
0.0731141
0.0282161
0.0242881
0
0.0172887
0
0.135492
0.273567
0.141617
0.108709
0.0219986
0.0335332
0
0.113358
0
0.116309
0.21394
0.174428
0.126945
0.0547836
0.0744146
0
0.0121216
0
0.109754
0.220778
0.200419
0.119951
0.106773
0.100676
0
0.0517327
0
0.132885
0.318223
0.262431
0.0528724
0.0233979
0.020865
0
0.141807
0
0.127433
0.0782702
0.0521416
0.0941723
0.0243225
0.0445041
0
0.113571
0
0.168637
0.159988
0.100186
0.182645
0.141473
0.0924209
0
0.113562
0
0.0885231
0.0885828
0.142273
0.395057
0.0765708
0.0962955
0
0.0877151
0
0.0634358
0.0575619
0.353477
0.106703
0.0620644
0.0380567
0
0.052123
0.00655331
0.127017
0.1965
0.118436
0.121771
0.149039
0.140024
0.0289573
0.0647928
0.0458732
0.112363
0.108562
0.111616
0.26859
0.0516732
0.0604376
0
0.0296929
0.0109222
0.0535564
0.119061
0.27538
0.120759
0.102568
0.16198
0.0482621
0.104521
0.0764553
0.215889
0.168839
0.122252
0.067666
0.125599
0.170822
0.0310514
0.0919723
0.0180962
0.0630826
0.0290934
0.0514958
0.0439805
0.0961579
0.198793
0.0219426
0.208664
0.00983689
0.107648
0.0549234
0.0383067
0.0314228
0.0938036
0.184629
0.0517524
0.161404
0.0301604
0.201243
0.0950881
0.0263092
0.0420362
0.0671241
0.170722
0.0500848
0.268607
0.087082
0.197386
0.180788
0.0584015
0.0324072
0.0281329
0.120961
0.0434816
0.196833
0.00898801
0.0695756
0.0370933
0.0347815
0.0443668
0.0334294
0.138216
0.0477354
0.244216
0.001284
0.098474
0.126081
0.0598527
0.0450624
0.0194643
0.135855
0.106033
0.265973
0.0795672
0.0766029
0.0570018
0.0523305
0.0888994
0.0285851
0.139458
0.06362
0.399159
0.0113667
0.117302
0.107763
0.116548
0
0
0
0.00214251
0.131368
0.3262
0.0544247
0
0
0
0
0
0.00655466
0.189977
0.361962
0.0505166
0
0
0
0
0
0.00273023
0.0572171
0.298403
0.268762
0.0197173
0
0
0
0
0
0.0681071
0.62381
0.283357
0.00396079
0
0
0
0
0.00773749
0.162858
0.367405
0.0347193
0
0
0
0.000856366
0.0025691
0.000773244
0.086679
0.270995
0.0975632
0
0
0
0
0
0.00240555
0.194576
0.686934
0.102464
0
0
0
0.00599456
0.0280336
0.021146
0.244342
0.245683
0.0761083
0
0
0
0.00329544
0.00988631
0
0.068478
0.276187
0.356471
0.0264894
0.00292989
0.00993313
0.0106506
0.0304207
0.017289
0.0938907
0.049235
0.202506
0.0553485
0.0141786
0
0.0169395
0.0782545
0.0286696
0.174741
0.197616
0.40929
0.0575562
0.00563124
0.124064
0.0475938
0.0243285
0.00414961
0.0532555
0.0836816
0.443129
0.172444
0.055318
0.0684854
0.0246594
0.019687
0.0203725
0.0988886
0.00349671
0.0295658
0.0151972
0.0552967
0.202601
0.0657265
0.0401561
0.00291036
0.0681606
0.00049953
0.0061714
0.0160197
0.0931623
0.293704
0.203139
0.00823742
0.0142103
0.0373655
0.00152454
0.103534
0.058924
0.0785229
0.63535
0.301878
0.0239286
0.019249
0.0402987
0
0.00655238
0.0251708
0.0881379
0.135089
0.0371729
0.0493449
0
0.013838
0
0.0167157
0.0512302
0.0966292
0.10062
0.0457751
0.0906372
0
0.0135775
0
0.0385504
0.0924836
0.159074
0.442062
0.081541
0.020391
0.00226985
0.00905944
0
0.00557108
0.0424763
0.208792
0.245481
0.0204744
0.0400647
0
0.00640724
0
0.00691453
0.132175
0.585451
0.0745674
0.0442595
0.0689121
0
0.0391445
0
0.023604
0.0667692
0.106833
0.142654
0.0148309
0.0206111
0
0.0395739
0
0.0200393
0.0877617
0.186845
0.125492
0.00816882
0.0251176
0
0.0199146
0.00284053
0.0117824
0.175315
0.489469
0.136778
0.00104482
0.00322177
0
0.0294061
0.0402951
0.0778095
0.352745
0.448041
0.126498
0.00351579
0.00893392
0
0.0464165
0.00126051
0.0395957
0.118735
0.161906
0.0647551
0.0171865
0.0544085
0.00556983
0.0756305
0.00882354
0.194229
0.110915
0.0706644
0.0686019
0
0
0
0.0472612
0.0940899
0.222704
0.446096
0.227898
0.0868341
0.0386613
0.139399
0.045922
0.0939127
0.0681043
0.201405
0.185147
0.128854
0.0236157
0.0415564
0.115238
0.0291019
0.0925457
0.00387002
0.169672
0.0674166
0.0238119
0.0351174
0.0636407
0.176875
0.0490642
0.154904
0.0709851
0.115624
0.070302
0.0401985
0.0673152
0.181166
0.308174
0.117644
0.0841601
0.00772162
0.0799729
0.0415508
0.0594945
0.101713
0.239168
0.292334
0.112718
0.149518
0.0281806
0.0957799
0.0254579
0.0692806
0.0590466
0.0276083
0.101136
0.0359417
0.166916
0.0748236
0.112003
0.0392621
0.0616201
0.15948
0.0141098
0.0562411
0.0183608
0.139489
0.0106891
0.179297
0.132243
0.189164
0.0690318
0.0614061
0.126079
0.0179528
0.220388
0.0297044
0.153332
0.0398678
0.0644052
0.150413
0.0204224
0.0612672
0
0.152818
0.00424349
0.320002
0.114822
0.154653
0
0
0
0.0176144
0.066834
0.135868
0.215145
0.0361512
0
0
0
0
0.0386082
0.248434
0.356308
0.182702
0.0059109
0
0
0
0
0.0322744
0.177987
0.320276
0.125736
0.0306861
0
0
0
0
0.0702633
0.566927
0.389601
0.09582
0.0192912
0
0
0
0
0.0231058
0.328146
0.324961
0.0456399
0
0
0
0.0018877
0.0135199
0.0236926
0.227537
0.132438
0.00830356
0.000303241
0
0
0
0
0.0367344
0.54665
0.416176
0.045579
0.00250495
0
0
0.00114572
0.00455955
0.0204813
0.246013
0.307347
0.028369
0.000505402
0
0.0176171
0.0112918
0.0583735
0.0333655
0.189663
0.166878
0.133452
0.0481896
0.0215502
0.229693
0.0633225
0.0285672
0.0378768
0.0416717
0.0573471
0.217074
0.14261
0.127908
0.077479
0.0578794
0.0906319
0.090483
0.166514
0.300435
0.0790718
0.0220391
0.0228469
0.338924
0.38287
0.216714
0.144788
0.0423179
0.0277509
0.0403114
0.0419604
0.123517
0.197706
0.100436
0.0380653
0.0701411
0.0130423
0.00347849
0.0318122
0.0272149
0.0438237
0.260711
0.147676
0.0360767
0.0706029
0.0124387
0.0171158
0.0153352
0.0312374
0.04161
0.171375
0.30056
0.201305
0.111485
0.0143344
0.00422281
0.00454221
0.00702937
0.0622847
0.499673
0.424366
0.155015
0.08758
0.00839308
0.0285263
0.0168975
0.0263906
0.109075
0.167673
0.0387891
0.00315401
0.00587882
0.00117983
0.00474558
0.00790232
0.0258483
0.0876327
0.131833
0.00344227
0
0
0
0
0.00232378
0.0542478
0.254177
0.478509
0.114651
0.00904873
0.00602259
0.000707895
0.00790929
0.0069108
0.016317
0.169168
0.410477
0.00799811
0
0
0
0.00307801
0.00391264
0.118283
0.523735
0.096157
0.00133029
0
0
0.00363997
0.00581958
0.0114747
0.119742
0.279387
0.0774568
0.00371491
0.00449327
0
0.0381923
0.0748715
0.0843454
0.181579
0.199466
0.191361
0.0108133
0
0
0.00801693
0.0312914
0.0413872
0.324589
0.51113
0.130532
0.0262189
0.0314529
0
0.063746
0.146415
0.184485
0.255459
0.219456
0.0294419
0.00237176
0.00592773
0
0.0309241
0.0974907
0.165572
0.21453
0.096826
0.0452146
0.0214232
0.0777741
0.0371871
0.0171203
0.0638187
0.0908394
0.230159
0.167959
0.0541607
0.0166023
0.0414941
0.0104886
0.0476501
0.206582
0.215687
0.244832
0.108932
0.049088
0.0112458
0.0356667
0.0305329
0.0256873
0.286812
0.182662
0.4461
0.224875
0.0688434
0.123751
0.198253
0.121077
0.0275717
0.0354798
0.019078
0.0789073
0.114883
0.0732667
0.142229
0.125129
0.108117
0.152137
0.035632
0.0555357
0.0168445
0.0505333
0.0704253
0.0622122
0.0763612
0.058794
0.0588396
0.286068
0.206752
0.290653
0.147723
0.0865211
0.0757402
0.0510728
0.0586209
0.160099
0.122599
0.265287
0.158251
0.095131
0.0501533
0.0349046
0.0626102
0.0236796
0.250351
0.0306599
0.0600049
0.0231608
0.0562043
0.0703585
0.0263127
0.0777004
0
0.214665
0.00437998
0.130958
0.0475504
0.0765245
0.0970839
0.0199101
0.0354885
0.0135447
0.22846
0.0809229
0.127659
0.139245
0.175491
0.0838674
0.0539012
0.140789
0
0.409478
0.0570052
0.0701383
0.0801871
0.132489
0
0
0
0.00497929
0.0520296
0.208254
0.160311
0.086937
0
0
0
0
0.0103351
0.155696
0.373275
0.258028
0.0787887
0
0
0
0
0
0.00728307
0.107791
0.283106
0.143829
0
0
0
0
0.00548226
0.0692777
0.549911
0.439772
0.0955606
0
0
0
0
0.00378803
0.110166
0.39676
0.145328
0.00766351
0
0
0.00030308
0.00474522
0.0298787
0.064704
0.287739
0.0630106
4.91838e-005
0
0
0
0
0.0210512
0.199906
0.563195
0.237956
0.00754981
0
0
0
0.0162357
0.136958
0.328936
0.322766
0.0824883
0
0
0.0123574
0.0268678
0.0646331
0.148835
0.0600841
0.133534
0.0314393
0.000342458
0.000950409
0.0562375
0.217248
0.228041
0.110478
0.0164967
0.0126945
0.00570471
0.000205475
0.0122465
0.000242329
0.0492236
0.187337
0.388629
0.209188
0.122756
0.0245625
0
0
0.0131086
0.345179
0.538938
0.207286
0.0159061
0.0273035
0.00963852
0
0.00131728
0.0468277
0.283972
0.259764
0.0523287
0.00131332
0.00152337
0.000652872
0.00210093
0.0220525
0.267889
0.338704
0.167411
0.0523314
0.000346069
0.0027115
0.00116207
0.0147065
0.112354
0.015161
0.306837
0.338476
0.227079
0.0270885
0.0167949
0.000811436
0.00199141
0.00932415
0.126742
0.300638
0.158512
0.263274
0.0308044
0.00674749
0
0.0222394
0.109614
0.38142
0.0961354
0.0184966
0.00618149
0
0.00103119
0.000441937
0.00559289
0.219905
0.395856
0.0117929
0.00288405
0
0
0.00806032
0.0065948
0.0700285
0.454587
0.184284
0.145015
0.0712571
0.0326385
0.00651452
0
0
0.0286236
0.193595
0.293234
0.0875099
0.0654241
0.00766907
0.00947985
0.00968754
0.00603603
0.0247485
0.292263
0.247304
0.0381839
0.00278092
0
0.00826888
0.0748482
0.0653802
0.211324
0.356287
0.0870414
0.0646871
0.0141135
0
0.0545691
0.206595
0.233785
0.184993
0.191456
0.272487
0.12742
0.0286166
0.00623794
0.0697741
0.0855478
0.0408009
0.0456609
0.174243
0.0901369
0.183037
0.00909579
0.0700591
0.275308
0.167751
0.161698
0.144878
0.185852
0.0246677
0.0224807
0.0122572
0.0204829
0.0318179
0.143745
0.197293
0.120544
0.111783
0.0533649
0.00855157
0.0105231
0.0382122
0.0307108
0.162027
0.203281
0.176982
0.0699118
0.0367997
0.0958355
0.00874371
0.0727981
0.136529
0.273445
0.246515
0.188708
0.165947
0.0849169
0.0280735
0.0581383
0.0598252
0.119917
0.507073
0.253463
0.126586
0.0763464
0.0448856
0.00739681
0.00748295
0.0185152
0.0487019
0.12249
0.225234
0.174646
0.0334229
0.0207001
0.00716964
0.00713096
0.00784883
0.0662142
0.0782405
0.275118
0.148039
0.0265246
0.0684087
0.0143915
0.0327515
0.0849836
0.235474
0.311531
0.187632
0.0676361
0.033287
0.0061936
0.00664036
0.0309021
0.0769511
0.46246
0.196483
0.185501
0.0766067
0.00603838
0.0284577
0.00724814
0.0221973
0.00636857
0.149593
0.0528241
0.15123
0.100406
0.0560193
0.0273717
0.0138509
0.0368972
0.00382114
0.345248
0.0396415
0.100882
0.0597619
0.0440575
0.00429272
0.014076
0.0786141
0.0763137
0.415692
0.0858356
0.109939
0.0368727
0.00530915
0.0283548
0.00656324
0.0358613
0.0312814
0.441595
0.0253504
0.0857681
0.0271131
0.0289646
0
0.00967198
0.0619649
0.0131992
0.02007
0.0760642
0.135835
0.0358254
0
0
0.00783441
0.0721291
0.137636
0.20643
0.383546
0.169592
0.0149173
0
0
0.01612
0.246138
0.15996
0.0529705
0.0288067
0.0173286
0.000656997
0
0
0.0130573
0.388964
0.589105
0.242029
0.0951706
0.0144132
0
0
0
0.000690771
0.00976204
0.127995
0.294219
0.192843
0.0437506
0.000495493
0
0
0
0.00543798
0.171246
0.382208
0.0661854
0.0116854
0
0
0
0.00115129
0.0697851
0.434783
0.322605
0.0349651
0.00127752
0
0
0
0
0.00307778
0.328424
0.463819
0.00397178
0.000102334
0
0
0
0.0145827
0.0819106
0.302009
0.249205
0.0203129
0.00550456
0
0
0.00711756
0.0951212
0.219139
0.204515
0.0848806
0.0355365
0.0122784
0
0
0
0.00121766
0.0157405
0.287516
0.567358
0.0092591
0.000662073
0
0
0.00101679
0.0208871
0.0498087
0.206106
0.415785
0.0611257
0.0251025
0
0
0.0142569
0.12016
0.154322
0.232158
0.11741
0.156149
0.0650095
0.00229164
0.00569069
0.0486967
0.157006
0.0957385
0.252477
0.128325
0.133142
0.0781008
0.0274457
0.0585671
0.00201451
0.0759164
0.0785393
0.157088
0.239865
0.233175
0.233009
0.0091553
0.000812956
0.0203699
0.108799
0.112218
0.187562
0.231521
0.289287
0.362327
0.0678342
0.035559
0.110843
0.192221
0.182926
0.0864383
0.0995511
0.0459724
0.0179212
0.0559946
0.0816979
0.151555
0.14703
0.171924
0.0730978
0.134679
0.0601302
0.0113992
0.0344569
0.0907381
0.0498465
0.095988
0.208837
0.149421
0.31659
0.212213
0.116012
0.045709
0.049249
0.0631303
0.216922
0.306926
0.223272
0.250638
0.120443
0.0124009
0.00538154
0.0332172
0.0588672
0.0837667
0.0380862
0.0247219
0.136919
0.0738014
0.0175026
0.0155833
0.0396415
0.0213999
0.0986292
0.0828025
0.16724
0.38879
0.0837747
0.0599849
0.0617054
0.0429519
0.0386601
0.298422
0.112352
0.0654057
0.125413
0.0717135
0.0333595
0.00312547
0.0208597
0.0329647
0.512212
0.24975
0.164646
0.212619
0.0929964
0.0878067
0.0194007
0.00398879
0.00573829
0.0273674
0.0227016
0.0788554
0.149057
0.202401
0.0810004
0.060151
0.0166867
0.0108071
0.013655
0.0151229
0.0228639
0.143485
0.48387
0.0754771
0.0346678
0.00661055
0.00324441
0.0846074
0.0686964
0.0944114
0.200766
0.203909
0.0501492
0.0171143
0
0.00197743
0.00777613
0.032067
0.09365
0.369667
0.51515
0.0628353
0.0218208
0.0050149
0.0116624
0.0170088
0.0121224
0.0483288
0.228808
0.301165
0.043256
0.00340587
0.00313593
0.00123243
0.00924719
0.026565
0.045973
0.40402
0.100755
0.0225607
0.00388496
0.00044799
0.00329463
0.0098839
0.079463
0.138996
0.329839
0.265634
0.0625259
0.0308899
0.0227124
0.000470662
0.00840357
0.0679847
0.0748843
0.491893
0.063144
0.0372553
0.0193213
0.0136274
0.000393392
0.0202085
0.0741718
0.0496744
0.378896
0.0857256
0.0510946
0.00697098
0.000393392
0.010207
0.00684451
0.0266349
0.0148335
0.295076
0.0521466
0.0780329
0.0220517
0.0108033
0
0.0287155
0.089045
0.0114793
0.397894
0.0869871
0.138072
0.0384537
0
0.00468756
0.014061
0.0414112
0.000668356
0.177715
0.0557775
0.29003
0.169596
0.0188842
0
0.0016872
0.0792067
0.153398
0.151613
0.00455032
0
0
0
0
0.00136665
0.146129
0.394617
0.254506
0.00364158
0
0
0
0
0
0.00763541
0.213596
0.324461
0.00500634
0
0
0
0
0
0.0120231
0.359525
0.604375
0.0119679
0
0
0
0
0.000175505
0.0392371
0.361661
0.262139
0.0021326
0
0
0
0
0
0.000988051
0.222323
0.347855
0.0190099
0
0
0
0
0
0.00260477
0.244876
0.524572
0.0216035
0
0
0
0
0
0
0.103096
0.455065
0.121008
0.000560447
0
0
0
0
0
0.1013
0.496071
0.0807087
0.00728305
0.000346572
0
0
0.0296637
0.0195449
0.082577
0.403835
0.106423
0.0355521
0.00242601
0
0
0
0
0.0323519
0.399097
0.292549
0.0923665
0.0115129
0.0044305
0.00289574
0.0434404
0.0483493
0.0883133
0.224558
0.192353
0.283039
0.0687746
0.00738416
0.0219318
0.160073
0.169259
0.1704
0.211482
0.0781812
0.0993388
0.0054252
0.00255805
0.076987
0.128414
0.182978
0.227416
0.165346
0.129737
0.183489
0.0321383
0.0621308
0.0656007
0.166897
0.219028
0.23724
0.153175
0.0824413
0.193485
0.0669672
0.0198621
0.188891
0.129622
0.172447
0.281545
0.131338
0.150583
0.157582
0.0764205
0.15351
0.0912059
0.0519245
0.0739043
0.0938336
0.126574
0.114665
0.0705609
0.0169923
0.122062
0.0988077
0.110903
0.135658
0.157193
0.0759288
0.065397
0.0508224
0.0139284
0.121366
0.278518
0.0597427
0.0282656
0.0845591
0.0454344
0.0869805
0.109714
0.107015
0.363207
0.397691
0.122045
0.0648635
0.0926488
0.0483296
0.113815
0.0917834
0.0916837
0.397629
0.0321454
0.195551
0.0866899
0.0973786
0.0747853
0.0678992
0.106036
0.0556199
0.0344499
0.0164337
0.340855
0.104585
0.0653313
0.0925456
0.132647
0.23911
0.09848
0.0123686
0.108113
0.0959783
0.0817278
0.167235
0.159529
0.158222
0.13435
0.123109
0.0772604
0.0301031
0.060867
0.121599
0.205067
0.313772
0.263536
0.252883
0.19419
0.0435874
0.00187147
0.0545601
0.0257116
0.141805
0.121198
0.0861399
0.0469058
0.0109495
0.000842355
0
0.00561213
0.0481158
0.333205
0.278651
0.135899
0.0135949
0.00672014
0.00480961
0.0147204
0.0325673
0.0989965
0.31488
0.10872
0.0868273
0.0480821
0.0281129
0.0149842
0.00207944
0.0297266
0.116458
0.649874
0.202735
0.0391052
0.00129184
0.00239809
0.00262712
0
0.00728079
0.136573
0.255238
0.228465
0.0811776
0.0285778
0.0228264
0.0247642
0
0.00318646
0.0946772
0.0981581
0.299276
0.0616087
0.0355023
0.0153872
0.0148585
0
0.028221
0.172461
0.378647
0.304317
0.06012
0.0198929
0.0023585
0.00353775
0.000885429
0.00696254
0.156754
0.213147
0.413808
0.0700382
0.0487146
0.00403169
0.00300808
0
0.0143204
0.0756165
0.0566276
0.320933
0.052588
0.0959906
0.0297442
0
0.017072
0.0654184
0.0647217
0.0153458
0.105539
0.00816578
0.166449
0.129263
0.0185794
0.00538608
0.0187225
0.1489
0.207635
0.380924
0.0688122
0.0988356
0.0238469
0.00538608
0.0345265
0.142418
0.221263
0.158021
0.201805
0.00575122
0.0748548
0.0333913
0.0118438
0
0
0.00677457
0.216675
0.179216
0.00351288
0
0
0
0
0
0.00393657
0.296894
0.417899
0.00784011
0
0
0
0
0
0.00555365
0.238387
0.318985
0.0271489
0
0
0
0
0
0.00542005
0.472771
0.466012
0.0238645
0.00280529
0
0
0
0
0.00210018
0.258943
0.472064
0.0258089
0
0
0
0
0
0.00126011
0.113436
0.338731
0.170308
0.00265105
0
0
0
0
0.0039803
0.438468
0.392454
0.0667646
0.0205735
0.000684854
0
0
0
0.00210018
0.177743
0.218385
0.217004
0.0437567
0.00479398
0
0
0
0.00023368
0.0338924
0.231423
0.362314
0.113749
0.0315648
0.017126
0.0111935
0.0330446
0.0269344
0.0439079
0.0588298
0.175624
0.350801
0.201836
0.0285434
0
0
0.00163576
0.0317384
0.163869
0.444821
0.155751
0.0462988
0.0127293
0.00671607
0.00470478
0.018861
0.0341566
0.042407
0.262224
0.279389
0.1978
0.0499039
0.0414566
0.0454742
0.0479591
0.0505522
0.0206387
0.114907
0.193009
0.152554
0.0149807
0.0901158
0.0248341
0.0327688
0.055645
0.0341607
0.155676
0.134968
0.150158
0.155138
0.0215607
0.00721488
0.0146136
0.0204018
0.00693091
0.16912
0.215851
0.301118
0.100483
0.0758106
0.00985984
0.00457949
0.00170767
0.00241753
0.116097
0.14231
0.543228
0.372645
0.15406
0.0111796
0.00313334
0.0140883
0.0102597
0.041354
0.0447031
0.108368
0.274368
0.290334
0.0880069
0.0317715
0.0217086
0.0136903
0.0293679
0.0164964
0.045706
0.269226
0.190325
0.00436665
0.00044762
0
0.000648296
0.0325253
0.032205
0.18792
0.39755
0.473005
0.0753946
0.0411586
0.00957712
0.00305356
0.0273455
0.0249737
0.0220405
0.304906
0.115429
0.0962632
0.0951172
0.079015
0.0482133
0.0330993
0.0131594
0.0193976
0.0403592
0.0705245
0.153088
0.240071
0.132402
0.107442
0.0452297
0.0173086
0.0376601
0.018366
0.332115
0.213927
0.101458
0.0237351
0.00902765
0.00787058
0.00530015
0.0025963
0.0521653
0.197916
0.560147
0.398464
0.0435916
0.0117793
0.00680271
0.00170068
0.00237789
0.00359848
0.0529494
0.203321
0.234357
0.167205
0.0451268
0.0262761
0.00621642
0.019025
0.016493
0.0146363
0.147889
0.233398
0.329663
0.0865337
0.0128645
0.000209401
0.00232364
0.00232364
0.0549219
0.409203
0.373798
0.0541006
0.00594269
0.00244548
0.00061137
0.00232364
0.00232364
0.0272115
0.228645
0.36268
0.166498
0.0226101
0
0
0.000331948
0.000870674
0.00204137
0.0800052
0.245017
0.208825
0.191677
0.0207392
0.00326437
0
0
0.00350203
0.0253208
0.229032
0.162549
0.309906
0.0274546
0.0179777
0.00106281
0.00350203
0.00977946
0.145588
0.425001
0.184831
0.0335453
0
0.00716614
0.00238871
0.00391163
0.0207562
0.0777532
0.354995
0.158179
0.118429
0.0031162
0.0622278
0.0175794
0.0207562
0.0187511
0.0205218
0.158805
0.177811
0.26709
0.043748
0.0573029
0.00980634
0.0187511
0.0311496
0.066683
0.212632
0.145041
0.20214
0.00613815
0.0468173
0.0102739
0.0260605
0.0685256
0.0490845
0.242565
0.152711
0.165822
0.00613815
0.133822
0.0480167
0.0710129
0.115936
0.106212
0.28006
0.0502061
0.0871258
0.000876878
0.11456
0.0533631
0.115246
0
0.000497737
0.00442416
0.136866
0.364131
0.0599502
0
0
0
0
0
0.00280408
0.29257
0.421672
0.0797033
0.00881961
0
0
0
0.00658942
0.186244
0.148818
0.37102
0.103452
0
0
0
0
0.0187497
0.161252
0.211931
0.470175
0.131773
0.00593854
0
0
0
0
0.00142272
0.250888
0.378049
0.201785
0.0984308
0.00277711
0
0
0
0.000424002
0.0700383
0.164864
0.268375
0.163613
0.0194398
0
0
0.031704
0.0820358
0.232679
0.414022
0.189883
0.0750632
0.00166627
0
0
0.00681696
0.0105489
0.183484
0.391163
0.193169
0.118552
0.0116639
0
0
0
0.000803819
0.0219773
0.179808
0.337691
0.206655
0.0445857
0.00327758
0.00102053
0
0.0135884
0.0289629
0.0876896
0.213755
0.226032
0.114182
0.0658108
0
0
0.000895561
0.182063
0.556795
0.16769
0.0961675
0.0148549
0.000468226
0.0180288
0.00397297
0.00817355
0.0417814
0.253958
0.102393
0.134243
0.0832786
0.085463
0.00839015
0.00248492
0.00937319
0.0174074
0.0177537
0.0865952
0.0960408
0.212323
0.150137
0.0931124
0.0173944
0.00106273
0.00197364
0.00184317
0.0380456
0.0482084
0.45967
0.395721
0.043317
0.00965167
0.00763711
0.00197364
0.0264531
0.0391373
0.0482921
0.165936
0.205345
0.14881
0.0351049
0.00109102
0.000281948
0.0011059
0.0154275
0.0160339
0.317693
0.385615
0.194125
0.00493243
0
0
0
0.00851575
0.0084038
0.113858
0.311331
0.513482
0.0332139
0.0106102
0.00230808
0
0.00931068
0.00850313
0.00585591
0.233973
0.201414
0.0202324
0
0
0
0.00139511
0.00212809
0.0842258
0.255403
0.425061
0.0128931
0
0
0
0
0
0.0235108
0.299531
0.435327
0.15874
0.0292695
0.00293616
0
0.00630101
0.00306664
0.00418683
0.114828
0.221986
0.400401
0.204868
0.000419451
0
0.0224953
0.00562382
0.00764725
0.0653976
0.352585
0.0589594
0.00897313
0
0
0.00192817
0.000482042
0.0201631
0.258663
0.189174
0.196378
0.13436
0
0
0.0134972
0.00476886
0.0337455
0.210768
0.0794234
0.359557
0.398585
0.0248003
0.00390723
0.0123686
0.00309214
0.00230081
0.0130212
0.0691603
0.219035
0.368335
0.165414
0.0250762
0
0.0102785
0.00342616
0.00512217
0.0816941
0.232721
0.28459
0.00109292
0.0041158
0.00742113
0.0154342
0.0157558
0.061963
0.0669606
0.182308
0.198207
0.0363688
0.0404193
0.00751787
0.0710822
0.0217842
0.016987
0.0596236
0.130746
0.305889
0.222442
0.0185034
0
0.0433497
0.0144499
0.0400695
0.13858
0.0807648
0.18588
0.0978751
0.028226
0
0.174992
0.0621258
0.143241
0.0895709
0.129611
0.134283
0.0870246
0.0863879
0.013588
0.0928663
0.0288791
0.0631464
0.261982
0.226775
0.116872
0.126375
0.0677872
0.014161
0.111282
0.0762764
0.198574
0.0769838
0.0218165
0.05148
0.0169381
0.021246
0
0.137618
0.122901
0.125592
0.0809831
0.0591387
0.0684596
0.00130289
0.0124509
0
0.107954
0.199063
0.150652
0.133112
0.0663813
0.0267622
0.0284976
0.0388143
0.0254937
0.170027
0.197798
0.183703
0.0417819
0.0318485
0.0226179
0
0.105501
0.0427972
0.437325
0.385503
0.170708
0
0.00707732
0.280676
0.259153
0.17321
0.028625
0
0
0
0.00185818
0.0647215
0.286146
0.227962
0.203378
0.0351757
0.000153937
0
0
0
0.00235224
0.100656
0.299674
0.467912
0.0455258
0
0
0
0.00309697
0.046679
0.129376
0.16982
0.444165
0.105951
0.00627577
0
0
0.0131384
0.171029
0.236694
0.308958
0.249811
0.0371956
0.00515011
0
0
0.00788302
0.0585252
0.0639566
0.324934
0.407552
0.047117
0.0180965
0
0
0.0218973
0.149096
0.160713
0.15695
0.337096
0.123967
0.0383216
0.0116939
0.00528823
0.0131384
0.0683098
0.0668026
0.176692
0.204924
0.11001
0.187723
0.0611235
0.00881371
0
0.00352156
0.00802437
0.232163
0.438718
0.0613537
0.0507219
0.00431729
0
0.0213242
0.0121645
0.0215434
0.0611571
0.218016
0.0417993
0.0691532
0.0287465
0.0400949
0
0.00586926
0.0104491
0.1157
0.226013
0.20239
0.380447
0.0582608
0.00206518
0.0108371
0.00729868
0.012926
0.0493921
0.388072
0.17388
0.177908
0.0211725
0.00806591
0.112752
0.0434861
0.040839
0.0398974
0.0887686
0.00826111
0.0386749
0.0918246
0.235318
0.257038
0.0989746
0.0425124
0.0191174
0.038799
0
0.0197546
0.188307
0.364261
0.0707783
0.0295341
0.0405829
0.0664956
0.409314
0.0362869
0.0319666
0.0121831
0.06139
0.123811
0.0645566
0.116975
0.0636224
0.228882
0.0308535
0.0527394
0.0221374
0.0855802
0.24967
0.0915668
0.0514284
0.0247575
0.0175906
0
0.00588598
0.0931927
0.222538
0.428946
0.0422309
0.0293546
0.0122861
0.00845514
0
0.0050544
0.0658192
0.427427
0.0952144
0.0568384
0.10878
0.071227
0.105001
0.039477
0.0612576
0.047094
0.0547606
0.171764
0.033866
0.0899007
0.0524961
0.059186
0.0334044
0.0836951
0.0726059
0.168616
0.372908
0.0971209
0.020164
0
0.0152264
0
0.00420235
0.0279758
0.32176
0.222472
0.298172
0.133174
0
0.0190305
0
0.0333111
0.0364715
0.206055
0.154386
0.0602243
0.120681
0.0304586
0.0475913
0.00835656
0.0259677
0.0158995
0.131109
0.156436
0.13956
0.189846
0.00435123
0.034891
0
0.0457559
0.0147943
0.114124
0.0764875
0.1809
0.211992
0.00590232
0.0156008
0.0210561
0.0892471
0.0308889
0.0833632
0.034753
0.0661226
0.108101
0.00983719
0.189825
0.0786499
0.213144
0.0549694
0.0286542
0.112198
0.0931723
0.21963
0.0525522
0.0275977
0.0350934
0.0729746
0.0165176
0.103171
0.0336264
0.0574968
0.196012
0.0875871
0.362409
0.0914163
0.153935
0.0381571
0.0336264
0.0178016
0.0318203
0.0593394
0.0316841
0.239747
0.0403434
0.0763208
0.0413751
0.0167927
0.0615051
0.0863027
0.099532
0.118818
0.213455
0.0172316
0.0363046
0.0935774
0.0440208
0.00027792
0.00951841
0.04931
0.0451357
0.448203
0.0438594
0.0701453
0.0560131
0.00676618
0.0150472
0.0145939
0.0815943
0.0684214
0.424296
0.0140907
0.0150768
0.0884606
0.0300671
0.0501591
0.0542655
0.067233
0.03802
0.102006
0.0338048
0.101824
0.107302
0.0539187
0.0180258
0.0685447
0.1204
0.0185256
0.176491
0.137589
0.367489
0.160431
0.0364299
0.037002
0.0512354
0.129368
0.0126262
0.148113
0.00482926
0.0279913
0.0418393
0.0403917
0.0359445
0.138382
0.279805
0.0308761
0.358545
0.0926732
0.0792113
0.0232311
0.0192835