0.0755115
0.0722687
0.112846
0.0558874
0.0394468
0.0830567
0.0762019
0.224495
0.0604582
0.0915239
0.080264
0.0627726
0.0952691
0.0521887
0.0807831
0.141856
0.331756
0.123507
0.0574739
0.107346
0.173477
0.149869
0.0970994
0.130301
0.149778
0.185234
0.0637704
0.138334
0.154987
0.14867
0.101144
0.0728088
0.121398
0.193235
0.247614
0.191888
0.0951161
0.0592699
0.032938
0.0688033
0.0829969
0.0740883
0.0656778
0.099496
0.111491
0.0839913
0.187738
0.0736102
0.138909
0.0758746
0.0952699
0.146858
0.104015
0.0317699
0.132383
0.0763461
0.0713554
0.0423769
0.111271
0.091385
0.0980008
0.185242
0.226857
0.10057
0.302543
0.323797
0.0867435
0.0959267
0.0905666
0.172311
0.202411
0.145468
0.022109
0.0487687
0.0122208
0.0300366
0.0230209
0.0475942
0.0543905
0.0149575
0.00526386
0.0815754
0.149141
0.00658276
0.0251346
0.0453428
0.0447746
0.0614483
0.00825521
0.0171787
0.0578732
0.240708
0.139581
0.0126103
0.0300596
0.0267126
0.0511385
0.0300948
0.0174835
0.199589
0.819147
0.12857
0.0123604
0.0300944
0.0266729
0.0388265
0.00459863
0.017428
0.0810152
0.19282
0.00765526
0.013415
0.0141654
0.00332817
0.0164774
0.00386541
0.00857428
0.201198
0.325426
0.0205338
0.00191643
0.0114334
0.00444831
0.0128546
0.00126829
0.0347525
0.146007
0.554731
0.03273
0.00804899
0.00410061
0.0021723
0.00423263
0.00043799
0.00498939
0.327245
0.513759
0.0116431
0.00114986
0.000127762
0
0.000450628
0.000112657
0.0343286
0.235593
0.118162
0.00662689
0
0.0155632
0.0045487
0.00556645
0.00143997
0.12443
0.265019
0.00840047
0
0
0.00805843
0.00480512
0.00745887
0.0465701
0.369145
0.426658
0.139456
0.000946699
0
0
0
0
0
0.1061
0.473462
0.00720967
0
0
0
0
0
0.0276484
0.402624
0.0947248
0.00349723
0.0028836
0
0
0.000638595
0.00380951
0.0994584
0.353313
0.0851224
0.00991868
0.00651047
0
0
0.00416959
0.011497
0.140601
0.406935
0.141212
0
0
0
0
0.000573338
0.00283815
0.113593
0.439355
0.0581382
0.00233479
0
0
0
0.00401337
0.0749724
0.305351
0.480361
0.0239578
0.00275332
0.00143991
0
0.0041729
0.00848186
0.0144772
0.173306
0.162443
0.00369152
0.00410748
0.0123225
0
0.0164402
0.00875575
0.0154102
0.221409
0.0759023
0.013701
0.00213689
0
0
0.000138647
0.00614188
0.0853269
0.436664
0.183644
0.000373108
0.00254946
0.00673256
0
0.00158613
0.00798432
0.159114
0.718115
0.129115
0.00572274
0.0118865
0.0342551
0.00174337
0.0343713
0.00444493
0.0412007
0.133807
0.049953
0.0244106
0.0442787
0.0700064
0.0466261
0.0502678
0.00141023
0.0310757
0.0246853
0.012777
0.0114878
0.00946044
0.0201339
0.00290562
0.00377363
0.00215062
0.292532
0.73805
0.125497
0.0668394
0.0347722
0.0517967
0.0752797
0.0219439
0
0.135373
0.314473
0.108515
0.117907
0.147667
0.135458
0.127219
0.0711771
0.0346166
0.0341572
0.0981948
0.031786
0.0896422
0.137326
0.0607356
0.0689306
0.117184
0.088733
0.116274
0.228511
0.0412771
0.120927
0.108825
0.13498
0.222407
0.109673
0.0576944
0.0618156
0.20642
0.146745
0.0949868
0.146547
0.134278
0.124094
0.237295
0.161052
0.130685
0.141799
0.0634634
0.0270761
0.0589263
0.074182
0.136702
0.232055
0.0880825
0.064615
0.0997672
0.0430493
0.104698
0.127566
0.0656458
0.0577558
0.160244
0.0420891
0.117149
0.19242
0.128262
0.0203552
0.0798213
0.119182
0.205202
0.202645
0.0772505
0.0998066
0.127401
0.0592623
0.0688686
0.105507
0.0800188
0.236574
0.128658
0.132793
0.2473
0.239028
0.142429
0.0293764
0.0402479
0.0220172
0.00757018
0.0359829
0.0144165
0.0430827
0.0425033
0.044727
0.0264446
0.286484
0.220333
0.0125563
0.0210789
0.0215728
0.0321121
0.0369304
0.043475
0.0268882
0.0748157
0.201008
0.0634627
0.00982394
0.0166528
0.0752631
0.0342156
0.0212323
0.0294853
0.452347
0.667358
0.0836042
0.00300534
0.00545766
0.0234465
0.0111316
0.0151527
0.0201407
0.280804
0.18905
0.00634366
0.00263186
0.00428051
0.00601985
0.00796045
0.00668143
0.0589944
0.465281
0.167574
0.00227703
0.00157911
0.000821793
0.00228536
0.000851824
0.00237301
0.0170517
0.314417
0.300634
0.0371658
0.000270082
0.000541063
0.000231884
0.000545763
0.00522284
0.0584659
0.529181
0.24917
0.0165996
0.000162049
0
0
0
0.00642058
0.065125
0.249286
0.037107
0
0
8.48632e-005
0.000198014
0
0.00308847
0.213635
0.224685
0.00551633
0
0
0
0
0
0.034701
0.0874625
0.468785
0.116851
0
0
0
0
0
0.00232737
0.396454
0.590674
0.0637768
0
0
0
0
0
0.0493178
0.26361
0.0650705
0.000127186
0
0
0
0
0
0.0693825
0.281093
0.00630756
0
0
0
0
0
0.0112025
0.262403
0.462786
0.198354
0.00453944
0
0
0
0.00123647
0.0248163
0.138949
0.457601
0.0443974
0
0
0
0
0.00403761
0.105084
0.446862
0.0777656
0
0
0
0
0.001056
0.00109877
0.0501731
0.274681
0.0233608
0.00463127
0
0
0
0.00739197
0.0323629
0.171009
0.212518
0.118598
0.0148997
0
0
0
0.000633597
0.00141545
0.182716
0.481298
0.0277868
0.00783906
0
0
0
0.00443518
0.041255
0.539921
0.434687
0.0161224
0.00626274
0.00018319
0
0
0.00690143
0.0706564
0.250563
0.0645887
0.00900232
0.00170044
0.00128233
0
0
0.00784581
0.207457
0.424976
0.0332414
0.0196415
0.00519809
0.00128233
0
0
0.00247217
0.141397
0.53883
0.1363
0.0140463
0.00403156
0.00947992
0
0.00715821
0.00380587
0.297558
0.441523
0.030993
0.00298693
0.000618201
0.000564879
0.000174559
0
0.00655828
0.225082
0.311996
0.021624
0.0155146
0.00396883
0.0036776
0.0101536
0.00128211
0.0300442
0.219335
0.22245
0.0354697
0.00120315
0.00155981
0.00466261
0
0.00714518
0.0147735
0.372592
0.239002
0.00492032
0.00141261
0.000507952
0.00101934
0.00253891
0.00128463
0.133191
0.623241
0.245636
0.00425116
0.0161726
0.0121237
0.0160295
0.0397979
0.0252359
0.074563
0.138745
0.122147
0.0374856
0.0229031
0.0419825
0.0380397
0.0439638
0.067747
0.0306771
0.0270253
0.0254948
0.0198572
0.00229001
0.00126116
0.0153373
0.0363335
0.0235384
0.341177
0.709561
0.17417
0.005596
0.0100981
0.0789607
0.170531
0.180708
0.0473766
0.0965548
0.18408
0.0398779
0.00911502
0.00498199
0.0519835
0.0477971
0.108257
0.0369491
0.015374
0.0570362
0.0335106
0.00913137
0.00378635
0.0459062
0.167497
0.176236
0.0494859
0.0562374
0.0813321
0.027398
0.0141168
0.00550946
0.0422594
0.0709333
0.29459
0.135241
0.0262142
0.0330918
0.0119149
0.000297504
0.0006532
0.0437945
0.520288
0.56142
0.131724
0.0146871
0.0300892
0.00412097
0
0.00313597
0.0316234
0.254952
0.0950158
0.00801014
0.0103571
0.0240535
0.00643562
0.00142845
0.00669049
0.116321
0.450035
0.151969
0.00701983
0
0.00337787
0.00106046
0.0034838
0
0.0276805
0.404334
0.237966
0.0281125
0.00293074
0.005943
0.000801936
0
0.00580633
0.0188097
0.461971
0.366532
0.0707383
0
0.00754492
0.00251497
0.00580633
0.0064016
0.0838558
0.20176
0.0458482
0.00288549
0
0
0
0.00467594
0.0193473
0.332391
0.309307
0.0314812
0.00365178
0
0
0
0.0046221
0.00383913
0.0283529
0.412063
0.184727
0.0244331
0
0.00161547
0.000709104
0.00404766
0.00439738
0.194368
0.609352
0.208969
0.101303
0.0031238
0
0.0011943
0.00257302
0.035742
0.379602
0.180948
0.0302456
0.00282993
0
0
0
0.000527013
0.200565
0.425366
0.126632
0.016344
0.000404276
0
0
0.00267808
0.0519057
0.0100776
0.225706
0.305715
0.218798
0.118755
0.00764579
0
0.000395607
0.000558808
0.155644
0.338242
0.355302
0.166821
0.087706
0.00458748
0.00257875
0.0468853
0.0534743
0.27417
0.151975
0.019981
0
0
0
0.0124153
0.114744
0.172891
0.262435
0.0537698
0.00153777
0
0
0
0.0265967
0.310443
0.274738
0.201957
0.148441
0.107591
0.0440474
0.0505586
0.0471444
0.096269
0.252851
0.171777
0.166988
0.0796314
0.0635802
0.0898939
0.0928917
0.0828518
0.155116
0.412128
0.301188
0.18886
0.0622465
0.00380801
0
0
0
0.00559356
0.138885
0.23383
0.106633
0.0294838
0.00228481
0
0
0.000799847
0.0778074
0.370436
0.376013
0.237665
0.160168
0.0897008
0.0761269
0.0331199
0.014556
0.0353308
0.109459
0.221628
0.187838
0.0923048
0.0374816
0.0169282
0.0224961
0.0916325
0.308804
0.282082
0.350233
0.0072631
0.000226305
0.000296095
0
0
0.00839555
0.171779
0.303674
0.100605
0.00114741
0.00107218
0.00293187
0
0.00625627
0.0274342
0.320148
0.233338
0.0102931
0.0137169
0
0
0
0.0392342
0.159949
0.368197
0.207894
0.0921372
0
0.000277589
0.000515522
0
0.0647163
0.296738
0.565168
0.143593
0.00519498
0.000126904
0.00215676
0.00645287
0.00324925
0.0138294
0.0374975
0.313537
0.0895598
0.000993103
0
0.00112373
0.00515213
0.00541541
0.00527231
0.128011
0.469624
0.0735914
0
0
0.00112373
0.00763514
0.0166953
0.0475138
0.304615
0.480162
0.0378462
0
0
0.000674237
0.0104992
0.0278255
0.0477394
0.275389
0.398471
0.0134977
0
0
6.05457e-005
0.0104826
0.0164425
0.0229987
0.219633
0.422613
0.029067
5.35061e-005
0
0.018448
0.102906
0.177477
0.0494702
0.110329
0.146034
0.0043527
8.91769e-005
0
0
0.0068382
0.0156997
0.0391099
0.341271
0.492492
0.0297283
0
0
0.0012992
0.081737
0.246456
0.116538
0.251727
0.287282
0.0167104
0
0.00486223
0.0138326
0.0495193
0.174759
0.0764174
0.0203524
0.00554259
0.000276166
0.00048845
0.000694604
0.0112055
0.249893
0.421924
0.0567556
0
0
0
6.97786e-005
0.00679568
0.0101296
0.104668
0.316295
0.133181
0.045286
0.0255076
0
0.00341915
0.000970811
0.00694585
0.293594
0.607756
0.100695
0.0755714
0.0243387
0
0.00048845
0
0.00766708
0.170171
0.222791
0.0357572
0
0.000823701
0.000274567
0
0.000616337
0.00158387
0.215592
0.389786
0.0778605
0
0.00576591
0.00192197
0.000616337
0
0.00416543
0.128826
0.299814
0.104849
0.0164666
0.00255559
3.92239e-005
0
0
0.000595061
0.16824
0.623208
0.299706
0.0205565
0.000823701
0.00115155
0.00107187
0.00232941
0.00432979
0.362308
0.37173
0.0512167
0.00293465
0.00225226
0.00157104
0.00210702
0.00844949
0.0275028
0.320084
0.269162
0.246243
0.0384597
0.0159995
0.005742
0.00689276
0.00900166
0.00269142
0.187772
0.486264
0.166094
0.0306239
0.000321751
0.0042423
0.0118106
0.0268394
0.0189885
0.0598632
0.163923
0.22616
0.0679573
0.07652
0.022659
0.0200576
0.00251313
0.0331542
0.136531
0.210888
0.278573
0.078416
0.058262
0.00705598
0.00191197
0.0538736
0.133634
0.223756
0.208205
0.254036
0.0594468
0.129257
0.0892123
0.0686358
0.00888078
0.0206213
0.0170754
0.0740295
0.201233
0.11653
0.292465
0.114971
0.00303712
0.0403135
0.0941644
0.0308397
0.0791596
0.146716
0.0884315
0.442201
0.330843
0.204863
0.0734117
0.150858
0.0944988
0.136441
0.142387
0.0628586
0.106034
0.173754
0.108612
0.0501806
0.0924846
0.109124
0.259779
0.239836
0.168524
0.121412
0.129809
0.110479
0.165733
0.243547
0.0387139
0.113361
0.0805789
0.0199594
0.115601
0.179926
0.275443
0.261594
0.157963
0.0722324
0.205428
0.150503
0.185987
0.209411
0.263679
0.107502
0.084205
0.109254
0.11709
0.180567
0.108112
0.0870592
0.0748685
0.0549709
0.107937
0.102473
0.0894416
0.110354
0.141971
0.0930689
0.201009
0.261425
0.143942
0.128643
0.167288
0.047497
0.066582
0.101996
0.0845369
0.166698
0.257637
0.239886
0.0899659
0.18824
0.26739
0.426348
0.208356
0.074329
0.109561
0.122868
0.101974
0.104415
0.0108824
0.0366216
0.0422128
0.110281
0.16305
0.220118
0.239202
0.0658444
0.0217699
0
0.0204355
0.0121792
0.0886926
0.254915
0.364907
0.284597
0.0210499
0.000672221
0.0217331
0.208882
0.34371
0.281519
0.129032
0.063247
0.0249042
0.00405724
0.00977712
0
0.077022
0.126943
0.287576
0.298169
0.146026
0.0415246
0.00069254
0
0
0
0.00137399
0.0202462
0.100915
0.371364
0.218551
0.00263174
0
0
0
0.00228999
0.0192714
0.0897736
0.323687
0.149487
0.0089478
0
0
0
0.00118149
0.0511355
0.304311
0.379611
0.071762
0
0
0.00186463
0
4.97774e-005
0.0517
0.368459
0.450302
0.0617888
0.00261707
0.00186463
0
0
0.000866959
0.0104353
0.0776352
0.280281
0.232302
0.0366125
0
0
0
0.0443997
0.145268
0.257139
0.203372
0.172358
0.0219675
0
0.00280679
0
0.00134984
0.0596043
0.275298
0.300377
0.091544
0.0169027
0.00280679
0.000400971
0
0.0302306
0.360276
0.47548
0.215497
0.0875719
0.0497845
0.000400971
0.0053577
0.00137521
0.0346521
0.182766
0.133663
0.119125
0.120198
0.00223352
0.00665924
0.000765386
0.00103397
0.0843347
0.358217
0.18925
0.203463
0.130186
0.000562639
0.00095132
0.0117819
0.0107621
0.00614725
0.0221513
0.166555
0.188641
0.164979
0.0176093
0.0210275
0.00300965
0.00153744
0.00762214
0.109965
0.496097
0.42558
0.182465
0.00393848
0.00433045
0
0.000536526
0.0327582
0.159848
0.148984
0.0367598
0.00844567
0
0
0.00114094
0.00056562
0.0313225
0.300643
0.42545
0.0648926
0
0.00226886
0.00277305
0
0.00100282
0.0164025
0.0786866
0.265163
0.13472
0.0272419
0
0
0.00798657
0.00509418
0.0166708
0.232928
0.598695
0.27729
0.00852364
0.00136131
0.00166383
0.00996484
0.00941358
0.041025
0.278116
0.276979
0.077358
0.00347832
0.0089452
0.0243149
0.0418455
0.0881192
0.0641039
0.0800894
0.0854225
0.0264943
0.0437834
0.0209631
0.0300887
0.0300613
0.0207252
0.0151636
0.326965
0.411425
0.225156
0.0323926
0.00503951
0.0133398
0.0565125
0.221671
0.318429
0.426873
0.162116
0.0251281
0.0434584
0.0047525
0.0156629
0.0925355
0.102836
0.0566913
0.016853
0.0324825
0.0202041
0.144462
0.103106
0.00451532
0.191707
0.11308
0.0393849
0.00648571
0.00353413
0.0141861
0.19453
0.291331
0.18792
0.157209
0.271631
0.360035
0.169917
0.040552
0
0.0134692
0.0150564
0.014728
0.392055
0.1838
0.224835
0.0506225
0.00671879
0
0.0176481
0.0684369
0.372832
0.120108
0.0967461
0.00494945
0.00609103
0
0.00172698
0.0307892
0.0844674
0.191275
0.128279
0.0592838
0.00492529
0.0105371
0.00397931
0.0317876
0.131682
0.194248
0.190346
0.120861
0.0341624
0.0150244
0.000250391
0
0.000484847
0.00730553
0.0410912
0.456501
0.0620561
0.0144411
0
0
0
0.00339393
0.0524911
0.13701
0.705683
0.10233
0.0603705
0.0121622
0.00338151
0.0050402
0.0357333
0.140714
0.239226
0.140836
0.137663
0.362126
0.190713
0.0312769
0.00363369
0.00917263
0.0322346
0.109763
0.0738588
0.0388314
0.0515732
0.00145272
0
0
0.00655519
0.0951023
0.325084
0.419054
0.0625231
0.240314
0.0280434
0.0217227
0.0210095
0.130725
0.175798
0.425334
0.111155
0.0510763
0.414864
0.444833
0.183022
0.020919
0.00896636
0.000447685
0.0160484
0.0101201
0.00310307
0.0810477
0.201362
0.26126
0.216
0.0409287
0.00577699
0
0.00140409
0.0435572
0.215817
0.106396
0.139336
0.0689205
0.220857
0.102893
0.168969
0.0174363
0.0126603
0.0232802
0.0955528
0.273613
0.196092
0.0594706
0.0113927
0.0177794
0.00982863
0.000268824
0
0.00216686
0.0965736
0.312904
0.0981189
0.00417855
0
0.000268824
0.00600752
0
0.000133645
0.124808
0.441205
0.152795
0.00329443
0
0.00600752
0.00188177
0
0.0355022
0.30973
0.317156
0.0193815
0.00232672
0.00396728
0.00188177
0.0100125
0
0.0285744
0.414972
0.446746
0.0239864
0.00331957
0.00394291
0.0100125
0.00706044
0
0.00282958
0.0800874
0.25201
0.0728089
0.00565221
0.00477674
0.00706044
0.00100863
0
0.0205671
0.328249
0.310945
0.0528539
0.0152332
0.0334371
0.00100863
0.0117674
0.0071702
0.0298727
0.26106
0.263861
0.0151672
0.00151521
0.00238714
0.0117674
0.00168106
0.0119503
0.029639
0.498914
0.486135
0.0470558
0.000842954
0.00477674
0.00168106
0.0109513
0.0234778
0.0185012
0.00769397
0.122328
0.129403
0.0388663
0.0182062
0.0195412
0.00485693
0.00762428
0.00746279
0.00485297
0.26998
0.396499
0.175789
0.0272861
0.00610597
0.0337268
0.0712085
0.060718
0.0590549
0.069458
0.14762
0.0358265
0.0201611
0.0250439
0.00833124
0.0146303
0.0250408
0.00631956
0.172901
0.648644
0.301088
0.0472982
0.00922963
0.000243088
0.00391229
0.0148177
0.0169004
0.141373
0.17844
0.0875575
0.0206611
0.000413734
0.00357388
0.00787851
0.0221751
0.0771643
0.322501
0.442572
0.0727648
0.00652415
0.000689557
0.00170161
0.00857042
0.00568292
0.00504363
0.115394
0.357408
0.148434
0.0381798
0.000689557
0.00283602
0.014284
0.00959785
0.0276792
0.181439
0.540214
0.210109
0.0221711
0.00114926
0.00657456
0.00593234
0.00641376
0.0972886
0.182758
0.266375
0.0610842
0.000401087
7.07801e-005
0.0065897
0.0779844
0.12537
0.283613
0.256827
0.0865155
0.0341815
0.0141339
0.00265582
0.000291106
0.0148996
0.00591919
0.0254185
0.127098
0.400885
0.273227
0.0363449
0.000117967
0
0.0390358
0.0307926
0.0982361
0.338127
0.337088
0.344771
0.131157
0.00502719
0.0331406
0.127536
0.223726
0.201268
0.167219
0.0314973
0.0243757
0.0242379
0.0154674
0.166898
0.0902302
0.171304
0.0709533
0.0788453
0.0225469
0.0144743
0.0330343
0.285451
0.00867629
0.0288236
0.0567427
0.081404
0.245195
0.159671
0.309901
0.226517
0.047797
0.0808482
0.0217934
0.0560295
0.0317462
0.118636
0.0632937
0.156473
0.308085
0.476913
0.0795787
0.0139591
0.014516
8.34135e-005
0.00294167
0.00158397
0.000739014
0.0168996
0.340607
0.0620679
0.00712637
0.00155349
0
0
0
0.00712245
0.0673677
0.527914
0.0779482
0.0119509
0.00532078
0
0.00490278
0.00263996
0.00786046
0.0983007
0.425096
0.122183
0.0338216
0.0159359
0
0
0
0.00889072
0.0683329
0.554343
0.023246
0.00732828
0.014929
0.00392418
0.00602869
0.0470956
0.121828
0.220809
0.31322
0.00560506
0.0152201
0.0202597
0.0357657
0.125482
0.247689
0.29561
0.276774
0.0545296
0.0802717
0.0980434
0.186425
0.0274693
0.0159199
0.0667566
0.0925752
0.0862001
0.30141
0.0245179
0.118428
0.366142
0.23006
0.247666
0.225652
0.16522
0.069647
0.0290529
0.00397844
0.00612801
0.0145562
0.0673912
0.190599
0.200794
0.109406
0.066219
0.00373371
0.00391315
0.000722034
0.0970177
0.221511
0.126539
0.0356642
0.0104809
0.0158284
0.00218056
0.0151812
0.048748
0.207148
0.230603
0.360156
0.138258
0.052854
0.0110657
0
0.0148014
0.0421909
0.586691
0.326473
0.187666
0.0243613
0.00523524
0.00595391
0
0.000955225
4.82663e-005
0.153992
0.353777
0.14463
0.00635134
0.003431
0.00721815
0.00076216
0.00283871
0
0.127039
0.366511
0.200454
0.00596448
0.0125165
0.0118001
0.00283871
0.00135145
0.0139515
0.429679
0.402731
0.0588354
0.00457429
0.00304353
0.00309248
0
0.0168985
0.0194095
0.301135
0.330025
0.0658512
0.0127206
0.012205
0.00708006
0.000813977
0.00285326
0.018352
0.105668
0.208249
0.0945776
0.0134624
0.00461416
0.00436327
0.00285326
0.000407609
0.0305867
0.0678603
0.321994
0.3471
0.0814089
0
0
0.000407609
0.0461703
0.0269244
0.210295
0.222493
0.0720217
0.0235282
0.00411433
0.00261796
0.00222396
0.0277022
0.0250656
0.110823
0.530345
0.462913
0.0638687
0
0
0.00133437
0.0508751
0.0862347
0.0548673
0.0520817
0.0483002
0.0731687
0.0324051
0.0200754
0.0189441
0.00933411
0.0110223
0.0188525
0.00608285
0.207496
0.581034
0.31803
0.042904
0.00815779
0.0498368
0.0643086
0.0639175
0.0383131
0.100052
0.0347921
0.0154039
0.0272978
0.0309959
0.0395345
0.0536862
0.0311082
0.0367419
0.244567
0.391601
0.286087
0.0430993
0.00568387
0.000665936
0.00266374
0.000102717
0.00155248
0.0693912
0.297902
0.202886
0.0293088
9.92765e-005
0.00127468
0.0052429
0.00321332
0.00953207
0.0627207
0.280795
0.238325
0.0490488
0.000330251
0.00720715
0.00899421
0.00262049
0.00496855
0.0524484
0.304521
0.373456
0.0401736
0
0.00161303
0.00202812
0.00535553
0
0.00952516
0.220076
0.556349
0.173876
0.00115353
0.000407745
0.00568219
0.00376543
0.00239039
0.0242468
0.133173
0.29428
0.062057
0.000320617
0.000183211
0.00795326
0.00293793
0
0.0592421
0.141893
0.493299
0.225644
0.00827758
0.00235141
0.00159576
0.00569995
0
0.00196857
0.0373276
0.286086
0.1271
0.00235141
0.00363007
0.0032452
0.00393693
0
0.00199998
0.0153029
0.457443
0.436688
0.0235081
0.000739295
0.000878072
0.000292691
0
0.028735
0.0487074
0.215576
0.233575
0.0820735
0.00918727
0.000207513
0
0
0.0111715
0.011965
0.0720469
0.259392
0.385548
0.00214063
0.00175523
0.00038082
0
0.000581686
0.00232675
0.152114
0.43312
0.119854
0.00743844
0.000232613
0
0
0
0
0.0193707
0.431293
0.438589
0.0197043
0.00127075
0
0
0.000677796
0.000364967
0.00468921
0.147793
0.387674
0.0937215
0.0301579
0.00925699
0
0
0
0.0011905
0.119614
0.451693
0.0606822
0.000359981
0
0
0
0
0.000392169
0.188305
0.44229
0.285755
0.0339781
0.000738634
0
0
0
0
0.129457
0.446507
0.125224
0.13241
0.126097
0.00861571
0.00336496
0.00732329
0.00627881
0.0255386
0.187397
0.0724608
0.259315
0.367958
0.11301
0.0535522
0.0241512
0.00663842
0.00115892
0.0158422
0.324388
0.197467
0.0440852
0
0
0
0
0.0309032
0.161237
0.221804
0.588657
0.224788
0.0147546
0.00166259
0.000184732
0
0
0.0198634
0.0219363
0.173209
0.27009
0.103588
0.0801689
0.0132178
0.00061006
0
0.000166685
0.0118657
0.137482
0.504049
0.0888097
0.0441226
0.00359701
0
0
0
0.0543555
0.454477
0.250508
0.01607
0.00454117
0.000504574
0
0
0.0011668
0.0094232
0.299493
0.403017
0.0269608
0.0033716
0.000302744
0
0
0
0.000487839
0.0592188
0.345416
0.131638
0.0107126
0.00263334
0.00109343
0
0
0.0243581
0.0802686
0.330827
0.131962
0.00726371
0.00937604
0.00252544
0
0.00217108
0.000227609
0.182533
0.408719
0.0283687
0.00216633
0.000334712
0.000143448
0
0
0.00910386
0.224369
0.619456
0.0877195
0.00935095
0.00774171
0.00693223
0.00270645
0.00130265
0.0553295
0.0271619
0.152885
0.110506
0.0870203
0.0179312
0.000896718
0
0.00493162
0.0331977
0.00581216
0.054806
0.371654
0.323102
0.019497
0.000309187
0
0.00295897
0.0206794
0.0543424
0.201843
0.205931
0.19674
0.01826
0.00616299
0.00226162
0.00295897
0.0124077
0.00313036
0.0328625
0.473863
0.530391
0.0251719
0.00126918
0.000323088
0.00177538
0.0840286
0.117754
0.0718755
0.0778302
0.118764
0.0579329
0.00552414
0.0383505
0.0309764
0.224726
0.243692
0.0411195
0.109894
0.202146
0.318589
0.125207
0.0521524
0.00777467
0.0820866
0.0641426
0.0449434
0.0801594
0.10079
0.134937
0.0398634
0.0289372
0.0495457
0.212514
0.207812
0.0595178
0.172034
0.236736
0.325533
0.166326
0.0773399
0.0459685
0.0281239
0.0336433
0.00263339
0.0101044
0.0488516
0.206443
0.233956
0.0251374
0
0.00326508
0.00249815
0.000881195
0.00332008
0.0299892
0.298539
0.533484
0.199773
0.00338729
0.0353279
0.033625
0.0180764
0.0333426
0.0779174
0.134846
0.0961328
0.0257465
0.00994335
0.0225175
0.00930695
0.00447599
0.0270616
0.0747876
0.351799
0.382347
0.192631
0.131859
0.00444796
0.00110615
0.00348784
0.000345489
0.00515774
0.0748407
0.255141
0.207074
0.0102045
0.0109416
0.00895292
0.00478061
0
0.00049845
0.00706986
0.213465
0.390862
0.0518181
0.0214498
0.00217933
0.00040147
0.00241842
0.0114775
0.108899
0.314642
0.265028
0.181735
0.0205624
0.00464351
0.000669116
0
0.000830749
0.0148702
0.296011
0.494905
0.211477
0.00739018
0.00999092
0.00114653
0
0
6.33189e-005
0.0623825
0.375654
0.111638
0.0246653
0.00681611
0.000985001
0
0
0
0.00935494
0.457764
0.384968
0.0106748
0.00948217
0.00106436
0
0
0.0011573
0.06691
0.303347
0.218213
0.0665568
0.0120406
0.00164167
0
0
0
0.00833818
0.258039
0.429959
0.136845
0.00204652
0.000129558
0
0
0
0.000118812
0.153393
0.396054
0.496683
0.0484935
0
0
0
0
0.000831682
0.0370061
0.294322
0.147882
0.00706413
0.00021593
0
0
0
0.000831682
0.0754603
0.344309
0.416456
0.0506358
0
0
0
0
0.00582177
0.0293676
0.243059
0.407747
0.184636
0.00515827
0
0
0
0.000323184
0.00956661
0.0681194
0.303359
0.446352
0.0433126
0
0
0
0
0.00359733
0.0112442
0.358804
0.165548
0.00299811
0
0
0
0.00226229
0.0115567
0.0526088
0.36455
0.350072
0.0433579
0
0
0
0
0.00599555
0.00791491
0.101374
0.315857
0.103619
0.000918444
0
0
0
0.00049427
0.000647438
0.0187403
0.306558
0.321772
0.0071576
0
0
0
0
0
0.189605
0.317962
0.146399
7.25563e-005
0
0
0
0.000823784
0.000145374
0.0561171
0.519847
0.404117
0.000507894
0.00145834
0
0
0
0.00133175
0.000971638
0.243365
0.439542
0.00967197
0
0
0
0
0.000608468
0.00161697
0.176337
0.482042
0.11307
0.049097
0.0011834
0.00774899
0.00329431
0.00101411
0.0132995
0.346578
0.362466
0.00483193
0.00167556
0
0.00064351
0.000214503
0.010926
0.0230021
0.140532
0.222581
0.167792
0.150758
0.0135299
0.00662531
0.00197214
0.0137735
0.000281064
0.0275795
0.0900516
0.243936
0.224918
0.00407518
0.00732325
0.00257896
0.000107443
0.000792316
0.000984972
0.0049795
0.336854
0.477601
0.0278844
0.00915113
0.00216864
0.0155213
0.00468829
0.0163254
0.020735
0.28455
0.322335
0.0496356
0.0181484
0.0119288
0.00178056
0.0207731
0.00868032
0
0.225766
0.418776
0.111055
0.0682511
0.109043
0.120218
0.0503603
0.0452125
0.0273386
0.0174021
0.094061
0.138405
0.0587773
0.0703701
0.0820391
0.157342
0.0618724
0.0738772
0.0677873
0.157769
0.283848
0.202685
0.177665
0.214058
0.110975
0.0912666
0.049763
0
0.0585497
0.0854989
0.0750319
0.137464
0.136337
0.201995
0.137162
0.0918397
0.0795292
0.0441466
0.1265
0.0877249
0.25178
0.268609
0.130056
0.038301
0.0601346
0.0557473
0.0987452
0.124249
0.0640935
0.0539142
0.0923601
0.132235
0.0663646
0.0404261
0.0808914
0.0995834
0.206059
0.223681
0.275012
0.446398
0.162535
0.143506
0.0840371
0.109182
0.0649975
0.0537668
0.014938
0.0541128
0.0909405
0.159287
0.180997
0.076714
0.199764
0.135262
0.0665369
0
0.135224
0.180194
0.0335357
0.00961136
0.00413185
0.0110352
0.00905975
0.05998
0.18948
0.216191
0.322694
0.0675442
0.00160188
0.000686518
0.00414769
0.00261877
0.0391653
0.258734
0.490255
0.41956
0.0295767
0.0160729
0.00783825
0.0598282
0.0301301
0.0549184
0.0665838
0.0868258
0.115847
0.0986178
0.0479773
0.0144614
0.0397158
0.0147912
0.0428933
0.159084
0.173407
0.27908
0.0423305
0.0056264
0.00157643
0.000419033
0.000139678
0.00289391
0.0462906
0.267978
0.351229
0.135669
0.00701533
0.00114143
0
0
0
0.00262861
0.198528
0.534173
0.0747321
0.0724788
0.021326
0.00293323
0.00358382
0.0130488
0.0336234
0.0890292
0.269382
0.173739
0.0805635
0.0153697
0
0.00434346
0.0190783
0.00168273
0.0765432
0.46316
0.172126
0.00367355
4.29125e-005
0
0
0
0.000449285
0.0420113
0.398751
0.37215
0.0767293
0.0017087
0
0
0
0.003145
0.0158733
0.294352
0.148761
0.0435267
0.0072593
0
0.000609961
0.00267921
0
0.0356607
0.437906
0.285277
0.112051
0.0147151
0
0
0
0
0.0718637
0.389632
0.316431
0.280405
0.0159469
0
0.00215208
0.00176079
0.00159477
0.00529831
0.055414
0.313361
0.544813
0.0736713
0
0.0035868
0.00352531
0.0028572
0.00592686
0.0130515
0.212085
0.262808
0.0571606
0
0.0150645
0.0123255
0.00260406
0.0312808
0.0935657
0.166296
0.366077
0.09555
0
0.0251076
0.0246771
0.0200004
0.0307742
0.0364002
0.288929
0.509426
0.156162
0
0.0027933
0.00291519
0.00239605
0.00936431
0.031124
0.103683
0.508939
0.31447
0.00974924
0.0248033
0.00929519
0.00485101
0.00374818
0.0206781
0.130873
0.203553
0.0589967
0
0.00842393
0.0314623
0.0237533
0.0501607
0.0716078
0.0478929
0.0925858
0.116862
0.0443003
0.0474683
0.0413972
0.034886
0.0241413
0.0342326
0.0452981
0.414084
0.261554
0.0406312
0.0347413
0.0176691
0.0136422
0.00199966
0.0393858
0.0697206
0.199204
0.0917585
0.215085
0.334818
0.145656
0.11021
0.067392
0.0557481
0.022794
0.103937
0.133615
0.113032
0.119584
0.0335666
0.0354712
0.00678669
0.0220453
0.0624534
0.0955469
0.0578836
0.0617868
0.312585
0.123987
0.194408
0.11777
0.126605
0.0121281
0.017834
0.00200087
0.156616
0.226142
0.144946
0.135798
0.0937119
0.0173479
0.125786
0.0381449
0
0.0912279
0.163365
0.145571
0.179487
0.26574
0.269591
0.023803
0.00801336
0.00206745
0.0113288
0.0979525
0.0774921
0.20686
0.199965
0.111188
0.299759
0.0396866
0.00472707
0.00473216
0.0191475
0.0466046
0.232465
0.319821
0.385997