0.269771
0.108572
0.0102517
0.0011622
0.0034866
0.0387786
0.125458
0.121457
0.200196
0.345791
0.108093
0.0992334
0.0444769
0.00581101
0.0196901
0.0980261
0.144994
0.387844
0.283938
0.249845
0.0788261
0.0363874
0.0440641
0.0445164
0.0979996
0.130394
0.12627
0.220418
0.113107
0.0635047
0.0357409
0.0840589
0.10842
0.176463
0.263458
0.215029
0.257809
0.137397
0.218557
0.19495
0.097936
0.0212293
0.0501352
0.128658
0.269909
0.208399
0.245607
0.201329
0.19372
0.161291
0.105491
0.0412397
0.0941683
0.252123
0.169098
0.0964613
0.0613076
0.0549723
0.0749884
0.106958
0.169341
0.148896
0.158215
0.191671
0.213599
0.204225
0.0853209
0.0818534
0.117709
0.0555767
0.0495484
0.130849
0.153073
0.151181
0.109035
0.0347712
0.0158223
0.0479754
0.0189297
0.0426754
0.252761
0.273251
0.084105
0.0774633
0.0197469
0
0.144133
0.0653062
0.109872
0.366883
0.184986
0.210668
0.21082
0.0444417
0.00750161
0.0866247
0.0399765
0.014394
0.118355
0.242401
0.315638
0.334797
0.0662597
0
0.261043
0.0675831
0.0312525
0.145096
0.300351
0.10395
0.0303652
0.0250311
0.000488255
0.0903504
0.035986
0.12861
0.195702
0.277673
0.210754
0.0921805
0.0801102
0.000813759
0.00894402
0.0140082
0.158073
0.315348
0.231448
0.25614
0.168389
0.0688558
0.000813759
0.150584
0.0352205
0.0214805
0.0480913
0.337499
0.392263
0.0849917
0.0502733
0.00135627
0.0130463
0.0128045
0.00870457
0.0702053
0.198955
0.169189
0.0394395
0.0239878
0.00684654
0.00445006
0.0292868
0.0939541
0.381857
0.332335
0.306041
0.00605454
0
0.0483726
0.0106067
0.0466962
0.0965477
0.345143
0.170467
0.210423
0.0396831
0.00760419
0.0114109
0.00267004
0.0219132
0.0316296
0.135915
0.137703
0.0778031
0.00564152
0
0.080621
0.0148297
0.062706
0.192437
0.405393
0.219867
0.107079
0.00369101
0
0.0204919
0.0192816
0.0583941
0.151121
0.285562
0.289463
0.126988
0.0262723
0
0.00190384
0.0166668
0.0675618
0.201211
0.222715
0.0669862
0.0155724
0
0
0.0341531
0.032136
0.0837102
0.197307
0.42911
0.108242
0.00913723
0.00313292
0
0.00317306
0.0362595
0.101826
0.314881
0.414588
0.217994
0.120704
0.0268146
0.0049845
0.003323
0.0243212
0.07784
0.21403
0.158714
0.159789
0.110866
0.026809
0.0816341
0.0255712
0.0645701
0.147792
0.292508
0.3012
0.142277
0.0113152
0.00854629
0.0029907
0.0019938
0.080704
0.159304
0.292485
0.201071
0.198503
0.258399
0.140332
0.094092
0.05224
0.12332
0.235062
0.297718
0.127339
0.0376937
0.143452
0.0364604
0.0390077
0.00618519
0.0256225
0.04505
0.0697355
0.106366
0.150743
0.167858
0.138685
0.0394921
0.000187837
0.00355225
0.0122992
0.0512662
0.237748
0.0900735
0.248521
0.11346
0.0465946
0.0583851
0.0426532
0.0449529
0.0951195
0.234399
0.327453
0.278339
0.0866542
0.0119317
0.0735123
0.028469
0.0403301
0.115879
0.614701
0.249786
0.0525922
0.0548981
0.0113875
0.000718543
0.00215563
0.034114
0.0985385
0.176605
0.292187
0.120416
0.038007
0.0102456
0.00786945
0.0212753
0.0904605
0.25207
0.162422
0.40453
0.167
0.0185198
0.00298587
0.0413374
0.0321003
0.0121557
0.112808
0.374095
0.314012
0.154473
0.0313717
0.0540155
0.0640062
0.209846
0.072932
0.189746
0.237281
0.19074
0.22356
0.144543
0.0647616
0.04066
0.0126877
0.0209726
0.0359078
0.030071
0.149382
0.115543
0.106226
0.0360419
0.071875
0.0767057
0.0747555
0.0883094
0.136795
0.300073
0.341576
0.129211
0.153136
0.0205979
0.00515554
0
0.0706704
0.177783
0.424431
0.309304
0.0750261
0.0128709
0.0175576
0.0193865
0.0234088
0.0593807
0.378186
0.15176
0.0465714
0.0376477
0.0418495
0.0575605
0.114236
0.111571
0.0496321
0.144536
0.157593
0.212209
0.198772
0.0697659
0.0586076
0.0622806
0.0374423
0.00885568
0.0350154
0.423182
0.110752
0.0511985
0.0720269
0.0534498
0.0545047
0.0501885
0.0582769
0.343054
0.331107
0.337768
0.331229
0.127742
0.0521518
0.0328421
0.0181572
0.0068286
0.0665698
0.120508
0.252843
0.174208
0.0136772
0.00570098
0.0195597
0.0105837
0.00113297
0.00704038
0.13523
0.398496
0.236394
0.0239719
0.00262356
0.0388631
0.0085639
0
0.00882618
0.0562958
0.345959
0.292944
0.0173869
0.00356249
0.000438016
0
0
0
0.0700538
0.535765
0.254822
0.0110346
0.00437261
0
0
0
0.000998369
0.148893
0.255438
0.123154
0.0364532
0.00304571
0.0175128
0.00247661
0
0.00308399
0.360805
0.232382
0.0399705
0.0276817
0.000579314
0.00139556
0.000799487
0
0.0190374
0.181455
0.427218
0.0767009
0.0193182
0.00491845
0
0
0
0.00458668
0.53102
0.319345
0.0308224
0.0147093
0.000702635
0
0
0.00847405
0.0647691
0.226081
0.0943448
0.0101157
0.00304724
0.00128471
0
0.000763667
0.00856309
0.124221
0.117911
0.0177448
0.000982728
0
0.00907679
0.00148925
0.00822505
0.0947843
0.437973
0.394845
0.0866708
0.00724844
0.00160722
0
0
0
0.00898303
0.221213
0.231402
0.072983
5.74246e-005
0
0
0
0.00410634
0.0546774
0.586613
0.0174918
0
0
0
0.00349327
0.00328696
0.0161879
0.149318
0.320587
0.0184355
0.000640134
0
0
0.000324549
0.0109123
0.034868
0.319953
0.246776
0.0440776
0.0321571
0
0
0
0
0.0126754
0.216371
0.346269
0.00644326
0.00327303
0
0
0
0.00713201
0.10329
0.645853
0.165776
0.0259784
0.000654889
0.00312679
0
0
0.0316444
0.0850357
0.240771
0.0992232
0.0492776
0.0794224
0.0714298
0.00642859
0.0226959
0.0726388
0.263552
0.214301
0.048296
0
0
0.000446684
0
0
0.0120633
0.214831
0.450112
0.0524894
0.0123352
0.00546935
0.00859613
0
0.00319393
0.0500043
0.517069
0.420314
0.0426347
0.0788499
0.109285
0.0772391
0.0103086
0.0961516
0.0758804
0.151592
0.160013
0.112557
0.152392
0.112152
0.0587192
0.036533
0.167439
0.0825695
0.0966008
0.170926
0.300344
0.037064
0.0187152
0.00686271
0.0130307
0.0711118
0.126258
0.444263
0.331327
0.0209478
0.0694155
0.0940848
0.0611437
0.1351
0.229775
0.210896
0.247254
0.231237
0.171059
0.241179
0.117179
0.0434175
0.0345694
0.0996461
0.0730279
0.0527112
0.105844
0.33059
0.209114
0.21542
0.0703551
0.0562021
0.0594071
0.214116
0.10379
0.125489
0.253941
0.086305
0.109008
0.106751
0.13653
0.201514
0.104719
0.0673431
0.0695244
0.214304
0.0935652
0.448182
0.157856
0.108327
0.133097
0.0504405
0.0477507
0.0822582
0.136762
0.164036
0.140024
0.0465122
0.0914977
0.0292954
0.0211637
0.00369617
0.11091
0.303728
0.258338
0.151136
0.0681471
0.133241
0.0257339
0.0120757
0.0376953
0.0841735
0.34084
0.0803588
0.202974
0.0949279
0.119398
0.0895095
0.054227
0.0380732
0.0864769
0.186788
0.0614981
0.191004
0.330547
0.438033
0.152955
0.0224114
0.0721432
0.0392971
0.148015
0.119001
0.0413529
0.0951404
0.153705
0.0632561
0.0291221
0.0426662
0.0626239
0.1234
0.0802121
0.136179
0.27
0.107727
0.036363
0.0174733
0.00609518
0.00714104
0.0167975
0.0116319
0.0545524
0.381268
0.412082
0.117513
0.0193699
0.0331862
0.0252254
0.0315177
0.00527039
0.0718328
0.527758
0.324717
0.0430786
0.010484
0.00365711
0.0025205
0.00572144
0.0177652
0.214185
0.283254
0.0248632
0.000810988
0
0
0
0
0.0578389
0.403984
0.245842
0.0153733
0.00522017
0
0
0
0.000142939
0.0224297
0.16441
0.467594
0.182771
0.0275002
0.00301262
0
0
0.0112347
0.0801506
0.303979
0.353029
0.142333
0.165655
0.0129283
0.00566094
0.00695932
0.0259458
0.179677
0.44067
0.113014
0.0123067
0.00378679
0.000878655
0.000473122
0
0.00822768
0.337254
0.301596
0.0415379
0.00116598
0.000146222
0.00615059
0.00331185
0.0777919
0.164021
0.154866
0.24196
0.249516
0.14111
0.125595
0.0233831
0.0335846
0.0309293
0.0474758
0.240246
0.100876
0.0607316
0.058457
0.0839701
0.201454
0.0844065
0.111577
0.234981
0.241189
0.134925
0.00906719
0.00119061
0.00013229
0.00210773
0.00113493
0.0813199
0.277787
0.237524
0.253741
0.021248
0.00833428
0.00092603
0.000460185
0.00843768
0.03762
0.323833
0.185639
0.0599495
0.00383276
0.02292
0.0545724
0.152808
0.0966954
0.133829
0.399226
0.256632
0.200843
0.0422912
0.125182
0.0868627
0.0723639
0.139212
0.0930528
0.256132
0.0935192
0.0930523
0.0144515
0.00242792
0.00711574
0.000990574
0.0215
0.130502
0.152445
0.0263514
0.0132827
0.0018671
0
0.0148002
0.0341538
0.177793
0.569415
0.120425
0.126539
0.0835959
0.0295322
0.0408687
0.107902
0.0861255
0.0979209
0.0984084
0.044422
0.0704262
0.0381559
0.00388988
0.00748673
0.244973
0.313455
0.266879
0.386869
0.0977956
0
0
0
0
0.00606025
0.0215798
0.226683
0.246368
0.0131319
0
0
0
0
0.00332796
0.031842
0.392821
0.18108
0.0058141
0.00884541
0.00476291
0
0.00139004
0.12288
0.145394
0.294349
0.164213
0.0139717
0
0
0
0
0.0606289
0.166032
0.66047
0.107566
0
0.000675482
0.00382773
0
0.00620496
0.0139123
0.138361
0.296033
0.114022
0.00169673
0.0450624
0.0310427
0.00774397
0.0791
0.10536
0.321048
0.239921
0.0858559
0.119652
0
0
0
0.00306868
0.0139504
0.244973
0.364725
0.0332522
0
0.0264371
0.00254914
0.00440545
0.0362265
0.0535098
0.506956
0.372182
0.0467202
0.0768839
0.0690575
0.0621039
0.0417458
0.134216
0.183311
0.123838
0.0629565
0.101218
0.171091
0.133796
0.287368
0.086154
0.0841405
0.111195
0.00761581
0.0137686
0.157192
0.15425
0.0968284
0.0545404
0.0525459
0.11077
0.10864
0.342321
0.215714
0.121194
0.125583
0.376838
0.291913
0.0943914
0.0762365
0.0609331
0.0657355
0.0479974
0.185351
0.302752
0.0372044
0.0924882
0.0524686
0.141308
0.081135
0.0121863
0.021869
0.0327207
0.0687878
0.00703178
0.055121
0.108417
0.392617
0.21064
0.010314
0.0343647
0.00224439
0.0194686
0.147149
0.106839
0.109693
0.37356
0.069132
0.000736385
0.00294554
0.0112103
0.0661469
0.0147303
0.0187852
0.0747807
0.636715
0.266327
0.00341771
0.00490924
0.000320628
0.0130375
0.00222857
0.0143638
0.121739
0.297804
0.11658
0.00544358
0.00534653
0
0.00222857
0.00371428
0.0111309
0.227284
0.320035
0.0406823
0.00246417
0
0
0.00371428
0.000318367
0.000591574
0.0187103
0.433271
0.198568
0.00703586
0.000763791
0
0.000318367
0.000871113
0.000354944
0.106554
0.637087
0.118317
0.00410695
0
0
0.000871113
0.0138556
0.0325372
0.28417
0.27504
0.0515587
0.0298531
0
0
0.0107606
0.029638
0.0563444
0.156082
0.157673
0.2879
0.182446
0.029863
0.00830106
0.0268496
0.00289658
0
0.158903
0.453659
0.0631796
0.0698348
0.000333137
0.00133255
0.00289658
0.00320188
0
0.0495455
0.0993257
0.235113
0.472035
0.210439
0.049507
0.0183581
0.0288969
0.0361691
0.0886366
0.135304
0.229406
0.188801
0.078324
0.0298441
0.0396723
0.0510778
0.0278385
0.0280876
0.051033
0.205186
0.301684
0.114666
0.0351594
0.0629108
0.0143771
0.00511609
0.00998507
0.0517241
0.221684
0.436643
0.310146
0.176054
0.0941923
0.0793739
0.06362
0.0119709
0.0120871
0.197439
0.337025
0.14983
0.153857
0.126995
0.0671974
0.00976103
0.00373813
0.0355949
0.142738
0.252354
0.20155
0.072249
0.120738
0.0906123
0.0252732
0.0264568
0.122448
0.177886
0.252728
0.236093
0.0975173
0.0897075
0.0615389
0.0528962
0.00395549
0.0349192
0.122292
0.218056
0.193529
0.231016
0.1347
0.0761028
0.0303026
0.0191588
0.0727612
0.135659
0.342629
0.202951
0.355908
0.205134
0.0591141
0.0339264
0.0327829
0.0609987
0.18454
0.17423
0.107579
0.0602349
0.0111407
0.0641981
0.0378034
0.0459364
0.121104
0.442199
0.315142
0.179159
0.0993459
0.0312999
0.134201
0.0808854
0.0329405
0.0655615
0.145026
0.144923
0.0838337
0.103034
0.0621333
0.164661
0.199609
0.271984
0.268062
0.328242
0.0921723
0.102636
0.0308314
0.0683554
0.0144145
0.00645328
0.0254688
0.0787185
0.298628
0.179438
0.14836
0.0419084
0.00780782
0
0
0.0036384
0.0212926
0.188062
0.336128
0.437935
0.0343983
0
0.0255212
0.0519296
0.193943
0.221836
0.233165
0.0601197
0.0329571
0.00835028
0.0170092
0
0.00246192
0.0356768
0.0999952
0.328992
0.369076
0.114686
0.00492772
0
0
0
0
0.0110874
0.0671279
0.273876
0.221062
0.00636094
0
0.000491952
0
0.00136726
0.0243398
0.140959
0.35554
0.179277
0.00633808
0.00934704
0
0
0.000554384
0.0175787
0.286917
0.427392
0.0804441
0.000558146
0
0
0
0
0.0400514
0.41496
0.410812
0.0380913
0
0
0.0344002
0.0168929
0.0432408
0.0289383
0.217696
0.290734
0.14392
0.0626965
0.0371009
0.157435
0.121503
0.0775346
0.0275325
0.107869
0.0763104
0.102718
0.221948
0.149298
0.0405113
0.00023652
0.0500527
0.0250571
0.454026
0.352622
0.0379165
0.0439544
0.0457553
0.139977
0.0717603
0.0962603
0.0165167
0.21081
0.173476
0.180492
0.292168
0.187619
0.23794
0.0787026
0.0514599
0.23187
0.0508735
0.00208024
0.00758849
0.0236576
0.0998158
0.0307573
0.00870559
0.0328323
0.457576
0.273034
0.0145455
0.00108407
0.00775211
0.0237398
0.3105
0.0450469
0.00698141
0.0611992
0.0778162
0.0974478
0.0126475
0.131491
0.304568
0.0287864
0.00416728
0.00390537
0.134969
0.432528
0.245023
0.00180678
0.0681574
0.100682
0
0
0.00318082
0.209656
0.24591
0.0157817
0
0
0
0.00143138
0
0.0307663
0.37423
0.279994
0.013697
0
0
0.00143138
0
0.00215108
0.00408879
0.059403
0.399538
0.129419
0
0
0
0.00137081
0.00129065
0.00776741
0.131168
0.607917
0.199274
0.000383362
0
0.00137081
0.00956772
0
0.0783321
0.414111
0.173459
0.0526346
0.00155847
0.0062339
0.00956772
0.00574064
0.00956701
0.0294928
0.0450811
0.0924825
0.33199
0.284782
0.0996739
0.0145995
0.00916292
0
0.0166379
0.180222
0.490301
0.180607
0.00349759
0.00374034
0.00916292
0.0112189
0.134177
0.20414
0.199231
0.0951397
0.123721
0.0774834
0.0338618
0.00549775
0.0207349
0.0235691
0.0290764
0.0173738
0.0521534
0.216997
0.310264
0.264714
0.104351
0.159314
0.10168
0.0371661
0.0380071
0.0313672
0.0971907
0.0858897
0.204156
0.223825
0.0295821
0.311466
0.283849
0.0972354
0.0170344
0.0924191
0.0966306
0.0881453
0.0339844
0.198253
0.418454
0.149546
0.0744252
0
0.0253939
0.0295822
0.0790146
0.134558
0.157321
0.107355
0.00763731
0.0158941
0.0172177
0.0444084
0.040504
0.201595
0.19968
0.150815
0.0504694
0.0100612
0.00966212
0.0407345
0.0915931
0.0726963
0.386638
0.292994
0.317679
0.187175
0.0191999
0.0184271
0.00662666
0.00284
0.00394411
0.0728988
0.171158
0.360811
0.0523577
0.0149649
0
0.0463866
0.0222384
0.0424527
0.174871
0.340771
0.165012
0.102839
0.0446779
0.016795
0.0257252
0.0287087
0.0284421
0.111843
0.0952962
0.161451
0.376518
0.310293
0.0859223
0.034875
6.44295e-005
0.0244854
0.0465154
0.0383821
0.122261
0.057629
0.0662244
0
0.026052
0.0119777
0.0687049
0.254641
0.165476
0.0526391
0.202434
0.195592
0.00356843
0.024755
0.0559266
0.308944
0.47298
0.0477473
0.0264508
0.15382
0.271521
0.133267
0.0483777
0.00671218
0.0134553
0.0185954
0.0117399
0.000716962
0.00834914
0.0591473
0.104911
0.44512
0.204117
0.0121778
0.0110443
0.000716962
0.0128176
0.0833394
0.111025
0.0131328
0.0338254
0.0942826
0.186551
0.139282
0.00978318
0.00501873
0.00496737
0.0241235
0.213266
0.594296
0.099751
0.0268874
0.0111141
0.00501873
0
0
0.00136003
0.0131553
0.359293
0.167259
0.00457813
0.000648794
0
0
0
0.00229022
0.0357906
0.392175
0.168152
0.00785619
0
0
0
0.000273683
0.00260608
0.129946
0.526624
0.0396261
0.00104317
0.000389276
0
0
0.00191578
0.0145247
0.153543
0.516106
0.043845
0.00291723
0
0
0.0621662
0.00285102
0.0303705
0.0728083
0.411948
0.21003
0.0120703
0.00361702
0.0352495
0.223615
0.108952
0.0811051
0.0529647
0.18286
0.156686
0.0690979
0.0926252
0.186975
0.0516039
0.0182951
0.0258144
0.226308
0.436872
0.0611191
0.0346935
0.00577263
0.0229135
0.23927
0.310131
0.0815953
0.110139
0.186155
0.0714214
0.0548333
0.0840234
0.135989
0.144338
0.0547735
0.0384563
0.0504069
0.0720882
0.140622
0.00494656
0.101124
0.141255
0.00797345
0.00639911
0.00769869
0.0301615
0.286704
0.375322
0.00233628
0.0595016
0.0525394
0.0426538
0.0534226
0.112823
0.147743
0.167158
0.149971
0.0281776
0.0456718
0.024484
0.00259171
0.00700229
0.0222294
0.061619
0.403904
0.599291
0.0654377
0.0236658
0.00785684
0
0.0032324
0.00631137
0.00667574
0.249818
0.19983
0.00192466
0
0
0.00140436
0.0022636
0.00378682
0.00916611
0.317913
0.370693
0.0253695
0
0.000107712
0
0.00449868
0.00886859
0.00276396
0.211143
0.386471
0.0618184
0.00436658
0
0.00216108
0.00323948
0.00532115
0
0.132964
0.569534
0.222012
0.00727764
0
0.00525892
0.00121389
0.00134548
0.0301188
0.190064
0.23895
0.0241198
0
0.000403351
0.0118232
0.0595386
0.15588
0.186222
0.14693
0.0514299
0.00587021
0.00967005
0.000750962
0.00809261
0.00202315
0.00636425
0.0213215
0.144145
0.499802
0.269781
0.0032074
0
0.0166601
0.0131642
0.105368
0.155381
0.471231
0.333828
0.130141
0.0285982
0.00745207
0.0474359
0.217902
0.272975
0.150811
0.105839
0.0315075
0.0108711
0.0410592
0.0036883
0.164766
0.249455
0.0898966
0.0495273
0.0636817
0.023144
0.00631172
0.0341388
0.0582711
0.0539373
0.0489377
0.157185
0.146185
0.411533
0.388134
0.149749
0.108985
0.031984
0.154509
0.074531
0.0770325
0.0526804
0.201063
0.286707
0.137923
0.0699753
0.119497
0.261702
0.0933825
0.0171843
0.00797993
0.0129156
0.00305794
0
0.0133036
0.148287
0.321066
0.021449
0.00338488
0
0.0101541
0.0278138
0.0312136
0.0460358
0.325007
0.325155
0.0302722
0.0462327
0.00703586
0.0464989
0.0478234
0.0327863
0.00571494
0.257298
0.464419
0.0568999
0.0182373
0.00678913
0.0299685
0.0824386
0.0283752
0.0416861
0.370902
0.0687664
0.00346096
0.00695294
0
0.0367212
0.0848303
0.0848869
0.132407
0.132486
0.00630941
0.0071824
0.0153193
0
0.0988095
0.191484
0.361949
0.341496
0.0651445
0.114233
0.0311562
0.0252113
0.0135753
0.0976051
0.267498
0.0634364
0.0526186
0.118251
0.0509091
0.00683164
0.0521971
0.0951439
0.351566
0.429539
0.207016
0.143339
0.18639
0.0022272
0.00371669
0.0150215
0.00694449
0.0912447
0.142906
0.198436
0.10141
0.0128324
0.00125618
0.00240984
0.0680012
0.298517
0.19679
0.0677025
0.0250441
0.0040211
0.00125618
0.0117785
0.0294392
0.0988103
0.0985327
0.357682
0.182563
0.131022
0.0510472
0.0567845
0
0.048383
0.434809
0.504121
0.178197
0.0617431
0.0213822
0.00196666
0
0
0.00117365
0.0335695
0.327165
0.281754
0.0125119
0.000852168
0
0
0
0.00644963
0.0334389
0.314889
0.27802
0.0200608
0.00110244
0
0
0
0.0059332
0.233823
0.483464
0.0821824
0.00540529
0.00271528
0
0
0
0.00386978
0.119338
0.478305
0.10449
0.0380585
0.00924171
0
0
0.0343724
0.0343367
0.0308909
0.284165
0.170818
0.039516
0.0360294
0.0152872
0.00665899
0.183803
0.324242
0.035028
0.0868937
0.0817679
0.0599815
0.0578709
0.0472813
0.0554649
0.11579
0.0301085
0.0728929
0.35145
0.0743938
0.126177
0.0246573
0.0182449
0.014052
0.506458
0.33045
0.149352
0.163314
0.0464488
0.116474
0.0194658
0.0438394
0.0855722
0.00600137
0.0212234
0.0724517
0.144262
0.169819
0.0974093
0.0331035
0.0459286
0.0164145
0.000857339
0.00183506
0.0176564
0.0704278
0.294966
0.527247
0.178682
0.0295186
0.00466682
0.0244355
0.0433559
0.0111318
0.102213
0.0846888
0.126241
0.121557
0.228862
0.147664
0.00116735
0
0.00217762
0.217105
0.176447
0.337493
0.287252
0.213039
0.0825144
0
0.00132326
0.00252874
0.00888865
0.0975462
0.346927
0.157636
0.00894882
0
0.00029965
0.000868868
0.00151724
0.000262425
0.0304409
0.352244
0.273273
0.0111784
0
0
0
0
0.0595379
0.0988139
0.232111
0.358254
0.105953
0.0517891
0
0
0
0.00183698
0.016991
0.191232
0.563367
0.106626
0.00703814
0.000803145
0.000200786
0.00455477
0.00465343
0.0281347
0.219891
0.329522
0.0179735
0.0027214
0.0053246
0.000120472
0.0125387
0.0159969
0.138678
0.224819
0.290396
0.0689145
0.0241854
0
0
0.000650682
0.000532376
0.00319053
0.093678
0.469737
0.110336
0.00453567
0.000691816
0
0.00108447
0.000887293
0.0143806
0.0684243
0.465009
0.384456
0.0441592
0.0217386
0.00062396
0.0157377
0.0251934
0.119421
0.267961
0.2428
0.173032
0.0504774
0.0614715
0.00487207
0.021644
0.0248068
0.043558
0.159884
0.151241
0.148415
0.14915
0.00310552
0
0.00364018
0.00812652
0.00873638
0.0689626
0.285785
0.521732
0.119576
0.0455565
0
0.00566301
0.0132137
0
0.027804
0.11776
0.360334
0.317083
0.190473
0.00403316
0.0155012
0.00442356
0.0131686
0.035058
0.042357
0.0254758
0.271014
0.374415
0.0518356
0.0134392
0.00623376
0.0101229
0.0228774
0.00218459
0.00506354
0.245788
0.208117
0.00100854
0.00104253
0.00243257
0
0.00717069
0.0213777
0.0885356
0.426241
0.431669
0.0623543
0.00884304
0.00126892
0
0
0.00996641
0.0307942
0.357116
0.239054
0.0789358
0.0345926
0.0173626
0.0491729
0.122027
0.00608463
0.00658532
0.0712173
0.223171
0.115076
0.138157
0.130381
0.178666
0.186058
0.0294273
0.0105205
0.148747
0.303474
0.190885
0.0410642
0.00353425
0.00244085
0.0056953
0.0102119
0.0142116
0.0930952
0.270421
0.55956
0.253745
0.025545
0.00777636
0.0108544
0.00972706
0.000625222
0.0267118
0.0298698
0.0824879
0.163419
0.07459
0.113357
0.0378002
0.0260641
0.00189603
0.0285608
0
0.0881164
0.470978
0.177134
0.0519445
0.0127915
0.0127483
0
0
0.0335859
0.24387
0.339398
0.0216496
0.00560267
0.00262859
0.0118451
0
0.00423393
0.00702833
0.186463
0.618609
0.0793657
0.00469162
0.00117093
0.00710705
0
0
0
0.0449866
0.424031
0.276116
0.0161833
0.00202479
0.00134986
0.000979455
0.000326485
0
0.0695779
0.2495
0.280561
0.0493172
0.0666405
0.0113589
0.00685618
0.0022854
0.0174049
0.142199
0.46334
0.222693
0.00767469
0.0317702
0
0.00685618
0.00385349
0.0622605
0.180715
0.27455
0.251865
0.0748825
0.108165
0.00896202
0.0479933
0.0186112
0.0644774
0.0378265
0.0802997
0.149918
0.0625884
0.172451
0.0587436
0.00957283
0.0108233
0.432118
0.193766
0.261195
0.179552
0.0436446
0.131653
0.0741525
0.0297778
0.0743744
0.0320356
0.0708297
0.0855641
0.131865
0.0901643
0.159523
0.118724
0.0557596
0.0650399
0.226024
0.113195
0.305018
0.199137
0.038082
0.130183
0.199556
0.205001
0.290805
0.0918833
0.0391428
0.0430933
0.160825
0.0366546
0.183086
0.114441
0.271865
0.1633
0.0308072
0.00863607
0.0136596
0.187691
0.0680778
0.212068
0.200198
0.273728
0.145588
0.28648
0.229972
0.134788
0.255481
0.112261
0.14591
0.0279899
0.147785
0.124483
0.114183
0.0582885
0.059953
0.307917
0.0720089
0.193497
0.110466
0.140908
0.158017
0.00603585
0.00265164
0.00704129
0.0509209
0.0297063
0.0441513
0.255055
0.172986
0.0792835
0
0.00106615
0.00281618
0.00445868
0.00356118
0.0316656
0.586791
0.234629
0.0101465
0.025867
0.0234053
0.0465936
0.12544
0.0192991
0.0475001
0.158909
0.119077
0.0447792
0.0428494
0.0545796
0.0528366
0.0296469
0.000983783
0.0283298
0.512646
0.288669
0.0516165
0
0.00012544
0.00023296
0
0
0.0125007
0.296048
0.170574
0.00216676
0
0
0
0
0
0.003727
0.172716
0.384209
0.0337984
0.0116714
0.0120362
0.00815334
0.0085795
0.00840879
0.0121771
0.293135
0.373435
0.0790516
0
0
0.00168275
0.00504826
0.0159237
0.026948
0.118368
0.61658
0.110862
0
0
0
0
0
0.00285762
0.0576532
0.388168
0.118288
0.0194683
0
0
0
0
0.00286453
0.0201121
0.220156
0.312228
0.00224974
0
0
0
0.00365189
0.0140822
0.0388148
0.487409
0.18613
0.04277
0
0
0
0
0.000685698
0.0047698
0.265388
0.5094
0.129566
0.00171768
0
0
0
0.000969941
0.00338893
0.0428577
0.270691
0.315555
0.0682366
0.00450438
0.000237072
0
0
0.00624445
0.0202489
0.154449
0.227814
0.00103061
0
0
0
0.000138563
0.000415689
0.0531973
0.420329
0.628937
0.056024
0.000643483
3.38675e-005
0
0
0.000892064
0.00550266
0.244888
0.180906
0.224665
0.0237578
0.000721307
0
0
0.00698938
0.0097269
0.0366233
0.0928786
0.498243
0.128281
0.000432784
0
0
0.000998483
0.000427922
0.00431215
0.402296
0.227201
0.0175186
0.000103044
0
0
0.000998483
0.00138956
0.0858214
0.248176
0.49945
0.102472
6.18263e-005
0
0
0.00014264
6.11317e-005
0.033946
0.0424941
0.376847
0.287008
0.00549171
0
0
0
0
0.00106153
0.0290267
0.339539
0.387712
0.0500413
0
0
0
0.00100027
0.00945144
0.215781
0.370985
0.133105
0.000263935
0
0
0
0.0109053
0.0615301
0.108238
0.324015
0.226004
0.048205
0.00296367
0.026673
0
0.0308943
0.119616
0.0622679
0.283248
0.24415
0.16398
0.00264954
0.0518703
0.0292944
0.0164851
0.0562959
0.189801
0.221133
0.127324
0.216439
0.038727
0.0972774
0.0531947
0.104503
0.104981
0.09285
0.262661
0.142554
0.078063
0.00479865
0.0495217
0.074405
0.0577496
0.176308
0.276545
0.260742
0.206945
0.0764052
0.00126229
0.0219169
0.132931
0.232067
0.264935
0.0924472
0.0677582
0.081703
0.115781
0.031366
0.0261416
0.0382297
0.0539951
0.0867067
0.176358
0.03636
0.158258
0.0837497
0.0367516
0.0885892
0.0997487
0.162058
0.283257
0.257145
0.167716
0.212037
0.121853
0.0584364
0.0157921
0.0157738
0.0659293
0.11343
0.304162
0.195417
0.223101
0.117991
0.182764
0.377897
0.0582093
0.0683827
0.322637
0.256398
0.203011
0.151052
0.164775
0.150938
0.0409519
0.0111831
0.040428
0.0562116
0.136028
0.104926
0.0662171
0.314343
0.134626
0.0785045
0.0721747
0.0488825
0.101407
0.24123
0.144737
0.145828
0.168066
0.15617
0.0258463
0.0460002
0.0888984
0.0687538
0.356083
0.328712
0.0725944
0.221439
0.225656
0.0228062
0.0457163
0.0463613
0.182282
0.101876
0.138896
0.0833427
0.158531
0.03485
0.0417472
0.0757518
0.029437
0.0637111
0.0997904
0.185095
0.118527
0.0444409
0.00913498
0.0814833
0.197397
0.172255
0.127768
0.396565
0.350521
0.081697
0.082403
0.0569837
0.0559669
0.0307035
0.0394369
0.167769
0.191193
0.292596
0.100569
0.0503982
0.101196
0.361952
0.237468
0.104758
0.104403
0.0196978
0.0564508
0.0271772
0.0316895
0.0527378
0.108616
0.133294
0.260381
0.119664
0.00263523
0.0688628
0.0426159
0.0299104
0.0723201
0.145048
0.109808
0.417179
0.0950748
0.012384
0.0866206
0.0238633
0.0405229
0.113606
0.489407
0.223528
0.0674854
0.0330236
0.0185314
0.156725
0.118471
0.0507823
0.0774923
0.396096
0.183691
0.112449
0.0354788
0.0136148
0.0539095
0.0339235
0.0175165
0.0134673
0.0565706
0.0774005
0.338989
0.189695
0.058098
0.0269719
0.00817607
0.00467288
0
0.00133957
0.0437166
0.325048
0.440954
0.0595066
0.145042
0.165135
0.101625
0.0603216
0.0929914
0.0905293
0.116814
0.173113
0.117731
0.164282
0.0942887
0.08555
0.111386
0.0314083
0.201119
0.305158
0.313452
0.166032
0.0208248
0.00425845
0
0
0
0.0199798
0.112178
0.223229
0.433926
0.0361766
0.00709742
0
0
0
0.00179917
0.0337005
0.215628
0.252542
0.201969
0.0584993
0.012594
0.0338467
0.00658749
0.103338
0.17016
0.164674
0.506747
0.17877
0.0828386
0
0.0312244
0.0196579
0.017032
0.12652
0.298354
0.256928
0.056867
0.0114493
0
0
0
0
0.0200273
0.106834
0.281267
0.197023
0.0337722
0
0.00386758
0.00567121
0.00146067
0.011285
0.0892699
0.339228
0.153853
0.0971531
0
0.00928363
0.00584469
0.00211978
0.0849987
0.231314
0.581079
0.210544
0.09771
0.0419334
0.013846
0.0488057
0.0501151
0.0727598
0.315139
0.243705
0.218024
0.0397806
0.00761728
0.0280195
0.0285745
0.00836352
0.0446315
0.172239
0.091078
0.0964459
0.0920853
0.0770685
0.0473139
0.048643
0.00608894
0.0714604
0.173919
0.356774
0.101569
0.0255216
0.0904219
0.0638817
0.242581
0.267864
0.174055
0.365989
0.131542
0.0261202
0.131393
0.127713
0.109755
0.181104
0.245163
0.19955
0.123383
0.0449215
0.0925022
0.0709628
0.0817229
0.0229875
0.0297609
0.0235568
0.0420271
0.0761523
0.169128
0.231781
0.205863
0.0572087
0.0170819
0.0118988
0.0413423
0.0821311
0.0884736
0.153644
0.081838
0.192786
0.188395
0.126761
0.0192563
0.0339354
0.0359466
0.0597137
0.410467
0.548086
0.217375
0.150658
0.142375
0.030061
0.0448064
0.0682595
0.0945965
0.181902
0.188962
0.221685
0.0593636
0.0415091
0.0364753
0.00508787
0.0323536
0.0376582
0.163378
0.24769
0.285504
0.0758561
0.131921
0.214628
0.0234318
0.0502785
0.0844238
0.208912
0.300524
0.238146
0.149131
0.0596233
0.0795995
0.0124307
0.11137
0.0347167
0.0741459
0.155669
0.344325
0.261505
0.133916
0.110042
0.0166833
0.127346
0.146968