0.0954155
0.0615336
0.026932
0.00523048
0.0432989
0.0471302
0.0930417
0.0886937
0.109894
0.148181
0.0670098
0.0160928
0.000747211
0.0980652
0.0282781
0.148596
0.159318
0.141998
0.226673
0.108633
0.0215952
0
0.0703626
0.022439
0.0938915
0.130696
0.263833
0.263202
0.225833
0.105371
0.0759231
0.128078
0.0134634
0.0739788
0.0638566
0.161949
0.106942
0.0326952
0.025987
0.0101769
0.0605838
0
0.039447
0.161137
0.105229
0.105154
0.0498567
0.0861595
0.0329789
0.0340611
0
0.0209563
0.25851
0.152743
0.220422
0.151264
0.0738038
0.0702805
0.0304873
0.0193797
0.0248573
0.151787
0.133295
0.150655
0.0777805
0.12061
0.127748
0.0347058
0.0322995
0.0638249
0.424945
0.193208
0.137708
0.0939766
0.105038
0.0778211
0.0117485
0
0.0507194
0.112309
0.0940519
0.2114
0.13643
0.0426036
0.0634562
0.0836796
0.0166386
0.110375
0.0903023
0.128897
0.111146
0.0431482
0.141317
0.17757
0.0330823
0.00576063
0.108421
0.188522
0.125856
0.182306
0.0571626
0.0880297
0.116145
0.0569109
0
0.227181
0.110578
0.186482
0.0737951
0.0353143
0.0172713
0.00497499
0.120054
0.015068
0.0730869
0.0558336
0.0882782
0.0515154
0.0209733
0.0631828
0.016595
0.0948848
0.00706448
0.132417
0.11925
0.0774764
0.121365
0.0756376
0.0554885
0.0370036
0.0600567
0
0.16601
0.113752
0.179812
0.262437
0.143713
0.165655
0.119187
0.0270407
0.0343834
0.0983751
0.161313
0.387206
0.0269529
0.00916254
0.0385184
0.0247758
0.0213599
0.0174315
0.076386
0.0766467
0.0433861
0.0290549
0.00487722
0.0465691
0.108032
0.234207
0.0941394
0.0773161
0.0564917
0.0483109
0.127368
0.0277823
0.0795736
0.0929827
0.0340423
0.0494773
0.0387642
0.103061
0.252777
0.277843
0.00708273
0.0551769
0.181446
0.184783
0.0501969
0.0543504
0.158774
0.567336
0.00491493
0.00454387
0.0420534
0.072174
0.148966
0.0827709
0.0399011
0.0259659
0.013962
0.0209399
0.0188246
0.0814925
0.0531102
0.0399413
0.0792128
0.0397561
0.0346663
0.0272914
0.101843
0.00045781
0.00595808
0.0430035
0.0938518
0.0656866
0.0648696
0.25045
0.384806
0.0234579
0.010442
0.0130083
0.00472157
0.0220721
0.0952162
0.0867091
0.539645
0.408748
0.0281587
0.0520097
0.125326
0.0651011
0.0675397
0.021994
0.0162028
0.0178965
0.0309199
0.0163124
0.149216
0.142323
0.093939
0.0741974
0.0444742
0.076816
0.0251711
0.00432341
0.0576534
0.0459789
0.0561141
0.0512234
0.045351
0.0314942
0.0458788
0.471525
0.400464
0.0416701
0.0500715
0.0931826
0.101728
0.0946159
0.0940037
0.113179
0.228122
0.123299
0.0158165
0.107865
0.0839357
0.0670357
0.0165245
0.17132
0.139073
0.0424794
0.00483764
0.0432815
0.11526
0.0779337
0.0517665
0.151619
0.155253
0.109067
0.108407
0.0350493
0.024984
0.0484283
0.057059
0.0376089
0.0449553
0.313602
0.139921
0.137481
0.0767815
0.0647437
0.129214
0.0812041
0.0365887
0.23359
0.230263
0.119247
0.181525
0.123213
0.0557362
0.0476038
0.0567243
0.0325503
0.205477
0.0389622
0.0447017
0.0962425
0.0624384
0.0472628
0.0256525
0.055722
0.0422418
0.246418
0.122994
0.12868
0.096425
0.0566945
0.0366503
0.0608965
0.120839
0.0934505
0.30005
0.045681
0.0407838
0.140341
0.0586835
0.0352169
0.109066
0.171674
0.0599289
0.321541
0.0754867
0.134681
0.0916867
0.030388
0.11353
0.0693759
0.0776082
0.0202412
0.05771
0
0.0472937
0.111768
0.177871
0.10856
0.110595
0.124639
0.122889
0.0988068
0
0.0471123
0.0538594
0.1038
0.0268143
0.108032
0.212811
0.176739
0.237024
0
0.0169604
0.0649617
0.0495844
0.0321129
0.103802
0.131878
0.237615
0.398302
0.0214497
0.0374602
0.0980457
0.0974218
0.082543
0.160239
0.142666
0.141375
0.0405342
0.0185845
0.016867
0.0303787
0.0466537
0.0742236
0.166265
0.161875
0.174133
0.089367
0.0309742
0.0511833
0.1384
0.0726241
0.0598517
0.149799
0.160012
0.190448
0.146964
0.0415061
0.0262193
0.0554244
0.0754269
0.245996
0.245137
0.267201
0.213722
0.126867
0.0234605
0.0438472
0.0876783
0.061171
0.0560209
0.0287027
0.0446882
0.045455
0.0315983
0.00214032
0.018729
0.0422526
0.0590388
0.139784
0.16118
0.046573
0.0305357
0.0187316
0
0.0373022
0.0189244
0.0746568
0.233958
0.141756
0.109131
0.035262
0.0222431
0.00030576
0.00647843
0.0412562
0.0747159
0.402206
0.630512
0.195829
0.0237305
0.00821059
0
0.00238371
0.00869103
0.0697966
0.0931223
0.173743
0.0421598
0.0194694
0.0115075
0
0.0242746
0.0126422
0.0336032
0.187408
0.163594
0.0704837
0.0160111
0.00164392
0.00397501
0.00848372
0.0364745
0.141276
0.267817
0.474823
0.146055
0.0117852
0.00464665
0
0.00182586
0.000608622
0.0108543
0.36128
0.408502
0.238061
0.00154888
0.000663807
0
0.0269067
0.0644179
0.0876366
0.116369
0.0258846
0.0155481
0.0105129
0.00342917
0.00660991
0.00322789
0.0352052
0.170493
0.201606
0.0176735
0.00310354
0.0136706
0.00808711
0.00429571
0.00507758
0.0417638
0.369708
0.276511
0.0995652
0.0434628
0
0
0
0.0185336
0.0617483
0.194968
0.407648
0.0408402
0.00122347
0
0
0
0.00426286
0.0440474
0.594756
0.0760386
0.0139307
0.000228572
0.00280659
0.00276542
0.00301572
0.0073319
0.113017
0.285819
0.00809453
0.00305838
0
0
0.000551533
0.00820509
0.0162393
0.378367
0.303366
0.133226
0.0232178
0
0
0
0.00797846
0.016764
0.125661
0.402268
0.0237494
0.0053819
0
0
0
0.0331765
0.0756433
0.507884
0.298807
0.00402979
0.00268653
0.00147807
0.002745
0.00124311
0.00211038
0.0124262
0.303527
0.118314
0.0051732
0.00589398
0.00686983
0.00774074
0.00566394
0.0140323
0.0413943
0.223225
0.0426838
0.00233505
0.00191049
0
0
0.000723446
0.0235125
0.0587174
0.538038
0.113922
0.00104871
0.00284216
0.00264383
0.00527623
0.00297297
0.0366434
0.284407
0.585059
0.0519392
0.0122872
0.0248215
0.012869
0.0227535
0.0093947
0.0634449
0.0594335
0.132549
0.0460804
0.0211218
0.0294906
0.0201246
0.0246387
0.0657392
0.0403379
0.037168
0.0785789
0.0608462
0.00384168
0.0134915
0.00652133
0.0353771
0.0153291
0.0715533
0.603842
0.48617
0.0320195
0.0104716
0.0075869
0.0046276
0.0253842
0.131484
0.0788221
0.275983
0.125117
0.0300236
0.019252
0.0357154
0.107532
0.084229
0.213769
0.0383091
0.0492716
0.0824571
0.0400922
0.0261575
0.10328
0.183832
0.0505374
0.167285
0.024994
0.101055
0.0569781
0.0184783
0.0750279
0.0305041
0.0317624
0.0294228
0.262591
0.0863404
0.170302
0.105112
0.0854745
0.208541
0.227025
0.067135
0.0176537
0.0797915
0.0852626
0.139778
0.165623
0.182996
0.0175739
0.0549554
0.174146
0.234919
0.120179
0.00973807
0.00385082
0.00799359
0.013845
0.0447634
0.0511787
0.0761293
0.260379
0.257281
0.0445404
0.0223282
0.037639
0.0745929
0.0296292
0.112879
0.269501
0.265923
0.0458052
0.0681665
0.0269558
0.0256066
0.0300503
0.102157
0.127587
0.154886
0.28638
0.141842
0.0376425
0.0388088
0.0290779
0.096492
0.0326689
0.0288142
0.0175892
0.0579481
0.094294
0.0377618
0.0185005
0.0180396
0.0360498
0.0787422
0.0972999
0.141877
0.158386
0.102142
0.0166172
0.00978108
0.0081994
0.0125659
0.0290156
0.0267697
0.0514549
0.234947
0.133026
0.0254805
0.0247613
0.0094535
0.0247302
0.010992
0.153457
0.30539
0.675465
0.155706
0.0116644
0.00697633
0.000890225
0.00387781
0.0459556
0.0771669
0.103474
0.030201
0.00676383
0
0.00037851
0.00246021
0.00470665
0.0876062
0.209732
0.191047
0.0117457
0
0
0
0.000470885
0.00388768
0.00265237
0.175326
0.203881
0.141765
0.0138396
0
0
0
0
0.0321973
0.438138
0.69957
0.0375666
0.00437774
0
0
0
0
0.10636
0.176607
0.0831006
0.00102196
0
0
0
0
0.00133438
0.261422
0.240295
0.0594663
0
0
0
0.0106236
0.0168815
0.011306
0.106863
0.345879
0.447937
0.0304657
0.00489957
0
0
0
0.000164851
0.372518
0.454174
0.229161
0.0433667
0.00293974
0
0.00393845
0.0394142
0.0125871
0.290175
0.102611
0.0147319
0
0.00234501
0.00156334
0.0109562
0.0271948
0.0588155
0.360996
0.0342115
0.00215115
0
0.00390836
0.00260557
0.00252
0.0259286
0.367153
0.325646
0.187431
0.0533107
0.00555126
0.0164151
0.0109434
0.00997991
0.0782852
0.0548971
0.324526
0.0962435
0.0232297
0.0011149
0.0273585
0.018239
0.0110387
0.148784
0.510974
0.0918217
0.00443111
0.00021691
0
0.000463942
0.00349477
0.00852051
0.0898386
0.311263
0.0136278
0.00343477
0
0
0
0.00945253
0.0408473
0.275518
0.196095
0.0943832
0.0159604
0.00270947
0.000132345
0.00324759
0.00250915
0.0171682
0.195817
0.520434
0.0715532
0.00982289
0
0
0
0.00215651
0.166195
0.491248
0.322825
0.0055712
0.00455825
0
0
0.000634987
0.0187011
0.0825427
0.279671
0.0794007
0.000795886
0.000651179
0
0.000626749
0.00224884
0.0375295
0.305132
0.280316
0.0223714
0.0264942
0.00690794
0
0
9.07125e-005
0.0417196
0.370998
0.407517
0.0868679
0.000477531
0.000390707
0
0
0.0128872
0.142597
0.510457
0.208935
0.0197347
0
0
0
0.00187385
0.00566851
0.0489834
0.358043
0.142197
0.0020278
0.00260134
0.000352062
0.0015745
0.00252278
0.0245046
0.091376
0.262339
0.0349228
0.00311249
0
0
0
0
0.0272144
0.157471
0.457159
0.0834578
0.00251162
0.00382003
0.00591284
0.00700538
0.00387567
0.0174779
0.199071
0.618528
0.0524974
0.00037162
0.0282542
0.0172554
0.030148
0.00967746
0.0293878
0.0504304
0.0863896
0.011165
0.0209823
0.129049
0.0693318
0.0420097
0.00843486
0.00730243
0.01821
0.0142554
0.0478657
0.120524
0.037372
0.0726673
0.182547
0.0812196
0.01529
0.103211
0.396084
0.0381673
0.00415294
0.474976
0.329362
0.385648
0.142408
0.00855522
0.00685506
0.0254702
0.025487
0.224417
0.00921183
0.117725
0.19543
0.0956774
0.0207981
0.0582656
0.0491477
0.0388098
0.0168938
0.0294599
0.110044
0.157153
0.222212
0.0809844
0.0213817
0.0198613
0.0592744
0.0300768
0.00686683
0.0471064
0.0846611
0.0522093
0.0424533
0.10784
0.22456
0.200797
0.0762301
0.0154384
0.09463
0.219061
0.4763
0.117502
0.042759
0.107042
0.194392
0.0214191
0.00314508
0.00605693
0.0600472
0.200483
0.0473068
0.00111071
0.00319616
0.00613285
0.00339499
4.93779e-005
0.0230005
0.192285
0.456212
0.0565049
0.000666427
0.000674203
0.00012953
0
0.00128871
0.00847253
0.111698
0.285679
0.1155
0.00928131
0.00136195
0.00884937
0.00117164
0
0
0.292764
0.580858
0.191901
0.0148003
0
0
0
0
0.060925
0.126388
0.163103
0.0172991
0
0
0
0
0.00257136
0.253419
0.440473
0.125733
0.021113
0
0
0
0
0
0.0155184
0.143941
0.416161
0.0745724
0.00098233
0
0
0
0.00212547
0.133065
0.265273
0.542159
0.137495
0.0029347
0
0.000585268
0.00175581
0.0242119
0.258963
0.47262
0.146494
0.0407299
0.00186833
0.000207592
0
0
0.115075
0.237899
0.25361
0.151362
0.032043
0.0130783
0.00905622
0.0546455
0.024936
0.00600908
0.126347
0.192249
0.351414
0.224654
0.0577952
0.0299933
0.00313824
0.00232309
0.0751221
0.077299
0.103922
0.268556
0.202865
0.172112
0.163277
0.044901
0.0439529
0.12294
0.15184
0.0855337
0.0262231
0.0293044
0.0148155
0.0428241
0.15498
0.097121
0.10397
0.088741
0.0838259
0.0353124
0.0339291
0.0147538
0.0585966
0.280864
0.489011
0.14199
0.0833976
0.155956
0.0611338
0.145191
0.0782088
0.161216
0.086069
0.128712
0.0863909
0.0879112
0.355771
0.23156
0.210473
0.102084
0.086721
0.131262
0.213769
0.0893113
0.030736
0.0206619
0.0175961
0.00503262
0.0072309
0.0179525
0.162664
0.468573
0.129312
0.0297968
0.00348592
0.00178521
0.013272
0.102264
0.202677
0.293185
0.311516
0.0504221
0.0872716
0.106019
0.148723
0.130533
0.138945
0.0202405
0.134944
0.195269
0.0639941
0.0740056
0.0464732
0.140665
0.204782
0.290549
0.102828
0.213162
0.20689
0.0206542
0.00462739
0
0
0.00963153
0.114577
0.305729
0.121538
0.0363036
0
0
0
0
0.0231612
0.166532
0.446375
0.0476079
0.00687774
0.00729933
0.00476759
0.0165229
0.0547522
0.142073
0.215421
0.205093
0.0617982
0.0628985
0
0
0.00236041
0.0160356
0.134771
0.393477
0.522731
0.0335087
0.0264943
0
0
0
0
0.0337405
0.143405
0.334144
0.0415155
0.00156988
0.00357611
0.00451629
0.00383857
0.0118787
0.0163662
0.176785
0.433142
0.0531624
0
0
0.00122195
0.00285123
0.000751768
0.0683823
0.460537
0.338395
0.0312946
0.00428181
0.000510872
0.00787553
0.0300624
0.0247616
0.0758122
0.379792
0.228142
0.0244471
0
0.00907778
0.0183296
0.0633426
0.113988
0.0177287
0.0691748
0.144596
0.0120489
0
0.131601
0.140807
0.25879
0.248207
0.0158532
0.00709369
0.0116571
0.000732248
0.0372133
0.00109091
0.0134089
0.0647844
0.269172
0.0830466
0.12429
0.0848749
0.00202408
0
0.0225114
0.0655636
0.250813
0.713028
0.134623
0.0112448
0.00845201
4.07834e-005
0.00296335
0.0206321
0.0107696
0.0156561
0.0366992
0.0692841
0.058232
0.108881
0.104192
0.0414192
0.020299
0.038147
0.0488035
0.319185
0.190555
0.061979
0.0643395
0.0849769
0.0178854
0.0509014
0.0188807
0.023486
0.0616386
0.0916092
0.0554153
0.0423535
0.106327
0.0485528
0.0370718
0.00438164
0.000635698
0.547356
0.38828
0.103866
0.02849
0.0227573
0.038153
0.00120926
0.00410477
0.024872
0.159997
0.141314
0.0111568
0.00125147
0.00273334
0.000572024
0
0
0.0705144
0.34922
0.289013
0.0111758
0
0
0
0.00280706
0.000471482
0.00752972
0.267498
0.198228
0.0148561
0.000502328
0.000238406
0.00268919
0
0
0.0147545
0.383461
0.612035
0.0310497
0.00113565
0
0
0
0
0.0420914
0.364568
0.157204
0.00100249
0
0
0
0.00137515
0.00951144
0.0356843
0.415123
0.18752
0.00814105
0
0.00369057
0.00566867
0
0
0.0041098
0.257872
0.499926
0.0128962
0.000276911
0
0
0.00404027
0.024362
0.00957385
0.243446
0.418826
0.0114923
0
0.00441913
0.00656264
0.00432804
0.0167806
0.0258076
0.204416
0.264608
0.0948639
0.133486
0.0371968
0.0113141
0.0776146
0.0183678
0.0113996
0.109929
0.198443
0.174914
0.431976
0.169395
0.0977781
0.0479007
0.183278
0.0543707
0.135584
0.176383
0.0334706
0.116074
0.0496123
0.0207704
0.115909
0.300416
0.0564134
0.126527
0.0942724
0.0350972
0.342929
0.220396
0.129048
0.218206
0.037069
0.157338
0.0228802
0.063145
0.0433936
0.173011
0.0828625
0.139544
0.235943
0.0763046
0.394403
0.125278
0.164153
0.115517
0.0362258
0.0216478
0.0905011
0.216646
0.111644
0.0557891
0.0326298
0.0190948
0.0100952
0.136813
0.163611
0.228271
0.327499
0.09224
0.150932
0.0340598
0.0360428
0.105295
0.0773304
0.145472
0.346915
0.117804
0.10452
0.113593
0.117864
0.163112
0.204197
0.0324401
0.0398433
0.045865
0.119655
0.148541
0.188242
0.245446
0.213191
0.181937
0.0438595
0.0684573
0.0689422
0.184138
0.142565
0.115908
0.0445475
0.0421074
0.148981
0.10016
0.0715559
0.136998
0.152854
0.289303
0.500122
0.17693
0.0548815
0.0865547
0.0970921
0.0440985
0.0677574
0.0113238
0.0316284
0.131899
0.146322
0.188269
0.0822307
0.0472307
0.0193541
0.0244917
0
0.00212124
0.0307724
0.0692516
0.329213
0.379685
0.155482
0.0112792
0.0111498
0.0131156
0.0904782
0.279014
0.133703
0.120197
0.029053
0.0148459
0.00497959
0.00591693
0
0.00952403
0.0678143
0.194105
0.592108
0.179142
0.0056035
0
0
0
0.00281287
0.00656338
0.0093513
0.194678
0.401515
0.0800461
0.00303946
0.00133393
0
0.00920015
0.0486507
0.048775
0.136828
0.247017
0.0424139
0.00097354
0
0.000446464
0.00168773
0.00393803
0.168861
0.561156
0.215297
0.00344039
0
0.000446464
0.000744107
0.00345745
0.0628696
0.220389
0.381551
0.163618
0.00299121
0
0.000744107
0
0.0113148
0.0484679
0.219166
0.130639
0.0543742
0.0172792
0
0
0
0.00785074
0.0453388
0.508039
0.225465
0.0072044
0.00243728
0.0016913
0.00121422
8.83334e-005
0.00187082
0.0519609
0.338595
0.274755
0.0368986
0.00119107
0
8.83334e-005
0.00748074
0.00161877
0.00860782
0.437053
0.381866
0.0298786
0.00889761
0.0118391
0.0371411
0.0211596
0.00748902
0.0101211
0.0468196
0.0574672
0.0940721
0.036391
0.0685612
0.0311981
0.0109418
0
0
0.411122
0.331452
0.187166
0.0434169
0.013491
0.0123844
0.0110919
0.00425901
0.00853256
0.0188756
0.130736
0.178084
0.0843008
0.0664129
0.0223955
0.0151172
0.0225718
0.00335831
0.13959
0.353508
0.293643
0.198467
0.123437
0.0807152
0.00146883
0
0.0122984
0.23988
0.149964
0.090455
0.0299702
0.0101646
0.0022924
0
0
0.0291738
0.250889
0.541395
0.16611
0.0569096
0.0173505
0.00137262
0.00614955
0.00457663
0.00371461
0.0575074
0.0792632
0.152984
0.173301
0.139124
0.0488379
0.000878508
0.000219627
0.0660329
0.0728188
0.221379
0.339521
0.28509
0.176335
0.0223121
0
0
0.00548587
0.0684653
0.42358
0.110246
0.01104
0.00218145
8.89982e-005
0.0015951
0.0293561
0.0323478
0.0968951
0.426128
0.1078
0.0107671
0.00377449
0.00128544
0
0
0.0294415
0.0188226
0.190076
0.321513
0.133559
0.0230352
0.000622987
0
0.00826678
0.0336665
0.0459892
0.39809
0.373534
0.22389
0.0676238
0.00923648
0.0529058
0.169573
0.136381
0.150456
0.181477
0.0290692
0.011595
0.00630748
0.00447104
0.126544
0.252315
0.172337
0.169298
0.0440384
0.0166896
0.0517952
0.0454619
0.0781489
0.0230047
0.0413513
0.155802
0.245597
0.375612
0.176172
0.0978892
0.111565
0.013159
0.118369
0.0658152
0.24472
0.406113
0.121713
0.116776
0.0546462
0.277242
0.067998
0.0826389
0.0663341
0.0361973
0.0372895
0.0101546
0.0189154
0.0661614
0.106746
0.175388
0.0752642
0.0168562
0.0209932
0.0187272
0.000300218
0.0419084
0.0724251
0.250076
0.278606
0.127397
0.0390535
0.0544286
0.0814985
0.0342235
0.0451314
0.0518789
0.336178
0.242123
0.0815637
0.0585523
0.0177604
0.0465463
0.0529102
0.0497716
0.0838729
0.529756
0.415746
0.0703927
0.0433975
0.0465339
0.0128734
0.00330528
0.074452
0.10488
0.182243
0.126505
0.0444035
0.0904006
0.171087
0.0599113
0.0957265
0.166521
0.197713
0.11015
0.0588812
0.0445729
0.034548
0.0261318
0.0751977
0.129302
0.208424
0.161122
0.275016
0.135457
0.0203523
0.0125293
0.0194214
0.217794
0.500692
0.373173
0.217025
0.0801673
0.0473096
0.00136304
0.025574
0.0766466
0.0655074
0.107865
0.0757054
0.0406051
0.0126983
0.00520138
0
0.00292389
0.0273762
0.365228
0.292109
0.031734
0
0
0
0.000133951
0.00925882
0.0848526
0.163983
0.294061
0.0996763
0.0365556
0.007619
0.00439083
0.000112002
0.00742368
0.304506
0.643915
0.163375
0.0174139
0
0
0
0.00106176
0
0.00878524
0.331096
0.278386
0.0188801
0
0
0.00106176
0.0017696
0
0.0253294
0.279599
0.271627
0.0234906
0
0
0.0017696
0.000947009
0.00588913
0.13329
0.528101
0.140282
0.00052257
0
0
0.000637055
0.00124773
0.00353348
0.0336893
0.378936
0.335652
0.0358788
0
0
0.00106176
0.000316956
0
0.0277403
0.383568
0.291573
0.0178802
0.00328179
0.00144321
0.000316956
0.0133327
0.00534538
0.012724
0.273171
0.303146
0.0511493
0.0257906
0.0304637
0.0640001
0.00354554
0.00302324
0.0126074
0.459895
0.365831
0.0506638
0.00541904
0.00404674
0.000190174
0.0363774
0.0685771
0.0415478
0.297762
0.187811
0.0320744
0.0436192
0.0590979
0.026575
0.0124131
0.0252712
0.0650368
0.0423502
0.113319
0.14121
0.0832331
0.08161
0.0375592
0.061569
0.105543
0.0866019
0.0765057
0.180879
0.175074
0.131583
0.147819
0.104452
0.0288929
0.0546145
0.19379
0.143834
0.192214
0.13569
0.0795288
0.0749847
0.0781844
0.19813
0.286202
0.251351
0.186782
0.101457
0.11827
0.0905085
0.0643617
0.177033
0.0269206
0.0245204
0.0144237
0.0198449
0.0891211
0.107256
0.150073
0.151266
0.0646517
0.00585384
0.00166297
0.0351139
0.0391737
0.210391
0.36255
0.28811
0.164629
0.0254653
0.0584409
0.114677
0.0923622
0.0986317
0.177098
0.065098
0.046535
0.0302555
0.0507616
0.0224075
0.0290681
0.0466131
0.140588
0.420676
0.249721
0.255944
0.171043
0.0422345
0.00240903
0
0.0126718
0.00642666
0.0455233
0.220277
0.190718
0.0279998
0.00268033
0.00425011
0
0.00442795
0.00477208
0.133759
0.276424
0.406786
0.143582
0.0426425
0.00559044
0.000530459
9.36105e-005
0.00975761
0.0503404
0.114929
0.233413
0.114855
0.0140837
0.00708351
0
0
0
0.0108924
0.121214
0.499102
0.428828
0.0536466
0.00934771
0
0.0222909
0.0658409
0.129478
0.1433
0.13928
0.166832
0.067263
0.0316295
0.00351406
0.0404898
0.140132
0.052411
0.117695
0.0757594
0.303882
0.144227
0.0227526
0
0.00081425
0.00490014
0.0118776
0.0949504
0.359261
0.360654
0.0985
0.0859129
0.00486174
0.00135708
0.0169303
0.00946405
0.101202
0.291491
0.328761
0.405134
0.0490493
0.00995718
0.00740952
0.0276025
0.0129097
0.0285312
0.0481921
0.281557
0.191561
0.121917
0.0678685
0.0145166
0.0319622
0.0422229
0.0135579
0.0230364
0.218713
0.308468
0.0791845
0.013325
0.00293231
0.0127771
0.00180684
0.0174106
0.053419
0.199077
0.455671
0.268982
0.0443153
0.022188
0.0206118
0.00594144
0.00124577
0.00339445
0.104204
0.529871
0.0956344
0.0839463
0.0624379
0.0871697
0.113584
0.0963799
0.0481734
0.0682039
0.10658
0.0297282
0.102969
0.0885265
0.243482
0.291508
0.152983
0.0725551
0.00703166
0.00833131
0.315585
0.17074
0.108811
0.02815
0.0160435
0.0111234
0.00519569
0.0333807
0.191925
0.208055
0.537306
0.330988
0.0791204
0.0565472
0.0265575
0.0535395
0.00530849
0.0132937
0.0072793
0.0792261
0.157864
0.1122
0.139491
0.0285972
0.0215849
0.00093418
0.000306975
0.00130893
0.0655395
0.47497
0.247602
0.0398865
0.00490146
0.00253562
0.000133454
0
0.0613825
0.351766
0.291602
0.0449333
0.0292984
0.00728814
0.0303547
0.00155697
0
0.024295
0.230702
0.52631
0.137921
0.00663189
0.00105731
0.00422604
0.000222424
0
0.00536445
0.0480641
0.275169
0.293527
0.0577571
0.00118007
0
0
0
0.030598
0.023589
0.063145
0.252835
0.350914
0.045783
0
0
0
0.0149267
0.0785922
0.379535
0.20103
0.0256893
0.0082605
0
0
0
0.0503013
0.0275051
0.180299
0.358303
0.418702
0.06515
0
0
0
0.0146748
0.00844016
0.013298
0.307215
0.330843
0.0412533
0.00109553
0.00103914
0
0.0326995
0.0942859
0.0295632
0.238209
0.105304
0.015629
0.0290933
0.0278254
0.000576355
0.0206268
0.00928716
0.0274361
0.472472
0.487102
0.0290865
0
0
0
0.0148693
0.078328
0.0346348
0.310802
0.198596
0.050288
0.025578
0.0144966
0
0.0788227
0.0202896
0.0463711
0.0401296
0.129354
0.0636709
0.0559707
0.109498
0.136179
0.204963
0.12038
0.0717434
0.0393838
0.0251767
0.025138
0.0782871
0.160971
0.322662
0.214771
0.028317
0.00227301
0.00327177
0.0303191
0.0124367
0.0668719
0.212153
0.208977
0.214349
0.0277469
0.00608888
0.0203872
0.0327141
0.0216957
0.122468
0.372503
0.264721
0.123742
0.128269
0.097867
0.0694648
0.0747183
0.010531
0.0476174
0.0404124
0.183964
0.0733066
0.0626189
0.107915
0.114453
0.170511
0.0978895
0.342779
0.251876
0.124783
0.146494
0.037396
0.0648958
0.142902
0.0512384
0.0110915
0.0824242
0.105502
0.148228
0.0869028
0.0329068
0.187887
0.318967
0.0794598
0.0234051
0.232248
0.205078
0.126104
0.00860007
0.00206888
0.00745881
0.00789042
0.0154107
0.0625298
0.249926
0.169826
0.0207861
0.00385038
0
0
0
9.45699e-005
0.0597963
0.461851
0.381549
0.0236632
0.0192748
0.00595362
0.0311535
0.0336867
0.00841275
0.0383557
0.183584
0.210944
0.0222423
0.00771519
0.00282737
0.00945352
0.00153366
0
0.104727
0.409942
0.389328
0.0133142
0.0134754
0
0
0
0
0.0272054
0.342282
0.252932
0.0572128
0.0554812
0.00584795
0
0
0.000488218
0.0283649
0.281886
0.336198
0.415967
0.038463
0.0100694
0.000824
9.15554e-005
0
0.0331784
0.206936
0.208589
0.0596653
0.0726722
0.0206059
0
0
0.00341752
0.0204822
0.0791302
0.270567
0.405311
0.116941
0.0131462
0.00279831
0.00839492
0.000399883
0.00412272
0.030354
0.121861
0.395833
0.39751
0.0265315
0.0136319
0.0139915
0.00134756
0.000228505
0
0.0443404
0.324598
0.125009
0.0112932
0.000399758
0.00119927
0.00279918
0.0112913
0.00424765
0.0911111
0.379862
0.460059
0.0405699
0.00194741
0.00199879
0.00943294
0.00159953
0
0.0229891
0.27697
0.382978
0.119865
0.0514169
0.00209312
0.00142644
0
0
0.0250203
0.0798297
0.240363
0.437079
0.201053
0.0040375
0.000416277
0
0.00535884
0.00288157
0.0222829
0.437404
0.11163
0.00673256
0.000299017
0.00998511
0
0
0.00777414
0.068464
0.315336
0.356057
0.0777808
0.0024225
0.00155394
0
0
0.000371361
0.0591405
0.0621495
0.386526
0.227784
0.0145393
0.000588022
0
0.00545521
0.000287117
0.00656161
0.0531111
0.269444
0.354214
0.0726198
0.00188735
0
0.000779315
4.10168e-005
0
0.0624324
0.383849
0.202146
0.00670345
0.000352813
0
0
0
0.0148922
0.0349451
0.430562
0.335876
0.0138735
0.00297745
0
0
0
0.00181184
0.0180971
0.0625358
0.258735
0.0957581
0.0499276
0.00288413
0
0
0
0.00676706
0.0119067
0.118309
0.376408
0.352991
0.0220955
0.00190652
0
0
0.0196395
0.144887
0.19184
0.0638125
0.115154
0.00473004
0.000353957
0
0.000683841
0.00325704
0.0224469
0.0514657
0.389548
0.542259
0.0986051
0.0471478
0.0372455
0.00134703
0.00420348
0.00194843
0.0102313
0.444143
0.392062
0.0258398
0.0104329
0.00353464
0
0.0105142
0.0171632
0.0120636
0.19347
0.182519
0.0607367
0.0196443
0.029816
0.0012253
0.000209259
0.000148855
0.000888779
0.331417
0.378398
0.135492
0.116828
0.162903
0.0249763
0.00328824
0.00104198
0.00202734
0.0761237
0.0995638
0.078525
0.100789
0.312344
0.138978
0.0719861
0.00713206
0.000282333
0
0.000336992
0.0151098
0.125199
0.237872
0.0808399
0.0400599
0.00477014
0.00207904
0.0187114
0.0554702
0.0609002
0.117238
0.243373
0.0613565
0.0107412
0
0
0.0205252
0.00409745
0.062871
0.211234
0.451609
0.0506844
0.0018556
0
0.000297006
0.00267306
0.11634
0.225152
0.194791
0.413142
0.0597236
0.0324261
0.00453077
0.0276724
0.151655
0.147979
0.09094
0.0527222
0.0999368
0.0272217
0.083549
0.0195683
0.0857017
0.283037
0.194566
0.0634431
0.077341
0.109928
0.0630714
0
0
0.00156803
0.0312107
0.272196
0.285933
0.127831
0.184837
0.0327218
0.0963004
0.0158741
0.00637257
0.0512297
0.203654
0.188565
0.216571
0.300198
0.0634978
0.109258
0.0446488
0.0797522
0.0742964
0.0456543
0.0600942
0.143445
0.17513
0.0501829
0.0832765
0.0407959
0.074857
0.0224264
0.00855792
0.260424
0.369867
0.457383
0.0585116
0.131244
0.0374698
0.0367958
0.0251349
0.0587497
0.0564857
0.162767
0.147321
0.0424287
0.132965
0.0514136
0.0766158
0.0395396
0.0695734
0.121379
0.149604
0.161547
0.0875766
0.0545122
0.0251858
0.00576185
0.00155209
0.000644146
0.0544658
0.127277
0.271404
0.123919
0.104941
0.0386682
0
0
0.00252109
0.0141793
0.0333752
0.316483
0.518525
0.0503706
0.0326057
0.0139943
0.0201756
0.00735737
0.0254211
0.0407575
0.113054
0.152443
0.133894
0.0429948
0.00325869
0.0108727
0.000367766
0.00102634
0.0246212
0.161069
0.483409
0.122433
0.0124109
0
0
0.00176463
0.00705855
0
0.0895602
0.397234
0.452521
0.0931055
0
0
0.00594663
0.00100836
0
0.0198135
0.297287
0.172938
0.0129822
0.0112901
0.00127653
0
0
0.0113072
0.0480911
0.298453
0.463057
0.0811912
0.0284299
0.00212756
0.0102796
0
0.0049211
0.0110386
0.194075
0.431546
0.177631
0
0
0.00607483
0
0
0.0037254
0.0680052
0.366162
0.421751
0.0489985
0.00392074
0.00107419
0
0
0.000653849
0.0413646
0.390791
0.114805
0.00873739
0.00229589
0.0178835
0
0.00113004
0.00800492
0.0503423
0.295009
0.247978
0.0183242
0.00984911
0.0107436
0
0.0107631
0.00816466
0.0240666
0.116536
0.552991
0.233717
0.0149352
0.000786064
0
0.00265038
0.0125885
0.0145777
0.0343272
0.487966
0.289495
0.0256128
0.0162307
0
0.0044173
0.0240183
0.02299
0.0997711
0.231739
0.0564561
0.0255207
0.0113503
0
0.0193626
0.0386849
0.028914
0.0363435
0.108222
0.0826024
0.0447915
0.0251049
0
0.0161978
0.111434
0.0704266
0.0210016
0.127886
0.108322
0.0980624
0.154051
0.0227787
0.0115741
0.00585507
0.00732216
0.00352242
0.0136756
0.0306814
0.226151
0.527185
0.279078
0.209707
0.232072
0.0261154
0.0174272
0.0247965
0.0653112
0.0646125
0.0627789
0.0136652
0.02916
0.0707901
0.0444667
0.011317
0.0192889
0.0263658
0.0458894
0.110054
0.111276
0.204545
0.37736
0.128778
0.00357055
0
0
0.0453505
0.0982919
0.0943923
0.103546
0.249588
0.112881
0.0621611
0
0
0.00511303
0.00875294
0.0196732
0.0457335
0.312896
0.407899
0.0204856
0.0030575
0
0.00137021
0.0101194
0.0239164
0.0601162
0.225122
0.23306
0.224897
0.000289618
0
0
0
0.00105029
0.0078211
0.147709
0.585959