0.178033
0.36196
0.062213
0.0328196
0.00901685
0.0318229
0.0309384
0.083236
0.0673496
0.124007
0.277901
0.149297
0.0977269
0.11529
0.0688421
0.0202972
0.0333597
0.0368822
0.312028
0.165101
0.0206103
0.00689356
0.0272886
0.024992
0.0812152
0.239785
0.143195
0.419001
0.322407
0.21719
0.0764924
0.0660185
0.0108282
0.0125453
0.113351
0.21383
0.0668148
0.174901
0.140364
0.0804007
0.178114
0.0667696
0.0637607
0.0674633
0.0250979
0.140228
0.136688
0.0653966
0.0502286
0.102449
0.0720295
0.156449
0.113087
0.114671
0.234398
0.347045
0.388234
0.199237
0.163421
0.0233048
0.0268476
0.0569909
0.11245
0.132652
0.28225
0.181289
0.21228
0.231945
0.086574
0.155782
0.0980191
0.051258
0.117681
0.0577041
0.0555628
0.0488729
0.0295659
0.0411455
0.102183
0.0459627
0.093201
0.154706
0.152216
0.0805536
0.0804432
0.10592
0.057029
0.148815
0.0838344
0.228461
0.116196
0.257747
0.182781
0.108276
0.0414125
0.0406828
0.0925268
0.0229388
0.0343714
0.141294
0.645724
0.319961
0.13736
0.0149168
0.0191399
0.0645782
0.026513
0.0826526
0.141274
0.212356
0.0876681
0.0543762
0.0409881
0.0109188
0.0366936
0.0532641
0.166767
0.28211
0.18191
0.0840202
0.087695
0.0202335
0.00160991
0.0395769
0.0855036
0.123376
0.184434
0.477511
0.100691
0.0274385
0.00585545
0.00260495
0.0124875
0.00602606
0.0577925
0.517068
0.341963
0.0223587
0.00757317
0.00265849
0.000229987
0.00436974
0.00652742
0.0619918
0.248933
0.0760869
0.0167845
0.0426151
0.0100267
0.0363844
0.0207391
0.0858157
0.215568
0.124441
0.0693246
0.00466028
0.0357424
0.0764141
0.091077
0.0409542
0.144933
0.281792
0.355896
0.106282
0.000844495
0.000882053
0.00104982
0.000536761
0.00168901
0.047597
0.237515
0.128663
0.0242797
0.00130708
0.0123182
0.0106502
0.00524265
0.00229713
0.196716
0.638651
0.0412786
0.0261502
0.0485211
0.0738441
0.073379
0.0349026
0.027351
0.12882
0.101798
0.108866
0.0349246
0.104944
0.0999126
0.051034
0.0844685
0.0520324
0.104514
0.078352
0.0341257
0.00697905
0.0247521
0.019145
0.0104489
0.00352321
0.00865848
0.246832
0.528668
0.167376
0.0186673
0.0435997
0.0536145
0.0168189
0.0303366
0.0492756
0.305761
0.581736
0.0973413
0.0926178
0.0501338
0.0448572
0.0650146
0.113409
0.0938793
0.0559398
0.0428814
0.371399
0.200274
0.0710728
0.00444376
0.0306051
0.0344088
0.0760086
0.0493185
0.121379
0.177384
0.0772036
0.0185095
0.0538083
0.0208044
0.0449794
0.175295
0.322031
0.243705
0.466386
0.169068
0.0681209
0.00740627
0.0105902
0.0205583
0.198393
0.331486
0.0768781
0.298804
0.168946
0.101489
0.0162874
0.00169512
0.00321065
0.0254902
0.0282275
0.176734
0.125388
0.208538
0.235088
0.177757
0.0405156
0.0200273
0.0430578
0.0382937
0.152583
0.37958
0.123131
0.102745
0.0610831
0.0232037
0.00962527
0.0472969
0.0794826
0.0894829
0.310381
0.170739
0.144243
0.243659
0.0323892
0.00298725
0.0400956
0.0395463
0.399788
0.0829686
0.0898511
0.144243
0.119366
0.0809597
0.0516806
0.125662
0.043597
0.0769892
0.252847
0.341072
0.090849
0.0512628
0.0603011
0.0656988
0.231449
0.119619
0.200447
0.206315
0.101419
0.0781483
0.0961045
0.0897432
0.0347624
0.135981
0.0995729
0.291272
0.204911
0.224961
0.0526301
0.0390437
0.148811
0.0678756
0.285292
0.261383
0.225876
0.275989
0.0263683
0.051729
0.0155379
0.102219
0.0605677
0.0619813
0.174558
0.180462
0.425609
0.152223
0.251773
0.0969073
0.109944
0.0177653
0.0147834
0.0778323
0.257986
0.0934367
0.0951435
0.128797
0.0664423
0.0844251
0.0520444
0.0517942
0.141963
0.214943
0.175224
0.135037
0.291792
0.269531
0.119772
0.0711691
0.0558698
0.0629619
0.190249
0.0809887
0.114935
0.213372
0.129942
0.0468334
0.0130678
0.00291068
0.00312387
0.0424788
0.033377
0.207991
0.251247
0.159663
0.056739
0.0134751
0.015319
0.00388976
0.00628848
0.0341592
0.0453301
0.267868
0.343687
0.0529369
0.0859763
0.0119684
0.00246246
0.0144305
0.0287376
0.248109
0.52272
0.411407
0.0240233
0.0429624
0.00447417
0
0
0.0327928
0.216427
0.242904
0.0767356
0.0104928
0.00376509
0.0113939
0.00051321
0.000821627
0.0445514
0.375492
0.279337
0.0498778
0
0.000256161
0.00145158
0
0.000117375
0.0281907
0.336365
0.391107
0.0991434
0.00263628
0
0
0
0
0.0148378
0.442542
0.354024
0.0217103
0
0
0
0
0
0.0883854
0.411691
0.0821496
0.00566909
0
0
0
0
0.000395167
0.352122
0.27979
0.00886882
0
0
0
0
0
0.0278465
0.0561946
0.482813
0.141984
0.00156031
0
0
0
0.00176527
0.00640798
0.37529
0.347025
0.0428076
0
0
0
0
0.0418966
0.112891
0.271946
0.0571886
0
0
0
0
0
0.00743497
0.157003
0.11441
0.00529707
0
0
0
0
0.00027457
0.0813056
0.503996
0.364239
0.0697008
0.0042585
0
0
0
0
0.0331995
0.235096
0.246238
0.0725179
0.00161462
0
0
0
0
0.0911692
0.529889
0.0118608
0
0
0
0
0
0.000894187
0.147966
0.360406
0.03153
0
0
0.00469964
0.00117491
0
0.0180868
0.277204
0.397437
0.0616284
0.0208194
0.000198687
0
0
0
0.00854062
0.25252
0.320995
0.0104703
0.000505421
0
0
0
0
0.129965
0.55329
0.217387
0.0317812
0.00528686
0
0.00478048
0.00119512
0
0.0804699
0.307532
0.148709
0.0690489
0.0177265
0.0109633
0.000682925
0.00958104
0.0265295
0.246412
0.330481
0.037281
0
0
0
0
0
0.000811535
0.23622
0.38368
0.0573606
0
0.000338666
0.001016
0
0.00564618
0.0504024
0.584424
0.276911
0.00692201
0.0736816
0.0262236
0.0484225
0.018755
0.0429261
0.0820826
0.162407
0.0810431
0.0227955
0.182022
0.0661155
0.0526575
0.0563027
0.057966
0.086483
0.0405353
0.0749993
0.234448
0.00586344
0.00560939
0.0159625
0.00320288
0.0371189
0.217781
0.606944
0.0894852
0.0191455
0.242087
0.0484593
0.0899027
0.0171016
0.068552
0.250938
0.320419
0.207089
0.213839
0.191967
0.0420512
0.00711344
0.0237777
0.0389865
0.0337477
0.117038
0.153015
0.241356
0.150932
0.0831762
0.0098047
0.0150271
0.0791852
0.072024
0.311355
0.141932
0.0702343
0.505406
0.111423
0.0831063
0.0199153
0.0383556
0.0610169
0.104935
0.181546
0.185142
0.346183
0.16562
0.0635965
0.079198
0.101481
0.105435
0.255549
0.0776444
0.0733776
0.115367
0.113156
0.112565
0.0397691
0.0256118
0.0149343
0.0119314
0.0475077
0.121282
0.0823678
0.197111
0.278653
0.274081
0.0497808
0.0238542
0.0155227
0.0138536
0.0681956
0.190198
0.0766421
0.0954419
0.116307
0.120619
0.100228
0.0224741
0.0220149
0.136348
0.0625434
0.213744
0.471349
0.447798
0.256626
0.0984632
0.0201725
0.010373
0.0715379
0.0134298
0.0302567
0.234426
0.299387
0.0172888
0.0226114
0.00314764
0.000488247
0.00409939
0.0027476
0.0443993
0.372884
0.293925
0.00621528
0.0112989
0.00117669
0
0
0.00766162
0.0495537
0.377917
0.378623
0.0590528
0.00508086
0.000896622
0
0.00497984
0
0.00412734
0.421501
0.320703
0.0153511
0
0
0
0
0.00591686
0.137284
0.390305
0.0900632
0.00214121
0.000530793
0
0
0
0.0134488
0.313037
0.320745
0.0291353
0.00557332
0.00371555
0
0
0
0.00273219
0.0286701
0.536594
0.153404
0.021544
0.00496821
0
0
0
0.026005
0.155117
0.396786
0.170697
0.147721
0.0399865
0
0
0.00779622
0.0389252
0.476228
0.226781
0.0412898
0.00380855
0.00253903
0.000256287
0.00670016
0.0165201
0.179362
0.283588
0.088242
0.00799298
0
0.000573802
0.0126962
0.167028
0.23018
0.0706378
0.278483
0.163698
0.248351
0.191154
0.0610362
0.00935864
0.0130886
0.0536376
0.113708
0.152053
0.0656703
0.0552413
0.124471
0.144116
0.123918
0.185825
0.242082
0.207609
0.12648
0.014593
0.00177473
0
0.000566096
0.0114069
0.138294
0.300629
0.281671
0.277978
0.0337204
0.0101346
0
8.08709e-005
0.00612532
0.0529951
0.326945
0.102823
0.0858981
0.0155294
0.0170199
0.106305
0.161914
0.128426
0.145503
0.339223
0.219792
0.248013
0.0591139
0.0715987
0.15715
0.153258
0.0994002
0.0712248
0.245437
0.120604
0.0600187
0.00748374
0.00261244
0
0.00578804
0.0249925
0.155541
0.163165
0.0324636
0.00211383
0
0
0.00405703
0.0163524
0.245731
0.539938
0.107401
0.124419
0.0796093
0.0166311
0.0182871
0.050154
0.092501
0.131909
0.125183
0.0764294
0.0323906
0.0116482
0.00146977
0.0053646
0.142525
0.244116
0.361578
0.435511
0.077953
0
0
0
0
0.00764439
0.00849907
0.29123
0.243203
0.0088623
0
0
0
0
0.00836833
0.0436898
0.438552
0.124244
9.87343e-005
0
0
0
0.00371858
0.14787
0.122623
0.342786
0.176042
0.00770393
0
0
0
0.000531226
0.0990465
0.216967
0.576078
0.0794368
0
0
0
0
0
0.00628637
0.118286
0.411738
0.0422356
0.0104732
0.0897519
0.0213673
0.0627909
0.0237313
0.0209675
0.151597
0.37848
0.102588
0.0991696
0
0
0.00170759
0.000426898
0.0475103
0.229592
0.348637
0.0188414
0.00124507
0.0182943
0.0195536
0.0283873
0.0587622
0.170784
0.430022
0.385147
0.0307573
0.0176282
0.308222
0.120283
0.0905287
0.0418691
0.034705
0.0542954
0.0841069
0.0511032
0.0768214
0.279118
0.143578
0.0539867
0.0721633
0.0625906
0.137357
0.107166
0.0240737
0.0877234
0.193967
0.111785
0.0658776
0.156631
0.264602
0.302465
0.125737
0.0166164
0.0290041
0.270092
0.120082
0.0380999
0.131092
0.253392
0.400248
0.200989
0.0481235
0.0627225
0.106647
0.0525654
0.0391724
0.0811973
0.0543271
0.0439208
0.016365
0.0259102
0.122673
0.0210754
0.0578685
0.128952
0.471112
0.217201
0.0548162
0.014842
0.0146469
0.0383703
0.262878
0.105536
0.0411212
0.0671557
0.0139151
0.00381211
0.00233786
0.0414129
0.284419
0.118354
0.0908919
0.128172
0.604723
0.133164
0.00635351
0.00212029
0.0269529
0.103422
0.00214031
0.0141367
0.135722
0.433767
0.110794
0.00604196
0.00106623
0
0.000801434
0
0.000779236
0.192322
0.346718
0.0373804
0
0
0
0
0.0123719
0.0109334
0.0422112
0.519022
0.152339
0.000863137
0.000152318
0.00056138
9.9067e-005
0
0
0.0594258
0.474983
0.198502
0
0
0
0
0.000516996
0.0101422
0.370613
0.316735
0.0411955
0.00855765
0
0
0
0.0132446
0.033308
0.225713
0.175771
0.311194
0.155675
0.0166696
0.0191105
0.0134901
0
0.0128642
0.13585
0.520125
0.126484
0.0142662
0.000113226
0.00088192
0.000155633
0.00303307
0.0214403
0.0672182
0.12751
0.19048
0.269619
0.142311
0.0913367
0.00405928
0.0380663
0.0417854
0.0319695
0.120392
0.268742
0.226256
0.0610644
0.0734124
0.0565381
0.0425307
0.0273831
0.0331464
0.0411844
0.167383
0.248963
0.167479
0.118845
0.0969152
0.018389
0.00356849
0.00764851
0.0228915
0.139614
0.325189
0.267521
0.361518
0.0721646
0.0855733
0.0750287
0.0427699
0.0550438
0.0627305
0.168591
0.201653
0.372826
0.166947
0.0249955
0.0101027
0.0225867
0.0193877
0.153156
0.215783
0.160892
0.0753642
0.112572
0.0731045
0.059685
0.015619
0.0263933
0.172186
0.309794
0.201013
0.109693
0.110613
0.0907569
0.0784466
0.0393832
0.0250902
0.0602534
0.085198
0.126812
0.260662
0.154231
0.0976594
0.0307657
0.00734078
0.00124077
0.0421127
0.18369
0.232873
0.537958
0.226802
0.0975748
0.0829577
0.0284074
0.0279125
0.118282
0.1682
0.168392
0.113249
0.0315181
0.0534486
0.0789651
0.0765838
0.1039
0.329727
0.295527
0.223979
0.13446
0.023493
0.166922
0.140934
0.0353239
0.0311241
0.0526308
0.083663
0.122437
0.202592
0.112309
0.150627
0.423299
0.303246
0.193506
0.171677
0.0771096
0.0310344
0.0178627
0.033818
0.00401547
0.013596
0.036
0.0714792
0.285829
0.184437
0.142665
0.0372196
0.00264668
0
0
0.00504973
0.0203597
0.16766
0.427467
0.420769
0.0166959
0
0.012489
0.101493
0.194325
0.175389
0.160381
0.0658561
0.00969038
0
0
0
0.00217348
0.0346383
0.0845896
0.329667
0.363614
0.146812
0
0
0
0
0.00575877
0.00459919
0.0612351
0.253505
0.192288
0.00274771
0
0
0.00251338
0.0138077
0.0312267
0.310501
0.391545
0.105169
0.000552569
0
0
0
0.00518586
0.020311
0.276135
0.29369
0.0935232
0
0
0
0
0.00851678
0.0317357
0.461419
0.420314
0.0341523
0.00107203
0
0.0504483
0.0149233
0.0121094
0.0636981
0.335527
0.323302
0.060513
0.00130743
0.004828
0.0950905
0.0375869
0.0150417
0.0677275
0.250061
0.259753
0.125596
0.0479267
0.00804667
0.0345991
0.00724581
0.00109538
0.00914295
0.274876
0.474415
0.123166
0.0691725
0.0265886
0.175796
0.145458
0.0926673
0.00880955
0.0970277
0.276283
0.198783
0.146412
0.108342
0.215669
0.0293414
0.00965593
0.0174463
0.00653687
0.00241555
0.023169
0.0397604
0.242942
0.0854077
0.0301967
0.0502897
0.197715
0.122584
0.0226934
0.0446097
0.0466855
0.0781538
0.379558
0.00112194
0.000606269
0.00370761
0.0113642
0.0613768
0.116527
0.140304
0.499322
0.0862988
0.0018699
0.00424388
0.0338608
0.243495
0.367431
0.249131
0.204556
0.154631
0.00895386
0.00556118
0.0236917
0.214984
0.223508
0.0214983
0.0107053
0.00656931
0.000319405
0
0
0.0121182
0.292841
0.362367
0.0137521
0
0
0
0.000803534
0.000344372
0.00302979
0.0441721
0.39601
0.261112
0.0686911
0.0346386
0.000191643
0
0
0.00385946
0.118251
0.556384
0.249392
0.0112771
0
0
0.0028335
0.0108477
0.0534084
0.390489
0.294337
0.0156593
0.000156888
0.00332175
0.000586192
0.00472249
0.036994
0.10297
0.107754
0.0433331
0.0933343
0.120496
0.0659368
0.000976986
0.00472249
0.00400042
0.023248
0.180177
0.555708
0.281713
0.0257843
0.00199305
0.000351715
0.0124556
0.103196
0.290845
0.169105
0.18344
0.0799252
0.0225573
0.00817673
0.000586192
0.0210051
0.0766943
0.0695963
0.0258726
0.01018
0.0675623
0.180088
0.244487
0.0403447
0.219258
0.164522
0.0255661
0.0202425
0.000343378
0.0169238
0.0820628
0.278943
0.143618
0.0473867
0.332838
0.290957
0.0958895
0.06642
0.012277
0.0345256
0.0414319
0.00631863
0.385661
0.453512
0.101399
0.035962
0.0411463
0.000629413
0.0197056
0.0670356
0.0650284
0.237602
0.0802259
0.00698466
0.0059824
0
0.00190317
0.0129311
0.13976
0.105412
0.199691
0.0171575
0.000906192
3.00704e-005
0
0.00526407
0.0337616
0.362932
0.239121
0.428993
0.100279
0.0105985
0.00363887
0.00480718
0
0.000423054
0.0246555
0.154788
0.363177
0.00801182
0
0
0
0.00484981
0.0274822
0.155695
0.443099
0.134599
0.0879537
0.00539462
0.00374834
0
0.00184132
0.0224251
0.188352
0.15974
0.121482
0.302273
0.133132
0.0366245
0.00297792
0.00214752
0.0446279
0.123899
0.0439593
0.114355
0.0189274
0.000202586
0
0
0.0267262
0.106842
0.318818
0.277055
0.0574775
0.0777906
0.0170539
0.00315136
0.0209002
0.0812728
0.379978
0.539664
0.109721
0.0189333
0.132958
0.161234
0.0804094
0.0260189
0.0119868
0.0332253
0.0358703
0.00401933
0
0.00676799
0.0361595
0.0789091
0.4988
0.123365
0.0203746
0.00394259
0.0024116
0.00987159
0.0418698
0.0298676
0.0303799
0.0894036
0.0725336
0.262107
0.183783
0.0151793
0
0.00360019
0.0189503
0.33975
0.564784
0.0357025
0.0459569
0.0108444
0.00401933
0
0
0.000777089
0.0235489
0.413537
0.130898
0.00705686
9.27245e-005
0
0
0.00113118
0.00150851
0.0435864
0.392594
0.212669
0.0188599
0.00335864
0
0
0
0.00146195
0.221774
0.461967
0.0428665
0.00140638
0.000154541
0
0
0.00791826
0.0155919
0.255845
0.446097
0.0579411
0.00921703
0.00201518
0
0.0320652
0.00678519
0.00223485
0.0289355
0.18638
0.292877
0.103655
0.12115
0.098138
0.211523
0.116778
0.0850908
0.00558524
0.0176723
0.152062
0.119686
0.249808
0.405556
0.0132508
0.0270634
0.0532906
0.196439
0.183557
0.0641706
0.058418
0.10934
0.0826907
0.212709
0.0278805
0.0391741
0.0298759
0.016709
0.0515353
0.0693206
0.278964
0.429459
0.188448
0
0
0.00471946
0.0429019
0.117226
0.0562704
0.0816832
0.194812
0.0378592
0
0
0.000674208
0.230797
0.550884
0.132813
0.104717
0.0601839
0.0493981
0.000517976
0
0.00786576
0.0861343
0.137785
0.0248499
0.050069
0.0439228
0.0115065
7.39966e-005
0
0.00112368
0.199987
0.550884
0.277153
0.0412849
0.0167986
0
0
0.00178941
0.00345723
0.227331
0.366528
0.0416856
0.0137634
0
0
0
0.00298236
0.00936918
0.192755
0.250898
0.0648129
0
0
0
0
0.00107365
0.00161047
0.126688
0.569106
0.326668
0.00423606
0.000912225
0
0
0.00178941
0.00268412
0.0775051
0.370731
0.24773
0.00620099
0
0.000391822
0.000261215
0.00196831
0.0124198
0.167341
0.288238
0.121916
0.00057844
0
0.00829353
0.0360894
0.0988849
0.0987761
0.185086
0.172644
0.0337157
0.00116058
0.00642454
0
0
0.000436586
0.000654879
0.0749976
0.42655
0.389459
0.0181444
0
0.0045843
0.00690277
0.0196005
0.0665521
0.270722
0.427489
0.322797
0.0478901
0.0107076
0.0369981
0.161614
0.159144
0.147376
0.160165
0.115155
0.023956
0.000951993
0.0250138
0.175047
0.207872
0.107477
0.0622127
0.103984
0.105109
0.0320442
0.0109412
0.0539215
0.028483
0.0280857
0.0342276
0.107204
0.241331
0.408378
0.323476
0.106836
0.073369
0.090254
0.0393002
0.0552253
0.0349278
0.100575
0.357936
0.297654
0.189737
0.162107
0.279001
0.0600319
0.0364908
0.00779338
0.0229596
0.0224439
0.00725805
0.0177
0.183543
0.251114
0.0222663
0.00464739
0.00116615
0
0.0323134
0.0716391
0.123256
0.382601
0.255278
0.0241318
0.0292389
0.00372709
0.0265415
0.0894116
0.0587458
0.132675
0.225963
0.55769
0.0962733
0.0264041
0.00816305
0
0.0430417
0.0581193
0.0709318
0.236619
0.0481702
0.0105589
0.00826527
0.00275509
0.00578667
0.150607
0.178047
0.183778
0.157529
0.00949685
0.00827112
0.00495916
0.0272513
0.107084
0.305772
0.412937
0.295533
0.0895308
0.214589
0.119191
0.0602463
0.0192856
0.0405067
0.195492
0.103195
0.04968
0.0503533
0.106703
0.202023
0.073078
0.195631
0.201779
0.348443
0.155928
0.0658662
0.0516673
0.00224911
0.00453285
0.0263562
0.0555354
0.158092
0.13621
0.166982
0.0721871
0.0128322
0
0.00380624
0.104269
0.395477
0.186799
0.028977
0.019822
0.00196097
0.000384817
0.0218961
0.0741365
0.158679
0.188413
0.187473
0.158513
0.0516947
0.0211821
0.0283166
0
0.0310216
0.546369
0.432063
0.0892254
0.0480188
0.00431643
0.00257105
0.0102842
0
0.000470774
0.0489121
0.376826
0.177635
0.00285889
0.000411879
2.3056e-005
0
0
0.00321118
0.0423982
0.419087
0.219115
0.0091438
0.00361835
0.000187993
0
0
0.0176876
0.341537
0.373747
0.0310413
0
0
0
0
0.0713689
0.111442
0.260102
0.400858
0.108674
0.00935266
0.0105746
0.00131595
0.016977
0.0157024
0.0140637
0.093871
0.368717
0.13481
0.0368806
0.0307515
0.0855711
0.0397214
0.334674
0.0186059
0.0516794
0.0566143
0.0719871
0.029961
0.035412
0.187682
0.280735
0.190908
0.073829
0.106655
0.279014
0.143417
0.0479074
0.0717481
0.0612338
0.0901471
0.290658
0.00785798
0.0170901
0.03584
0.119451
0.0361541
0.160555
0.196086
0.358686
0.0315797
0.00224567
0
0.00169783
0.0302528
0.0582864
0.028258
0.0335353
0.0253334
0.0150872
0.000320811
0
0.000242547
0.0398797
0.679153
0.498562
0.0358015
0.0165539
0.0146823
0.0013474
0
0
0.000423156
0.00704163
0.0107609
0.005
0.00596113
0.00645088
0.000192486
0
0
0.00989533
0.31602
0.333923
0.0141769
0.00335064
1.54091e-005
0
0
0
0.00665295
0.341252
0.378897
0.00993916
0.000603661
0
0
0
0
0.00931984
0.193442
0.308677
0.0117459
0
0.000107864
0
0
0
0.00472979
0.241145
0.477012
0.0210971
0.0001919
0
0
0
0
0.00277283
0.185519
0.477012
0.107968
0
0
0
0
0
0.0173633
0.143726
0.285632
0.0227515
0
0
0
0
0.00307657
0.0599378
0.129788
0.322124
0.11082
0.00145104
0
0
0
0
0.00385476
0.0715882
0.602337
0.224441
0.000951638
0
0
0
0
0.00410499
0.0363154
0.33591
0.410256
0.0176399
0.00758044
0
0
0.00480178
0.0464833
0.136822
0.236136
0.224395
0.0484902
0.0228222
0.00138906
0.0011365
0.000685969
0.00783344
0.101642
0.125402
0.251493
0.194974
0.00216621
0
0
0
0.00210466
0.0230778
0.16432
0.550358
0.111889
0.0183228
0
0
0
0
0.00858313
0.028792
0.411042
0.385866
0.118167
0.0036086
0.00157117
0
0.0025987
0.0357687
0.0230644
0.136276
0.246472
0.423789
0.0451597
0.00940257
0.00260092
0
0.00465684
0.00461232
0.0242628
0.183943
0.11671
0.00186241
0
0
0
0.00294702
0.00098234
0.149699
0.457212
0.46902
0.0576968
0.00962751
0
0
0
0
0.0321185
0.340227
0.263229
0.121682
0.0302598
0.0079668
0.0145246
0.0247539
0.00559871
0.00180544
0.0399794
0.114603
0.302954
0.0972982
0.112973
0.0485107
0.043306
0.00238706
0.00560819
0.0157343
0.33021
0.242071
0.0314084
0.0020831
0.000694365
0
0
0.00903653
0.0724346
0.141487
0.679174
0.1588
0.0306509
0.00648353
0
0
0.00151214
0.00619067
0.0115185
0.142233
0.189342
0.090698
0.0287275
0.0220484
0.000148334
0.00468491
0.0160001
0
0.0742603
0.491584
0.150945
0.0104938
0.00959785
0
0.00221919
0.00887678
0.0107438
0.371702
0.252563
0.0205911
0.00253913
0
0
0.000528379
0.00211352
0.00731698
0.279423
0.532878
0.14066
0.0079954
0.00141493
0
0.000317027
0.00126811
0
0.0385985
0.394894
0.14842
0.000630093
0
0.000213843
0.00192459
0
0.125645
0.224394
0.34582
0.118327
0.0191265
0.00113385
0.00433228
0.0139058
0.0565311
0.00255309
0.0810654
0.432919
0.300593
0.0356811
0.0294906
0.0152055
0.0134721
0
0.15098
0.175243
0.327349
0.242867
0.0449281
0.090494
0.0403162
0.133431
0.0676209
0.244094
0.153854
0.0687142
0.0316375
0.0253131
0.00916133
0.0398196
0.0411234
0.16149
0.128721
0.0352339
0
0.00218963
0.0174347
0.039614
0.239446
0.155757
0.23544
0.270588
0.197849
0.0984754
0.0249316
0.00843664
0.0406252
0.0500596
0.132073
0.246591
0.123677
0.126072
0.0583943
0
0.020119
0.0602019
0.379908
0.362087
0.336134
0.00370201
0
0
0
0
0.0018916
0.00354011
0.000234238
0.00370201
0.00285188
0
0
0
0.0679955
0.485738
0.568856
0.0144772
0.00285188
0
0
0
0
0
0
0
0
0
0
0
0
0
0.00958655
0.0272778
0.0329186
0.000936513
0
6.10094e-005
0
0
0
0.00492236
0.0850781
0.332569
0.0263898
0.0014528
0
0
0
0
0.000703195
0.0741618
0.606687
0.306761
0.00231965
0
0
0
0
0.00137668
0.00715912
0.0672098
0.016599
0.00231965
0
0
0
0.00704868
0.00836703
0.00935273
0.507249
0.302715
0.00386608
0
0
0
0
0
0.00621413
0.381863
0.270454
0.000710085
0
0
0
0
0
0.00151936
0.147987
0.348363
0.0159703
0
0
0
0.0044255
0.00399001
0.00187847
0.353686
0.434937
0.000401784
0
0
0
0.000632215
0.000915394
0.000540233
0.244949
0.462593
0.0588264
0.000293326
0
0
0
0
0.000184168
0.031378
0.288646
0.0714132
0.0142561
0
0
0
0
0
0.00158326
0.164532
0.214845
0.000633886
0
0
0
0
0
0.05134
0.542558
0.267083
0.028404
0
0
0
0
0
0.000354915
0.346596
0.542558
0.0812158
0.00107582
0
0
0
0
0
0.0407545
0.239509
0.259913
0.0538515
0.00172774
0
0
0
0
0.00454949
0.135936
0.121199
0.00066808
0
0
0
0
0
0.0778291
0.624316
0.34929
0.0572572
0
0
0
0
0
0.0256473
0.4975
0.217167
0.197567
0.0074866
0.000181647
6.05488e-005
0
0
0.00214197
0.0237379
0.122872
0.415784
0.0612712
0.00373335
0.000423842
0
0
0.000296533
0.000981973
0.387067
0.23556
0.00152707
0
0
0
0
0.0193533
0.154879
0.338999
0.550283
0.0466362
0.00798381
0.00429545
0.000477272
0
0.00330532
0.0194152
0.0313922
0.357911
0.144487
0.00380573
0.000172792
0
0
0
0
0.0507014
0.373834
0.227107
0.0625924
0.0145005
0.00368943
0.0017004
0.0068016
0.0139318
0.123437
0.521822
0.133867
0.00884759
0.0129395
0.00143772
0
0.00048311
0.00868463
0.175002
0.466217
0.129389
0.00710301
0.014895
0.00610079
0.00336773
0.011336
0.0623617
0.0808069
0.184849
0.228327
0.248443
0.096136
0.0685211
0.087213
0.0468278
0.0340118
0.155658
0.0668261
0.118914
0.191631
0.114451
0.237819
0.248103
0.159313
0.0368524
0.246783
0.239394
0.0596411
0.018516
0.037729
0.0442032
0.0856257
0.146402
0.156864
0.154141
0.123159
0.0563466
0.0463496
0.0746202
0.237721
0.320357
0.231827
0.152032
0.113572
0.0855748
0.0807598
0.0378895
0.0440806
0.0808283
0.0684836
0.129017
0.197805
0.0874289
0.128683
0.139807
0.0188456
0.0555085
0.0318557
0.145653
0.287052
0.427812
0.0849987
0.0898495
0.100404
0.102526
0.105288
0.142274
0.097118
0.118898
0.173558
0.209321
0.156092
0.117312
0.110145
0.18226
0.186378
0.0691916
0.214708
0.363667
0
0
0
0
0
0
0
0
0
0
0
0
0
0
0
0.00158221
0.000527404
0
0
0
0
0
0
0
0
0
0
0
0
0
0
0
0
0
0
0
0
0
0
0.000540726
0.0141095
0.00391858
0.0167011
0.00963423
0.00284123
0
0
0
0.0965993
0.22801
0.0282299
0.479401
0.503239
0.00473538
0
0
0.00133016
0.0111359
0.0213128
0
0
0
0
0
0
0.0093111
0.16994
0.338455
0.0776641
0.0157528
0.0123192
0
0
0
0
0.0165515
0.0416684
0.00778176
0.170899
0.343023
9.9984e-005
0
0
0
0.00367417
0.0218645
0.00934418
0.212695
0.756634
0.0966919
0
0
0.000534406
0.0259618
0.072102
0.0371816
0.0229147
0.039747
0
0
0
0
0.00823047
0.0456907
0.0727057
0.120429
0.341788
0.0322339
0.000193331
0
0
0
0.000789771
0.00136864
0.0259181
0.466863
0.19853
0.0094291
0
0
0
0
9.43479e-005
0.00104917
0.36997
0.466863
0.000316118
0.000316118
0
0
0.00205051
0.0215457
0.0450792
0.236733
0.115661
0.00295246
0.00221282
0
0
0
0.0114315
0.0213677
0.370025
0.362547
0.0360771
5.07242e-005
0
0
0
0
0.00698804
0.180356
0.448107
0.102999
0.0114089
0
0
0
0
0.0186868
0.170811
0.36607
0.00458753
0.000885061
0
0
0
0.012184
0.0975775
0.367664
0.273536
0.0163117
0.00186152
0
0
0
0.0165401
0.189739
0.475167
0.248425
0.268475
0.102119
0.00022303
0.000748577
0.00299431
0.00354114
0.0329665
0.15445
0.233859
0.273417
0.232068
0.0195971
0.0311785
0.0339215
0.0139921
0.0475281
0.044675
0.0516846
0.0732057
0.014695
0
0.00124763
0.00499051
0.0680102
0.256647
0.506371
0.274327
0.072344
0.0199502
0.00498998
0.0329612
0.0484836
0.219156
0.350208
0.177862
0.0707985
0.173888
0.393193
0.098601
0.0556107
0.0844626
0.0150708
0.0703272
0.0158928
0.0436901
0.223487
0.392523
0.099188
0.00739482
0.0449443
0.02121
0.0498742
0.0651566
0.141314
0.0669144
0.0788503
0.0266531
0.0594145
0.0797759
0.191539
0.28482
0.0943681
0.0847227
0.198556
0.199201
0.0455091
0.0109369
0.0692235
0.0506889
0.103118
0.252413
0.311967
0.139261
0.208965
0.0376167
0.00208519
0.018671
0.0879734
0.0669492
0.167948
0.125872
0.0546401
0.186584
0.0692216
0.0281224
0.0682841
0.184156
0.205952
0.260637
0.129307
0.10662
0.25857
0.119047
0.0210365
0.128138
0.116751
0.108375
0.200288
0.156067
0.109859
0.273104
0.229275
0.148852
0.230652
0.157231
0.236506
0.11975
0.111013
0.0651622
0.10484
0.110187
0.084426
0.0438881
0.0692339
0.093665
0.129066
0.0675405
0.16253
0.101492
0.0627087
0.13281
0.0864945
0.128319
0.242406
0.218555
0.0808518
0.106813
0.066484
0.0836968
0.0744638
0.0733925
0.0531458
0.160725
0.198502
0.126889
0.0747797
0.0354147
0.0303259
0.0606867
0.160175
0.209435
0.50379
0.399031
0.091566