0.0773993
0.0434624
0.0442831
0.0214198
0.0324065
0.0980958
0.056767
0.102298
0.0549627
0.0308722
0.248944
0.101829
0.0091326
0.0109024
0.203665
0.245755
0.11608
0.0514584
0.0248181
0.168987
0.17953
0.056881
0.0950322
0.143367
0.0942884
0.0558373
0.00853042
0.212243
0.603458
0.277613
0.00682855
0.0316043
0.0434811
0.0541421
0.0673538
0.146582
0.0447751
0.0958986
0.0307189
0.000620841
0.00120978
0.107567
0.155183
0.135803
0.0898486
0.152255
0.111446
0.00846817
0
0
0.0812354
0.123668
0.384475
0.359377
0.182161
0.22071
0.0552114
0
0.00523387
0.0197368
0.0187102
0.0674866
0.192021
0.318657
0.423112
0.138759
0
0.0252969
0.0665742
0.038588
0.0816746
0.231034
0.0996476
0.0692203
0.00198996
0
0.00103758
0.144519
0.213199
0.219527
0.169605
0.0952043
0.111849
0.0229149
0.00175081
0.00980671
0.234297
0.338835
0.178966
0.0778921
0.225167
0.279272
0.066976
0
0.0195136
0.0949564
0.120053
0.0356709
0.150052
0.39356
0.165615
0.0125637
0.0122556
0.0698462
0.162452
0.260845
0.1569
0.200956
0.114435
0.0946296
0.0317558
0.010086
0.0169336
0.0677815
0.0976698
0.131341
0.0594787
0.105841
0.0950956
0.0419258
0.0500466
0.0962214
0.12795
0.0683872
0.072407
0.0470118
0.413072
0.14655
0.0474792
0.0608665
0.049388
0.0675756
0.0819205
0.136464
0.115095
0.537
0.445889
0.180949
0.124126
0.0660941
0.022764
0.0192532
0.0386553
0.0788442
0.0477732
0.104721
0.0313748
0.0570966
0.103365
0.0786216
0.040116
0.02349
0.0283662
0.0624512
0.0793774
0.0509116
0.0416472
0.135044
0.121959
0.0695464
0.0976022
0.0303173
0.468251
0.258424
0.0808355
0.0470672
0.0266932
0.0101101
0.0143297
0.00829618
0.125862
0.624251
0.124519
0.0799798
0.0275365
0.0183518
0.0254176
0.01816
0.0231398
0.306445
0.0572257
0.0304481
0.0530671
0.0167945
0.0414503
0.101487
0.082981
0.100608
0.0416439
0.310815
0.0984054
0.184567
0.0685303
0.00843818
0.0536837
0.0685409
0.0475137
0.111397
0.447905
0.0633348
0.0608498
0.0253956
0.0119221
0.0173732
0.0125853
0.040632
0.293099
0.562197
0.0879826
0.12378
0.0934505
0.0113381
0.00291385
0.0191176
0.034286
0.242327
0.439539
0.215204
0.188216
0.124038
0.0318933
0.016243
0.0498238
0.00952851
0.0908798
0.39494
0.265527
0.13508
0.080433
0.0930963
0.0425438
0.0378371
0.0022773
0.0610189
0.330514
0.153607
0.146739
0.0767752
0.0344498
0.0134764
0.0803009
0.0405276
0.143924
0.115493
0.139962
0.125181
0.00619223
0.175466
0.105627
0.101404
0.0910408
0.0998264
0.450245
0.150901
0.0650712
0.0182527
0.0625139
0.0475902
0.0179776
0.0140874
0.165197
0.363075
0.129113
0.0646046
0.127221
0.155351
0.0180712
0.0362703
0.0968305
0.249416
0.081659
0.0636603
0.0430128
0.0142217
0.135416
0.131611
0.103152
0.185669
0.110206
0.124014
0.0936461
0.0100121
0.110777
0.193882
0.125495
0.112331
0.296104
0.174987
0.0623905
0.0607036
0.0630751
0.100076
0.135111
0.0245398
0.0726096
0.21559
0.0618315
0.03455
0.021458
0.0410689
0.0319799
0.0718644
0.147408
0.173297
0.354964
0.0391064
0.0773855
0.0874429
0.0367397
0.0856138
0.0692861
0.0765853
0.123544
0.334133
0.0984183
0.0262248
0.0350265
0.0706479
0.162259
0.215042
0.358617
0.213846
0.395013
0.0368133
0.0269578
0.0917563
0.0988863
0.0612787
0.143395
0.0917522
0.0504555
0.0675998
0.0434718
0.194486
0.197136
0.0977052
0.0057169
0.0699479
0.0538736
0.0821888
0.118348
0.356628
0.0797076
0.0542269
0.0350802
0.0827973
0.121468
0.0630256
0.0567808
0.135332
0.12013
0.251717
0.0947021
0.0743696
0.0427087
0.0664496
0.0524793
0.194083
0.188221
0.579204
0.108533
0.0685184
0.0182769
0
0.0131316
0.0668531
0.0677094
0.0551548
0.207976
0.0971197
0.179649
0.118981
0.034789
0.084069
0.215339
0.0777054
0.0290015
0.0726984
0.0770898
0.0534469
0.133831
0.0220688
0.00787896
0.131083
0.223732
0.0608046
0.210688
0.0115796
0.0652774
0.534535
0.296011
0.128267
0.351871
0.226913
0.0217287
0.0271634
0.0751868
0.144366
0.0919957
0.0444626
0.0355451
0.0567562
0.0139034
0.00261943
0.0299359
0.288586
0.28509
0.109133
0.0289047
0.0208599
0.0193223
0.0141397
0.0113039
0.0690156
0.0135176
0.0821326
0.392283
0.271692
0.0747495
0.0803529
0.0232006
0
0.000586051
0.109514
0.400497
0.521424
0.149267
0.018936
0.00657835
0
0
0.00605662
0.291778
0.256206
0.0347753
0.0123426
0.00847758
0.00989299
0.00423573
0.00811035
0.0298934
0.410946
0.34418
0.0411445
0.0205492
0.00255593
0.00116416
0.000170402
0.00178261
0.0187891
0.146197
0.436144
0.127805
0.00544161
0
0
0
0
0.00350329
0.288587
0.432991
0.0300603
0
0
0
0
0
0.0040041
0.424222
0.142758
0.0163513
0.00544365
0.00067338
0
0
0.000370524
0.0892666
0.432328
0.0278349
0.00773762
0.00138881
0
0
0
0.0048596
0.33124
0.370987
0.17225
0.00900307
0
0
0
0
0.00259367
0.0543402
0.346126
0.0331573
0
0
0
0
0
0.0395613
0.371628
0.270644
0.0219096
0.00471978
0.00256313
0
0.000117857
0.000667857
0.0144621
0.366904
0.310204
0.0288952
0.00366359
0.00943181
0.000989598
0.000964355
0.00734589
0.0857003
0.317692
0.117519
0.0021662
0
0
0
0.000825
0.0142791
0.132726
0.450472
0.102465
0.00281296
0
0
0
0.005775
0.08499
0.352132
0.37128
0.120692
0.027453
0.0146718
0.00612053
0.00448183
0.0014276
0.0472613
0.165376
0.158772
0.0484854
0.0251846
0.0188204
0.000493646
0.0330412
0.0166989
0.130514
0.189719
0.0746876
0.0534763
0.00168445
0.000310336
0
0
0.00745983
0.156445
0.444556
0.198046
0.0313139
0.00925714
0.000517227
0
0.0115076
0.0150632
0.443842
0.565225
0.0632619
0.0509965
0.0120964
0.00494388
0.00530714
0.0684986
0.0460045
0.17223
0.210596
0.0904708
0.129359
0.0148969
0.0197079
0.0784073
0.0939013
0.0981356
0.0968822
0.158032
0.131948
0.0518664
0.0144013
0.0046271
0.02466
0.0680319
0.0490602
0.531554
0.478685
0.0586325
0.110388
0.0273247
0.12093
0.157851
0.125605
0.105513
0.220172
0.10704
0.122204
0.073344
0.0761684
0.0962904
0.141978
0.0320145
0.0620713
0.0475147
0.0849827
0.0681326
0.0352142
0.152783
0.22653
0.215969
0.200061
0.129978
0.0490628
0.0599797
0.0207202
0.0514023
0.129661
0.291065
0.181296
0.0911014
0.0693654
0.0186029
0.0306141
0.0667582
0.0934727
0.399633
0.51143
0.12337
0.0971318
0.0450859
0.00131418
0.0218809
0.0729593
0.0441689
0.0427965
0.0268341
0.084837
0.133896
0.0814906
0.0510022
0.0547772
0.0714883
0.18298
0.101623
0.20366
0.119106
0.109356
0.045841
0.158251
0.0803294
0.272999
0.180814
0.041913
0.0223763
0.0373959
0.120007
0.127657
0.0640606
0.030937
0.0882493
0.13161
0.0920905
0.213273
0.20429
0.508284
0.109185
0.16136
0.11776
0.29369
0.0227991
0.0302846
0.147345
0.0383934
0.0175706
0.0157521
0.0375239
0.0114277
0.02843
0.00207836
0.0376915
0.513505
0.176203
0.0233717
0.0301866
0.0261511
0.00188627
0.0015288
0.00665501
0.0182541
0.198029
0.197103
0.187128
0.019709
0.0168995
0.0152711
0.0222696
0.000296909
0.0218263
0.53043
0.461808
0.10846
0.00979574
0.00194273
0.00158951
0.000127247
0
0.0489911
0.477776
0.161999
0.0169235
0.0100565
0.00431847
0
0
0.0118451
0.149122
0.381085
0.0724852
0.00535933
0.000566032
0
0
0
0
0.0394423
0.526028
0.195694
0.0110583
0
0
0
0
0.00438995
0.134573
0.423066
0.0606215
0.0200158
0.000663453
0
0.00357662
0.000397402
0.0780102
0.397111
0.213011
0.0154935
0.00305451
0
0
0
0
0.25384
0.46404
0.0449775
0.00223997
0.0018327
0
0
0.000665737
0.0303345
0.0522061
0.342601
0.293751
0.0804967
0.0971737
0.00390778
0
0.00774996
0.00307576
0.270733
0.312965
0.0947566
0.0720661
0.0717358
0.00471495
0.00800516
0.00665676
0.0857741
0.298075
0.231347
0.00680931
0
0
0
0
0.00321323
0.0986473
0.375135
0.113891
0
0
0
0
0
0.0622598
0.329172
0.22605
0.138689
0.0115485
0.0104464
0.0354179
0.00785476
0.0302013
0.0255777
0.274425
0.336424
0.128652
0.00208787
0.000580453
0.0212507
0.0263885
0.02887
0.119172
0.449213
0.123105
0.0370415
0
0
0
0.000420016
0.0167827
0.225168
0.286833
0.0463403
0.00873644
0
0
0
0.004206
0.12464
0.558802
0.2341
0.215787
0.117008
0.00545836
0
0.00148035
0.0313584
0.0268862
0.141202
0.194565
0.184377
0.0840382
0.00327502
0
0.0318384
0.0715684
0.147581
0.408298
0.136177
0.0111934
0.000299987
0
0
0
0.00677888
0.166947
0.286085
0.0691035
0.00206284
0.000750171
0
0
0.00120095
0.0220272
0.37172
0.312368
0.019508
0.0295481
0.00965347
0
0.00112734
0.0467226
0.0772308
0.229739
0.277388
0.0538639
0.00194432
0
0
0.0018789
0.0341028
0.188046
0.582249
0.251256
0.0426072
0.00217972
0.000886565
0.000780997
0.00428736
0.00867014
0.0511776
0.345775
0.184061
0.00433409
0.00638492
0.00641466
0.02044
0.0218055
0.058873
0.0702686
0.24643
0.0582892
0.0148189
0.000310977
0
0
0.000300514
0.00625323
0.204871
0.571462
0.11098
0.00723542
0.00778357
0.0131714
0.0164192
0.00985272
0.0836251
0.237074
0.495717
0.0684591
0.0078962
0.0609745
0.0522375
0.0915132
0.0474828
0.0958253
0.0719584
0.0682811
0.0689076
0.0938638
0.191064
0.190294
0.221798
0.0253128
0.0338739
0.035971
0.00208796
0.0532079
0.256933
0.158948
0.180038
0.0901972
0.0221041
0.166387
0.185717
0.178194
0.0572583
0.0850713
0.412042
0.262663
0.120416
0.0151342
0.0480052
0.0201724
0.0318825
0.0455852
0.446058
0.198076
0.0195407
0.000946834
0.000539879
0.00438825
0.00678645
0.0022973
0.00262932
0.0535275
0.128212
0.0993569
0.117624
0.0809451
0.0809054
0.00828088
0.00596399
0.00879801
0.0458006
0.55172
0.0266776
0
7.71256e-005
0.000231377
0
0
0.0175931
0.357231
0.502194
0.216158
0.246513
0.139962
0.0121557
0
0
0.00313835
0.186745
0.0124721
0.0310265
0.160159
0.282712
0.101134
0.00627976
0.00198087
0.00262475
0.00571102
0
0.00191182
0.293111
0.462901
0.0697694
0.00503382
0.000227717
0.000186314
0
0.0770497
0.0906327
0.224471
0.452819
0.0445642
0
0
0
0.00996134
0
0.00774356
0.108701
0.477781
0.137297
0.00533144
0
0
0
0
0.0049503
0.395224
0.299108
0.028916
0.0034912
0
0
0
0
0.061712
0.431971
0.129793
0.0553428
0.0149206
0.00628005
0.0146536
0.00162818
0
0.00119198
0.151011
0.479276
0.193401
0.00973153
0
0
0
0
0.00914849
0.265822
0.301254
0.133637
0.0764423
0.017556
0.00879216
0.000976906
0.0154963
0.133895
0.250088
0.14501
0.258204
0.0536662
0.0203104
0.027207
0.0107978
0.123712
0.101257
0.0843786
0.183877
0.241888
0.0540214
0.0679152
0.00922334
0.0750468
0.00305645
0.0216013
0.134533
0.134435
0.30797
0.311151
0.170086
0.0462961
0.0207375
0.0241311
0.0992508
0.0353445
0.170801
0.331501
0.251867
0.272109
0.110377
0.149209
0.103118
0.0497085
0.0187825
0.0495512
0.136991
0.0912326
0.144926
0.0447498
0.177367
0.154179
0.0713469
0.00875976
0.0241637
0.182225
0.178735
0.131956
0.225276
0.329801
0.0603658
0.0857238
0.0199854
0.102619
0.194073
0.182634
0.166694
0.0966157
0.141782
0.248238
0.109613
0.00807174
0.130987
0.298217
0.263211
0.193663
0.1894
0.201496
0.09682
0.0839051
0.0279972
0.0244085
0.148145
0.15893
0.0650514
0.100764
0.124054
0.108217
0.0938693
0.0287937
0.0386344
0.23546
0.306564
0.160606
0.121831
0.035256
0.132833
0.0654228
0.0677823
0.109521
0.27697
0.174383
0.124944
0.107538
0.0664401
0.0925973
0.242347
0.221586
0.147212
0.297081
0.401188
0.0953013
0.0362745
0.0115837
0.0192528
0.0166702
0.00317425
0.0346604
0.217677
0.153175
0.106085
0.0910786
0.0311289
0.00241286
0.000905396
0.000301799
0.0236497
0.160132
0.376
0.428303
0.0718082
0.0460766
0.0117309
0.105614
0.112991
0.192057
0.253454
0.116694
0.0296139
0.00537277
0.00428977
0.000344694
0.0127464
0.0413244
0.142728
0.229059
0.399583
0.310781
0.0122816
0.00654916
0.000258126
0
0
0.0013945
0.0129159
0.262677
0.307616
0.020362
0.00515141
0.00172183
0.00402198
0.0136287
0.00755006
0.0877028
0.364781
0.20106
0.0191498
0.000792879
3.68752e-005
0
0.000406522
0.0072594
0.094014
0.423064
0.251392
0.0112466
0.00111234
0
0
0.00194696
0.00881123
0.234303
0.51795
0.11715
0.0130376
0.000686191
0.0574408
0.0929529
0.076711
0.0152752
0.20207
0.35629
0.107359
0.0142072
0.0313776
0.146719
0.207215
0.104346
0.03198
0.0652296
0.0498749
0.0499541
0.0221036
0.140995
0.0371329
0.019771
0.0117627
0.0079375
0.299225
0.530997
0.198677
0.0810157
0.0613553
0.145916
0.183741
0.0538928
0.0251291
0.0534123
0.110568
0.128856
0.151637
0.217972
0.267684
0.0153298
0
0
0
0
0
0.0580109
0.403251
0.324527
0.115994
0.0866792
0.0635664
0.00952178
0.00526144
0.0292159
0.057791
0.223056
0.13203
0.00721846
0
0
0.00320539
0.00560904
0.0113462
0.144187
0.505825
0.197853
0.0358274
0.012773
0.0193417
0.0266036
0.118714
0.170908
0.184307
0.335854
0.0822239
0.0952775
0.122753
0.302855
0.0804555
0.0202973
0.0336545
0.0360323
0.0349967
0
0.011796
0.0371824
0.388466
0.274909
0.0288673
0.00519783
0.00354017
0
0.0353511
0.0288181
0.023244
0.0923766
0.183868
0.342439
0.195862
0.103612
0.0719316
0
0.00385323
0.00966025
0.112471
0.497293
0.323221
0.0307105
0.00786863
0
0
0.000159075
0.0147235
0.245662
0.373566
0.0274219
0
0
0
0
0.00275534
0.0462803
0.170407
0.215379
0.0708456
0.0114216
0
0
0
0
0.000140106
0.0547364
0.624201
0.207647
0.000745149
0
0
0
0.00273636
0.0159577
0.054379
0.426073
0.164067
0.00850276
0
0
0.00189439
0.0375157
0.0598538
0.0572226
0.109775
0.230313
0.200099
0.0610391
0.0194278
0.0330494
0.138435
0.0471616
0.0800432
0.0977994
0.145264
0.272573
0.239978
0.1904
0.0219627
0.183172
0.149521
0.134775
0.215983
0.0879182
0.0625583
0.027683
0.00885764
0.24599
0.496093
0.165119
0.156158
0.0744932
0.0190927
0.0766622
0.122572
0.10587
0.118429
0.142543
0.018591
0.0670687
0.0702445
0.0489026
0.0578494
0.176969
0.220346
0.267147
0.100471
0.0402916
0.0959278
0.0680642
0.0866006
0.102177
0.209977
0.303713
0.301659
0.293852
0.0291822
0.0654035
0.0405932
0
0.0100526
0.116389
0.193304
0.27218
0.117463
0.0986525
0.0689451
0.0123557
0.025932
0.0343755
0.167665
0.334937
0.13581
0.0798807
0.0702597
0.0490613
0.0498984
0.0459589
0.0867815
0.105945
0.0808885
0.126342
0.438892
0.242098
0.0677461
0.0381645
0.079716
0.0492487
0.0681456
0.0183682
0.107166
0.0875377
0.102896
0.0207089
0.0148336
0.0423493
0.0637901
0.149902
0.15056
0.0895438
0.359348
0.13044
0.0119375
0.0114522
0.0576676
0.226091
0.447287
0.202065
0.0215094
0.247589
0.257152
0.191648
0.0579042
0.0335295
0.0242878
0.0225849
0.00163232
0
0.0239084
0.105984
0.184134
0.24225
0.301839
0.128192
0.0272969
0
0.0145727
0.170975
0.120184
0.0654174
0.0261481
0.0923484
0.190362
0.260987
0.0592601
0
0.0139022
0.0939953
0.41662
0.351037
0.152415
0.0704146
0.0515154
0.0015442
0
0
0.00227301
0.0273124
0.270518
0.274936
0.0608427
0.00573487
6.30352e-005
0
0
0.00530376
0.028422
0.376147
0.259355
0.0424
0.00199611
0.000105059
0
0
0.0191281
0.311194
0.419149
0.0854644
0.00295152
0.00112805
0
0.000315971
0.00600346
0.0403734
0.295065
0.425656
0.116797
0.0065342
0
0
0.050445
0.00300945
0.0346635
0.0219623
0.304146
0.23268
0.14947
0.0613864
0.051708
0.152137
0.0650184
0.0533822
0.00363275
0.0460865
0.0585568
0.130477
0.222389
0.347216
0.0389572
0.035491
0.0933064
0.225732
0.227462
0.166894
0.0891465
0.0658885
0.0452475
0.135915
0.028821
0.092111
0.0264703
0.0443753
0.0554926
0.178995
0.381018
0.328328
0.0947753
0
0
0
0.0207489
0.0414592
0.0931545
0.193896
0.314098
0.146831
0
0
0.00200915
0.147179
0.358172
0.202054
0.163631
0.322706
0.0327677
0
0
0
0.0192215
0.0592467
0.156829
0.178922
0.0709263
0.0572555
0
0
0
0.302191
0.43318
0.170843
0.133878
0.149045
0.00780914
0
0
0.00328733
0.175839
0.336057
0.0785925
0.0226651
0.0280924
0
0
0
0.00580864
0.271825
0.333327
0.0281708
0.0015814
0
0.00345937
0
0
0
0.214691
0.373799
0.193923
0.0264166
0.0136925
0
0
0
0.0037266
0.167261
0.458868
0.392276
0.0256493
0
0
0
0
0.00511711
0.299973
0.307527
0.0257515
0.000719632
0
0
0.000334607
0.00453634
0.0180402
0.254784
0.234078
0.0602949
0.000102805
0
0
0
0
0.00653121
0.111121
0.457905
0.329169
0.0113171
0
0
0
9.62072e-005
0.00448396
0.139892
0.332941
0.406891
0.0151783
0.00777868
0.0126793
0.0789622
0.0815626
0.104218
0.30461
0.0756828
0.0325731
0.00777384
0.00967997
0.125999
0.203257
0.124293
0.118865
0.173484
0.0732725
0.00962673
0.0544169
0.0760047
0.00892862
0.0121666
0.0280399
0.0547702
0.395486
0.269178
0.258653
0.0485053
0.0382729
0.0659067
0.0288043
0.077683
0.123885
0.361776
0.345681
0.122964
0.172346
0.149792
0.222695
0.171554
0.0788406
0.0702244
0.069687
0.100745
0.0075015
0.0551575
0.127801
0.226676
0.0744385
0.0625789
0.0259793
0.0184602
0.0384674
0.0602034
0.0729697
0.254245
0.154515
0.0365856
0.110073
0.118117
0.205886
0.353527
0.0919113
0.177065
0.170102
0.41117
0.0716053
0.045918
0.0403249
0.0416349
0.108635
0.101336
0.0859295
0.2911
0.0625738
0.0180547
0.0227072
0.00821825
0.0277157
0.105174
0.123169
0.0794286
0.139277
0.0782218
0.0346736
0.00997931
0.0232043
0.0835536
0.293838
0.264673
0.316909
0.226173
0.142787
0.0723079
0.000356384
0.0349376
0.104174
0.151403
0.122624
0.0415946
0.109561
0.0914872
0.0842846
0.0579921
0.159627
0.322424
0.418666
0.192503
0.16519
0.138313
0.0153424
0.00977179
0.0127382
0.0433666
0.119507
0.16422
0.116448
0.133352
0.047462
0
0.000800589
0.142841
0.365572
0.164414
0.0745098
0.0321733
0.0210165
0.00496647
0.0360668
0.0508701
0.0762029
0.120076
0.31105
0.168006
0.0540264
0.0575443
0.0456573
0.0255594
0.0508778
0.52441
0.404383
0.219102
0.0535202
0.00895629
0.0139715
0.0277466
0
0
0.0911228
0.399101
0.150621
0.00305198
0.000128021
0.000143407
0.000430222
0.000314731
0.0100323
0.0599131
0.382481
0.184136
0.0121406
0.00021793
0
0
0.00270633
0.0209333
0.358703
0.373524
0.0430896
0
0
0.00100385
0.00301155
4.49615e-005
0.0256559
0.210697
0.479572
0.0937614
0.0012793
0
0
0
0.00615012
0.0680027
0.103852
0.355287
0.130208
0.0425712
0.0345529
0.100577
0.0243522
0.0514743
0.046842
0.0592087
0.0390403
0.0190938
0.0211537
0.124312
0.438015
0.153479
0.000813099
0.0720699
0.199165
0.492586
0.171841
0.0126356
0.0159098
0.0511941
0.0109535
0.0351979
0.0799881
0.165488
0.0571001
0.070854
0.0431543
0.108683
0.215649
0.131674
0.00773116
0
0
0
0.00828091
0.0953792
0.14031
0.192727
0.0345535
0.0124835
0
0
0
0.208147
0.492428
0.344443
0.364574
0.0590362
0.00302253
0
0
0.00229473
0.0194606
0.0475195
0.0615295
0.0551767
0.00372159
0.00163342
0
0
0.0432857
0.140325
0.259209
0.198463
0.309573
0.00595124
0.000355628
0
0
0
0.0566099
0.170986
0.219877
0.0641152
0.00229706
0
0
0
0.000523737
0.0429547
0.430047
0.477181
0.041951
6.70932e-005
0
0
0
0.0061485
0.0597351
0.174092
0.0869496
0.0498222
0.00266037
0
0
0
0.000721696
0.109473
0.477181
0.395723
0.105953
0.0150899
0
0
0
0.000552045
0.012282
0.243169
0.300192
0.0181235
0.000139047
0
0
0
7.88636e-005
0.0142907
0.086267
0.343265
0.0501723
0.00728977
0
0
0
0
0.0294244
0.247093
0.491454
0.204986
0.00800376
0
0
0
0
0.000530711
0.0321031
0.491454
0.292393
0.0100962
0.0018267
0
0
0.00331557
0.0622144
0.0898161
0.264683
0.136882
0.0326195
0.0127869
0
0.0125259
0.0272814
0.0648692
0.0963718
0.118826
0.212501
0.107146
0.00116036
0
0
0
0.00264291
0.0166096
0.374245
0.466205
0.0391879
0.00277433
0
0.00164814
0.00306083
0.00158574
0.0083143
0.113649
0.580264
0.182686
0.0804448
8.38882e-005
0.0233692
0.037899
0.0365055
0.0650545
0.0892833
0.173058
0.118213
0.228837
0.0220802
0.00839387
0.00967673
0.00784695
0.0192309
0.0362743
0.0490751
0.208104
0.103591
0.000587217
0.00270756
0.00502833
0
0.000783848
0.0642539
0.375777
0.389287
0.423323
0.040354
0.0216425
0.000718333
0
0
0.0191807
0.0758106
0.485809
0.111694
0.0801853
0.00665105
0.0102012
0.0375068
0.0290307
0.00933618
0.0158006
0.129871
0.111254
0.196186
0.0730098
0.0466084
0.107134
0.0669969
0.0218649
0.0503206
0.0963901
0.323667
0.20237
0.0465573
0
0.00174695
0.00174695
0
0.0140214
0.192618
0.282227
0.691716
0.162658
0
0.00599538
0.00345578
0.00250066
0.00682176
0.0521606
0.0359416
0.136042
0.0921121
0.0330669
0.0809347
0.0187246
0.00912462
0.0159674
0.0188202
0.0198169
0.146286
0.397318
0.101195
0.0525148
0.00563034
0.00377802
0.00553594
0.00733449
0.0996422
0.409566
0.145697
0.00381095
0.00487806
0.00104119
0.00377802
0.00366984
0.00309582
0.109277
0.506095
0.4854
0.0389962
0.0034686
0.000493312
0.00226681
0.00185466
0
0.0158033
0.124044
0.38419
0.101147
0.0157829
0
0.00140358
0.00115064
0.00118461
0.0510963
0.131139
0.225157
0.175867
0.0487389
0.00843293
0.00982503
0.0052904
0
0.0874725
0.33745
0.583275
0.0480012
0.015489
0.0227676
0.0191307
0.0052904
0
0.143612
0.231048
0.255078
0.0647143
0.133009
0.113057
0.0842847
0.0370328
6.63447e-005
0.0715494
0.114539
0.203211
0.281437
0.188717
0.0344497
0.0220035
0.0264577
0.0265403
0.0845633
0.0592393
0.127954
0.0441028
0.0992537
0.0531525
0.114566
0.123069
0.19927
0.189869
0.157473
0.138507
0.106917
0.339778
0.22704
0.103077
0.0701979
0.043612
0.301646
0.103912
0.153347
0.0203256
0.0702389
0.0354687
0.0438586
0.128257
0.287374
0.00301888
0
0
0.00691711
0.0852535
0.0142441
0.024141
0.0251799
0.00301888
0.0301503
0
0
0.130478
0.525231
0.34145
0.118192
0.161804
0.0287506
0.000563453
0
0
0.000988159
0.0532597
0.014881
0.00611379
0.00534264
0.000563453
0.0934513
0
0
0.0186397
0.230212
0.170508
0.0851784
0.143349
0.111999
0.0286851
0.00808091
0
0.0189451
0.132294
0.214717
0.0512677
0.0321607
0.0298562
0.0463396
0.0134682
0
0.00222373
0.147359
0.495677
0.470361
0.428988
0.178192
0.0724811
0.0182792
0
0.00270644
0.032296
0.037684
0.0272842
0.0300126
0.0496381
0.104172
0.0304653
0
0.000317675
0.0444282
0.0681493
0.116767
0.213384
0.184085
0.00324949
0.000614642
0
0
0.0104087
0.0592813
0.360184
0.264033
0.0295844
0.0005312
0
0
0
0.000271219
0.0099679
0.490069
0.320065
0.0385095
0.00735135
0.00139033
0
0
0.0614778
0.0735251
0.239443
0.124029
0.0325997
0.0114209
0.00513501
0
0.0076395
0.0966095
0.121119
0.490069
0.194626
0.134766
0.00384204
0
0
0
0
0.00360583
0.190446
0.246982
0.11911
0.00916476
0
0
0
0
0.00171104
0.0333227
0.277292
0.297586
0.0599005
0.0161734
0.00982439
0.00852232
0.0378015
0.0354451
0.175144
0.196395
0.413478
0.105823
0.0135564
0.016374
0.00121747
0.00824531
0.00545421
0.00716551
0.30726
0.559942
0.0399052
7.11275e-005
0
0
0
0
0.00392086
0.093311
0.254905
0.220946
0.00730199
0.00257463
0
0
0
0.000623767
0.0130099
0.215009
0.0938448
0.00139681
0.00199688
0
0
0
0.000320125
0.211435
0.50013
0.50013
0.0040275
0
0
0
0
0
0.0766065
0.46945
0.240482
0.0620877
0.00593079
0
0
0
0
0.000638136
0.0613797
0.226351
0.294792
0.0250414
0
0
0
0
9.11623e-005
0.0110127
0.53713
0.0413575
0
0
0
0
0
0.00191515
0.167179
0.53713
0.358983
0.00374627
0
0
0
0
0.000633263
0.0840844
0.135686
0.347788
0.0320016
0.000168993
0
0
0
0
0.00216786
0.175187
0.412409
0.124042
0.010943
0
0
0
0
0.0186034
0.376469
0.442722
0.0324902
0.0251017
0
0
0
0.000638931
0.0363998
0.225896
0.416365
0.146035
0.0667648
0
0
0
9.12758e-005
0.0556938
0.153512
0.376213
0.333611
0.0678461
0.0629913
0.0439682
0.0180616
0.00236466
0.0369235
0.0585105
0.101895
0.121965
0.116765
0.28469
0.180514
0.0911132
0.0195453
0.00535999
0.131807
0.391567
0.229911
0.0793966
0.0787369
0.0455532
0.0250202
0.0160046
0.0757786
0.0266336
0.120766
0.0832289
0.0756922
0.281068
0.214418
0.244432
0.0476234
0.022693
0.0596912
0.0424169
0.057033
0.0936661
0.258219
0.171608
0.108379
0.0194439
0.00649394
0.164759
0.112006
0.173769
0.0323277
0.0226174
0.0303887
0.035132
0.0106817
0.0959697
0.0228787
0.0386001
0.151121
0.198857
0.282045
0.243681
0.376764
0.0519969
0.00389547
0.147214
0.112403
0.385421
0.292387
0.0895959
0.0504059
0.109113
0.0118272
0.114374
0.00192344
0
0
0
0.0153613
0.00598182
0.0051082
0.00670939
0.00192344
0.122364
0
0
0
0.0256022
0.0418727
0.0553374
0.117539
0.155676
0.000274777
0
0
0
0
0
0
0
0.000274777
0.00792475
0
0
0
0
0
0
0
0.00792475
0.183869
0.0366805
0
0
0.00179151
0.00796469
0.0169253
0.0454231
0.121991
0.218678
0.0611341
0
0
0.398355
0.106344
0.052616
0.0734927
0.207632
0.00575326
0
0
0
0
0
0
0
0.00575326
0.00280837
0
0
0
0.197788
0
0
0
0.00280837
0.00252444
0.000472764
0
0
0.150722
0.138326
0.0633436
0.00790965
0.00648154
0.0221857
0.00809627
0.00375462
0.0312542
0.336163
0.328618
0.221314
0.0251111
0.0807164
6.22487e-006
0
0
0
0.23321
0.113517
0.0009747
0
6.22487e-006
0.0455219
0.0112429
0.0262824
0.082902
0.655759
0.320096
0.0220009
0
0.0292192
0.0788008
0.0226535
0.0425252
0.0826202
0.155836
0.102658
0.0757941
0.0321347
0.212639
0.155841
0.0290823
0.0786504
0.0770294
0.0579708
0.0198562
0.0033661
0.193458
0.563451
0.0539888
0.0136159
0.0520265
0.254532
0.443563
0.109487
0.0164756
0
0.0344864
0.071692
0.0435967
0.0898003
0.246011
0.276635
0.026485
0.00201966
0.0474734
0.0774679
0.0933938
0.00887417
0.0146665
0.00773696
0.00266166
0.000295918
0.00364934
0.287014
0.484768
0.487437
0.00967177
0.00143252
0.00108816
0.000585932
0.00225089
0.0249031
0.211631
0.420721
0.0761833
0.0700172
0.0398442
0.0246407
0.033533
0.00207143
0.0128238
0.13047
0.124739
0.171126
0.0818622
0.0136244
0.0106156
0.0507849
0.0226539
0.115741
0.184005
0.148699
0.539387
0.0231507
0.00718397
0.00404825
0.0015114
0.00154622
0.0113413
0.0282781
0.145369
0.570999
0.14667
0.0966831
0.0139303
0.00090684
0.000171858
0.000687434
0.00280723
0.0930848
0.144769
0.0374995
0.056975
0.0509475
0.0788589
0.017369
0.0610405
0.0401738
0.0539736
0.132911
0.0971643
0.426842
0.100637
0.0334438
0.00213808
0.00481204
0.00237851
0.0279491
0.273104
0.191712
0.224097
0.0604783
0
0
0
0.00246923
0.0527161
0.0857623
0.198652
0.342387
0.155582
0
0.000251192
0.000753575
0.00094762
0.0332268
0.0400268
0.0992586
0.567805
0.125971
0
0
0.00253049
0.00264559
0.0169582
0.0108484
0.0935401
0.444783
0.150699
0
0.00902013
0.0310134
0.0234418
0.021031
0.0709047
0.331018
0.332059
0.136976
0.023833
0.0208068
0.0253584
0.0264498
0.0615782
0.077814
0.291153
0.264506
0.0367522
0.129562
0.135006
0.157128
0.0541872
0.0619548
0.0410867
0.153669
0.239027
0.159249
0.0244119
0.117276
0.098778
0.0492845
0.0666986
0.0517461
0.259698
0.25565
0.159107
0.0765156
0.184089
0.235991
0.0451769
0.0417456
0.0188178
0.120595
0.34085
0.134844
0.142801
0.112964
0.136242
0.0305471
0.0124142
0.0450934
0.0459046
0.361871
0.285358
0.076548
0.0249747
0.0379988
0.0273
0.0557008
0.0219106
0.133521
0.328063
0.0822338
0.0365342
0.0727626
0.244197
0.112318
0.0305773
0.0822448
0.0979425
0.346707
0.186552
0.0285767
0.0137116
0.100975
0.172262
0.116424