0.109672
0.134708
0.0877759
0.0686366
0.131225
0.153633
0.0226984
0.12646
0.0687805
0.0921219
0.0806904
0.0592839
0.241885
0.0833911
0.17509
0.118217
0.182574
0.0368903
0.297743
0.219042
0.090504
0.0835153
0.208551
0.196053
0.0310824
0.0766904
0.0724732
0.249806
0.227547
0.0411179
0.379862
0.124987
0.113142
0.0624534
0.168025
0.158568
0.0366114
0.0087946
0.00805474
0.109625
0.0418672
0.0999187
0.117029
0.261865
0.104228
0.135775
0.0163544
0.025217
0.077513
0.0841403
0.178227
0.179016
0.178681
0.19426
0.0311983
0.0428059
0.00743455
0.221534
0.0925776
0.0997483
0.184246
0.237801
0.119124
0.150404
0.0509314
0.0920958
0.188907
0.252694
0.37263
0.269226
0.182867
0.189176
0.119232
0.0468087
0.0265155
0.0617707
0.0480369
0.0744544
0.077856
0.0512269
0.110108
0.173142
0.173645
0.0875946
0.0613624
0.0573097
0.0512126
0.0997486
0.111433
0.0455651
0.255071
0.106152
0.103458
0.0713624
0.1069
0.169111
0.0853713
0.149419
0.416004
0.308748
0.235866
0.0637337
0.0577909
0.0795869
0.0367674
0.0470079
0.277469
0.37629
0.0930919
0.193581
0.139655
0.0426987
0.0995534
0.161654
0.115179
0.114794
0.0286144
0.149425
0.318734
0.252515
0.0108003
0.0860337
0.210846
0.242173
0.213888
0.131676
0.129694
0.135492
0.0896293
0.0395604
0.0684038
0.0781286
0.074206
0.220071
0.15181
0.175067
0.118978
0.281578
0.0361688
0.0391966
0.0950912
0.0793817
0.169997
0.264673
0.159056
0.339342
0.162831
0.00461206
0.013599
0.0477112
0.0709477
0.0776807
0.0815109
0.263469
0.375265
0.186337
0.0559477
0.0080815
0.0197455
0.00884092
0.0821697
0.0895653
0.220991
0.12959
0.141521
0.027742
0.0111185
0.0139218
0.0231003
0.0728844
0.243774
0.294249
0.148549
0.0585538
0.0686307
0.0529147
0.0825761
0.118342
0.22445
0.305705
0.100641
0.0681199
0.0593136
0.0347103
0.00272435
0.00061505
0.0106118
0.0444108
0.0451985
0.0519252
0.109617
0.208448
0.154887
0.148395
0.0009837
0.0395961
0.0701754
0.0467743
0.16834
0.0534477
0.126842
0.0680753
0.0268456
0.041181
0.0353737
0.0842918
0.123674
0.170947
0.207323
0.649667
0.45106
0.109331
0.005883
0.0112816
0.0498635
0.0793485
0.124253
0.092667
0.176353
0.134814
0.0963556
0.0156251
0.00817133
0.0155155
0.0617607
0.375172
0.140653
0.148547
0.0676964
0.0201742
0.0258009
0.00135795
0.0713681
0.298944
0.0659156
0.206917
0.346725
0.262744
0.0734858
0.0258009
0.00246977
0.00561572
0.0272259
0.239438
0.3209
0.325151
0.105018
0.022174
0.0430016
0.00226325
0.0849015
0.228717
0.236449
0.15474
0.0804758
0.0182514
0.00208049
0.0436768
0.0086282
0.139782
0.250702
0.112919
0.142035
0.130339
0.019402
0.00614603
0.107382
0.0587274
0.154271
0.15057
0.19499
0.128912
0.0963523
0.0192791
0.0227189
0.0806784
0.0987505
0.287182
0.350822
0.0860895
0.0148915
0.0162419
0.0253893
0.132659
0.324636
0.329359
0.327399
0.172989
0.0856863
0.110723
0.125197
0.0885043
0.045493
0.0976548
0.0618909
0.0500775
0.0560829
0.159989
0.256183
0.247001
0.277604
0.0857095
0.0426329
0.0210734
0.0134757
0.0153276
0.043156
0.0112921
0.0366327
0.182826
0.3535
0.3045
0.159363
0.0581128
0.0174631
0.114265
0.115797
0.113015
0.384233
0.380842
0.138047
0.0175515
0
0.029275
0.366487
0.1709
0.15818
0.0412893
0.0614812
0.0613987
0.0438081
0.0125782
0.0711999
0.350487
0.178181
0.0257326
0.0729939
0.06985
0.0313873
0.0765588
0.124275
0.196907
0.245409
0.062458
0.158854
0.0694856
0.0575471
0.148579
0.162015
0.266865
0.129355
0.277756
0.0690238
0.0299933
0.117546
0.135077
0.0833347
0.055018
0.14018
0.22634
0.0486023
0.0409861
0.0126234
0.0682462
0.0509742
0.0317029
0.215964
0.191828
0.0846522
0.090685
0.0488384
0.161306
0.190954
0.210649
0.333013
0.197175
0.165526
0.146946
0.112927
0.0867438
0.0413197
0.0748604
0.0537466
0.0184111
0.137154
0.123021
0.127252
0.320825
0.22878
0.212236
0.0871271
0.0812952
0.26869
0.120991
0.147226
0.241633
0.109946
0.036601
0.0663963
0.0654383
0.075698
0.161115
0.0146893
0.0831232
0.245021
0.111542
0.0485332
0.0566788
0.0551457
0.0707714
0.0446855
0.0262124
0.158287
0.319375
0.340986
0.123601
0.0569886
0.0314043
0.036875
0.148228
0.00685729
0.0381112
0.227208
0.387145
0.0826423
0.0846082
0.0374296
0.0424628
0.0350584
0.0145401
0.116823
0.500881
0.0500039
0.039974
0.090961
0.0439926
0.0488436
0.0371693
0.0141259
0.077463
0.108329
0.0777018
0.0928663
0.208435
0.0584161
0.0260481
0.0328844
0.00166841
0.017509
0.0619495
0.188853
0.0878655
0.204078
0.0772271
0.0344
0.0182002
0.00643889
0.0826225
0.259799
0.310291
0.401505
0.604032
0.121488
0.0206963
0.00653923
0
0.00851472
0.0493798
0.0847982
0.062748
0.0944789
0.0359546
0.00327665
0.00474485
0.00547687
0.00845623
0.0548334
0.0853481
0.132126
0.0977945
0.0566638
0.0250987
0.0701022
0.0511998
0.0378862
0.0888432
0.333384
0.270656
0.246602
0.0552897
0.00125896
0.000677836
0.00078241
0.00157734
0.03882
0.327708
0.553199
0.424518
0.0711621
0.0115722
0.0348751
0.00731425
0.0110414
0.0988571
0.0678186
0.0955419
0.152223
0.0479032
0.028939
0.0408619
0.0159475
0.013527
0.0439499
0.108822
0.230469
0.383907
0.120215
0.0275502
0.00583741
0.00145359
0.00453929
0.0456847
0.071472
0.428965
0.301241
0.0313663
0.0166157
0.0203284
0.00224542
0.00236764
0.0372774
0.12133
0.473319
0.3946
0.0215674
0.0110419
0.00290405
0.000152999
0
0.0382845
0.0599226
0.289533
0.244105
0.0823964
0.0130709
0.00287433
0.000201818
0.000286379
0.0182646
0.152393
0.345362
0.212185
0.0241526
0.00736996
0.0104873
0.0139152
0.036295
0.0651093
0.100419
0.460441
0.237264
0.00597367
0.00339038
0.000474241
0
0.00244349
0.0113976
0.254294
0.460441
0.116477
0.00239127
0.130362
0.0729717
0.0844074
0.048979
0.0741898
0.10763
0.117083
0.0695443
0.0111368
0.0942843
0.0919863
0.0835389
0.118741
0.114693
0.016922
0.0415779
0.0153577
0.0322611
0.296644
0.351865
0.179715
0.119745
0.0744136
0.116466
0.0921435
0.0216748
0.0287503
0.357386
0.219791
0.129025
0.055272
0.0721071
0.00134168
0.124588
0.0920486
0.100282
0.389629
0.427382
0.0516007
0.0343089
0.0547332
0.00579628
0.0939593
0.0398276
0.156104
0.297434
0.174445
0.0647715
0.0287317
0.0368172
0.104117
0.219756
0.0684359
0.212848
0.269418
0.0503288
0.00488425
0.00487454
0.0586248
0.00169233
0.270107
0.16463
0.223469
0.221402
0.177886
0.0147056
0.0264672
0.0531021
0.138088
0.29939
0.130153
0.33491
0.301008
0.146359
0.00134438
0.0338668
0.116403
0.0362277
0.0042195
0.0332742
0.0715053
0.125957
0.169564
0.0877723
0.243155
0.0773814
0.0732823
0.0424172
0.0474413
0.196776
0.233677
0.124694
0.0101297
0.128305
0.107053
0.0328686
0.0359517
0.0868053
0.0646287
0.288024
0.197535
0.0698265
0.236589
0.093438
0.201543
0.056338
0.0658088
0.190438
0.39313
0.192253
0.0322006
0.324164
0.17849
0.0784101
0.0732628
0.0784978
0.165285
0.171583
0.0357821
0.0265126
0.0484485
0.0787
0.214271
0.271104
0.193112
0.0766597
0.0991831
0.0930056
0.0426135
0.0349009
0.111753
0.0906235
0.0552735
0.0839231
0.236359
0.29512
0.100985
0.0686043
0.147419
0.0654564
0.138628
0.140802
0.399702
0.318187
0.221429
0.171147
0.106587
0.0608572
0.0267119
0.13985
0.111185
0.0357664
0.0102463
0.0114451
0.0312898
0.008516
0.00274085
0.057335
0.368361
0.140591
0.0207463
0.0054036
0.000801555
0.0101747
0.00413842
0.0367561
0.172751
0.143318
0.173118
0.205161
0.146607
0.0336553
0.0467681
0.0177194
0.00126212
0.0236478
0.549933
0.47573
0.183534
0.0945165
0.0219671
0.0163763
0.00689737
0.0624882
0.16246
0.193577
0.0814711
0.0545853
0.00804857
0.00102979
0
0
0.0311509
0.1133
0.126779
0.272692
0.272774
0.0274495
0.00171632
0
0
0.00613957
0.052258
0.338602
0.302434
0.111612
0.00927585
0.00232013
0.000122113
0
0.0694309
0.171403
0.150826
0.49779
0.435453
0.0207753
0
0
0
0.0226469
0.0868328
0.13457
0.233116
0.173794
0.0170504
0.000191503
0
0
9.99009e-005
0.0191372
0.166785
0.393591
0.218045
0.0143677
0
0
0
0.000699306
0.029359
0.0546905
0.492059
0.280548
0.00893819
0
0
0
0
0.0208905
0.0953945
0.492059
0.201789
0.00514387
0
0
0
0
0.0209414
0.0441656
0.418352
0.20676
0.00843299
0
0
0
0.000236976
0.00688257
0.0407083
0.461044
0.194432
0.00335705
0
0
0
0
0.00432851
0.0502711
0.461044
0.178847
0.00446016
0
0
0.00025441
0.000100345
0.00967031
0.0334664
0.461044
0.147072
0.0022855
0.000558543
0
0.00268694
0.00100444
0.00473762
0.0791654
0.522186
0.1202
0.000233413
0.0126755
0.00196949
0.00196029
0.00324461
0.0068647
0.125307
0.319884
0.0397323
0.00163389
0.367945
0.113727
0.0421388
0.0274225
0.0473951
0.0570812
0.274287
0.0384104
0.00584872
0.0234388
0.00317946
0.00547803
0.00141437
0.00285033
0.0413394
0.0942302
0.0254347
0.0287606
0.522186
0.129278
0.00562855
0.00348913
0.00672265
0.0323179
0.0301555
0.00262498
0.0236456
0.465099
0.199091
0.0454297
0.0146905
0.0225908
0
0.0384198
0.0503324
0.0953945
0.260379
0.248292
0.0296031
0.00533788
0.00748607
0.00379327
0.0123743
0.0171053
0.019525
0.534502
0.239206
0.00648849
0.00628813
0.00350214
0.00448191
0.00599799
0.0529484
0.0420255
0.348026
0.266855
0.0400306
0.00840059
0.00210015
0
0.100996
0.120952
0.261117
0.188784
0.124112
0.0118809
0.00496771
0.00885688
0.134163
0.117835
0.125995
0.411341
0.215341
0.15866
0
0.0286979
0.0742596
0.0172174
0.0249174
0.138552
0.198529
0.289012
0.11868
0.0208117
0.00160669
0.000401671
0.100654
0.108424
0.312715
0.390954
0.25519
0.0268269
0
0.026574
0.015976
0.0258642
0.036055
0.0453896
0.0711674
0.104199
0.078182
0.0322688
0.129084
0.0659023
0.118127
0.0695354
0.0282715
0.104382
0.117027
0.0972323
0.0323237
0.202873
0.169041
0.0654164
0.0484274
0.14781
0.11547
0.0756362
0.0601472
0.023215
0.0664727
0.0428183
0.148747
0.408071
0.642424
0.105194
0.0638242
0.0500636
0.0223806
0.0566387
0.191075
0.0538727
0.0759381
0.0366144
0.0628259
0.035817
0.0263786
0.0139327
0.0457387
0.0552828
0.0406953
0.16845
0.245411
0.194851
0.0281089
0.0360511
0.0132775
0.0251145
0.0236039
0.170019
0.304215
0.337392
0.0702762
0.00759716
0.0212297
0.00560965
0.014676
0.133067
0.257394
0.405689
0.466066
0.234451
0.0361287
0.120476
0.0124402
0.0144872
0.0538148
0.0321065
0.1481
0.198361
0.133704
0.0291042
0.0109359
0.00271521
0.00147359
0.00144545
0.183278
0.456042
0.199324
0.0771449
0.0430883
0.00384532
0.000714888
0.0165752
0.0277887
0.0652035
0.342053
0.266908
0.100218
0.0276178
0.0251865
0.00251617
0.00147881
0.000566514
0.0919329
0.512939
0.316133
0.0425817
0.026892
0.00135632
0
0.00349165
0.00648449
0.121207
0.327783
0.113701
0.00586207
0.00473916
0.000249431
0
0.0183828
0.0324328
0.0527134
0.458636
0.281337
0.00720406
0
0
0
0.00614712
0.015059
0.104864
0.458636
0.157516
0.000812661
0.0028435
0.00689179
0.00118979
0.00284682
0.0231548
0.072849
0.458636
0.23974
0.000987855
0
0.0112369
0.00198298
0.000406688
0.0744699
0.0111259
0.46472
0.218595
0.00209508
0
0
0
0
0.00656212
0.0736033
0.46472
0.123256
0.00170744
0.00280652
0.000935506
0.0034048
0.0109449
0.0225415
0.0538273
0.46472
0.154661
0.00185424
0
0.00166995
0.000294697
0.00516771
0.0482703
0.121364
0.369332
0.186037
0.00284573
0.0196456
0.00654854
0.023567
0.104303
0.1008
0.13389
0.515157
0.0852689
0.00132812
0.0202908
0.0159922
0.0199957
0.049643
0.0509492
0.0793771
0.243504
0.0833708
0.00183085
0.0197669
0.0215925
0.0238051
0.0373545
0.0242753
0.229454
0.199743
0.126726
0.00530799
0.113787
0.0519596
0.0854122
0.258108
0.0965269
0.339443
0.360576
0.253088
0.0632085
0.127228
0.0511711
0.0660953
0.141915
0.0242144
0.112275
0.139706
0.0616798
0.0159945
0.00882942
0.00329876
0.00695813
0.00365125
0.00437181
0.139737
0.16345
0.0556828
0.0612635
0.37912
0.125878
0.0015818
0.000262363
0.0130775
0.238397
0.356777
0.304218
0.100445
0.0312823
0.00378227
0.00801026
0.0107996
0.00480263
0.258325
0.302209
0.246511
0.200937
0.313159
0.216228
0.000382848
0.000127616
0.0257823
0.0156474
0.0266835
0.0187089
0.028519
0.411923
0.167242
0.00172401
0.00170362
0.00390462
0.0126328
0.0114975
0.05627
0.0593762
0.293202
0.146072
0.0114
0.002831
0.000707748
0.031301
0.030025
0.0400988
0.0516778
0.507227
0.2689
5.80176e-005
0
0.00708766
0.00915017
0.0112747
0.0267126
0.0713916
0.507227
0.191328
0.000406123
0
0
0.0645868
0.0646191
0.166225
0.155873
0.185676
0.0804402
0.00784176
0.000716395
0.000305023
0.0625489
0.0707344
0.258893
0.353225
0.15991
0.00821273
0
0.0108509
0.0035942
0.0495216
0.0610146
0.0948182
0.137061
0.445365
0.111848
0.000279361
0
0.00125084
0.0520553
0.0433987
0.112584
0.319119
0.465231
0.13637
0
0
0.00875586
0.0127804
0.035293
0.126089
0.102129
0.0455927
0.0369128
0.00576916
0.0259444
0.00858952
0.0278322
0.287444
0.580644
0.143478
0.0381692
0.026063
0.00181651
0.0147461
0.0335879
0.00413936
0.036952
0.102618
0.128186
0.123666
0.208207
0.0522225
0.0269092
0.00878095
0.00134867
0.21067
0.381708
0.16754
0.164595
0.237256
0.204163
0.147331
0.0584819
0.074581
0.252339
0.433631
0.10471
0.00701878
0.00770572
0.00440032
0.0221384
0.0477484
0.190988
0.206756
0.272666
0.120937
0.130667
0.0425927
0.0294928
0.0314399
0.0289812
0.0224574
0.109169
0.266453
0.107447
0.0335158
0.0341427
0.0969166
0.264442
0.127027
0.062256
0.0670986
0.122527
0.094095
0.210715
0.0387987
0.0684413
0.429896
0.141138
0.0658716
0.245773
0.134538
0.0690369
0.101557
0.0129771
0.00930053
0.0230145
0.0155125
0.0586444
0.48057
0.204666
0.0699514
0.0672913
0.00138385
0.00474945
0.0390122
0.0808429
0.015074
0.0843594
0.0363895
0.0798789
0.163038
0.0262612
0.0470054
0.278057
0.113327
0.00978849
0.160162
0.0602355
0.104123
0.111143
0.00968692
0.0871096
0.48057
0.365931
0.120666
0.355994
0.0774388
0.045568
0.0657678
0.0179527
0.0107598
0.0168602
0.10391
0.14595
0.343788
0.085421
0.0320387
0.0587473
0.074768
0.0153066
0.0122338
0.199327
0.0828828
0.0852419
0.019233
0.0759466
0.109613
0.029246
0.0925106
0.35518
0.279818
0.197862
0.0994632
0.0327041
0.0533979
0.0979121
0.110328
0.145118
0.385675
0.317469
0.0961726
0.355717
0.066925
0.0321873
0.0274156
0.0321768
0.0121543
0.0344675
0.138348
0.133808
0.231024
0.0798081
0.0196208
0.0153467
0.0112132
0.0612036
0.192591
0.231814
0.192995
0.11122
0.041746
0.0531636
0.0456927
0.0504436
0.13164
0.315243
0.201097
0.493366
0.189047
0.0444509
0.0318981
0.0105042
0.0136642
0.0932407
0.231405
0.232586
0.139631
0.192934
0.0925055
0.0160849
0.0509454
0.0352737
0.0630996
0.205878
0.0947224
0.224067
0.311369
0.196389
0.171156
0.123066
0.0552068
0.0259163
0.0805442
0.0241201
0.452834
0.241462
0.137042
0.0168187
0.0218969
0.0381598
0.0469956
0.12563
0.123778
0.237604
0.192337
0.173412
0.149143
0.0739541
0.0758502
0.124985
0.221412
0.198108
0.15085
0.263463
0.161187
0.134224
0.0623858
0.035801
0.0105246
0.0689004
0.0444988
0.17459
0.200955
0.135444
0.112148
0.296972
0.111848
0.00308029
0.0576002
0.0835406
0.0658649
0.0804467
0.0435097
0.093775
0.0445449
0.0587803
0.149054
0.334868
0.265568
0.130478
0.0517787
0.0115564
0.160374
0.297975
0.0947151
0.0551314
0.285047
0.34626
0.0204867
0.0114261
0.0207569
0.030992
0.401423
0.140697
0
0.00403261
0.0111875
0.000282382
0.00136637
0.00270927
0.0113553
0.459396
0.180413
0.00272069
0
0
0.0230465
0.00226156
0.00201453
0.0655995
0.459396
0.161257
0.00687658
0.0261935
0.0395746
0
0
0.00207328
0.00704891
0.459396
0.269024
0.0128095
0
0
0.00276257
0.00744634
0.0157185
0.0234058
0.330614
0.217872
0.014827
0
0.000632384
0.00948898
0.00446781
0.0130474
0.0532598
0.33181
0.34934
0.0282896
0.00365637
0.00741826
4.81064e-005
0
0.0112988
0.0151401
0.328625
0.339615
0.0695139
0.0316246
4.81064e-005
0.013795
0.00897219
0.00677929
0.0245959
0.161717
0.506963
0.113908
0.102218
0.0212778
0.0337443
0.0444349
0.04407
0.0841129
0.112542
0.225056
0.109092
0.0600416
0.058903
0.0408062
0.0489915
0.0500049
0.0520081
0.0965817
0.293565
0.387225
0.398063
0.241236
0.0893731
0.149209
0.082335
0.0446372
0.0417466
0.0593713
0.0598401
0.0782757
0.115224
0.147915
0.0378905
0.0205
0.0355252
0.0182915
0.0813529
0.102009
0.324371
0.356641
0.00650517
0.00685297
0.0121152
0.0118689
0.0144803
0.0226456
0.0983743
0.317124
0.164566
0.0100592
0.00077459
0.00439287
0.0179004
0.0614952
0.0125178
0.0779038
0.539089
0.146868
0.0270703
0.00228615
0.00272665
0.00936002
0.0119627
0.00540973
0.0320581
0.290006
0.185913
0.0110473
0.00201232
0.000353061
0.0163669
0.0335642
0.0138333
0.0948466
0.559655
0.197821
0.00690938
8.62615e-005
0
0.0135534
0.0367357
0.0110275
0.0936521
0.327443
0.09898
0.00340668
0
0
0.0149766
0.0165268
0.00501112
0.165478
0.495865
0.184242
0.0191577
0.000224101
0
0.00412111
0.0119475
0.0164717
0.154525
0.376817
0.124851
0.0318195
0
0
0
0.000701458
0.0101071
0.206405
0.495865
0.209619
0.0141731
0.00226264
0.000754214
0.00872768
0.0125966
0.00654917
0.070618
0.457924
0.114111
0.0435982
0.00377107
0.00214482
0.00613641
0.0112519
0.0143636
0.115232
0.473806
0.141715
0.0053409
0
0
0.00785638
0.00261879
0.00091742
0.0776872
0.453287
0.0944744
0
0
0
0.013094
0.00436466
0
0.108716
0.473806
0.088437
0.0741543
0.00693785
0.00268251
0.00584702
0.00502536
0.00551504
0.104228
0.430947
0.127127
0.247087
0.102334
0.0226869
0.00350821
0.00115528
0.00150281
0.0378263
0.27123
0.17134
0.00683204
0.000779988
0
0.00184006
0.000613354
0
0.093656
0.490477
0.117574
0.0395487
0.0292667
0.0041256
0
0
0
0.090984
0.490477
0.20558
0.210595
0.120161
0.0765973
0.00127334
0.00184679
0.00430918
0.0109072
0.112405
0.113315
0.0901064
0.0386714
0.0516946
0.00891338
0.00367086
0.00856534
0.0853715
0.16586
0.191894
0.0345977
0.043055
0.0144019
0
0
0
0.0368678
0.520586
0.298385
0.0223894
0.0150928
0.00864111
0
0
0
0.0435826
0.520586
0.368644
0.0437423
0.00355586
0.00304777
0.0179439
0.00469987
0.00939542
0.145699
0.243545
0.336052
0.145663
0.00328321
0.000660384
0.113339
0.208006
0.0966869
0.080477
0.152313
0.343179
0.0359496
0.00370874
0.000660384
0.00182741
9.61794e-005
0
0.0372236
0.424916
0.34373
0.116143
0.0160382
0.0134552
0.0188773
0.293092
0.0953491
0.0276594
0.158495
0.258069
0.0278499
0.000666012
0.000133962
0.031394
0.362534
0.148959
0.0199433
0.0108515
0.0287159
0
0
0.00553577
0.00932628
0.449593
0.200963
0.0094372
0
0
0.0218003
0.00325341
0.00580813
0.00770876
0.481245
0.178931
0.011966
0.00735767
0.0192162
0
0
0.00401723
0.0302227
0.481245
0.236042
0.00234925
0
0
0.00402619
0.00216795
0.0301452
0.0427126
0.250249
0.186034
0.0617893
0.0669442
0.0124334
0.0290918
0.0131785
0.0180871
0.031376
0.0530751
0.20088
0.235744
0.192581
0.0323783
0.0281833
0.0151756
0.0191328
0.131601
0.467399
0.166237
0.0482391
0.060787
0.0207223
0.0624113
0.0266592
0.0181718
0.108518
0.156572
0.0673661
0.467027
0.375869
0.0648537
0.106535
0.201281
0.122788
0.087772
0.0522598
0.131609
0.0522184
0.062811
0.0654519
0.141704
0.0371508
0.045305
0.0723639
0.117336
0.157396
0.072021
0.129291
0.166597
0.193214
0.050836
0.0619879
0.370225
0.221706
0.190548
0.0681829
0.0457881
0.0177233
0.190371
0.0291681
0.0541078
0.164936
0.27654
0.257286
0.278436
0.163972
0.101965
0.0620222
0.0165301
0.0386922
0.0627218
0.0728349
0.0235932
0.0274368
0.200563
0.15644
0.0350112
0.0361261
0.057502
0.174867
0.12151
0.0668632
0.155761
0.635606
0.21792
0.0846956
0.0432383
0.0923022
0.0855687
0.0854492
0.0743882
0.127509
0.103587
0.0966863
0.0550532
0.119849
0.150497
0.293
0.120649
0.105495
0.0605641
0.122397
0.080055
0.0764687
0.0188268
0.0373784
0.0427442
0.0477241
0.0406192
0.154004
0.301676
0.150087
0.218681
0.0206284
0.0397483
0.00739055
0.0126592
0.0126707
0.146835
0.516831
0.498152
0.0578198
0.0641897
0.0677182
0.109115
0.107601
0.0682395
0.0136543
0.0512079
0.0495279
0.200821
0.0546725
0.0859704
0.0625925
0.107156
0.0724534
0.0180177
0.181778
0.158279
0.0306806
0.00187178
0.00387407
0.0125027
0.00448732
0.000525325
0.059367
0.393005
0.164826
0
3.03326e-005
0.000272994
0.020381
0.00679367
0
0.102235
0.567819
0.159073
0.0347734
0.00945219
0.0166486
0.00590825
0.00995986
0.0093282
0.0269612
0.243703
0.109433
0.0078676
0.00244403
0.00293169
0.00291157
0.0109372
0.0212978
0.0861715
0.527943
0.195984
0
0
0
0.00214466
0.000714887
0
0.104784
0.418652
0.0713266
0
0
0
0
0
0
0.13458
0.495818
0.102629
0.0134436
0.000924598
0.0021574
0.00030638
0.00487916
0.0088267
0.101835
0.367148
0.125409
0.00944655
0.000554759
0.00129444
0
0.00321024
0.00246799
0.13802
0.495818
0.24297
0.000431482
3.73968e-005
0
0
0
0
0.060187
0.431256
0.152342
0.00189201
0.000261778
0
0
0
0
0.0744338
0.47568
0.18985
0.000482665
0
0
0
0.000377544
0.00227561
0.121558
0.412565
0.13173
0
0
0
0
0.00991813
0.0222822
0.124314
0.47568
0.16632
0.00207619
0.000497563
0.000125572
0
0
0
0.0397491
0.454824
0.1309
0.0101425
0.00337742
0.0226301
0.0107902
0.0796717
0.0152698
0.0368704
0.341838
0.132506
1.89661e-005
0
0
0
0.0102126
0.0187784
0.0705164
0.493552
0.151664
0.0629233
0.00412027
0.0230146
0.011097
0.0194874
0.0156364
0.122592
0.493552
0.216043
0.0201924
0.00332833
0.0564431
0.0439811
0.386947
0.0955515
0.0103663
0.09782
0.0587054
0.010951
0.00121678
0.035091
0.0623364
0.520682
0.151987
0
0.00396668
0.00569974
0.217102
0.0146396
0.121694
0.079245
0.158567
0.0286828
0.060939
0.275043
0.17674
0.151232
0.0116244
0.140696
0.131095
0.444044
0.0873478
0.00877151
0.0172898
0.0377213
0.00806166
0.00434089
0.0046114
0.0549945
0.439306
0.092571
0.0110161
0.00936448
0.0021806
0.0265175
0.00871774
0.0154704
0.0679438
0.243804
0.0372514
0.135356
0.147874
0.0636895
0.0076905
0.00149851
0.0241295
0.0518095
0.573815
0.184943
0.000804142
0.000432999
0.00148258
0.0245495
0.0127628
0.00928227
0.075582
0.472376
0.157987
0.0127014
0.0241647
0.0436744
0.241154
0.0491745
0.052858
0.167337
0.120757
0.0900916
0.0410082
0.0210927
0.0585642
0.120517
0.0539325
0.0412955
0.0875043
0.0875694
0.14794
0.184895
0.162601
0.123685
0.36191
0.0985137
0.164305
0.173887
0.121271
0.100966
0.291133
0.0930239
0.202274
0.0851174
0.0719138
0.157893
0.196737
0.201451
0.169617
0.217157
0.139086
0.176234
0.0855523
0.0682012
0.077137
0.0478883
0.0321814
0.0662085
0.116501
0.179446
0.159127
0.0932622
0.142417
0.0926704
0.109027
0.0740713
0.0942036
0.0238074
0.364953
0.202406
0.146563
0.15136
0.10726
0.0774133
0.0481705
0.0647184
0.0548274
0.107003
0.142002
0.18944
0.27074
0.0629523
0.0722256
0.218455
0.139882
0.0184221
0.327419
0.315515
0.0244227
0.112177
0.0581262
0.0850157
0.148801
0.102444
0.00820517
0.185157
0.120079
0.0675406
0.0970285
0.0760143
0.11494
0.222015
0.145714
0.0616801
0.0578655
0.102405
0.120785
0.108717
0.0646819
0.086063
0.319572
0.171945
0.0381751
0.183198
0.199537
0.184405
0.089785
0.0801102
0.204081
0.455719
0.200555
0.111547
0.0298274
0.201258
0.0686164
0.0658959
0.050805
0.0341901
0.0776022
0.0858065
0.0940253
0.205785
0.0835652
0.0816445
0.0345442
0.0189762
0.000438463
0.0753346
0.234858
0.231845
0.494258
0.226669
0.0897518
0.0672306
0.0539314
0.0915421
0.211711
0.190823
0.101833
0.0434125
0.0980872
0.148983
0.115162
0.0513236
0.0590171
0.102013
0.248591
0.231583
0.0690422
0.176162
0.0683221
0.0355792
0.0148735
0
0.024619
0.054856
0.0641187
0.223173
0.184242
0.0622482
0.051909
0.00892411
0.000547331
0.0252336
0.0170148
0.0840873
0.598191
0.46336
0.110101
0.150771
0.0180984
0.0204442
0.0362236
0.0598842
0.0360821
0.0204502
0.119408
0.0990578
0.22577
0.060436
0.0303647
0.0551805
0.0227564
0.00771787
0.19807
0.249207
0.00462446
0.00455138
0
0.000787501
0.0060479
0.0108189
0.11872
0.402948
0.134006
0.0216219
0
0
0.000472501
0.0443262
0.10241
0.315091
0.512304
0.137581
0.00804052
0.0242841
0.022431
0.0182675
0.0542975
0.0226957
0.045187
0.196243
0.0952511
0.0630949
0.00437191
0.00355731
0.00682319
0.0603854
0.149367
0.419263
0.291898
0.0992165
0.0882108
0
0
0
0.03667
0.0702903
0.171161
0.357069
0.122302
0.152631
0.00200221
0.00278317
0.00149863
0.00523857
0.0504506
0.214951
0.415594
0.188413
0.256322
0.00141608
0.0021825
0.00405322
0.0234689
0.0714566
0.256681
0.157571
0.12907
0.294561
0.00384394
0.0013095
0.00243193
0.00314314
0.0306478
0.156396
0.350593
0.260738
0.20364
0.00850528
0.0436537
0.0204208
0.0134605
0.026818
0.160457
0.195869
0.21879
0.157648
0.038917
0.104716
0.0871803
0.177966
0.0350428
0.0354072
0.0402067
0.206213
0.0826781
0.00583741
0.00383086
0
0.000378283
0.015439
0.144386
0.425025
0.31307
0.208572
0.0899218
0.0624598
0.0466131
0.041744
0.0047508
0.0467416
0.186536
0.506309
0.0218459
0.0370176
0.046364
0.123425
0.450274
0.132016
0
0.00303731
0.0545217
0.0356493
0.0267552
0.00885648
0.116267
0.497317
0.161453
0.00450621
0.00725163
0.00255046
0.19326
0.170296
0.149771
0.202847
0.213373
0.0223376
0
0.0211758
0.17628
0.0739877
0.0920288
0.127409
0.245704
0.300552
0.0702265
0.00289432
0.0140395
0.0294293
0.100801
0.0680795
0.0943365
0.103304
0.0514047
0.0252983
0.174953
0.0424849
0.106072
0.0360421
0.0412673
0.0895225
0.151073
0.0982588
0.0383448
0.0745418
0.0220307
0.0702588
0.398171
0.19551
0.0411906
0.0363229
0.014327
0.0200779
0.157426
0.126988
0.408879
0.278336
0.174902
0.0430371
0.0839272
0.0376855
0.0756988
0.147313
0.203402
0.430689
0.0842884
0.100667
0.146206
0.157692
0.0715384
0.0526346
0.0302296
0.0200884
0.047209
0.116901
0.188525
0.119174
0.139945
0.137875
0.175489
0.0486654
0.0852258
0.0984712
0.200411
0.201893
0.122034
0.19706
0.0785772
0.20546
0.198564
0.206265
0.301999
0.124952
0.265534
0.196555
0.283674
0.0699685
0.161915
0.0715156
0.0447495
0.03809
0.151607
0.0718642
0.0449502
0.10993
0.213568
0.305321
0.131333
0.0670117
0.157788
0.235786
0.0905261
0.0671319
0.249412
0.263475
0.247755
0.105806
0.0214808
0.212659
0.0937237
0.104641
0.0638768
0.143328
0.0408239
0.205283
0.140545
0.0328814
0.0974397
0.202723
0.121162
0.0789778
0.112633
0.0235457
0.136058
0.0994288
0.0227284
0.181475
0.121462
0.066247
0.0478
0.130851
0.130172
0.19815
0.0618131
0.0142532
0.122502
0.144495
0.134286
0.0910777
0.0941528
0.172186
0.219127
0.16617
0.0495112
0.127218
0.194887
0.058781
0.12423
0.137902
0.0315906
0.12088
0.048252
0.010969
0.108111
0.212266
0.131733
0.420519
0.226423
0.132702
0.164518
0.119668
0.04601
0.088736
0.159037
0.189445
0.0397595
0.0446267
0.104251
0.139847
0.0398759
0.0584533
0.185093
0.232939
0.263566
0.199391
0.107639
0.0836905
0.0755122
0.00809718
0.160985
0.326192
0.217635
0.125981
0.188614
0.0783993
0.0778392
0.0932537
0.045097
0.0877249
0.11358
0.350955
0.139867
0.157508
0.0580484
0.037493
0.106961
0.1034
0.143211
0.147218
0.053925
0.0710568
0.131345
0.11234
0.159732
0.0706424
0.0238823
0.14074
0.16145
0.0928347
0.0523289
0.0477281
0.0528742
0.15358
0.309083
0.40359
0.339564
0.195674
0.13352
0.0719282
0.104372
0.0549765
0.0373186
0.105021
0.046825
0.10034
0.0845024
0.187311
0.0835902
0.134181
0.0543637
0.181369
0.255793
0.0904194
0.118885
0.103666
0.228083
0.0168787
0.0251036
0.0516604
0.0469824
0.116616
0.179941
0.16109
0.189614
0.324657
0.0886815
0.0234124
0.0485732
0.0167395
0.0346501
0.0487142
0.434055
0.370972
0.0704559
0.0247126
0.0342443
0.0560589
0.156616
0.247661
0.0674213
0.0487948
0.0750632
0.222274
0.192131
0.0305205
0.0613564
0.0740134
0.177375
0.0401879
0.109635
0.173634
0.107393
0.0577472
0.0194683
0.00398651
0.0376252
0.00395183
0.0492822
0.426398
0.256551
0.395558
0.124329
0.0739801
0.0151852
0.0911796
0.0185504
0.0275077
0.215745
0.460504
0.110737
0.156725
0.0631302
0.0102792
0.0840532
0.040025
0.0336711
0.075971
0.0747586
0.158378
0.126588
0.17448
0.0383737
0.206103
0.0654957
0.0312189
0.0330762
0.109835
0.495857
0.322834
0.23256
0.116833
0.0801292
0.0127236
0
0.0317093
0.214974
0.139463
0.173912
0.203133
0.22825
0.103846
0.0363911
0.00178452
0.0308225
0.0831136
0.229881
0.199831
0.186177
0.0602488
0.124765
0.0313828
0.00940703
0.0119795
0.0620866
0.123093
0.152247
0.0648516
0.13044
0.126425
0.049577
0.0321262
0.0207161
0.0352995