0.0602142
0.053587
0.0736473
0.129266
0.0853131
0.148079
0.109687
0.0573481
0.0135889
0.111246
0.0854922
0.24697
0.219989
0.0723182
0.133712
0.318851
0.143712
0.000461
0.0903819
0.0260714
0.0847504
0.181718
0.176433
0.164933
0.0918032
0.0664736
0.100332
0.139184
0.166033
0.373121
0.381095
0.195488
0.201757
0.0969132
0.14156
0.151122
0.0855792
0.024215
0.0873652
0.0965721
0.0389587
0.0927839
0.337904
0.208506
0.0329839
0.17018
0.0445635
0.125051
0.133536
0.0511778
0.0598277
0.326179
0.262036
0.161447
0.104041
0.137316
0.142332
0.190668
0.0763634
0.0370402
0.167325
0.17359
0.12196
0.132552
0.226767
0.0859893
0.157469
0.0911873
0.00670806
0.285567
0.211824
0.286
0.0859846
0.109012
0.110252
0.0680658
0.0378026
0.0376953
0.0468144
0.0363086
0.0863933
0.0459897
0.276961
0.356095
0.094279
0.0201857
0.0362168
0.00636616
0.0103335
0.0602179
0.145252
0.403938
0.139957
0.0603982
0.0417793
0.00617285
0.0526665
0.0364383
0.14315
0.313107
0.486748
0.279628
0.138777
0.0258071
0.0102881
0
0.0181972
0.120962
0.0394751
0.198351
0.473171
0.114914
0.00963172
0.00369147
0.000384945
0.0119869
0.0770476
0.0385914
0.0927997
0.281683
0.0844175
0.108749
0.0491039
0.029172
0.0697499
0.113919
0.242931
0.237762
0.190123
0.145026
0.0170056
0.00152198
0
0.0587373
0.221722
0.18471
0.0739886
0.070869
0.034592
0.0664219
0.0697704
0.0588217
0.279036
0.418594
0.0166447
0.0107429
0.0865011
0.104824
0.140418
0.193137
0.0766862
0.0449641
0.0215124
0.0352301
0.0508363
0.12339
0.19192
0.14295
0.252671
0.165219
0.0835453
0.00407544
0.105262
0.0138578
0.0562266
0.0147138
0.067477
0.222401
0.184064
0.217295
0.158023
0.0653552
0.0497344
0.101221
0.0166169
0.0337017
0.24408
0.43144
0.497991
0.0726142
0.115998
0.170404
0.134659
0.108567
0.160592
0.0833944
0.10735
0.0659348
0.0264919
0.0942458
0.163143
0.162785
0.186884
0.215379
0.00762067
0.0529286
0.0578041
0.154868
0.102224
0.156732
0.166216
0.0228551
0.12043
0.0956236
0.266077
0.346429
0.0721173
0.166587
0.238478
0.238305
0.283446
0.332637
0.0716411
0.0765684
0.0953163
0.122107
0.108396
0.0608192
0.0893323
0.137153
0.0569656
0.00379131
0.0387664
0.0233379
0.118868
0.280362
0.109005
0.210343
0.159877
0.0648807
0.0229958
0.0321492
0.0123771
0.103184
0.252138
0.128962
0.223364
0.228153
0.147629
0.0823153
0.0576408
0.0382315
0.0847753
0.363123
0.264102
0.451324
0.249707
0.0522512
0.0551831
0.0511112
0.053956
0.0972719
0.106188
0.103282
0.15886
0.128196
0.0819385
0.0342598
0.0142966
0.0152879
0.0600955
0.0120785
0.198732
0.291307
0.22719
0.0643812
0.0488548
0.0209257
0.0482396
0.0188437
0.0591336
0.233951
0.426266
0.236121
0.0532
0.00934487
0.0109634
0.0145284
0.036789
0.0635424
0.350143
0.487705
0.151309
0.0315696
0.00425458
0.00926679
0.0254576
0.0328808
0.0287476
0.171992
0.318748
0.426765
0.147388
0.0572846
0.017339
0.0597692
0.0374244
0.0388756
0.0516176
0.15794
0.272595
0.168276
0.0206005
0.0150981
0.0423011
0.0502115
0.129162
0.269318
0.345013
0.107355
0.0909947
0.0173356
0.0504742
0.200904
0.1158
0.0660058
0.0664027
0.0866423
0.154686
0.257156
0.0680774
0.0374306
0.197074
0.0862023
0.0680083
0.0101695
0.00952565
0.0376765
0.0680467
0.107572
0.100111
0.162846
0.224746
0.145676
0.186965
0.108488
0.0817159
0.0721033
0.149231
0.0591147
0.218946
0.466745
0.0462616
0.00541391
0.00881641
0.00870053
0.00227936
0.0150755
0.0383211
0.141151
0.235747
0.142997
0.0892068
0.017121
0.0054329
0.00379894
0.0211442
0.0304949
0.16017
0.571976
0.136969
0.192945
0.069934
0.0470265
0.017812
0.0156761
0.052873
0.0969508
0.258867
0.141292
0.12599
0.0336809
0.0986158
0.0571303
0.000267707
0.183036
0.157113
0.467015
0.149287
0.0858595
0.0178354
0.00146938
0.00157433
0.00210308
0.0335961
0.050612
0.363085
0.146467
0.0301842
0.0198188
0.0126854
0.0112633
1.8763e-005
0.0979865
0.133834
0.513902
0.20784
0.118698
0.0447881
0.0438822
0.0244132
0
0.0394901
0.0495382
0.297555
0.444773
0.217073
0.038669
0.0319814
0.00624218
0
0
0.0302003
0.214568
0.215634
0.0115301
0.0075597
0.00626888
0.00446417
0
0.0214236
0.0625665
0.436988
0.444773
0.0518401
0.00268532
0.000737055
0.000320774
0
0
0.0244961
0.252984
0.426128
0.15051
0.0073284
0.030853
0.00459743
0
0
0.0417325
0.157322
0.310554
0.103317
0.00581481
0.00542723
0.0153371
0.0107465
0.0351715
0.112976
0.385734
0.452833
0.0686182
0
0
0
0
0
0.017807
0.112652
0.372214
0.070444
0
0
0
0
0.00502451
0.020397
0.293985
0.158382
0.0152289
0.0157423
0.0011022
0.0158686
0.0279146
0.0913731
0.210652
0.32279
0.13008
0.0720376
0.0922303
0.000157457
0.0120191
0.0361667
0.19192
0.467701
0.250369
0.172132
0.0442758
0.00950605
0
0
0
0.0171359
0.120365
0.320412
0.228341
0.162818
0.0909774
0
0.00139317
0.00170276
0.0309104
0.261718
0.338265
0.164125
0.176301
0.204818
0.00262214
0.0638917
0.0550296
0.173492
0.286164
0.152495
0.148926
0.123017
0.129538
0.0824524
0.212608
0.0841848
0.169172
0.141869
0.202943
0.301336
0.306816
0.184327
0.000116515
0.0390026
0.00977352
0.0361968
0.125491
0.181472
0.195284
0.277746
0.107312
0.000815605
0.0787665
0.0225924
0.164636
0.125102
0.215919
0.164661
0.0686314
0.0625912
0.0513757
0.0867075
0.0756474
0.0939601
0.0867168
0.154091
0.286001
0.398872
0.234323
0.0578475
0.0133794
0.0416206
0.0323336
0.0550073
0.109166
0.22714
0.17157
0.0237319
0.000197275
0.0160668
0.0138684
0.0648964
0.0766283
0.177966
0.394819
0.487699
0.0976045
0.000676391
0.00136362
0.00597927
0.00707231
0.0335699
0.121614
0.087387
0.405277
0.348502
0.0675015
0.00447779
0.0014486
0.00625823
0.00564629
0.0145469
0.077571
0.359423
0.259248
0.0307791
0.013767
0.0174044
0.0252895
0.0232322
0.0265571
0.244179
0.485865
0.124188
0.00222113
0.0235062
0.00998107
0.0331627
0.0177487
0.0536684
0.120544
0.212246
0.0762156
0.0259599
0.19456
0.0515312
0.123623
0.0410207
0.0680051
0.1051
0.19606
0.119773
0.0283244
0.138007
0.0954889
0.0789713
0.146642
0.0725509
0.108794
0.083425
0.0940205
0.0735169
0.228474
0.102931
0.0434685
0.130878
0.0810258
0.0274164
0.0833945
0.0485374
0.126778
0.501438
0.16686
0.101574
0.0407693
0.0237924
0.149131
0.0995773
0.143293
0.215374
0.47195
0.162099
0.0209523
0.01738
0.0723918
0.120554
0.0621653
0.0354234
0.0484516
0.0357224
0.000529578
0.0567361
0.113095
0.236559
0.266319
0.128225
0.00953552
0.0345526
0.0346626
0.0066186
0.107003
0.122205
0.590063
0.122406
0.123345
0.0348971
0.060579
0.133006
0.00370705
0.0568278
0.054478
0.0734518
0.261385
0.190702
0.0720929
0.0414251
0.105001
0.0276963
0.0716537
0.0171914
0.0625589
0.14884
0.0426842
0.0363976
0.00331309
0.0113316
0.00234686
0.0528242
0.0474888
0.309333
0.148086
0.0471639
0.0956558
0.00800233
0.0444032
0.000228322
0.0117458
0.125354
0.681678
0.108675
0.111749
0.0609199
0.0112777
0.0283514
0.00619922
0.0241923
0.0132956
0.0402665
0.292979
0.264565
0.0970214
0.0157089
0.0294759
0.000136993
0.00655914
0.0202846
0.117552
0.131343
0.0249811
0.013632
0.00167012
0.0091747
0.00187647
0.00394327
0.064249
0.379703
0.474272
0.11227
0.0123431
0
0
0.00312744
0.00344373
0.021135
0.238896
0.143502
0.25216
0.0521356
0.00278353
0.00550482
0.00312744
0.00657212
0.0159195
0.0420031
0.19251
0.539168
0.161443
0
0
0.00521241
0.00573955
0.0118439
0.0536224
0.286971
0.0967239
0.0115222
0
0
0.000294963
0.000158826
0.00254062
0.0577451
0.256312
0.226711
0.0100476
0
0
0
0
0.00430133
0.125001
0.14231
0.367596
0.100192
0.00102029
0
0.000491605
0.00026471
0.00121524
0.0236744
0.144985
0.707936
0.11398
0.00170049
0
0
0
0.000471739
0.0124447
0.121789
0.199833
0.0236516
0
0
0
0
0.0128212
0.0853538
0.139776
0.349398
0.088637
0
0
0
0
0.0253886
0.0913441
0.0908621
0.510163
0.0830719
0.000181754
0
0
0
5.04211e-005
0.00432744
0.132657
0.643505
0.0911498
0
0
0
0
0
0.000889081
0.0865472
0.263259
0.046733
0
0.00904167
0.000706076
0.00285615
0.00696969
0.023081
0.118298
0.423824
0.0367724
0
0.0150694
0.00240451
0.0199931
0.0105488
0.0232052
0.0897565
0.556779
0.0292361
0
0
9.16343e-005
0.000366537
0.000213007
0.00451327
0.200194
0.556779
0.00804869
0
0
0.00064144
0.00351895
0.000672742
0.00985796
0.170391
0.384307
0.0276742
0
0.00212891
0.000730852
0.00767776
0.00695461
0.0275636
0.260182
0.539936
0.0378222
0.000170117
0.00275843
0.00375998
0.000700511
0.0021642
0.0233663
0.193963
0.455422
0.00403852
0
0
0.000246326
0.00245187
0.0012007
0.00607846
0.195782
0.350948
0.00754232
0.00918547
0.0156703
0.00668176
0.00545411
0.00128632
0.00965633
0.185258
0.285875
0.0163937
0.0157476
0.116212
0.0364988
0.0298467
0.0199239
0.0352991
0.0793524
0.0463316
0.00743083
0.108879
0.445101
0.0675485
0.0739284
0.0346888
0.0369689
0.0872084
0.11167
0.00955943
0.0944652
0.304051
0.0327028
0.00878953
0.00300791
0.0121729
0.0181012
0.0088759
0.00701768
0.310515
0.595665
0.0409828
0.00655664
0.00474378
0.0065599
0.002393
0.00124621
0.00846354
0.195218
0.367105
0.045379
0.0224105
0.00753778
0.00444414
0.0336545
0.0395279
0.0725591
0.267534
0.262005
0.0503538
1.40575e-005
0.000267091
0.00676661
0
0
0.0076221
0.349432
0.49756
0.0182053
0.000989677
0.000809735
0
0.0181163
0.0988614
0.139964
0.34134
0.300365
0.0438199
0.00984483
0.00984483
0.00195615
0.0957808
0.0382654
0.0197682
0.0170191
0.0262283
0.00373096
0.00574671
0.0172048
0.0336652
0.301621
0.0829228
0.0367011
0.0143664
0.0128523
0.0037036
0.00291128
0.00287576
0.103618
0.125086
0.0821178
0.112313
0.238644
0.113968
0.0595205
0.0270639
0.0162484
0.0363363
0.524169
0.28444
0.280347
0.332485
0.149734
0.0378268
0.0371998
0.00265678
0.310849
0.160416
0.123907
0.0299393
0.00415881
0.00373388
0.0008602
0.000463184
0
0.0504041
0.259097
0.297704
0.0403683
0.00186367
0.000508813
0
0.000191414
0.000446632
0.0434324
0.247909
0.232077
0.152821
0.164824
0.0852978
0.00614092
0.0186142
0.000596673
0.203874
0.277206
0.620019
0.162079
0.0994015
0.047887
0.00703341
0.0378071
0.00417671
0.052762
0.151255
0.228922
0.0451717
0.000811845
0
0.000244641
0.000514098
0.000932824
0.00952759
0.113749
0.395481
0.116539
0.000990177
0
0.000407736
0.000448971
0.000819743
0.019255
0.168665
0.354286
0.121032
0.0529272
0.0590122
0.00285195
0.00661514
0.00112915
0.00132944
0.156982
0.632448
0.260655
0.0485188
0.07805
0.0250309
0
0
0.0209676
0.0616738
0.294202
0.0577832
0.00217428
0
4.33226e-005
2.33275e-005
8.21492e-005
0.0145525
0.0574587
0.526822
0.0799393
0.00485176
0
0
0
0
0.00231052
0.140478
0.465407
0.0744172
0.0174213
0.0446204
0.0140693
0
0.000368714
0.0342576
0.104342
0.538039
0.104464
0.0413005
0.0493107
0.0264506
0.0119208
0.002581
0.0626852
0.0596966
0.413683
0.0493972
0.000953535
0
0
0
0
0.000665446
0.112006
0.509823
0.0258861
0
0
0
0.00141355
0.000605809
0.000399267
0.0739872
0.433348
0.0574129
0.0241142
0.00520328
0.0208227
0.0104771
0.000834509
0.0215539
0.19778
0.509823
0.0165699
0.0104608
0.0156153
0.0106163
0.014214
0.00576041
0.0346553
0.145757
0.609353
0.0129039
0.000795982
0.0108808
0.00412022
0.0173346
0.00479475
0.017419
0.159147
0.429735
0.00477678
0.00132664
0.0379586
0.0124458
0.038402
0.0154804
0.0317739
0.212276
0.336521
0.00563355
0.00557188
0.10035
0.0368629
0.104888
0.0421254
0.0658786
0.211601
0.199415
0.0146092
0.0117127
0.151254
0.0429265
0.126236
0.0884848
0.0493591
0.155125
0.226405
0.00321278
0.000213958
0.0133323
0.00403635
0.0193042
0.0111342
0.0133796
0.241855
0.199291
0.0168954
0.0256102
0.0197625
0.00184318
0.00660187
0.00343729
0.0111245
0.172831
0.411993
0.0523881
0.00935719
0.0389898
0.0151994
0.0274305
0.0336068
0.0122627
0.224437
0.689052
0.0803376
0.0576787
0.0629778
0.00966339
0.00277425
0.0017732
0.00195103
0.0642899
0.0346886
0.020899
0.0851939
0.213499
0.0024049
0.0017649
0.000146021
0.00115695
0.00658176
0.00488366
0.012718
0.209824
0.578882
0.00817787
0.000252128
0
0
0.0632665
0.130574
0.0266212
0.0882777
0.331597
0.0123032
0
2.08601e-005
0.000192076
0.00675265
0.0125742
0.00914564
0.170101
0.578882
0.0301784
0
0
0
0.00479097
0.000845465
0.00861761
0.19065
0.387363
0.0141086
0
0.00158488
8.34153e-005
0.0529363
0.0334875
0.118344
0.220846
0.19215
0.0178954
0.00862693
0.0197211
0.00524346
0.00798494
0.00140911
0.0209431
0.136253
0.597371
0.0600757
0.00143624
0.0110942
0.000583907
0.0670775
0.00986376
0.109625
0.292357
0.398814
0.0479157
0.00362615
0.0788918
0.00688308
0.024908
0.0301209
0.0636167
0.185362
0.130738
0.101699
0.076214
0.0647829
0.0433194
0.145498
0.116639
0.239344
0.293418
0.160632
0.0887568
0.127664
0.123492
0.31819
0.00495348
0.00793658
0.0333553
0.0463394
0.0494482
0.0652096
0.116566
0.171875
0.0893994
0.0346744
0.0190409
0.0724196
0.0536566
0.0472572
0.069003
0.266266
0.349337
0.460249
0.062115
0.0898386
0.171017
0.198922
0.120763
0.0176927
0.0929294
0.070715
0.161949
0.073081
0.253578
0.116921
0.143208
0.0799651
0.0202641
0.156674
0.131421
0.063183
0.01047
0.0172648
0.0577968
0.0463786
0.0402552
0.0132517
0.253133
0.303558
0.185482
0.00625262
0.0280497
0.0187642
0.0576466
0.0325476
0.0121584
0.234156
0.597097
0.110349
0.0508097
0.143631
0.0883159
0.104969
0.135012
0.00867052
0.0768811
0.0511701
0.0287273
0.0788566
0.287541
0.177494
0.078593
0.210649
0.076099
0.118579
0.148194
0.0234662
0.00484861
0.0163185
0.0106601
0.0704244
0.069195
0.00768172
0.153238
0.30645
0.0692311
0.0163357
0.0212132
0.0203892
0.0442241
0.119302
0.0630153
0.327199
0.622842
0.0360809
0.118382
0.220904
0.0444986
0.0469378
0.108093
0.0759629
0.0437583
0.104403
0.0576103
0.0950273
0.20711
0.0418107
0.1045
0.0943202
0.124415
0.0617191
0.0312423
0.0984688
0.0462688
0.0227922
0.00421247
0.0260412
0.0498505
0.0773587
0.205811
0.560491
0.0563875
0.116588
0.08858
0.00179351
0.0588406
0.0385561
0.155656
0.281735
0.473774
0.0722894
0.0591232
0.286153
0.0592542
0.0919055
0.0290126
0.127296
0.0831604
0.0205712
0.0352275
0.191874
0.464499
0.0875007
0.0562117
0.0652412
0.06494
0.0742709
0.0316589
0.0756337
0.0659113
0.0925581
0.0214049
0.0536104
0.0342167
0.198591
0.296396
0.327739
0.0347198
0.227491
0.282885
0.102434
0.0431565
0.0469043
0.105066
0.197658
0.262101
0.0785068
0.17066
0.191072
0.0638055
0.0375703
0.129249
0.0511281
0.126852
0.0743056
0.123587
0.303095
0.155621
0.03539
0.082255
0.11644
0.0693479
0.123005
0.105045
0.149345
0.233531
0.408218
0.139233
0.0578
0.0435069
0.0122394
0.0554247
0.0953512
0.114438
0.201829
0.247872
0.0614037
0.119143
0.0406243
0.0447984
0.0620012
0.256834
0.357021
0.132228
0.301367
0.0789589
0.0701337
0.054633
0.066382
0.0321161
0.02861
0.0396911
0.0523801
0.584082
0.11545
0.0470071
0.0891277
0.0477696
0.030975
0.0316714
0.00476251
0.057868
0.0710187
0.0372164
0.0900359
0.0554899
0.0903377
0.133265
0.282217
0.14205
0.0463628
0.17256
0.0612179
0.0503363
0.145975
0.0886563
0.20204
0.393151
0.0455024
0.00970921
0.105425
0.0211358
0.0718236
0.266956
0.0157968
0.0020784
0.00562556
0.00180525
0.000638567
0.00829138
0.00238442
0.155813
0.557305
0.0197571
0
0.000315202
0.000257892
0.00770998
0.0350763
0.0139997
0.124327
0.35709
0.01878
0.0279971
0.0558574
0.014431
0
0.00269195
0.00173923
0.248329
0.557305
0.0119622
0.00240102
0.00220641
0.00180525
0.00116008
0.000204721
0.015923
0.150931
0.45808
0.0457395
0.00419109
0.0138372
0.00259456
0.00812058
0.00143304
0.0719677
0.274926
0.340192
0.0960037
0.0131612
0.0464292
0.00555413
0
0
0.0242355
0.234094
0.517354
0.0265334
0.00819871
0.0157598
0.00393994
0.00348598
0
0.078949
0.228057
0.210744
0.225541
0.123604
0.0365697
0.00806056
0.00184459
0.00361465
0.0157086
0.0287767
0.0132176
0.0552046
0.142908
0.252305
0.153128
0.00242779
0.00118846
0.0052495
0.0115549
0.0369457
0.0849726
0.34089
0.402762
0.316499
0.00719213
0.00599436
0.0315753
0.05215
0.0146676
0.0569985
0.226627
0.254804
0.106918
0.0762659
0.0175018
0.0526806
0.0275275
0.0924487
0.0746342
0.245413
0.294537
0.118869
0.00319126
0.0054074
0.00490103
0
0.00647966
0.0109381
0.172485
0.284592
0.0794994
0.00191476
0.00813661
0.00466544
0.00360415
0.000529433
0.00211773
0.126777
0.699289
0.0553981
0.0320769
0.0261619
0.0283071
0.00204172
0.0213978
0.0286084
0.0517152
0.133969
0.0554218
0.00674844
0.046483
0.0162147
0.00107355
0.00370603
0.0148241
0.0588079
0.485583
0.0743776
0
0.000731873
0.000394085
0.00657783
0
0.00283164
0.0616956
0.381495
0.0389708
0.00138846
0
0
0.0039467
0
0.0198214
0.188059
0.500419
0.0334944
0.000217685
0.00784304
0.00120958
9.7548e-005
0
0.000404519
0.0441221
0.39135
0.0519149
0.0015238
0
0
0
0
0.00283164
0.163386
0.546552
0.0695831
0.00635522
0.00103608
0
0
0
0.0100932
0.159016
0.343747
0.0148628
0.0268353
0.00725256
0
0
0.00129258
0.0223549
0.232754
0.565341
0.0267037
0.000409639
0
0
0
0
0.000761222
0.145768
0.311561
0.0196743
0
0
0
0
0
0.000575938
0.23761
0.495708
0.0159517
0.0182141
0.00427785
0.000172159
0
0.0031732
0.0321592
0.162488
0.407348
0.0245956
0.121005
0.0763799
0.0100161
0.00146221
0.00190392
0.0175967
0.141262
0.288997
0.0621628
0.00183688
0
0
0
0.0075668
0.00330559
0.187384
0.42957
0.0121461
0.0362023
0.0159293
0.000412146
0
0.0126113
0.00400117
0.274661
0.568896
0.0259385
0.123653
0.203285
0.0327028
0.00559011
0.000126378
0.00262196
0.0523083
0.0886695
0.0410304
0.0446072
0.141578
0.0291527
0.0128923
0.00262771
0.00733686
0.0343194
0.195414
0.105984
0.046704
0.0577344
0.00872897
0.000631888
0.00244825
0.00492934
0.215938
0.593608
0.0166425
0.0157328
0.0407194
0.0129816
0.00442322
0.00147441
0.00728323
0.0851579
0.608888
0.0691714
0.0138827
0.014354
0.00437925
0.0129774
0.00709266
0.0162841
0.110176
0.40628
0.110072
0.0374929
0.00759094
0.0296802
0.0406502
0.162277
0.0410682
0.158829
0.408508
0.120248
0.0139173
0.00263166
0.00262755
0.00261088
0.000870294
0.00158153
0.0506866
0.488747
0.160755
0.0417787
0.0471676
0.048009
0.0483475
0.238288
0.00745768
0.0484328
0.252416
0.279313
0.00546362
0.00245995
0.0119829
0.0846277
0.297995
0.0179048
0.0229204
0.03589
0.018153
0
0.000301141
0.00171185
0.139717
0.54252
0.0142056
0.00237355
0.000802407
0.000656514
0.00546997
0.0190432
0.0193829
0.112957
0.436517
0.0079632
0.00435791
0.0117106
0.0319694
0
0.00272046
0.00276898
0.183811
0.54252
0.0192877
0.000339078
0
0
0
0
0.009024
0.131814
0.468674
0.0267778
0.0110427
0.00274836
0.000597954
0.0106264
0
0.0187058
0.115392
0.171439
0.171796
0.172615
0.0192892
0.00555076
0
0
0.00103265
0.133856
0.611872
0.0289317
0.010429
0.00249578
0
0.00637584
0
0.00563651
0.106414
0.318381
0.123172
0.262697
0.0377375
0.00550577
0.0116633
0.0446488
0.0372408
0.0351083
0.00914177
0.0523416
0.176418
0.156764
0.052346
0.13399
0.039531
0.0737047
0.0376766
0.0399522
0.0605982
0.109934
0.179746
0.163389
0.111659
0.078773
0.0216803
0.00472434
0.0134628
0.088906
0.194078
0.182473
0.273893
0.412945
0.0626981
0.0528823
0.0182203
0.0105696
0.0828316
0.066381
0.272647
0.440616
0.107976
0.0761798
0.0764149
0.01421
0.0156711
0.0250837
0.0136554
0.115954
0.137994
0.0624162
0.130996
0.0445825
0.0072195
0.0028663
0.0114652
0.0330117
0.382965
0.171108
0.279419
0.0499543
0.0607492
0.0180899
0.00115313
0.00995839
0.0254618
0.222833
0.274616
0.172833
0.108882
0.0341739
0.0101725
0
0
0.0538709
0.490469
0.249631
0.0182296
0.0290893
0.00312855
0.000521261
0
0
0.0513402
0.333832
0.0859038
0.0187572
0.00309599
0
0
0
0
0.141978
0.600561
0.174776
0.064678
0.041806
0.00236926
0.000710738
0
0
0.0613505
0.26697
0.138535
0.0879977
0.0235968
0
0.00529637
0.00226987
0
0.0499116
0.306375
0.369421
0.00573612
0.000130583
0
0
0
0
0.0917195
0.353623
0.0636541
0.00315802
0
0
0
0
0.00136803
0.140603
0.544857
0.0591868
0.0413424
0.00951612
0
0.00798489
0.0034221
0.00301241
0.0276764
0.2111
0.15311
0.0424277
0.00912524
0
0.00479093
0.00205326
0.0058415
0.0391096
0.599673
0.173573
0.000190718
0
0
0
0.00976043
0.00534362
0.110196
0.289368
0.0356758
0.000680135
0.000556474
0
0
0.0162674
0.00580895
0.209102
0.467749
0.0198943
0.00715516
0.000912619
0
0
0.00139435
0.00262122
0.0439618
0.463258
0.0888272
0.000221723
0
0
0
0.00232391
0.00162624
0.145513
0.570179
0.0550016
0.00139126
0.00113831
0
6.33161e-005
0.00167782
0.00151877
0.12693
0.397909
0.00444687
0.00134999
0.000682984
0
0.000443213
0.000147738
0.00539684
0.0858499
0.562673
0.0189473
0
0
0
0
0.000236674
0.00472622
0.118479
0.30548
0.0212004
0
0
0
0
0.000425862
0.0350825
0.14049
0.562673
0.017144
0.00192353
0
0
0.000166826
5.56088e-005
0.00185774
0.0301377
0.4062
0.0351804
0.00777303
0.0113617
0.00578593
0.0201298
0.0815788
0
0.0161563
0.22338
0.0735034
0
0
0
0
0.00118443
0.0190086
0.107792
0.583292
0.00922643
0.00834472
0.0252471
0.0201533
0.0432204
0.044821
0.00402707
0.0978568
0.583292
0.0735899
0.00424587
0.0101714
0.00736928
0.118055
0.336597
0.00134655
0.00169338
0.032953
0.023161
0.000445004
0.00145306
0.00263618
0.183654
0.524673
0.00970518
0
0.000974715
0.00107011
0.0113861
0.0603374
0.0487679
0.218599
0.235632
0.00118104
0.0141161
0.216727
0.0503399
0.00445831
0.0359093
0.0291874
0.334532
0.486332
0.00826728
0
0.0144077
0.00615766
0.00190214
0.000186821
0.00239003
0.175803
0.496699
0.00874601
0.00251912
0.00109961
9.76551e-005
0.0160568
0.00130775
0.0167302
0.151125
0.255353
0.0249919
0.14319
0.0310907
0.0219272
0.00341934
0.00130775
0.00143402
0.3539
0.524566
0.0241661
0.00145958
0.000193654
0.000743721
0.0360695
0.00949952
0.011074
0.250204
0.254174
0.0382307
0.0326177
0.0170855
0.042048
0.0994391
0.0395583
0.00828245
0.00349567
0.0205927
0.0470943
0.0569694
0.156351
0.299199
0.184056
0.0531738
0.0410997
0.0156818
0.00533991
0.0212576
0.0174244
0.298722
0.392631
0.121501
0.0864588
0.0631226
0.0020974
0.0255175
0.0826229
0.0215001
0.159674
0.237019
0.0333046
0.0662679
0.0792869
0.0232912
0.0248682
0.0967403
0.0751263
0.303861
0.408207
0.128466
0.0171999
0.0415367
0.0239177
0.000355874
0.00251557
0.0330856
0.29693
0.224805
0.0920964
0.0325522
0.0338606
0.018891
0.00732486
0.00394416
0.0308744
0.305276
0.347055
0.027795
0.0296043
0.0593084
0.0318498
0.00577182
0.0147456
0.107852
0.357867
0.237229
0.072035
0.0343963
0.0978009
0.0383953
0.0884213
0.0549271
0.106667
0.28994
0.325352
0.0552113
0.035624
0.00627069
0.00287209
0.00664976
0.0052364
0.0297799
0.177908
0.34265
0.090884
0.0729688
0
0.00765561
0.00561683
0.0139939
0.0382745
0.208501
0.457241
0.0316094
0.0228352
0.0288831
0.0116271
0.0842031
0.058834
0.121491
0.141189
0.343477
0.0513949
0.0952668
0
0.011806
0.0309099
0.102782
0.262722
0.200534
0.332328
0.100219
0.0863746
0
0.0224773
0.0137022
0.0239815
0.0183535
0.179791
0.274973
0.147299
0.0715563
0
0.0151393
0.00877227
0.032527
0.0377624
0.482523
0.27243
0.0489423
0.0976226
0
0.00746762
0.0321118
0.114407
0.13115
0.19488
0.2346
0.077761
0.0484162
0
0.0134972
0.0304253
0.129262
0.183
0.286423
0.279023
0.0366879
0.00914155
0.000302649
0.00521254
0.000829566
0.00564395
0.0669257
0.385112
0.089569
0.0174889
0.00697943
0.00211854
0.0205601
0.00049774
0.00223183
0.251837
0.692616
0.0454707
0.0325386
0.00995177
0.000504415
0.0219606
0.0105996
0.0347252
0.106052
0.141293
0.0773935
0.0352916
0.0116324
0.0035309
0.0422307
0.00416884
0.0264217
0.22262
0.287835
0.06899
0.00143321
0.000614233
0.00050681
0.00456129
0
0.00413937
0.149957
0.368544
0.0177959
0
0
0
0
0.000734877
0.0250716
0.158461
0.504003
0.0307901
0.0072185
0.00102372
0.000844683
0.00862988
0.00109406
0.0115726
0.126176
0.275897
0.0421738
0.00443035
0
0
0.0071941
0.00253743
0.00480444
0.167973
0.596988
0.0509327
0
0
0
0
0.0015335
0.0145468
0.121161
0.342746
0.011468
0.00997462
0.0449738
0.019973
0.0193496
0.00491804
0.00924058
0.154422
0.565122
0.0608037
0.00565293
0
0
0.00203169
0.000614482
0.0015565
0.133137
0.385771
0.0175252
0.00819424
0.0159805
0.00562876
0.00566575
0.000131443
0.00745599
0.172292
0.503683
0.0360843
0.0336764
0.162292
0.0738471
0.186601
0.0999306
0.0107733
0.0738547
0.315303
0.075926
0.0195892
0.0973752
0.0828505
0.398546
0.393369
0.0336059
0.0319975
0.0297703
0.0106758
0.0306332
0.0624829
0.0327204
0.051488
0.0209442
0.0153736
0.202987
0.320604
0.0702936
0.122152
0.0819634
0.192824
0.332745
0.172883
0.0379364
0.164741
0.0951166
0.0497321
0.000707286
0.000631552
0.0403523
0.34642
0.405922
0.0957533
0.00803134
0.00123989
0.00210203
0.0101376
0.00487415
0.0140944
0.188633
0.241614
0.116933
0.0226425
0.0200869
0.0273028
0.0750642
0.0321704
0.222585
0.378954
0.307855
0.153389
0.0479429
0.00756156
0.0081119
0.00646732
0.00247302
0.0945456
0.149816
0.326752
0.191218
0.0682695
0.0126551
0.016996
0.0582619
0.0663009
0.113687
0.0054596
0.0381815
0.138852
0.143512
0.083583
0.129378
0.0301853
0.0511077
0.0713004
0.00825004
0.0846693
0.152216
0.165698
0.178815
0.263542
0.052943
0.0294415
0.0593616
0.0198839
0.061665
0.2044
0.349266
0.221369
0.0884197
0.139097
0.100831
0.0628534
0.00813763
0.267357
0.166128
0.23886
0.236493
0.174034
0.0171467
0.023215
0.0163646
0.00611047
0.0329926
0.0442986
0.186582
0.25353
0.126882
0.0380461
0.0474751
0.0376932
0.0128916
0.093828
0.088116
0.223302
0.331168
0.0663537
0.130768
0.0883019
0.0138944
0.00630939
0.156605
0.177739
0.195922
0.15096
0.10488
0.103083
0.118781
0.0232318
0.0385373
0.0607925
0.215314
0.344955
0.323577
0.151539
0.0133986
0.0180474
0.0147652
0.0109984
0.118401
0.086848
0.222067
0.205786
0.0721615
0.0107986
0.0314642
0
0.0494574
0.066944
0.122073
0.348401
0.191759
0.105201
0.0691921
0.0700542
0.0147856
0.019017
0.0624868
0.145339
0.305745
0.242229
0.140254
0.0462759
0.0564621
0.00187963
0.0408004
0.104463
0.218715
0.318943
0.213907
0.186035
0.00824404
0.0253504
0
0.0317228
0.0248506
0.11143
0.153567
0.18413
0.137865
0.014025
0.00332102
0
0.0156899
0.0223814
0.143168
0.304276
0.243777
0.19854
0.00930607
0.0149201
0
0.0468744
0.0432215
0.173873
0.15458
0.217492
0.163859
0.0125943
0.0109096
0
0.0229388
0.0212662
0.197642
0.355042
0.395412
0.151416
0.00887607
0.00190516
0.000137689
0.0141656
0.0142202
0.0993225
0.24629
0.165762
0.0825272
0.0251762
0.00317527
0.000963824
0.0164303
0.00396622
0.0955591
0.259716
0.304762
0.150482
0.00192017
0.00128721
0.00280738
0.0112295
0.00309402
0.169635
0.30155
0.204737
0.104435
0.0102094
0.0051373
0.0213369
0.0276855
0.000197278
0.173031
0.230691
0.418514
0.266521
0.0251896
0.00111879
0.000377366
0.0189917
0.0137509
0.0442753
0.1815
0.27516
0.18855
0.0510477
0.0258792
0.00315521
0.0789405
0.0408644
0.0290136
0.226991
0.565544
0.159303
0.0450299
0.0263384
0.0554613
0.0787916
0.020944
0.0418836
0.135534
0.244883
0.232488
0.116355
0.123444
0.0967464
0.140008
0.0589878
0.017996
0.0510961
0.0879935
0.127447
0.0364813
0.0137041
0.00398989
0.0164755
0.00620952
0.00171342
0.104205
0.367979
0.0215879
0.0208258
0.00645657
0.00341652
0.00438929
0.00181446
0.0018169
0.148585
0.768604
0.06428
0.0443226
0.0428902
0.0356642
0.0280129
0.0156653
0.00520308
0.0163114
0.0604675
0.0202681
0.0326246
0.0190162
0.0207091
0.0179886
0.0190828
0.00695838
0.0826302
0.313205
0.07483
0.0278593
0.0108059
0.00913207
0.0147065
0.00298884
0.00278152
0.171238
0.473899
0.0994921
0.233034
0.156501
0.212824
0.180844
0.0375523
0.00640029
0.137591
0.201635
0.0961782
0.0726483
0.0218731
0.00149454
0.0068618
0.00486654
0.0008904
0.118783
0.335255
0.135191
0.320723
0.198311
0.109021
0.041521
0.00985433
0.00602706
0.0947586
0.204712
0.211984
0.169464
0.164602
0.448229
0.275719
0.145259
0.0666032
0.0593832
0.0206936
0.0181316
0.0291711
0.0374716
0.220058
0.12932
0.253338
0.125339
0.119931
0.0120593
0.0151721
0.199221
0.240312
0.316979
0.0988656
0.0453472
0.0181138
0.0467645
0.0332792
0.0690244
0.0536297
0.0745165
0.262064
0.1016
0.122054
0.0741005
0.0811904
0.0243904
0.0223402