0.193746
0.0779793
0.0496665
0.0694781
0.0380662
0.0737631
0.13545
0.185293
0.205426
0.0718788
0.0663041
0.13435
0.255008
0.0323713
0.0924104
0.203839
0.23705
0.122874
0.220957
0.135627
0.0932813
0.0520721
0.00134805
0.113217
0.175106
0.144145
0.270989
0.157051
0.153413
0.124148
0.328379
0.0338068
0.10601
0.123337
0.12129
0.28302
0.0859401
0.136638
0.134853
0.118106
0.019102
0.11556
0.1108
0.232314
0.0795865
0.319844
0.384295
0.129173
0.0909109
0.0739787
0.0870397
0.0719246
0.255451
0.0908371
0.0756145
0.115877
0.0858451
0.119814
0.0644084
0.149814
0.138458
0.129986
0.0840196
0.142457
0.0941074
0.0212208
0.0533169
0.166331
0.200889
0.270049
0.258312
0.129952
0.175194
0.238717
0.100115
0.14522
0.119267
0.036984
0.0536998
0.0530215
0.020004
0.0696735
0.068475
0.109628
0.187692
0.176511
0.110161
0.170485
0.0955022
0.0143278
0.0898737
0.111537
0.0268835
0.11562
0.153026
0.251972
0.217235
0.151646
0.0704801
0.0682708
0.137675
0.166226
0.32796
0.259068
0.296029
0.287876
0.0620601
0.00882321
0.0138456
0.0081426
0.118808
0.0932106
0.0683115
0.100248
0.109594
0.0646178
0.00672019
0.117833
0.0268329
0.138331
0.13314
0.0476541
0.152648
0.206485
0.190815
0.113571
0.0104223
0.0184085
0.116236
0.1704
0.0649971
0.193539
0.142602
0.144724
0.0234349
0.05008
0.0207749
0.115779
0.177419
0.029806
0.314392
0.305285
0.572909
0.144656
0.0879812
0.0696891
0.0308744
0.0545338
0.0482889
0.0478981
0.202376
0.139286
0.186465
0.0569219
0.119243
0.0802942
0.0810252
0.208504
0.0987101
0.22817
0.0548127
0.118059
0.112061
0.175167
0.0373505
0.0794062
0.050607
0.138773
0.199811
0.235077
0.191499
0.265569
0.537866
0.148769
0.132907
0.163724
0.0673822
0.0885607
0.0436059
0.161561
0.0623495
0.122085
0.0397093
0.125243
0.242268
0.111397
0.120825
0.0338147
0.093715
0.103114
0.312575
0.0170387
0.131434
0.223598
0.0945754
0.0781316
0.0243761
0.121409
0.135792
0.328647
0.146228
0.259071
0.222992
0.0499439
0.0737246
0.0155239
0.0506992
0.15276
0.418065
0.153262
0.274574
0.134659
0.0546024
0.0663883
0.00229036
0.020532
0.0261099
0.119418
0.0739246
0.082167
0.0960209
0.0412118
0.0245407
0.0257811
0.0217707
0.132178
0.137191
0.102452
0.0564134
0.0193233
0.00891786
0.0168074
0.0461488
0.0598361
0.0746513
0.395142
0.316249
0.15542
0.0243419
0.0180098
0.0154899
0.00998113
0.00482199
0.181826
0.576328
0.405321
0.120189
0.0279368
0.0295777
0.00309479
0.0304849
0.0910574
0.218082
0.158469
0.0255889
0.0151569
0.0178135
0.0109558
0.0364206
0.0668063
0.126994
0.0833874
0.192103
0.0418648
0.0625316
0.057564
0.0208966
0.0348909
0.0763882
0.095131
0.259412
0.370556
0.113112
0.0255088
0.130436
0.202351
0.125284
0.119378
0.249297
0.0754096
0.104283
0.0276523
0.117387
0.451043
0.23732
0.204272
0.130946
0.171723
0.0692547
0.261801
0.144284
0.212155
0.0556653
0.0316302
0.0214867
0.0333597
0.0829823
0.106351
0.185371
0.12904
0.31367
0.131595
0.0460195
0.0267301
0.046812
0.103724
0.0499325
0.128292
0.105134
0.287363
0.350365
0.0598921
0.0667898
0.0650739
0.155239
0.0860025
0.181672
0.143668
0.329678
0.136919
0.0037505
0.0212528
0.118792
0.172328
0.137795
0.0457302
0.0451547
0.0193028
0.000362925
0.0461074
0.078873
0.165033
0.277174
0.119357
0.132049
0.0884959
0.0854289
0.0201798
0.0495102
0.053828
0.115393
0.247055
0.270202
0.0857589
0.037472
0.028125
0.246392
0.189299
0.113632
0.329266
0.289009
0.0679568
0.0970265
0.150695
0.0758687
0.198819
0.162874
0.116731
0.259702
0.200331
0.0734089
0.0965725
0.0416655
0.0492236
0.0772877
0.0864291
0.112072
0.114839
0.0663271
0.0120865
0.0499231
0.0413275
0.0437195
0.197368
0.177568
0.301056
0.241288
0.0911285
0.0925835
0.145427
0.138803
0.101301
0.219834
0.0818769
0.0657234
0.190288
0.0971972
0.106744
0.214551
0.293562
0.238974
0.310614
0.108485
0.172642
0.233072
0.11909
0.00775259
0.036245
0.0328671
0.0280463
0.100675
0.248361
0.288475
0.166837
0.0750973
0.022513
0.13412
0.115686
0.136009
0.124463
0.226884
0.288677
0.130697
0.0372843
0.0725204
0.0636989
0.176584
0.115842
0.106858
0.132948
0.237463
0.206626
0.158839
0.0396021
0.108752
0.109939
0.0594362
0.0376892
0.213543
0.319971
0.258048
0.124127
0.0139134
0.0395018
0.0470144
0.122088
0.0305955
0.123438
0.102249
0.170558
0.0461142
0.00855107
0.0744795
0.0206032
0.150891
0.0211475
0.419736
0.284673
0.508342
0.12122
0.0325097
0.0366868
0.0292212
0.068233
0.0422262
0.0888503
0.0495649
0.08913
0.0439151
0.038822
0.116713
0.0641902
0.179378
0.170658
0.256304
0.219431
0.219146
0.141885
0.0786804
0.188749
0.0102937
0.0597006
0.0126834
0.172608
0.163658
0.160578
0.0555926
0.231869
0.330987
0.0515044
0.0564389
0.0215057
0.0816968
0.0723038
0.158333
0.121571
0.0806801
0.300198
0.0442598
0.0832004
0.152964
0.105442
0.165935
0.165755
0.070774
0.159761
0.417394
0.212789
0.171473
0.0950093
0.0505374
0.0789106
0.280429
0.151808
0.126395
0.20983
0.0640846
0.0578516
0.028898
0.0134018
0.0258795
0.0585755
0.0568063
0.142298
0.330656
0.136775
0.0632224
0.0175325
0.00754673
0.0159678
0.00195247
0.00855026
0.0800576
0.349389
0.244409
0.127209
0.0202929
0.00532423
0.0250606
0.0939223
0.0594922
0.123764
0.549557
0.425486
0.0274225
0.00429092
0
0.00325411
0.00325411
0.00513016
0.0942541
0.3061
0.183676
0.0653571
0.00416703
0.00102397
0.00553459
0.00261425
0.0277236
0.0923912
0.31796
0.16749
0.0759035
0.0583168
0.0417275
0.0254305
0.0213882
0.113395
0.145663
0.503384
0.279126
0.0325471
0.0140697
0.0248358
0.0332139
0.0444825
0.0766644
0.17138
0.207715
0.0818606
0.0386542
0.215937
0.265826
0.190986
0.102814
0.187914
0.0429299
0.0906652
0.0258164
0.0186729
0.181985
0.166893
0.0425667
0.0200694
0.0698209
0.0139532
0.00982117
0.00832257
0.0327454
0.338137
0.210793
0.0744546
0.0281468
0.0606102
0.0364471
0.0190138
0.00398575
0.01447
0.455124
0.29803
0.103448
0.0251428
0.0519579
0.00343227
0.0438607
0.029896
0.176165
0.486985
0.248994
0.222983
0.0338211
0.0285666
0.030001
0.02979
0.0396287
0.0791089
0.235049
0.0790591
0.0556679
0.0417947
0.129633
0.0993326
0.107026
0.0597117
0.13812
0.0759983
0.00560593
0.0322765
0.0240275
0.0721022
0.0206878
0.14451
0.173487
0.462933
0.216478
0.111298
0.189626
0.060601
0.0739012
0.191217
0.459556
0.237037
0.28065
0.0467326
0.00336355
0.0202782
0.0258936
0.0459034
0.0891363
0.154974
0.0110645
0.0268645
0.239798
0.149316
0.0753693
0.298573
0.132795
0.0224154
0.036717
0.0335844
0.0335101
0.175534
0.140251
0.094825
0.219621
0.0768637
0.0635165
0.128117
0.00467873
0.0321114
0.162962
0.225326
0.145137
0.369998
0.095443
0.126062
0.0981856
0.0031994
0.00962299
0.107566
0.17387
0.228686
0.394092
0.0989109
0.0815566
0.0472213
0.0962992
0.0551353
0.132836
0.0818434
0.0504229
0.13486
0.111056
0.234032
0.0951811
0.21258
0.202722
0.195888
0.0884593
0.0637615
0.114009
0.203481
0.114518
0.0332604
0.0306363
0.0348046
0.130436
0.201326
0.187994
0.153402
0.129747
0.291606
0.224973
0.119531
0.128253
0.296412
0.23782
0.0761741
0.214828
0.161686
0.110299
0.0345697
0.0691928
0.107778
0.0622385
0.0332563
0.0783942
0.113977
0.162678
0.038649
0.0264664
0.0492132
0.0878881
0.0278672
0.0918741
0.161609
0.162563
0.113327
0.193776
0.296465
0.139349
0.117143
0.101685
0.0413412
0.0481053
0.165934
0.086973
0.17705
0.318247
0.535216
0.280499
0.0816826
0.0276862
0.0918406
0.132954
0.0742425
0.0243386
0.0483852
0.0417805
0.0120535
0.0298477
0.049385
0.030432
0.0375032
0.0289711
0.0302681
0.166822
0.171169
0.123477
0.132114
0.0362511
0.0383762
0.0285385
0.0575356
0.04164
0.216106
0.365592
0.112539
0.0229092
0.0186606
0.0147163
0.0285618
0.0318058
0.0190809
0.539173
0.573618
0.109038
0.035392
0.0182671
0.0037794
0.0027704
0.0194468
0.0674093
0.161859
0.0921015
0.0954172
0.151337
0.0135342
0.029019
0.0391757
0.0307584
0.10765
0.374863
0.247412
0.124283
0.087303
0.00637131
0.0090184
0.06826
0.0496684
0.0344653
0.442577
0.258187
0.0475719
0.0431607
0.0147178
0.00707242
0.00319485
0.0072331
0.0687783
0.537964
0.253622
0.0290588
0.0288858
0.00863005
0.00424345
0.00532475
0.0105189
0.0154522
0.351928
0.225132
0.0682862
0.00621518
0
0.00215258
0.013858
0.0106267
0.0152681
0.460612
0.289597
0.0103041
0.000876219
0
0.000619457
0.000475482
0.000111481
0.0178479
0.460612
0.171669
0.0103088
0.00250122
0
0
0.000586655
0.00222709
0.0117973
0.460612
0.154609
0.00206549
0.00407317
0
0.00218361
0.00117579
0.00249644
0.049927
0.396979
0.196721
0.00585163
0.0504696
0.041123
0.0265673
0.0384464
0.0188603
0.053652
0.0987359
0.0345502
0.00768866
0.441483
0.294488
0.090072
0.0686397
0.0382136
0.0237312
0.216786
0.0880658
0.022073
0.108727
0.0289598
0.0171069
0.00958855
0.00159422
0.0110191
0.0478848
0.0494108
0.0513807
0.551086
0.222913
0.0199453
0.0113683
0.000323458
0.0070151
0.0104669
0.0107191
0.0128038
0.437196
0.231633
0.0424205
0.0115276
0.00793581
0.000564792
0.088949
0.106155
0.228592
0.244777
0.146273
0.103802
0.00607898
0.000108161
0
0.0089047
0.0293155
0.0885661
0.528488
0.175042
0.00781571
0.0012169
0
0.0282902
0.158405
0.173169
0.338007
0.198048
0.0933671
0.0145009
0
0
0.00618162
0.0825586
0.140987
0.35471
0.0450796
0.0302611
0.0447889
0.00492818
0
0.0607355
0.146122
0.165061
0.263386
0.0155557
0
0.000561695
0.0152908
0.0108797
0.0465721
0.259975
0.194893
0.338725
0.062539
0.0137847
0.00408741
0
0
0.074349
0.203728
0.473714
0.405171
0.0355071
0
0.000302343
0.00648687
0.00845449
0.0338287
0.0470545
0.00144694
0.0266549
0.11156
0.18167
0.169893
0.236075
0.0350625
0.0756201
0.0755694
0.000271018
0.0110581
0.0958031
0.166031
0.284468
0.363883
0.111516
0.016999
0.0186046
0.021105
0.0849678
0.106131
0.177191
0.128726
0.213499
0.0654923
0.0686007
0.218424
0.02297
0.259683
0.114682
0.289791
0.274525
0.223337
0.121157
0.0254537
0.0241513
0.0141055
0.0171205
0.0666697
0.0896614
0.0808126
0.0335238
0.028298
0.121909
0.188757
0.111055
0.0209959
0.0764814
0.0756806
0.021535
0.0291862
0.0309186
0.0902835
0.235316
0.148946
0.104206
0.0744302
0.0631981
0.0493153
0.0154947
0.0437616
0.331218
0.607542
0.47814
0.0829479
0.0582233
0.0349073
0.0061867
0.0168423
0.045221
0.10529
0.185113
0.122259
0.0105556
0.0123025
0.00711262
0.00226025
0.0203045
0.00906501
0.150094
0.276094
0.267375
0.0630558
0.0132256
0
0.00346763
0.0072923
0.00504826
0.153446
0.320671
0.349647
0.0410912
0.00484021
0.00232725
0.000574347
0.0109125
0.0109803
0.116378
0.537506
0.39485
0.0442196
0.015004
0.00103883
8.20495e-005
0.0107675
0.0111825
0.0286539
0.208211
0.212137
0.0512198
0.0032877
0
0.000607541
0.00168288
0.0025983
0.00275897
0.410533
0.343454
0.0312843
0
0.00143918
0.000774944
0.000169401
0.00113562
0.0280015
0.452711
0.230771
0.0134013
0.0138413
0.00201932
0.00549356
0.0160367
0.0236413
0.051029
0.452711
0.323293
0.00557128
0.00686569
0.00121159
0.00915593
0.0231543
0.054358
0.00913724
0.425651
0.232592
0.00406574
9.23821e-005
0.00413888
0.00222862
0
0.00445033
0.0439725
0.45828
0.138435
0.0010324
0.000646675
0.00981437
0.00528551
0
0.0473319
0.0763155
0.45828
0.212437
0.00144405
0.00248776
0.00580398
0.00195584
0.00526677
0.0393352
0.155424
0.375468
0.110608
0.00580477
0.0174143
0.133205
0.0459058
0
0.160132
0.0401754
0.469695
0.0912759
0.000686044
0.00438156
0.0159589
0.011054
0
0.0639205
0.0500902
0.329755
0.0920069
0.00185469
0.0119796
0.00362848
0.00570873
0.000874975
0.0281598
0.199776
0.174756
0.0999978
0.0148282
0.0144999
0.219769
0.117545
0.00861779
0.211543
0.25062
0.457771
0.318541
0.0753239
0.00441626
0.0367312
0.0499184
0.014363
0.0859167
0.0504487
0.172084
0.0683962
0.0134326
0.0515857
0.00927657
0.00677575
0.00165662
0.00945062
0.0343326
0.095272
0.0708544
0.04288
0.52798
0.134861
0.0277402
0.000993971
0.00731825
0.178213
0.320834
0.189413
0.0474552
0.0272672
0.018337
0.0134585
0.0013539
0.0290645
0.0879653
0.134542
0.162915
0.0537952
0.52798
0.277279
0.0826258
0
0.0206901
0.00286086
0.00629998
0.0152122
0.0626625
0.376933
0.132108
0.0181986
0
0.000715213
0.0250912
0.063876
0.0726537
0.239448
0.160838
0.0810149
0.0156365
0
0
0.00476809
0.00427907
0.0178445
0.0341249
0.503149
0.282579
0.0336726
0
0.00119202
0.00345855
0.00549748
0.0370488
0.255793
0.503149
0.174618
0.00923246
0
0
0.0302988
0.11414
0.091787
0.175303
0.110881
0.0104742
0.00221899
0
0
0.0181834
0.0752192
0.29921
0.380076
0.145938
0.00142784
0
0
0.000857525
0.00362659
0.0111396
0.0434256
0.222246
0.384506
0.0462643
0.00131019
0
0
0.000518084
0.00794936
0.0769881
0.340289
0.532992
0.115563
0
0
0
0.0161722
0.00617207
0.0171939
0.0894547
0.039433
0.0753547
0.0175371
0.0330429
0.0421567
0.0275577
0.144404
0.103352
0.420827
0.0505587
0.101789
0.0294801
0.0114095
0.0169657
0.013772
0.0336537
0.0227696
0.147373
0.150529
0.0742182
0.0192887
0.0260639
0.0379994
0.0113859
0.0999972
0.217335
0.646489
0.334491
0.180829
0.103253
0.0224957
0.00364983
0.059859
0.227587
0.224831
0.180444
0.0135784
0.0126569
0.0051299
0.0014999
0.0134467
0.169526
0.364199
0.416948
0.174846
0.0204753
0.00773016
0.00336227
0.0364149
0.0192831
0.0720471
0.158582
0.265763
0.24292
0.0615814
0.0539091
0.0668453
0.0370199
0.058679
0.223458
0.161352
0.265658
0.259107
0.034253
0.0649036
0.0782538
0.132089
0.132481
0.0586771
0.180668
0.272441
0.170199
0.0235985
0.0127664
0.0120527
0.0324902
0.005182
0.026835
0.468064
0.282359
0.122477
0.0643399
0.0178246
0.0185087
0.0453234
0.0365845
0.0514968
0.0509633
0.109535
0.255762
0.0418832
0.102144
0.115226
0.167204
0.0555656
0.0223937
0.142201
0.112078
0.168484
0.0875177
0.0704211
0.142254
0.417237
0.283367
0.0204092
0.326458
0.125381
0.0148199
0.102725
0.0157447
0.0440288
0.049773
0.0942202
0.0768308
0.322857
0.160232
0.00254275
0.0918792
0.0162755
0.0919487
0.0837207
0.166154
0.0256564
0.0619107
0.0230094
0.0207781
0.125609
0.0216743
0.170728
0.275009
0.325479
0.0374767
0.0553034
0.0588708
0.00409239
0.126933
0.0243857
0.402971
0.347375
0.275326
0.110961
0.436872
0.180311
0.00386638
0.0515589
0.0181417
0.0321806
0.0261358
0.0862206
0.183496
0.327673
0.165436
0.0366699
0.0914504
0.131501
0.0386124
0.00311906
0.12816
0.114194
0.195292
0.169593
0.003374
0.0767216
0.0189439
0.229432
0.156047
0.197794
0.221982
0.328714
0.293468
0.0556274
0.0879481
0.0196737
0.0327766
0.0559365
0.165578
0.217396
0.0848201
0.0957745
0.0649841
0.0646739
0.179948
0.0971155
0.0325424
0.142904
0.206361
0.186475
0.183409
0.129827
0.00487879
0.114101
0.153223
0.0855294
0.104249
0.176302
0.157286
0.156119
0.0999603
0.0752326
0.098957
0.0801712
0.12736
0.195198
0.110384
0.0493813
0.044631
0.0833038
0.00813132
0.225731
0.365027
0.333195
0.367973
0.128136
0.160728
0.118452
0.0514478
0.0345801
0.0297349
0.0483826
0.0535615
0.0380698
0.0498555
0.0735262
0.101231
0.0404148
0.534581
0.192344
0.0360061
0.0195364
0.0137508
0.0587183
0.0471847
0.0218167
0.0267358
0.0278265
0.134809
0.211028
0.176496
0.141422
0.0287705
0.032033
0.026595
0.086993
0.534581
0.321453
0.104625
0.0546798
0.0224517
0.00150617
0.00139911
0.00841577
0.0121137
0.442551
0.179872
0.00842367
0.000198628
0.000456536
0.021631
0.00513871
0.00279474
0.0704515
0.455053
0.11222
0.00653923
0
0.000327096
0.00159989
0.00164288
0.00342448
0.0268237
0.457971
0.269884
0.0138595
0.0013904
0.000533295
0.0703443
0.0168178
0.0058952
0.0361119
0.412513
0.194768
0.0532294
0
0.00666035
0.0285343
0.00677871
0.00547035
0.0858394
0.330304
0.0750601
0.0121396
0.00105013
0.000431487
0.00407633
0.000968387
0.00207142
0.0621035
0.479123
0.325196
0.132467
0.00175022
6.1641e-005
0.0959479
0.0221851
0.021139
0.0648215
0.169188
0.106292
0.0688444
0.015778
0.0423825
0.0180949
0.00316929
0.0126834
0.0328198
0.124205
0.381566
0.487487
0.0538775
0.0561432
0.00579895
0.0530805
0.0317835
0.156803
0.141945
0.0640206
0.037624
0.0613249
0.0339256
0.0120957
0.057273
0.102277
0.351103
0.317635
0.24525
0.423527
0.157759
0.0248398
0.0120997
0.0774943
0.0573739
0.1085
0.0930972
0.11774
0.0436981
0.0847723
0.0573675
0.0459868
0.0358957
0.0403218
0.10433
0.048234
0.0921692
0.349105
0.249364
0.269366
0.0563455
0.0396999
0.0522631
0.065612
0.0438845
0.0633416
0.203937
0.160118
0.106485
0.123817
0.0321193
0.0274091
0.0570955
0.00795535
0.0741092
0.148908
0.264394
0.248564
0.0177526
0.0036552
0.00218043
0.00509201
0.00489737
0.020476
0.163779
0.261097
0.271961
0.0268711
0.0144655
0.00136359
0
0.0089724
0.0419573
0.103223
0.534241
0.440868
0.039676
0.0182613
0.00466968
0.0518212
0.00831023
0.0830786
0.121182
0.226543
0.108442
0.0326609
0.0158558
0.0059687
0.0317698
0.0142369
0.0384586
0.167663
0.529182
0.317063
0.0416602
0.0313045
0.00794209
0.00397527
0.00746383
0.0360748
0.0859246
0.338053
0.179434
0.0731374
0.0270534
0.0358607
0.0278269
0.0082461
0.0488631
0.167052
0.427117
0.254775
0.00938081
0.001612
0.00133529
0.00352284
0.0125854
0.00785821
0.151258
0.332067
0.209243
0.00674801
0.000557626
0.00223051
0.000478671
0.0132327
0.0082854
0.260866
0.476678
0.184366
0.0233582
0.00637303
0.009347
0.00764755
0.00536372
0.0350146
0.135778
0.352622
0.109932
0.0214987
0.00716625
0
0.00517253
0.00134097
0.0366836
0.196715
0.476678
0.146395
0.0564544
0.0300609
0.0207988
0.00021139
0.00918139
0.00420955
0.163156
0.298744
0.209243
0.154203
0.141902
0.0886274
0.0447797
0.006633
0.00177538
0.0438742
0.1481
0.150891
0.013944
0.00581025
0
0.00582537
0.000647262
0.0133994
0.189274
0.512886
0.199928
0.0528749
0.0695624
0.0140337
0.0255795
9.2466e-005
0.00194567
0.149445
0.512886
0.226893
0.0738977
0.0927759
0.0737427
0.051974
0.005838
0.0148718
0.0244864
0.084105
0.140091
0.0335946
0.0164117
0.0180671
0.0101404
0.000834
0.0466361
0.087461
0.220154
0.317704
0.0234755
0.0593737
0.0226819
0.0271499
0
0.00580235
0.0395664
0.511669
0.271721
0.00978532
0.0108888
0.00850923
0.00387856
0
0.0051143
0.042057
0.520174
0.349983
0.034146
0.0227898
0.0121516
0.00837922
0.00463163
0.104029
0.122256
0.184878
0.211731
0.0249877
0.037983
0.0257215
0.0586545
0.339348
0.374186
0.0883677
0.0425978
0.0364401
0.050925
0.0201811
0.00888185
0.00264559
0.00407284
0.0195177
0.0372059
0.27741
0.273031
0.060633
0.0336352
0.0265691
0.0222251
0.508321
0.337299
0.0296128
0.0378344
0.146147
0.0017991
0.00350054
0.00350717
0.0209894
0.379178
0.262365
0.0115389
0.000600403
0.000224091
0.0265274
0.0276945
0.00283263
0.0626344
0.255484
0.195862
0.0324971
0.00743633
0.0162467
0.00449569
0.00309984
0.00489413
0.0109403
0.505755
0.290152
0.00641663
0.000210196
0.00879868
0.00219599
0.0158004
6.48528e-005
0.0515787
0.378389
0.373754
0.0110323
0.0123939
0.0105546
0.0496796
0.0456627
0.0126956
0.0902741
0.0718847
0.113631
0.0648693
0.0973413
0.11792
0.0144856
0.00652324
0.0130997
0.0373791
0.0204404
0.208004
0.369863
0.211521
0.152321
0.00542011
0.0260517
0.000290664
0.0943053
0.198782
0.315893
0.135473
0.133184
0.0741842
0.00251727
0.00372167
0.0165208
0.0625359
0.0661966
0.317364
0.460268
0.312647
0.11748
0.0324983
0.108776
0.153917
0.108148
0.0925329
0.118587
0.0583602
0.0615421
0.0793917
0.0973734
0.0559056
0.0389703
0.0630047
0.0270119
0.12347
0.155933
0.121978
0.357276
0.0207616
0.0379273
0.214673
0.197642
0.215902
0.145637
0.165236
0.0785214
0.0582712
0.0322254
0.0255748
0.143605
0.145064
0.120506
0.344126
0.383201
0.127411
0.122719
0.0390851
0.00695043
0.0124084
0.0177916
0.0034875
0.0635262
0.067763
0.165123
0.305636
0.0368534
0.0271477
0.0771622
0.0582731
0.0547755
0.0751584
0.0814777
0.535497
0.364067
0.106178
0.0882475
0.126893
0.0515511
0.0695428
0.143343
0.082623
0.05262
0.0897888
0.1814
0.256138
0.265744
0.162857
0.0858488
0.0678418
0.0542039
0.12927
0.0580211
0.058866
0.063556
0.056982
0.033291
0.0422271
0.0601611
0.0981896
0.321602
0.160645
0.170723
0.127784
0.0873556
0.0245506
0.0115298
0.056854
0.115261
0.485661
0.3361
0.0496264
0.163876
0.194166
0.125862
0.0715018
0.0360967
0.0333772
0.0626352
0.0157164
0.138653
0.309755
0.261205
0.0439149
0.0279974
0.0154214
0.0375927
0.212779
0.080749
0.0446943
0.0210635
0.0137412
0.00407513
0.00285815
0.0186582
0.0838504
0.359909
0.11529
0.0314597
0.0103802
0
0.0203663
0.00267123
0.0317639
0.16056
0.54862
0.13234
0.0495304
0.0694899
0.0688838
0.000815282
0.000676568
0.000285945
0.0454089
0.238324
0.109627
0.0182213
0.019885
0.0316298
0.0134278
0.00360118
0.0208372
0.0664738
0.546803
0.23407
0.00379561
0.00637558
0.00462256
0.0163218
0.00181353
0.0316938
0.115227
0.33242
0.0748082
0.00729133
0.0165709
0.00820165
0.00233168
0.000259076
0.0162392
0.096958
0.52395
0.13563
0.00550167
0.0134511
0.0093674
0.0107612
0.00288603
0.0444066
0.0416321
0.425093
0.114716
0.0368991
0.0156061
0.0128405
0.00153731
0.00041229
0.0295187
0.102796
0.52395
0.169863
0.00540608
0.00591351
0.00127654
0
0
0.000611545
0.0409939
0.449602
0.143819
0.0032565
0.000530069
5.88965e-005
0
0
0.000366927
0.0522056
0.473717
0.190967
0.0275129
0.00144044
0.00352571
0.000893685
0.013429
0.0153061
0.158035
0.358716
0.0970112
0.00983849
0.00693141
0.0145969
0.0062558
0.0223817
0.0185265
0.133902
0.473717
0.239114
0.0110194
0.000826624
0.00123729
0.00123729
0.000900084
0.00118134
0.0228048
0.374476
0.191285
0.0303386
0.00137771
0.0112727
0.0627747
0.216554
0.0610801
0.0397976
0.205514
0.152154
0.00833848
0.00727894
0.00581588
0.00259352
0.00318091
0.00207471
0.0977722
0.481851
0.230816
0.1781
0.00384531
0.0195191
0.101996
0.0842549
0.00744633
0.221666
0.481851
0.16173
0.0203367
0.000213535
0.011952
0.0894471
0.448288
0.129312
0.0166281
0.0371061
0.0217179
0.00263774
0
0.00516587
0.0393399
0.379161
0.298826
0.00230841
0.00169459
0.000437875
0.197983
0.00873372
0.0586424
0.207325
0.242429
0.0419722
0.0820329
0.122604
0.0622397
0.0384378
0.00524023
0.0361611
0.129573
0.475692
0.263718
0.00723051
0.00474119
0.0125477
0
0
5.41156e-005
0.0205158
0.261544
0.250231
0.0859974
0.0262304
0.00365687
0
0
0.00719524
0.0255985
0.106451
0.173231
0.369873
0.210663
0.0145591
0.000864316
0
0.022847
0.0502315
0.518676
0.275847
0.0245958
0.0104545
0.00126255
0.000627565
0
0.0383244
0.0411068
0.3063
0.133843
0.198208
0.27011
0.00741028
0.010862
0.023671
0.148084
0.160096
0.112106
0.0773949
0.0529118
0.0196989
0.0149387
0.0644129
0.0610862
0.139366
0.0616191
0.137697
0.24143
0.152591
0.0377588
0.0308556
0.038153
0.0407849
0.257149
0.371141
0.160089
0.0249714
0.0281875
0.00808967
0.0569619
0.238904
0.120034
0.307684
0.257895
0.261182
0.296987
0.0965553
0.0158374
0.219736
0.129625
0.112656
0.111365
0.0196563
0.152628
0.170779
0.0833613
0.0332537
0.0315334
0.296046
0.316035
0.112221
0.0781152
0.078555
0.0426887
0.0456363
0.0601533
0.0150407
0.241631
0.100927
0.0531696
0.0638082
0.224051
0.277878
0.12833
0.049651
0.134702
0.464031
0.238062
0.0160896
0.0515633
0.102907
0.126348
0.0663148
0.11683
0.0591092
0.0765762
0.125662
0.078177
0.100896
0.0495127
0.0044677
0.0054859
0.013264
0.000148481
0.0935521
0.33632
0.172146
0.076795
0.0419444
0.00386921
0.00471897
0.0274491
0.0174497
0.146166
0.146006
0.133438
0.136244
0.0496429
0.0776969
0.00631177
0.0398928
0.0158824
0.282751
0.55892
0.40462
0.197694
0.106673
0.0684209
0.0362646
0.0887243
0.0970173
0.133218
0.26913
0.128661
0.0332045
0.0345673
0.0121011
0.0272835
0.0983385
0.0693437
0.0992339
0.0784227
0.0654344
0.0527187
0.0488648
0.0142935
0.0359097
0.295096
0.13496
0.271945
0.375587
0.167994
0.232258
0.292722
0.124244
0.0633301
0.138377
0.0954686
0.147268
0.135686
0.0360892
0.306206
0.266691
0.0755222
0.033753
0.0671222
0.056589
0.0447633
0.0405478
0.0111297
0.0190562
0.0156593
0.0190286
0.0117979
0.289383
0.136204
0.0587556
0.0571447
0.0685738
0.068788
0.0255545
0.0267681
0.1456
0.531641
0.300264
0.0760454
0.0908863
0.0339749
0.0773493
0.0344465
0.0121225
0.00498921
0.0214954
0.0440696
0.041832
0.102175
0.168109
0.493029
0.246963
0.120477
0.0710585
0.0878238
0.0877228
0.0611524
0.0834877
0.0665962
0.0448333
0.0316008
0.054238
0.220653
0.216745
0.0994205
0.0962281
0.0997843
0.0834642
0.0378918
0.0380659
0.0721062
0.169997
0.292516
0.273232
0.0995695
0.180764
0.170462
0.296656
0.137422
0.175094
0.13564
0.0920487
0.0456467
0.228023
0.213428
0.149608
0.174147
0.0922237
0.144417
0.169009
0.293694
0.237647
0.0362603
0.0300575
0.0198384
0.00850216
0.00411672
0.00789045
0.134448
0.345622
0.175166
0.143001
0.00810706
0.00870411
0.0237367
0.0044202
0.0148954
0.263681
0.413172
0.152202
0.096508
0.0408857
0.0531859
0.155873
0.0658336
0.0255384
0.0923735
0.243335
0.200137
0.0570067
0.00843999
0.0228415
0.112205
0.0169748
0.0274593
0.16933
0.39542
0.370852
0.178908
0.013531
0.0368841
0.0824407
0.0542096
0.0418119
0.173117
0.139344
0.145753
0.052855
0.012484
0.0754148
0.212769
0.420457
0.137908
0.0520916
0.0173762
0.0656998
0.036507
0.0136771
0.0191249
0.0229181
0.0123126
0.0541863
0.177318
0.339676
0.352026
0.07986
0.106421
0.265414
0.31777
0.176466
0.0375165
0.0611664
0.136455
0.209045
0.00355122
0.00260993
0.0754623
0.237126
0.493189
0.10756
0.000916234
0.00269692
0.00959187
0.00476393
0.00404066
0.0702112
0.13814
0.263191
0.0707745
0.0376415
0.0925951
0.0458104
0.0322763
0.0687315
0.25487
0.47548
0.299618
0.00852657
0
0.00897436
0.0318989
0.0104112
0.0396721
0.132953
0.243448
0.18123
0.0185014
0.00314354
0.00763627
0.0549812
0.0619316
0.0193352
0.0751958
0.18954
0.210348
0.0583996
0.0370823
0.0326869
0.0406657
0.173613
0.0709282
0.109529
0.278146
0.324899
0.217338
0.0509668
0.0144399
0.126952
0.149026
0.0166541
0.103901
0.107436
0.186446
0.207332
0.0613148
0.18398
0.139933
0.315224
0.106115
0.0818401
0.205893
0.249005
0.232055
0.087341
0.108273
0.208014
0.159933
0.0591712
0.0457588
0.208987
0.381763
0.226562
0.0544996
0.038483
0.0983231
0.151947
0.0346799
0.0458393
0.0853481
0.228954
0.147843
0.0794996
0.180075
0.0525031
0.201658
0.132978
0.080484
0.251977
0.323776
0.0947457
0.0477044
0.0452566
0.147419
0.0429933
0.0313878
0.108405
0.104128
0.222137
0.146296
0.169249
0.160231
0.140825
0.0459934
0.0319382
0.11371
0.144898
0.0891535
0.106478
0.0206731
0.079595
0.0592908
0.217998
0.290884
0.322212
0.230089
0.107007
0.0686269
0.0345331
0.135442
0.232925
0.0560183
0.0103996
0.0544056
0.0709918
0.0753592
0.177381
0.121685
0.0786758
0.133574
0.377397
0.268001
0.136494
0.135143
0.0542956
0.143144
0.0980803
0.102319
0.305901
0.193351
0.277437
0.214951
0.273516
0.2235
0.0782999
0.0387851
0.0916721
0.116163
0.0503767
0.0923775
0.087115
0.288709
0.20831
0.0654827
0.0167473
0.0232739
0.038384
0.293123
0.404449
0.225696
0.171227
0.0479512
0.0304865
0.0295317
0.0548355
0.118428
0.0612192
0.162647
0.13729
0.137489
0.0911216
0.0956328
0.0322321
0.0489849
0.0372799
0.0707338
0.0633435
0.057149
0.106027
0.0398348
0.0203223
0.0211456
0.0194114
0.0398013
0.0651833
0.0449159
0.126517
0.554839
0.262693
0.296954
0.11876
0.16098
0.0486689
0.0988401
0.0688668
0.0512574
0.078884
0.10055
0.101044
0.0321647
0.0547844
0.0448102
0.142661
0.102634
0.0462377
0.177721
0.100538
0.258799
0.218648
0.297184
0.0867812
0.0475863
0.0409559
0.0489454
0.167664
0.0982691
0.200652
0.117855
0.213716
0.0800189
0.230694
0.118864
0.12108
0.138281
0.093855
0.109975
0.121868
0.270296
0.154941
0.0505941
0.0130094
0.00413129
0.0455262
0.030584
0.100414
0.102597
0.309473
0.172163
0.304503
0.0925429
0.0783987
0.0524021
0.035366
0.0328631
0.118869
0.339268
0.402624
0.147068
0.0824195
0.145416
0.297963
0.146049
0.0303952
0.0367196
0.109498
0.0973029
0.111415
0.0317125
0.0664889
0.229737
0.0646024
0.0127118
0.03634
0.263144
0.306172
0.229918
0.114948
0.168636
0.147539
0.0798126
0.0111029
0.0634403
0.073457
0.281774
0.213576
0.0548574
0.126191
0.330752
0.126108
0.0574014
0.0176779
0.0890456
0.306703
0.105778
0.0192913
0.0158365
0.0278718
0.0105496
0.0199937
0.044198
0.331224
0.351067
0.258687
0.160047
0.182827
0.125861
0.0393401
0.0114414
0.016283
0.152437
0.30642
0.21411
0.015171
0.0213936
0.254461
0.137968
0.126283
0.0235395
0.112711
0.245657
0.280881
0.0679438
0.04021
0.19522
0.157916
0.0889464
0.0164989
0.0468007
0.194509
0.186264
0.223121
0.286258
0.290279
0.160413
0
0.00143794
0.0150344
0.0964813
0.0705286
0.101725
0.157738
0.202437
0.192976
0.000453652
0.0100656
0.0305158
0.0143262
0.292785
0.191915
0.127286
0.120088
0.138813
0.0827431
0.0274423
0.00831475
0.0996469
0.241414
0.151642
0.179462
0.286944
0.303156
0.0603235
0.0320014
0.0503279
0.0405393