0.0384436
0.0788319
0.00883221
0.0307941
0.0214266
0.0720918
0.037518
0.0283746
0.0222436
0.0355654
0.0448581
0.00928909
0.0440067
0.333002
0.520308
0.106862
0.0272337
0.0232248
0.0646047
0.0742694
0.0398298
0.0403511
0.0536124
0.0667325
0.0481701
0.0300366
0.0207206
0.0867587
0.0923003
0.123574
0.237918
0.300792
0.157268
0.0908123
0.0190513
0.0138868
0.0431014
0.00654716
0.00634764
0.00720265
0.116847
0.300812
0.125755
0.0448933
0.126492
0.370896
0.134425
0.0179884
0.0779382
0.105011
0.140902
0.118632
0.0738154
0.358256
0.0935453
0.0391912
0.0875969
0.105154
0.128845
0.0726497
0.0669021
0.0107976
0.0666206
0.369619
0.144343
0.0606015
0.0520905
0.0404374
0.0405648
0.0386256
0.039401
0.376786
0.232167
0.130132
0.0507793
0.171496
0.255032
0.00155889
0.0107143
0.0155798
0.120861
0.0394894
0.0352592
0.0629883
0.126281
0.400367
0.0592702
0.00545675
0.00433507
0.0271801
0.238688
0.135709
0.0431736
0.0537318
0.0317076
0.00978466
0.00818842
0.0529885
0.387848
0.247604
0.241173
0.0919153
0.0456758
0.130847
0.0959977
0.0603512
0.0327161
0.275693
0.0273867
0.00412983
0.00710615
0.0284493
0.239598
0.104494
0.0499115
0.0351216
0.0443345
0.188323
0
0
0.0294692
0.124437
0.100919
0.100716
0.109527
0.287646
0.232913
0.121523
0.0191714
0.0017323
0.0771192
0.0699334
0.0421173
0.0371157
0.109958
0.588639
0.0576838
0.000890332
0
0.0245448
0.0358193
0.0453052
0.0739514
0.444239
0.157262
0
0
0.00251577
0.00274704
0.00687333
0.0511398
0.0760607
0.210493
0.210178
0.0136983
0.014608
0.000808832
0
0
0.0283226
0.079682
0.315659
0.340598
0.0038123
0
0
0
0.000981904
0.00765239
0.0119358
0.367497
0.358346
0.00145641
0.000364104
0
0
0
0.00222833
0.0188795
0.556074
0.141481
0.0357553
0.0452778
0.015745
0.0084571
0.000300412
0.00680505
0.0344312
0.276075
0.12111
0.0977032
0.053538
0.102637
0.0294976
0.00210288
0.0102515
0.0185356
0.245213
0.189786
0.00453722
0.00112855
0
0
0
0.000878702
0.0739304
0.552834
0.181459
0.117722
0.0276974
0.0285263
0
0
0.0119052
0.149874
0.539724
0.0938702
0.161119
0.112302
0.431767
0.213929
0.011678
0.00386768
0.00370498
0.0950123
0.0112814
0.0401253
0.0664912
0.325727
0.31468
0.0368055
0.00819767
0.0118769
0.00640737
0.147479
0.249915
0.14554
0.17119
0.0704552
0.0235745
0.0333122
0.195294
0.277695
0.0240383
0.07136
0.0922664
0.147907
0.119875
0.0626769
0.0484442
0.150003
0.0457787
0.0170381
0.0365027
0.0581638
0.137749
0.125
0.0653007
0.0186075
0.0352417
0.0168492
0.0075184
0.024628
0.11526
0.348867
0.324645
0.110616
0.0194787
0.0130927
0.00330756
0.0401386
0.0531837
0.0604235
0.0763116
0.048446
0.106757
0.0666028
0.0816424
0.0441906
0.0271318
0.0434436
0.130407
0.209925
0.368168
0.334874
0.0680166
0.00999754
0.0112202
0.0143792
0.0353192
0.0279413
0.21562
0.289899
0.0741336
0.0119731
0.0198534
0.0140333
0.0233889
0.0697044
0.048951
0.0973425
0.278924
0.264911
0.0501877
0.0823322
0.0233889
0.00823399
0.049959
0.0538692
0.13925
0.317022
0.241444
0.0734825
0.0192385
0.0524878
0.0187644
0.143824
0.131501
0.140429
0.306862
0.280818
0.105581
0.0390988
0.0867554
0.0508729
0.0568377
0.0783508
0.0755062
0.0414128
0.012673
0.0159469
0.016055
0.0129446
0.0760996
0.0600599
0.102507
0.252705
0.413079
0.128876
0.0431521
0.00952511
0.0111973
0.0382763
0.0411846
0.0946625
0.073731
0.0231714
0.0209768
0.0387394
0.101955
0.0277817
0.0539927
0.0399253
0.186134
0.14363
0.428783
0.219701
0.120662
0.0573906
0.0330202
0.0604087
0.0246532
0.0523334
0.0900397
0.164293
0.0752087
0.0351226
0.0156191
0.0231635
0.251795
0.198288
0.0328307
0.0301484
0.0662964
0.0621028
0.0355429
0.0405928
0.211982
0.080186
0.0793752
0.115386
0.0436165
0.141522
0.11186
0.0921233
0.02786
0.0536951
0.441897
0.560147
0.206825
0.0134972
0.0931952
0.0642041
0.08057
0.0444653
0.113561
0.0940533
0.192033
0.0139769
0.00127799
0.00178166
0.00570029
0.00529121
0.0159639
0.117377
0.0987173
0.302894
0.0665499
0.000766794
0.0312917
0.026673
0.0243912
0.0153405
0.0780755
0.116706
0.435727
0.150208
0
0.0271023
0.00212653
0.00354826
0.00633266
0.0219565
0.136833
0.684005
0.169058
0
0.0207455
0.00581843
0.00345871
0.0158113
0.0200254
0.191111
0.157236
0.0252528
0
0.0274787
0.0146874
0.00867675
0.00559682
0.0330511
0.469165
0.0593459
0.00104295
0
0.00389387
0.00230859
0.000271382
0.00348651
0.108769
0.317049
0.29468
0.0315493
0
0.0156379
0.00372094
0.00117492
0.00532058
0.0248685
0.64964
0.0706153
0.000835969
0
0.00223399
0.000394234
0
0
0.0837182
0.345844
0.00621354
0
0
0
0
0
0.000501056
0.178474
0.27746
5.94184e-005
0
0
0
0
0
0.012444
0.384887
0.450377
0.0157864
0
0
0
0
0.000944691
0.0010257
0.159516
0.296282
0.00293135
0
0
0.000826603
0.00153512
0.00157448
0.0148028
0.475416
0.119023
0
0
0
0
0
0
0.0776205
0.378557
0.0734983
0.0184947
0.00507716
0.00102567
0
0.00253518
0.0549045
0.222985
0.350246
0.118041
0
0
0
0.000927308
0.00172215
0.000239043
0.0789339
0.475824
0.0529683
0
0
0
0.000132473
0.00447131
0.0669943
0.359347
0.429365
0.0195921
0.0209257
0.0137618
0.00346336
0.00457466
0.0100877
0.0907365
0.214555
0.103768
0.00401507
0.00633255
0.00849447
0.00649875
0.00781832
0.014181
0.10572
0.242343
0.0250612
0.00375392
0
0
0
0
0.0114835
0.127662
0.502527
0.119328
0.000293568
0
0
0
0
0.0147571
0.234302
0.660618
0.0230527
0.0124252
0.00789414
0.00686773
0.00472999
0.00898952
0.0304807
0.102494
0.190198
0.0348459
0.0250131
0.02634
0.0549041
0.0216098
0.093772
0.106728
0.043664
0.0372635
0.0162561
0.00436362
0.00209344
0.000478659
0
0.00748842
0.11892
0.451749
0.573677
0.0348491
0.0144698
0.01356
0.0518033
0.0523211
0.0921688
0.212897
0.349417
0.13236
0.0166695
0.0174788
0.039617
0.14098
0.0717845
0.17104
0.206267
0.0779889
0.0223907
0.0973016
0.020505
0.154683
0.189206
0.144279
0.178718
0.17516
0.0724402
0.035533
0.161456
0.0291927
0.030637
0.166465
0.195138
0.168243
0.171027
0.152835
0.0425432
0.0499656
0.0673147
0.133477
0.13167
0.239549
0.26127
0.259703
0.0387336
0.0584119
0.0950327
0.0178067
0.0117092
0.0200554
0.0260709
0.014243
0.0315011
0.0183913
0.0355745
0.0102514
0.0159414
0.0110356
0.200613
0.129988
0.0582001
0.0444184
0.030324
0.0270646
0.0119622
0.0306205
0.0145141
0.0254679
0.0823073
0.0318689
0.060161
0.021915
0.0334688
0.0436123
0.0101342
0.0173955
0.604292
0.579668
0.0578699
0.029874
0.0106208
0.0195784
0.011386
0.015202
0.0340317
0.142319
0.047976
0.00966231
0.0113549
0.0121034
0.00251328
0.0089788
0.0809022
0.174849
0.327581
0.0244617
0.0231578
0.00334326
0.0085852
0.00283956
0.0138984
0.00113207
0.0188573
0.393148
0.163944
0.00438932
0.000646008
7.23972e-005
0.000563733
0.000354755
0.00619223
0.142023
0.730562
0.149229
0.00318218
9.22869e-005
0
0
0
0.0461985
0.311699
0.381846
0.00220237
0.0313543
0
0.000485902
0.00084188
0.0029474
0.0842697
0.462899
0.229996
0.00275992
0.00648105
0
0.000317184
0.00259758
0.00244313
0.0132338
0.24927
0.496038
0.0396558
0.00753212
0
0
0.000576106
0.000101666
0.0323092
0.221928
0.162945
0.00510046
0.0109793
0
0.00222028
0.00477284
0.00354211
0.378057
0.405967
0.0713914
0.00240363
0.0118941
0
0.00188455
0.00263187
0.0397721
0.609236
0.109922
0.00809094
0.00129071
0.00941181
0
0.00113073
0.00189314
0.113211
0.0734708
0.163587
0.07061
0.00969216
0.0337219
0
0.0131918
0.0188363
0.0171344
0.172873
0.190206
0.0562142
0.0270355
0.0417627
0
0.00791511
0.0238259
0.0491017
0.280663
0.051426
0.00646751
0.000375549
0.00179962
0
0.0053222
0.00795053
0.107191
0.149723
0.0245514
0.0154683
0
0.0115216
0.00864857
0.00887033
0.0385101
0.320246
0.287115
0.191079
0.0375884
0.00745937
0.0146676
0
0.00319332
0.00995542
0.0430866
0.659267
0.130547
0.0342914
0
0.0156064
0.00518914
0.0053222
0.0195729
0.243711
0.0336734
0.0049672
0.00868784
0
0.00851756
0.00742926
0.000896206
0.06259
0.223592
0.0214852
0.00284799
0.00629434
0
0.0019579
0.00851999
0.0201394
0.278304
0.238023
0.371328
0.0203467
0.0150708
0
0.0104875
0.00549511
0.000537723
0.0160375
0.268123
0.56464
0.00874595
0.0104906
0
0.0027334
0.0119017
0.00535309
0.0687307
0.402156
0.00843584
0.000136388
0.000409164
0
0.000765934
0.0034325
0.0426687
0.32819
0.0713267
0.0040526
0
0
0
0.00392302
0.0145621
0.207445
0.5086
0.0199644
0.349428
0.000227313
0.00068194
0
0.00426552
0.00308254
0.0172569
0.101125
0.248429
0.36417
0
0
0
0.0350009
0.0533198
0.206044
0.238998
0.251287
0.000282268
0
0
0
0.00232317
0.0561497
0.294804
0.222227
0.00243599
0
0
0.0166289
0.0213609
0.0626813
0.131234
0.281019
0.0465515
0.000737119
0.123983
0
0
0
0.0352098
0.116012
0.422873
0.155584
0.072586
0.00847948
0
0.00980337
0.0068516
0.112135
0.293707
0.566113
0.0691857
0.00363407
0.0192827
0.0133487
0.0881799
0.103467
0.159828
0.131984
0.12625
0.0117788
0.0129305
0.0660163
0.0628017
0.0834446
0.144264
0.137726
0.0986046
0.0195172
0.0201665
0.0248466
0.0277401
0.0138059
0.0872847
0.0392881
0.281983
0.41526
0.51863
0.0447292
0.00882014
0.0876771
0.0387974
0.101726
0.0985835
0.192823
0.143754
0.181879
0.0771313
0.0191817
0.0207221
0.0140265
0.0261084
0.0628351
0.00830204
0.0105324
0.00690102
0.00687772
0.0229869
0.00575163
0.0102993
0.23376
0.395537
0.0372173
0.0031027
0.00365673
0.00219304
0.00572924
0.0548426
0.0293556
0.0784775
0.0888617
0.00559786
0.00744462
0.0203452
0.0149823
0.0420442
0.0171213
0.013725
0.231945
0.765612
0.12169
0.00471953
0.0118138
0.00450935
0.00784083
0
0.008958
0.362831
0.232071
0.0182531
0
0
7.92465e-005
1.39847e-005
0.00101836
0.0457334
0.479362
0.198579
0.00273853
0
0
0.000208663
0.000805998
0
0.00185489
0.198042
0.539076
0.111623
0.00282611
0.000623934
0
0
0.00143147
0.0193783
0.197975
0.285042
0.06065
0.00571237
0.00121244
0.00215301
0.00189199
0.0232329
0.226605
0.567387
0.175726
0.0287244
0
0.00676494
0.0117907
0.0109194
0.0384961
0.216995
0.159208
0.021844
0.0619107
0.00713998
0.0140478
0.0462564
0.0164134
0.0202378
0.0783866
0.141193
0.122381
0.0698742
0.0233461
0.0189176
0.0417307
0.0266864
0.0320438
0.0861589
0.193744
0.336316
0.193451
0.079388
0.0233677
0.0614416
0.0301078
0.0229286
0.0610335
0.0310067
0.0115515
0.00705054
0.00146976
0.00186567
0.0070992
0.00187071
0.0821443
0.336986
0.0527485
0.0126593
0.00693511
0.000209966
0.000930941
0.00638565
0.00713553
0.0299543
0.139212
0.225306
0.158643
0.0279406
0.0111076
0.000629675
0.00293375
0.00116903
0.0943436
0.737229
0.373091
0.0999486
0.00839653
0.00146976
0
0.000852286
0.00098542
0.156201
0.229249
0.0218613
0.00170838
0.00197562
0
0
0.000805238
0.0110065
0.422579
0.0888276
0.00428571
0
0.00063426
0
0
0.000129998
0.103636
0.186907
0.489414
0.0735478
0.0032373
0.0012956
0
0
8.40821e-005
0.00676305
0.580328
0.195263
0.0059091
0
0
0
0
0
0.1147
0.308442
0.00424283
0.000812889
0
0.000416341
8.03375e-005
0
0
0.140324
0.397219
0.000880365
0.000519861
0
0.000120687
0.000562363
0
0.000430576
0.215858
0.465015
0.0128458
0
0
0
0
0
0
0.164089
0.552931
0
0
0
0
0
0
0
0.27782
0.37369
0.00472389
5.63188e-005
0.000596783
0.00429074
0.000254575
0.000738237
0.00231608
0.207492
0.347871
0.0133684
0.00257771
0.0221398
0.0764337
0.0383018
0.0522546
0.0430236
0.212416
0.511348
0.0310836
0
0.000994639
0.00563628
0
0
0
0.229862
0.424491
0.170494
0.0604319
0.132101
0.113806
0.0318583
0.0213766
0.0213766
0.124889
0.153946
0.0177392
0.00590588
0.0558094
0.158112
0.124584
0.188505
0.096417
0.098022
0.0090933
0.0196047
0.00418755
0.0240385
0.0869281
0.204856
0.424791
0.0849791
0.00350104
0.12635
0.166415
0.121652
0.376873
0.242873
0.0905827
0.0749869
0.0523847
0.0356282
0.00288927
0.0587364
0.0445532
0.170289
0.152141
0.304794
0.342809
0.0465513
0.000500148
0.00871078
0.00601877
0.00779605
0.000643843
0.0888335
0.202285
0.347132
0.0333716
0.000521833
0.0270197
0.00887229
0.020542
0.0538788
0.142525
0.107501
0.121748
0.0206679
0.00219904
0.00141136
0.00873387
0.00584308
0.00456284
0.297345
0.41619
0.276043
0.0142795
0
0.00373572
0.00126474
0.0173687
0.121635
0.523035
0.191407
0.0605921
0.00142879
0.00011205
0.0190507
0.011578
0.05132
0.042313
0.0103
0.0340905
0.0475024
0.073895
0.036808
0.00542162
0.00434456
0.178408
0.59269
0.10691
0.0585706
0.0327973
0.0254402
0.00384595
0.00338448
0.0146934
0.0270685
0.0432183
0.0950877
0.0837521
0.0278059
0.0793003
0.0225392
0.000204337
0.00211225
0.0946854
0.402648
0.461611
0.249051
0.0196784
0.0290018
0.00378796
0
0.000184356
0.0933823
0.629662
0.168021
0.0305974
0.00655284
0.00129022
0
0.00163531
0.00596873
0.0333842
0.243304
0.117511
0.0313965
0.0263399
0.0108687
0.00201029
0
0
0.0507679
0.365271
0.399116
0.169507
0.00806042
0.00215037
0
0.0353843
0.0121511
0.0420684
0.110706
0.180723
0.0802472
0.0492769
0.017169
0.0209403
0.00493765
0.00535096
0.00669249
0.0145039
0.0293028
0.0149838
0.0213068
0.0135484
0.00613742
0.00641929
0.00283819
0.0800491
0.304022
0.156006
0.0223372
0.00828246
0.0075129
0.00689308
0.0952179
0.0133385
0.0406136
0.0209633
0.0548112
0.0115903
0.0375821
0.0408442
0.0831907
0.0575474
0.0109415
0.0816422
0.606935
0.596241
0.00617406
0.00914971
0.0481123
0.0789331
0.00300355
0.0297776
0.178372
0.252737
0.0501991
0.00354808
0.000253558
0.000161203
0.000506671
0.0113176
0.215466
0.337759
0.207232
0.0188
0.000381412
0
0
0
6.87376e-005
0.00200621
0.0893058
0.430182
0.274846
0.000342608
0.000122148
0.00247474
0.00254869
0.000164056
0.051625
0.268796
0.49898
0.220178
0.00455052
0
0
0
0.116808
0.36134
0.207632
0.0445934
0.00609699
0
0
0
0.00393662
0.506203
0.245679
0.0372921
0.000959713
0
0
0
0.000702112
0.105828
0.0740118
0.244803
0.313666
0.231899
0.0902323
0.00626388
0
0.00487864
0.0177593
0.313258
0.232108
0.0836497
0.0213187
0.00869041
0.030239
0.00991339
0.0390653
0.154442
0.465371
0.0244334
0
0
0
0
0
0.000707352
0.179837
0.574614
0.0021491
0
0
0
0
0
0.00010105
0.296785
0.273366
0.035593
0.00866085
0.0139293
0.00848265
0.030288
0.0108938
0.0177574
0.141406
0.368813
0.0254385
0.00908555
0.0130762
0.0043549
0.00977945
0.0104155
0.00202068
0.166101
0.520639
0.0243804
0
0.000185752
0.00105259
0
0
0
0.232664
0.502824
0.230353
0.0717471
0.0839353
0.0257423
0.00444576
0
0
0.0813549
0.336193
0.00753587
0.00284722
0.00724967
0.000172436
0.00938696
0.0141024
0.00139722
0.134371
0.354186
0.0919608
0.0199613
0.0147797
0.00449383
0.0122197
0.0120643
0.00109848
0.0641923
0.170525
0.257802
0.146786
0.282846
0.0766372
0.0178749
0.0142388
0
0.00688335
0.00549434
0.0491899
0.0523502
0.166874
0.283623
0.282195
0.127505
0
0.00209006
0.147524
0.157437
0.052628
0.0552282
0.0318448
0.0104824
0.0041739
0.00035494
0.0170004
0.0152694
0.0592688
0.0253905
0.113676
0.622789
0.10842
0.00638431
0
0.00348343
0.000267585
0.00209878
0.00392418
0.0290525
0.310757
0.20922
0.0448536
0
0.00019198
0
0
0.019701
0.120553
0.333395
0.0857498
0.0110435
0
0
0.00310937
0.00326829
0.00123199
0.116548
0.608683
0.095729
0.00792963
0
0.000559675
0.0151016
0
0.0118206
0.209734
0.396169
0.188698
0.0846972
0
0.00167795
0.00540782
0.0261184
0.0167677
0.0181641
0.0776867
0.0573105
0.0037743
0.00825964
0.0043782
0.000399502
0.00380259
0.00966034
0.0550309
0.39244
0.349883
0.00451769
0.00325527
0.000822241
0.0141204
0.0200557
0.010721
0.00858653
0.0605203
0.0837279
0.0166582
0.00902792
0.0146405
0.00118749
0.00200081
0.00356859
0.00750715
0.246174
0.729179
0.0662252
0.00871426
0.0020244
0
0
0.00180171
0.0421135
0.277792
0.228219
0.0020544
0.00020997
0
0.0381809
0.024981
0.0574474
0.126114
0.190749
0.0732244
0.00734852
0.00230486
0.0233759
0.000700892
0.000573457
0
0.018409
0.172953
0.572309
0.0811009
0.0101089
0
0.0222908
0.0322901
0.0367363
0.244394
0.4366
0.306271
0.0995012
0.010064
0.00993883
0.095293
0.0509158
0.0692003
0.0983934
0.0622199
0.0068092
0.0230141
0.0912498
0.102357
0.0571758
0.058443
0.0618717
0.285001
0.332273
0.0022402
0.0305673
0.203777
0.128578
0.0450461
0.0776023
0.0564559
0.179323
0.294977
0.138727
0.15979
0.157291
0.0572481
0.050481
0.246451
0.0779821
0.197352
0.208611
0.0676679
0.200751
0.441874
0.125442
0
0.0175391
0.0209203
0.285302
0.416711
0.00673288
0.00406671
0.0345378
0.0147472
0.00695694
0.0358403
0.0813028
0.31319
0.493314
0.049658
0.0173473
0.0253947
0.00850294
0.0197693
0.137401
0.0377011
0.176638
0.258542
0.0443667
0.0326885
0.0982104
0.0299073
0.0572937
0.0613863
0.0658261
0.0956673
0.353882
0.142832
0.071807
0.0711081
0.12338
0.0483237
0.210373
0.152911
0.160953
0.185001
0.0415947
0.0172751
0.0426791
0.0249879
0.0879757
0.23597
0.0721323
0.0676309
0.0910147
0.139418
0.0243653
0.0958373
0.101297
0.0824057
0.224233
0.274444
0.082978
0.123163
0.0773284
0.061232
0.0671808
0.131907
0.0411148
0.230664
0.398002
0.459564
0.171903
0.155911
0.0346071
0.057709
0.0385833
0.08656
0.0704065
0.0207558
0.116053
0.215826
0.202395
0.0377402
0.0744763
0.0924165
0.124259
0.0397157
0.0249874
0.0743059
0.0728961
0.0398253
0.035363
0.00705617
0.0364533
0.00995175
0.0452144
0.195801
0.655815
0.396619
0.179021
0.0254247
0.0409494
0.0172257
0.0352623
0.0235956
0.0248983
0.154778
0.128443
0.0241047
0.0226575
0.00624717
0.00980718
0.383554
0.0444738
0.0361889
0.11618
0.0170957
0.1108
0.141998
0.0169834
0.101309
0.360279
0.0788478
0.0840653
0.0680908
0.119982
0.140659
0.139773
0.0248173
0.0781389
0.199324
0.138033
0.0721619
0.0989028
0.0411829
0.0518029
0.0734022
0.0146034
0.0486249
0.124443
0.103114
0.134989
0.0512535
0.163829
0.0690236
0.123787
0.0864807
0.0699825
0.0307386
0.0628424
0.0262476
0.0197683
0.0567179
0.0189603
0.011146
0.0076595
0.00663371
0.00899514
0.0651549
0.0110449
0.344573
0.487391
0.0586496
0.00482466
0.00833496
0.000694445
0.00626653
0.0360085
0.0628063
0.0256634
0.0775561
0.0228394
0.037472
0.0491098
0.00780664
0.00215314
0.123842
0.200454
0.478464
0.386418
0.153459
0.0369758
0.0594124
0.000644113
0.00907652
0.00518471
0
0.266652
0.497023
0.106442
0.0261136
0.00731125
0.00429783
0.0595867
0.00399493
0.0064903
0.147477
0.313328
0.269833
0.102677
0.013199
0.0296543
0.00514328
0.0503276
0.0786719
0.340539
0.299257
0.160869
0.0655954
0.0436108
0.00607351
0.0565802
0.0241358
0.0540633
0.118825
0.168375
0.204944
0.0885301
0.0401943
0.0425145
0.0174074
0.00862959
0.0115897
0.0313183
0.0387104
0.0789245
0.0311895
0.00876889
0.0157006
0.001725
0.000652979
0.003029
0.0309997
0.0984362
0.723646
0.295883
0.0442378
0.00234079
0.0493528
0.0270687
0.0350856
0.0232032
0.0292305
0.0202811
0.0387821
0.0398334
0.0719338
0.0501178
0.00816548
0.0141126
0.0307467
0.0924778
0.234347
0.316397
0.0701335
0.0669048
0.00179309
0.00146708
0
0.00681089
0.0305887
0.303682
0.22252
0.030113
0
0.0125517
0.0137115
0.00147514
0.0645995
0.170773
0.288608
0.299101
0.0325828
0
0.0105436
0.00458862
0
0.00209696
0.0195866
0.183079
0.292473
0.0239559
0.0065915
0.00869084
0.00838675
0
0.0038913
0.017258
0.285987
0.603649
0.0449341
0.000328798
0.00354836
0.0149858
0.00394481
0.0315499
0.107797
0.138977
0.241104
0.079313
0.00215673
0.0192573
0.101961
0.0185209
0.0211147
0.0349846
0.0796974
0.359243
0.181131
0.0150971
0.00212902
0.00244087
0.000123343
0.00110007
0.00714917
0.091141
0.354966
0.140032
0.00132722
0.00275104
0.00924876
0.00155217
0
0.00625661
0.0479271
0.609468
0.357872
0.00370056
0.0260232
0.0984848
0.0310054
0.0378831
0.0380219
0.0656456
0.167762
0.106887
0.0198571
0.0353341
0.0529897
0.168699
0.0506458
0.0512424
0.0607386
0.061085
0.084746
0.118905
0.0109951
0.0300527
0.0245239
0.0017745
0.00521071
0.0435287
0.423598
0.391857
0.085294
0.0295403
0.242673
0.555919
0.0288316
0.00862274
0.007539
0.0822273
0.236831
0.146176
0.0198158
0.0514071
0.309448
0.044351
0.00850067
0.012908
0.0194807
0.0137264
0.0599328
0.00413389
0.0365967
0.46574
0.217033
0.0315741
0.0128082
0.00971433
0.000670148
0.00763381
0.00629799
0.122465
0.571505
0.0290882
0.00300212
0.000507265
0.00187631
0.0100921
0.017665
0.00118307
0.036069
0.469309
0.0755612
0.0123304
0.00987884
0.00709787
0.00159966
0.00182714
0.00133032
0.0140541
0.472426
0.6206
0.149653
0.0332775
0.0136441
0.00227617
0.000467385
0.02082
0.0126535
0.038691
0.129522
0.0740522
0.0174042
0.0200707
0.0049128
0.0100891
0.0204538
0.0142325
0.327382
0.170566
0.068417
0.0421311
0.045333
0.0140106
0.00879502
0.0437101
0.0302741
0.0316754
0.0439255
0.101379
0.0224092
0.0341926
0.0167497
0.0216317
0.0466922
0.0335909
0.0335558
0.0330437
0.0329575
0.0113084
0.0314025
0.00991862
0.024978
0.0440372
0.0360584
0.0826279
0.015355
0.0157425
0.0290895
0.0711141
0.0348295
0.0380373
0.0247288
0.063915
0.0756303
0.0207283
0.0802753
0.0500865
0.0372093
0.0303518
0.0189225
0.0182347
0.347193
0.74644
0.0457792
0.00991098
0.0840097
0.0737622
0.0366995
0.0204456
0.00570461
0.0232933
0.123129
0.0281439
0.00729972
0.00529247
0.0136893
0.0118963
0.0051927
0.00117343
0.151794
0.344043
0.143983
0.0664604
0.0289313
0.00907911
0.0124725
0.000553311
0.00416029
0.14216
0.467247
0.0623225
0
0.00595707
0.00626825
0.00206008
0.00359125
0.000900496
0.199685
0.628712
0.213166
0.0276224
0.00231968
0.00517329
0.00124903
0.00189547
0.0133143
0.254281
0.389026
0.321402
0.183073
0.0735296
0.0365413
0.0303363
0.00165571
0.0613882
0.0600452
0.153993
0.164909
0.108402
0.069914
0.0502421
0.0262609
0.0189855
0.0229006
0.20821
0.444057
0.294387
0.0750385
0.0175358
0.0334465
0.0133865
0.00553537
0.0752241
0.061958
0.115885
0.104268
0.0230853
0.0148757
0.0290068
0.0203562
0.0255831
0.0700254
0.00612032
0.00610798
0.000563024
0.0030759
0.000434254
0.00593868
0.0130486
0.195618
0.111481
0.00403472
0.00177717
0.000938373
0.0162077
0.0181255
0.0181676
0.0123599
0.212952
0.195809
0.000614224
0.000449432
0
0
0
0.000722495
0.00185068
0.534987
0.286925
0.0020654
0
0
0.00112973
0.000851035
0.000670571
0.00163663
0.644227
0.120397
0.0250943
0.00104794
0.000165471
0.0246215
0.0896713
0.092531
0.00456466
0.121355
0.06015
0.0511749
0.00733559
0
0.0203182
0.142527
0.398511
0.091806
0.079325
0.275081
0.0288188
0.00174657
0
0.00825662
0.0107033
0.00977032
0.00893336
0.505471
0.182196
0.0774884
0.012226
0
0.011518
0.018717
0.101854
0.137398
0.508447
0.00433488
0.00877706
0.00185639
0
0.00328909
0.0274242
0.202065
0.177778
0.0632577
0.000168764
0
0
0
0.0107419
0.0125354
0.263052
0.365626
0.0893595
0.0398645
0.0146284
0.00309398
0
0.00197345
0.00347823
0.0578202
0.21291
0.336546
0.0316642
0
0
0
0.00644513
0.00540802
0.0514001
0.511829
0.460543
0.0304531
0.026643
0.00822209
0.000144593
0.00381888
0.00503912
0.173714
0.259977
0.124067
0.0981723
0.21306
0.261952
0.00574354
0
0.000273512
0.0355567
0.119782
0.16558
0.0714746
0.0168493
0.000554246
0
0.00229133
0.00187472
0.0404734
0.30019
0.375432
0.187048
0.119105
0.0563712
0.00283883
0
0
0.0103389
0.0900644
0.592757
0.0457033
0.141407
0.397285
0.020264
0.0043617
0.000502104
0.00048903
0.0102233
0.0556714
0.0260804
0.0236636
0.18244
0.0256653
0.00941992
0.0110879
0.0103923
0.0177124
0.0422507
0.153053
0.0655193
0.0767454
0.00960955
0.00261702
7.17292e-005
0.000487144
0.0229186
0.525831
0.266631
0.00663301
0.0191366
0.00576573
0.0043617
0.0012068
0.00477372
0.0275718
0.561861
0.0429917
0.00615023
0.0202375
0.00755209
0.00650087
0.0106441
0.0156067
0.0138915
0.0344903
0.0757474
0.0474537
0.0122207
0.00153652
0.0140435
0.00731448
0.00676871
0.0130593
0.0311967
0.401726
0.00715082
0.000501743
0
0.000708662
0.00106776
0.00389893
0.0131182
0.36153
0.7232
0.229007
0.0379502
0
0.000453574
0.0027989
0.000888382
0.00996825
0.158053
0.0486492
0.115998
0.0583632
0.00021327
0.00839811
0.0162573
0.00127328
0.00872159
0.00677992
0.0354013
0.255274
0.379029
0.00402373
0.0020797
0.0147494
0.00328919
0.00347447
0.000819542
0.400533
0.407703
0.0934839
0
0.00115723
0.00683268
0
0.0129297
0.0528597
0.238166
0.406564
0.308846
0
0.00169657
0.0097789
0
0.0790969
0.142157
0.00765369
0.247747
0.527984
0.0536111
0.00141078
0.00610746
0.00132345
0.00260273
0.00301824
0.00138592
0.169509
0.363054
0.137077
0.0251256
0.0113085
0.00574304
0.012549
0.0174046
0.0567179
0.186696
0.275951
0.0423875
0.00506658
0.0220316
0
0.113897
0.207016
0.0321819
0.0721882
0.0982619
0.0728239
0.015099
0.0251567
0.00368013
0.123182
0.398282
0.0129005
0.060226
0.116332
0.104636
0.0475593
0.0225155
0.0267191
0.0304483
0.0247171
0.0383575
0.0275555
0.0228525
0.0308643
0.0162903
0.0300209
0.0247021
0.0319955
0.0170121
0.144976
0.02112
0.0202118
0.0228222
0.016507
0.0157328
0.0106759
0.096555
0.574586
0.191494
0.0097497
0.00351702
0.00663637
0.00698785
0.0301881
0.0283923
0.129569
0.595334
0.132518
0
0
0
0
0
0
0
0.37455
0.153222
0
0
0
0
0
0
0
0.499979
0.116475
0.00192558
0
0
0
0
0
0.00183327
0.379551
0.127367
0.00394004
0
0
0
0
0
0.00585393
0.573058
0.0955112
0.00178215
0.000144751
0
0
0
0
0.00184292
0.348132
0.105806
0.00605828
0.00101326
0
0
0
0
0.0156088
0.429426
0.103527
0.000865321
0
0
0
0
0
0.00490058
0.443964
0.187536
0
0
0
0
0
0
0.00265147
0.605155
0.0653312
0.00169889
0.000359323
0
0
0
0
0.0368937
0.34261
0.127241
0.000496667
0
0
0
0
0.0003527
0.142431
0.408942
0.1139
0
0
0
0
0
0
0.0070481
0.505861
0.197503
0.0154239
0.00149144
0
0
0.0205002
0.0409799
0.0179141
0.547477
0.16334
0.00338985
0
0
0
0
0.0012068
0.129077
0.368628
0.188238
0.012738
0.00179801
0
0
0
0.000724077
0.0620546
0.57741
0.269074
0.0595883
0.00879152
0
0.013435
0.0491063
0.0585597
0.0108552
0.270528
0.329623
0.0803641
0.0288807
0
0.0223917
0.0425229
0.0189973
0.0197165
0.315532
0.119895
0.00463394
0.00156953
0
0
0
4.83959e-005
0.0248594
0.400533
0.230152
0.000553927
0.000224219
0
0
0
0.000338771
0.00795741
0.481368
0.216902
0.0180977
0.00829126
0
0.00264531
0.00458807
0.00137375
0.0172903
0.303346
0.24346
0.00209975
0
0
0
0
0
0.0135166
0.522857
0.239092
0.00327402
0
0
0
0
0.000120948
0.00869073
0.290655
0.453393
0.0863248
0.00762622
0
0
0
0
0.0119473
0.184743
0.119905
0.00149748
0
0
0
0
0
0.0319955
0.443858
0.276513
0.0175489
0
0
0
0
0
0.0353394
0.504676
0.322581
0.133431
0.0161507
0
0
0
0
0.0112072
0.114376
0.153329
0.0820702
0.0242132
0
0.000282101
0.00159857
0
0.0903118
0.233518
0.309976
0.0147075
0
0
0
0
0
0.00931667
0.387673
0.212567
0.00287198
0
0
0
0
0
0.0504964
0.636279
0.0282884
0.0153232
0.0119442
0.00237494
0.00087959
0.00445935
0
0.0932639
0.214973
0.0490777
0.00231632
0.00228925
0.00395823
0.00128375
0.0035996
0.000262605
0.0721279
0.342975
0.121882
0
0
0
0
0
0
0.0482198
0.497335
0.171878
0
0
0
0
0
0
0.0298176
0.672406
0.0588779
0.000334154
5.54092e-005
0.000498683
0.000283175
0.000421424
0.000276745
0.0164668
0.265333
0.0845086
0.000344785
7.02141e-005
0.000130398
0
0.000890434
0.00181812
0.0223327
0.340283
0.107852
0
0
0
0
0
0
0.0100278
0.511832
0.117293
0
0
0
0
0
0
0.0586232
0.665989