0.016806
0.0539278
0.0715712
0.213343
0.127644
0.367895
0.189607
0.00196048
0.00295964
0.0422133
0.0880372
0.17139
0.213709
0.186501
0.281193
0.274839
0.107721
0.0448004
0.0333176
0.177871
0.0760526
0.0898768
0.0722483
0.189271
0.121525
0.0294264
0.0730274
0.0824501
0.0956899
0.0950541
0.0473457
0.0556723
0.238452
0.204093
0.183852
0.267447
0.0265544
0.0779361
0.123981
0.192066
0.0728978
0.0718043
0.152207
0.20586
0.173458
0.0738359
0.0461034
0.0309826
0.121668
0.0427663
0.0508994
0.0536551
0.193386
0.27347
0.0303041
0.0805818
0.129326
0.0398332
0.0447325
0.155407
0.11112
0.268119
0.338541
0.0788298
0.156978
0.150683
0.0304751
0.0573466
0.147648
0.0363152
0.287251
0.380339
0.0586676
0.051658
0.0217479
0.0587898
0.205002
0.0459078
0.00655837
0.035
0.0615808
0.0184748
0.0469358
0.0191737
0.081097
0.698797
0.205325
0.0242396
0.00253768
0.0039717
0.0747186
0.149396
0.0503194
0.0428401
0.0865585
0.0569068
0.0207442
0.106614
0.132796
0.0731047
0.222129
0.0989337
0.103068
0.296322
0.204675
0.0734974
0.0265708
0.0251211
0
0.00265735
0.00116708
0.0274234
0.357435
0.157891
0.0973302
0.0316264
0.000881791
0.000385835
0
0
0.0468444
0.344049
0.17748
0.236963
0.207125
0.0870014
0.0601221
0.109601
0.020689
0.0171378
0.0995339
0.134624
0.16687
0.108802
0.0164148
0.0897659
0.186405
0.0270909
0
0.0411093
0.085967
0.252903
0.454409
0.304569
0.00172817
0.000375385
0.0153492
0.0264192
0.0795369
0.0426483
0.0639019
0.131924
0.173295
0.0765948
0.0365947
0.0590141
0.0125631
0.0122289
0.010852
0.00686471
0.0748099
0.305333
0.0677713
0.0834942
0.0100121
6.07076e-005
0.00656513
0.0115633
0.0448769
0.187099
0.479891
0.281193
0.0485365
0.00638672
0.000277801
0.000492234
0.00143937
0.00275851
0.0723219
0.633413
0.128001
0.126264
0.115658
0.0746843
0.0599003
0.00403486
0
0.0114979
0.128887
0.0686964
0.121266
0.208876
0.234741
0.248208
0.047183
0.00410465
0
0.0394368
0.447922
0.194874
0.076047
0.0196889
0.00607003
0.000458124
0.00102523
0.0332177
0.39002
0.266554
0.326562
0.254226
0.0913667
0.0512891
0.080084
0.0431908
0.073417
0.105087
0.0222547
0.0172019
0.0596963
0.114383
0.322592
0.11375
0.0101187
0
0.0272355
0.0171112
0.00735888
0.0233522
0.145833
0.628619
0.160778
0.0961776
0.0149728
0.0208111
0.106716
0.105472
0.096386
0.0886608
0.093858
0.197596
0.0813668
0.0418231
0.0493667
0.121052
0.0921481
0.0581706
0.221098
0.30451
0.213424
0.176336
0.0613523
0.0228752
0.0251426
0.00114834
0.00364406
0.0890879
0.369732
0.0978871
0.113419
0.039521
0.0562303
0.0155332
0
0.000619531
0.228166
0.480882
0.139181
0.168245
0.0824517
0.037148
0.049008
0.0213438
0.0131318
0.0987522
0.193121
0.0917343
0.183516
0.151409
0.0963131
0.0717123
0.000954902
0.0157152
0.0481927
0.206545
0.175584
0.291488
0.334638
0.121048
0.000144135
0
0.00037152
0.0830243
0.197285
0.153007
0.134221
0.0350945
0.000432404
0
0
5.30743e-005
0.0143221
0.533225
0.172725
0.064089
0.00487786
0
0.0115461
0
0.00942407
0.024559
0.293272
0.205696
0.170303
0.134855
0.00992387
0
0
0.0013463
0.0196716
0.568038
0.179554
0.0705453
0.0180892
0
0.00408358
0.0395307
0.0474889
0.0506143
0.15107
0.0412301
0.0338254
0.0248227
0.0342435
0.0196475
0.0327918
0.0611395
0.071798
0.13866
0.157771
0.0180158
0.0563396
0.105589
0.000303486
0.00424735
0.0264121
0.118393
0.513807
0.0829053
0.0253119
0.0156433
0.0114508
0.0021244
0.00418205
0.0320921
0.16893
0.674669
0.228395
0.0131333
0.0422039
0.0592895
0.0149082
0.0623511
0.0894888
0.0872787
0.0711466
0.158579
0.00906431
0.0364334
0.0606619
0.0653212
0.126023
0.13901
0.0521027
0.0359571
0.0437644
0.00612779
0.0393243
0.070946
0.009147
0.0516997
0.0729543
0.219571
0.533165
0.204586
0.00666347
0.0164721
0.024075
0.0773705
0.282928
0.523034
0.157144
0.219197
0.0535196
0.00107735
0.0051042
0.0420567
0.0265628
0.0927995
0.0664977
0.0169069
0.0171934
0.00951787
0.00685297
0.0228332
0.0546875
0.0541739
0.23896
0.10921
0.0583969
0.0328236
0.0175778
0.0098104
0.00712682
0.018884
0.0438204
0.296654
0.482392
0.0588855
0.00944578
0.00336161
0.000914095
0.00414586
0.0377885
0.180026
0.583103
0.378798
0.058957
0.0116157
0.00115415
0.000548457
0.00101014
0.0120883
0.0889712
0.249616
0.0744128
0.0174638
0.00695528
0.0111183
0.020621
0.0205035
0.00882092
0.196051
0.347673
0.0466969
0
0.000181034
0.00179684
0.0195498
0.0677711
0.078445
0.182229
0.502094
0.2125
0.00930151
0.0015752
0.000156515
0.00109775
0.002011
0.00774923
0.373755
0.447763
0.109874
0
0
0
0.00997178
0.0250962
0.0983268
0.224434
0.212915
0.0106872
0
0
0
0.0022321
0.0369554
0.191201
0.258003
0.0613636
0.000393293
0
0
0
0
0.0604848
0.488909
0.37026
0.192312
0.00710437
0
0
0
0.00703625
0.0283812
0.159763
0.253808
0.0588726
0.000193595
0
0
0
0.00920112
0.0889775
0.462759
0.217718
0.0463011
0.00691258
0
0.0039065
0.000434056
0.00813608
0.0950134
0.347428
0.140089
0.094623
0.0351906
0.018171
0.0293645
0.0213754
0.110995
0.258274
0.155765
0.127622
0.0168791
0.000534883
0
0.000558072
6.20079e-005
0.0174091
0.111
0.492393
0.0953335
0.0109764
0.00374418
0.00259585
0.00419493
0.0196878
0.256212
0.381606
0.35648
0.0564149
0.0446724
0.0208437
0.0358395
0.0138581
0.0437485
0.123715
0.205717
0.0293893
0.0930693
0.085264
0.0453513
0.0982912
0.0356041
0.0559322
0.117038
0.173792
0.0141525
0.0123423
0.00366851
0.00502123
0.00739665
0.00146313
0.0514681
0.348188
0.409953
0.0789064
0.0386401
0.0489905
0.0432846
0.0133475
0.0014701
0.132837
0.510819
0.458625
0.0621868
0.115709
0.0687964
0.0463035
0.0496651
0.0321516
0.0420872
0.0650055
0.11942
0.0750612
0.180849
0.0820931
0.142887
0.0364697
0.0547693
0.0638905
0.0726586
0.191196
0.158603
0.148349
0.0861513
0.163385
0.0744073
0.00763806
0.096675
0.281914
0.177342
0.0957749
0.208952
0.210795
0.586252
0.287813
0.0683635
0.0407293
0.0502185
0.0476891
0.147287
0.0271624
0.0336109
0.102716
0.0872905
0.241914
0.0805916
0.0313496
0.0610062
0.0190729
0.0010108
0.00465736
0.0466417
0.106073
0.539884
0.0632328
0.0118489
0.00778389
0
0.0291709
0.0843301
0.322931
0.209954
0.157416
0.0205013
0.0154638
0.00693761
0.0174863
0.00168467
0.0110378
0.149421
0.226034
0.539884
0.0186951
0.00220912
0.000634653
0
0.00236745
0.00564543
0.00391526
0.0710209
0.429489
0.0500222
0.00685186
0.000644586
0.00263471
0.0165722
0.039518
0.0189745
0.176731
0.546346
0.0746029
0.0125166
0.0045121
0.018443
0.0227978
0.0418261
0.0111431
0.091313
0.373678
0.0445617
0.0274594
0.000142474
0.0258397
0.134317
0.253347
0.149491
0.195082
0.316826
0.0560257
0.046399
0.000997318
0.049905
0.00452531
0.0277122
0.0732438
0.147874
0.260005
0.032824
0.00201299
0.00110591
0.00454474
0.00474425
0.239288
0.386951
0.115906
0.108352
0.0204546
0
0
0.00167051
0.0403636
0.0761261
0.289325
0.235395
0.101622
0.0114546
0.00431241
0.000244441
0.00589041
0.00215974
0.173443
0.521195
0.398051
0.0442442
0.00602516
0
0
0
0.00921151
0.249809
0.456781
0.0715147
0.00165706
0.00243083
0
0
0.00173657
0.0626893
0.317518
0.353153
0.0322058
0.000192485
0
0
0
0.000238107
0.00024112
0.179239
0.472656
0.224851
0.000186987
0.000347261
0
0.00101751
0.00114037
0.00168784
0.158436
0.323755
0.0600252
0.00134739
0
0
0.00417381
0.00437858
0.11411
0.470966
0.327938
0.00317387
0.000954303
0
0.00214645
0.00515635
0.0115948
0.205478
0.302873
0.155125
0.00240282
0.000526998
0
0.0194979
0.0511112
0.083513
0.00199186
0.192147
0.246871
0.0289128
0.00668012
0
0.000306635
0.00446425
0.00754995
0.109913
0.493934
0.205372
0.0194987
0.00368899
0
0.00278541
0.00877716
0.00906909
0.172611
0.0934962
0.0129719
0.000223105
0
0
0.00920032
0.0299529
0.0808129
0.180844
0.0563344
0.00240462
0
0
0
0.0141927
0.0314869
0.236437
0.312951
0.366349
0.0578817
0.00156173
0
0
0.00131433
0.00424355
0.0304277
0.590587
0.157308
0.0137066
0
0
0
0.00359081
0.00440168
0.41818
0.0814881
0.0194211
0.00149915
0
0
0
0.0131677
0.0256227
0.222066
0.0617911
0.0103257
0.0104941
0
0
0.0122875
0.139442
0.132416
0.216023
0.227333
0.00853323
0.00089949
0
0
0
0.0053267
0.00949364
0.500152
0.179269
0.00232167
0.00629643
0
0
0.00345866
0.0261879
0.0322993
0.671881
0.00672596
0.000559357
0.00384842
0.000555327
0
0.0348632
0.2331
0.211583
0.070373
0.00804718
0.00476486
0.0115139
0.00388729
0
0.165031
0.449005
0.386026
0.0587932
0.102443
0.000335614
0.00665294
0.00388729
0
0.0136532
0.0631846
0.0879289
0.362742
0.0548072
0
0.0332579
0.027211
0.00929538
0.140065
0.329354
0.273348
0.30361
0.0302619
0.0119747
0.0725767
0.0560408
0.00797063
0.108719
0.251842
0.23899
0.0762826
0.0337271
0.0511429
0.222569
0.209428
0.0663518
0.0939826
0.141398
0.142333
0.0939019
0.0108597
0.0099799
0.0306029
0.0223828
0.0272366
0.138382
0.323378
0.374375
0.108307
0.0248275
0.0698593
0.0472618
0.0526066
0.165356
0.23404
0.286589
0.406514
0.0994119
0.00499409
0.0246305
0.122871
0.117814
0.134002
0.0864909
0.0928962
0.0403816
0.0144555
0.000249956
0.00273372
0.048942
0.0961396
0.518798
0.051046
0.0238428
0.00529478
0
0.00617132
0.018514
0.0168672
0.0405315
0.341267
0.262324
0.172204
0.132704
0.0206357
0
0
0.00202546
0.0456113
0.57059
0.168403
0.0512981
0.0177622
0
0.0258858
0.0530328
0.0193019
0.0794586
0.170397
0.0266171
0.0166492
0.00120048
0.030648
0.142482
0.219255
0.17038
0.229896
0.107164
0.0253559
0.0198734
0
0.0485221
0.0350818
0.0335547
0.0345582
0.0849067
0.216914
0.0549414
0.0151036
0.0020008
0.00671685
0.0384954
0.0554187
0.11257
0.715918
0.358644
0.0231907
0
0
0.00693174
0.0308731
0.0505306
0.232093
0.192563
0.0237266
0.00283458
0.00126463
0
0.00308767
0.00225895
0.0784098
0.433703
0.280168
0.0244845
0.00225172
0
0
0.00180786
0.00727133
0.0210674
0.128926
0.446317
0.223853
0.00865084
0
0
0.000441096
0.00435608
0.0588391
0.259398
0.35176
0.352941
0.0177107
0
0.00138375
0.0214304
0.00410394
0.143005
0.553391
0.364734
0.0282196
0.000668241
0.000469665
0.00411199
0.0124332
0.00498258
0.073975
0.231622
0.128312
0.0166089
0
0.000782775
0.0118842
0.0183236
0.0215424
0.0834576
0.281584
0.26789
0.259165
0.010325
0.00328765
0.00651916
0.0836774
0.0187828
0.0348834
0.199346
0.289035
0.122386
0.000178911
0.00547942
0.00589754
0.048648
0.000360576
0.0315243
0.172181
0.023573
0.00216431
0
5.20028e-005
0.00154327
0.00192479
0.0923247
0.30386
0.328046
0.0144219
0.000628687
0
0
0
0
0.00137104
0.0187843
0.452099
0.194811
0.042785
0
0.00036402
0.00046406
0.00254199
0.0495536
0.292301
0.591559
0.139023
0.0115314
0
0
0
0
0.225826
0.236254
0.0802958
0.00161791
0
0
0
0
0.0119568
0.386777
0.0848534
0.00639125
0
0
0
0
0
0.211794
0.196052
0.339742
0.304349
0.0287798
0.00113907
0
0
0
0.0169587
0.474798
0.205559
0.0577182
0.0154545
0
0
0
0
0.345136
0.154919
0.00199304
0
0
0
0
0
0.00293674
0.306518
0.155587
0
0
0
0
0
6.35508e-005
0.00587134
0.457545
0.235257
0.0137706
0.000290968
0.00164882
0
0
0
0.000419534
0.488818
0.258332
0
0
0
0
0
0
0.000699224
0.488818
0.164161
0
0.00308996
0.00225739
0
0.000947736
0.0124765
0.0382695
0.376947
0.0945281
0.000196959
0.0216297
0.0366228
0.0530375
0.0285304
0.165617
0.115908
0.305385
0.253913
0.0120911
0.0125091
0.00833942
0
0
0.0169598
0.0468692
0.515485
0.21372
0.0905075
0.129893
0.207021
0.0869003
0.0234539
0.150077
0.096398
0.378654
0.0145607
0.00434837
0.0131332
0.0468193
0.127151
0.0854244
0.210906
0.157644
0.0890724
0.00940152
0.0557401
0.0743857
0.0808571
0.250914
0.226541
0.140102
0.146073
0.0116355
0.070715
0.0586781
0.120011
0.273657
0.333018
0.10823
0.12494
0.0372446
0.0581977
0.00781897
0.0846531
0.193893
0.277058
0.508527
0.1978
0.0493312
0.00902558
0
0.00184546
0.0239491
0.0416257
0.105551
0.321121
0.111211
0.0501794
0.0321153
0.00227013
0
0.00263038
0.00566246
0.0882481
0.50722
0.054667
0.0117655
0.00417142
0
0
0.0486515
0.0880331
0.30453
0.35538
0.0344943
0.00993232
0.000329559
0
0
0.00695022
0.0105877
0.247581
0.50722
0.00434184
0.000497028
0
0
0.0699667
0.0128995
0.00820886
0.0232763
0.104858
0.0999837
0.0376272
0.00899834
0.0246305
0.00314908
0.000349897
0.00888806
0.320674
0.41105
0.0800323
0.0105792
0.000965636
0
0.0639756
0.0127943
0.000559083
0.00595031
0.0693352
0.311379
0.141535
0.0667829
0.0589261
0.00279391
0.0013154
0
0.0907623
0.598442
0.352815
0.0888458
0.0327081
0.00640106
0
0.0011416
0.00770137
0.25181
0.324379
0.0190236
0.000434591
0
0
0.00337858
0.00616185
0.0261242
0.201542
0.425351
0.0271819
0.00403135
0.00126244
0.0137179
0
0
0.0033464
0.0926819
0.449824
0.183935
0.0066604
0.0032564
0.00139655
0.00139004
0.00502847
0.0310223
0.203227
0.449824
0.259662
0.0797304
0.000180348
0.00241201
0.0429973
0.0313804
0.0408471
0.0871682
0.19779
0.0254744
0.00811802
0.00328174
0.0867175
0.078572
0.0699764
0.0963403
0.211019
0.106265
0.00304538
0.00229955
0.00614885
0.166194
0.0785318
0.0789535
0.0851817
0.194298
0.391367
0.268596
0.134614
0.00614619
0.100788
0.280316
0.183354
0.162338
0.256537
0.199729
0.0952303
0.0301654
0.0407625
0.455647
0.0142531
0.0186294
0.201425
0.291305
0.0882888
0
0.000114586
0.00140465
0.0279866
0.00131164
0.0814502
0.444128
0.323584
0.0867068
0
0
0
0
0.101158
0.0584462
0.106439
0.330921
0.102369
0.0094892
0.00462966
0.0101725
0.118344
0.0192066
0.0699454
0.14674
0.465248
0.305153
0.0470393
0.0137961
0.0245646
0.0462548
0.0843713
0.219512
0.367268
0.190728
0.0337767
0
0.00412112
0.00745525
0.041519
0.31464
0.191282
0.115742
0.082577
0.00212214
0.0141911
0.0367087
0.0521868
0.32761
0.101886
0.214726
0.173526
0.286128
0.189542
0.0387682
0.0398759
0.0594889
0.11771
0.17915
0.154205
0.067894
0.142265
0.157993
0.181779
0.197156
0.127306
0.164887
0.215962
0.0292487
0.00166342
0.00747796
0.00225026
0.0161155
0.0201849
0.0215598
0.521846
0.280283
0.00309009
0.000572967
0
0.00162387
0.00331728
0.0014731
0.00175855
0.638686
0.0639767
0.0180378
0.00359563
0.0389166
0.139585
0.145267
0.0913528
0.0455233
0.13394
0.0816129
0.00876612
0.00799336
0.00500283
0.0394561
0.0299454
0.00817297
0.00855831
0.212885
0.24917
0.020121
0.00759305
0.00487755
0.000849074
0.000655268
0.00392998
0.0166464
0.677218
0.313677
0.163829
0.130758
0.137665
0.0494259
0.014828
0.0255842
0.0268342
0.39433
0.0733407
0.00711857
0.00447537
0.00319776
0.00664709
0.00841149
0.00780473
0.0157336
0.204231
0.124541
0.0479163
0.0389725
0.0308714
0.0705648
0.00510706
0.0066717
0.0204686
0.133337
0.0662214
0.0586027
0.0766093
0.100828
0.223609
0.0751479
0.00757113
0.00275311
0.0229225
0.00232641
0.0291175
0.108313
0.197457
0.424663
0.136361
0.00313036
0
0
0.0293402
0.0220493
0.0365957
0.162764
0.244018
0.0565498
0.000503711
0.00207804
0.00990343
0
0.00883902
0.128986
0.449618
0.528888
0.153601
0
0
0
0
0.0197409
0.0681809
0.264505
0.238018
0.029585
0.000891337
0
0
0
0.00282013
0.00898387
0.278939
0.450259
0.0132058
0
0
0
0
0.0052027
0.0701237
0.259335
0.338741
0.0752213
0
0
0
0
0.000743243
0.00812214
0.321507
0.480905
0.108853
0
0
0
0.0229222
0.0189257
0.0210893
0.0392392
0.027752
0.146389
0.135816
0.126054
0.0201137
0.00555262
0.00246683
0.00225678
0.00445925
0.208018
0.284361
0.215574
0.139721
0.0188659
0.0659916
0.0404925
0.112098
0.117002
0.0535178
0.0592316
0.151275
0.206629
0.0340407
0.0259511
0.00811985
0.0316872
0.0145853
0.0524275
0.393625
0.52893
0.388127
0.0451493
0
0
0.00109944
0.00724328
0.229852
0.251821
0.0715373
0.0197427
0.00511864
0
0.000603347
0.00860111
0.0422105
0.265761
0.349701
0.180985
0.0364275
0.0254742
0
0
0
0.000213942
0.0628667
0.361118
0.287847
0.126741
0.0234873
0
0
0
0.0014976
0.102395
0.395965
0.41553
0.174141
0.0586851
0.01228
0.0135196
0.026174
0.0497886
0.244329
0.251089
0.179234
0.0413523
0.0473116
0.0960483
0.039054
0.0534218
0.0620337
0.145156
0.121646
0.188767
0.0749025
0.138449
0.000417428
0
0.00278624
0.00348075
0.129117
0.28212
0.460171
0.152309
0.0586928
0.0201486
0.00412736
0.00931322
0.00571757
0.0788256
0.173701
0.491177
0.248367
0.0298153
0.118188
0.0502031
0.0786909
0.133756
0.0418134
0.0392952
0.108774
0.0368513
0.113722
0.0573641
0.0799335
0.0863979
0.192816
0.186921
0.117471
0.0622614
0.03493
0.0990799
0.0977844
0.0515346
0.049041
0.0213432
0.00920264
0.122614
0.607247
0.152907
0.0294415
0.135991
0.216229
0.462944
0.111624
0.0241197
0.106204
0.146435
0.0342796
0.0404382
0.0668735
0.166634
0.0911384
0.0795036
0.10684
0.0519756
0.0447404
0.0424986
0.0895333
0.0575001
0.144348
0.165485
0.18802
0.195901
0.125362
0.0729941
0.0404659
0.0376679
0.0538674
0.283638
0.499942
0.0648939
0.0287337
0.027067
0.0221539
0.005746
0.0309018
0.0222062
0.321433
0.497302
0.157939
0.0837013
0.0215155
0.0087133
0.0106416
0.0192301
0.0211765
0.0466541
0.165966
0.357088
0.488627
0.286514
0.0961505
0.0354338
0.0192695
0.0120722
0.0203898
0.0201522
0.0369864
0.11853
0.0714282
0.0327742
0.0133529
0.0221284
0.00368295
0.194358
0.375991
0.339962
0.19286
0.0758901
0.0129654
0.0352013
0.0349059
0.0166799
0.0407992
0.026432
0.0493143
0.0555311
0.0447474
0.0307518
0.022221
0.0295655
0.0120196
0.00859934
0.0109473
0.00741426
0.00847863
0.0120236
0.0253876
0.0125168
0.0171242
0.0181274
0.00785223
0.129211
0.139292
0.0947956
0.00463453
0.0219975
0.0120582
0.0164915
0.0161602
0.0910128
0.0913879
0.00767067
0.008828
0.00282028
0.0178012
0.00986973
0.0175008
0.00953873
0.219643
0.833966
0.267656
0.040483
0.000589463
0.0139011
0.0050741
0.00719586
0.00189036
0.00261516
0.0769126
0.272045
0.110494
0.00538891
0.000714712
0.000490012
0.00134529
0
0.0102811
0.149407
0.518931
0.244082
0.0499306
0.00587472
0.00579687
0.00548767
0.000557207
0.0658328
0.325666
0.324606
0.0652038
0
0.000443622
0.000147874
0.000557207
0
0.15294
0.209214
0.410115
0.174237
0.0754607
0.0437384
0.0697613
0.0384137
0
0.0037505
0.0769142
0.225516
0.220598
0.0974636
0.0360374
0.00634473
0.00550205
0
0
0.00742913
0.138337
0.355167
0.288923
0.0656757
0.00511513
0.000786007
0
0.0481048
0.0518295
0.109212
0.0994895
0.223456
0.250755
0.0757884
0.0385143
0
0
0.00387695
0.0343577
0.0940214
0.419266
0.504201
0.0938101
0.0217549
0.048903
0.035055
0.0942508
0.0719847
0.0627205
0.0346912
0.0715309
0.0660156
0.0626099
0.0413495
0.0189606
0.0582697
0.0299994
0.006184
0.196682
0.380556
0.202426
0.0695825
0.181084
0.13154
0.177997
0.0662014
0.088227
0.0266533
0.0485546
0.0901011
0.335744
0.3861
0.160844
0.111916
0.0461611
0.00558986
0.0600108
0.200101
0.167032
0.448326
0.0308581
0.0101413
0.0201216
0.0133071
0.00614211
0.214008
0.288047
0.18481
0.0425932
0.0377459
0.00144876
0.0107968
0.0103964
0.0361402
0.242151
0.419458
0.244681
0.0599766
0.196199
0.136797
0.128526
0.0776381
0.000691286
0.0758936
0.187515
0.116008
0.0960136
0.101342
0.0471554
0.0874534
0.0605502
0.004839
0.1259
0.454254
0.310947
0.0400021
0.00451533
0
0.00065348
0.00101537
0.0149939
0.126024
0.353391
0.109764
0.0171905
0.000656604
0.000115871
0
0
0.00282554
0.0896024
0.429357
0.177348
0.00498075
0.0100699
0.000850429
0.00457436
0.00313239
0.00163217
0.0609404
0.429357
0.247405
0.00812454
0
0
0
0
9.77608e-005
0.0259808
0.429357
0.381749
0.00891427
0.109572
0.0392402
0.0261893
0.00578928
0.00082831
0.0867559
0.389721
0.189849
0.0277541
0.181163
0.279444
0.383625
0.0334334
0.00473547
0.0227621
0.0852579
0.0710895
0.0277456
0.0802484
0.0206758
0.010074
0.0213759
0.0031722
0.0264353
0.237691
0.435721
0.0909795
0.144962
0.184353
0.148844
0.0524292
0.0220536
0.00453514
0.0356804
0.281958
0.192902
0.0476305
0.355362
0.614967
0.0287035
0.0025717
0.00314426
0.001451
0.00253016
0.00870802
0.0237859
0.215005
0.370351
0.0390745
0.0168018
0.000784474
0.0105984
0.0239424
0.0353317
0.102421
0.195914
0.203047
0.0188235
0.0119767
0
0.00435276
0.112161
0.183437
0.203496
0.0751311
0.07308
0.005966
0.00250175
0
0.031205
0.0432112
0.200418
0.0375762
0.0484137
0.064735
0.0334714
0.0235646
0.00449986
0.00662235
0.0270689
0.0313569
0.0767516
0.112722
0.0307446
0.012766
0.0123756
0.00453318
0.00262206
0.0115885
0.0324777
0.283212
0.145287
0.00954772
0.00575414
0.00348553
0
0.0155787
0.0297257
0.103586
0.260119
0.798296
0.245164
0.0050372
0.00177541
0
0.00013707
0.00581239
0.032027
0.0209946
0.145641
0.0780612
0.00121202
0.00168034
0.000179908
0.000577302
0.00137797
0.00852078
0.0346622
0.280202
0.306404
0.035872
0.00122154
0
0.000437289
0.000208374
0.00932735
0.0386772
0.417734
0.322505
0.0152538
0.000215119
0
0
0.000463779
0.0127417
0.113166
0.517099
0.421753
0.0435
0.0060536
0.0025944
0.00970953
0.00242738
0.0703283
0.0179615
0.184182
0.433977
0.15431
0.0209733
0
7.06229e-005
2.3541e-005
0.00479718
0.023549
0.193677
0.286625
0.149578
0.0693303
0.0647737
0.0247881
0.0657017
0.0303388
0.0978305
0.299584
0.403473
0.113997
0.0360173
0.0275835
0.014895
0.0084965
0.0478127
0.103878
0.260565
0.372231
0.103136
0.0465682
0.0533739
0.0229494
0.074536
0.0957281
0.0218373
0.0569846
0.0378053
0.0182196
0.0384452
0.195409
0.181703
0.101661
0.0508517
0.029793
0.00952744
0
0.000800986
0.0132242
0.211763
0.431903
0.202087
0.251657
0.0902859
0.0919055
0.0504298
0.0104417
0.0178316
0.0668037
0.128896
0.184003
0.133594
0.109501
0.0565785
0.00851696
0.00744901
0.019423
0.099856
0.264092
0.310478
0.477999
0.126025
0.167551
0.162991
0.0228966
0.0148634
0.00251475
0.0074632
0.060063
0.271306
0.265083
0.101922
0.0411852
0.00847595
0.000590088
0.00373177
0.010123
0.0910836
0.462558
0.0922666
0.0963556
0.0625711
0.00211265
0.000704215
0
0.000681783
0.0366336
0.476246
0.140675
0.0239043
0.00715874
0
0
0
0
0.0500786
0.476246
0.244597
0.116665
0.0693998
0.0332721
0
0.0108371
0.0291421
0.0429395
0.263603
0.12816
0.0715619
0.0602273
0.0349925
0
0.0467986
0.239728
0.228693
0.108317
0.145655
0.0181838
0.00341523
0
0
0
0.00258975
0.0799254
0.526857
0.132519
0.03935
0.0225536
0.0172509
0.00699332
0.0430458
0.0894078
0.18396
0.52638
0.0187524
0.00823472
0.0147737
0.00984913
0
0.0597139
0.404357
0.250568
0.0201135
0.000275397
0.00232842
0.00462403
0.00118545
0
0.0314398
0.471821
0.385154
0.00977368
0.0366428
0.0113459
0.0207454
0.0258361
0.05409
0.120472
0.234987
0.112063
0.119907
0.00192778
0.0038807
0.00770671
0.0208031
0.151522
0.100586
0.405071
0.216874
0.01038
0.0155457
0.00989422
0.0104228
0.00856742
0.00126272
0.00202742
0.162249
0.415517
0.124926
0.0510486
0.0210985
0.0151815
0.0210136
0.00883906
0.000453622
0.0180924
0.44021
0.403556
0.0162308
0.0136272
0.0166555
0.0188053
0.124442
0.0182582
0.209225
0.243831
0.0813567
0.0703223
0.00932675
0.00999331
0.010319
0.05333
0.0292735
0.061133
0.275907
0.387128
0.0984566
0.0132263
0.00899019
0.00441157
0.00292797
0
0.00151352
0.15425
0.346845
0.211587
0.0139221
0.00289963
0
0
0.000336495
0.0139399
0.0277749
0.426841
0.102218
0.0028158
0
0.000833944
0.00405307
0.0115924
0.0161305
0.138104
0.444469
0.14237
0.00935319
0.00445373
0.00743505
0.0266949
0.0531252
0.112046
0.110073
0.535548
0.2122
0.129977
0.0232322
0.00246039
0.000273376
0.000410902
0.0116613
0.0158865
0.201815
0.110404
0.542232
0.2194
0.0449945
0.0429796
0.0124918
0.00181511
0.0132964
0.0306198
0.141768
0.0873193
0.0461803
0.0646892
0.0432418
0.0845039
0.0873278
0.0938821
0.234041
0.0687312
0.254295
0.174288
0.367962
0.330561
0.0758397
0.012625
0.0915395
0.0374111
0.0102921
0.320499
0.332855
0.0817401
0.0380861
0.0103855
0.000866985
0.0026621
0.00358872
0.0603947
0.267082
0.34728
0.0788138
0.0699767
0.0305474
0.0350824
0.0156759
0.0355115
0.0006392
0.122199
0.170985
0.334315
0.333727
0.0262751
0.00185995
0.0123212
0
0.00604042
0.0831228
0.164112
0.217236
0.397912
0.0599048
0.0269419
0.0182443
0.0015101
0.0688949
0.129285
0.167312
0.0828873
0.141035
0.128037
0.0438548
0.0568079
0.0480251
0.0559832
0.128803
0.136304
0.071195
0.0854608
0.129553
0.0369747
0.215177
0.248641
0.0363326
0.0253569
0.0440696
0.109328
0.445161
0.16271
0.0382157
0.0787919
0.060132
0.0698301
0.0268223
0.017584
0.153874
0.330123
0.149518
0.0584035
0.293658
0.39004
0.0540244
0.0585942
0.0367399
0.0215109
0.0371015
0.0605713
0.166755
0.198349
0.236019
0.0715708
0.0966404
0.108463
0.0707124
0.0550687
0.129794
0.275233
0.193903
0.168481
0.0506919
0.0233808
0.0455604
0.143619
0.308775
0.138052
0.114164
0.180086
0.242578
0.0837136
0.144353
0.211063
0.212866
0.242959
0.372637
0.172961
0.051342
0.0485133
0.0606989
0.00953964
0
0.00132721
0.00438626
0.00556085
0.00137316
0.0545752
0.514233
0.0612703
0.00114837
0
0.000189601
0.00202503
0.00659836
0.00753492
0.143897
0.63958
0.226013
0.00225165
0
0.00221201
0.00731043
0.00926808
0.00228859
0.0282437
0.21784
0.270693
0.00803858
0
0.000316001
0.00337505
0.0109973
0.0125582
0.0911979
0.225295
0.0374019
0.0046727
0.00299433
0.00139159
0.000927728
0.00584875
0.0275795
0.226037
0.547825
0.0375769
0.00875507
0.00956945
0.0307704
0.0733079
0.139497
0.152008
0.308971
0.402525
0.189119
0.0465568
0.0362421
0.00974115
0.0064941
0.00974792
0.036691
0.137889
0.123053
0.084501
0.059961
0.150392
0.227857
0.230199
0.152054
0.116026
0.135503
0.0402287
0.0129888
0.00209021
0.00464856
0.0433059
0.197196
0.145159
0.100069
0.0814808
0.0755608
0.00102328
0.000757799
0.00150492
0.0372483
0.432485
0.117962
0.113186
0.0390973
0.00306984
0.00464123
0.00788303
0.046506
0.195239
0.372291
0.138462
0.0393623
0.0228401
0.00372972
0
0
0.00107242
0.0679043
0.631888
0.177713
0.0017559
0.000512573
0
0.00366236
0.00285496
0.0034894
0.0291113
0.390763
0.0884149
0.0922149
0.044751
0.00786838
0.0433201
0.00655391
0.00209364
0.0184303
0.215219
0.102685
0.0463692
0.0398116
0.0905211
0
0
0
0.0266392
0.632283
0.168531
6.44437e-005
0
0
0.00460681
0.00290456
0
0.0388427
0.484163
0.111059
0.00801788
0
0.0014089
0.0669484
0.0146565
0
0.00575274
0.0598683
0.0559172
0.0363534
0.0575759
0.177611
0.0404468
0.0135349
0.00891038
0.073432
0.276449
0.154823
0.149207
0.103857
0.184961
0.00775726
0.00879388
0
0.0540175
0.231837
0.0528551
0.0147311
0.00945027
0.00607859
0.00300742
0.00527633
0.00596645
0.297524
0.732284
0.0742027
0.0205183
0.0157504
0.00613167
0.015431
0.00953011
0.0158401
0.114959
0.157559
0.0792966
0.0391395
0.0308
0.0241654
0.00909491
0.0121245
0.0204936
0.285284
0.456345
0.0537547
0.00384421
0.0278731
0.00346309
0
0
0.00856068
0.229815
0.358665
0.0223382
0.00299223
0.00112513
0.000297739
0
0
0.00513641
0.276448
0.579687
0.0799567
0
0
0
0.000140382
0.00476072
0.0132883
0.191277
0.456287
0.0436956
0.000356075
0.00383387
0.000327558
0.000982675
0.00630114
0.0182915
0.112927
0.393234
0.0774432
0.00842491
0.00175892
0.00229291
0.0110906
0.00535646
0.00198922
0.14003
0.545213
0.178183
0
0
0.00744923
0.0776342
0.0118925
0.0250937
0.0687722
0.343569
0.209818
0.0182352
0.00263488
0.0521446
0.0327411
0.00859618
0.0141156
0.053383
0.343466
0.0953006
0.0552122
0.0350975
0.0371025
0.0683105
0.0455504
0.00696606
0.0856106
0.214894
0.0750947
0.132792
0.112922
0.194604
0.146711
0.00766763
0.0817308
0.0784735
0.224935
0.144408
0.0734137
0.0398148
0.10934
0.289411
0.0273302
0.0706035
0.0616414
0.0914543
0.0484648
0.109547
0.0703074
0.642772
0.048433
0.0261476
0.0116819
0.0650065
0.150352
0.0652848
0.109629
0.0611551
0.119713
0.09199
0.105788
0.0584296
0.0536873
0.111486
0.217827
0.106061
0.024453
0.0954562
0.128225
0.0202828
0.00607309
0.0160637
0.0338472
0.0201052
0.0889072
0.0411855
0.576003
0.176223
0.182966
0.0353768
0.00229481
0.0268929
0.0661212
0.0591847
0.0494867
0.57266