0.19661
0.0742068
0.0869882
0.217875
0.163624
0.0518644
0.0745573
0.0216064
0.0656635
0.0163434
0.0251589
0.103447
0.305859
0.206295
0.0588685
0.0239234
0.018966
0.0232614
0.134392
0.207086
0.213079
0.29417
0.195308
0.0188132
0.0355174
0.00155094
0.0157328
0.0463531
0.102849
0.249269
0.422759
0.133953
0.0297506
0.0166854
0.0109064
0.000779098
0.0225304
0.0619908
0.0944674
0.223309
0.145725
0.0323257
0.0528755
0.0530169
0.0225304
0.0874759
0.0648311
0.170701
0.132078
0.154842
0.0057575
0.0406064
0.0504137
0.0874759
0.0672643
0.0471331
0.318894
0.297358
0.101211
0.0457129
0.0653051
0.0497895
0.0101549
0.261152
0.149464
0.294735
0.209841
0.0926918
0.0702567
0.087027
0.127516
0.185304
0.0219906
0.0169043
0.0711241
0.0248996
0.0221332
0.00661871
0.0093727
0.0132654
0.0212536
0.0214573
0.063986
0.102324
0.0506977
0.0366925
0.0227923
0.0192106
0.0128352
0.00656197
0.233328
0.192194
0.0771452
0.0168833
0.0123346
0.0211011
0.00764455
0.0253877
0.0541765
0.508735
0.673199
0.204597
0.0395564
0.0124805
0.0114234
0.00500303
0.0125122
0.0134439
0.0274731
0.0463628
0.0303191
0.0380583
0.0343478
0.0132606
0.0253201
0.0187142
0.0123562
0.0378265
0.0215131
0.00950152
0.0281254
0.0326452
0.0168835
0.038159
0.0570288
0.099502
0.296434
0.37369
0.108576
0.0255363
0.00872497
0.001358
0.0215796
0.0282375
0.0785809
0.48287
0.163933
0.0284398
0.0118413
0.00464281
0.000648522
0.043854
0.0796132
0.610377
0.0519076
0.00109267
0.005131
0.0154824
0.0116907
0.00592644
0.00647252
0.0182442
0.0606875
0.0700964
0.00209721
0.00920766
0.00917886
0.0186669
0.00937234
0.0101191
0.024883
0.0764311
0.452184
0.0253839
0.00130552
0.00603913
0.00182796
0.00141606
0.0226034
0.0246773
0.365207
0.460879
0.022777
0.000898416
0.0027061
0.00899155
0.0147751
0.0259048
0.198973
0.565047
0.0241304
0.009828
0.017615
0.0126149
0.0160921
0.00916305
0.00853497
0.0350985
0.0709627
0.0175796
0.0329698
0.0292579
0.0469429
0.0305373
0.0140971
0.00413854
0.014685
0.0287203
0.118883
0.0250539
0.00424816
0.00393988
0.00813215
0.026096
0.0686431
0.529471
0.514007
0.104834
0.0502825
0.0334114
0.0248483
0.0178708
0.0233545
0.080713
0.482257
0.276214
0.0179195
0.101135
0.148783
0.157572
0.102089
0.0478073
0.0472441
0.0322747
0.0127509
0.0213711
0.0997465
0.152143
0.0758248
0.114433
0.0934091
0.0972735
0.044604
0.0136397
0.177118
0.124368
0.195668
0.116944
0.0634003
0.0570077
0.0911971
0.491022
0.298461
0.0304567
0.12452
0.197152
0.0801384
0.0962886
0.101149
0.174366
0.23771
0.0846977
0.0668878
0.0615411
0.0591357
0.0138408
0.121358
0.140926
0.173132
0.0519758
0.0595196
0.0885827
0.0286856
0.0793016
0.0520338
0.105929
0.127269
0.284538
0.111086
0.128088
0.0574201
0.0554766
0.0925791
0.0408906
0.165872
0.15399
0.19793
0.131823
0.0812546
0.137579
0.110192
0.10136
0.0429284
0.118626
0.17282
0.176998
0.214885
0.228977
0.0587627
0.0429082
0.0725492
0.0357222
0.0893848
0.0373408
0.0917739
0.165179
0.109526
0.0276849
0.0500765
0.0734785
0.075593
0.146741
0.099057
0.215599
0.185581
0.0663463
0.0709338
0.0911587
0.083572
0.156061
0.0542218
0.0930361
0.0795607
0.281856
0.160206
0.0842638
0.122873
0.162067
0.250793
0.100872
0.18714
0.226614
0.269489
0.062646
0.0816451
0.173807
0.1042
0.180663
0.146348
0.0512797
0.0108394
0
0.0387487
0.0610382
0.125468
0.128356
0.266937
0.141816
0.0280887
0.0676097
0.00422559
0.00232971
0.0836771
0.195597
0.078084
0.0570453
0.167126
0.157996
0.0204038
0
0.0857253
0.0728943
0.217376
0.443544
0.347118
0.180847
0.108762
0.102224
0.00221403
0.036188
0.0093325
0.0198628
0.0492893
0.0297232
0.0164631
0.00484022
0.012672
0.00150811
0.00143496
0.0329224
0.216871
0.120434
0.0198856
0.00820205
0.00869737
0.00732087
0.00875557
0.0166297
0.0115154
0.115572
0.331931
0.0793577
0.0211978
0.00829078
0.0171751
0.000442602
0.00148148
0.0358036
0.618619
0.585984
0.11124
0.00574424
0.00303377
0.00648985
0.000794609
0.00618994
0.0900403
0.245154
0.11098
0.00139969
0.000849957
0.00617085
0.000770693
0.00510827
0.00820564
0.240194
0.359267
0.106684
0.0140856
0.00322873
0.0187073
0
0.000991536
0.001068
0.0544087
0.490851
0.288443
0.0256192
0.000768063
0.00444796
0
0.00055803
0.00197259
0.229072
0.491699
0.213122
0.0212875
0.00517567
0.0293288
0
7.97186e-005
0.0117023
0.2422
0.358906
0.0828844
0.0209665
0.00170049
0.00963608
0.00281086
0.00297735
0.0234503
0.393601
0.196258
0.033105
0.00299521
0
0
0.0238007
0.0124202
0.250265
0.296392
0.389294
0.0855209
0.0316865
0.00283414
0.0160601
0.00089081
0.000222702
0.0234197
0.406113
0.21827
0.0289613
0.00452665
0
0
0.0147739
0.0203558
0.130002
0.303733
0.029146
0
0
0
0
0.0413744
0.0206525
0.256687
0.233995
0.0182759
0
0
0.00163779
0.0205612
0.0499686
0.178457
0.490582
0.198196
0.0257221
0
0
0
0
0.0309108
0.0477101
0.262457
0.14328
0.0328778
0
0.00178933
0.00515777
0.0123367
0.0413279
0.237229
0.507301
0.045591
0.00488068
8.35676e-005
0
0.00148558
0.0294417
0.0572635
0.321383
0.269462
0.0700258
0.00863444
0.00636451
0.00100139
0.000965001
0.0353917
0.105094
0.393593
0.215975
0.0831825
0.00937451
0
0.00162304
0.00467843
0.0193685
0.0416367
0.309448
0.34261
0.228709
0.000216856
0.000402733
0.000231862
0.000668347
0.0460792
0.120097
0.315666
0.390735
0.0528843
0.0108739
0.0171457
0.00232627
0.00123712
0.0278508
0.114607
0.272649
0.107268
0.00586063
0.00747325
0.0140883
0.00259093
0.0120679
0.0270227
0.143709
0.190082
0.0193029
0.151986
0.000824201
0.00153066
0
0
0.039788
0.236026
0.391903
0.154893
0.0202667
0.000494521
0.000918396
0
0.00544746
0.0150621
0.496586
0.513383
0.0174323
0.00523105
0.00558042
0.0161472
0.00565178
0.043882
0.0321816
0.125811
0.0976347
0.00982478
0.0379423
0.0292657
0.0379452
0.0146593
0.0260786
0.0174138
0.0277668
0.0455396
0.0492264
0.0179971
0.00611254
0.0154883
0.0037595
0.0374835
0.0846107
0.676234
0.495195
0.00677087
0.0257017
0.0706902
0.0685006
0.00926915
0.0494526
0.139983
0.24556
0.175207
0.0324829
0.0593054
0.0594714
0.107352
0.15312
0.0695766
0.0437623
0.0333738
0.109325
0.0914192
0.130691
0.185088
0.222302
0.221049
0.127454
0.065636
0.0402442
0.0764575
0.0155135
0.049403
0.14374
0.177122
0.10379
0.0951181
0.113296
0.094448
0.110722
0.0679745
0.101223
0.146202
0.318203
0.371565
0.171713
0.131861
0.0774784
0.0807862
0.0735464
0.014892
0.0350817
0.0348497
0.0182752
0.0110031
0.0168225
0.00118866
0
0.016639
0.011872
0.0456786
0.258338
0.249063
0.0132133
0.0201711
0.00397097
0
0.00899931
0.012023
0.0212248
0.0824792
0.0567698
0.060671
0.025326
0.0129294
0.0136148
0.00982813
0.00274086
0.022831
0.745405
0.457984
0.0939564
0.0363038
0.00500464
0.00394971
0.00191551
0.0168563
0.104507
0.303723
0.156345
0.00430863
0.00465713
0.00161801
0
0.000482273
0.0412131
0.319773
0.389349
0.144762
0.000858035
0.0017194
0.000620754
0
0
0.00978427
0.122288
0.425141
0.26889
0.0147385
0.0192821
0.00155031
0.00223028
6.88961e-005
0.0279254
0.292488
0.395433
0.183485
0.015595
0.0137985
0.00141237
0.000318612
0
0.0695386
0.541822
0.338459
0.094299
0.0057888
0.0014474
0
0
0
0.16968
0.427302
0.24988
0.0487982
0.0304488
0.0118943
2.35619e-005
0
0.0212487
0.0540004
0.28566
0.251832
0.13267
0.0551271
0.0195976
0.00230919
0
0
0.0392559
0.107364
0.0839789
0.0996419
0.129836
0.0815878
0.00968296
0.002574
0.00783397
0.336224
0.330675
0.16647
0.0503982
0.0358296
0.0139836
0.000143093
0.00445322
0.0709511
0.346577
0.172825
0.0517603
0.0458739
0.0682212
0.0020509
0.0136279
0.090776
0.147609
0.0389789
0.0584774
0.106322
0.0688139
0.143244
0.110865
0.0215294
0.0187384
0.046209
0.0420476
0.133936
0.176761
0.269042
0.463354
0.0644779
0.0116587
0.0563089
0.045947
0.109378
0.0574304
0.00842899
0.0244848
0.019857
0
0.0222477
0.0943839
0.115835
0.143106
0.0742537
0.00875664
0.0201213
0.0281293
0.01781
0.046974
0.296131
0.267079
0.0700769
0.134765
0.0686616
0.205777
0.253587
0.0446736
0.0389722
0.08086
0.0676444
0.105226
0.155125
0.0862085
0.244101
0.443386
0.182914
0.143679
0.394565
0.217911
0.116684
0.02198
0.001749
0.0159985
0.0426158
0.034249
0.0378418
0.316008
0.292244
0.240788
0.00171932
0.000717269
0.00565995
0.00990763
0.0210534
0.047228
0.2519
0.397725
0.0674496
0.0267663
0.0247477
0.203128
0.405489
0.228012
0.0812507
0.288315
0.12624
0.119148
0.00414068
0.00502088
0.0684101
0.07464
0.0463851
0.0168856
0.104257
0.13222
0.0767519
0.000364863
0.000595573
0
6.49742e-005
0.00983163
0.114769
0.307218
0.119092
0.0296137
2.83606e-005
8.50819e-005
0
0.0103042
0.0311849
0.474906
0.438676
0.0223667
0.0509649
0.0016669
0.00416901
0
0.000454819
0.00827287
0.0672792
0.13978
0.0810803
0.0537749
0.000198524
0.000595573
0
0.0171737
0.054767
0.507157
0.275222
0.043894
0.0170712
0.000417422
0.00101627
0.000192244
0.0223105
0.0503243
0.346394
0.147098
0.00501477
0.003139
0.0183547
0.010598
0.00363315
0.0191079
0.0787416
0.279669
0.0632494
0.00664287
0.0180586
0
0
0
0.0326498
0.0547759
0.506555
0.132214
0.016275
0.0019976
0.00513982
0.00436843
0.00620714
0.0315539
0.216868
0.61058
0.0749451
0.0180544
0.00398824
0.0720478
0.071572
0.0424433
0.0310339
0.0732491
0.177282
0.0451778
0.0125708
0.0648153
0.0344536
0.0983481
0.115954
0.0679447
0.0265458
0.0155472
0.0291815
0.0406874
0.00925516
0.0433597
0.0652484
0.0384693
0.0781242
0.552236
0.596274
0.0372617
0.0209295
0.0892762
0.0899988
0.162536
0.0418885
0.0660331
0.104869
0.0533685
0.00418127
0.0258297
0.0121795
0.00124858
0.0386009
0.0907953
0.0644572
0.0159942
0.0582072
0.0643687
0.0141316
0.00655323
0.00787804
0.391963
0.329146
0.109256
0.0109144
0.00867742
0.0161938
0.00492901
0.0299087
0
0.0583089
0.154708
0.0496752
0.0142103
0.187628
0.346858
0.052712
0.0311295
0.00109782
0.293677
0.57156
0.182215
0.00129958
0.0150691
0.0995884
0.026486
0
0.0589263
0.477617
0.335867
0.0452577
0.0121431
0.00728066
0.0100732
0
0.00147978
0.126819
0.288823
0.192787
0.0535796
0.0256513
0.0156003
0.00288298
0
0.00378288
0.00225551
0.298043
0.531767
0.154998
0.00441602
0.00587295
0.00707987
0.000272371
0.002398
0.00557422
0.10401
0.166865
0.0883593
0.0328559
0.0231652
0.00844836
0.0029109
0.0164322
0.128473
0.197683
0.142725
0.190602
0.181677
0.0521391
0.00360315
0.000609987
0.0716913
0.0188022
0.00915874
0.0696846
0.255116
0.322538
0.0988128
0.0252707
0.0668128
0.0243844
0.014848
0.00945363
0.0359045
0.148292
0.242166
0.0942753
0.0238977
0.0438607
0.255318
0.166026
0.29925
0.244474
0.164965
0.231062
0.134691
0.0423401
0.154421
0.032132
0.0404699
0.0386477
0.0051626
0.0202891
0.0317045
0.0166702
0.00685553
0.0272191
0.0224538
0.17279
0.198164
0.0693801
0.101645
0.0194598
0.00197388
0.002849
0.013226
0.0811114
0.224347
0.277831
0.0727737
0.0140698
0.00875309
0.0129578
0.00415075
0.029157
0.0810927
0.651575
0.517574
0.048938
0.0153416
0.00251496
0.000897312
0.000910544
0.0163881
0.0141999
0.153152
0.138451
0.168166
0.224637
0.055677
0.0426548
0.0186028
0.0123805
0.0315234
0.0763536
0.124985
0.2739
0.427393
0.180738
0.0997808
0.170307
0.0672713
0.131608
0.411741
0.19448
0.0644965
0.040092
0.0152603
0.0229824
0.0150253
0.0488349
0.200622
0.107121
0.0962803
0.11302
0.0868975
0.0682004
0.038304
0.137911
0.329485
0.0729275
0.00499277
0.0283598
0.112052
0.193873
0.104497
0.0192367
0.118289
0.127172
0.166749
0.000533167
0.0010371
0.0269927
0.0284785
0.0161192
0.002547
0.0391795
0.2959
0.174337
0.00128668
0.0226937
0.0319989
0.0427581
0.0405481
0.0042108
0.106699
0.449438
0.297258
0
0
0.00294126
0.005531
0.0054824
0.00966904
0.0394207
0.619424
0.142369
0.000415067
0.00116006
0
0.000126557
0.00131017
0.0134473
0.0151659
0.238482
0.123384
5.52411e-005
0.000165723
0
0.001758
0.00963415
0.173634
0.125364
0.18323
0.228585
0.0215084
0
0
0.0113022
0.000594856
0.0298561
0.0551812
0.562329
0.170868
0.0358474
0
0.00567409
0.0336976
0.0294907
0.252798
0.337348
0.425347
0.0257628
0
0
0.00262127
0.0152771
0.0585487
0.266555
0.132766
0.0445802
0.00149726
7.86236e-005
0.000980007
0.0194306
0.0464795
0.301713
0.367462
0.0850657
0.0152359
0.0241964
0.00460352
0
0.0204662
0.110838
0.126647
0.320954
0.267163
0.0860426
0.000898353
0
0
0.0417992
0.206792
0.499149
0.307829
0.0896598
0.00234768
0.00145418
0.00668755
0.00859744
0.01967
0.0519721
0.350009
0.235672
0.0123101
0.00430796
0.0068598
0.0202665
0.028824
0.0189996
0.0353064
0.116402
0.0449723
0.0034522
0.00238312
2.3006e-005
0.000845502
0.00857643
0.0306428
0.185422
0.699715
0.2302
0.00482657
0.000430688
0.000161042
0.00210446
0.0549114
0.0283129
0.151794
0.331171
0.059306
0.0161735
0
0.0516744
0.026506
0.0517693
0.101439
0.0769649
0.00893358
0.156793
0.27346
0.0661232
0.0658846
0.00583844
0.102729
0.425717
0.281209
0
0.0124752
0.0827083
0.0398635
0.133235
0.279386
0.100451
0.0834566
0.132216
0.0299538
0.0690114
0.0701169
0.0376908
0.0737758
0.0800855
0.0782328
0.220332
0.547767
0.128282
0.0448877
0.03049
0.0239087
0.0179196
0.0015846
0.0675021
0.450876
0.349899
0.00224374
0.00216996
0.00177618
0.0016428
0.0169102
0.00334538
0.0226139
0.0822208
0.102924
0.0130871
0.0104833
0.0131604
0.0275474
0.0174308
0.00844423
0.0220772
0.230461
0.643603
0.112697
0.0104017
0.00392305
0.00176442
0.0652926
0.0178189
0.0591315
0.170968
0.150053
0.0109908
0.018193
0.0634639
0.126093
0.0172352
0.00627072
0.00180839
0.0170445
0.0205114
0.0230782
0.014584
0.0150561
0.0413452
0.0372593
0.0390985
0.230144
0.30461
0.0890083
0.0182187
0.0174938
0.0124854
0.0381237
0.0522034
0.0127886
0.0341346
0.080653
0.0537709
0.0163762
0.0746933
0.19216
0.140839
0.0108836
0.00771973
0.160789
0.589253
0.516559
0.0446799
0.0823968
0.163205
0.045607
0.0185414
0.105525
0.270843
0.204506
0.0320249
0.000652936
0.00166005
0.000801889
0.00481204
0.0674219
0.36413
0.310643
0.109873
0.00988238
0
0
0.000130873
0.00297427
0.000250095
0.0112576
0.151304
0.39067
0.264621
0.0140679
0.00467095
0.00610315
0.000757186
0.054666
0.171231
0.303455
0.409599
0.177354
0.0148573
0
0
0
0.23085
0.318043
0.101965
0.018341
0.000992068
0
7.79614e-005
0.00448522
0.0692795
0.290367
0.0861135
0.0100407
0.00352617
0
0
0.000129936
0.0348557
0.48696
0.237681
0.241397
0.171799
0.133782
0.0468091
0.0133382
0.00165035
0.0170332
0.0843267
0.286309
0.0747217
0.0156849
0.00667542
0.0223692
0.019477
0.0123104
0.050641
0.413406
0.172613
0.000489636
0.00157386
0.00104924
0
0
1.55534e-005
0.0188117
0.471459
0.293894
0
0.00184193
0.00653412
0.0213366
0.00660245
0.0144575
0.0414982
0.517218
0.147946
0
0.00325761
0.00547597
0.010622
0.00746116
0.00558121
0.0177793
0.335243
0.214331
0
0.0133589
0.126016
0.157653
0.025425
0.00638104
0.0478008
0.325993
0.132961
0.0222625
0.00560403
0.0252581
0.112838
0.0256762
0.0451475
0.0879963
0.272836
0.0402411
0.0371042
0.00425032
0.117234
0.200262
0.0749169
0.15651
0.162028
0.15755
0.0697302
0.00758563
0.0445163
0.269417
0.335378
0.0656143
0.0474905
0.0811068
0.126518
0.0046791
0.0361375
0.133217
0.559733
0.332856
0.0747929
0.0828308
0.0569554
0.0213023
0.00363546
0.00443767
0.000784672
0.158056
0.191378
0.0948119
0.166672
0.0963072
0.0328243
0
0
0.000112096
0.084879
0.26891
0.301235
0.126011
0.0235652
0
0.000537174
0.0106593
0.0762497
0.48678
0.238489
0.0504483
0.0324492
0.00813085
0.00334569
0
0
0.00917362
0.266348
0.494529
0.15831
0.0248175
0.000655432
0
0
0
0.00423692
0.0243523
0.251878
0.369566
0.0458334
0.000475883
5.28758e-005
0
0.000394217
0.0305783
0.0323011
0.21061
0.200283
0.0260344
0.01698
0.00646302
0
0.00114312
0.000776544
0.14817
0.591801
0.223534
0.00676196
0.00345117
0.00085008
0
0.014428
0.0114066
0.0720205
0.427432
0.167563
0.0154993
0.0495624
0.0278817
0.143253
0.252825
0.0688571
0.0186492
0.0785771
0.0813904
0.0233445
0.0204185
0.0151919
0.0543329
0.0582829
0.0236274
0.0257071
0.360704
0.348794
0.0406131
0.0204581
0.00886687
0.0902947
0.153811
0.0322891
0.00691584
0.155946
0.145046
0.013338
0.0228646
0.0162417
0.027505
0.0140151
0
0.00627997
0.348157
0.604702
0.0898618
0.0145564
0.00792333
0.00141466
0.00194958
0.00589613
0.0532514
0.323704
0.216838
0.00806838
0.00211467
0.000116868
0.0293358
0.0132565
0.0585585
0.127917
0.248068
0.057489
0.0143795
0.0460293
0.0585575
0
0
0.000213872
0.0266567
0.267558
0.51476
0.132368
0.000422169
0
0.00464649
0.00654689
0.0276846
0.0522333
0.372888
0.380692
0.206569
0.0429559
0.0279621
0.0414111
0.015062
0.053729
0.0597148
0.123036
0.0330656
0.08539
0.239458
0.109864
0.0772038
0.0192689
0.0196659
0.242046
0.371717
0.0279258
0.10003
0.25543
0.0600049
0.0372853
0.0122152
0.0292401
0.0221517
0.171548
0.22753
0.362909
0.223085
0.0908643
0.22801
0.0486202
0.0407123
0.1142
0.130378
0.0561043
0.314884
0.250589
0.14184
0.0285323
0.00751033
0.0232311
0.263935
0.426061
0.0244551
0.0139229
0.0368001
0.00652197
0.0403173
0.195685
0.123526
0.321021
0.404848
0.034293
0.00890114
0.081732
0.0127522
0.122794
0.02629
0.0404952
0.10757
0.212839
0.0317763
0.0558742
0.0537001
0.0763342
0.144943
0.30936
0.157731
0.0696151
0.254483
0.0397811
0.0396411
0.14057
0.150714
0.106947
0.295369
0.0791988
0.11122
0.138966
0.0341275
0.00403403
0.072555
0.0513273
0.101412
0.114905
0.0119963
0.0471207
0.219023
0.064325
0.0137684
0.0799956
0.109646
0.0792679
0.4333
0.250545
0.178803
0.151695
0.0329079
0.00725116
0.0744374
0.062518
0.024573
0.16183
0.180993
0.305681
0.453635
0.0580906
0.00196692
0.0420718
0.0233168
0.0373578
0.00267237
0.0170712
0.0422086
0.118115
0.0284824
0.00938869
0.0241712
0.0771933
0.0467721
0.0584552
0.140462
0.274439
0.226282
0.0511577
0.00183924
0.0170074
0.0697668
0.00191865
0.00790789
0.0680153
0.157609
0.305073
0.0470372
0.00134124
0.0096187
0.00721463
0.064799
0.0996977
0.43596
0.459498
0.385776
0.197221
0.000262749
0.00183656
0.0020012
0.0393337
0.0740519
0.0910002
0.217476
0.20369
0.0780665
0.0410096
0.0493845
0.0328635
0.0285447
0.160629
0.251636
0.318289
0.145599
0.054033
0.0701094
0.0731754
0.0312317
0.135687
0.113814
0.28161
0.235513
0.180211
0.162565
0.112657
0.024613
0.0281015
0.0936739
0.174595
0.253622
0.147091
0.281711
0.311993
0.212024
0.0408808
0.046811
0.00174332
0.0579782
0.215139
0.342689
0.136843
0.0182933
0.0204918
0.011007
0.00460052
0
0.0054924
0.0495632
0.314861
0.464147
0.0606291
0.0157572
0
0
0.00290554
0.0741253
0.201634
0.182511
0.207182
0.127171
0.0542713
0.00619988
0.00709924
0
0.120328
0.242972
0.296868
0.30767
0.132987
0.0531405
0
0
0.000428448
0.00314441
0.00811961
0.244869
0.470949
0.11618
0.00996968
0.00876006
0.00401765
0.0188927
0.0229519
0.00890306
0.0897832
0.299673
0.12746
0.0240466
0.0319862
0.0501942
0.00299913
0.0428281
0.0743192
0.170603
0.311032
0.25589
0.0897191
0.0775941
0.0707148
0.151513
0.0143968
0.00237478
0.054646
0.167405
0.174606
0.0914118
0.143646
0.425597
0.0253168
0.039388
0.045927
0.0137553
0.142598
0.133378
0.0206117
0.00808997
0.00897514
0.00482279
0.0061119
0.0553651
0.0113615
0.214543
0.62736
0.278473
0.0203415
0.00380082
0.00932696
0.00792595
0.0851536
0.0537371
0.117827
0.152236
0.020121
0.0128023
0.0129508
0.0201895
0.00851952
0.116722
0.0975576
0.132754
0.388273
0.328956
0.0433953
0.0554827
0
0.000439518
0.00410737
0.00241806
0.0554475
0.30018
0.256176
0.0158212
0
0.00059788
0
0
0.00108673
0.0639703
0.247732
0.315487
0.0615263
0.00411158
0.00804288
0.000732529
0.00892923
0.0235177
0.01918
0.268273
0.36506
0.0902942
0.0345793
0.00878095
0
0
0.00263146
0.00468935
0.167837
0.539657
0.269918
0.0642294
0.00969667
0.00137188
0
0
0.0211011
0.109845
0.364662
0.095204
0.0115288
0.073263
0.0128916
0.00986541
0.00559981
0.00403182
0.0656938
0.445496
0.0748773
0.0373731
0.0205491
0.000143876
0
0
0.000529457
0.044376
0.38429
0.178267
0.0547056
0.0693417
0.00237062
0
0
0
0.079822
0.590827
0.136929
0.0876899
0.0726671
0.0339969
0.0497336
0.00688531
0.00979418
0.0269106
0.130853
0.0253835
0.0491423
0.0779891
0.191567
0.361573
0.00598205
0.0118107
0.00975406
0.0165295
0.0227447
0.0854215
0.187647
0.125529
0.119045
0.000241694
0
0.0287215
0.29836
0.0843263
0.0931243
0.144081
0.376102
0.62519
0.00169186
0
0.00119089
0.020028
0.0165086
0.039263
0.0403318
0.271603
0.520727
0.081534
0.0289263
0.00477228
0.00216221
0.00736459
0.0328049
0.0327609
0.12054
0.311841
0.171232
0.145472
0.0103119
0.00260929
0.0011997
0.00414543
0.0619107
0.290619
0.498583
0.00379688
0.000934749
0
0
0
0.00676912
0.113084
0.100631
0.185613
0.099564
0.0222215
0.0123979
0.0182651
0.000719818
0.0147615
0.00464812
0.00986083
0.102311
0.0825811
0.057033
0.0173294
0.00157228
0.00196505
0.00327039
0.0103808
0.0491423
0.407532
0.270061
0.110123
0.086436
0.000224611
0.00117903
0.00176854
0.0163301
0.0123471
0.229091
0.238395
0.0566164
0.0116772
0.0316756
0.00425568
0.0154112
0
0.113702
0.581219
0.4255
0.0786203
0.0152631
0.0360216
0.022244
0.0791941
0.0244838
0.0291429
0.286867
0.205452
0.0675553
0.0585636
0.0393908
0
0.0021255
0.0156619
0.016973
0.222052
0.175807
0.13817
0.147564
0.0791642
0
0.0035425
0.00197194
0.110199
0.508075
0.243943
0.0173168
0.00721826
0.00753155
0.00943086
0.0245081
0.00540889
0.107678
0.508075
0.285578
0.0566836
0.0235008
0.0079341
0.0196859
0.00347398
0.00031971
0.04442
0.144587
0.152687
0.157556
0.100542
0.0299699
0
0.000745988
0.00152698
0.138816
0.210055
0.195245
0.139974
0.0687033
0.0423251
0
0
0.00214693
0.203577
0.519162
0.170565
0.0779563
0.0239578
0.00506726
0.0112686
0.00198858
0.00955966
0.293489
0.512284
0.143792
0.0870316
0.0304655
0.0260349
0.0283661
0.0165591
0.0281631
0.104119
0.112747
0.0777819
0.154251
0.164278
0.110233
0.074601
0.111381
0.164895
0.0189653
0.00583522
0.00365417
0.0495815
0.0850655
0.0683327
0.194632
0.573936
0.119131
0.172811
0.229779
0.053257
0.0663846
0.0334151
0.0477282
0.0675079
0.127596
0.248608
0.0345607
0.016804
0
0.00844199
0.0111621
0.0199185
0.131931
0.425066
0.0134606
0.00157972
0.0556016
0.118749
0.15798
0.131151
0.0216625
0.0123915
0.022077
0.0681314
0.00342289
0.0898592
0.215587
0.159847
0.208227
0.116552
0.0334642
0.0998467
0.0132872
0.0118753
0.0311348
0.368006
0.288896
0.0525566
0.0277403
0.00825116
0.0141247
0.0408788
0.0129681
0.130189
0.559574
0.346182
0.0512222
0.0443567
0.0105796
0.0335841
0.0238484
0.00045494
0.0122757
0.0588311
0.0261006
0.127042
0.135964
0.0926876
0.0840108
0.00886153
0
0.003426
0.0197676
0.0095424
0.120461
0.476174
0.357613
0.155602
0.014309
0.0024276
0.0811327
0.14971
0.0844176
0.041017
0.0636023
0.0528448
0.0454787
0.00248538
0
0.0505971
0.0599838
0.0520103
0.122454
0.50786
0.373847
0.137391
0.0126191
0
0
0
0.000392837
0.0230363
0.248033
0.249143
0.0664234
0.0483604
0.00117348
0
0
0
0.017591
0.261308
0.248719
0.0885489
0.00194823
0
0.0014892
0.000615004
0.00682783
0.0565094
0.338644
0.414967
0.0900689
0.0165044
0.00016764
0
0
0.0175794
0.122549
0.262997
0.533514
0.101935
0.19268
0.0857595
0.0426314
0.000744834
0
0.00715053
0.134876
0.15305
0.112283
0.156513
0.207578
0.199863
0.00782209
0.00347546
0
0.01074
0.0210292
0.0497811
0.106369
0.0165679
0.00140624
0.000446901
0.0103048
0.0712914
0.119853
0.532743
0.207999
0.264828
0.0505623
0.0153945
0.00747539
0.00593107
0.00263422
0.0230739
0.199118
0.499654
0.0537837
0.116202
0.111669
0.00740306
0.00665428
0
0
0.00141776
0.0141824
0.0851473
0.0457276
0.0376033
0.110344
0.0303806
0.00855812
0.00726406
0.00613521
0.0142211
0.358742
0.0503779
0.0141095
0.00974213
0.0110905
0
0
0.0203696
0.402827
0.681748
0.048684
0.0134705
0.0429687
0.0222708
0.0037469
0
0.0113055
0.319453
0.0263974
0.00790107
0.0905458
0.184717
0.0879649
0.0127654
0.0715202
0.0264866
0.0574337
0.0382012
0.142379
0.424855
0.206038
0.097076
0.00695938
0.111875
0.0557012
0.267214
0.354216
0.0621591
0.0285443
0.0383837
0.0335223
0.00674067
0.0400276
0.0436903
0.176027
0.275674
0.312501
0.319249
0.0696964
0.0261799
0.0040444
0.0667127
0.0596213
0.286715
0.0454537
0.195423
0.417023
0.080993
0.00775649
0
0.0123176
0.0144649
0.076589
0.0426625
0.290534
0.421762
0.104289
0.00315577
0
0
0.0229039
0.00743973
0.166566
0.295005
0.292047
0.031761
0.00110807
0
0.00739057
0.00733366
0.0852089
0.1306
0.368637
0.285766
0.0268675
0.00172362
0
0
0.00327199
0.0280507
0.0131541
0.366482
0.563342
0.108824
0.00681335
0.000953778
0.00668134
0.0162683
0.00689261
0.0139587
0.223526
0.42251
0.092701
0.00722728
0.00667645
0.0507747
0.0526533
0.0555238
0.0431909
0.316654
0.264502
0.0705724
0.00400573
0.000207453
0.00546596
0.00955583
0.0301115
0.0222299
0.0923734
0.103643
0.0425628
0.00118181
0.00145217
0.034886
0.0525812
0.0723889
0.183323
0.118776
0.184152
0.0343021
0.00510943
0.00534329
0.0461792
0.116371
0.268267
0.457315
0.0552082
0.00852234
0
0
0
0.00149083
0.0547428
0.502102
0.112713
0.0659161
0.0289841
0.00634673
2.67409e-005
0.00181841
0.0309536
0.0934593
0.174277
0.276805
0.0774446
0.00471283
0.00156392
0
0.00459345
0.0212685
0.0854009
0.250606
0.00381745
0.0110473
0.0243424
0.25753
0.169157
0.0322022
0.00705739
0.00629334
0.00117376
0
0.00337956
0.0673216
0.315763
0.285378
0.0611505
0.00434183
4.67651e-005
0
0.00698603
0.0788914
0.187176
0.292934
0.278565
0.05917
0.00406333
0.00699551
0.0208499
0.00310364
0.0103748
0.137426
0.268456
0.537531
0.210576
0
0
0.0124146
0
0.00170195
0.0969189
0.247575
0.227705
0.0606718
0.0306455
0.0127889
0
0.0013709
0
0.0679418
0.139538
0.137286
0.0938446
0.355697
0.194955
0.0646285
0
0
0.0260074
0.336651
0.425971
0.165228
0.00156598
0.000391494
0
0.00082254
0
0.0765023
0.420105
0.190001
0.0625144
0.065008
0.0112844
0.0167216
0.00243377
0.00217364
0.0126096
0.045408
0.0545674
0.0687357
0.232257
0.254292
0.107249
0.0185319
0.00553793
0.0195128
0.0985286
0.164515
0.294496
0.205964
0.43797
0.124653
0.00146026
0.0152155
0.173681
0.229044
0.0793776
0.0245487
0.0457435
0.0291199
0.0416682
0.0151934
0.0285511
0.228786
0.398951
0.270695
0.140398
0.0695765
0.0705186
0.0441804
0.106807
0.00590541
0.0036175
0.0314382
0.0613352
0.150305
0.0801774
0.341132
0.178413
0.379811
0.0229841
0.00476108
0.0191951
0.0132573
0.0270126
0.0169049
0.170478
0.597363
0.0710374
0.01525
0.0663242
0.146759
0.158331
0.123404
0.0679414
0.0576209
0.0459878
0.206846
0.0922086
0.12894
0.0782284
0.0544881
0.0576395
0.0279688
0.0266851
0.192876
0.31748
0.0212786
0.00469284
0.00544211
0.00369499
0.00186241
0.000411987
0.0148496
0.373058
0.587278
0.0167094
0.00224249
0.00124122
0.000662205
0
0
0.00887059
0.347017
0.144522
0.0741104
0.061724
0.0294104
0.011691
0.00486683
0.00144214
0.0105946
0.195689
0.286993
0.0302681
0.012988
0.0117065
0.00395171
0
0.00204217
0.0263139
0.281043
0.557162
0.0795015
0.0187069
0.00308596
0.000103882
0
0
0.0291865
0.295834
0.371904
0.258879
0.218318
0.0387821
0
0
0
0.0444022
0.209935
0.291267
0.0284308
0.00252301
0.000897647
0.000662868
0
0.00464652
0.0350481
0.233247
0.21934
0.0754821
0.0263877
0.00299556
0
0
0.00202379
0.0316893
0.148752
0.383024
0.393611
0.436874
0.0587442
0
0
0.0011304
0.0218891
0.172651
0.222988
0.354002
0.295444
0.0304805
0.0184458
0.00557383
0.00426495
0.0142526
0.0714879
0.172155
0.0721332
0.0521257
0.00699691
7.00835e-005
0.000630752
0.00826868
0.0412306
0.129309
0.0617364
0.0347836
0.0425273
0.00750966
0.0202823
0.0222488
0.0219555
0.0530446
0.0502352
0.125368
0.437633
0.276269
0.130189
0.0811179
0.0240719
0.0315162
0.0557605
0.0847821
0.0445656
0.159445
0.0768636
0.0928888
0.0249446
0.00974404
0.0392013
0.252022
0.20101
0.0287956
0.0981483
0.0653487
0.0332718
0.101849
0.117495
0.0571443
0.092404
0.0471667
0.00904155
0.114846
0.112728
0.0857065
0.0676987
0.0995206
0.0467945
0.158472
0.0681469
0.0601485
0.0880703
0.0373441
0.0230975
0.000884476
0.0054816
0.0175989
0.228642
0.213955
0.136489
0.0652016
0.0524955
0.020875
0
0.0315376
0.0781716
0.209568
0.248211
0.0332181
0.0744639
0.123233
0.0512277
0.0178701
0.0265878
0.0115819
0.165167
0.167603
0.277411
0.242916
0.133962
0.0339557
0.00164555
0.0312183
0.0256907
0.116519
0.289816