0.0520305
0.0841713
0.141169
0.0083152
0.132482
0.0033283
0.00950202
0.0119149
0.0441581
0.054247
0.086241
0.248129
0.0109031
0.118535
0
0.028006
0.0152254
0.0539143
0.0557712
0.149961
0.142738
0.0504993
0.266711
0.00284227
0.0109376
0.0719569
0.0400364
0.0801665
0.0460819
0.131027
0.0752956
0.433804
0.0198959
0.0866816
0.0732869
0.0908018
0.0599406
0.0885643
0.146069
0.00414217
0.11092
0
0.0573421
0.019114
0.049786
0.0933043
0.15432
0.130748
0.0111207
0.120335
0
0.109246
0.0364153
0.0653928
0.0643066
0.0280008
0.0857391
0.0289952
0.27558
0.00820517
0.11874
0.0724658
0.088297
0.0650841
0.0596725
0.163914
0.0311105
0.396065
0.0169491
0.0878546
0.0641073
0.0812112
0.0511706
0.0406525
0.129041
0.142257
0.051064
0
0.0418163
0.0139388
0.0448887
0.0306803
0.0232531
0.243695
0.372357
0.139152
0
0.0104482
0.00348272
0.0287549
0.0286975
0.037071
0.159292
0.104774
0.276265
0.0767469
0.037921
0.00963743
0.028961
0.0484702
0.0882434
0.278685
0.189788
0.231234
0.125302
0.0367029
0.00725668
0.0433529
0.0390721
0.0239835
0.133067
0.145749
0.210798
0
0.0177285
0.0123772
0.0398433
0.0296484
0.0596221
0.187994
0.0302832
0.167507
0.0142417
0.0458406
0.0723295
0.0545166
0.108887
0.0942215
0.19216
0.120151
0.167654
0.0344492
0.0138321
0.0201552
0.113288
0.129149
0.0942076
0.268938
0.0400963
0.201813
0.00203452
0.00502907
0.0711347
0.157014
0.065348
0.047327
0.153606
0.0263008
0.0469056
0.041465
0.0638556
0.0721658
0.117639
0.166603
0.101701
0.15187
0.0285147
0.00593503
0.0527252
0.112765
0.0560419
0.184709
0.105031
0.0759812
0.211878
0
0.0888089
0.00592357
0.0318516
0.0673352
0.139953
0.156359
0.109932
0.142604
0.0412624
0.110605
0.202216
0.125086
0.0298514
0.161581
0.0285554
0.0667191
0.118251
0.0936699
0.0788803
0.0635878
0.0589666
0.0233555
0.0226159
0.00100362
0.0360714
0.122254
0.170749
0.433189
0.0754335
0.0402612
0.0188366
0.000651498
0.0261448
0.0552022
0.102054
0.107511
0.144744
0.219572
0.0878287
0.00204415
0.0206844
0.00216164
0.0347531
0.165597
0.210488
0.365204
0.165341
0.080928
0.00680201
0.00155947
0.0305643
0.0470965
0.0950648
0.117009
0.33973
0.0176384
0.0315949
0.0125601
0.0231125
0.18338
0.129693
0.089075
0.063613
0.104648
0.0345816
0.0228082
0.00306122
0.155632
0.0208415
0.0332985
0.124251
0.152969
0.305288
0.0678097
0.0735773
0.0150595
0.0163704
0.115041
0.0476619
0.0768069
0.0836265
0.254646
0.10509
0.125545
0.0268924
0.105773
0.134464
0.111254
0.0351026
0.00441685
0.134425
0.0312439
0.0376535
0.00716984
0.10947
0.0894109
0.0465858
0.0614298
0.0155841
0.265661
0.00426352
0.0983831
0.0257599
0.0823368
0.0964626
0.0391356
0.070974
0.00736141
0.243054
0.0595357
0.0842699
0.018055
0.093181
0.0575287
0.0724156
0.210694
0.00935046
0.347851
0.00710587
0.135524
0.0334507
0.0572273
0.129386
0.0136335
0.0623147
0.0402057
0.0944305
0
0.103884
0.0323844
0.129386
0.172943
0.00806995
0.0371994
0.0241234
0.0644688
0.021585
0.233897
0.07965
0.173784
0.110861
0.0446663
0.148975
0.0241234
0.2092
0
0.102337
0.0303734
0.110861
0.19141
0.0233673
0.0778955
0.0144741
0.188139
0.0804145
0.23066
0.0987737
0.197299
0.0170752
0.0972184
0.142269
0.0424004
0.202809
0.0159738
0.0472987
0.0566618
0.0103433
0.0403337
0.0347457
0.0943213
0.0296299
0.389064
0.053161
0.104263
0.057403
0.0600143
0.0440133
0.108863
0.188993
0.013968
0.0525999
0.0643295
0.159823
0.0915307
0.0402931
0.0511202
0.0785081
0.200187
0.000684344
0.246908
0.0397173
0.215407
0.0778125
0.0612908
0.0396018
0.0123121
0.040932
0.0138037
0.198355
0.0229373
0.0574577
0.088204
0.0930055
0.0601144
0.0232021
0.0716272
0.0756814
0.255504
0.0518263
0.0543851
0.0898188
0.0984562
0.0338842
0.0542056
0.144055
0.0438003
0.207844
0.0196419
0.0792614
0.0665005
0.0659265
0.0378351
0.050448
0.196135
0.40321
0.283723
0.0661993
0.0858793
0.0657745
0.0608402
0.0186619
0.0457582
0.0503448
0.148527
0.199463
0.081976
0.0455296
0.0145133
0.0197809
0.0246571
0.110441
0.084962
0.111131
0.176372
0.114373
0.0540478
0.0176028
0.0269765
0.0128858
0.0362124
0.0981999
0.448483
0.26803
0.0298791
0.0307392
0.0101938
0.0135572
0.0374663
0.152189
0.187213
0.206515
0.265175
0.016339
0.022901
0.0105617
0.0287253
0.0533717
0.0692699
0.0780307
0.0216143
0.0631164
0.0220792
0.0354122
0.0416315
0.074834
0.122123
0.0653908
0.0700107
0.00945397
0.0329686
0
0.0458392
0.122361
0.132148
0.1213
0.199873
0.171628
0.004903
0.0742244
0.00315417
0.0399105
0.0319305
0.0837293
0.447782
0.396556
0.0982052
0
0.00542179
0
0.0763986
0.0897148
0.224659
0.0989866
0.038202
0.020327
0
0.0152575
0
0.00776115
0.0390403
0.0706863
0.124289
0.0571457
0.0212905
0.00211497
0.0441787
0.0601636
0.0423208
0.00977893
0.0875816
0.408793
0.21082
0.0094666
0
0.0015923
0
0.0108115
0.0295741
0.146682
0.540845
0.138107
0.0104454
0
0.0119585
0.0254989
0.0319271
0.0594369
0.370728
0.0460103
0.0418382
0.0247498
0.0108991
0.105535
0.193704
0.108228
0.0369858
0.0306158
0.0143617
0.0256341
0.0379233
0.0298137
0.138127
0.179573
0.181557
0.0991017
0.011635
0.264187
0.174771
0.0202291
0
0.0350063
0.112201
0.0967313
0.116622
0.307643
0.121004
0.149315
0.00983354
0
0.0287554
0.128048
0.30608
0.290808
0.217892
0.0353099
0.0266552
0.0635193
0.0225773
0.0895695
0.0514569
0.13589
0.0899962
0.0413011
0.0563152
0.0579237
0.113368
0.00921328
0.111276
0.0275131
0.115162
0.0462091
0.053105
0.122832
0.0773575
0.0318492
0
0.00644464
0.0463917
0.241512
0.328297
0.265118
0.136526
0.214438
0.205316
0.013693
0.0162739
0.101083
0.0937129
0.135127
0.183109
0.0674338
0.0593352
0.121066
0.00108143
0.149068
0.0112185
0.0542083
0.016242
0.06378
0.0784306
0.0693687
0.198671
0
0.194077
0.00104389
0.0800647
0.0249659
0.0779824
0.136391
0.171641
0.207849
0.0180204
0.0777866
0.0489382
0.0709492
0.0272615
0.120295
0.149252
0.0501115
0.108165
0.00257434
0.158617
0
0.24225
0.08075
0.146115
0.0615646
0.0501394
0.153278
0
0.105805
0
0.0499468
0.0161708
0.0615646
0.105291
0.0558138
0.159239
0
0.123476
0.0231007
0.0866646
0.0371901
0.103284
0.0891236
0.0406055
0.12522
0.00901128
0.0663688
0
0.149541
0.0498471
0.0891236
0.129126
0.262241
0.458437
0.0670836
0.0412893
0
0.0701717
0.0233906
0.10075
0.0837141
0.0506528
0.143302
0.0270658
0.0441828
0.0460171
0.10557
0.0849312
0.0917162
0.155002
0.0540696
0.147813
0
0.131284
0.00372221
0.110896
0.0437582
0.156018
0.114377
0.0491973
0.156336
0.0162395
0.103961
0.0332693
0.0229243
0.182505
0.146074
0.244819
0.062429
0.186256
0
0.0916542
0
0.00894081
0.0842662
0.259164
0.0515892
0.0286563
0.0710712
0.0264206
0.114212
0.0110105
0.0499075
0.0145643
0.0515892
0.0130956
0.0326037
0.129143
0.317863
0.221951
0.0770733
0.0642013
0.0170867
0.0110198
0.0934539
0.0297536
0.0841954
0.0122939
0.12413
0.0164669
0.0410004
0.0105405
0.0938358
0.0315669
0.0662041
0.202816
0.254562
0.459785
0.115269
0.0674098
0.0136525
0.0281073
0.00433474
0.0275469
0.0863285
0.207943
0.136006
0.0180609
0.0184998
0.00458873
0.00074058
0.0378484
0.136207
0.171854
0.130158
0.161208
0.0122998
0.0289715
0.0051929
0.00665495
0.016762
0.0953957
0.172837
0.191684
0.244395
0.0295487
0.0265828
0.00636983
0
0.197124
0.289715
0.281817
0.274891
0.349924
0.103861
0.0920186
0.00865483
0.000882533
0.0771244
0.101471
0.0780233
0.0211239
0.0584149
0.00676046
0.00772774
0.00094483
0.0293264
0.176471
0.263275
0.0983856
0.0256827
0.0352972
0.000965779
0.00457253
0.00130956
0.0960795
0.272873
0.280676
0.164575
0.0735772
0.123995
0.0523615
0.0384644
0.00175871
0.0490398
0.296177
0.434731
0.343086
0.175019
0.0919596
0.0467732
0.0432291
0.00185819
0.197828
0.24352
0.16583
0.0351692
0.0186601
0.00159157
0
0.000596567
0.00184383
0.0590541
0.398629
0.0734809
0.0161879
0.00568289
9.58326e-005
0.000862494
0.00480636
0.0559672
0.264979
0.239563
0.200192
0.173438
0.130621
0.0254695
0.0409003
0.0455766
0.00722933
0.0786043
0.459208
0.108482
0.111518
0.0397802
0.00325956
0.0185517
0.0692414
0.125446
0.369117
0.13246
0.0328289
0.0052935
0
0.000289322
0.00925323
0.0276117
0.117838
0.301806
0.0535591
0.0246237
0.00766234
0.0101191
0.000173593
0.0274658
0.0822589
0.149563
0.204012
0.18814
0.0352098
0.0157068
0
0
0.0417302
0.158237
0.245414
0.414778
0.0876809
0.0246978
0.00996182
0.0168652
0
0.150102
0.37775
0.391439
0.21288
0.0449278
0.0111082
0.0120982
0.0191964
0.00895696
0.0356309
0.102874
0.139131
0.162295
0.0300043
0.0332886
0.0418156
0.018692
0.0626987
0.110312
0.0847216
0.0637778
0.0802215
0.0306472
0.00793076
0.0172275
0.031994
0.038709
0.177526
0.424822
0.468955
0.0996055
0.0152331
0.000795865
0.0112285
0.0141404
0.139805
0.303561
0.264126
0.198332
0.0888903
0.0759977
0.0597363
0.113401
0.0372313
0.074068
0.111926
0.0711104
0.022947
0.0866196
0.115516
0.0340607
0.0884632
0.0117364
0.059558
0.0147006
0.097615
0.0307877
0.116148
0.0488953
0.0139962
0.0508618
0.0223388
0.128168
0.334687
0.314093
0.174071
0.152452
0.0781666
0.0900219
0.179909
0.0883874
0.11156
0.146629
0.208274
0.057671
0.0928134
0.0443956
0.0247424
0.0814144
0.0208496
0.0315014
0.000861098
0.0479142
0.0158484
0.0443956
0.0323209
0.161015
0.380353
0.119838
0.0292968
0
0.0156162
0.0074152
0.026899
0.0280733
0.0806055
0.246374
0.165569
0.0553991
0.00977106
0.0188354
0.00474547
0.0267134
0.0188655
0.173688
0.53904
0.261009
0.0478164
0
0.00949355
0.018633
0.00958799
0.0452806
0.0192043
0.0576129
0
0.173513
0.00466683
0.0328513
0.23104
0.0842376
0.0965863
0.0404526
0.118887
0
0.126832
0
0.0358971
0.15755
0.122278
0.0807513
0.0320784
0.106543
0.0191436
0.248545
0
0.132445
0.128818
0.095693
0.091062
0.0380423
0.111481
0.0172194
0.238457
0
0.144875
0.152168
0.109393
0.032024
0.0213141
0.0612856
0.0211018
0.103754
0.00154712
0.00935364
0.00604412
0.0327447
0.0117985
0.0421679
0.179538
0.246155
0.281311
0.0108299
0.0123005
0.00217067
0.0114734
0.0157216
0.0178968
0.0672309
0.119967
0.17672
0
0.0117506
0.0124862
0.0172338
0.0026646
0.0433077
0.240166
0.473308
0.415568
0.0142746
0
0
0.0026646
0.00665467
0.0390923
0.0870491
0.103792
0.0807322
0.00454947
0.00187039
0.000419179
0
0.0742967
0.125863
0.172345
0.255218
0.13253
0.0344695
0.0111231
0.000504959
0
0.00343235
0.020654
0.0860548
0.163125
0.167619
0.022429
0.0002637
0.00501027
0
0.0143971
0.0538592
0.164958
0.51493
0.582924
0.0608883
0.000439499
0.00835045
0
0.14623
0.179535
0.164009
0.156033
0.0627644
0.037315
0.0157432
0.00206642
0.0489461
0.144835
0.140685
0.141176
0.136127
0.076451
0.0694387
0.0626347
0.00334778
0.147518
0.0204396
0.0684201
0.189446
0.376063
0.43032
0.0533409
0.005459
0.00216016
0.024439
0.0270465
0.0446367
0.109139
0.308015
0.384728
0.122202
0.0657546
0.00232851
0.0705449
0.120241
0.100879
0.179387
0.173635
0.0812205
0.0992826
0.113413
0.016865
0.122887
0.232774
0.124881
0.139361
0.055706
0.0192475
0.0804925
0.108471
0.0891498
0.326827
0.123629
0.065661
0.0925325
0.209037
0.234972
0.152754
0.118817
0.00985824
0.17079
0.230345
0.148596
0.0883035
0.0483399
0.0773152
0.282958
0.114635
0.0172459
0.252051
0.118041
0.0637312
0.0285502
0.0193015
0.0185765
0.0639535
0.110001
0.105458
0.166358
0.102696
0.0556919
0.0135138
0.0152681
0.0671225
0.142694
0.313981
0.385994
0.0485349
0.0636971
0.0603953
0.0298537
0.0565233
0.109772
0.264637
0.0974178
0.0277755
0.0553385
0.0436039
0.0455575
0.0397246
0.113838
0.422043
0.351254
0.179226
0.162741
0.00559005
0.0156774
0.00829674
0.00422541
0.00490672
0.041235
0.171761
0.206613
0.234433
0.00519306
0.0106422
0
0.00060363
0.014845
0.0622331
0.240282
0.114803
0.077357
0.0335329
0.00841821
0.00624558
0.0217915
0.0489071
0.282537
0.409753
0.151895
0.0977621
0.000897855
0.00628498
0
0.00311307
0.0537374
0.38181
0.471284
0.107237
0.0315923
0.0158039
0.0121965
0.00217144
0.00654115
0.0140383
0.0869665
0.261092
0.129947
0.0722952
0.0655202
0.0125705
0.0966865
0.101855
0.0471766
0.065285
0.138395
0.105981
0.0229816
0.0197512
0.0137054
0.00352408
0.0129373
0.0716861
0.356419
0.476331
0.18449
0.0410649
0.0351685
0.0587186
0.12435
0.150201
0.099476
0.0943056
0.274637
0.195388
0.0623107
0.0515162
0.0106313
0.154428
0.287158
0.202078
0.0332378
0.0140385
0.0181803
0.00392396
0.00721709
0.0213245
0.151026
0.364493
0.205177
0.0350608
0
0.0177801
0.0129323
0.00147234
0.0647048
0.210035
0.262216
0.130367
0.0371059
0.0221455
0.0823658
0.114909
0.053673
0.0766229
0.178483
0.227493
0.132028
0.122374
0
0.0469405
0.0558937
0.0284371
0.0863784
0.0624492
0.144927
0.0526815
0.0956004
0
0.0915098
0.0467104
0.0833395
0.108538
0.0325726
0.0920791
0.0473863
0.0896333
0
0.152819
0.14844
0.125744
0.0898419
0.0762076
0.131746
0.0384824
0.216109
0.0407124
0.0936252
0.0504136
0.0842997
0.162904
0.0664647
0.201285
0.087992
0.143608
0
0.188326
0.121276
0.173228
0.0171912
0.0145785
0.0539221
0.112967
0.147058
0
0.0171765
0.0242558
0.0204613
0.00138051
0.0194709
0.102709
0.317003
0.425197
0.0433075
0.000521505
0.00894091
0.00292764
0.0246457
0.0405113
0.115736
0.0844588
0.199599
0
0.0458536
0.0363845
0.0285958
0.00073752
0.0259886
0.0779893
0.217717
0.451739
0.128734
0.0730729
0.0962658
0.0155819
0.000271411
0.00220042
0.0155308
0.0818291
0.123723
0.0346894
0.000519165
0.0107536
0.000156976
0.000452352
0.00154744
0.0174639
0.122039
0.574384
0.101686
0.00152295
0.0164401
0
0.00155767
0.0052614
0.0140903
0.0730104
0.129602
0.0804786
0.012883
0.0173234
0.00197271
0.00259611
0.00778833
0.0202832
0.0359721
0.613763
0.325099
0.0436187
0.0204141
0.000777602
5.93987e-005
0.000680323
0.0248997
0.124526
0.491976
0.0710568
0.00346862
0.00215877
0
0.00283924
0.00384884
0.0420217
0.172183
0.303669
0.107117
0.0309239
0.00428648
0.0178642
0.000340897
0.00681046
0.00990779
0.0960196
0.472316
0.270418
0.0857768
0.0216273
0.000102108
0.0044587
0.0119881
0.0699883
0.283118
0.233532
0.18533
0.0914336
0.0415051
0.0182221
0.0724374
0.0246235
0.0726421
0.13853
0.196784
0.192535
0.0834233
0.015767
0.165359
0.134054
0.0470346
0.0229225
0.0103506
0.178857
0.293145
0.132005
0.0203013
0.247042
0.0515683
0.0148279
0.107174
0.222488
0.187093
0.259017
0.107238
0.0788139
0.0900641
0.154468
0.0514408
0.0250661
0.00456777
0.202096
0.206495
0.0995006
0.0597034
0.312222
0.044799
0.0421947
0.00464502
0.0457096
0.139972
0.192826
0.0777066
0.0129038
0.0917965
0.0241164
0.0538778
0.0131331
0.254767
0.404142
0.246462
0.0488052
0.0156899
0.0241157
0.100218
0.0652449
0.049793
0.0673279
0.0966808
0.100079
0.0853478
0.059145
0.179027
0.0549657
0.0652095
0.106922
0.378576
0.298208
0.338616
0.0915684
0.0501706
0.0427887
0.00127801
0.00383404
0.0062938
0.145016
0.30165
0.133432
0.0154008
0.00470438
0
0
0
0.00649689
0.166373
0.4128
0.138215
0.0253635
0.0234565
0
0.00631231
0.0106187
0.0413301
0.361371
0.282032
0.0874344
0.00977887
0.00369005
0.000252477
0.000792215
0.00118832
0.0592125
0.402434
0.401371
0.0614021
0.0269365
0.0207831
0.00176734
0.00880523
0.00288878
0.0223408
0.219311
0.348749
0.160761
0.0812539
0.0593107
0.00546154
0.0774558
0.0337018
0.0385086
0.162097
0.133837
0.103481
0.105803
0.109037
0.0585636
0.00349441
0.00158062
0.120684
0.323151
0.396729
0.115351
0.129019
0.0543237
0.0153714
0.184428
0.0255513
0.0230132
0.152686
0.195559
0.0795268
0.191476
0.146915
0.117153
0.118644
0.0572872
0.0465443
0.0475204
0.0372466
0.013272
0.0869456
0.199764
0.104836
0.163535
0.140294
0.0349086
0.0304784
0.0429667
0.0249823
0.062487
0.0835902
0.0869097
0.43494
0.0435538
0.00235171
0.0220404
0.0477829
0.0174659
0.0914728
0.170026
0.18189
0.412537
0.0966284
0.00187708
0.003486
0.00684268
0.0416371
0.086057
0.0877345
0.298632
0.0385005
0.0339457
0.105194
0.0393139
0.133816
0.0305032
0.0418494
0.0145239
0.0382794
0.0507372
0.0925436
0.284911
0.144116
0.0929641
0
0.0368133
0.0122711
0.047936
0.0551693
0.0530976
0.185261
0.102568
0.176042
0.0205164
0.0548261
0.0177294
0.0551693
0.0276227
0.108682
0.302394
0.349263
0.206109
0.169281
0.0352276
0.00424697
0.022954
0.0175543
0.0956772
0.213004
0.103901
0.138884
0.005183
0.0430474
0.0258232
0.0136098
0.0112071
0.048045
0.0930983
0.0833195
0.277916
0.256996
0.145298
0.125975
0.0282527
0.0548858
0.0984636
0.164769
0.176877
0.111332
0.125884
0.0486197
0.0206053
0.046686
0.0970387
0.0588506
0.0928198
0.0194363
0.273872
0.234736
0.14277
0.0872629
0.102887
0.00396843
0.0103561
0.0126635
0.0228839
0.11407
0.163386
0.0393523
0.0331746
0.0126098
0.00500746
0.0150224
0.0143925
0.00886618
0.402516
0.475255
0.184521
0.137325
0.0145509
0.0118647
0.00413886
0.00855369
0
0.122237
0.153493
0.0809259
0.0423117
0.0248349
0.00128805
0.00214606
0
0
0.204894
0.338549
0.291654
0.211111
0.0251304
0.0010337
0.0222188
0.00710289
0.0518076
0.149247
0.226267
0.217035
0.138326
0.00116385
0.0421576
0.0492179
0.0271808
0.124009
0.0770152
0.144881
0.22253
0.0971664
0.0644808
0.00672675
0.0157791
0.00195718
0.00439282
0.0395015
0.140034
0.409246
0.214388
0.0125302
0.0760653
0.0489343
0.00326197
0.00732136
0.00518259
0.136661
0.478499
0.312841
0.203243
0.100092
0.0173094
0.0102682
0.0286053
0.0408809
0.0546679
0.0575349
0.021013
0.11184
0.183516
0.0336807
0.0138793
0.00026958
0.0295707
0.0161371
0.00958047
0.0168157
0.181383
0.184955
0.0172034
0.000428521
0.000961798
0.00481952
0.0415698
0.0953649
0.153116
0.391264
0.532474
0.0466018
0.00667794
0
0.00361057
0.00179915
0.00457707
0.0399056
0.52479
0.116973
0.0648434
0.0871898
0.0507094
0.0176117
0.0183199
0.0184181
0.0291315
0.104224
0.0520515
0.120173
0.209561
0.187069
0.104158
0.112342
0.0248209
0.0194617
0.0146406
0.435117
0.187958
0.105807
0.0319993
0.0064402
0.00110114
0.000515391
0.00624065
0.218224
0.180891
0.407766
0.433116
0.19461
0.0432183
0.007708
0.000309235
0.00183395
0.0362734
0.0257946
0.116302
0.192231
0.330837
0.165235
0.0585094
0.00893952
0.0057254
0.0033708
0.0242596
0.0459156
0.111711
0.336926
0.245467
0.0351631
0.0378653
0.0294872
0.0235956
0.0389346
0.317033
0.402076
0.234849
0.0664608
0.0033054
0.000772762
0.00252748
0.00449467
0.0659889
0.184829
0.202265
0.22325
0.140706
0.00110903
0.00540933
0.0176923
0.0314627
0.025414
0.0139522
0.104163
0.223845
0.34736
0.120821
0.14119
0.0505602
0.0353917
0.179712
0.0190829
0.0160932
0.0528121
0.189061
0.109407
0.175753
0.148016
0.113419
0.099523
0.117483
0.130944
0.279307
0.294833
0.0265495
0.018653
0.0245211
0.0405172
0.101077
0.0162147
0.0539892
0.0908014
0.227326
0.0372372
0.0390817
0.0470854
0.091059
0.403588
0.0375229
0.00494471
0.00185828
0.0275478
0.0165113
0.0684276
0.0892003
0.158064
0.337995
0.0234013
0.00296683
0
0.000996573
0.00867447
0.111812
0.0809876
0.297964
0.13875
0.0157224
0.0372769
0.00494727
0.0725625
0.00612541
0.0667068
0.0408773
0.119951
0.10413
0.0220635
0.0207678
0
0.0370318
0.0334288
0.237676
0.123308
0.10931
0.0535323
0.0344153
0.112806
0.0564814
0.0847465
0.0157149
0.0955184
0.0318395
0.0535323
0.0239506
0.0557239
0.17282
0.169788
0.180665
0.203824
0.0681099
0.010982
0.0233361
0.0541075
0.0990542
0.131303
0.236754
0.0745734
0.00870186
0.140138
0.0457904
0.0385781
0.0268763
0.0878831
0.244684
0.372503
0.174892
0.124655
0.079158
0.0531583
0.0340992
0.0632738
0.0274642
0.0734823
0.114572
0.082467
0.216096
0.0922856
0.0524385
0.0687219
0.0853438
0.0348356
0.0932929
0.0139021
0.103891
0.133964
0.174986
0.113627
0.0966412
0.051542
0.0324101
0.123094
0.125712
0.0791263
0.187019
0.160764
0.115163
0.0810955
0.0420062
0.0669956
0.215435
0.0268316
0.0685425
0.152265
0.251281
0.119345
0.0608479
0.016075
0.0143459
0.045683
0.00491296
0.124225
0.140596
0.128035
0.0601235
0.0212042
0.00128395
0.0035309
0.01218
0.00294778
0.158963
0.38082
0.3095
0.309688
0.0410798
0.011177
0.0305925
0.110296
0.0343907
0.112331
0.0571192
0.10447
0.0475368
0.013282
0.0100495
0.0119809
0.0492859
0.051403
0.118644
0.155104
0.233992
0.272504
0.0386653
0.0250487
0.00213422
0
0
0.0140384
0.089703
0.290904
0.180764
0.0412506
0.0725832
0.0105374
0.00626321
0
0
0.0727829
0.339972
0.436077
0.386525
0.0390161
0.00644203
0.00719759
0.0182544
0.00954153
0.0591342
0.122133
0.142962
0.0509035
0.137525
0.0120591
0.0114669
0.0112324
0.0040428
0.0228971
0.107771
0.221885
0.337917
0.0904977
0.00398879
0.00392709
0
0
0.0135209
0.0363432
0.179981
0.408239
0.440699
0.0338192
0.00191896
0
0
0.000640347
0.00149414
0.06029
0.488806
0.0861802
0.0122912
0.00654516
0.000800469
0.000343058
0
0.006565
0.0862583
0.272025
0.244768
0.0506411
0.0213222
0.0036272
0
0
0
0.0627266
0.288574
0.514667
0.177406
0.0388308
0.00669305
0.000428177
0
0
0.0210321
0.206696
0.271216
0.381687
0.23024
0.073179
0.00299724
0
0
0.0109509
0.0295849
0.256353
0.119883
0.0603127
0.00650352
0
0
0
0.0494473
0.157667
0.205345
0.220142
0.161712
0.0198605
0
0
0.000986506
0.0300144
0.0788608
0.087983
0.4183
0.344786
0.121948
0.0180007
0
0
0
0.00314068
0.0664706
0.2846
0.249115
0.151757
0.114113
0.00229455
0.00235339
0.000588347
0.0100639
0.150339
0.297268
0.230634
0.0260358
0.021658
0.0114028
0.00941141
0.00324706
0.0442126
0.0753141
0.219997
0.124142
0.0804063
0.16346
0.0410708
0.0299066
0.00502333
0.0272342
0.0821486
0.163882
0.202751
0.268114
0.207526
0.0143576
0.0138206
0.00415542
0.0295599
0.129931
0.039372
0.091474
0.0868013
0.111478
0.00861457
0.0645202
0.0214422
0.119849
0.0406338
0.104029
0.0821373
0.140971
0.293257
0.183243
0.100213
0.0184244
0.0230434
0.085392
0.0489807
0.10802
0.0330389
0.179934
0.164368
0.159767
0.0379376
0.0813758
0.129579
0.0102741
0.0343935
0.00663249
0.0615067
0
0.0850051
0.0358989
0.130914
0.0938704
0.0242644
0.0182235
0
0.0496461
0.0448158
0.16367
0.241149
0.123511
0.125594
0.0417657
0.125807
0.000947499
0.0602263
0.0197732
0.178088
0.0691445
0.127818
0.148679
0.0313759
0.0863321
0
0.0070923
0.00640226
0.230615
0.291412
0.18696
0.051381
0.166775
0.151627
0.15755
0.0780007
0.00706743
0.078371
0.0411521
0.0226583
0.0582261
0.135402
0.182105
0.164348
0.0990531
0.0584952
0.0960111
0.0866659
0.0622343
0.04381
0.118475
0.174464
0.279979
0.195613
0.0177254
0.108375
0.060323
0.0286888
0.106648
0.134295
0.154645
0.0994366
0.059262
0.0170969
0.195738
0.148313
0.107594
0.0715874
0.029342
0.0723968
0.0366258
0.0425357
0.0523806
0.131968
0.134096
0.128661
0.0783258
0.0410779
0.127886
0.00864051
0.110084
0.0290533
0.143737
0.0723986
0.108672
0.161775
0.0254225
0.0441278
0
0.0283887
0.00308668
0.177235
0.173733
0.204307
0.233123
0.0396235
0.138713
0.0368501
0.101717
0
0.154992
0.0768612
0.252759
0.0522121
0.0192238
0.0716616
0.0259817
0.231832
0.0385793
0.0855297
0.0235775
0.0525261
0.0528759
0.0365411
0.0932132
0.0956567
0.248555
0.0987141
0.146817
0.0740221
0.0547961
0.128664
0.0382825
0.156113
0.0766363
0.187472
0.020682
0.0606075
0.0162686
0.128664
0.120775
0.0657446
0.215818
0.15306
0.226572
0.0833888
0.0920442
0.018299
0.118951
0.0690302
0.0380202
0.0427407
0.115447
0.0394634
0.0429
0.0585859
0.0706777
0.0704931
0.213441
0.0330059
0.0404782
0.178598
0.0435445
0.0173564
0.0432525
0.123754
0.393223
0.0452228
0.0333764
0.0907218
0.277129
0.0658427
0.0382904
0.0216545
0.00720175
0.0425399
0.0803437
0.0307288
0.107871
0.493112
0.0902583
0.0118258
0.0524247
0.0332543
0.140968
0.134374
0.0213709
0.0259862
0.0347053
0.00902453
0
0.0105769
0.0960107
0.426536
0.213902
0.0631813
0.0478404
0.0124317
0
0
0.0179812
0.129773
0.432052
0.0668842
0.0180036
0.0572943
0.0940452
0.0218548
0
0.0875594
0.0739955
0.216306
0.0872679
0.0104647
0.0347522
0.0118793
0
0
0.202318
0.166706
0.294936
0.172839
0.0863415
0.076768
0.0180299
0
0
0.0141417
0.123674
0.277474
0.324988
0.169038
0.111317
0.01494
0
0.00682966
0.0336875
0.147833
0.29078
0.0920093
0.0112542
0.0409161
0.0326838
0
0.00206172
0.153448
0.162684
0.202635
0.19506
0.0324699
0.0401107
0.0223651
0
0.0358002
0.164797
0.239966
0.25327
0.201864
0.167006
0.100613
0.0147617
0.0716978
0.0787503
0.058097
0.0570536
0.116361
0.0400092
0.0880742
0.0706309
0.0981537
0.296188
0.152735
0.0927825
0.0133671
0.0287766
0.117709
0.0213369
0.0116909
0.0126468
0.132215
0.187121
0.115499
0.124125
0.173873
0.010631
0.0349292
0.11791
0.07408
0.353248
0.308313
0.127811
0.0271171
0.0530617
0.00487028
0.022818
0.0656397
0.13946
0.245029
0.183217
0.0984666
0.00899298
0.0039193
0.0188254
0.0209879
0.0740986
0.0611492
0.146747
0.242665
0.158381
0.0691653
0.0272715
0.00676472
0.041489
0.194013
0.169411
0.208668
0.126432
0.114931
0.0297556
0.00912172
0.0484079
0.0138237
0.0750779
0.0833465
0.16559
0.142555
0.164002
0.185304
0.0750553
0.0530756
0.0340795
0.102238
0
0.044472
0.0588798
0.178278
0.100229
0.0620126
0.0966725
0.0425257
0.127577
0
0.00244814
0
0.221927
0.116432
0.104922
0.0837895
0.0347951
0.103771
0
0.0990972
0.0506358
0.153438
0.167209
0.105968
0.066291
0.0631843
0.185255
0
0.105889
0
0.26954
0.239351
0.0933748
0.0108194
0.0133658
0.0886381
0.282966
0.146562
0.0752052
0.122665
0.0428182
0.0116715
0.0656031
0.0314625
0.0776216
0.0856071
0.0488476
0.0319878
0.181175
0.0952138
0.0702473
0.0165154
0.0351294
0.24015
0.215144
0.11814
0.0757722
0.163768
0.104743
0.0231398
0.0936255
0.0238091
0.121646
0.0979916
0.124161
0.0235711
0.257026
0.162861
0.105947
0.133539
0.0162911
0.0452525
0.00141348
0.0125211
0
0.0968746
0.0768592
0.141039
0.179035
0.0275093
0.102518
0.0371248
0.0454759
0
0.131005
0.050035
0.180158
0.117327
0.0253503
0.0314796
0.00989438
0.0967214
0
0.211006
0.154379
0.128856
0.1753
0.131026
0.0466407
0.00530354
0.150186
0
0.245284
0.175255
0.163437
0.0921037
0.0439593
0.159729
0.051723
0.0397592
0
0.0594385
0.0197175
0.0921037
0.134606
0.0403507
0.169317
0.130876
0.0909004
0.0674647
0.0327307
0.0045642
0.134606
0.0759169
0.0812145
0.120835
0.00518393
0.0665112
0
0.184097
0.140201
0.0801159
0.0994146
0.0833178
0.328553
0.252484
0.132058
0.0223071
0.0692832
0.031593
0.10151
0.0392863
0.0101593
0.104825
0.27172
0.0646938
0.0724338
0.0125766
0.000463585
0.0389632
0.0359932
0.0273865
0.141048
0.354808
0.0664825
0.0320232
0.0425613
0.0136765
0.0337312
0.0307052
0.0359128
0.21186
0.386937
0.100394
0.0320232
0.00153176
0
0.0284431
0.0614552
0.122823
0.201718
0.309466
0.114199
0.0224388
0.0150047
0.0042345
0.0361237
0.071877
0.0365679
0.117954
0.107148
0.0226507
0
0.133079
0.051057
0.0787231
0.0735751
0.0406974
0.128552
0.0119978
0.00699627
0
0.31814
0.127455
0.0997408
0.0761983
0.142118
0.190603
0.104288
0.0345196
0.0212636
0.108113
0.033
0.0515304
0.064492
0.0689061
0.220881
0.0749795
0.143857
0.0127582
0.251645
0.0820589
0.0623077
0.0667541
0.0370822
0.104581
0.0186021
0.0101535
0.00915475
0.176954
0.0839847
0.0850371
0.0776066
0.059696
0.136759
0.0269024
0.0803283
0.0829109
0.15341
0.130025
0.112469
0.0986165
0.0476031
0.109739
0.0122827
0.214725
0.00549285
0.0798675
0.0269601
0.0956725
0.0802746
0.128993
0.125962
0.0152355
0.48115
0.0407801
0.05387
0.0199866
0.0596665
0.0182352
0.00717299
0.0250182
0.0230482
0.195318
0.0627377
0.0464839
0.0337431
0.0408342
0.00518622
0.0154413
0.0469737
0.0360659
0.351777
0.0721596
0.0281253
0.00724127
0.0158202
0.00527408
0.0225848
0.0267532
0.0223079
0.456727
0.0248416
0.0208965
0.00601557
0.00119042
0.0156095
0.0251403
0.0290182
0.0233406
0.559572
0.079554
0.0196457
0.0281653
0.0151624
0.0379834
0.0800922
0.0951024
0.0622646
0.192583
0.0362419
0.0677295
0.0334511
0.0257555
0.0616482
0.0743527
0.0485786
0.0207808
0.151734
0.024634
0.125568
0.154839
0.0667049
0.0711827
0.139989
0.0895739
0.0468735
0.284827
0.110985
0.0373541
0.098833
0.058244
0.0817825
0.127374
0.0777525
0.0257558
0.169751
0.215118
0.12384
0.254598
0.0964272
0.0335901
0.0720469
0.107211
0
0.126584
0.019101
0.0717731
0.0749351
0.0342797
0.0706221
0.144968
0.156682
0
0.110697
0.0151387
0.0956656
0.107426
0.0596393
0.0283679
0.0788762
0.0567511
0
0.130547
0.266334
0.172442
0.106653
0.0272923
0.081854
0.193584
0.128747
0
0.135918
0.26321
0.18713
0.144084
0.0452563