0.134526
0.0710135
0.135938
0.0176886
0.105007
0.0293218
0.0464626
0.0203395
0.0973625
0.0546599
0.0345474
0.1292
0.113697
0.178819
0
0.0971857
0.121959
0.0624441
0.122664
0.0601368
0.15645
0.137252
0.150405
0.0950331
0.092458
0.0991173
0.111813
0.0819592
0.0559717
0.105475
0.113518
0.390085
0.0695336
0.213262
0.187068
0.0616749
0.0158789
0.0244307
0.103451
0.100769
0.10171
0.00514177
0.0874982
0.18095
0.0400889
0.0296673
0.0299718
0.0982801
0.0592095
0.0944618
0.152779
0.206579
0.147487
0.0446776
0.0727852
0.150984
0.146808
0.0812723
0.263085
0.0235003
0.118439
0.0707821
0.0146602
0.189793
0.220758
0.220646
0.0763597
0.148325
0.0839256
0.193942
0.0585864
0.0854776
0.0187571
0.0190302
0.05057
0.0203043
0.0352517
0.0937681
0.147945
0.0422512
0.0186868
0.0441313
0.0349378
0.07242
0.0048104
0.0281428
0.0120314
0.192523
0.0786953
0.0476732
0.143494
0.115778
0.051025
0.0309509
0.0241093
0.0587788
0.193422
0.08433
0.0633051
0.513987
0.322619
0.0128881
0.00423367
0.007164
0.00839697
0.173205
0.222718
0.162356
0.0183923
0.024198
0.0471364
0.00260585
0.0348453
0
0.0699839
0.0282206
0.0132559
0.0695953
0.0829139
0.108167
0.0330148
0.0339683
0.0121319
0.0459359
0.033418
0.0323922
0.356948
0.241663
0.0547905
0.00434308
0.0285358
0
0.0383248
0.0600543
0.0805499
0.560373
0.442321
0.116919
0.0319578
0.03889
0
0.012717
0.0276043
0.137554
0.0884762
0.0504524
0.0583905
0.0333136
0.0286779
0.0128099
0.0330963
0.0439529
0.0681647
0.0585547
0.0262665
0.0511662
0.0334498
0.042936
0.00182998
0.0924441
0.0509876
0.057183
0.47116
0.16789
0.0311506
0.0156059
0.0203174
0
0.00561644
0.0418798
0.313138
0.248481
0.0350267
0.0187628
0.0153097
0.0257616
0
0.100865
0.173034
0.522907
0.0387066
0.0474414
0.0766043
0.0140047
0.00905185
0.0174245
0.0935931
0.0685999
0.0422713
0.0654218
0.057672
0.0571086
0.00772043
0.0174695
0.127471
0.0995919
0.0697927
0.0633854
0.0665234
0.0193362
0.0218649
0.00787411
0.00628599
0.0455768
0.18338
0.31398
0.422979
0.0658501
0.0665166
0.00659613
0
0.00935028
0.195413
0.276199
0.322729
0.284527
0.0497512
0.0171225
0.0351431
0.0131502
0.131561
0.119307
0.120307
0.0402403
0.050109
0.0143267
0.0688379
0.117174
0.0840752
0.211388
0.0547554
0.144061
0.124797
0.0234938
0.0522177
0.0382809
0.0706392
0.0272234
0.0804269
0.158728
0.330054
0.239427
0.0995732
0.0608555
0.0677745
0.183059
0.123433
0.192868
0.163881
0.152091
0.246093
0.0762221
0.0246659
0.153122
0.134397
0.0847188
0.128437
0.024157
0.0810738
0.0816959
0.017378
0.0180193
0.111036
0.128868
0.0220462
0.183292
0.0803853
0.255502
0.127349
0.0178248
0.0909736
0.142857
0.146241
0.0952938
0.118372
0.121781
0.038676
0.166534
0.0924986
0.0732438
0.146955
0.179878
0.0832178
0.23669
0.116276
0.198918
0.104538
0.0747142
0.0101578
0.0279234
0.0700798
0.028916
0.0697155
0.123911
0.25375
0.114784
0.0120322
0.0917135
0.0754723
0.160988
0.128526
0.0569969
0.10794
0.156689
0.100226
0.0922534
0.0382642
0.137064
0.17317
0.0980393
0.166486
0.112714
0.195096
0.0597865
0.0313437
0.198097
0.148927
0.196857
0.125479
0.183558
0.0766544
0.141002
0.0951165
0.173663
0.0970758
0.0500696
0.0591175
0.107206
0.0865756
0.12923
0.0763094
0.0769946
0.0729685
0.110954
0.146631
0.0535635
0.0620578
0.325375
0.0974395
0.0932866
0.0836183
0.032299
0.0751014
0.0919167
0.184512
0.0808949
0.122588
0.12867
0.0801431
0.0850803
0.0637711
0.129064
0.315306
0.176851
0.0508966
0.263198
0.0802902
0.0628045
0.0641357
0.034057
0.0564978
0.0824327
0.082386
0.0173235
0.0890943
0.0244501
0.028737
0.00882218
0.00694046
0.120739
0.12266
0.166664
0.0493627
0.0149276
0.00612727
0.0249808
0.00621526
0.0642639
0.0557716
0.0982394
0.157364
0.0594851
0.0919549
0.0589208
0.0409396
0.0122424
0.00548641
0.0666628
0.289516
0.701136
0.176892
0.0632612
0.0292232
0.0263284
0.00798106
0.0397042
0.0562098
0.0692362
0.0602363
0.00874531
0.000697365
0.00105008
0.00977681
0.0079077
0.0215083
0.203623
0.235891
0.0587779
0.000933406
0
0.000150011
0.00628092
0.0200015
0.0276319
0.0416942
0.214096
0.364539
0.018246
0.00294429
0
0.000946145
0.000905468
0.0126902
0.211645
0.655338
0.366358
0.000133344
0
0
0
0.000983477
0.00778831
0.17597
0.212453
0.0191109
0.000190437
0.00089486
0
0.00112881
0.00657308
0.0181488
0.28209
0.232948
0.015279
0.00133306
0.00149143
0
0.000390988
0.00169397
0.0435724
0.181165
0.52239
0.0738782
0
0
0
0
0.000112141
0.00249962
0.424803
0.457434
0.0231114
0
0
0
0
0.0021415
0.0345451
0.244461
0.0870118
0.00260026
0.000608254
0.000250348
0
0.000187892
0.0104664
0.132016
0.158973
0.0141301
0
0
0
0
0.010646
0.0607289
0.27119
0.472784
0.169948
0.00196371
0
0
0
0
0.0140204
0.198978
0.362227
0.028455
0
0
0
0
0.00122577
0.0609759
0.533427
0.0615989
0.002192
0
0
6.25469e-005
0.00438138
0.0298076
0.117235
0.246384
0.0159275
0.00814733
0
0
0.000437828
0.011721
0.0850213
0.199493
0.191905
0.12181
0.00595041
0
0
0
0.00271785
0.0102594
0.187022
0.530388
0.0116547
0
0
0
0
0.0190249
0.060957
0.484952
0.378664
0.0137172
0.00720229
0.0101986
0.00351938
0.00322421
0.0141459
0.111901
0.21941
0.0794534
0.0316653
0.0309377
0.0461973
0.0176987
0.0117966
0.029687
0.0703636
0.158468
0.0416209
0.00332554
0.0014116
0.000283808
0
0
0.0121568
0.174093
0.57818
0.150828
0.0154243
0.0166174
0.012689
0.00169044
0
0.0421368
0.360758
0.452281
0.0610135
0.0544019
0.0654331
0.0747389
0.0371515
0.0165047
0.0425715
0.073322
0.105066
0.0478055
0.0522787
0.0554919
0.0549265
0.0395569
0.0669724
0.0458167
0.11203
0.109038
0.0624379
0.0264146
0.0367066
0.0465841
0.0235841
0.000997449
0.151889
0.566327
0.272789
0.0331608
0.0460843
0.0289333
0.058663
0.0342048
0.0677224
0.113519
0.384147
0.142281
0.0567762
0.0513016
0.0859081
0.0620762
0.0257964
0.119397
0.0374482
0.110949
0.0771046
0.0597565
0.161912
0.070577
0.0600621
0.0309735
0.21142
0.0364753
0.0787209
0.0251327
0.15507
0.0473267
0.0324952
0.0691813
0.0110894
0.190775
0.015205
0.140428
0.0899689
0.0557608
0.178799
0.104579
0.41644
0.235997
0.340146
0.0242041
0.0460252
0.0169584
0.144776
0.0408999
0.0651098
0.152714
0.0285154
0.0585445
0.0250201
0.0519019
0.0602773
0.0447682
0.0508002
0.173118
0.170932
0.0489322
0.124033
0.0428541
0.07848
0.0537552
0.0237525
0.0678999
0.07675
0.184957
0.0394336
0.0787743
0
0.0601243
0.0284715
0.0647993
0.0401573
0.169025
0.430483
0.27496
0.287972
0.0117698
0.179302
0.0653993
0.0222746
0.00743461
0.0177098
0.0751349
0.0538657
0.0295033
0.0208555
0.0130794
0.00336464
0.00250628
0.00231313
0.120044
0.372334
0.119597
0.0271097
0.0125133
0.00585567
0.00121567
0.0010814
0.00302104
0.0516884
0.234733
0.145688
0.0564675
0.00624916
0.0167726
0.00490421
0.00150377
0.000256089
0.203812
0.740932
0.218862
0.0186766
0.0063204
0.00392593
0.000275158
0.000214824
0.00354048
0.153425
0.305913
0.0203316
0.00181417
0
0.000241673
8.05577e-005
0.000479876
0.035019
0.366944
0.297173
0.00362567
0
0
0
0.00029641
0.00174821
0
0.175457
0.44393
0.0523126
0.000240033
0.00170553
0.00113702
0
0
0.0274737
0.425606
0.412318
0.04009
0.0256087
0.00447728
0.000162432
0.00207487
0.0117576
0.0693101
0.451486
0.132337
0.0140056
0
0.000908898
0.00136335
0.00112083
0.00635136
0.282843
0.420962
0.0762607
0.0363167
0
0.0102992
0.0134803
0.00237227
0.0176853
0.0869137
0.428758
0.191068
0.0497064
0.0853454
0.0231752
0.0157497
0.0181758
0.0444595
0.173167
0.278347
0.0900554
0.0739689
0.0535377
0.1494
0.143095
0.0625248
0.0584675
0.365861
0.141081
0.0126341
0.00929179
0
0.00605368
0.00718225
0.0060654
0.126854
0.304452
0.0158028
0
0
0
0.00065242
0.00153287
0.049074
0.476993
0.234305
0.0898966
0.017487
0.0154863
0.00218111
0.0695031
0.0806967
0.052812
0.161187
0.317657
0.00862594
0
0
0
0.00456694
0.0139888
0.0544925
0.455865
0.0532334
0.00150755
0
0
0
0.00217009
0.00734415
0.16742
0.378308
0.00122496
0
0
0
0
0.0132811
0.0621939
0.455843
0.19473
0.137953
0
0
0
0
0.00235591
0.0411986
0.149401
0.338954
0.0594265
0
0
0
0
0.0116844
0.208828
0.484816
0.211752
0
0
0
0
0
0.00837856
0.114129
0.302819
0.0275599
0
7.86735e-005
0.00023602
0
0
0.0233432
0.227873
0.222305
0.00662006
0.0045446
0
0
0
0
0.0220853
0.36091
0.36053
0.0386418
0
0
0
0
0
0.0728293
0.617569
0.235395
0.00419352
0.00129502
0.000358342
0.00164275
0.00105435
0.00435976
0.0429915
0.320538
0.137219
0.00296298
0.00906512
0.00349779
0.0113272
0.00305153
0.0469567
0.0299621
0.212802
0.0447467
0.00955146
0.000185002
0
0
0
0.00770471
0.0922631
0.65729
0.148379
0.000185002
0.00129502
0.00500479
0.0167242
0.0287006
0.0620965
0.109607
0.450227
0.102565
0.00129502
0.00444526
0.00880213
0.0444321
0.0258069
0.0440252
0.00974636
0.0423796
0.0118532
0.00462216
0.0130002
0.0445403
0.344587
0.124436
0.0573872
0.00844118
0.00945462
0.00739451
0.0271514
0.000471031
0.0107085
0.169722
0.140235
0.0401217
0.0380467
0.10524
0.0305342
0.000471031
0
0.0650618
0.719252
0.364342
0.0410547
0.0102115
0.0117407
0.00990389
0.030368
0.0134218
0.0244384
0.057396
0.0167968
0.0722239
0
0.0232561
0.0197441
0.0144615
0.00322199
0.0506277
0.159127
0.273185
0.262009
0
0.0361221
0.0194509
0.00317449
0.00951695
0.01422
0.033081
0.0326272
0.0988789
0.00266231
0.0348464
0.0926471
0.0235522
0
0.0215578
0.124647
0.691598
0.280128
0.0400128
0.0200509
0.0518401
0.00768026
0.00015299
0.0476462
0.176632
0.176375
0.0793541
0
0.00432989
0.00174525
4.81104e-005
0
0.11436
0.437481
0.236282
0.0464436
0.00643116
0.00685389
0.000650179
0
0
0.0112072
0.0936046
0.390645
0.128606
0.0102571
0.00330778
0.00288606
0.000336773
0
0.0232523
0.176413
0.550793
0.243438
0.00496816
0.019818
0.00431137
0
0
0.0763776
0.363784
0.158437
0.0175294
0.00554984
0.00448201
0.00019553
0
0.0293649
0.209356
0.407647
0.135308
0.0735826
0.0327446
0.000528556
0.000913739
0.00517785
0
0.0116574
0.216793
0.461631
0.160414
0.00382258
0.00769478
0.00136871
0
0.00414404
0.0371744
0.267525
0.358648
0.160252
0.0603673
0.000317134
0
0
0.0898064
0.215506
0.170711
0.0928488
0.238727
0.122683
0.0243639
0.0746199
0.0329759
0.100936
0.0839068
0.0481225
0.0701359
0.143253
0.247661
0.149742
0.216186
0.082546
0.0104963
0.0471472
0.216125
0.261947
0.246755
0.211357
0.0165531
0.0790651
0.0135198
0.0768066
0.0548531
0.235879
0.308538
0.242533
0.166522
0.0614465
0.179525
0.051111
0.126271
0.0217662
0.0194126
0.0173222
0.0134276
0.0750476
0.0741211
0.108244
0.212635
0.241777
0.00632326
0.00209904
0.0020179
0.000745542
0.00232615
0.0104429
0.0435482
0.50114
0.229253
0.0788148
0.0957286
0.143826
0.0979961
0.021212
0.0204843
0.056999
0.144843
0.300954
0.209358
0.0760578
0.0180632
0.00994881
0
0.00104797
0.0320407
0.469002
0.242306
0.00111445
0
0
0
0.0031463
0.0297174
0.0549859
0.400996
0.173169
0.00780117
0
0.0110991
0.0481422
0.0711168
0.167575
0.192257
0.300063
0.1878
0.217743
0.0415829
0
0
0.0238337
0.0304881
0.069013
0.374265
0.226937
0.135578
0.0234418
0.0776937
0.181389
0.192707
0.135443
0.0752719
0.205963
0.0109806
0.00152546
0
0.00589963
0.0465144
0.0537486
0.247645
0.101034
0.0486565
0
0
0
0.000842804
0.022906
0.155994
0.577425
0.0603488
0.0104489
0.0355664
0.0106778
0.00109739
0.0412974
0.195381
0.125978
0.143259
0.0154627
0.0298259
0.00432196
0.00353615
0
0.00589963
0.140804
0.452842
0.412543
0.0105222
0.00659332
0
0
0
0
0.00734292
0.195921
0.402126
0.030353
0
0
0.00128842
0.0136698
0.0328446
0.019255
0.202474
0.247695
0.0645203
0
0.000775925
0.00167556
0.00127198
0
0.13806
0.525565
0.309324
0.00963995
5.81619e-005
0
0.00210322
0.0553844
0.0681526
0.136681
0.358813
0.188292
0.0599446
0
0
0.00199461
0.150332
0.137935
0.018591
0.0553678
0.0940098
0.0411928
0
0
0.0130573
0.495815
0.327216
0.0532442
0.00364796
0.00758984
0.00503068
0.00364706
0
0.00144333
0.184376
0.211543
0.0727934
0.0898159
0.0859866
0.0499519
0
0
0.000701656
0.400942
0.420928
0.166807
0.0312831
0.00852815
0.010185
0.00442249
0.00815882
0.0469548
0.0503002
0.0178791
0.0497635
0.0168588
0.0552197
0.0654529
0.00949568
0.00298145
0.0296832
0.0817918
0.413993
0.253026
0.214067
0.0187666
0.0249252
0.00361051
0.0377624
0.124066
0.0696515
0.0229483
0.0247632
0.048268
0.0769358
0.0704867
0.0178713
0.0297279
0.0873488
0.081487
0.226329
0.400211
0.408128
0.0622324
0.00939258
0.0115887
6.88075e-005
0.000829018
0.0243707
0.224403
0.159363
0.0540622
0.00204823
0.00148488
0.000297061
0
0
0.0313763
0.350546
0.405769
0.0304136
0.00729544
0.0043489
0.00108216
0.00103353
0.00224844
0.00761698
0.122185
0.267932
0.131073
0.00612262
0.00252504
0.00163404
0.00188924
0
0.00749804
0.176052
0.574582
0.247153
0.00214737
0.0176753
0.00946437
0
0.000828258
0.0320514
0.307548
0.330578
0.0283393
0.00228817
0.001364
0.000339413
0
0.00579781
0.0396359
0.261042
0.281615
0.0647836
0.00373699
0
0
0.000592547
0
0.0016653
0.0987937
0.457575
0.301036
0.0049766
0.00554374
0.00296844
0
0.00196945
0.0120965
0.0763052
0.393419
0.276725
0.0403221
0
0
0.0045268
0.0208652
0.107547
0.298136
0.2439
0.117615
0.0271589
0.0333524
0.019891
0.079426
0.049347
0.147924
0.32349
0.309421
0.0809997
0.0389893
0.0570658
0.0544866
0.00754467
0.00642113
0.0587166
0.129232
0.333393
0.27676
0.173192
0.0639013
0.0301787
0.118403
0.0439231
0.0926468
0.127237
0.25742
0.227586
0.158265
0.128948
0.078621
0.170442
0.133082
0.0654649
0.109018
0.117276
0.00775164
0.0057394
0.00658544
0.0411902
0.219433
0.421133
0.0953152
0.0123281
0.00908925
0
0
0.00458059
0.082919
0.159793
0.200134
0.101471
0.0358036
0.0702321
0.0335815
0.0231591
0.0329531
0.0340958
0.192023
0.651358
0.150816
0.00700936
0.00332603
0.00536519
0.00755159
0.00655919
0.0418597
0.132814
0.31383
0.0713797
0
0
0.0373764
0.0507968
0.0342251
0.0595812
0.164707
0.119866
0.0411131
0.0640176
0.180204
0.204768
0.18345
0.0449465
0.0520595
0.174265
0.421835
0.0695867
0.0180485
0.0220592
0.0682427
0.112447
0.0449316
0.0573353
0.124157
0.144797
0.127134
0.155887
0.236647
0.196781
0.397911
0.151321
0.0448341
0.0403259
0.00929777
0.00896121
0.0516035
0.279612
0.153064
0.0809509
0.00857342
0.0125539
0.00567962
0.00434275
0.00108764
0.0122211
0.341532
0.361076
0.0892838
0.00653463
0.00145332
0.0149034
0.0441159
0.0907291
0.119753
0.332234
0.0958149
0.0995905
0.0372717
0.00641967
0.00336098
0.00719406
0.0385784
0.198253
0.567227
0.119602
0.00563875
0.00367712
0.00325162
0.000651748
0.0042288
0.00474458
0.00446484
0.287163
0.255568
0.0503538
0.00111529
0.000166772
0
0.00650685
0.0296081
0.0347442
0.287658
0.172457
0.0419982
0.00723295
0
0.00162588
0.00397446
0.0266724
0.171557
0.521437
0.0809863
0.00223468
0.000421957
0.00161333
0.0077019
0.00675246
0.0164679
0.102146
0.553582
0.140889
0.00475568
0.00182309
0.00445189
0
0.00254698
0.0802533
0.162811
0.22676
0.0876981
0.0410386
0.0123737
0
0
0.000738416
0.105188
0.345677
0.232163
0.0726149
0.0137559
0.00796042
0.00465419
0.0243988
0.00279494
0.0175024
0.106262
0.466387
0.206537
0.0143834
0.00775228
0.0105788
0.0168205
0.00438664
0.020652
0.180046
0.463364
0.26556
0.0171474
0.00677882
0.00857139
0.0495778
0.0816876
0.0638044
0.0322354
0.0410444
0.0375996
0.0378883
0.0326991
0.0379165
0.0435747
0.0551868
0.0716172
0.195307
0.287247
0.412959
0.0357146
0.00314635
0.0330444
0.0550589
0.0353819
0.0489756
0.0339862
0.0830266
0.0569123
0.088477
0.0522843
0.0556355
0.0366705
0.0206521
0.0334579
0.100135
0.304575
0.469974
0.127256
0.0427619
0.0406941
0.00188579
0.00104067
0.00307036
0.0608383
0.162879
0.220539
0.0230741
0.00104434
0.00213416
0.00577362
0
0
0.0644302
0.338482
0.406523
0.0451243
0.00731037
0.00890664
0.00131821
0.000339082
0.0013456
0.0138574
0.102268
0.295693
0.149657
0.00288007
0.00158778
0.00346417
0
0
0.036766
0.173153
0.500554
0.342153
0.0115871
0.00346417
0.00159517
0
0
0.0129097
0.208187
0.404333
0.0527102
0.00307148
0.00246078
0
0.0148515
0.059109
0.0319546
0.133908
0.325089
0.0700251
0.00736204
0
0.000957104
0
0
0.0237735
0.0948785
0.415567
0.306006
0.0279365
0.000957104
0
0.0190972
0.0853199
0.12112
0.0952833
0.35403
0.330196
0.150853
0.0117176
0.00123494
0.0608861
0.259643
0.107164
0.129962
0.199703
0.120884
0.02871
0.00493976
0.0392168
0.0625074
0.244855
0.102433
0.0821976
0.135475
0.107586
0.0743701
0.0380997
0
0.0943695
0.358656
0.301631
0.259029
0.177985
0.10529
0.102629
0.0216927
0.0531334
0.0821404
0.258487
0.200238
0.292903
0.134528
0.0320876
0.0314202
0.056984
0.0734079
0.144659
0.194283
0.0318639
0.0223027
0.0458176
0.0640901
0.0959332
0.062698
0.191397
0.472477
0.217348
0.00389515
0
0.0309694
0.0538383
0.0602019
0.247482
0.133285
0.0427289
0.0791813
0.0520486
0.0912206
0.0386409
0.0627788
0.0914909
0.151499
0.209931
0.0471602
0.105708
0.00999075
0
0.0287981
0.0977811
0.11472
0.427067
0.188659
0.178575
0.029513
0.0223989
0.0345687
0.0282542
0.0548527
0.0504003
0.201259
0.107615
0.138055
0.0919427
0.0949814
0.148455
0.122967
0.214002
0.240857
0.13155
0.140714
0.016614
0.031232
0.0166555
0.112611
0.0415974
0.0756071
0.0871441
0.230822
0.115186
0.0822061
0.0387234
0.0555156
0.484021
0.230502
0.104298
0.309389
0.118703
0.00262575
0.0614407
0.0658105
0.0788994
0.119007
0.053677
0.0401447
0.0477274
0.00720224
0.00085148
0.0107655
0.150485
0.348097
0.179037
0.0213982
0.00064708
0
0.00085148
0.0247645
0.0488942
0.169944
0.076264
0.227026
0.113818
0.0142435
0.0724004
0.0172903
0.00997156
0.0310444
0.65909
0.383788
0.0783329
0.0249364
0.00244252
0.00836129
0.00684105
0.00406371
0.000725118
0.135531
0.360135
0.22794
0.0103615
0.00110063
0
0.00406371
0.0131371
0.00160769
0.0529911
0.242592
0.290456
0.074188
0.00614805
0.0042165
0.0141269
0.00452848
0.0129684
0.388683
0.398446
0.0635195
0.011647
0.00739003
0
0.00290307
0.0200457
0.00677359
0.210715
0.423088
0.101722
0.0238372
0.0136251
0.00356795
0.0122687
0.0292352
0.00311472
0.0253329
0.0976018
0.236735
0.207289
0.033292
0.0178535
0.0334261
0.0244331
0.0126483
0.0103174
0.018557
0.298652
0.367632
0.0574608
0.0125527
0.0249824
0.0135018
0.0075864
0.135573
0.233786
0.0829081
0.140151
0.136573
0.0151074
0.022229
0.00702033
0.0107784
0.0266723
0.0259321
0.120869
0.505448
0.353652
0.0257
0.0149895
0.0617074
0.046007
0.0741374
0.119898
0.0821963
0.0376134
0.0798828
0.0902773
0.0675426
0.051313
0.0858467
0.0152264
0.161608
0.216749
0.28224
0.150236
0.115348
0.054128
0.0508814
0.0942563
0.159449
0.0975295
0.114002
0.00205337
0.0925799
0.126457
0.0936936
0.0468519
0.150673
0.0586008
0.100621
0.295757
0.123884
0.255104
0.184009
0.0637176
0.0024188
0.00610259
0.000427491
0.0110824
0.0488521
0.171979
0.148191
0.0264803
0.00360127
0
0
0
0.0139282
0.0298361
0.254816
0.498769
0.052747
0.000321282
0.00294171
0.0104219
0.00180994
0.00664941
0.0482105
0.103842
0.180844
0.0824694
0.00440845
0
0
0
0
0.00809663
0.110328
0.632068
0.16549
0.00053547
0
0
0
0.00892713
0.0127483
0.13295
0.3501
0.0583208
0.000374089
0
0.00225567
0.0152556
0.0523742
0.0545777
0.138467
0.396469
0.254935
0.0361779
0
0
0
0
0
0.0363789
0.394848
0.110902
0.00261862
0
0
0
0.00280327
0.00559817
0.046293
0.448692
0.371454
0.0397722
0
0.0217116
0.0530902
0.0806489
0.118704
0.132753
0.149751
0.193276
0.0604203
0.0321233
0.0352802
0.0377511
0.0356873
0.116613
0.132097
0.0635216
0.0887367
0.0616463
0
0.00811005
0.00347574
0.00374659
0.0113722
0.0520464
0.252052
0.524279
0.0804672
0.034254
0.0170945
0.00579289
0.000535226
0.00867364
0.0543516
0.10525
0.553218
0.233139
0.111179
0.0154319
0.00571481
0.00752397
0.031809
0.0253058
0.0473665
0.0540489
0.0893595
0.160207
0.0127802
0.035505
0.0181903
0
0.00886731
0.0461219
0.0430879
0.190004
0.222708
0.00856558
0.000982476
0
0.00222846
0.0125182
0.0356717
0.261754
0.355819
0.512389
0.0592002
0.0278902
0.0109142
0
0.00435146
0.0222052
0.0614659
0.493485
0.0403673
0.0413873
0.0403997
0.0272832
0.0667858
0.0322052
0.0360812
0.0244381
0.0709495
0.0959699
0.197803
0.0789495
0.0775873
0.251703
0.0720939
0.02776
0.055044
0.0160721
0.189293
0.24497
0.0524693
0.0163699
0.0143958
0.0146323
0.0153702
0.0199816
0.129103
0.13857
0.758616
0.146373
0.0462192
0.0429076
0.0165128
0.00864643
0.00358734
0.0121419
0.0663124
0.14626
0.203222
0.0571833
0.129652
0.0327404
0.00223318
0.0258317
0.0116249
0.0275848
0.0938385
0.576478
0.088964
0.036524
0.00712478
0.00088537
0.00823863
0.00674069
0.0679449
0.421668
0.182717
0.0366334
0.0196542
0.00205155
0
0.00196158
0.00160493
0.0298845
0.274259
0.417838
0.0357527
0.022134
0.000147208
0
0.00117695
0.000962956
0.00844706
0.0660072
0.444217
0.18934
0.0228917
0.0054871
0.00365807
0
0.00198169
0.0560332
0.0390132
0.331072
0.30684
0.0289538
0.00781849
0.0062911
0.0013336
0.0141054
0.0189265
0.225357
0.435894
0.0825817
0.0117575
0
0
0.00229023
0.00159317
0.0386017
0.153723
0.357445
0.158678
0.00789997
0.00754372
0.016958
0.0232993
0.0127876
0.0309069
0.0106392
0.194268
0.198342
0.0292852
0.107745
0.102626
0.00592173
0.00842612
0.000559518
0.0024651
0.0253183
0.0394067
0.0432141
0.373696
0.425673
0.0475012
0.00997833
0.0245123
0.0309416
0.160045
0.111158
0.0192382
0.090303
0.105261
0.0333105
0.0125522
0.00391662
0.00109014
0.0280707
0.0513592
0.0207084
0.307496
0.472851
0.128294
0.0196146
0.0681164
0.0565688
0.0718349
0.00527729
0.129198
0.0373605
0.11463
0.0874133
0.076798
0.0429643
0.0411286
0.0405247
0.000753898
0.264898
0.0379796
0.274476
0.109382
0.0473812
0.108171
0.112261
0.123358
0
0.203291
0.110767
0.127289
0.0978774
0.054911
0.0847922
0.0720186
0.102487
0
0.434253
0.0694418
0.183329
0.0418941
0.051346
0.00514689
0.00503895
0.0105807
0
0.080189
0.0416541
0.245127
0.0802839
0.00548772
0.00918151
0.000335691
0.00134276
0
0.0283305
0.0433723
0.67067
0.251149
0.0288574
0.0176659
0.00835063
0.0251388
0
0.110965
0.040244
0.129585
0.0310807
0.0179179
0.0444473
0.00276007
0.0143656
0.0063034
0.0610985
0.0463051
0.30636
0.215857
0.0810242
0.00279725
0
0
0
0.000270561
0.0157028
0.366094
0.183154
0.0322877
0.0200424
0.0033448
0
0
0
0.012245
0.450568
0.375984
0.036155
0.0186924
0.00192309
0.0137317
0.0107034
0.00398176
0.0144228
0.205756
0.210338
0.0664494
0.0392093
0.00635055
0.00672713
0.00642204
0
0.00939687
0.340927
0.351758
0.0589754
0.0197553
0.0031458
0
0
0
0.00131133
0.197626
0.403979
0.0469017
0.0269302
0.000449399
0
0
0
0.00232886
0.0737121
0.521475
0.249566
0.0432145
0.00524299
0
0
0
0.00236004
0.138512
0.297761
0.0867847
0.047368
0.00332959
0
0
0
0
0.0573716
0.340762
0.274532
0.123466
0.000187451
0
0
0
0.000682903
0.00932481
0.16474
0.305898
0.445041
0.0286567
0.00328966
0
0
0.000353399
0.00134308
0.0247214
0.374587
0.139667
0.00974155
0
0
0
0
0.0143097
0.0860887
0.274636
0.478078
0.0275355
0
0
0
0
0.00114461
0.00603965
0.274857
0.328134
0.178825
0.0139464
0
0
0.000992735
0.00184365
0.0065796
0.12356
0.168544
0.55311
0.0756444
0
0
0.000595641
0.00110619
0.000939943
0.0258513
0.376116
0.111327
0.00566266
0
0
0
0
0
0.101131
0.255905
0.383142
0.0523576
0
0
0
0
0.00086225
0.0722952
0.0550613
0.485217
0.144284
0.00827444
0.00193207
0
0
0
0.00376689
0.022658
0.419047
0.285423
0.043804
0.0135245
0
0.00038818
0.00155272
0.000538126
0.122218
0.360259
0.0965383
0.0024172
0.00136585
0.00504106
0
0.00275084
0.0882699
0.0432742
0.354187
0.228497
0.0215302
0.00765916
0.00840177
0.00271726
0.0125196
0.0470849
0.0274214
0.408162
0.430483
0.0847445
0.0227776
0
0.00201704
0.0129441
0.00115344
0.0174707
0.207487
0.311516
0.116448
0.0364901
0.00217355
0.0251306
0.0482104
0.012803
0.0317769
0.31451
0.24778
0.0314231
0.0319597
0.00217355
0.0141193
0.0807778
0.0229375
0.0461569
0.197778
0.137889
0.0324306
0.0606046
0
0.0281434
0.0846595
0.029889
0.0304969
0.0427648
0.126487
0.120198
0.027897
0.0254594
0.113779
0.0549271
0.0312561
0.029665
0.00217111
0.0527352
0.0816559
0.012646
0.210792
0.516699
0.308878
0.035355
0.0567364
0.0832318
0.121342
0.0573435
0.0943983
0.000254758
0.045967
0.0423665
0.0507624
0.0926689
0.0144818
0.0802379
0.0676664
0.0729169
0.0709808
0.160067
0.310251
0.125297
0.0876404
0.118495
0.14567
0.00539399
0.165598
0.0737009
0.0670604
0.0556229
0.067699
0.0541313
0.137448
0.219138
0
0.237605
0.0387942
0.0922902
0.0207462
0.0338461
0.109796
0.0769975
0.153158
0.123301
0.179136
0.142492
0.0423746
0.132168
0.122043
0.0594424
0.128821
0.284682
0.142572
0.0942461
0.0567299
0.163881
0.075722
0.053533
0.0443916
0.0329698
0.0749261
0
0.208208
0.0518483
0.100235
0.0313409
0.0436723
0.0959958
0.0178922
0.0727956
0.0153018
0.192097
0.0857583
0.174139
0.174806
0.117193
0.0356175
0.0507395
0.145836
0.0265285
0.211039
0.018126
0.156142
0.0462328
0.0345521
0.166683
0.0249514
0.0828062
0.050865
0.274078
0.121184
0.233286
0.115879
0.192959
0.030332
0.0207024
0.0866876
0.028039
0.0156557
0.0435821
0.16491
0.188312
0.0574142
0.0206671
0.0129523
0.0449843
0.0168234
0
0.0524631
0.346144
0.496444
0.0815758
0.0691978
0.0261265
0.0845825
0.0160774
0.0824007
0.0863339
0.0905039
0.139546
0.100506
0.0599932
0.0373953
0.0704542
0.00240334
0.10794
0.0546309
0.160434
0.28664
0.0999046
0.0384217
0.00350797
0.0056157
0
0
0.0154666
0.163927
0.361407
0.156391
0.125216
0.0257848
0.0621327
0.00445806
0
0.00764681
0.104753
0.320065
0.355934
0.0596358
0.0181583
0.0181847
0
0.0535531
0.0429811
0.186773
0.215508
0.109147
0.0980997
0.0401199
0.135936
0.0312064
0.0862775
0.0877892
0.215736
0.181714
0.205357
0.257239
0.0518671
0.0370688
0.00464437
0
0.00240921
0.0215247
0.0719224
0.276315
0.556435
0.101252
0.00903411
0.00633003
0.00967331
0.00430701
0.00671667
0.0032903
0.330068
0.12559
0.0532712
0.0971055
0.0325106
0.0886257
0.0409106
0.0656463
0.036118
0.11387
0.228499
0.0805631
0.0482317
0.0443102
0.0851783
0.0952153
0.0876311
0.00710277
0.154573
0.41177
0.180187
0.012263
0.00217404
0.0268632
0.00750921
0.00459837
0.00148687
0.179205
0.363083
0.423846
0.0773518
0
0.0173494
0.020175
0.0151061
0.016877
0.151813
0.172027
0.0522669
0.0142507
0.0286216
0.0864827
0.0774467
0.0817682
0.0188992
0.12224
0.169986
0.106965
0.0287363
0.0938234
0.0801582
0.0752437
0.0818008
0.121564
0.125298
0.229672
0.330151
0.102924
0
0.0150698
0.0599497
0.0269742
0.0316148
0.266161
0.133354
0.269765
0.225329
0.0279444
0.0377228
0.0682558
0.018019
0.0288578
0.197336
0.0945372
0.0813853
0.0345001
0.047393
0.214332
0.0651465
0.0523505
0.11318
0.135783
0.123108
0.103001
0.0578415
0.0303845
0.254818
0.0439591
0.0760147
0.0617326
0.13638
0.0865547
0.143844
0.15517
0.0619844
0.0785284
0.0196413
0.0201397
0.130383
0.0885624
0.0443977
0.189815
0.168791
0.0714619
0.129137
0.0114454
0.0290897
0.21556
0.0489276
0.0939321
0.0523864
0.0920788
0.113707
0.18392
0.0557351
0.125735
0.087411
0.0910281
0.0746109
0.0953363
0.21572
0.242824
0.215412
0.0801178
0.10158
0.164813
0.0849501
0.0255582
0.0749732
0.138403
0.0836093
0.177486
0.00143361
0.0351098
0.0529769
0.0246968
0.0949314
0.0170797
0.103329
0.130447
0.181573
0.011825
0.0307422
0.20875
0.169306
0.0795509
0.107688
0.130755
0.193785
0.217791
0.0100353
0.0396526
0.0649854
0.0686394
0.253057
0.116806
0.111191
0.10515
0.220583
0
0.0296847
0.080336
0.271642