0.00689015
0.00138112
0.0054745
0.0167542
0.0938447
0.0690954
0.0799955
0.0298484
0.0174444
0.000652879
0.00175196
0.0586409
0.198358
0.187968
0.0777058
0.0830094
0.0186186
0.0024292
0.0284311
0.00645585
0.0432562
0.0411806
0.112361
0.0422172
0.06585
0.0781794
0.0452095
0.00760217
0.00397085
0.0619585
0.150728
0.492271
0.157504
0.0350444
0.0214326
0.0124427
0.000426874
0.00618987
0.0741405
0.171488
0.0923293
0.00908501
0.00648169
0.00130343
0.000426874
0.00949038
0.0490161
0.084025
0.147207
0.0685935
0.0117699
0.0130327
0.00948987
0.0138035
0
0.000367079
0.0349178
0.15993
0.292282
0.0531764
0.00180026
8.58111e-005
0
0.0253094
0.350908
0.424612
0.26946
0.174087
0.0106112
0.00316149
0.00743027
0.0206825
0.00483377
0.0249705
0.00670168
0.00316959
0.00265111
0.00351031
0.00424364
0.00343687
0.00240139
0.060002
0.110407
0.0156509
0.00345539
0.00365325
0.00607026
0.00394467
0.00288316
0.000659667
0.0220265
0.286462
0.103704
0.00901055
0.00262994
0.000925139
0.000636495
0.00120062
0.00313942
0.226635
0.862026
0.104511
0.000347676
0.000490058
0.000731748
0.000372477
0.000272007
0.000581709
0.0952004
0.0550136
0.00457435
0.00268469
0.000945969
0.000878393
0.000262997
0.000141507
0.000873025
0.265249
0.0301191
0.00142331
0.00131429
7.32565e-005
0
0
0.0002618
0.0367077
0.402622
0.500881
0.0100825
0.000181106
0.00013207
9.93245e-005
2.1709e-005
0
0.00122639
0.598842
0.267391
0.000164952
2.58722e-005
8.62407e-006
0
0
0
0.114354
0.170633
0.00232301
6.39429e-005
5.21995e-005
0
0
1.09144e-005
0.000264915
0.0745542
0.145283
0.000764367
0.000250848
0
0
6.53205e-005
0.00019771
0.000698648
0.197195
0.507972
0.0336608
0
0
0
0
0
0
0.282563
0.507972
0.00170355
0
0
0
0
0
0.00947793
0.507972
0.052779
0.000487872
0.000136168
0.000128998
1.79005e-005
7.45089e-005
0.000170434
0.0115127
0.201971
0.00905523
0.000423961
0.000465205
0.00132754
0.000125304
0.000478452
0.00278544
0.0531552
0.168734
0.145102
0
0
0
0
0
0
0.108868
0.540452
0.0126111
0
1.58439e-005
2.94243e-005
0
6.68297e-005
0.0132814
0.50415
0.540452
0.00400368
0.00153412
0.00296048
0.00613648
0.00331875
0.00276704
0.00782669
0.0809518
0.0829796
0.00638272
0.00311091
0.0133631
0.0204688
0.0316986
0.00856884
0.00514531
0.0336815
0.0129261
0.00256721
0
0.00012213
0.00108105
0.00221617
0.00124715
0.0517812
0.763058
0.322637
0.0228131
0
0.000114814
0.00854405
0.0284831
0.00855504
0.0976454
0.43658
0.133604
0.00732968
0.0179657
0.0257023
0.0847191
0.12356
0.0289874
0.038412
0.00912318
0.00581505
0.166589
0.105914
0.0209116
0.147668
0.202115
0.166929
0.244922
0.132326
0.0402511
0.0317562
0
2.43524e-005
0.0362967
0.148916
0.0605121
0.178717
0.148544
0.078996
0.0148546
0.00575931
0
0.0496773
0.436559
0.345281
0.407707
0.180186
0.0019181
0.0874897
0.0591083
0.0110413
0.0507156
0.086452
0.0500884
0.0264557
0.0254595
0.0138426
0.470288
0.1894
0.0167051
0.0731973
0.120514
0.0264615
0.00203097
0.00382315
0.103036
0.0197627
0.0253004
0.00601383
0.114768
0.393943
0.108368
0.0498053
0.0311054
0
0.292578
0.151038
0.0100231
0.232501
0.521177
0.0576717
0.0050021
0.0057953
0.111597
0.0155765
0.0247299
0.0565073
0.0321205
0.0539472
0.00968248
0.0297713
0.0277866
0.0158872
0.00621726
0.0107193
0.0717348
0.123711
0.246454
0.056701
0.0166998
0.00861563
0.00720652
0.0142246
0.0450833
0.030207
0.05751
0.0843675
0.0320264
0.0338036
0.0237963
0.0135042
0.00687459
0.0282731
0.114908
0.533382
0.327385
0.101318
0.0306956
0.00945819
0.0024089
0
0.00137253
0.026769
0.0295578
0.0191997
0.00339432
0.000153525
3.83811e-005
0
0.000747361
0.118943
0.267544
0.0386624
0.00899056
0.000373571
0
0.000101538
0.000304614
5.93396e-005
0.0177297
0.194277
0.152
0.0197636
0.00288917
0.000255875
6.39686e-005
0
0
0.362987
0.784894
0.156136
0.00414714
3.4761e-005
0
0
0
0.00542477
0.200812
0.158377
0.00307595
0.000300276
0
0
4.29202e-005
0.000128761
0.0738559
0.459586
0.129428
0
0
0
0
6.13146e-006
1.83944e-005
0.00292108
0.386085
0.459586
0.00908764
8.61718e-006
0
0
0
0
0.0628513
0.459586
0.283108
0.00235126
0
0
0
0
0
0.260493
0.454219
0.0210031
0
0
0
0
0
0.000327825
0.454219
0.249716
0.000108268
0
0
0
0
0
0.0520206
0.185197
0.446249
0.0423635
0.00119492
0
0
0
0
0.00146186
0.374718
0.179817
0.00772027
0.00139867
0
0
0
0
0.032512
0.495247
0.0453153
0
0
0
0
0
0
0.214794
0.365316
0.00184571
0
0
0
0
0
0.0153224
0.495247
0.271909
0.0384779
0.00140849
0.000222087
0
0
0
0
0.133347
0.16399
0.00202513
0
0
0
0
0
0.00993403
0.398084
0.0609756
0
0
0
0
0
0
0.0994774
0.440985
0.00479309
0
0
0
0
0
0.0123483
0.440985
0.440985
0.0337588
0
0
0
0
0
0.000715009
0.0567125
0.322464
0.00858672
0
0
0
0
0.00443717
0.0291257
0.357915
0.349015
0.000419107
0
0
2.5014e-005
5.8366e-005
0
0.066303
0.432863
0.124775
0.0030347
0
0
0.000268482
0.00182813
0.00607154
0.18971
0.341021
0.0431391
0.000644854
0
0
0
0
0.00466079
0.14562
0.432863
0.0970003
6.09706e-005
0
0
0
0.000117941
0.0507024
0.432863
0.432863
0.0182623
0.00315076
0
0
0.000658146
0.0167228
0.0454309
0.209785
0.150531
0.015884
0.000190308
0
0
0.0147356
0.138883
0.069742
0.0676078
0.0187762
0.00286559
0
0
0
0
0.00464636
0.215687
0.650194
0.390517
0.00314613
0
0
0
0.0602456
0.193892
0.165139
0.370781
0.0982454
0.00520669
0.0012006
0.0014674
0
0.0959106
0.355064
0.0337989
0.0109147
0.00438568
0.000612204
0.0288964
0.0102718
0.000104589
0.178966
0.488749
0.0208427
0.00143718
0.000943819
0.0236043
0
0
0
0.159598
0.488749
0.0149171
0.016292
0.010521
0.00119148
0.000878481
0
0.000424482
0.195414
0.488749
0.0178085
0.000227425
0
0.000878481
0.00348679
0.00596842
0.00190143
0.010529
0.00775005
0.00333772
0.00408724
0.00288098
0.00247916
0.00131367
0.00704285
0.0863582
0.194454
0.0490208
0.0084543
0.00155866
0.00065705
0.000303607
0.00542937
0.00660463
0.00248331
0.0394197
0.0282185
0.010329
0.00782011
0.00159264
0.00144456
0.00093359
0.00617541
0.201801
0.866821
0.246873
0.00365493
0.000659525
0.000203079
0.000176031
3.87005e-005
0.0101633
0.195185
0.132501
0.0100233
0.000686468
1.53032e-005
3.82581e-006
0
0
0.124503
0.474278
0.151967
0.00178716
0
0
0
0
1.45519e-005
0.0185103
0.360225
0.402515
0.0537686
5.79281e-005
0
0
0
0.000736896
0.0689424
0.474278
0.330092
0.00841135
0
0
0
0
0.0045599
0.295394
0.551274
0.0492084
0
0
0
0
0
0.0390587
0.41731
0.246189
0.014236
0.00122049
0.00204022
0
0
0
0.0066333
0.0999861
0.499241
0.10834
0.00177969
0
0
0
2.32459e-005
0.0280342
0.145548
0.141722
0.030144
0.0194898
0.034198
0.00119533
0.000977999
0.000162722
0.178023
0.575925
0.0933167
0.0376123
0.0197881
0.0101501
0.00498431
0
0.00252794
0.341887
0.364761
0.0610024
0.0490147
0.0432113
0.0122648
0.0149834
0.00352939
0.059384
0.0736393
0.210321
0.0604553
0.0857692
0.138149
0.135846
0.0506557
0.0153091
0.0121879
0.146621
0.141058
0.0301662
0.0903645
0.122537
0.0951099
0.147588
0.0627426
0.199346
0.242536
0.109962
0.00975819
0.00755235
0.0086846
0.00249709
0.00317371
0.00340906
0.191227
0.179138
0.015732
0
0
0
0
0.00562402
0.044371
0.534958
0.19841
0.0544629
0.0052652
0.0115288
0.0144743
0.0174796
0.0326587
0.0290283
0.306296
0.358086
0.0418314
0
0
0
0
0.00991448
0.0526839
0.446475
0.0514854
0.00327812
0
0
0
0.000435085
0.0333946
0.160081
0.383921
0.0183422
0.000468303
0
0
0
0.0202127
0.197555
0.453381
0.267828
0.193006
0.0258577
0
0
0
0.000725141
0.0529706
0.147353
0.281624
0.0678666
0.00411418
0
0
0.0121242
0.0376642
0.287236
0.379352
0.169494
0.00121193
0
0.00206808
0.00126721
0.000235205
0.0139022
0.138638
0.293219
0.057353
0.000325841
0
0.0034468
0.00414345
0.00164643
0.110908
0.616732
0.446898
0.0299602
0.00467609
0.00103652
0.0034468
0.00414345
0.00619309
0.0220492
0.120323
0.156945
0.0237516
0.0035692
0.00110255
0.00574467
0.0211258
0.0109013
0.126042
0.403193
0.132059
0.0230406
0
0
0.000253334
0.00064126
0.000754718
0.122851
0.431597
0.115375
0.00104016
0
0
0
0.0303496
0.079432
0.189353
0.288842
0.0567796
0.000481678
0.00104412
0.000261029
0.000422223
0.00390977
0.00956158
0.273303
0.387003
0.0381667
0.00218709
0.000149159
3.72899e-005
0
0.024443
0.109743
0.431597
0.431597
0.0407097
0
0
0
0
0.150083
0.357481
0.0542942
0.0296658
0.0100928
0.000210347
0
0
0.000693274
0.180335
0.466707
0.00894414
0.000408581
0.000353733
0
0
0
0
0.157867
0.466707
0.156839
0.144814
0.0263156
0
0
0
0.000402018
0.204393
0.466707
0.0184976
0.0161393
0.00405074
0
0.00362987
0.00243542
0.0046968
0.0397501
0.0132995
0.00249593
0.00270092
0.000400487
0.000333397
0.000498528
0.000541425
0.0641473
0.641084
0.0944123
0.000520968
9.22791e-005
2.78468e-005
4.76281e-005
0.00242175
0.00224137
0.0243059
0.13272
0.0617171
0.00637497
0.00603493
0.00121447
0.000273836
0.000329676
0.000289937
0.206057
0.652691
0.139267
0.00126236
0.000575634
0.000133758
2.85769e-005
4.02226e-005
0.00711033
0.158328
0.500423
0.053258
0
0
0
4.02226e-005
0.00112736
0.015854
0.273966
0.377653
0.0267543
0
0
0
0.000281558
0.000281558
0
0.0908493
0.500423
0.0582762
0
0
0
0.000281558
0.00209174
0.000483318
0.0404167
0.428782
0.0773858
0
0
0
0.00197091
0.0120122
0.0453584
0.4767
0.244192
0.0420715
0
0
0
0.000591093
0.0530804
0.106445
0.276492
0.114892
0.0592241
0.122303
0.018642
0.0116828
0.00129046
0.00582363
0.00264143
0.169131
0.430017
0.19604
0.00832463
0
0
0.0029578
0.0233396
0.0293897
0.252527
0.35349
0.146142
0.0984594
0.0209584
0.0111982
0.00179042
0.0844871
0.061243
0.0799014
0.0632706
0.1543
0.210485
0.107882
0.0705016
0.0388339
0.169233
0.051497
0.0280551
0.0571282
0.116333
0.0703774
0.157546
0.124445
0.23805
0.0748186
0.108006
0.346282
0.253174
0.135713
0.136352
0.0930235
0.0588264
0.0294652
0.175655
0.174159
0.319326
0.269136
0.262904
0.0466502
0.062688
0.0648453
0.0899341
0.178979
0.0405202
0.00631192
0.0130935
0.0130577
0.00848647
0.0245677
0.0362255
0.302887
0.388612
0.0349569
0.000818342
0.000818342
0
0.00170129
0.00404069
0.0333207
0.417227
0.165801
0.150393
0.119174
0.0977491
0.0764486
0.00564076
0.00196882
0.0328787
0.155575
0.357408
0.255105
0.110086
0.0192829
0.00350885
0.011909
0.00414198
0.054243
0.32449
0.258725
0.0283435
0.00249642
0.00374463
0
0.0061421
0.0369927
0.101664
0.341091
0.0728713
0.0108815
0.0174749
0.0720197
0.0665025
0.0774867
0.206817
0.24853
0.220662
0.330047
0.237227
0.0307877
0.0113226
0.000319562
0.0530031
0.0490179
0.0958579
0.241785
0.162643
0.121554
0.0291249
0.120033
0.196972
0.232674
0.242656
0.122843
0.10504
0.0228129
0.00875036
0.00657584
0.0483495
0.0714006
0.105919
0.18025
0.18156
0.0244658
0.0281392
0.0178976
0.0191393
0.0347326
0.0761919
0.303292
0.238897
0.144416
0.0282672
0.0250316
0.0128932
0.00867061
0.0747881
0.246503
0.269854
0.101944
0.0266474
0.00710277
0.0241629
0.0204166
0.0363832
0.0696831
0.302122
0.592065
0.0601379
0.02415
0.0161542
0.00425158
0.00297254
0.00394803
0.00470579
0.015824
0.214295
0.151357
0.00738236
0.00452925
0.000932548
0.00203883
0.012504
0.0319213
0.0643654
0.469664
0.469664
0.0174961
0.00161801
0.00710346
0.00401017
0.0116518
0.0227367
0.0528473
0.144591
0.060847
0.00652758
0.00853381
0.00678828
0.0295691
0.0368677
0.0380245
0.0643036
0.469664
0.42516
0.00981837
0.00497293
0
0.00546096
0.0404288
0.195785
0.337834
0.175162
0.307474
0.0189553
0
0
0.00327658
0.0242573
0.229414
0.435731
0.0268231
0.042565
0.00363177
0
0.0118316
0.0980976
0.113769
0.220212
0.134625
0.250932
0.355836
0.0076309
0
0.00709895
0.0588586
0.071141
0.288843
0.210367
0.0584732
0.0615956
0.00438138
0
0.000484416
0.000250736
0.010645
0.0833475
0.115849
0.0345324
0.00251315
0.000581236
0.000440207
7.48371e-006
2.99348e-005
0.092945
0.53039
0.312974
0.143784
0.00388726
3.98033e-005
0
0.000546967
5.8846e-006
0.00157318
0.0403219
0.110209
0.140515
0.00417067
0.00163155
0.000707027
0
0
0.00888654
0.153946
0.420247
0.53039
0.0463771
0.000254878
0
0.000141037
0
0.0556924
0.534341
0.200894
0.0661044
0.00411251
0
0.000141037
0.000987259
0
0.00653047
0.243805
0.14274
0.00582029
0.000587501
0
0.000987259
0
0
0.00520903
0.130413
0.395194
0.507498
0.0371669
0
0
0
0
0.000360345
0.0660236
0.284476
0.128713
0.00411251
0
0
0.00109099
0
0.016872
0.285181
0.278976
0.0156137
0
0
0.00109099
0.0163033
0.0238603
0.0625042
0.264369
0.292265
0.112105
0.0184463
0.00559212
0.00287705
0
0.00102852
0.0112919
0.118404
0.514828
0.120832
0
0
0
0.00978196
0.0280445
0.0460338
0.118966
0.420038
0.242346
0.0469498
0.0513975
0.002711
0.0646712
0.0826656
0.139085
0.192085
0.221581
0.126153
0.106002
0.0191757
0.0157885
0.204763
0.103404
0.174104
0.159625
0.173403
0.0990714
0.109199
0.0115054
0.0578144
0.0575274
0.0611536
0.0362481
0.0693883
0.246097
0.317819
0.241615
0.182208
0.0587999
0.327327
0.110609
0.10387
0.0353307
0.0744591
0.162136
0.236503
0.115686
0.221451
0.190556
0.153935
0.163275
0.0745388
0.0550503
0.0179079
0.00871615
0.0071155
0.0450749
0.244598
0.384436
0.241698
0.0417444
0.00362758
0.00490057
0.00447363
0.0278637
0.0547695
0.281121
0.164674
0.227279
0.0354871
0.0118855
0.0191063
0.0178485
0.00625736
0.11991
0.267847
0.359256
0.328111
0.0369371
0.000518225
0.00259878
0.0233891
0.0597198
0.113557
0.246316
0.277191
0.0602729
0.0216653
0.00118945
0.0372313
0.07976
0.115558
0.0515992
0.120592
0.100267
0.00378328
0.0984141
0.26153
0.216584
0.201114
0.137761
0.0324047
0.23574
0.17314
0.0836401
0.0206156
0.00109308
0.022368
0.215047
0.152875
0.14936
0.228414
0.0309363
0.032348
0.186492
0.247724
0.0875987
0.292576
0.159905
0.138782
0.00925659
0.00453051
0.000900338
0.0463036
0.239624
0.131866
0.0333761
0.0101227
0.00242083
0.0022473
0.00157023
0.0092841
0.0361176
0.395088
0.276192
0
0.0010203
0.00279669
0.0450231
0.00485958
0.0328116
0.111313
0.25086
0.0426572
0.0246793
0.0129937
0.0164701
0.000336035
0.00134414
0.0406679
0.141464
0.683601
0.110029
0
0
0
0.00459221
0.0011804
0.0152047
0.0434733
0.235785
0.181528
0.0145532
0.00208491
0.00571486
0.0433728
0.0649318
0.0291402
0.032255
0.207298
0.506436
0.359605
0.047944
0.00342892
0
0
0.0130632
0.102451
0.436952
0.0874891
0.000367487
0
0
0.0973719
0.0164715
0.0261226
0.122276
0.280728
0.221057
0.122454
0.0821023
0.0369077
0.153337
0.24259
0.0965556
0.188585
0.125584
0.287377
0.429874
0.0626881
0
0.0984817
0.15221
0.0791024
0.334897
0.181048
0.0797206
0.104176
0.0165018
0.00644894
0.236759
0.0705116
0.0242586
0.0952008
0.127896
0.137778
0.199109
0.163396
0.0495508
0.122162
0.0572163
0.019846
0.181582
0.193313
0.0454204
0.0796503
0.0720193
0.0209697
6.93218e-005
0
0.000515779
0.00971229
0.0457211
0.0850143
0.00513645
0.00307573
0.00149445
0
0
0.000222656
0.00341638
0.366584
0.565686
0.0428978
0.00142578
0.000649623
0.000967887
0.000424831
0.000267766
0.00126495
0.052129
0.0264353
0.00269515
0.00429498
0.00618452
0.000132819
2.88206e-005
2.93354e-005
0.000220231
0.376793
0.565686
0.114324
0.00228435
0.00330939
0
0
0
0.000387781
0.275954
0.472739
0.0226835
0
0
0
0
0
0.0017046
0.169855
0.192358
0.00344449
0
0
0
0
0
0
0.227165
0.501187
0.148449
0
0
0
0
0
0
0.142997
0.479143
0.0981213
0.00322807
0
0
0.00105435
0.00484206
0.0206574
0.353199
0.25888
0.00514031
0.00111987
0
0
0.0712661
0.0751098
0.118191
0.231059
0.184527
0.0220024
0.0333739
0.0010095
0
0.000150622
0.00396321
0.0243739
0.288202
0.441906
0.168791
0.0612469
0.00216459
0.00535329
0.0573341
0.0946944
0.30596
0.290578
0.212002
0.143783
0.0867809
0.0252503
0.0568644
0.19067
0.111271
0.104765
0.0774739
0.137528
0.0665096
0.124256
0.055783
0.270577
0.159522
0.0750677
0.0223955
0.00433111
0.045699
0.0569909
0.0814239
0.2721
0.0818154
0.189372
0.198179
0.314608
0.271246
0.0777057
0.0255106
0.0444298
0.0622449
0.363488
0.165419
0.120783
0.0772795
0.110042
0.0321002
0.0111315
0.0637512
0.283034
0.175607
0.0762684
0.0649155
0.00922698
0
0.00319381
0.0034428
0.00753365
0.222416
0.227742
0.097988
0.0805008
0.00482442
0
0.000959796
0.0116723
0.0440209
0.324277
0.286114
0.0242073
0.00633072
0.00517968
0.00939891
0.00287717
0.00121854
0.0244215
0.336563
0.373898
0.0113505
0
0
0.0139025
0.00926833
0.0212386
0.0384914
0.515507
0.170322
0.030798
0.0211278
0.00175474
0.00131545
0.0118124
0.0950413
0.100757
0.3344
0.150018
0.0143909
0.0347824
0.0585983
0.117359
0.0620937
0.185541
0.165504
0.195837
0.192544
0.0182602
0.0139135
0.0148169
0.0613476
0.060297
0.146914
0.115288
0.372704
0.0489473
0.0311995
0.0929476
0.119899
0.351172
0.237811
0.263245
0.165324
0.132771
0.0294903
0.0090808
0.0727213
0.08398
0.101317
0.0213623
0.0269239
0.0218277
0.0115645
0.000907824
0.00692354
0.207835
0.275856
0.273062
0.0232874
0
0
0
0.0122405
0.0317713
0.193626
0.183737
0.168758
0.0609191
0.0367336
0.017933
0.00514589
0.00178023
0.0378859
0.521395
0.53789
0.0788393
0.0075465
0
0
0.000218036
0
0.00138228
0.0590656
0.143211
0.135844
0.0139365
0
0
0
0.108968
0.009176
0.116875
0.21802
0.0799987
0.042966
0.024539
0.0282805
0.0413617
0
0.0316781
0.368964
0.24758
0.0303342
0.00699389
0
0
0
0.113685
0.10344
0.654887
0.362358
0.115901
0.0714271
0.0557922
0.0215497
0.0557422
0.159851
0.014266
0.056661
0.097736
0.0821216
0.0958084
0.0976879
0.0953587
0.0580477
0.0309182
0.00718604
0.000494313
0.0755416
0.126234
0.0794775
0.0759568
0.0636266
0.0129897
0.159547
0.0587724
0.273419
0.134616
0.543238
0.216919
0.129915
0.0515252
0.0782295
0.0236592
0.00849242
0.0149782
0.050384
0.52756
0.163045
0.0666772
0.0333795
0.0189497
0.00479655
0.00262207
0.0011218
0
0.0331234
0.0234101
0.0023817
0.00516605
0.00778386
0.00517045
0.000461781
9.28245e-005
0
0.250963
0.805906
0.187561
0.00366975
0.00364966
0.00597129
0.00267496
0.00179634
0.00545221
0.0116662
0.0173614
0.00238848
0.00302911
0.00260811
0.0161365
0.00145067
0.000794755
0.0152291
0.138901
0.363849
0.0735982
0.00690371
0.000603629
0.000493023
2.59485e-005
0
0
0.0501172
0.456955
0.190254
0.0061602
0
0
0
0
0
0.0320602
0.349204
0.314454
0.0249459
0
0.00305107
0.000290954
2.473e-005
0.00178154
0.0334266
0.274447
0.291747
0.0365641
0
0.00031848
3.53867e-005
0
0.000133293
0.00708868
0.285198
0.469755
0.136322
0
0
0
0.00156009
0.00410703
0.0372434
0.120373
0.258347
0.0646778
0.00413938
0.00237847
0.00667324
0.0193953
0.0470371
0.0629627
0.0533133
0.116124
0.0844885
0.032888
0
0
0.00022287
0.000272397
0.00793462
0.117909
0.70267
0.297279
0.0144519
0.000339781
0.00799112
0.00809828
0.00190678
0.0140777
0.02987
0.324741
0.318153
0.0937055
0.0298898
0.0331628
0.0635814
0.0912307
0.188382
0.104493
0.08965
0.102874
0.104077
0.180157
0.0462285
0.0414415
0.0268343
0.0955091
0.0540541
0.0484515
0.116789
0.253791
0.00894152
0.041376
0.0525354
0.0196785
0.0350723
0.0703228
0.274299
0.369066
0.207484
0.165012
0.138813
0.0575045
0.0295797
0.0149433
0.0436075
0.164258
0.232659
0.490635
0.173389
0.00909368
0.00256371
0.00188674
0.00730441
0.00386322
0.0025742
0.0255977
0.223171
0.262269
0.0167658
0.00160757
0
0.0108044
0.00720294
0.0060721
0.0102862
0.292998
0.203202
0.0370469
0.0052763
0.00284108
0.00104349
0.00290406
0.00820507
0.0509719
0.438452
0.350128
0.0612599
0.00690515
0
0.00154349
0.00102899
0
0.00881159
0.542274
0.142456
0.0601265
0.0676016
0.0177147
0.0442032
0.034012
0.0503501
0.0183386
0.135842
0.0466923
0.0970008
0.260877
0.115583
0.152121
0.0922579
0.0710764
0.0157242
0.0227651
0.237844
0.167661
0.158772
0.0139171
0.007474
0.00836223
0.00299633
0.00750229
0.258036
0.201439
0.469107
0.495878
0.0662147
0.024914
0.0380549
0.00499389
0.00319228
0.0468874
0.0127264
0.0426062
0.13941
0.0573266
0.0396091
0.0135237
0.00406887
0.000591798
0.00195884
0.00332568
0.0524278
0.334682
0.158927
0.0314355
0.000922035
0
0
0.000279834
0.0438974
0.250864
0.241365
0.0286346
0.00654376
0.00540022
0.000259099
0
0.0011753
0.0155118
0.437173
0.668837
0.0614934
0.0157853
7.26668e-005
0
0
0.0001679
0.000729717
0.0336293
0.334204
0.0982185
0.00672646
0.00053672
0
0
0
0.01228
0.13954
0.425586
0.116679
0.0924614
0.0727458
0.0194046
0.00624073
0.00778397
0.00187733
0.110558
0.451896
0.124538
0.00765448
0.000507473
0
0
0
0.00706714
0.132721
0.451896
0.306315
0.226642
0.0710297
0.0026746
0.000891532
0
0.0151438
0.0775212
0.122314
0.0790244
0.401232
0.140249
0.0324615
0.00984502
0.0122796
0.00243624
0.00276492
0.0128637
0.0480502
0.325069
0.0497291
0.0069707
0.0028675
0.00697569
0.00410138
0.0690104
0.0879513
0.365168
0.550569
0.123779
0.00451142
0.00145798
0
0.00566873
0.0106732
0.0180664
0.152266
0.368527
0.0416191
0.0041059
0.00137351
0.00293078
0.020925
0.0126057
0.0393724
0.0845025
0.0624204
0.0261682
0.0190568
0.011377
0.0196952
0.0671354
0.00965751
0.0502704
0.219292
0.335839
0.382991
0.140553
0.0199674
0.00450305
0.00734792
0.0195612
0.0801723
0.113196
0.142635
0.0297074
0.0253219
0.0136648
0.0218997
0.0302926
0.0151412
0.0864085
0.195073
0.259985
0.104495
0.086303
0.0455363
0.0224135
0.00456053
0.00069409
0.00256734
0.00750412
0.0150066
0.114438
0.22074
0.0310786
0.000898449
0.00089542
0.000432054
0.00135665
0.000749588
0.00170763
0.205519
0.670379
0.268482
0.00149742
0.00300403
0.00169631
0.00447431
0.00544048
0.00623363
0.0263606
0.0497796
0.0171983
0.00264824
0.00231545
0.0025702
0.00244894
0.00087479
0.00286397
0.0452953
0.494423
0.239025
0.00300164
2.05811e-005
2.51546e-005
0
0
0.000356368
0.0268478
0.445606
0.238322
0.00536817
0
0.0004815
0.000393955
0
0.000213821
0.00122445
0.200942
0.355962
0.0560854
0.000144067
0.000176082
0
0
0.000484639
0.00529416
0.330338
0.357982
0.00495881
0
0
0
0
4.48483e-006
6.68794e-005
0.280464
0.445606
0.122629
0.000601519
0.00222861
0.00321078
0.00143971
0
0.00262363
0.0503739
0.234369
0.0871963
0.0242073
0.0110995
0.00453297
0.00239952
0
0.00329043
0.0259383
0.107097
0.194777
0.00287382
0
0
0
0
0.000329552
0.0704244
0.533098
0.383853
0.0854398
0
0
0
0
0.000444448
0.00490651
0.321646
0.533098
0.076313
0.00502487
0.000665495
0.000358343
0
0.000402988
0.0022836
0.0222494
0.184501
0.198811
0.0276485
0.00157318
0
0
0
0
0.00184865
0.137308
0.273891
7.95909e-005
0
0
0
5.75698e-005
0.000326228
0.0406654
0.546122
0.546122
0.0475639
0.00020698
0
0
0
0
0.00049925
0.413716
0.128508
0.0757046
0.0181612
0.00065595
5.41209e-005
0.000162363
0
0.000668264
0.032148
0.143979
0.271894
0.059944
0.00238089
0.000378846
0.00113654
0
0.000284352
0.004164
0.508678
0.20307
0.00199719
0
0
0
0
0
0.0736073
0.508678
0.508678
0.0704707
0
0
0
0
0
0.00315235
0.0484873
0.295776
0.102537
0.00280505
0.000107162
0.000321485
0
0
0
0.00683628
0.406686
0.434583
0.00724881
0.00099026
0.000649208
0
0
0
0.134001
0.434583
0.150262
0
0
0
0
0.000701463
0.00115456
0.0145975
0.434583
0.288364
0.0129225
0.00693182
0.00454446
0.012013
0.0150623
0.00808192
0.000873695
0.200337
0.500332
0.0728938
0.01221
0.00527365
0.000583407
0
0
0.00126697
0.0427766
0.349129
0.325256
0.260599
0.0219977
0.000972346
0
0
0.00203141
0.198723
0.212681
0.0459839
0.0297669
0.0434431
0.0383556
0.0332902
0.00552064
0
0.0193988
0.0976878
0.205623
0.433921
0.147939
0.0385979
0.025088
0.00208536
0.000592285
0.00758814
0.0619086
0.34459
0.485664
0.0273461
0.00310594
0.000193757
0
0.00363153
0.0103662
0.017061
0.118965
0.25215
0.0307028
0.013886
0.00283643
0
0.00010078
0.00223479
0.0228423
0.250592
0.580934
0.0889751
0.0160344
0.00363799
0.000459414
0.00102327
0.00431543
0.0063132
0.0964629
0.284322
0.0448455
0.0521626
0.016512
0.000705461
0.00931258
0.050884
0.143377
0.166985
0.126006
0.0173605
0.0116119
0.00987182
0.00720791
0.0520584
0.0596235
0.117398
0.120733
0.163485
0.073977
0.04768
0.040441
0.0520584
0.0462772
0.113924
0.141695
0.196536
0.058973
0.000435102
0.0248956
0.0591647
0.0335179
0.0422485
0.147416
0.155721
0.171819
0.268942
0.0657742
0.0168726
0.0323968
0.0435995
0.021355
0.0116019
0.0354436
0.0213428
0.0410151
0.0821998
0.0493834
0.0575992
0.0189371
0.00886903
0.0145798
0.0227798
0.013931
0.045123
0.133058
0.497089
0.536849
0.014651
0.00940694
0.0201244
0.0819675
0.095646
0.11797
0.0503379
0.00982508
0.00402102
0.00940694
0.00419197
0.0473017
0.0887897
0.11583
0.0597746
0.0605256
0.0932103
0.0298853
0.00972475
0.00153806
0.000449458
0.000868737
0.000851636
0.0016647
0.0056064
0.153105
0.307276
0.0148033
0.00771958
0.000303633
0.00226908
0.00120331
3.20102e-005
0.000331992
0.232597
0.761879
0.35057
0.00296127
0.00370603
0.0077232
0.00921042
0.00268034
0.00369422
0.0134741
0.0292929
0.010529
0.0133709
0.00295566
0.0161099
0.00860335
0.00679409
0.00706284
0.0141823
0.138578
0.168103
0.00317538
0.00016196
0.000680333
0.000177051
0
0
0.0282836
0.411213
0.404783
0.0725772
2.31371e-005
6.94114e-005
0
0
0
0.00033825
0.269039
0.525301
0.00527497
0.00123079
0.00476234
0.00123936
0.00131251
0.00265409
0.00354471
0.109933
0.176363
0.0628955
0.000841459
0.00048588
0
4.13525e-005
0.00048482
0.00173865
0.121518
0.445894
0.224278
0
0
0
0
0
0
0.0346467
0.473354
0.473354
0.0399888
0
0
0
0
0
4.23178e-005
0.341969
0.155488
0.000249224
0
0
0
0
0.00207674
0.0205509
0.320104
0.39007
0.0202718
0
0.000372029
0.00138677
0.00124024
0.00276037
0.0021357
0.235376
0.505065
0.171386
0
0
0
0
0
0
0.0740586
0.505065
0.456101
0.0276024
8.62743e-005
5.75162e-005
0
0
0.000584325
0.00488255
0.32831
0.0737175
0
0.00114665
0.00229723
0.00140626
0.000616137
0.00163562
0.0703218
0.252637
0.117571
0.000531635
0.00188269
0.00390339
0.0015799
0.00172348
0.00606642
0.0197089
0.361653
0.71347
0.134517
0.00153841
0.00225151
0.000296371
0.000174371
0.00423767
0.00886056
0.0467765
0.446558
0.13216
0.0115302
0.01301
0.00811244
0.0477252
0.0650669
0.0365113
0.156925
0.102267
0.00560775
0.00885422
0.0150307
0.00375449
0.0025293
0.00873364
0.0142713
0.0234533
0.0355794
0.00634965
0.00886381
0.030544
0.0184779
0.0335127
0.0332265
0.0201859
0.00148813
0.0490264
0.0177331
0.0111674
0.0245236
0.0415344
0.0785778
0.0881646
0.0152288
0
0.000921498
0.00397363
0.100003
0.585288
0.201864
0.0694096
0.0731151
0.00809121
0.00033346
0.00166066
0.000460227
0.00323624
0.0756536
0.0395185
0.0639932
0.054161
0.00975478
0
0
0
0.0732719
0.660988
0.217258
0.0743974
0.0512229
0.00540294
0.000647741
0.00254793
0.00193155
0.133671
0.613136
0.0856664
0.0111494
0.00853727
0.00199884
0.00656746
0.00768642
0.0058294
0.0636469
0.194084
0.016706
0.0236844
0.0110074
0.00382039
0.0027491
0.00164798
0.00140747
0.0839827
0.613136
0.221439
0.056469
0.0234695
0.00655503
0.0334766
0.0111048
0.00707392
0.0340061
0.198382
0.107237
0.0601174
0.0416923
0.0310516