0.0227553
0.0533506
0.0185894
0.00115054
0.114344
0.103454
0.025755
0.220769
0.116566
0.0639479
0.155395
0.0787761
0.0481653
0.182626
0.0995117
0.0109432
0.106947
0.0912284
0.0124764
0.0693828
0.0680862
0.0104219
0.122488
0.128577
0.0142135
0.293039
0.143719
0.0414208
0.18343
0.0359294
0.149334
0.180071
0.16568
0.0805589
0.123003
0.068836
0.0277429
0.0652717
0.0336099
0.0258504
0.024412
0.0109624
0.00341544
0.00610304
0.0145315
0.0394426
0.0756414
0.0380618
0.039256
0.0542558
0.0191313
0.0231799
0.00134037
0.0132849
0.0171091
0.0975203
0.0875416
0.0918538
0.027965
0.0122465
0.0112399
0.00265668
0.00233534
0.106236
0.737653
0.409514
0.0792569
0.0223034
0.00781805
0.00311751
0
0.0142752
0.0169157
0.0295448
0.00861833
0.00692949
0.00604492
0.00192221
0.00217577
0.000239535
0.00358358
0.0800442
0.153115
0.0166509
0.00527611
0.0101624
0.00625768
0.000479804
3.42192e-005
0.00687885
0.0862433
0.441523
0.0888373
0.00476977
0.00152334
0.00026707
0.00025826
0
0.00523843
0.330488
0.753891
0.0800795
0.00195453
0.00105344
8.11143e-005
0
0
0.00539598
0.112663
0.10274
0.00311698
0.00464296
0.013849
0.0124813
0.0060785
0
0.00563749
0.281454
0.122388
0.00516676
0.0158238
0.0166914
0.0260032
0.0356383
0
0.00886959
0.352503
0.530846
0.00898246
7.57031e-005
0.00120511
0.000908281
0.000854437
0
0.00338249
0.530846
0.371932
0
0
0.000723069
0.00302195
0.00509118
0.00033099
0.0288044
0.255715
0.0708217
0.0154053
0.0168707
0.00577489
0.0199582
0.0464972
0
0.0344541
0.221654
0.103361
0.0403687
0.0132757
0.0222269
0.0388116
0.0350046
0.000619762
0.0841819
0.549622
0.0941682
0
0
0.000178758
0.00273497
0.00664246
0.00138222
0.153886
0.549622
0.0487509
0.00774536
0.00211223
0.00314413
0.00553901
0.00500066
0.00698518
0.399781
0.131258
0.0686876
0.0549155
0.0275169
0.0250677
0.0304184
0.0273286
0.00854299
0.109761
0.067731
0.0246943
0.0491122
0.0458569
0.0166494
0.0087354
0.0565619
0.0529149
0.118926
0.314612
0.0261028
0.014969
0.00845519
0.00346529
0.00434549
0.00414702
0.0634365
0.560969
0.153202
0.0162208
0.0457138
0.00948391
0.00568013
0.000965028
0.00936838
0.219099
0.60798
0.0513663
0.0485493
0.0951068
0.0906401
0.119185
0.0380542
0.0634194
0.117099
0.11088
0.0191898
0.0318733
0.0665267
0.124224
0.194501
0.11323
0.0640027
0.0558849
0.0439331
0.164847
0.0403266
0.14742
0.060789
0.0705429
0.00720395
0.0104511
0.446672
0.542647
0.0566303
0.0481875
0.105665
0.0968617
0.112869
0.0715541
0.0419938
0.255065
0.231841
0.109161
0.0430495
0.0513966
0.118883
0.207991
0.0855276
0.080712
0.0492388
0.0224357
0.392829
0.113924
0.113499
0.103156
0.132077
0.0232867
0.0504728
0.0988211
0.102812
0.119955
0.0687685
0.0723325
0.131603
0.0940891
0.124943
0.072934
0.0896687
0.0729715
0.546118
0.200831
0.0502085
0.11302
0.0516904
0.0773449
0.0512022
0.131016
0.117898
0.273386
0.0551995
0.0476403
0.0178833
0.0173497
0.0200845
0.048607
0.139866
0.0824367
0.159886
0.0363305
0.0235488
0.0167067
0.00603016
0.0286158
0.0708338
0.301096
0.203551
0.377104
0.0906772
0.00988528
0.00880068
0.0050796
0.0216801
0.0640776
0.195446
0.119436
0.252356
0.0421292
0.113216
0.0683417
0.0425138
0.0322813
0.117564
0.44556
0.230527
0.00666392
0.0241704
0.0214229
0.00802206
0.0477843
0.0349192
0.00836222
0.057997
0.034292
0.0116704
0.0513741
0.0519153
0.0897876
0.0553566
0.0280939
0.0362139
0.0365731
0.011845
0.00770307
0.0318515
0.0375679
0.0469947
0.0843532
0.0403665
0.0198011
0.0336685
0.0101674
0.00315272
0.0779931
0.676546
0.48176
0.0770298
0.0129611
0.0307933
0.0391449
0.00454866
0.00136017
0.0201881
0.0688245
0.0198228
0.00479994
0.000512493
0.00180288
0.000448045
6.82683e-005
0.0057189
0.246899
0.339477
0.0114726
0.00155963
0
0
0
0.000315368
0.000183875
0.0727331
0.443108
0.0756241
0.00415797
2.79696e-005
0.000745016
0.000729699
4.0961e-005
2.53717e-005
0.398604
0.624229
0.0263588
0.000704873
0
0
0
0
0.0190621
0.386016
0.184636
0.000362057
0
0
0
0
0.000623909
0.120157
0.4718
0.0743765
0
0
0
0
0
0.00192831
0.00317786
0.355122
0.425027
0.00124864
0
0
0
0
0.00177174
0.0650612
0.447979
0.124496
0.000139534
0
0
0
0
0.0124022
0.275062
0.480241
0.0096018
0
0
0
0
0
0.00274737
0.54254
0.219743
0.00126178
0
0
0
0
0.0010706
0.0254528
0.148677
0.322586
0.0284783
0.000301058
0.00227363
0
0
0.0123255
0.0140155
0.335045
0.229724
0.0497892
0.00426683
0.0185547
0
0
0.0211848
0.0261272
0.429319
0.0404037
0.000200895
0
0
0
0
0.00467694
0.136558
0.311689
0.00114244
0
0
0
0
0
0.014494
0.392197
0.370286
0.0890864
0.0187356
0.00345252
0.00999305
0
0
0.00793183
0.135157
0.238472
0.00838338
0
0.000362921
0.00044357
0
0
0.0667732
0.508907
0.0999428
0
0
0
0
0
0
0.0650355
0.364184
0.0362916
0.00062329
0.00473803
0.000402017
0
0
0
0.264771
0.360471
0.0418644
0
0
0
0
0
9.8385e-005
0.238834
0.381683
0.00613199
0
0
0
0
0
0.0446854
0.576489
0.229204
0.0250392
0.00162754
0.00950424
0.0019717
0.00129306
0
0.0254343
0.351704
0.184158
0.0134854
0.00734965
0.0118928
0.00879761
0.00661264
0.00954482
0.163662
0.276408
0.0918666
0.0065538
0
0
0
0
0.000220399
0.155894
0.472437
0.0965533
0.00465403
0
0
0.000721203
0.00163558
0.0223733
0.489458
0.397938
0.0343673
0.0171305
0.0101238
0.0156512
0.0359558
0.0162168
0.0270513
0.174917
0.121097
0.0286317
0.146262
0.053891
0.0371695
0.0382458
0.0116381
0.0205235
0.0505602
0.0475001
0.0417127
0.0048049
0.000925081
0.00519771
0.00551839
0.00891139
0.0613897
0.724441
0.30113
0.0076654
0.0825564
0.0421907
0.0424215
0.0161445
0.0222948
0.0947593
0.394865
0.132776
0.0295144
0.236401
0.0906286
0.0291157
0.00765335
0.00184537
0.00696233
0.0298986
0.0891801
0.17165
0.319932
0.122301
0.101569
0.0509975
0.0337204
0.0043205
0.0380065
0.217312
0.198726
0.173234
0.131943
0.0403067
0.00872735
0.0122211
0.0578434
0.0968469
0.16437
0.170219
0.415085
0.362948
0.0956445
0.00736284
0.00463109
0.00872283
0.0282777
0.198904
0.203458
0.00354079
0.00239625
0.0129769
0.0251125
0.0114379
0.00166397
0.00278913
0.0018312
0.00133955
0.00192677
0.00415361
0.271838
0.26782
0.0201634
0.000382112
0.00311628
0.00225987
0.000803731
0.00397037
0.00114884
0.0484571
0.123847
0.0361541
0.00045319
0.00222643
0.000742145
0.000803731
0.00235398
0.000467935
0.511559
0.705786
0.0691819
0
0.00029566
9.85533e-005
0.000482239
0
0.026515
0.406221
0.143583
0.00338297
8.05757e-005
0.000255713
0.000160396
0
0
0.107254
0.460163
0.0595564
0.00455972
0.00056403
0.000241727
0
0
0
0.00344256
0.394811
0.447212
0.0107423
0.00056403
0.000939675
0.000371513
0
0
0.0213283
0.372418
0.214492
0.0127075
0.00394821
0.00282036
0.000607531
0
0.0047015
0.188448
0.475082
0.0148739
0.00998839
0.0003998
0.000171343
0
0.00123083
0.0708907
0.364223
0.228327
0.04548
0.0288831
0.00275269
0.00175762
0
0.0086158
0.00662587
0.0798747
0.498075
0.100132
0.0286475
0.00450146
0.00149361
0.000158421
0
0.061423
0.1832
0.360198
0.0990453
0.178282
0.060705
0.0319807
0.0191629
0.0100635
0.152231
0.406722
0.0754715
0.0658574
0.0473647
0.0279055
0.0305445
0.054565
0.0168282
0.218491
0.260839
0.0975488
0.0259905
0.110401
0.0370021
0.0800548
0.139542
0.106369
0.116402
0.196941
0.0855549
0.114419
0.201935
0.14163
0.120458
0.112531
0.0870626
0.274054
0.0939158
0.0494112
0.0233768
0.0965329
0.0889724
0.161301
0.245529
0.409241
0.165291
0.0564814
0.0207409
0.00891585
0.0309795
0.00285515
0.0137213
0.02961
0.158465
0.191243
0.00712071
0
0.0011251
0.00137512
0
0
0.0478339
0.348698
0.230263
0.00665302
0.00553474
0.004874
0.021378
0.00475858
0.0228689
0.0518448
0.387921
0.377963
0.00085646
0
0.000675057
0.00082507
0
0
0.00945963
0.604584
0.0955605
0
0
0
0
0
0.000302309
0.146226
0.262815
0.0727328
0
0
0
0.00278668
0.00436175
0.108382
0.41513
0.218739
0.274395
0.000376664
0
0
0
0
0.000181386
0.0261624
0.468208
0.192779
0.0205179
0.0356157
0.0108835
0.0270968
0.0305323
0.1148
0.146543
0.476506
0.0159787
0
0
0
0.00728689
0.00640698
0.257324
0.256829
0.0641288
0.00119181
0
0
0
0.00803994
0.0324059
0.405704
0.164644
0.00760201
0.0308478
0.0181343
0.0342612
0.0284593
0.0708555
0.0509239
0.322456
0.129248
0.127423
0.000893208
0.00245731
0.00489446
0.0170756
0.0604211
0.143233
0.651136
0.100471
0.00843093
0
4.5289e-005
0.000407602
0.00100422
0.0127814
0.0889445
0.379762
0.0868604
0.00068322
0.00873775
0.00525227
0.00465603
0.0073384
0.0159824
0.165916
0.358394
0.0514102
0.00198917
0.00033148
0.00107769
0
0.00014346
0.0585843
0.200523
0.421576
0.0276634
0.00128
0.00902029
0.00378091
0.0102356
0.00792919
0.0477621
0.380531
0.490122
0.00971794
0.00657716
0.0502755
0.0430084
0.0443657
0.00957966
0.00917381
0.139413
0.190003
0.0960193
0.0284514
0.148999
0.188947
0.1345
0.0396219
0.000359749
0.0230716
0.042622
0.0718773
0.0372748
0.108904
0.0730653
0.119511
0.0536264
0.0243149
0.416722
0.410185
0.0178801
0.0418036
0.15434
0.232761
0.398735
0.265852
0.0838874
0.07688
0.0724587
0.00929524
0.0270341
0.000284304
0.000401783
0.0400314
0.125615
0.0531595
0.000773065
0.00196064
0.000449873
0
0.000170582
4.26456e-005
0.227566
0.561881
0.10369
0
0
0
0
0.000400541
0.032806
0.174248
0.231266
0.0963998
0.009883
0.00195175
0.000244761
0
0.00026296
0.0398062
0.23462
0.561881
0.281922
0.00118816
0
0
0.00026296
0
0.000131602
0.181904
0.516172
0.0477557
0.000283413
0.00263492
0.0013534
0
0
0.00378686
0.148546
0.32945
0.0422852
0.00216538
0.00503933
0.00225566
0
0.000760358
0.00460675
0.0550878
0.484502
0.191286
0
0.00150807
0.000812039
0.000760358
0.000701048
0.00028354
0.0378738
0.460191
0.158742
0.00127046
0.00251345
0.0013534
0.000456215
0.00129116
0.0229311
0.349583
0.307745
0.0531177
0.00493642
0.00178686
0.000620059
0
0.00982751
0.0412007
0.307404
0.107088
0.143822
0.0704708
0.0348501
0.0396686
0.0158321
0.0013518
0.0017565
0.0715753
0.514552
0.182581
0.0136009
0.000690923
0.000372036
0
0.000811081
0.023781
0.309809
0.248569
0.29963
0.0678524
0.0161389
0.0156168
0.00505649
0.0709219
0.0621084
0.182321
0.0329264
0.0938719
0.0823078
0.0540019
0.0879695
0.102177
0.274691
0.0561021
0.0894562
0.041206
0.111637
0.062881
0.0324696
0.0862024
0.31086
0.060443
0.141207
0.43265
0.149316
0.190071
0.0908213
0.0348395
0.0338566
0.0380073
0.246505
0.277641
0.270197
0.207693
0.248176
0.0969771
0.0319938
0.0454107
0.101937
0.225965
0.0211182
0.0057301
0.0219264
0.0392951
0.0111582
0.00349163
0.0129169
0.261584
0.304527
0.0983805
0.000994377
0.0026341
0.00256978
0
0
0.000197891
0.450786
0.178577
0.226118
0.0708271
0.0741976
0.0891105
0.0173861
0.00290123
0.00807109
0.0714312
0.211158
0.556266
0.150145
0.00651851
0.00823562
0
0
0
0.130655
0.199755
0.146056
0.00933773
0
0
0
0
0.00757539
0.396785
0.161879
0.129278
0.0661698
0.0202996
0.0394479
0.0304006
0.0706584
0.0332261
0.350213
0.166774
0.508713
0.122025
0
0.000140717
0.00565817
0.0169124
0.0231806
0.141069
0.165253
0.269738
0.101653
0.0502741
0.188736
0.0992524
0.0984325
0.0386344
0.184096
0.0431572
0.0407129
0.0644184
0.0652586
0.109963
0.065511
0.16239
0.0269931
0.0890639
0.00361088
0.00404907
0.0101297
0.0421315
0.124155
0.297523
0.492011
0.0241311
0.00512799
0.0467039
0.0329153
0.0353517
0.091897
0.362435
0.114764
0.0922799
0.00602758
0.0542585
0.00216653
0.00268048
0.00997753
0.0615716
0.448828
0.333806
0.13155
0
0.00216653
0.000909178
0.00295588
0.000136569
0.0038124
0.120637
0.204501
0.246467
0.00372736
0.000543047
0.00445631
0.0051975
0.00756469
0.019019
0.120336
0.387756
0.190644
0.000125877
0.00649452
0.000545507
0.00196851
0.000812564
0.0154236
0.393763
0.282625
0.079865
0
0.000232531
0.00091789
0.00295588
0.00261277
0.017047
0.419515
0.435931
0.0393489
0
0.000924615
0.0400139
0.0287029
0.0318876
0.0533997
0.0638838
0.329775
0.126017
0
0.0204614
0.0547347
0.0620217
0.112611
0.173351
0.234515
0.103325
0.0604136
0
0.0122768
0.0112857
0.0178838
0.0433321
0.0924624
0.260428
0.494135
0.047433
0
0.00292306
0.0173365
0.0290309
0.16219
0.358365
0.38126
0.194408
0.0361421
0
0.00175384
0.00130765
0.0658711
0.187014
0.168502
0.193466
0.0362474
0.0110843
0.0106852
0
0.00077466
0.0926062
0.204877
0.391281
0.273711
0.0462643
0.0106056
0.019394
0.00118449
0.00233147
0.0321853
0.0529489
0.100261
0.30192
0.178026
0.145797
0.144417
0.000729691
0.000464796
0.0490031
0.0547317
0.138344
0.334678
0.415408
0.16978
0.20436
0.00114785
0.00310537
0.016794
0.0301699
0.272835
0.290389
0.030291
0.00275145
0.010115
0.00474825
0.00286314
0.000666615
0.00794799
0.325871
0.373795
0.0151499
0.00118864
0.00394292
0.00284895
0.00186322
0.00953886
0.00720765
0.0810167
0.323798
0.298473
0.0397208
0.0468179
0.00460135
0.00171789
0.000399969
0
0.113961
0.475585
0.279297
0.0408189
0.00657153
0.00276081
0.00524569
0.0032454
0.00523675
0.285499
0.32731
0.0414271
0.00219286
0
0.000377588
0.00355017
0.00575295
0.0983433
0.176575
0.368482
0.213796
0.161236
0.0383483
0.00719923
0.00556398
0.00194724
0.00274536
0.0765029
0.37477
0.297414
0.0445166
0.00483073
0.00264312
0.0183159
0.120382
0.0704879
0.0874417
0.146069
0.221499
0.320348
0.120428
0.00834715
0.0252937
0.0483965
0.125014
0.118383
0.192937
0.152549
0.199732
0.118364
0.0243817
0.198358
0.239803
0.115488
0.130537
0.135527
0.0500247
0.11532
0.164256
0.0581678
0.10989
0.165059
0.0556191
0.0356238
0.051642
0.0897141
0.313244
0.299655
0.0455827
0.273898
0.264004
0.0665219
0.0444295
0.0483538
0.0104028
0.111691
0.277103
0.275826
0.122056
0.292937
0.0940823
0.0379099
0.0292389
0.00231985
0.00777542
0.0220669
0.0111391
0.11405
0.540886
0.206756
0.00356559
0.00228832
0
0
0
0.00670911
0.121374
0.305348
0.0977271
0.0245642
0.0096806
0
0.00466525
0.0202418
0.164041
0.228112
0.449299
0.105651
0.00342558
0
0
0
0
0.240437
0.160138
0.390992
0.126503
0
0.0379284
0.0309597
0.0568957
0.0366766
0.0496551
0.0900715
0.124602
0.0642707
0.0959705
0.316799
0.128066
0.115247
0.112079
0.0895251
0.242703
0.224382
0.0322917
0
0.100508
0.0448775
0.0432487
0.0691012
0.28364
0.144723
0.0463751
0.108381
0.0753812
0.35519
0.11125
0.126077
0.279729
0.194894
0.0057837
0.0111581
0.0280734
0.114765
0.38652
0.0610415
0.0288756
0.0302774
0.019525
0
0.00295796
0.011236
0.0900095
0.477158
0.102957
0.00957693
0
0
0.0424967
0.0138605
0.111324
0.0961224
0.32948
0.0315375
0.0339872
0.0868164
0.025331
0.00401557
0.00336638
0.0383552
0.323105
0.498202
0.02418
0.00648519
0
0
0
0.000297377
0.000921757
0.052954
0.388861
0.10946
0.00354816
0
0
0
0
0.000657809
0.0416712
0.430008
0.143514
0.00224325
0
0
0
0.000165422
0.0110341
0.257068
0.440493
0.0273717
0.00177228
0
0
0
0.0041383
0.029337
0.302754
0.449618
0.0360732
0
0
0
0.000998368
0.00232953
0.0288341
0.120692
0.353108
0.209184
0.00252317
0
0
0.00166395
0.00388254
0.103197
0.304239
0.285973
0.123438
0.000360453
0
0
0
0.014935
0.107137
0.368587
0.340849
0.0619291
0.0618223
0.0088001
0
0
0.00896098
0.0790098
0.202052
0.35376
0.236033
0.174181
0.0146668
0
0.00114934
0.000524267
0.00127733
0.0150201
0.107805
0.153333
0.103435
0.0936401
0.000832856
0
0
0.000405457
0.012943
0.231124
0.565656
0.173116
0.118808
8.89753e-005
0.00236236
0.00233026
0.00207439
0.0111549
0.0701646
0.134409
0.045163
0.0102941
0.00151234
0.000145971
0.00014164
0.000675761
0.00622735
0.165785
0.565656
0.314456
0.0108338
0.00024293
0.00140447
0.00335119
0
0.00684467
0.143472
0.368174
0.0503923
0.0162737
0.000278309
0.00234078
0.00558531
0
0.0101744
0.113581
0.30926
0.0799632
0.000667943
0.000166986
0.00637044
0.00961497
0
0
0.0774316
0.59976
0.243126
0.00118674
0
0.0106174
0.016025
0
0
0.0442713
0.419278
0.252425
0.00717073
0
0.00121279
0.00126528
0.00308019
0.0296097
0.085078
0.308975
0.115461
0.00339082
0.000682518
0.00967171
0.162211
0.124582
0.176764
0.0648376
0.073351
0.0775543
0.0274606
0.00113753
0.00240524
0.00363025
0.0021972
0.0404331
0.0724217
0.317501
0.515682
0.048604
0.00129249
0.00121917
0.097892
0.114977
0.205701
0.291949
0.21562
0.360326
0.0925996
0.0171568
0.0992783
0.259381
0.144486
0.0671511
0.0292928
0.00905565
0.0509606
0.0705217
0.0275557
0.236857
0.165732
0.0536734
0.00552544
0.0129518
0.000259927
0.0164589
0.060878
0.321644
0.0604149
0.163708
0.149836
0.0855719
0.195315
0.0861219
0.133783
0.0969954
0.10949
0.262877
0.0985014
0.0518319
0.0104559
0.0619795
0.0063085
0.0646809
0.0972021
0.605923
0.132361
0.0627016
0.018809
0.00295037
0.0011031
0
0.000553763
0.00339194
0.282696
0.240346
0.06513
0.0109471
0.000421481
0.00125646
0.00125646
0
0.0107437
0.397015
0.203845
0.00586401
0
0
0
0
0.00387634
0.00844232
0.439684
0.294811
0.0035794
0
0
0.0087952
0.0087952
0
0.0179062
0.538439
0.189531
0.0229874
0.000185794
0
0.029404
0.026267
0.0385043
0.135748
0.383287
0.104121
0.0135639
0.0379967
0.00935245
0.130612
0.120475
0.226938
0.237271
0.188021
0.233315
0.0317387
0.044182
0.00937982
0.0380214
0.12154
0.0437525
0.132994
0.368196
0.0791324
0.0935874
0.163582
0.0792896
0.243689
0.301688
0.24492
0.17001
0.083245
0.0351331
0.0100197
0.0592434
0.0322931
0.122349
0.0702183
0.0686822
0.0388438
0.014643
0.00331976
0.00152351
0.175098
0.326505
0.158828
0.0109208
0.000725596
0
0
0.00954764
0.0889825
0.228947
0.0808572
0.233869
0.120678
0.0776601
0.0224532
0.00211778
0.00258172
0.0779807
0.690382
0.307588
0.0974642
0.0154015
0.00117482
0.000503496
0
0
1.04196e-005
0.0855402
0.250235
0.142831
0.00841794
0.000203971
0
0
0
0.00401338
0.0974663
0.371672
0.137921
0.0132367
0
0
0
0
0.0106531
0.289819
0.284481
0.038427
0.00268301
0
0
0
0.00355225
0.00265662
0.403488
0.590648
0.0462523
0.00447169
0
0.000985185
0.00447795
0
0.0124811
0.145623
0.307957
0.0723882
0.0270577
0.0781205
0.0175294
0
0
0.00748866
0.0725499
0.064035
0.191463
0.207195
0.2018
0.0292157
0
0.0110471
0.00289439
0.31485
0.392114
0.102628
0.081215
0.0499637
0.0135815
0.0139259
0.00662823
0.00173663
0.082783
0.0675351
0.391123
0.45103
0.175222
0.0275772
0.00835552
0.00422017
0.00590259
0.000795588
0.00313644
0.0312015
0.0708086
0.0298796
0.0058579
0.00253063
0.00222886
0.00278861
0.000198577
0.00539363
0.102027
0.738214
0.395658
0.00134459
0.0010921
0.00537507
0.00832031
0.00752057
0.00439175
0.0165305
0.0234619
0.00853505
0.0114756
0.00680394
0.00488642
0.00586754
0.00634418
0.0169623
0.074017
0.316703
0.316617
0.00914616
0.00262674
0.00159355
0.00192961
0
0.000722782
0.0175119
0.386303
0.285844
0.000700512
0
0.00244165
0.00295413
0
0
0.00723072
0.197309
0.293174
0.0170846
0
0.000214269
0.000546818
0.000441324
0.00276763
0.0128987
0.223712
0.497007
0.0304797
0
0
0
0
0
0.00129577
0.135291
0.501408
0.161602
0
0.000551035
0.000666691
0.000181451
0.0056587
0.0183508
0.0914358
0.314973
0.0918686
0.00245098
0
0.00485351
0.0108954
0.0197649
0.0858466
0.111074
0.337655
0.220811
0.033654
0
0
0
0
0.00463777
0.0423267
0.493588
0.297743
0.00744912
0.00121757
0.00301487
0.00411792
0
0.00577881
0.0244306
0.291352
0.460834
0.0635961
0.0270624
0.011055
0.0195015
0.0104234
0.0595735
0.0528164
0.162042
0.156972
0.147562
0.178535
0.00817112
0.00883147
0.00289768
0.0171765
0.00388592
0.038694
0.088525
0.458803
0.0224499
0.00896543
0.0122456
0
0.00138523
0.00661389
0.148503
0.417967
0.138797
0.179504
0.00537925
0.00734736
0
0
0.000483098
0.0418766
0.356161
0.471537
0.171488
0.00079772
0
0
0
0
0.00146988
0.00992541
0.345194
0.204262
0.011147
0.000136498
0
0.00297333
0.00297333
0
0.00230139
0.429417
0.248908
0.00129409
0
0
0
0
0.00272064
0.0588495
0.404585
0.408459
0.0899953
0.000955489
0
0
0
0
0.000521268
0.398306
0.181542
0.0844899
0.046757
0.00753139
0.0112309
0.0357238
0.00362256
0.0104957
0.230873
0.0809122
0.268569
0.225653
0.0635721
0.0767459
0.0676192
0.0386848
0.020449
0.0391631
0.273825
0.306632
0.0400441
0.00107591
0
0
0
0.00244988
0.192263
0.0979633
0.645748
0.216458
0.00908172
0.00312366
0
0.0126245
0.00949362
0.042721
0.00745333
0.217408
0.234828
0.0500538
0.0712933
0.0186651
0.0238868
0.00933144
0
0.0077502
0.154317
0.455871
0.0655824
0.0244282
0.0021604
0.0026621
0.0011409
0
0.0184433
0.413398
0.201192
0.00666999
0.00276645
0
0.0111808
0.00528118
0.000400418
0.0172758
0.432113
0.432661
0.00372365
0.00131873
0
0.00159726
0.000684541
0
0.00174414
0.038644
0.283552
0.160586
0.00783831
0
0
0
0
0.00446547
0.015136
0.345813
0.46102
0.0301868
0
0
0.00507528
0.0105595
0.0076139
0.200219
0.447127
0.0887279
0.00616012
0.00253395
0
0.00127288
0.00031822
0.033103
0.0745585
0.341665
0.346744
0.0602935
0.0177377
0
0.0273475
0.017146
0.0209886
0.0334934
0.274406
0.333109
0.140077
0.0916974
0.00703695
0.0167093
0.0465693
0.0125932
0.0419321
0.0668214
0.0331313
0.293331
0.488272
0.197779
0.0597544
0.0337067
0.0646963
0.127433
0.182304
0.25654
0.133249
0.0348197
0.000126984
0.0423082
0.0421373
0.0840097
0.161511
0.1709
0.0585302
0.167156
0.162672
0.117686
0.156194
0.113241
0.0508805
0.0369019
0.0610671
0.029779
0.0201107
0.0317832
0.0501191
0.0602787
0.0666381
0.0494954
0.0349446
0.0576262
0.0557535
0.0644973
0.341793
0.620555
0.109718
0.048903
0.0860707
0.0315928
0.0587877
0.0451909
0.00851346
0.0108065
0.0914892
0.0542685
0.0707726
0.0916669
0.0323302
0.0570016
0.0564742
0.0065902
0.0387297
0.123889
0.107837
0.0871018
0.00114037
0.00120869
0.000971684
0.00160504
0.00273921
0.0650748
0.324763
0.0592719
0.0010971
6.65636e-005
0
0
0
0.000337085
0.042949
0.631562
0.391372
6.65636e-005
0.00357301
0.0027232
0.00567722
0.00314993
0.000768032
0.0116733
0.0722721
0.0313936
0.00247134
0.0049996
0.00264916
0.00548641
0.00135664
0.000448256
0.0134813
0.351015
0.375142
0.0107766
0
0
0
0
0.00031577
0.00242038
0.280327
0.345441
0.0060354
0.00195213
0.00145568
0.000328708
0
0.000186534
0.00034642
0.0818488
0.402068
0.0577801
0.00290423
0.000218433
0.00062492
0.000227702
3.4159e-005
0.00101802
0.166914
0.505696
0.0397774
0.00225104
0.000767211
0
0
0
0
0.0695475
0.516025
0.15199
0.00748844
0.00483165
0.00109104
0
0
0
0.0245593
0.243241
0.100243
0.074555
0.00289899
0.000654623
0
0
0
0.0144282
0.15654
0.225505
0.00696645
0.0025465
0
0
0
0
0.0137856
0.552133
0.381379
0.101551
0.0015279
0
0
0
0
0.00211746
0.169711
0.552133
0.147516
0.000357223
0
0
0
0
0.00151212
0.0273158
0.197914
0.298325
0.0447464
0.000263756
0
0
0
0
0.000143893
0.151657
0.213562
0
0
0
0
0
0.000172008
0.0127437
0.521361
0.525925
0.0124534
0
0
0
0
0
0
0.421993
0.211468
0.124943
0.00758136
0
0
0
0
0.0044321
0.0489332
0.148746
0.281644
0.0403637
0
0
0
0
0.00738684
0.0150833
0.57307
0.0642821
0.000208427
0
0
0
0
0.00265926
0.172283
0.57307
0.286539
0.00498079
0
0
0
0
0.0044321
0.0675682
0.0613956
0.316278
0.080797
0
0
0
0
0.00109875
0.000898975
0.0387686
0.48471
0.202575
0
0
0.00397662
0.00453924
0
0.00482084
0.353208
0.407137
0.0603673
0
0
0
0.00255531
0.00246454
0.0381084
0.137788
0.46378
0.140569
0
0
0.0180245
0.0446751
0.0176923
0.0431047
0.0741155
0.447656
0.361553
0.0202769
0.00479305
0.0188922
0.0212266
0.00610443
0.0127642
0.192843
0.194198
0.269827
0.107201
0.0401878
0.0381688
0.0119739
0.0536577
0.0320612
0.150064
0.308268
0.112685
0.0468593
0.00415516
0.0469261
0.0857557
0.024798
0.0690145
0.312255
0.255444
0.197655
0.218036
0.0297114
0.0202687
0.0253181
0.0276075
0.0456093
0.15801
0.229802
0.0916013
0.056809
0.0301056
0.0104097
0
0.0223898
0.0182536
0.284045
0.346363
0.0885904
0.0324883
0.0411295
0.00515443
0.00726258
0.0483603
0.0646318
0.246599
0.3565
0.149249
0.079032
0.0109675
0.017031
0.000684048
0.00792519
0.00882284
0.330547
0.501753
0.16201
0.0357318
0.00469689
0.0322516
0.0423781
0.00307842
0.011141
0.0798903
0.0595245
0.111966
0.0622386
0.0373507
0.0614056
0.0825508
0.0481244
0.0425891
0.0858587
0.0651761
0.156351
0.0882866
0.0151481
0.0625388
0.112065
0.0792741
0.0552983
0.194059
0.173521
0.126703
0.0960454
0.041652
0.0613128
0.0341523
0.0362143
0.0693046
0.223677
0.172892
0.15905
0.0625281
0.0273834
0.0481425
0.235894
0.162516
0.0680274
0.0505588
0.033756
0.0955941
0.055321
0.020188
0.0212996
0.0562294
0.0496756
0.0135612
0.126945
0.0381296
0.0841017
0.0489713
0.0394201
0.0318755
0.274879
0.597714
0.13174
0.0894004
0.0272243
0.0658835
0.0553205
0.0343162
0.00179443
0.120151
0.131043
0.0303685
0.140522
0.0244511
0.107954
0.085244
0.0637634
0.0281277
0.0907574
0.138464
0.0882881
0.0133627
0.00405659
0.00801177
0.00337513
0.00208333
0.00201163
0.0509823
0.294245
0.0829504
0.00882604
0.00212062
0.00611491
0.00287672
0.00115074
0.00374842
0.0589095
0.843449
0.280554
0.0102163
0.00733294
0.0184142
0.0105879
0.00630905
0.00561939
0.0119428
0.0245244
0.0224169
0.0123845
0.004355
0.0114191
0.0134013
0.0126
0.012565
0.0146171
0.114085
0.106811
0.00744875
0
0.000354194
0.000367226
0.000138567
0.000793695
0.0126879
0.374716
0.408696
0.0749558
0
0
0
0
0
0.000775194
0.127948
0.619606
0.00937537
0.000325141
0.000590324
0.00245166
0.00474673
0.00726696
0.00401058
0.0611442
0.174281
0.0270473
0.000541902
0
9.8667e-005
0.00162893
0.0051143
0.00461163
0.0526208
0.433113
0.18045
0
0
0
0
0
0.000313162
0.00991147
0.522875
0.464227
0.00216266
0
0
0
0.000254675
0.00491865
0.02134
0.473797
0.0956343
0.000194155
0.00030667
0
0.00101363
0.00196652
0.00358774
0.0130892
0.284584
0.197189
0.000354829
0.000511117
0
0.00358816
0.00819227
0.0402127
0.0427831
0.262923
0.50544
0.0191229
0
0
0
0.000317935
0.00534243
0.049815
0.279365
0.60057
0.0964822
0
0
0
4.54193e-005
0.00129333
0.0346449
0.20119
0.151173
0.000855414
8.63543e-005
0
0.00150417
0.00549409
0.0445578
0.11655
0.202963
0.203399
0.0115394
0
0
0.000565782
0.00709544
0.0204369
0.124831
0.235749
0.526452
0.211965
0.0206086
0
0
0
0.00910722
0.0323028
0.283353
0.172359
0.171444
0.0541862
0
0
0.0131982
0.0795013
0.140986
0.268338
0.184718
0.0222697
0
0
0.00572889
0.0504904
0.0497972
0.109352
0.30623
0.0871615
0.0130444
0
0
0.00640233
0.0524226
0.07985
0.239118
0.348759
0.0883965
0.0595521
0.0724694
0.066358
0.00611494
0.0235454
0.0852603
0.154267
0.224959
0.119768
0.101021
0.304929
0.349741
0.0489666
0.0109951
0.0162407
0.063516
0.100714
0.158
0.00860747
0.053913
0.0139335
0.00367516
0.0287771
0.0866477
0.27808
0.370689
0.13341
0.128079
0.330106
0.163857
0.0462502
0.0342433
0.0538338
0.149407
0.247232
0.0956473
0.162336
0.222318
0.172652
0.0239672
0.032582
0.00455115
0.00561027
0.00439421
0.11639
0.34947
0.225742
0.0697922
0.00423079
0.0564139
0.0740803
0.00264535
0.0160983
0.0809507
0.202001
0.16347
0.118921
0.0335011
0.0163847
0.0295439
0.0192637
0.0481666
0.296677
0.592952
0.115618
0.0289554
0.00557868
0.0112477
0.0499903
0.0102297
0.116432