0.131756
0.0278248
0.0502568
0.00148214
0.0871216
0.0434373
0.1426
0.112517
0.169116
0.213269
0.0153959
0.0705819
0.0469362
0.113905
0.00282498
0.108554
0.22599
0.32989
0.0694339
0.0317006
0.106982
0.0166032
0.154811
0.176323
0.0929039
0.0361237
0.074199
0.127268
0.0433182
0.267753
0.134036
0.179004
0.0461376
0.0532256
0.0534737
0.147299
0.101755
0.0517179
0.0736192
0.11584
0.138289
0.0311342
0.0466828
0.13688
0.146629
0.157854
0.110349
0.0795135
0.191621
0.150214
0.185606
0.109284
0.130484
0.0466484
0.120309
0.0336311
0.185408
0.147856
0.204966
0.00856174
0.0244878
0.0489052
0.122436
0.210838
0.0501903
0.0810322
0.120492
0.208329
0.0679218
0.160844
0.105749
0.146169
0.0678722
0.0250484
0.0276831
0.0985437
0.0567554
0.115873
0.110401
0.149951
0.105507
0.248835
0.050774
0.0869178
0.128142
0.0318938
0.0663147
0.0857153
0.138048
0.337398
0.117153
0.0211473
0.0141764
0.0129871
0.0374526
0.0554656
0.183505
0.178978
0.148496
0.265752
0.0985742
0.0711384
0.0145451
0.00926249
0.020032
0.140258
0.213515
0.319564
0.147721
0.0644079
0.0718041
0.0310142
0.0382484
0.00482675
0.0675042
0.149463
0.190571
0.0889605
0.0368597
0.0515321
0.057663
0.0769537
0.0492364
0.131698
0.202618
0.128395
0.143277
0.0499725
0.059572
0.00490334
0.0193174
0.000689536
0.0933458
0.27517
0.198962
0.249292
0.0584062
0.00905283
0.00151429
0.0194007
0.0295419
0.152373
0.41615
0.294155
0.0831601
0.0610114
0.0524756
0.0954354
0.0232846
0.101651
0.072967
0.0709516
0.0793243
0.156004
0.137003
0.0403225
0.0882206
0.02556
0.0781356
0.084592
0.128838
0.309396
0.320728
0.115584
0.00664976
0.00997464
0.00305955
0.0468489
0.0778382
0.129485
0.242927
0.256153
0.155931
0.0474309
0.0441748
0.0426001
0.0233118
0.0626054
0.249021
0.333696
0.145372
0.0737242
0.0464629
0.0152762
0.0242668
0.0220325
0.0237909
0.0858455
0.38938
0.124951
0.211337
0.0930584
0.0660291
0.159335
0.108095
0.0383793
0.0731072
0.209432
0.178297
0.0945234
0.0661929
0.0312447
0.0423261
0.0140416
0.0184003
0.117731
0.290312
0.187593
0.236331
0.160852
0.124162
0.0695893
0.0917006
0.0253446
0.0826036
0.258688
0.0326481
0.143111
0.125755
0.0876896
0.27448
0.0541318
0.0340661
0.0366766
0.0196748
0.030815
0.142456
0.19752
0.0725451
0.119522
0.00595238
0.0295782
0.0740885
0.0322293
0.0792459
0.177603
0.195767
0.092376
0.0950775
0.0428919
0.111076
0.181479
0.178599
0.132725
0.136942
0.166497
0.0590989
0.0346969
0
0.191059
0.239249
0.322632
0.0545217
0.127857
0.152292
0.125864
0.0541402
0.00100793
0.0536856
0.0472328
0.0444279
0.13227
0.0588835
0.0699838
0.123489
0.0555407
0.0294014
0.215979
0.105638
0.124543
0.181581
0.123503
0.0986681
0.0573905
0.0209939
0
0.168038
0.139849
0.280374
0.237439
0.0847882
0.0814981
0.147915
0.13931
0.0234055
0.164666
0.0766931
0.247146
0.0676449
0.0341992
0.00648751
0.145213
0.126333
0.114644
0.158689
0.0989508
0.0687699
0.0374863
0.107516
0.114422
0.228317
0.235781
0.19318
0.145691
0.064677
0.0276494
0.152883
0.0569987
0.0219305
0.0947884
0.135512
0.0580424
0.1751
0.0483045
0.134495
0.164514
0.0572181
0.162492
0.235243
0.136917
0.0703721
0.234847
0.0681403
0.159873
0.0226845
0.0161879
0.0476762
0.0224739
0.12449
0.171613
0.139358
0.058522
0.0260881
0.0320932
0.0252071
0.236992
0.170887
0.158184
0.087762
0.139399
0.0411925
0.0340163
0.0630304
0.0348051
0.089044
0.0469646
0.299791
0.083639
0.0781654
0.111909
0.0761097
0.0681583
0.029747
0.169476
0.132508
0.3008
0.0667229
0.175464
0.15168
0.0864208
0.0502249
0.0208102
0.187257
0.113532
0.211386
0.011177
0.0695524
0.0625064
0.0554981
0.0802252
0.021832
0.0825295
0.0253851
0.243346
0.0341354
0.166578
0.101318
0.0860241
0.0393825
0.0256625
0.118506
0.0524871
0.206111
0.00864843
0.18357
0.197815
0.0604381
0.0320802
0.0574423
0.208746
0.0173596
0.200211
0.124077
0.236107
0.155872
0.0432399
0.0330195
0.0103082
0.0114003
0.00480587
0.0306659
0.040762
0.105434
0.0527281
0.0325359
0.073931
0.0678314
0.0861563
0.0266698
0.0436326
0.0317052
0.0923084
0.0626521
0.0493276
0.0325404
0.0776825
0.111124
0.0945096
0.0417244
0.122625
0.0904436
0.023405
0.00430067
0.121477
0.591462
0.492317
0.189726
0.0725098
0.0776987
0.0541625
0.0134602
0.0143658
0.0762642
0.0353628
0.0421525
0.00478944
0.0131022
0.00107798
0.0149083
0.0261789
0.0434707
0.226171
0.054475
0.0141352
0
0.00390172
0
0.024478
0.0526554
0.121655
0.157779
0.322566
0.262816
0.0407774
0.0119278
0.00179664
0.00321036
0.00143912
0.0364363
0.531663
0.521994
0.13383
0.0122552
0.000557388
0
0.00310694
0.00316272
0.117673
0.224803
0.0336106
0.00927879
0.000282222
0
0
0.0153823
0.0251921
0.108947
0.198075
0.0230232
0.0128765
0.00197556
0.0020148
0
0.00887636
0.0977141
0.201764
0.473851
0.275014
0.0688044
0
0
0
0.00209311
0.00349324
0.114655
0.50416
0.0962975
0.0385373
0
0
0
0.00136144
0.0419597
0.372315
0.0770595
0.012159
0.00931568
0.00324677
0.00279103
0.00435635
0.00398095
0.0791446
0.22224
0.0682322
0.0118792
0.015277
0.0172293
0.00460614
0.0304945
0.00877538
0.0768698
0.28924
0.174222
0.0107372
0.000970163
0
6.91483e-005
0.000622336
0.00384536
0.106114
0.491099
0.061418
4.61982e-005
0.000138595
0
0.000484038
0.0098364
0.0596278
0.373446
0.531537
0.057379
0.0105063
0.0187176
0.0103596
0.00216595
0.025702
0.0424091
0.0982954
0.25884
0.057857
0.00604282
0.0090943
0.00278514
0
0.0238259
0.102643
0.111158
0.278744
0.040807
0
0
0
0.000244094
0.0703141
0.224437
0.40696
0.314902
0.0161051
0
0
0
0
0.10278
0.346116
0.35937
0.248651
0.105508
0.00710973
0.00750922
0.00507886
0.00828174
0.00950686
0.144982
0.119211
0.243496
0.211415
0.00670765
0.0158399
0.0307694
0.0785184
0.00177559
0.0657125
0.0447235
0.234123
0.065141
0.00249472
0.0165159
0.00759803
0.00118311
0.0283112
0.40592
0.281481
0.192112
0.279867
0.017463
0.115612
0.0531862
0.0112169
0.00253488
0.159305
0.0841708
0.292929
0.176793
0.00557348
0.00593582
0.0115381
0.0574801
0.00491979
0.0392439
0.0424329
0.18424
0.153532
0.0465417
0.0345394
0.0279507
0.0536564
0.00903026
0.0937536
0.0729479
0.197715
0.230937
0.0265822
0.0472012
0.0230929
0.0127791
0.00702363
0.0411234
0.154554
0.296642
0.20592
0.195141
0.0814912
0.0752625
0.0236139
0.00421418
0.100029
0.214394
0.488043
0.0388554
0.0644584
0.124239
0.0223551
0.300659
0.0367296
0.0326541
0.0480274
0.0387978
0.0679129
0.0204474
0.0720034
0.0259672
0.270312
0.0410306
0.0975265
0.15462
0.100086
0.0601906
0.0643887
0.149754
0.0301697
0.187326
0.184812
0.116385
0.0561719
0.0896476
0.121073
0.0373712
0.106911
0.0219533
0.163933
0.10583
0.143794
0.147387
0.204075
0.0172493
0.0197645
0.0190424
0.00156601
0.0809439
0.0144708
0.0562577
0.0621951
0.0344419
0.0121675
0.161581
0.149449
0.0442658
0.0787418
0.0310836
0.0413258
0.0270969
0.0150634
0.0188389
0.0659051
0.10318
0.0322888
0.0652761
0.0261365
0.0506682
0.0476362
0.0435743
0.016268
0.446315
0.549376
0.382412
0.0739748
0.00531539
0.0210991
0.021509
0.0150869
0.013338
0.0816399
0.106627
0.0795257
0.00920852
0.0198216
0.00527121
0.000620403
0.000206485
0.0648678
0.252049
0.292492
0.129982
0.00698263
0.0110567
0.00203459
3.55541e-005
0.000150858
0.016949
0.174532
0.328919
0.197656
0.0119599
0.00172095
0
0
0
0.0946842
0.337854
0.611282
0.190376
0.0105841
0.00103257
0
0
0
0.0650529
0.237655
0.211407
0.0417957
0.00103418
0.00014641
6.27472e-005
0
0.00195566
0.244734
0.372209
0.10036
0.00966911
0
0
0
0
0.00756029
0.06375
0.354979
0.33654
0.0452626
0.000965147
0.00246891
0.0190919
0
0
0.183404
0.515465
0.209774
0.00818386
0
0.00955599
0.0885867
0.0402287
0.0121062
0.289292
0.224346
0.0216444
6.88299e-005
0
0
0
0
0.0272488
0.352068
0.0673429
0.0090459
0
0
0
0
0.00576524
0.249891
0.315513
0.289562
0.0366461
0.00048181
0
0.00392693
0.0755139
0.048677
0.0472094
0.488751
0.0896703
6.42272e-005
0
0
0.000707284
0.035034
0.0224229
0.380822
0.0990693
0.00347193
0
0
0
0
0.00443385
0.0506867
0.31195
0.0121796
0
0
0
0
0.00311333
0.0450082
0.266606
0.266992
0.165815
0.00441351
0
0
0
0
0.00713582
0.0976108
0.460454
0.028219
0.000860537
0
0.00310755
0.00379811
0.000444761
0.104895
0.52381
0.356825
0.00104045
0
0
0
0
0.0366397
0.140463
0.273806
0.0758293
7.87311e-005
0
0
0
0
0.0589037
0.21359
0.237491
0.0706141
0.00134629
0
0
0.00383499
0.00468721
0.020746
0.293316
0.50991
0.0815752
0
0
0
0.000547856
0.00563081
0.0971905
0.468049
0.320991
0.0732146
0.0128068
0.00142177
0.0146448
0.00464315
0.00549965
0.0370493
0.302798
0.206147
0.0675033
0.0647947
0.01102
0.106784
0.0402927
0.0216295
0.0185546
0.144476
0.0695568
0.0701501
0.00426222
0.00020311
0.00763895
0.00382826
0.0499386
0.18655
0.530389
0.317929
0.109446
0.0250729
0.00889499
0.12103
0.0680481
0.174285
0.122986
0.313713
0.193666
0.0611936
0.0446608
0.0314224
0.0509202
0.0330514
0.0154466
0.00948485
0.0252813
0.0319474
0.0517325
0.0735924
0.181529
0.163888
0.111589
0.015394
0.00497371
0.0290621
0.0405205
0.0813518
0.0215149
0.049102
0.231049
0.143204
0.0886904
0.0155804
0.045339
0.0237681
0.0154161
0.0414538
0.28513
0.678743
0.353255
0.0626658
0.00298422
0.0272246
0.0147738
0.00461781
0.0881624
0.0438215
0.109889
0.033048
0.073217
0.0945976
0.135052
0.0655275
0.117787
0.112725
0.0455706
0.106667
0.0609345
0.0237157
0.0789952
0.208603
0.0893323
0.161889
0.17892
0.0722384
0.194312
0.070726
0.0361759
0.0484584
0.130652
0.0565762
0.201567
0.186437
0.221198
0.219872
0.0745803
0.07002
0.0426895
0.200052
0.0791885
0.158714
0.00643461
0.0304087
0.0986679
0.0575186
0.00830294
0.00609946
0.0272619
0.010152
0.00940512
0.00761715
0.223275
0.377499
0.248611
0.0305851
0.00025158
0.00688194
0.0037618
0.00113095
0.010683
0.0524652
0.118403
0.129319
0.092689
0.00260304
0.0344821
0.0170206
0.0059868
0.00447478
0.123964
0.303042
0.611993
0.2389
0
0.00810255
0.00412773
8.95043e-005
0.00499136
0.117279
0.235371
0.12007
0.0201258
0
0
0
0
0.0171795
0.149328
0.473591
0.137474
0.0178713
0.000554874
0.000184958
0
0
0.00193697
0.0615801
0.163049
0.292263
0.0853156
0
0
0
0
0.00126895
0.0519635
0.521144
0.407288
0.0687188
0.00471433
0.00129471
0
0
0.0295765
0.249551
0.383504
0.0829981
0.037936
0.0104106
0.0574911
0.00706596
0
0.0398169
0.333348
0.233603
0.0194
0.0589878
0.0337935
0.213254
0.115442
0.0388867
0.0131305
0.0805542
0.399014
0.250423
0.108648
0.0422989
0.0545346
0.016979
0
0.0926986
0.143613
0.186865
0.0704469
0.160753
0.0736864
0.247086
0.198627
0.0456561
0.100906
0.212587
0.0795637
0.00218424
0.0113393
0.0548334
0.245286
0.159642
0.101397
0.281823
0.111518
0.00201623
0
0
0.0290399
0.131887
0.093987
0.377788
0.126806
0.175595
0.0980858
0.0418794
0.0470196
0.0928801
0.208026
0.21668
0.104542
0.305578
0.226162
0.0537119
0.0253609
0.0188053
0.0599764
0.0796177
0.114414
0.327583
0.214853
0.029803
0
0
0
0
0.0124239
0.0907179
0.363939
0.117287
0.00613362
0
0.0140608
0.0216873
0.000794437
0.158599
0.445388
0.281102
0.249896
0.106615
0.0781117
0.0284521
0.0268286
0.00194836
0.00923422
0.0495302
0.302065
0.141351
0.0807556
0.12405
0.0422961
0.147912
0.00556106
0.161162
0.189999
0.261111
0.0112526
0.00608477
0
0.00907353
0.0189866
0.0141522
0.253789
0.251197
0.0328472
0.00298707
0.00365086
0
0.00129622
0.0180604
0.0861116
0.498393
0.175661
0.0161854
0.016059
0.0258433
0.0203427
0.0148126
0.167311
0.0327544
0.203316
0.134891
0.0338093
0.00497845
0.00608477
0
0.00892432
0.152042
0.311233
0.520489
0.115129
0.00594966
0
0
0.00015692
0.000235379
0.0339959
0.119386
0.355446
0.145549
0.0383576
0.000840791
0.00163039
0.0368458
0.0400793
0.102463
0.128869
0.249868
0.100061
0.0219245
0
0
0
0.00109538
0.155981
0.422476
0.416018
0.0852413
0.0114749
0.0341057
0.0109415
0.0168838
0.0499008
0.167879
0.317238
0.316427
0.0577127
0.0179146
0.00144198
0.0209692
0.172489
0.133872
0.0652076
0.0397534
0.0566077
0.014771
0.00082058
0.00451813
0.103131
0.48693
0.253927
0.0374953
0.0029713
0.0093223
0.00355252
0.000117226
0.0332858
0.0382826
0.117291
0.231983
0.0667259
0.111797
0.10475
0.00978441
0.0110953
0.00645362
0.0979796
0.348177
0.529873
0.0890906
0.0159683
0.0166177
0.00388623
0.00158504
0.0853031
0.0325359
0.0653279
0.0273954
0.0803687
0.126951
0.153255
0.0894058
0.12822
0.0707088
0.109821
0.111107
0.0226991
0.218212
0.126891
0.0979214
0.0704013
0.0624597
0.185546
0.119642
0.0160416
0.0178278
0.0913659
0.139113
0.248658
0.167352
0.173897
0.0982658
0.125498
0.0160539
0.00667706
0.267264
0.19757
0.230874
0.103707
0.0803625
0.0056859
0.0287098
0.0456002
0.0650806
0.142545
0.04615
0.0145673
0.0181869
0.0035035
0.000417345
0.00960809
0.0762801
0.445377
0.336954
0.0539036
0.00298474
0.00311609
0.000233119
0.0110739
0.0352251
0.0084438
0.0278745
0.159533
0.154418
0.0398381
0.0204853
0.00461865
0.00310534
0.0115531
0.0158024
0.210534
0.509366
0.385807
0.0239551
0.0045487
0.000139871
0
0.00116886
0.0419862
0.250135
0.172486
0.00670337
0
0
0
0
0.0017494
0.175764
0.373305
0.221464
0.0116292
0.000460698
0
0
0
0
0.00515274
0.1246
0.38206
0.122583
0.00431196
0
0
0
0
0.0301272
0.191148
0.607188
0.153446
0.0172875
0.00300441
6.87082e-005
0.0113065
0.00551158
0.154299
0.271355
0.201683
0.0502323
0.0106554
0.00624121
0
0.104994
0.0350944
0.186904
0.214912
0.235623
0.0568844
0.104005
0.0975708
0.0277535
0.00161522
0.000179469
0.0487625
0.159975
0.446584
0.173422
0.0416173
0.0305598
0.000278961
0.0370575
0.0522903
0.145306
0.25152
0.363724
0.157956
0.15114
0.216058
0.0387859
0.146012
0.066489
0.0929389
0.166045
0.104997
0.0639821
0.0732215
0.090489
0.0695772
0.368288
0.152334
0.101461
0.0676374
0.0594884
0.0603695
0.00987796
0.036517
0.128964
0.156154
0.100087
0.0757081
0.183472
0.123302
0.0949523
0.103526
0.171308
0.151877
0.455572
0.360958
0.151599
0.0802091
0.054112
0.0542757
0.0361834
0.129205
0.181616
0.188558
0.109258
0.221932
0.0526332
0.0458595
0.0100229
0.00408175
0.0500301
0.0945596
0.0489995
0.131741
0.255915
0.114868
0.224209
0.0559912
0.0602477
0.103085
0.11369
0.1897
0.230647
0.298025
0.088191
0.0359073
0.0461663
0.0225746
0.203801
0.0692198
0.111471
0.121203
0.215945
0.194206
0.192864
0.347124
0.0548135
0.208294
0.165571
0.00700387
0.0332881
0.0351357
0.0595516
0.247627
0.072973
0.0512673
0.0416325
0.0200612
0.000831306
0.00157144
0.000563665
0.0282886
0.32004
0.328254
0.119633
0.0228249
0.00141814
0.0479904
0.0460838
0.0272063
0.14206
0.277957
0.182935
0.0150503
0.017574
0.0503462
0.0057446
0.00495691
0.00636416
0.16855
0.611218
0.254233
0.00468597
0.000137775
0.00397262
0
0.00504279
0.0012607
0.00232642
0.269093
0.299965
0.0827561
0.0122052
0.000854741
0.0291945
0.0178025
0.0114289
0.0121814
0.190809
0.232524
0.0897816
0.020807
0.00929788
0.0123001
0.00977132
0.00210116
0.133094
0.566927
0.180054
0.00841382
0.00287223
0
0.028552
0.0189219
0.0402598
0.158136
0.465076
0.144179
0.0237516
0.00600182
0.00126892
0.0355777
0.0282783
0.0337744
0.130979
0.0820832
0.116175
0.0344876
0.00608187
0.00941336
0.00896698
0.0353279
0.0943947
0.387443
0.22754
0.0259742
0.00306987
0.000507366
0.00134477
0.0192038
0.00993033
0.0459606
0.188606
0.306622
0.0846407
0.0125433
0.00125373
0.00134477
0.00791392
0.00584415
0.0539137
0.340422
0.61929
0.0797924
0.00373199
0
0.000192109
0.282752
0.104219
0.0371529
0.0274291
0.0697606
0.021182
0.0738114
0.0931532
0.178659
0.158867
0.168169
0.0271879
0.00976883
0.0820791
0.0587754
0.125061
0.128211
0.126636
0.25364
0.12145
0.0665544
0.034047
0.147669
0.00914884
0.0550394
0.0853022
0.186894
0.131455
0.196799
0.118194
0.0683818
0.117921
0.0507814
0.173896
0.135168
0.111443
0.0122922
0.0403354
0.00668089
0.0176347
0.0951689
0.102017
0.0442042
0.0109062
0.00529783
0.00346687
0.0113252
0.000954413
0.0391468
0.274384
0.417162
0.0908566
0.00112467
0.000492577
0.00984666
0.0312984
0.0274559
0.0256403
0.0663759
0.168375
0.0540231
0.012891
0.00794717
0.00397707
0.00510816
0.0074121
0.0171286
0.115775
0.687954
0.240445
0.0141883
0.00384533
0
0
0
0.0154142
0.219814
0.234902
0.0358047
0
0
0
0
0.00502362
0.0175668
0.35357
0.345012
0.101365
0.0043915
0.000201673
0
0
0
0.0011212
0.095907
0.31496
0.153572
0.0162273
0
0.0132252
0.00146947
0.0110765
0.00933639
0.157457
0.461547
0.429866
0.0214043
0.000121004
0.00832498
0.00729552
0.048571
0.0670979
0.214788
0.260095
0.0997336
0.0304058
0.000848751
0.0904028
0.0876948
0.0708792
0.111452
0.108649
0.183889
0.167473
0.172921
0.0462244
0.0735239
0.0303129
0.101362
0.19956
0.134479
0.315414
0.37855
0.0494728
0.000509251
0.18007
0.197767
0.119214
0.290688
0.170771
0.191413
0.192693
0.126729
0.0332545
0.147787
0.137539
0.0492505
0.0653672
0.024319
0.111123
0.120029
0.142873
0.165404
0.293993
0.300292
0.134336
0.0725869
0.00724684
0.0193138
0.0421406
0.0900544
0.289144
0.16276
0.176661
0.0387873
0.0952792
0.0883574
0.188806
0.131615
0.190241
0.124429
0.26175
0.129681
0.0789756
0.0804043
0.0208553
0.0419089
0.0994949
0.18386
0.327314
0.190393
0.150928
0.129565
0.0669187
0.0218899
0.0326093
0.0217375
0.127886
0.169
0.206504
0.0385256
0.0689355
0.122078
0.119583
0.228732
0.135385
0.183841
0.235109
0.204644
0.0905399
0.0629637
0.0588913
0.0807502
0.0699402
0.0673318
0.0888112
0.228503
0.172954
0.0325274
0.0377029
0.128442
0.290744
0.256531
0.246839
0.199037
0.23899
0.0633293
0.0193925
0.0332886
0.114588
0.115771
0.0998524
0.0627213
0.0243608
0.0693477
0.0165671
0.0115294
0.0866285
0.366454
0.327251
0.0670462
0.00866768
0
0.00747067
0.0387845
0.0312617
0.110813
0.0681677
0.154983
0.182066
0.143649
0.0407375
0.050467
0.0281001
0.0732481
0.540703
0.418126
0.133433
0.0769835
0.0224403
0
0.00339903
0.0145169
0.00765454
0.0685
0.336838
0.343736
0.0276408
0
0
0
0.0256825
0.0201407
0.0939557
0.266677
0.279865
0.0217109
0.0370903
0.00840006
0
0.00552138
0.0296378
0.356685
0.427622
0.140367
0.000510332
0
0.00309189
0.00103063
0.0248808
0.0808234
0.293976
0.254218
0.0988583
0.00453237
0.0531569
0.0449012
0.0072144
0.0105431
0.0183965
0.0563864
0.199197
0.249336
0.0528925
0.0794663
0.014163
0
0.00196891
0.00707673
0.0341032
0.188549
0.48734
0.219559
0.146201
0.0151416
0.00612464
0.0301524
0.0631298
0.143164
0.0951621
0.0792288
0.0510074
0.191497
0.0846575
0.00360993
0.00629685
0.0127694
0.0163355
0.0467842
0.285669
0.233482
0.410289
0.132761
0.0634358
0.114976
0.159378
0.0669613
0.0623412
0.136374
0.0318965
0.0686264
0.0473799
0.0866933
0.162161
0.204333
0.0906765
0.0583242
0.133712
0.0715416
0.133686
0.0980871
0.0930504
0.11568
0.14403
0.115594
0.0967274
0.201353
0.0745776
0.0811345
0.0701664
0.0993962
0.287739
0.161998
0.179722
0.0580364
0.0842327
0.113256
0.155361
0.12646
0.189331
0.034625
0.0464596
0.0284991
0.0086526
0.042434
0.145085
0.0467023
0.0261549
0.0154051
0.0093387
0.00631746
0.0209849
0.00261993
0.0862571
0.64119
0.2772
0.0372242
0.00795611
0.0876291
0.0371965
0.0445443
0.00141267
0.0220412
0.0905155
0.0697502
0.0222942
0.0557689
0.0560223
0.00662523
0.0984692
0.0148078
0.121755
0.403987
0.273959
0.0354185
0.0560782
0.000369422
0
0.00269033
0.000298926
0.0436811
0.273133
0.214354
0.0402424
0.000369422
0.0184879
0.0020542
0.00429142
0.00445019
0.0517666
0.290693
0.504527
0.108592
0
0.0038105
0
0.0203559
0.00492194
0.0499796
0.230453
0.253971
0.0508443
0.0109094
0.00454248
0.00599754
0.000217651
0.000404209
0.0194723
0.163084
0.461055
0.215612
0.0531546
0.0547753
0.0121043
0.0200216
0.0707172
0.0827342
0.114372
0.345566
0.198337
0
0.0646174
0.0557144
0.0207783
0.10466
0.184581
0.132476
0.177934
0.228449
0.0266586
0.00929059
0.00665209
0
0.00262556
0.0235142
0.0353348
0.336412
0.342229
0.0698814
0.0151583
0.0198949
0.000977447
0.00437594
0.0739499
0.109714
0.30377
0.409046
0.176655
0.0571549
0.0345431
0.00279238
0.0191069
0.0642042
0.076973
0.0605881
0.140065
0.0889206
0.147639
0.0367679
0.0220626
0.0120441
0.00858349
0.0123536
0.0328453
0.108485
0.239105
0.0809667
0.0537105
0.00239877
0.000534667
0.023059
0.0698874
0.0791905
0.158108
0.321181
0.312477
0.0489443
0.00437051
0
0.000859821
0.00794344
0.00551501
0.0515374
0.710422
0.120568
0.0607109
0.0400632
0.0231828
0.0486179
0.0338093
0.0246518
0.0305307
0.216111
0.0672603
0.0615931
0.0572104
0.0713685
0.24332
0.151658
0.0519628
0.0343201
0.135188
0.340451
0.117526
0.0169058
0.0405156
0.0344822
0.00295792
0.0010079
0.0125711
0.521789
0.2377
0.337629
0.161775
0.147357
0.121754
0.0370206
0
0.00536522
0.208215
0.0226137
0.05694
0.163414
0.0411346
0.147029
0.123734
0.0343828
0.00832897
0.048273
0.016141
0.101182
0.568182
0.16189
0.0518271
0.050031
0.00518656
0
0.0206476
0.0682232
0.258034
0.215092
0.0537852
0.0507001
0.0366404
0
0
0.0714906
0.0505745
0.305144
0.485759
0.0873161
0.0146463
0.0153766
0
0
0.0353652
0.00145696
0.0730785
0.480079
0.243441
0.0279479
0
0
0.00420551
0.00140184
0.0108801
0.0901899
0.345971
0.180083
0.0313011
0.00959347
0.0355185
0.0398544
0.00981286
0.0491151
0.172596
0.462877
0.139211
0.0205449
0
0
0.000600787
0.00402273
0.0237699
0.0795595
0.327054
0.174432
0.0504793
0.0271328
0.0256779
0.00704704
0.00369532
0.0130487
0.0388681
0.149976
0.043306
0.0369453
0.0401026
0.202066
0.0852129
0.0103481
0.00434894
0.0027071
0.0128899
0.011873
0.102278
0.120995
0.519826
0.178173
0.0575816
0.000963691
0.0180684
0.104784
0.063825
0.0497719
0.0859417
0.149819
0.0397495
0.0427486
0.000933192
0.00338784
0.00798409
0.0129737
0.0514258
0.26824
0.542552
0.126475
0.10155
0.0779194
0.10781
0.0926873
0.0182399
0.17849
0.0310817
0.0608408
0.0970949
0.099546
0.139366
0.0996035
0.15149
0.0109439
0.0521062
0.0393447
0.137419
0.0629606
0.113354
0.138014
0.047612
0.0330238
0.0133019
0.319163
0.0408093
0.0330578
0.101144
0.160783
0.0749888
0.061744
0.0866824
0
0.221236
0.107278
0.182773
0.0576294
0.0695809
0.128122
0.0315971
0.0812628
0.00155524
0.0228418
0.04929
0.115788
0.0343116
0.116699
0.121046
0.0177298
0.167103
0.0613044
0.184173
0.191168
0.284744
0.122162
0.151126
0.0539281
0.0393237
0.0550022
0
0.166049
0.107009
0.149354
0.0365991
0.0516217
0.05832
0.0430344
0.113681
0.0413459
0.324221
0.08802
0.217582
0.0958656
0.0753916
0.00558891
0.000458695
0.0297395
0.0281605
0.0520918
0.102449
0.238281
0.121822
0.0388004
0.0132725
0.0314225
0.00475723
0.00883485
0.0137087
0.116133
0.493969
0.366246
0.134786
0.00791115
0.00705273
0.0237537
0.0277081
0.0541225
0.0337413
0.140642
0.100284
0.0279904
0.0291478
0.04761
0.00664979
0.0123496
0.0348038
0.113688
0.314156
0.373773
0.104424
0.011573
0.0201127
0
0
0.00162859
0.0177167
0.241218
0.259788
0.106167
0.00567608
0.0115352
0.00401822
0.000628646
0.00720786
0.0292711
0.242867
0.380862
0.252256
0.0201769
0.0188389
0
0
0.00296281
0.0264718
0.188846
0.32676
0.0927627
0.00776494
0.00711133
0.0249363
0.00440052
0
0.00438597
0.163986
0.47282
0.232234
0.0336642
0.0197154
0.00341163
0.000446668
0.00188404
0.0194103
0.0416845
0.152902
0.31887
0.27683
0.0222308
0.000889896
6.38097e-005
0
0.00265756
0.0016303
0.0443447
0.558657
0.035484
0.0104052
0.0177178
0.00312667
0
0.00114643
0.0253404
0.192199
0.268621
0.298907
0.0307808
0.00253111
0.000446668
0
0
0.00148929
0.0664714
0.413537
0.363856
0.101845
0.00759453
0.0132566
0.00791924
0
0
0.00373349
0.26316
0.276868
0.319041
0.081244
0.050368
0.0131987
0
0
0.00178528
0.0605785
0.450478
0.0875617
0.0008659
0
0
0
0
0.0042565
0.147127
0.436309
0.232067
0.0377529
0.0215801
0
0
0
0
0.0626322
0.114306
0.392786
0.183215
0.0328043
0.00237877
0
0
0
0.0276354
0.125121
0.395032
0.288504
0.0915744
0.00702289
0
0
0
0.0213642
0.177293
0.372016
0.117178
0.0344913
0.00385025
0
0
0
0.046719
0.208047
0.358137
0.153944
0.065956
0.0135261
0
0
0
0.050263
0.16983
0.306763
0.398522
0.194485
0.0256094
0
0
0
0.0172183
0.087641
0.131635
0.37368
0.151974
0.0335009
0.0167759
0.0209771
0.00489189
0.0258151
0.202076
0.255112
0.192923
0.120651
0.0309887
0
0
0
0.0722743
0.146882
0.127187
0.167254
0.0683384
0.0279081
0.00776206
0.0110341
0.00256915
0.115012
0.0195248
0.0469402
0.128495
0.0621884
0.0602307
0.0659877
0.0867478
0.0261477
0.0488525
0.00718448
0.0300409
0.0239028
0.0238325
0.103162
0.32955
0.544446
0.214793
0.0857238
0.0843487
0.0587787
0.0905041
0.044182
0.0584475
0.012363
0.054174
0.0189445
0.0772546
0.0287563
0.0806629
0.106775
0.118925
0.109912
0.191423
0.252496
0.119043
0.0252378
0.130567
0.0431882
0.0731657
0.0282173
0.2
0.0865686
0.0106615
0.0323363
0.134317
0.0511138
0.084724
0.123276
0
0.237825
0.10054
0.0564055
0.0126861
0.0445509
0.144191
0.211876
0.136514
0.0169304
0.125512
0.0927648
0.126104
0.0700893
0.141039
0.0877432
0.280131
0.247533
0
0.243542
0.0612704
0.0457688
0.00867361
0.0634229
0.045548
0.115453
0.0442038
0
0.195149
0.0696325
0.0935124
0.0222839
0.0270366
0.103105
0.107598
0.0652828
0.0130926
0.18903
0.0646828
0.186266
0.0490099
0.0869987
0.10579
0.223631
0.145919
0.0152363
0.120107
0.00604779
0.0873828
0.0290902
0.0695851
0.242287
0.233863
0.181834
0.0569963
0.0632035
0.0125498
0.230517
0.0740671
0.150367
0.0420232
0.0193795
0.0345936
0.0276639
0.0440373
0.0671924
0.181406
0.0852869
0.0505556
0.0512546
0.0670558
0.0243312
0.0165983
0.0346985
0.136024
0.268353
0.323507
0.130722
0.130888
0.0530757
0.0763039
0.0445876
0.089307
0.0854171
0.186627
0.0596443
0.0910997
0.0434945
0.0471456
0.120748
0.0912949
0.117093
0.236388
0.320276
0.202521
0.10614
0.0232877
0.0170977
0.0041007
0
0.0150708
0.0537385
0.200656
0.334495
0.119925
0.0569603
0.0493952
0.025911
0.00376087
0.00997129
0.0536473
0.214238
0.45766
0.312
0.0149091
0.0142297
0.0383615
0.0472316
0.0350814
0.16581
0.179362
0.124524
0.0495796
0.146013
0.0868217
0.0583505
0.00674737
0.0363777
0.119272
0.1664
0.108628
0.137924
0.112859
0.0945521
0.0187884
0.00307172
0.00789604
0.0104747
0.0490741
0.197578
0.342081
0.380221
0.156261
0.0460891
0.000438817
0.015887
0
0.00499201
0.125448
0.496982
0.140449
0.106315
0.0289947
0
0.0667418
0.00982475
0.0466902
0.0482404
0.123848
0.152537
0.105618
0.0808312
0
0.125188
0.00566341
0.0630393
0.0716749
0.171648
0.464485
0.160233
0.0523853
0
0.00599532
0
0.00874457
0.0218423
0.13027
0.561107
0.19296
0.0452725
0.0206673
0.00312932
0.00322567
0.0472906
0.0166671
0.169611
0.165417
0.0892298
0.0873087
0
0.0519378
0.0125468
0.0704643
0.032791
0.0748818
0.224281
0.0668028
0.0417126
0.00378589
0.0554346
0.0301078
0.116862
0.0371843
0.152749
0.28817
0.326048
0.11704
0.0539953
0.0466829
0.00552759
0.0467891
0.0382054
0.180352
0.243162
0.295014
0.114127
0.0486652
0.115175
0.000789656
0.0143237
0.0203015
0.123431
0.116715
0.0339649
0.0279875
0.0176351
0.164364
0.0386932
0.118776
0.0697443
0.150348
0.106953
0.0241588
0.0443193
0.057594
0.369272
0.00552759
0.0425736
0.037477
0.103978
0.20646
0.139122
0.0906442
0.0429899
0.119777
0
0.0387305
0.0199869
0.117652
0.166989
0.146807
0.0880835
0.0471879
0.130914
0.0460297
0.0512196
0.0608547
0.164268
0.103764
0.0529097
0.122252
0.141881
0.295471
0.0107603
0.0703448
0.0438407
0.0842356
0.0458084
0.0959451
0.123878
0.106877
0.30645
0.177306
0.116376
0.173573
0.107282
0.0932329
0.108493
0.0902433
0.0799976
0.106288
0.0636449
0.0576734
0.0328206
0.0960497
0.0602898
0.0792557
0.129513
0.158064
0.183924
0.201283
0.122654
0.023231
0.0545866
0.04742
0.0712016
0.0680571
0.0376934
0.276658
0.226297
0.0862674
0.0757101
0.0751548
0.139211
0.0544791
0.0687728
0.0637906
0.263585
0.171738
0.127227
0.0473529
0.136664