0.142519
0.0402571
0.00718111
0.0846923
0.0428769
0.101519
0.117104
0.177005
0.0777864
0.124869
0.118146
0.0417982
0.0639694
0.0935401
0.0684882
0.0950758
0.265703
0.223961
0.433648
0.156161
0.0542827
0.0934093
0.0202701
0.0149483
0.0438549
0.0380727
0.125588
0.285044
0.170874
0.252476
0.28871
0.0641269
0.0984126
0.041243
0.0864268
0.256805
0.0937502
0.0881451
0.116722
0.123369
0.134319
0.0348949
0.00489347
0.0490254
0.0969448
0.0834428
0.105119
0.270025
0.161783
0.193847
0.054254
0
0.0596959
0.0762157
0.214886
0.0936381
0.142271
0.220975
0.124413
0.0806661
0.00271782
0.0233257
0.265565
0.254829
0.20746
0.325124
0.179075
0.231419
0.104384
0
0.0510231
0.323714
0.0532735
0.0615781
0.152729
0.154739
0.19024
0.0466143
0.0183648
0.0231709
0.0525554
0.0798032
0.147206
0.190005
0.130829
0.155428
0.0504433
0.129518
0.0184903
0.0547794
0.133025
0.176139
0.270179
0.178459
0.131275
0.0407527
0.0408392
0.0519966
0.199234
0.361467
0.396951
0.21
0.161748
0.0629358
0.0328921
0.115635
0.0290838
0.254987
0.060841
0.0465367
0.0717126
0.0476505
0.0450304
0.0181465
0.0455749
0.0202603
0.0388076
0.139615
0.0568159
0.153338
0.124332
0.0573477
0.0403158
0.0117615
0.0266828
0.0381447
0.366528
0.217323
0.0295692
0.0219404
0.0130952
0.0107
0.0342213
0.0118285
0.114122
0.54087
0.580412
0.0475251
0.0590681
0.0380268
0.0407754
0.0086029
0.0161814
0.0558768
0.098563
0.037928
0.0674744
0.122268
0.0827117
0.0294444
0
0.0140626
0.0497246
0.0974926
0.0115264
0.0138618
0.111025
0.0645495
0.0462965
0.016453
0.0336893
0.0893627
0.501
0.287277
0.0388238
0.0639879
0.0552011
0.0237099
0
0.00770711
0.0645796
0.583521
0.0505721
0.0047401
0.0198899
0.0310002
0.024104
0.0195545
0.0173468
0.392463
0.0492973
0.0179407
0.0102239
0.0969614
0.073733
0.0490199
0.0220791
0.0447584
0.0871608
0.115509
0.0531086
0.00963272
0.0437576
0.058469
0.0559752
0.0306529
0.0539476
0.212099
0.310565
0.0230549
0.00497765
0.0129375
0.00995083
0.0192228
0.0279642
0.118747
0.525792
0.164264
0.0238804
0.0224194
0.0132257
0.00647594
0.0245957
0.0631977
0.336927
0.517804
0.215367
0.101402
0.0619472
0.0369204
0.0147019
0.0368767
0.0556815
0.0414135
0.170638
0.221069
0.31576
0.18843
0.1198
0.029274
0.042533
0.0598632
0.0377771
0.100294
0.168773
0.0745619
0.107241
0.121815
0.0178544
0.0818503
0.105138
0.161901
0.260585
0.423369
0.279327
0.23251
0.231851
0.0337201
0.0710623
0.0707926
0.0599823
0.105749
0.115184
0.191198
0.181012
0.19972
0.0679943
0.0663551
0.108243
0.0226309
0.06822
0.111175
0.116113
0.0919935
0.229729
0.159103
0.0870618
0.190488
0.0159891
0.0369978
0.334185
0.241854
0.194092
0.18979
0.0486096
0.0620343
0.0756836
0.0918177
0.0982941
0.126028
0.128404
0.0888015
0.277802
0.208922
0.239232
0.15504
0.0576723
0.114081
0.251131
0.136082
0.013231
0.0387014
0.0521692
0.0500241
0.114375
0.0271521
0.0575825
0.274943
0.204022
0.0147766
0.0565285
0.114444
0.0483181
0.0976421
0.133303
0.128516
0.194973
0.0666169
0.0103678
0.0510871
0.0804511
0.107846
0.131992
0.102645
0.166367
0.240882
0.0797527
0.0134986
0.0127688
0.0412092
0.0319222
0.129538
0.563607
0.245518
0.277552
0.147281
0.0732392
0.105936
0.0050381
0.0116206
0.003676
0.0104472
0.0535251
0.187035
0.0712731
0.24591
0.345058
0.0363096
0.0748679
0.025732
0.00626832
0.0784322
0.294444
0.244902
0.0587775
0.150573
0.117718
0.0396689
0.0115514
0.083515
0.106899
0.422196
0.10583
0.153291
0.250705
0.116653
0.123263
0.0428866
0.0443403
0.119809
0.173372
0.0570312
0.0929664
0.144596
0.0499696
0.0555425
0.00927081
0.00278352
0.0735726
0.219916
0.122748
0.173339
0.0916464
0.115077
0.0689286
0.015942
0.0303549
0.0936528
0.278827
0.0629689
0.0849157
0.162172
0.104988
0.0611133
0.0154514
0.0046392
0.0539944
0.325147
0.346777
0.368793
0.422515
0.155247
0.0279773
0.0265699
0.0340273
0.0503306
0.0391778
0.0698244
0.182604
0.04335
0.016898
0.00702224
0.00698974
0.0153409
0.0301667
0.138326
0.248798
0.249194
0.0472741
0.00183901
0.0013351
0.00891417
0.00755743
0.039717
0.0901109
0.344732
0.352392
0.0633807
0.0110797
0.00088874
0.00408401
0.00675529
0.0183118
0.0931983
0.521857
0.470399
0.0153874
0.00279315
0
0
0.00105823
0.00510433
0.327771
0.277167
0.0543543
0.00650622
0.000378788
0.000551811
0.00256521
0.000162018
0.0347606
0.44689
0.402803
0.0113655
0.00434197
0.00168486
0.00249515
0.000208309
2.31455e-005
0.0229161
0.216081
0.367432
0.111973
0.00734476
0.00105552
0
0
0
0.00505544
0.361047
0.264206
0.021532
0.00679931
0
0
0
0
0.0244479
0.437221
0.192856
0.0101429
0.00658931
0.00269801
0.00119841
0
0.000422542
0.066826
0.403234
0.0270894
0.0010755
0.00160705
0.00131064
0
0.0016327
0.0062859
0.371885
0.33934
0.107786
0.00702303
0.000981951
0
0
0
0.0029578
0.132174
0.239304
0.0210361
0
0
0
0
0
0.0572452
0.443401
0.140976
0.00562437
0.000410164
0.000615246
0.000164721
0.000933416
0.00289015
0.100898
0.388533
0.0592786
0.00270661
0.00928286
0.00102541
0.000274534
0.00589576
0.0129534
0.396229
0.341053
0.0666965
0.00541144
0
0
0.00115304
0.00653391
0.00338852
0.158358
0.363797
0.0277013
6.4656e-005
0.00122847
0
0.00192174
0.0108899
0.0353757
0.464766
0.311747
0.111508
0.0322615
0.0852647
0.0602609
0.00381413
0.0200894
0.0238082
0.281762
0.245985
0.159769
0.113158
0.173722
0.15478
0.0159822
0.0246485
0.0369939
0.0695384
0.0980638
0.0944445
0.0126518
0.0283494
0.00998165
0.000805397
0.0225886
0.159596
0.474007
0.278155
0.0901624
0.060438
0.122197
0.0915288
0.0118465
0.134363
0.445517
0.185002
0.110165
0.124091
0.124809
0.155508
0.129822
0.0410734
0.0479416
0.0705372
0.102015
0.0658207
0.117229
0.156265
0.0554899
0.138518
0.116507
0.158019
0.102843
0.0670943
0.0737702
0.0259732
0.0942312
0.218907
0.236611
0.0988644
0.160392
0.424573
0.134074
0.0259485
0.119708
0.275265
0.165269
0.288758
0.147626
0.130182
0.196723
0.101249
0.0623964
0.155757
0.139079
0.0396881
0.0822295
0.0896769
0.107456
0.0536749
0.0660237
0.12527
0.214091
0.0889005
0.100723
0.0877085
0.0103817
0.0644889
0.0640483
0.390334
0.181818
0.153698
0.276284
0.161176
0.134406
0.0635728
0.0853364
0.0713885
0.0626643
0.194578
0.200686
0.0881877
0.305071
0.138343
0.0296414
0.147418
0.0755179
0.103344
0.251799
0.0851295
0.149131
0.116658
0.0908785
0.114399
0.0166255
0.0250367
0.0764574
0.111774
0.178076
0.0898973
0.224299
0.174888
0.11011
0.0626713
0.00630704
0.0189063
0.0700441
0.0372688
0.0937919
0.170958
0.0723981
0.0508326
0.00965694
0.0717945
0.10444
0.100801
0.0301666
0.0593091
0.51768
0.536806
0.127473
0.018033
0.00182286
0.00974389
0.0284671
0.0334598
0.00522513
0.0740912
0.129105
0.0353083
0.0186909
0.000826365
0.000248112
0.0110426
0.0316622
0.100849
0.326971
0.289618
0.04081
0.00746436
0.00142101
0.00173679
0.00714586
0.00234883
0.00038779
0.316737
0.337
0.0241647
0.00551135
0
0
0.00213096
5.38196e-005
0.0250897
0.511935
0.493215
0.0146096
0.00148816
0
0
0.000125579
0.0358429
0.330919
0.412831
0.112065
0.00946094
0
0.000737534
0.00461295
0.0086362
0.0484057
0.410567
0.257513
0.00685984
0.0174006
0
0
0.00618586
0.00729824
0.00440838
0.107343
0.470927
0.20326
0.0156286
0
0
0.00618586
0.00154646
0.0687052
0.198438
0.27741
0.0470009
0.0906877
0.00824121
0.0146673
0.022158
0.0103284
0.138746
0.377392
0.154037
0.0543102
0.0619023
0.01522
0.00288865
0.00255074
0.011796
0.303758
0.320151
0.145173
0.0855507
0.10076
0.0253666
0.0480341
0.00505512
0.052483
0.151304
0.202047
0.152429
0.104651
0.257294
0.102234
0.0842518
0.0661312
0.0282924
0.229609
0.150886
0.0864552
0.116463
0.206645
0.142149
0.25509
0.0669254
0.208881
0.263069
0.0867553
0.0253975
0.0114262
0.0161872
0.00233618
0.0239894
0.003906
0.176123
0.212355
0.00993833
0
0
0
0
0.00270391
0.0913436
0.491238
0.241083
0.0349698
0.0152385
0.0150432
0.0274068
0.0131382
0.0769525
0.0107113
0.298916
0.407855
0.00472553
0
0
0
0
0.00450651
0.0493197
0.435804
0.0835298
0.00371182
0
0
0.000687411
0.0047097
0.0351992
0.245996
0.34714
0.0360165
0.00151499
0
0
0.00114569
0.0121928
0.228103
0.419694
0.201583
0.267858
0.0090993
0
0.00682328
0.0234325
0.010239
0.0512633
0.132931
0.288756
0.0876492
0.00951948
0
0.0761475
0.0859216
0.0503724
0.347685
0.317286
0.165537
0.0141211
0
0
0
0.000975606
0.0213092
0.210709
0.214625
0.0621647
0.00848894
0.00376256
0.016047
0.0135235
0.00520427
0.102004
0.474732
0.163493
0.0218208
0.00532436
0.000719617
0
0.0354863
0.0322011
0.0504958
0.395762
0.213931
0.0257581
0.000174063
0
0
0.00313117
0.0390874
0.181542
0.545492
0.160737
0.00585898
0.0038259
0.0228578
0.040412
0.0662701
0.0270583
0.0883216
0.39041
0.149365
0.0115116
0.0301296
0.114195
0.136033
0.107782
0.0520301
0.0673761
0.112187
0.0768724
0.0149036
0.000380161
0.0106011
0.0151092
0.0182305
0.109577
0.321915
0.42882
0.146639
0.00664845
0.00638891
0.0715719
0.135863
0.119484
0.210535
0.447764
0.18412
0.0948966
0.0055041
0.0256132
0.0940445
0.0942746
0.0499855
0.0357655
0.0630332
0.0293017
0.0325139
0.0438656
0.0345045
0.036072
0.166331
0.174718
0.0424456
0.0826368
0.0267133
0.0272902
0.0669418
0.00527413
0.0602964
0.138375
0.270174
0.10462
0.178271
0.0339387
0.0604861
0.0103259
0.00412307
0.0151558
0.383284
0.699668
0.0895533
0.0882764
0.0131049
0.0263391
0.0162256
0.0222164
0.0174372
0.0203705
0.0185141
0.0261486
0.017239
0.0134239
0.0219425
0.0169167
0.0077442
0.00941644
0.131984
0.315627
0.226608
0.0422825
0.0003738
0.00284941
0.00535005
0.012483
0.00437062
0.0162395
0.0286585
0.0534565
0.0201677
0.00363308
0.0035372
0.00542257
0.00306342
0.00136126
0.0844668
0.710264
0.481326
0.0673699
0.000358402
0.000336775
0.00196831
0.000163547
0
0.18134
0.345514
0.110657
0.00746371
9.89257e-005
3.29752e-005
0.000163547
0
0.00394399
0.266941
0.383109
0.0427357
0
0.00069248
0.000230827
0
0
0
0.0513735
0.493474
0.297802
0.0122203
0.00069248
0.000230827
0
0
0.000563428
0.0944604
0.437949
0.176305
0
0.00484736
0.00161579
0
0.00904876
0.0491217
0.31927
0.3139
0.0204499
0
0.000547029
0.00141229
0.000307487
0.0703888
0.12136
0.274984
0.167764
0.115672
0.0191646
0.0408836
0.0277434
0.00205362
0.00336317
0.00795201
0.263472
0.485084
0.0851637
0
0.0038292
0.0012764
0
0.0235422
0.0261922
0.229591
0.384695
0.246761
0.0346089
0.0232527
0.0119494
0
0.0884412
0.0756846
0.107205
0.117273
0.211617
0.071157
0.101704
0.0736989
0.0316729
0.286173
0.0656528
0.0724257
0.116124
0.106708
0.0664139
0.131568
0.0470054
0.193184
0.0357161
0.0151757
0.18515
0.344764
0.309214
0.120257
0.0486134
0.0520589
0.0257929
0.269799
0.191986
0.225227
0.342332
0.14103
0.114422
0.0217899
0.0648741
0.145164
0.263995
0.0362476
0.0206532
0.0188462
0.0103514
0.006185
0.0323226
0.00573564
0.254739
0.291773
0.0445411
0.0943374
0.00800676
0.000421408
0
0.000722703
0.0142936
0.340488
0.294272
0.301694
0.100717
0.0595749
0.0175793
0.0108151
0.00168811
0.0117509
0.143208
0.218516
0.392858
0.310026
0.0686574
0.00379832
0.00763614
0
0.0268789
0.204411
0.169307
0.0358869
0.11438
0.0179261
0.030987
0.0258473
0.0160276
0.0333381
0.220782
0.0783732
0.0268812
0.0365828
0.0935593
0.202366
0.170681
0.155425
0.0794098
0.118678
0.0742498
0.162898
0.275889
0.0860732
0.0448356
0.108834
0.0165721
0.0745504
0.231654
0.0613662
0.0287455
0.0674383
0.118239
0.526331
0.373155
0.0923126
0.048988
0.165656
0.00580377
0.00211021
0
0.0382816
0.0971339
0.141537
0.242076
0.0757956
0.0104571
0
0
0
0.00337782
0.062675
0.348523
0.330518
0.0579453
0.000720765
0.00579358
0.00419103
0.0018284
0.0375274
0.28263
0.231569
0.0938988
0.0108318
0.00825782
0.000140275
0.0034617
0.00139824
0.00343111
0.138757
0.588225
0.277979
0.00870095
0
0
0
0.00101204
0.00292224
0.0831662
0.308143
0.143726
0.0156564
0
0.000148737
0.00552865
0.0343767
0.0522421
0.122475
0.463984
0.127482
0.0247003
0.00515902
0
0.000325048
5.73614e-005
0.00619883
0.121409
0.415224
0.136509
0.00041934
0
0
0
0.0287851
0.0728906
0.179913
0.537453
0.112249
0.0198853
0.07658
0.000168431
0.00626071
0.107873
0.267087
0.0487369
0.157288
0.0368007
0.0254911
0.00584214
0.00058231
0.00405779
0.190756
0.519181
0.0459321
0.0272206
0.00354152
0.0083703
0.00547997
0
0
0.134284
0.335583
0.0647128
0.177815
0.0410828
0.0225183
0.0867202
0.00390774
0.0242581
0.193809
0.529397
0.0476511
0.0205685
0.00398046
0.00837843
0.0201309
0.00114931
0.000637704
0.0148395
0.0351506
0.0624066
0.0016131
0.0015233
0.00144547
0.00133253
0
6.33965e-005
0.141297
0.527825
0.219835
0.00617788
0.000212966
5.22475e-005
0
0.00364625
0.000612587
0.0107093
0.0417143
0.173163
0.0198012
0.00189462
0.00111221
0.00162335
0
3.80379e-005
0.119557
0.395855
0.570994
0.245377
0.0439713
7.46392e-006
0
0
0
0.0940138
0.526447
0.206113
0.00272773
0.000313661
0.000104554
0
0
0
0.0342968
0.288091
0.257473
0.00506248
0.00219563
0.000731876
0
0
0
0.089991
0.329676
0.348914
0.175997
0.0356464
0
0
0
0
0.0119958
0.12601
0.411823
0.0999467
0.0045234
0
0
0
0.00142944
0.0964594
0.320525
0.28235
0.0202965
0.00247823
0.00259707
0.000356024
0
0.00372148
0.0754226
0.208917
0.302564
0.117518
0.0589295
0.0110337
0.000593374
0
0.00070702
0.00679097
0.0916813
0.587634
0.177411
0.00517611
0.00336245
0.000593374
0
0.00117837
0.0490696
0.152365
0.318084
0.186198
0.0925147
0.0102068
0.000988956
0.0191908
0.0107725
0.0717534
0.139179
0.236317
0.24454
0.129402
0.0935615
0.00979891
0.171551
0.190145
0.15066
0.160354
0.0684871
0.185377
0.110316
0.140507
0.0758852
0.0168605
0.0190065
0.140576
0.223189
0.232604
0.291899
0.180581
0.0575864
0.00202577
0.160378
0.101986
0.156521
0.197562
0.1471
0.279332
0.23677
0.128858
0.0821239
0.144414
0.319002
0.110477
0.0528662
0.00701495
0.0218281
0.0189918
0.0166267
0.0469016
0.156587
0.444286
0.204234
0.045984
0.0155289
0.0226906
0.000413586
0.0162714
0.0814729
0.175148
0.154179
0.0664146
0.0624855
0.0142926
0.0720033
0.0636468
0.0408329
0.200782
0.400287
0.230076
0.0702579
0.0205605
0.0214135
0.0197906
0.0089702
0.028686
0.39479
0.0664297
0.17049
0.123211
0.0815058
0.0848805
0.146168
0.0298791
0.0584108
0.121767
0.0183644
0.0156675
0.068396
0.268223
0.414018
0.217427
0.0563763
0.04472
0.0728853
0.261874
0.0792037
0.0584853
0.0651878
0.0815411
0.0887255
0.128151
0.107428
0.255399
0.0572619
0.00631281
0.178595
0.259906
0.245818
0.170785
0.296096
0.0974031
0.0624726
0.00165231
0.00986393
0.0208376
0.103448
0.264249
0.0896567
0.0263186
0.00190202
0.00267313
0.000473062
0.0116742
0.00356312
0.00800034
0.298205
0.415229
0.0990575
9.86927e-005
0
0.000473062
0.00591836
0.054645
0.104419
0.216351
0.0657282
0.0752124
0.00698746
0
0.000283837
0.00700454
0.00249197
0.133925
0.650639
0.178637
0.0256924
0.000690849
0
0
0.00118389
0.000208921
0.0107925
0.268011
0.337545
0.0457719
0
0
0
0
0.0143126
0.0706301
0.24381
0.335274
0.0251357
0.0183327
0.0980975
0
0.000710331
0.00581317
0.148214
0.544797
0.160599
0.00447364
0
0
0.0303194
0.0170566
0.0419122
0.22191
0.330973
0.154698
0.0138544
0.00970067
0.0402156
0
0
0.068404
0.239262
0.112371
0.130462
0.0139035
0.0218025
0.116665
0.0020229
0.0144382
0.121883
0.389003
0.212235
0.0814866
0.00173722
0.0040976
0.0181408
0.036058
0.0202849
0.0252172
0.161899
0.245533
0.152541
0.0267374
0.0115367
0.0478272
0.00515114
0.00332287
0.0132635
0.169882
0.573166
0.311317
0.0181969
0.0016481
0.00683246
0.00298492
0.00210178
0.00430986
0.0160552
0.106937
0.0416083
0.00643445
0.000725513
0.00083565
3.1013e-005
0.000651145
0.00983465
0.0626423
0.368175
0.566622
0.138757
0
0
0.00638954
0.0106037
0.0140785
0.00936971
0.0313391
0.032936
0.00521588
0.00168032
0.00145372
0.000177549
0.00455113
0.00664316
0.00778528
0.182132
0.629492
0.11206
0.000890069
0.000311302
0
1.99102e-005
0.00653846
0.0388963
0.204924
0.380191
0.0859835
0
0
0
0
0.000925533
0.0169101
0.227578
0.21189
0.0129313
0
0
1.31407e-005
0.000191934
0.000418113
0.0016336
0.15777
0.547489
0.0876652
0
0
0.000624456
0
0
0.00790663
0.135322
0.547489
0.0540858
0
0.000624456
0
0
0
0.0146195
0.274324
0.294035
0.0148521
0.000385825
6.80867e-005
0
0
0.0656937
0.124599
0.230235
0.162609
0.0272446
0.0024231
0.000113478
0.00126758
0
0
0.007107
0.134006
0.564071
0.124669
0.000833611
0.0013602
0.000181083
0
0.0303201
0.0374379
0.215828
0.461734
0.20042
0.0289062
0.00373611
0.0115892
0.00795794
0.15169
0.234974
0.158559
0.118092
0.043673
0.0223965
0.00308895
0.186371
0.0485891
0.0856132
0.155682
0.0749479
0.126553
0.0831712
0.118643
0.110305
0.0143063
0.00374421
0.0622002
0.0811408
0.16503
0.257403
0.221288
0.162544
0.095052
0.293727
0.0262095
0.0276088
0.056917
0.049608
0.120444
0.108619
0.306964
0.504854
0.197345
0.0182523
0.00565996
0.0137691
0.00614365
0.0239578
0.0207261
0.0411511
0.172269
0.298169
0.013083
0.0168412
0.00670498
0.00195689
0.00179982
0.0117619
0.0294135
0.292638
0.350631
0.00663407
0.000274124
0.00368344
0.00338299
0.00905823
0.00289362
0.05212
0.343952
0.51088
0.0324278
0.0366811
0.00812425
0
0
0.00633643
0.0113515
0.411735
0.163005
0.017193
0.0906236
0.0483749
0.0355123
0.017129
0.107805
0.112034
0.185785
0.0226005
0.0166866
0.14481
0.124889
0.206057
0.132077
0.252646
0.0831104
0.0283695
0.357613
0.177788
0.208855
0.0694997
0.04715
0.00651045
0.0360587
0.0421436
0.212246
0.12498
0.221261
0.419554
0.231408
0.276575
0.061987
0.0732565
0.0272696
0.0230394
0
0.00214303
0.0455368
0.0788047
0.173058
0.0713698
0.0624874
0.00331453
0
0
0
0.0843339
0.329739
0.303643
0.0258596
0.00517326
0.000224298
0
0.00753932
0.0282923
0.241496
0.230935
0.176754
0.0369904
0.0178975
0.000370688
0.000341088
0
0.00254073
0.445802
0.54998
0.10816
0.00871139
0.000382965
0
0
0
0
0.0275653
0.228982
0.171947
0.0113288
0.000403013
0
0
0.0678029
0.0198111
0.0483806
0.282892
0.095484
0.0248425
0.0316881
0.000672952
0.0228097
0
0.00177166
0.198799
0.40048
0.0607676
0
0
0
0
0.135332
0.0848544
0.285643
0.65502
0.0323665
0.0374471
0.101087
0
0.0136858
0.0782285
0.0228573
0.020678
0.0970941
0.0681702
0.11441
0.112436
0.000776427
0.026317
0.0111755
0.00326532
0.00301055
0.021635
0.20062
0.210586
0.0995513
0.00445273
0.00458079
0.156141
0.0976099
0.0915188
0.203149
0.00831312
0.317614
0.39424
0
0.0157902
0.0242693
0.0255341
0.0022613
0.00609226
0.0702387
0.534415
0.390056
0.0138062
0.00800433
0.0101742
0.0179448
0.0147656
0.00528534
0.0199883
0.0210876
0.00425949
0.00795606
0.00902829
0.000862099
0.00684868
0.00584547
0.0069707
0.288648
0.789
0.0719677
0.00280848
0.00240377
0.00986349
0.0137084
0.00173502
0.00474895
0.0222787
0.0168392
0.00790795
0.0206712
0.0220787
0.00399042
0.00353914
0.000113653
0.000784798
0.137259
0.376366
0.117096
0.0224051
0.0162693
2.9519e-005
0.000160447
0.000127112
0.000364541
0.0734205
0.431449
0.115549
7.38383e-005
9.02469e-005
0.00140277
0
0
0.000864471
0.0303444
0.395698
0.185734
0.000358802
0.00149247
0.000400171
7.08455e-005
0
3.00426e-005
0.0309422
0.299109
0.249407
0.00265403
0.00153584
0.000896296
0
0
0
0.00997709
0.412364
0.482207
0.0127381
0.0015242
0.0024897
0
0
0.00056444
0.030571
0.273244
0.165297
0.0110695
0.00408415
0.000355672
0
0
0
0.0319856
0.201187
0.279404
0.0615126
0.00861751
0.00149382
0
0
0
0.0171717
0.221523
0.599126
0.0713302
0.0125412
0.00134224
0
0
0
0.0103671
0.0574854
0.476225
0.250447
0.0372437
0.0178602
0
0
0
0.0230743
0.101926
0.229919
0.135916
0.128572
0.190653
0.000557899
0
0
0.00644138
0.0243282
0.0623305
0.129495
0.446549
0.0185997
0
0
0
0.00320351
0.0197465
0.290763
0.388917
0.167657
0.115485
0.00390529
0
0
0.00192211
0.00566332
0.0343345
0.351906
0.391044
0.2986
0.00083463
4.66277e-005
0
0.000519143
0.00155743
0.000203051
0.0205091
0.336774
0.48991
0.0227463
0.0118696
0.00139685
0
0
0
0.00201422
0.342118
0.176609
0.00703352
0.000326394
0
0
0
0
0.0981318
0.286413
0.404926
0.0850191
0.00228476
0
0
0
0
0.0196137
0.235403
0.354123
0.111956
0.0594413
0.012883
0.00583069
0
0
0.00643876
0.13538
0.183202
0.205167
0.262067
0.0871322
0.0446294
0.000624222
3.28539e-005
0.00853585
0.0338177
0.306464
0.250993
0.0278658
0.00124671
0
0
0
0.0184152
0.079207
0.150556
0.546483
0.331842
0.0160027
0.00111625
0
0
0.0153241
0.028688
0.0103466
0.0541497
0.229889
0.118312
0.0257899
0.00223935
6.40026e-005
0.000807931
0.00112201
0
0.0148841
0.337128
0.254009
0.0294428
0.0078928
3.84016e-005
0
0
0.0154869
0.224878
0.299561
0.0474389
0.00211556
0.00170552
0
0.00134655
0.00463771
0.00440941
0.131563
0.703414
0.16063
0.0107416
0.0119386
0
0
0.00210028
0
0.00302511
0.235419
0.185121
0.0113128
0.00155783
0
0
0
0.0341137
0.0458083
0.325522
0.349706
0.00387661
0.0289319
0.0402775
0
0
0
0.0299215
0.508565
0.168598
0.00284119
0.00259639
0
9.0593e-005
0.00051336
0.00340266
0.0215401
0.508565
0.278805
0.00835449
0.0183161
0.026892
0.00131949
0.00359352
0.0373492
0.0496797
0.0764781
0.101867
0.00150366
0.201053
0.211223
0
0
0.00650602
0.0140055
0.00115488
0.0018151
0.0120568
0.368004
0.334304
0.00667802
0.00126058
0.00372538
0.0156471
0.0948183
0.080794
0.00901572
0.166776
0.231604
0.0106802
0.00239207
0.000699401
0.00321521
0.00260251
0.00307201
0.0248034
0.435159
0.54562
0.0910536
0.00157451
0.0640162
0.0267568
0.00122547
0.0211889
0.0610427
0.0647701
0.0364474
0.114203
0.0617395
0.0444507
0.00714868
0.00848354
0.00116417
0.120137
0.50588
0.182522
0.137313
0.0841397
0.0532727
0.0113567
0.000106829
0.0130723
0.0748733
0.105503
0.0869721
0.156159
0.0562708
0.0547214
0.00541046
0.0677696
0.0219685
0.0747991
0.258125
0.130949
0.176148
0.0858484
0.00258576
0.000148051
0.0010155
0.000100827
0.0139649
0.145234
0.180081
0.00856197
0.00384923
0.000369394
8.88303e-005
0.000348113
1.44038e-005
0.0078546
0.242643
0.66667
0.0919161
0.000741324
0.00550367
0.00198781
0.00908252
0.00185715
0.00616844
0.0216756
0.0564281
0.0154415
0.00509138
0.00890464
0.00220757
0.00362119
0.00190696
0.00423012
0.0380918
0.574435
0.182117
0.0025935
0
0
0
0
0.00117414
0.0460743
0.44267
0.12282
0.00270763
0.0026199
0
0
0
0.000763845
0.00443052
0.217035
0.22201
0.029844
0.00181726
0.000131474
0
0.000292654
0.000195103
0.0112735
0.430475
0.326329
0.000758968
0.00254742
0
0
0
0
0.00146381
0.330785
0.488456
0.0363276
0.00739989
0
0
0
0.000241823
0.000564254
0.0660096
0.240789
0.0891599
0.0141159
0.000801346
0
0
0.000145094
0.000338552
0.0089177
0.266685
0.176437
0.00774285
0
0
0
0
0
0.107917
0.595209
0.191552
0.0314577
0
0
0
0
0
0.0121525
0.331409
0.504829
0.0738684
0.00373352
8.09645e-005
0
0
0
0.000580189
0.110495
0.233463
0.288339
0.085079
0.000566751
0
0
0
0
0.0107124
0.176672
0.168509
0.00201735
0
0
0
0
0.000966982
0.082721
0.499405
0.586014
0.0656074
0
0
0
0
0
0.00417385
0.326744
0.165885
0.185023
0.0107275
4.29483e-005
0
0
0
0.0028752
0.0209719
0.0628641
0.351697
0.097536
0.000300638
0
0
0
0.00143177
0.00224834
0.44438
0.199203
0.00420375
0
0
0
0
0
0.0427732
0.291706
0.639505
0.0673269
0
0
0
0
0
0.000533072
0.0107296
0.173754
0.10878
0.00263883
6.42509e-006
0.000122076
0
9.63824e-005
0.00190325
0.00443058
0.22182
0.441274
0.0138895
4.49756e-005
0.000854533
0
0
0.00111081
0.0316738
0.478009
0.154438
0
0
0
0
0
0.000264479
0.00467408
0.478009
0.429672
0.000392264
0
0.00020201
0.000375161
0
0.000158687
0.00162317
0.16622
0.672244
0.0685247
0.00440653
0.00164308
0
0.000496318
0.00336548
0.0117984
0.0358964
0.396742
0.122818
0.0125938
0.00460347
0.0106387
0.0039481
0.0181921
0.00473517
0.276104
0.421425
0.00516989
0.00736876
0.00283066
0.000654779
0.00101329
0.0124421
0.0245755
0.0491271
0.12796
0.0175556
0.0163811
0.00418051
0.000705039
0.00307216
0.0313298
0.00671322
0.00166491
0.0660844
0.0513971
0.00800587
0.0584334
0.14993
0.0285684
0.0154047
0.000890153
0.000612154
0.00583468
0.00516539
0.0169731
0.277634
0.793268
0.195725
0.0232943
0.0151132
0.009865
0.0294065
0.0187657
0.00848076
0.0096412
0.0205462
0.0117787
0.0216855
0.00195452
0.00638046
0.00918907
0.00808619
0.00466879
0.11195
0.325561
0.133906
0.0567047
0.0190186
0.0538601
0.0353099
0.074155
0.111726
0.0400283
0.0613838
0.131018
0.0614586
0.0390096
0.0350731
0.0619999
0.0965875
0.0541957
0.118698
0.137662
0.201477
0.0824274
0.0725072
0.217906
0.17039
0.126474
0.106834
0.0169838
0.0128363
0.0469329
0.0433673
0.0672912
0.191003
0.193692
0.209218
0.0359639
0.0714128
0.0783838
0.0643195
0.0677653
0.0288791
0.017726
0.0407545
0.03965
0.0139402
0.0463293
0.0565415
0.0613144
0.0236062
0.0883465
0.0184931
0.0239679
0.0544105
0.0265193
0.0683917
0.644255
0.410711
0.0185876
0.0348026
0.0594381
0.0592046
0.0826112
0.0165778
0.0579808
0.0429791
0.0266894
0.0149273
0.0777926
0.0510033
0.0727512
0.0670829
0.028688
0.0916032
0.0990164
0.0853048
0.0176618
0.00655727
0.000535526
0.000312653
0.00192994
0.0020016
0.0059674
0.196068
0.304883
0.00121928
0.00111242
2.07766e-005
0
0
0.00086798
0.00250228
0.313517
0.764757
0.105484
0.00860947
0.00428176
0.00502667
0.0016153
0.00411085
0.00990333
0.0196363
0.0595774
0.00690054
0.00617267
0.000447664
0.00135927
0.000782386
0.0138255
0.010258
0.0602014
0.279991
0.112457
0.00123332
0
0
0
7.56367e-005
0.000176485
0.0670616
0.415533
0.261114
0.0309219
0
0
0
0
0
0.0052318
0.207596
0.532407
0.00495777
0.00037713
0
0.00112727
0.00500825
0.0045062
0.0158153
0.146823
0.232419
0.0264301
0.000628549
0
0.00067636
0.000867456
0.00381217
0.0029943
0.120436
0.532407
0.139216
0.000146871
0
0
0
0
7.38544e-005
0.0298678
0.414421
0.471448
0.0214723
0
0
0
0
0
0.00129365
0.250276
0.130404
7.5178e-005
0
0
0
0.000345676
0.000282825
0.0360379
0.414396
0.460298
0.017239
0
0
0
0
0.00143026
0.00712705
0.271619
0.490926
0.116951
0.000331402
0
0
0
0
5.08366e-005
0.0459003
0.376685
0.480008
0.0254319
0
0
0
0
0.000355856
0.00323679
0.431642
0.0594183
0
0.000113053
0.000188503
0.00120253
0.00201816
0.00253096
0.0580802
0.32258
0.152804
0.00659654
0.00109592
0.000716138
0.00200422
0.00158051
0.00342994
0.0234636
0.137566
0.737066
0.113489
0.00125612
6.61114e-005
2.68281e-005
0.000241453
0.000488888
0.00240327
0.0179073
0.50034
0.183663
0.00309669
0.000110186
0.00151472
0.00396107
0.00427198
0.00186584
0.141389
0.196321
0.0187784
0.00315657
0.000826681
0.00497112
0.00261878
0.00482313
0.0212775
0.0226784
0.0831211
0.0116164
0.00627847
0.00144867
0.0107201
0.0252915
0.0174379
0.00833996
0.02687
0.607858
0.420793
0.0159725
0.00861896
0.0257359
0.0232798
0.0352235
0.0626979
0.0737525
0.112593
0.119616
0.0251209
0.0277481
0.0322768
0.00870163
0.0313984
0.11868
0.0174513
0.0559595
0.0231
0.0289836
0.0236682
0.0585414
0.146918
0.0980389
0.0313767
0.0436336
0.023809
0.0578623
0.0362789
0.0883783
0.0729108
0.0642069
0.0700999
0.0628979
0.0721736
0.101406
0.114379
0.0678185
0.0368669
0.0555669
0.0104189
0.0154797
0.0807147
0.00973854
0.125054
0.142748
0.0849283
0.0561454
0.314407
0.226429
0.221466
0.159002
0.0515871
0.0661698
0.11381
0.0989899
0.0750413
0.120614
0.0269031
0.0256568
0.0563729
0.00793024
0.125582
0.176506
0.127376
0.115559
0.255477
0.0833626
0.0138442
0.0104643