0.0526924
0.148297
0.0898184
0.0724096
0.155839
0.0191335
0.043243
0.0291068
0.0164932
0.366609
0.211162
0.0763733
0.0424323
0.10225
0.023966
0.0627398
0.122906
0.0638641
0.0347151
0.0889479
0.129497
0.084165
0.0841561
0.00570175
0.0949985
0.162202
0.105513
0.170282
0.272927
0.167632
0.0427163
0.0438587
0.0155837
0.195321
0.470648
0.133841
0.274088
0.111253
0.0874358
0.0837661
0.0678709
0.0834638
0.0835777
0.0801288
0.115465
0.0902597
0.0328717
0.0815393
0.136758
0.174639
0.2708
0.169009
0.0516349
0.159706
0.133682
0.171743
0.144531
0.110064
0.0641398
0.127129
0.167853
0.21847
0.112566
0.147846
0.159252
0.0873176
0.221744
0.0910931
0.253479
0.152041
0.0785183
0.149338
0.0911567
0.0207795
0.0109602
0.0330623
0.0839135
0.115018
0.101759
0.105827
0.237375
0.153136
0.0367669
0.0308988
0.0800197
0.120365
0.0462956
0.0698246
0.135226
0.298093
0.181688
0.0831491
0.0305651
0.102414
0.0572886
0.0680346
0.181931
0.10228
0.204398
0.247972
0.417787
0.102861
0.119027
0.102849
0.0184684
0.164483
0.106453
0.182479
0.0627088
0.0841889
0.0640189
0.109561
0.112898
0.0294464
0.0168159
0.0313443
0.0647924
0.185411
0.220309
0.0669005
0.10711
0.0555088
0.0393858
0.0216951
0.0457447
0.105245
0.169214
0.406392
0.0761915
0.136547
0.118387
0.024825
0.0194937
0.0245577
0.0840788
0.391917
0.337299
0.138213
0.159059
0.114572
0.0435013
0.0130587
0.062757
0.22731
0.149018
0.0973984
0.0231516
0.0243029
0.0182789
0.0689056
0.0455742
0.0414727
0.0759366
0.0866654
0.0421272
0.0298172
0.0215336
0.081343
0.124834
0.0943337
0.0625966
0.0415709
0.362339
0.334911
0.0575811
0.0289482
0.0234186
0.0666958
0.0182191
0.0548727
0.124546
0.549751
0.218454
0.0273125
0.00200396
0.0564982
0.13165
0.100404
0.161321
0.180962
0.0271792
0.0449442
0.0526717
0.068479
0.17024
0.0851316
0.0571954
0.0289686
0.0270304
0.0768836
0.0702258
0.111852
0.139038
0.127032
0.0501124
0.0548484
0.0289821
0.0517083
0.243594
0.0192356
0.0565857
0.0212728
0.151719
0.0769433
0.110985
0.187234
0.282771
0.443082
0.0334597
0.0455695
0.0585751
0.122236
0.0813656
0.127963
0.166143
0.459309
0.0650319
0.0395543
0.0622067
0.116206
0.0535489
0.0214244
0.103714
0.0596635
0.0441195
0.0270539
0.046243
0.0443218
0.0599968
0.0908135
0.118646
0.198765
0.0894146
0.0359656
0.511248
0.0915439
0.0673994
0.0623812
0.0392633
0.0603918
0.168714
0.103885
0.211347
0.246194
0.128052
0.099625
0.0274705
0.107164
0.296437
0.262558
0.176157
0.0547621
0.0129309
0.0372454
0.0189635
0.0302808
0.0625213
0.102488
0.126099
0.0918226
0.012013
0.052699
0.120165
0.0180488
0.00635082
0.009256
0.0161415
0.0889177
0.375983
0.0740118
0.157891
0.135648
0.0404414
0.00369301
0.0993726
0.248814
0.147313
0.0954375
0.0617038
0.399026
0.413557
0.125542
0.000527573
0.0141961
0.0427984
0.038585
0.109073
0.16242
0.0650516
0.0530731
0.0146875
0.00433075
0.00262636
0.00966688
0.0345332
0.320076
0.0981593
0.275583
0.0702763
0.0635707
0.0322677
0.0183845
0.0161115
0.0288515
0.224986
0.153807
0.244825
0.146939
0.0664522
0.073
0.0745929
0.0869894
0.024524
0.114208
0.0825476
0.282361
0.133214
0.190472
0.270886
0.362346
0.1439
0.0796453
0.136419
0.0494136
0.0356182
0.088881
0.217044
0.0978475
0.0448116
0.00660136
0.0306024
0.0796486
0.036457
0.0972614
0.306076
0.28363
0.0858917
0.0232377
0.0651002
0.130031
0.207023
0.0872511
0.0304908
0.0504134
0.220961
0.203971
0.150557
0.121126
0.101821
0.0538988
0.00561874
0.0904449
0.143089
0.267878
0.202786
0.131943
0.203123
0.251863
0.211463
0.104345
0.0625685
0.158235
0.13771
0.0652046
0.011336
0.168313
0.147039
0.146349
0.0910405
0.117546
0.243359
0.0473966
0.0964078
0.0164383
0.111721
0.0770073
0.125764
0.117549
0.0666078
0.0995683
0.108232
0.0731529
0.0192704
0.312711
0.174378
0.180466
0.189146
0.141243
0.374674
0.068797
0.105641
0.0186798
0.18028
0.0529109
0.156998
0.239264
0.102789
0.0773119
0.0154237
0.0218291
0.00992344
0.00452335
0.0394457
0.0470311
0.146591
0.165136
0.2966
0.0788423
0.0160888
0.00802724
0.00283419
0.0302518
0.0236159
0.137711
0.124302
0.152082
0.128263
0.0542662
0.00468931
0.00196155
0.0049937
0.0329617
0.227125
0.125756
0.397956
0.57729
0.0853255
0.00223128
0
0.00243291
0.0129745
0.228254
0.0924499
0.182675
0.0609974
0.0103613
0.0101576
0.00691291
0.00824062
0.0010034
0.0390081
0.134174
0.240122
0.12826
0.0159495
0.0403424
0.011125
0.0121301
0.00313579
0.0579231
0.0620584
0.380608
0.33096
0.028445
0.00652883
0.00357285
0.00436682
0
0.0292785
0.0640703
0.572742
0.406566
0.0547403
0.0231962
0.00595476
0.00727804
0
0.0151152
0.142697
0.203189
0.0546179
0.0040906
0.0120672
0.0142073
0.00479614
0.00238598
0.0276845
0.307397
0.0903441
0.0134813
0.00023369
0.00177488
0.0235353
0.0106691
0.0195204
0.129979
0.217522
0.349652
0.174255
0.0468786
0.00695602
0.00252849
0.0013347
0
0.0217828
0.595428
0.179754
0.0381361
0.00847265
0
0.00300973
0.000752432
0.01858
0.368677
0.150129
0.00464477
0.021849
0
0.00593187
0.00596184
0.0201251
0.0782094
0.184158
0.111124
0.00327457
0.0131094
0.00567809
0.0103105
0.0249587
0.0890395
0.173763
0.178059
0.230171
0.0112772
0.00356488
0
0
0.000415852
0.0381977
0.210809
0.456278
0.025606
0.000270066
0.00187277
0.00340685
0.00340685
0.0186307
0.319035
0.553737
0.221844
0.145953
0.0237538
0.00751543
0.0184254
0.0222498
0.045121
0.130779
0.0990922
0.0529342
0.117212
0.0475373
0.0176573
0.0110552
0.0555368
0.098429
0.128465
0.0734545
0.0357983
0.0258923
0.00372287
0
0.0110552
0.0169778
0.0472587
0.451636
0.449852
0.0212524
0.0823764
0.0192607
0.00307894
0.00663313
0.0524489
0.105132
0.39457
0.449725
0.0607919
0.179206
0.139207
0.0573071
0.00169359
0.0682232
0.127573
0.0865518
0.0472823
0.118555
0.312592
0.192635
0.0903863
0.00845048
0.0500819
0.0628204
0.0282701
0.0532758
0.197011
0.186036
0.102692
0.04903
0.0217507
0.081831
0.183736
0.335258
0.25697
0.208435
0.138306
0.131806
0.112858
0.132117
0.230292
0.181991
0.127708
0.0789741
0.145192
0.141558
0.0501345
0.0315774
0.0938313
0.147604
0.121152
0.0342675
0.0486521
0.0950256
0.129697
0.126508
0.0856041
0.21017
0.356698
0.157977
0.105728
0.0768676
0.0347534
0.0886435
0.0787735
0.0620644
0.104667
0.221138
0.135925
0.0950675
0.0482159
0.0581668
0.239292
0.412974
0.172462
0.0783536
0.173607
0.117719
0.160761
0.0746275
0.133118
0.012698
0.00784911
0.0397752
0.0742922
0.116772
0.171306
0.194472
0.144419
0.0424287
0.0477839
0.0502631
0.0821748
0.101391
0.135445
0.157946
0.201104
0.35719
0.167014
0.0235754
0.0222989
0.0201442
0.137421
0.0472441
0.114029
0.18414
0.130333
0.103247
0.0316615
0.109309
0.116791
0.415587
0.167857
0.0980401
0.0606396
0.148745
0.116649
0.0510324
0.0890419
0.0768961
0.0434066
0.0476912
0.0952182
0.0452571
0.162295
0.171929
0.0712935
0.183336
0.116871
0.206454
0.116862
0.103297
0.011004
0.0817975
0.115966
0.0337389
0.143248
0.116794
0.182274
0.120698
0.03059
0.00525927
0.0629678
0.0580774
0.0623322
0.118526
0.275948
0.462347
0.332622
0.145779
0.0042792
0.034525
0.0154468
0.0298116
0.0876904
0.124455
0.0558316
0.0125806
0.00610267
0.000243243
0.00280554
0.024954
0.0193076
0.202202
0.430408
0.0863727
0.00320808
0.000126216
0
0.000368469
0.0250871
0.0246906
0.109295
0.220438
0.140445
0.0631721
0.0204882
0.000486355
0.000836844
0.00018658
0.0262441
0.322062
0.672637
0.130045
0.0191884
0.00598966
0.00056735
0
0
0.0400804
0.276464
0.293899
0.0559192
0.0139077
0.0031931
0.000450011
0.00407377
0.00739413
0.0696357
0.295589
0.249202
0.101649
0.104437
0.0223517
0.00315008
0.00678962
0.00720636
0.0904512
0.389787
0.392608
0.0463921
0.0179766
0.0348521
0.0118982
0.0720852
0.0285164
0.114271
0.270402
0.163358
0.120012
0.21671
0.238726
0.0364921
0.120142
0.0475273
0.10946
0.159729
0.157163
0.0867889
0.0947377
0.0071466
0.00100719
0.00484497
0.0492842
0.340463
0.131608
0.0608744
0.0188203
0.0337115
0
0
0.0253974
0.399213
0.0541422
0.0924275
0.150582
0.114269
0.214373
0.076329
0.00874899
0.042456
0.124751
0.208836
0.0627228
0.0708663
0.0280582
0.0835392
0.00291119
0.00156757
0.0722933
0.603151
0.151104
0.0124812
0.000941358
0
0
0
0.0444173
0.14505
0.387818
0.0403348
0.000248576
0
0
0
0.000934261
0.271366
0.449259
0.168731
0.205312
0.0094864
0.000826897
0
0.0073063
0.0222783
0.0379125
0.0685118
0.412717
0.131142
0.00907833
0.00183457
0
0.0319541
0.0495048
0.244295
0.310337
0.170879
0.00330386
0
0
0
0.000493832
0.00910824
0.217187
0.356758
0.0361833
0.0104513
0.000753025
0
0
0.00345682
0.0742818
0.252265
0.307781
0.0389232
0.0103408
0.00254335
0.000635837
0
0.0494213
0.0492607
0.219827
0.385718
0.0962571
0
0
0
0
0.0279819
0.274836
0.43309
0.328631
0.0748897
0.01818
0.00307994
0.00159761
0.00974227
0.0280892
0.0951539
0.293718
0.133214
0.0309226
0.0201725
0.0184748
0.0102784
0.0445524
0.091143
0.0773283
0.143545
0.0806774
0.0227556
0
0
0
0.00339542
0.0168869
0.337731
0.580044
0.141997
0.0110975
0.00980044
0.00282716
0
0.0114106
0.0799476
0.236169
0.442321
0.126141
0.0192558
0.105895
0.104863
0.0523293
0.0460136
0.0996313
0.0585663
0.0650303
0.0925978
0.0185646
0.285617
0.359418
0.224249
0.0291967
0.0437235
0.0140218
0.0687317
0.0329951
0.0623875
0.0637754
0.0657675
0.073174
0.0375753
0.176057
0.169436
0.16705
0.123412
0.0181699
0.199059
0.227159
0.367885
0.310326
0.192882
0.0211755
0.0211291
0.018807
0.0245663
0.0293225
0.0404924
0.0290543
0.129456
0.026459
0.0653083
0.222435
0.1034
0.0536931
0.0596358
0.0528757
0.0783603
0.365506
0.15218
0.0915839
0.0187896
0.0407556
0.0380917
0.0674831
0.0521193
0.0340083
0.0718942
0.133136
0.129774
0.222153
0.255274
0.0611979
0.0588175
0.0231991
0.0596397
0.171624
0.243088
0.393226
0.0514253
0.117904
0.0609668
0.0247245
0.0359627
0.0454583
0.0820492
0.0526597
0.0146126
7.38472e-005
0.00106831
0.00081342
0.0167843
0.0469288
0.322288
0.216155
0.145874
0.021376
0
0
0
0.0156082
0.0274773
0.054537
0.0770389
0.112338
0.095782
0.00846062
0.00642191
0.0148262
0.00971068
0.0581434
0.388627
0.291999
0.631362
0.0386719
0.000705513
0.00214646
0.0193182
0.00328509
0.018957
0.188556
0.13407
0.0508148
0.0103841
0.000709975
0
0
0.0164436
0.0982878
0.376467
0.25749
0.0376471
0.010899
0.00118329
0
0
0.00232724
0.0146387
0.176178
0.283013
0.186058
0.00685852
0.000425985
0.00010679
0.000961114
0.00742014
0.0206265
0.17874
0.665874
0.191089
0.0091246
0.000709975
0
0
0.0651422
0.195259
0.308052
0.147267
0.0237937
0.025297
0.0243498
0.0590134
0.0102429
0.063283
0.212587
0.155094
0.0879678
0.122662
0.182404
0.0490435
0.0983557
0.0170716
0.0361128
0.0528924
0.169199
0.506381
0.208523
0.0401268
0.0300793
0.0165
0
0.113702
0.197874
0.1271
0.244154
0.256514
0.257803
0.118367
0.0548759
0.0148144
0.0701965
0.117099
0.14716
0.101066
0.0973121
0.0812441
0.0159184
0.0322968
0.0893564
0.2327
0.11383
0.0636508
0.0469055
0.0270491
0.0125466
0.0104817
0.0573447
0.379083
0.125566
0.215443
0.108218
0.131504
0.104895
0.201574
0.0826144
0.0288499
0.0821473
0.362426
0.530073
0.131892
0.0751958
0.0130215
0.035622
0.0422991
0.0393294
0.152759
0.200088
0.121412
0.00438647
0.0228464
0.035965
0.0637078
0.0337307
0.0425823
0.274185
0.0789541
0.0745661
0.00971096
0.0573152
0.141782
0.221822
0.165252
0.0746582
0.076273
0.280932
0.475605
0.051192
0.0414933
0.0297469
0.0526508
0.0678797
0.0448135
0.116562
0.0790619
0.214359
0.0258644
0.106924
0.207423
0.348816
0.255792
0.0184895
0.0915824
0.00299966
0.00614758
0.00153689
0.00843972
0.118737
0.138829
0.102969
0.0949283
0.0232284
0
0
0
0.000777833
0.0744597
0.404942
0.317527
0.112694
0.0157791
0.00310222
0.0337532
0.00923327
0.0329617
0.271635
0.216854
0.0737932
0.0140086
0.0060708
0
0.00429496
0.0011873
0.0149555
0.325333
0.56604
0.2072
0.0229956
0
0
0
0
0
0.0236753
0.351869
0.285351
0.0250405
0.000888174
0.000521777
0
0
0.00165298
0.0814609
0.231844
0.19675
0.0151216
0.00164562
0
0
0
0.000542241
0.19898
0.570161
0.217821
0.00343704
0
0
0
0
0.0109874
0.198404
0.393225
0.138188
0.00161444
0
0.00351452
0.0293595
0.0638648
0.0348274
0.147248
0.165
0.102525
0.0133914
0.00166005
0.016165
0.120379
0.302295
0.223605
0.107396
0.0350611
0.00666577
0.00836179
0.0110361
0
0.0243885
0.066705
0.144351
0.286073
0.295925
0.140143
0.00400043
0
0.0199022
0.164324
0.372385
0.393973
0.283276
0.0919078
0.0228051
0.0125671
0.0146613
0.118247
0.0447724
0.0442101
0.0216337
0.0749464
0.0459483
0.0652913
0.167583
0.0578686
0.0424251
0.0354709
0.0726386
0.0910008
0.131587
0.282783
0.164942
0.0666566
0.035819
0.196181
0.106463
0.0747725
0.017211
0.0360654
0.00811274
0.162494
0.192194
0.10521
0.111757
0.145235
0.131697
0.101714
0.110959
0.316587
0.472373
0.147843
0.124116
0.00270984
0.0213761
0.0405138
0.0326665
0.0648388
0.0764373
0.0261668
0.0068365
0.0161061
0.00374454
0.0224847
0.0575512
0.0897507
0.517715
0.0594104
0.00290633
0.00455673
0.0246875
0.0167097
0.0379843
0.0374898
0.0451664
0.0816696
0.131331
0.133055
0.0771967
0.0430266
0.0195788
0.0209902
0.022967
0.170483
0.707199
0.12375
0.0470551
0.0652071
0.0560833
0.000859269
0.00433755
0.020339
0.153686
0.288873
0.0115011
0.00012466
0.000321481
0.00174172
0.000375761
0.00212931
0.0130334
0.356129
0.311122
0.0139421
0
0
0
0.00136878
0.00037506
0.000306868
0.100577
0.467633
0.0920561
0.00107597
0.00278577
0.00395673
0
0
0.0063001
0.125511
0.574305
0.167032
0.003505
0
0
0.00513419
0.00567669
0.0331726
0.290728
0.333741
0.0940809
0.0428597
0.0187565
0
0.0474617
0.0645886
0.0566218
0.110929
0.2563
0.24066
0.198915
0.156266
0.0278623
0.0054496
0
0.153738
0.12299
0.445808
0.153496
0.0362861
0.0146217
0.0100122
0.0397932
0.0420556
0.298924
0.115047
0.184571
0.137286
0.189545
0.155478
0.0872979
0.114693
0.143307
0.113594
0.0610596
0.0868339
0.176493
0.117823
0.0997059
0.0993987
0.260296
0.533981
0.240594
0.0604949
0.0111681
0.0323801
0.0330543
0.061632
0.0893336
0.0629529
0.0808974
0.155978
0.0765104
0.0488618
0.0965714
0.16168
0.164218
0.118673
0.114771
0.220103
0.212925
0.083481
0.0385009
0.0282675
0.0896519
0.257017
0.172881
0.172609
0.37046
0.0723613
0.0203748
0.0267705
0.0580179
0.05894
0.0573405
0.107054
0.0757011
0.230498
0.0334267
0.0651504
0.134278
0.284096
0.244252
0.0308739
0.116353
0.0955238
0.125238
0.0858373
0.0874853
0.0993885
0.0369051
0.0544421
0.203919
0.204336
0.056448
0.130328
0.121515
0.190636
0.17573
0.190406
0.379121
0.141284
0.142174
0.00460725
0.0870602
0.0209429
0.0844626
0.218011
0.111293
0.0619613
0.00241028
0.00719435
0.000452746
0.0124372
0.00463107
0.07402
0.488517
0.288699
0.0404908
0
0
0.00528203
0.0708376
0.0348201
0.129222
0.165579
0.121672
0.155315
0.016872
0.00508004
0.000754576
0.0101197
0.0202575
0.288695
0.56818
0.139424
0.0160611
0
0
0
0
0
0.0255284
0.362602
0.258741
0.0370432
0
0
0
0
0.000104479
0.0534454
0.300608
0.186499
0.0361753
0.000203242
0
0
0
0.00949015
0.241905
0.533607
0.0719358
0.000183761
0
0
0
0
0.00181824
0.257495
0.433608
0.0434202
0.0016657
0
0
0
0.00116112
0.00534682
0.108964
0.211687
0.0915202
0.0297818
0.000280626
0
0.00379504
0.0201159
0.0646622
0.253084
0.291842
0.0469202
0.00756645
0.000881565
0.00102847
0
0
0.00274495
0.236948
0.310948
0.0432398
0.00207729
0
0
0
0.000594809
0.0103368
0.208169
0.689723
0.146239
0.00461386
0
0
0.133571
0.184247
0.104565
0.0209757
0.0348825
0.00456221
0.0659743
0.0685519
0.0643451
0.238124
0.284296
0.0662515
0.0179433
0.0203764
0.0912999
0.260014
0.0877928
0.122111
0.112193
0.317378
0.321501
0.065605
0.0218838
0.0170943
0.0128217
0.0243424
0.0386448
0.257731
0.342172
0.172559
0.0340517
0.0026587
0.031465
0.0645361
0.0571191
0.0897257
0.0809591
0.0663548
0.0116514
0.0363154
0.0597806
0.0777868
0.190463
0.137894
0.0521577
0.0365057
0.0128658
0.00578851
0.238142
0.530003
0.266629
0.105095
0.133857
0.0579604
0.112625
0.0687634
0.0320816
0.0298926
0.0364519
0.0466992
0.0625227
0.0636234
0.0207175
0.0336095
0.0136342
0.0219072
0.159351
0.223501
0.439581
0.191032
0.0566723
0.00758323
0.00116237
0
0.000151769
0.0540559
0.231018
0.201823
0.00986273
0.00419551
0.00281077
0
0
0.0025118
0.0255161
0.30974
0.388606
0.043474
0.00108631
0
0.000157605
0
0.00106238
0.0287936
0.0683611
0.301385
0.10578
0.00581242
0.000367746
0
0
0
0.00588485
0.0847473
0.608758
0.323416
0.0340522
0
0.00420707
0
0.0676241
0.0376228
0.200888
0.263942
0.060998
0.00741819
0.0101673
0.0294495
0.0209554
0.123212
0.0463641
0.120509
0.198643
0.0873459
0.0653506
0.0963648
0.00135426
0.00139889
0.00544427
0.00396641
0.0734799
0.457288
0.41149
0.086357
0.00619665
0.0111579
0.0127859
0.00907378
0.00340465
0.0701049
0.331113
0.272179
0.293008
0.209905
0.0318929
0.0350797
0.0369698
0.0174754
0.0411574
0.067727
0.0741415
0.0787883
0.13829
0.0529063
0.0466321
0.0471555
0.0460044
0.0518243
0.0117733
0.0494489
0.0965758
0.235339
0.0714378
0.0125903
0.00314949
0.000235546
0.0253532
0.0706039
0.0801697
0.175043
0.451973
0.24367
0.0127673
0.00629229
0.0205016
0.0282721
0.00542137
0.0200148
0.0361901
0.695772
0.0567068
0.0512399
0.066939
0.0895121
0.0921168
0.00676185
0.0193387
0.0797451
0.169671
0.0364396
0.0956166
0.190212
0.238043
0.138203
0.0358265
0.130664
0.0442134
0.0584114
0.312051
0.107702
0.0301641
0.0352953
0.0414302
0.00386661
0.00698086
0.0193279
0.440305
0.285171
0.415802
0.273582
0.19696
0.085587
0.00500119
0.00958896
0.00276114
0.129219
0.00281174
0.0253848
0.0589277
0.14861
0.129935
0.0538199
0.0694509
0.00515277
0.00138967
0.00188898
0.0127397
0.122017
0.365921
0.213873
0.0388658
0.00877026
0
0
0.0275628
0.151287
0.245663
0.195099
0.0974126
0.00635092
0.00611456
0
0.00403337
0.003007
0.084309
0.500282
0.54087
0.0702484
0.00520977
0.000873508
0
0
0.000286146
0.0018995
0.117673
0.413227
0.225929
0.00364814
0
0
0
0
0.00527733
0.040788
0.331918
0.199363
0.00448122
0
0
0
0.00047691
0.0337187
0.412861
0.462775
0.0299302
0.000383202
0
0
0
0
0.0459097
0.251658
0.281496
0.0839584
0.0100137
0
0
0
0
0.00822112
0.0141445
0.225142
0.224453
0.0627191
0.000613225
0
0
0
0.00117445
0.00218575
0.0797687
0.631958
0.251333
0.0380458
0.0124246
0
0
0.0325579
0.0932866
0.132917
0.155103
0.158726
0.0130035
0.000135648
0
0
0.00369805
0.0101274
0.0202745
0.303821
0.356967
0.143817
0.0448019
0.0211983
0.0906922
0.230148
0.208011
0.0713545
0.0889242
0.0885583
0.0296639
0.0765333
0.088525
0.0728326
0.151997
0.178914
0.119292
0.0597696
0.0938998
0.0627635
0.109139
0.13018
0.110625
0.0623626
0.051419
0.190496
0.271173
0.165843
0.0270357
0.0454024
0.0941638
0.218982
0.117206
0.233419
0.269309
0.175988
0.106963
0.035507
0.0459904
0.103542
0.0582437
0.0422049
0.0862706
0.0706938
0.0376201
0.0829657
0.0455398
0.0532963
0.0293905
0.0592098
0.0377078
0.0861079
0.197835
0.247625
0.410626
0.234951
0.0108845
0
0.0976034
0.0866571
0.22296
0.176177
0.101813
0.0857223
0.0434727
0.0271251
0.0174899
0.213806
0.125582
0.195365
0.182004
0.245692
0.272495
0.139952
0.0512526
0.0353992
0.00268694
0.00122804
0.00448055
0.026097
0.0397458
0.185174
0.165575
0.0185859
0
0
0
0
0.00200601
0.0108497
0.300403
0.554152
0.109751
0
0.0202728
0.0115503
0.0169955
0.0183933
0.0477086
0.110367
0.1597
0.053132
0.00633232
0.0106742
0.00705522
0.00239944
0.00120361
0.0120637
0.129685
0.59984
0.176921
0.00799329
0.00140641
0.0026119
0
0
0.00194883
0.107461
0.407706
0.0911012
0.0024634
0.0114438
0.0182833
0
0
0.0016985
0.0660031
0.266738
0.219422
0.126152
0.00308924
0.00217171
0
0
0
0.0497819
0.477298
0.139783
0.00613587
0.00645814
0.01097
0
0
0
0.0308291
0.362254
0.462889
0.137294
0.0570417
0.0079819
0
0
0.000257324
0.00969213
0.0412434
0.131373
0.286121
0.203667
0.00336521
0
0
0
0
0.000468266
0.0142379
0.399943
0.0431298
0.00527175
0
0
0
0.00324418
0.0540075
0.285336
0.389745
0.34503
0.00592926
0
0
0
0
0.000742017
0.0323929
0.522232
0.232549
0.0519055
0.00237277
0
0
0
0
0.00133248
0.225229
0.213415
0.241349
0.16619
0.0211903
0.00558739
0
0
0.000190355
0.0851876
0.462079
0.114149
0.00489052
0
0
0
0
0.000138592
0.18394
0.328549
0.512804
0.22763
0.00725951
0
0
0
0
0.0512122
0.0280921
0.158905
0.289848
0.0392481
0.0124128
0
0
0
0.00783023
0.000341266
0.127726
0.468945
0.177753
0.00744767
0
0
0
0
0.0382596
0.290001
0.392678
0.0120002
0.000308085
0
0
0
0.00457005
0.00160348
0.256972
0.502726
0.0521962
0.00244462
0.00259217
0
0
0.00160348
0.000432003
0.0882366
0.522053
0.300884
0.0159646
0
0
0
0
0.000562032
0.0570173
0.31216
0.189242
0.118811
0.00807283
0.000673916
0.000224639
0
0.0113057
0.250858
0.445364
0.148174
0.0200233
0.00531979
0
0
0.00894516
0.00930132
0.0695293
0.215945
0.163178
0.129095
0.0118048
0.00791664
0.00263888
0.00536709
0.000154241
0.0287163
0.133651
0.1291
0.196453
0.156237
0.0599926
0.0110895
0
0
0.00215556
0.0305107
0.0228793
0.103244
0.334842
0.366929
0.0861915
0.0405229
0.00107969
0.0232445
0.120932
0.133513
0.187035
0.0501291
0.0944656
0.0446332
0.00149264
0
0.00818366
0.0820336
0.0562294
0.0603624
0.134871
0.524251
0.252829
0.0229154
0.159504
0.0540852
0.032647
0.140875
0.164042
0.0584274
0.0124626
0.017952
0.0832572
0.205022
0.0922021
0.102583
0.101206
0.150416
0.0470627
0.0513543
0.0401919
0.109481
0.225185
0.148944
0.153357
0.0368233
0.160941
0.0500548
0.0504715
0.139014
0.120524
0.15143
0.145781
0.160377
0.0228491
0.265898
0.0737622
0.226054
0.153298
0.274489
0.0653777
0.0470494
0.0942715
0.0795486
0.131598
0.0886367
0.105082
0.0709872
0.0694823
0.130515
0.0625206
0.110147
0.0417167
0.101257
0.177118
0.154156
0.161148
0.252809
0.122405
0.0585332
0.0925664
0.0499923
0.148915
0.0414002
0.150374
0.123185
0.161466
0.145576
0.0668527
0.231296
0.125964
0.201745
0.125118
0.130608
0.287069
0.328235
0.0555243
0.0451245
0.0634654
0.0390469
0.0472331
0.0647644
0.138328
0.0767128
0.0701972
0.092204
0.0539956
0.0391505
0.049539
0.0277946
0.124101
0.634381
0.150492
0.113214
0.0336947
0.0532016
0.137697
0.131981
0.166627
0.108812
0.042632
0.0597851
0.0716868
0.0731629
0.0710752
0.0835143
0.20529
0.201349
0.152548
0.291551
0.0822726
0.143189
0.0225863
0.0042347
0.00193115
0.00310608
0.000402012
0.0465856
0.362738
0.163994
0.0517797
0.00527427
0
0
0
0
0.0175478
0.263254
0.545759
0.218294
0.0251241
0.00941746
0.00719995
0.0200072
0.0147044
0.0583078
0.242226
0.172766
0.0775964
0.0331816
0
0
0
0
0.0235875
0.265243
0.345807
0.190741
0.0228624
0.000128522
0
0
0
0.00185773
0.0409972
0.219964
0.357782
0.347808
0.0101969
0.00249312
0
0
0
0.00623114
0.038283
0.480051
0.0450301
0.000551704
0
0
0
0.00234401
0.0830274
0.147519
0.283499
0.272283
0.0294361
0.00415521
0
0
0
0.0140608
0.0584713
0.452154
0.480364
0.118626
0.0193603
0
0
0
0
0.00074047
0.132976
0.320425
0.439861
0.144823
0.00779343
0
0
0
0
0.012918
0.342124
0.125811
0.03534
0
0
0
0
0.00276708
0.164538
0.27051
0.278266
0.157925
0.00449127
0
0
0.00129067
0.000322668
0.0364596
0.0957754
0.449864
0.332341
0.0215432
0.00263227
0
0
0
0.0096104
0.0286801
0.351481
0.407129
0.0780778
0.0201435
0.0170505
0.00159231
0.00950418
0.0263013
0.198015
0.333085
0.181205
0.0109905
0.00821741
0.00219
0.00483748
0.00227059
0.0221113
0.0952205
0.214946
0.160872
0.0359019
0.0585524
0.0367981
0.0339429
0.0270883
0.0482665
0.0428646
0.400147
0.443833
0.131826
0.0550238
0.0539292
0.00449664
0.0258336
0.0522841
0.0248749
0.123705
0.356386
0.117105
0.136238
0.0598089
0.0161364
0.00846996
0.0199621
0.0555639
0.126488
0.147842
0.0545803
0.113098
0.11047
0.0855517
0.0933158
0.0951166
0.0322806
0.0523361
0.140736
0.0714435
0.171733
0.187088
0.0352076
0.0524859
0.04617
0.0203685
0.046573
0.214686
0.121836
0.123706
0.0548937
0.0692864
0.0403562
0.0298381
0.0476585
0.0387711
0.121281
0.100312
0.0534995
0.0720137
0.353479
0.306142
0.139038
0.0820757
0.0435002
0.0985248
0.108816
0.13476
0.192052
0.0983778
0.0503978
0.0594076
0.265808
0.14053
0.13821
0.1239
0.0369612
0.13171
0.15677
0.169423
0.180002
0.0745314
0.0337506
0.0351404
0
0.0493062
0.0257468
0.0490654
0.0912049
0.0514385
0.227444
0.0688056
0.0606163
0.00671322
0.0870704
0.0297763
0.0865311
0.0594803
0.093103
0.221649
0.132347
0.00636859
0
0.00704374
0.0107704
0.0440745
0.127261
0.172138
0.727575
0.19617
0.0224927
0.000959031
0.0124386
0.00850915
0.0375321
0.053722
0.191371
0.175412
0.0609755
0.0923088
0.0301119
0.0984853
0.0375461
0.0319602
0.0236499
0.0611838
0.0750913
0.0360502
0.133542
0.0957721
0.243239
0.158442
0.0557451
0.094304
0.0628152
0.497668
0.0751004
0.0429093
0.00600603
0.04603
0.044868
0.0137601
0.0671114
0.195233
0.202294
0.0560936
0.0656255
0.0355857
0.152238
0.169182
0.103948
0.307331
0.348911
0.00599701
0.037326
0.13474
0.15648
0.302634
0.137004
0.0483594
0.056726
0.0262647
0.00554543
0.0332644
0.070847
0.239057
0.367938
0.11263
0.111999
0.0974708
0.0451625
0.0947349
0.126998
0.134523
0.159012
0.166487
0.0786623
0.0664033
0.16056
0.237033
0.067316
0.138083
0.11044
0.320668
0.281569
0.0815517
0.0495165
0.0697814
0.0794873
0.00583876
0.00739347
0.00525152
0.0321872
0.0421403
0.0710558
0.210516
0.154676
0.0427373
0.0584008
0.000471521
0
0
0
0.0556513
0.28994
0.245106
0.175542
0.0725236
0.0538319
0.0177737
0.0720677
0.055333
0.0463777
0.119346
0.14835
0.137814
0.271548
0.0204497
0.00733018
0.00582239
0.00192897
0.0313541
0.152749
0.235104
0.620017
0.0753775
0.00202863
0
0
0
0.00472187
0.0550655
0.107294
0.232065
0.225909
0.0413589
0.000760687
0
0
0
0.0045307
0.0459313
0.338672
0.202433
0.00121718
0
0
0
0.00261992
0.0152968
0.0869059
0.439957
0.373893
0.0254066
0
0
0
0
0.000117698
0.0352978
0.528406
0.247612
0.0967611
0.0103814
0
0
0
0
0.00192592
0.175251
0.218225
0.151653
0.0602254
0
0
0
0.00495252
0.00123813
0.11686
0.298441
0.0441517
8.53438e-005
0
0
0
0
0.000144999
0.446772
0.380048
0.0431677
0.00110147
0
0
0
0.00297151
0.000742878
0.516778
0.203775
0.128427
0.0568331
0
0.00535397
0.00430086
0.0173642
0.00815033
0.0563452
0.138881
0.0606428
0.0405356
0
0.0374778
0.0369034
0.0421038
0.0421647
0.0821694
0.436876
0.0259058
0.000933626
0
0.000815328
0.00163335
0.0104185
0.00573006
0.379643
0.407405
0.00584957
9.28791e-005
0
0.00570729
0.011631
0.0100041
0.0542554
0.51132
0.0406363
0.013961
0.0155249
0.00243517
0.0203069
0.0256056
0.0342122
0.0818767
0.089434
0.0211873
0.0133922
0.0139435
0.0184507
0.0211246
0.0309881
0.0142583
0.0919276
0.104569
0.157959
0.00219497
0.00119516
0.000347882
0.00236802
0.00472343
0.00402546
0.105373
0.502582
0.121392
0.00464466
0.00199193
0.00243517
0.000811724
3.02667e-005
0.0028348
0.190098
0.69309
0.0406132
0.0313227
0.0291821
0.0378272
0.0221687
0.0514611
0.039239
0.0836852
0.07538
0.102841
0.0997118
0.0983609
0.0962233
0.0184635
0.0984804
0.0370361
0.0352486
0.0435411
0.0525587
0.021866
0.0487892
0.0531433
0.00815756
0.0184716
0.042194
0.337354
0.599531
0.0119094
0.0887666
0.258378
0.259183
0.059946
0.121329
0.0626523
0.167374
0.177745