0.0764777
0.0404008
0.0493971
0.0225251
0.0849357
0.1217
0.105213
0.207722
0.0870032
0.0812746
0.0295289
0.0606262
0.0370854
0.104163
0.118175
0.25466
0.295032
0.148712
0.0609747
0.00531494
0.037929
0.0727955
0.183717
0.204448
0.111861
0.195462
0.109602
0.144484
0.0664455
0.284048
0.0585822
0.139688
0.18035
0.0841539
0.252072
0.260566
0.0779188
0.057979
0.0425419
0.0608424
0.0432034
0.0797123
0.134196
0.191931
0.136909
0.159319
0.108152
0.0722439
0.133786
0.245935
0.0915267
0.129427
0.157685
0.141565
0.0882382
0.122071
0.255409
0.0580913
0.0452927
0.0976097
0.120175
0.139663
0.146917
0.108193
0.147202
0.140838
0.134475
0.20031
0.200447
0.320178
0.2717
0.0644151
0.0793507
0.0546896
0.0324096
0.0929042
0.195748
0.0782265
0.0561315
0.123325
0.0913288
0.196899
0.237947
0.14804
0.0403844
0.14096
0.0958253
0.0713263
0.228974
0.25708
0.0494132
0.0346656
0.0365818
0.0720069
0.170201
0.221547
0.163394
0.169998
0.0662371
0.125008
0.117653
0.120003
0.0259272
0.170504
0.317915
0.186222
0.294587
0.171036
0.219722
0.140027
0.125925
0.0263944
0.135356
0.05535
0.0875536
0.111426
0.304032
0.137084
0.0367873
0.0831029
0.0947494
0.160514
0.152255
0.158668
0.160928
0.267909
0.196979
0.174946
0.15007
0.0200976
0.0980609
0.134863
0.0761768
0.167153
0.165373
0.188669
0.107954
0.146125
0.103198
0.141221
0.179699
0.125445
0.252145
0.201634
0.0392181
0.0364537
0.0627018
0.0373956
0.0463675
0.0843786
0.0815441
0.200974
0.160432
0.19905
0.0576869
0.064203
0.0060735
0.0394874
0.0392762
0.081893
0.207078
0.336508
0.0628785
0.0441339
0.101203
0.0580075
0.132076
0.198935
0.107897
0.208628
0.122696
0.230607
0.0613922
0.0923872
0.0279388
0.0713069
0.123182
0.076005
0.31835
0.442841
0.18998
0.0228039
0.0084737
0.00350786
0.0532243
0.026306
0.0910509
0.220304
0.210856
0.0481425
0.0200848
0.0133773
0.00305195
0.118832
0.0590141
0.181582
0.194344
0.11704
0.185236
0.0339731
0.0556075
0.0597127
0.040958
0.0315306
0.128219
0.322052
0.375626
0.0605751
0.0375625
0.0958254
0.156808
0.233235
0.190968
0.263124
0.172874
0.171293
0.0172072
0.0321789
0.0497037
0.0454229
0.158094
0.0797599
0.138863
0.10173
0.0301749
0.0478814
0.0988402
0.113773
0.0619641
0.178579
0.085906
0.0866709
0.13857
0.0346489
0.125812
0.0268615
0.0631084
0.138114
0.275879
0.325215
0.206919
0.114294
0.0256943
0.122313
0.0371849
0.0911304
0.0669611
0.234575
0.207751
0.225118
0.240095
0.0237389
0.0704496
0.0715422
0.0509273
0.0122018
0.0543254
0.144953
0.120084
0.129321
0.0542258
0.0607459
0.0287203
0.0129918
0.0523518
0.0567913
0.176811
0.154556
0.322978
0.124042
0.0675439
0.0158804
0.032937
0.0231238
0.068293
0.13016
0.245618
0.19594
0.112159
0.316017
0.131061
0.0276653
0.0390666
0.0507559
0.0700616
0.179043
0.348
0.204569
0.0680188
0.0568999
0.0138283
0.0692442
0.10417
0.163112
0.0428074
0.236965
0.139597
0.079138
0.121973
0.0524016
0.101836
0.208667
0.231451
0.0248363
0.0265649
0.081229
0.255789
0.193059
0.0481848
0.0750667
0.18298
0.0823889
0.034081
0.212712
0.119443
0.0861716
0.0978179
0.0987325
0.141581
0.227899
0.245969
0.0470495
0.0423807
0.0922981
0.0797488
0.0223774
0.00500138
0.0434988
0.0562479
0.0616801
0.0575831
0.093492
0.114078
0.0713203
0.0259253
0.0965639
0.00942807
0.039915
0.0804126
0.0680072
0.132393
0.25573
0.148868
0.0458702
0.00363349
0.0279691
0.0111445
0.00578775
0.0776192
0.314485
0.269399
0.0678118
0.0212425
0.00898422
0.000333037
0.074851
0.0540354
0.093139
0.421209
0.534709
0.0378202
0.0267163
0.112405
0.00685075
0.0236766
0.0334588
0.121464
0.129721
0.193559
0.0399132
0.0268843
0.0327775
0.011798
0.0363988
0.0624744
0.272528
0.286343
0.127481
0.0622202
0.019315
0.0150001
0
0.126336
0.140322
0.115844
0.294263
0.288999
0.131911
0.0829709
0.0539835
0.00966666
0.0475511
0.0909239
0.196071
0.468267
0.183802
0.0847568
0.0352452
0.0338661
0.00759448
0.0321533
0.0831343
0.173344
0.203082
0.10602
0.165966
0.0896112
0.0825411
0.0107934
0.0320304
0.253957
0.183768
0.234009
0.232172
0.166404
0.187506
0.108431
0.0263343
0
0.0076484
0.101374
0.205701
0.0840276
0.372399
0.268291
0.182992
0.0727553
0
0.10159
0.132054
0.158595
0.177584
0.139872
0.123125
0.0557079
0.0193218
0.00676347
0.196665
0.126733
0.134225
0.189855
0.222712
0.109373
0.0739071
0.137875
0.0905943
0.113286
0.113373
0.182054
0.282791
0.195372
0.133934
0.100833
0.0604557
0
0.105977
0.117074
0.129093
0.18657
0.400812
0.227435
0.0914847
0.103333
0.0532837
0.0363273
0.0391714
0.0813636
0.278652
0.0857967
0.0516552
0.0425463
0.104297
0.180602
0.104684
0.0904734
0.128285
0.138489
0.10461
0.0319284
0.0155427
0.0240837
0.0848434
0.0641263
0.0319045
0.281577
0.374461
0.327724
0.187683
0.0369285
0.0770886
0.105758
0.00747818
0.0117758
0.0240993
0.171474
0.300631
0.140662
0.00277734
0.0172061
0.0461287
0.00312636
0.0115601
0.19771
0.356586
0.12611
0.0487903
0.0534884
0.0383659
0.0130815
0.00989093
0.0260137
0.170476
0.23444
0.105348
0.113765
0.157501
0.148784
0.068223
0.0656997
0.0562954
0.0790355
0.0726726
0.198435
0.0602482
0.01902
0.00436048
0
0
0.0303947
0.316984
0.215262
0.122464
0.112699
0.0966946
0.031632
0.000123674
0.0035584
0.0967647
0.620543
0.0791081
0.140397
0.0736137
0.0790391
0.101846
0.0557811
0.0924917
0.0360153
0.057536
0.0206335
0.16558
0.0336064
0.073517
0.0445272
0.0775043
0.0516361
0.105611
0.0622042
0.0539175
0.114192
0.0986495
0.0613439
0.0284977
0.00158723
0.00724195
0.127259
0.617795
0.0514269
0.208586
0.0604986
0.0869635
0.0120734
0.00826259
0.0087927
0.219237
0.328815
0.163258
0.0784755
0.0139184
0.066748
0.0529159
0.0648316
0.0406932
0.180436
0.0672642
0.118673
0.283509
0.0734533
0.0295973
0.0995225
0.068839
0.0364827
0.0863584
0.0919295
0.223777
0.139146
0.045093
0.11524
0.0360558
0.052156
0.0392373
0.161381
0.130076
0.258172
0.197123
0.0574566
0.0702884
0.106334
0.0872957
0.0537655
0.0571913
0.367513
0.372399
0.29097
0.126072
0.0421048
0.054673
0.11181
0.0480299
0.0286644
0.076473
0.16341
0.0885352
0.0697351
0.119347
0.113128
0.116039
0.105679
0.0266973
0.0405873
0.108594
0.232302
0.120564
0.139526
0.05209
0.0774401
0.0385658
0.0624112
0.305
0.238394
0.139387
0.141753
0.153301
0.0287639
0.129786
0.0480292
0.0675
0.115205
0.132466
0.107713
0.0158441
0.0131318
0.0250109
0.0185617
0
0.0772256
0.282468
0.217457
0.0730817
0.0118861
0.0011084
0
0.0450208
0.0645464
0.106848
0.435163
0.389501
0.126511
0.032666
0.0263862
0.013189
0.0153308
0.0256296
0.0527917
0.214657
0.185693
0.153843
0.147754
0.132559
0.0137419
0.0547026
0.0334408
0.0981032
0.246246
0.269506
0.0778258
0.038285
0.011245
0
0.0611487
0.127661
0.0742841
0.18446
0.12142
0.130231
0.119336
0.0827716
0.0428368
0.0308337
0.0765968
0.118566
0.232945
0.0671178
0.159588
0.337627
0.115466
0.0155337
0.0789471
0.054627
0.0680092
0.09828
0.0899026
0.299867
0.560397
0.129034
0.167656
0.0846551
0.0327762
0.0939458
0.0895264
0.0655797
0.0605994
0.143293
0.0746227
0.04573
0.00363952
0
0.0416658
0.0711477
0.0174025
0.150361
0.297177
0.114017
0.0258793
0.00218371
0.00141098
0.010189
0.0122328
0.0306717
0.0925032
0.328833
0.187858
0.138843
0.0300908
0
0.0270875
0.0209015
0.0125354
0.117882
0.582608
0.431819
0.029025
0.00600462
0.00483714
0.00756907
0.0041593
0.0394396
0.118611
0.23201
0.088163
0.0323513
0.00380477
0.00157503
0.00892517
0.0129717
0.0551265
0.299002
0.205857
0.0993359
0.0329521
0.00708931
0.000225004
0.00127502
0.00784327
0.0958648
0.101784
0.472355
0.205959
0.0637933
0.0297889
0.0178329
0.0220162
0.00852144
0.122834
0.277481
0.338883
0.254284
0.227156
0.0664774
0.0511043
0.0142734
0.00511286
0.158457
0.209791
0.0622909
0.0170567
0.00416643
0.00196975
0
0
0.00298872
0.122183
0.216503
0.0280158
0.000180663
0.000831077
0.000831077
0
0.00797457
0.0781425
0.234598
0.261032
0.108773
0.092327
0.0626474
0.00962781
0.0193025
0.000724585
0.00520622
0.282218
0.241274
0.0166098
0.0215935
0.00417952
0
0.00196672
0.00882458
0.241594
0.664832
0.0664221
0.00605267
0.000176738
0
0
0
0.0258393
0.158923
0.0985845
0.00952566
0.00423654
0.00236662
0
0.00486283
0.000713845
0.0815338
0.311524
0.0358998
0.0464864
0.00054365
0
0
0
0.00642385
0.0739364
0.461547
0.244332
0.0111417
0.00112064
0
0
0.0340398
0.0218534
0.328608
0.61335
0.0550228
0.00526922
0.00505319
0.00205763
0
0.00631456
0.0129005
0.12813
0.285468
0.0136891
0.0373553
0.0163067
0.0261575
0
0.0161868
0.0631431
0.177169
0.158428
0.0417649
0.0334416
0.00368148
0
0
0.0458169
0.057011
0.404885
0.340859
0.013355
0.0376681
0.00868761
0.00906341
0
0.0395247
0.153634
0.62679
0.159767
0.0174323
0.0941555
0.0300522
0.0466134
0.000828564
0.0301106
0.0610722
0.106435
0.0787354
0.159323
0.119261
0.0575403
0.03425
0.00638845
0.0132633
0.0150821
0.0166621
0.191514
0.226246
0.0830945
0.0165612
0.015681
0
0.0554621
0.217129
0.685502
0.0688463
0.0898035
0.11116
0.0598921
0.0459697
0.0163354
0.0309419
0.125039
0.237506
0.0756256
0.177916
0.142122
0.192952
0.0957963
0.00898615
0.0634633
0.0236353
0.0308664
0.233777
0.185637
0.0966156
0.157107
0.0691319
0.0335482
0.161185
0.0342382
0.0526133
0.105112
0.103342
0.117701
0.220884
0.205499
0.138227
0.131221
0.026732
0.0419381
0.0790069
0.187581
0.150091
0.183082
0.131201
0.135117
0.276548
0.0580737
0.0283572
0.0533244
0.197652
0.065293
0.0259073
0.0353132
0.00886099
0.0143962
0.0426629
0.112524
0.205451
0.0914253
0.124114
0.193238
0.185032
0.0564585
0.161189
0.0208178
0.0580404
0.110952
0.0803929
0.0968172
0.0210169
0.0686207
0.0485932
0.0232018
0.0521229
0.388265
0.416414
0.1304
0.13656
0.0965547
0.156479
0.1476
0.254007
0.0955037
0.184209
0.207761
0.057277
0.056127
0.213358
0.0877143
0.0385558
0.157093
0.00922799
0.0571662
0.0222354
0.0175689
0.113826
0.314071
0.164138
0.231214
0.15351
0.00754922
0.0707185
0.00788233
0.0131749
0.0380133
0.0473769
0.0713112
0.0945177
0.21853
0.059461
0.128408
0.0301121
0.00897083
0.0114332
0.0950142
0.416518
0.487152
0.221741
0.0322051
0.141539
0.00858603
0.00217582
0.0283919
0.107001
0.191477
0.124818
0.0332819
0.000409829
0.00527215
0.000279475
0.00167459
0.0534715
0.227496
0.353855
0.0577397
0.0142209
0.0146802
0.0105864
0.0044128
0.0175913
0.00307061
0.0338076
0.306584
0.424542
0.0651569
0.000976963
0.00879267
0
0.00019536
0.0393197
0.112588
0.431771
0.437577
0.0736303
0.0171721
0.00845111
0.0208736
0.0078755
0.089224
0.312909
0.216375
0.0573146
0.0513201
0.0992447
0.0926412
0.0146532
0.107832
0.0623896
0.126864
0.12588
0.188203
0.111294
0.184445
0.120324
0.0129635
0.119591
0.0813108
0.137618
0.294706
0.295838
0.222901
0.13718
0.0951458
0.0449419
0.0353227
0.0573305
0.0868566
0.220411
0.134815
0.28296
0.260071
0.160252
0.0186827
0.05714
0.112514
0.0661236
0.101376
0.0861202
0.0294586
0.0830083
0.0375858
0.0242157
0.249602
0.158007
0.0134751
0.0327164
0.00747604
0.00406488
0.00799062
0.0057153
0.191227
0.626819
0.145894
0.0708404
0.153276
0.0203483
0.0637619
0.10885
0.0725852
0.0614902
0.178542
0.18363
0.0164668
0.0645746
0.0521792
0.0760038
0.059692
0.0450574
0.115542
0.367285
0.038936
0
0.00129239
0.00557006
0.00616907
0.0201468
0.0693316
0.26267
0.195594
0.0196844
0.00112416
0.000775433
0.0236295
0.038965
0.0654298
0.446816
0.407564
0.0439597
0.0506999
0
0.0139388
0.0628317
0.0923584
0.058633
0.101035
0.0482317
0.104004
0.0173902
0.000160595
0.00542803
0.0901719
0.268339
0.118112
0.518983
0.121294
0.0238573
0.0204848
0.00227608
0
0.00596877
0.019285
0.0748276
0.342208
0.127043
0.001641
0.0158744
0.00176382
0
0
0.0172363
0.110427
0.382956
0.0697314
0.0027224
0.00549987
0.000611096
0
0.0169228
0.109789
0.161692
0.518299
0.0707016
0
0.0201133
0.00223481
0
0
0.154768
0.331452
0.417102
0.06335
0.00153614
0.00948976
0.00122966
0
0
0.0603464
0.175067
0.463784
0.0749773
0.0089186
0.0133155
0.0263807
0.0290071
0.021006
0.0689423
0.125147
0.200591
0.0441126
0.0172086
0.0167197
0.00357462
0
0.00109092
0.266648
0.471557
0.289499
0.100401
0.00841246
0.0223626
0.0426755
0.0280633
0.0427931
0.192881
0.302366
0.179793
0.0560261
0.00577751
0.0239831
0.106011
0.175661
0.258925
0.0718557
0.0362916
0.0711916
0.0288884
0.0452551
0.0647788
0.0526975
0.0924717
0.241558
0.100706
0.143863
0.0610341
0.0602452
0.157844
0.0358641
0.129051
0.171236
0.294086
0.113118
0.124876
0.109442
0.0302702
0.0178498
0.0171676
0.0261966
0.104586
0.34537
0.16684
0.14332
0.119588
0.0990147
0.10391
0.0231012
0.0216904
0.0470258
0.0300498
0.066147
0.15736
0.308713
0.229594
0.060567
0.0464194
0.0223852
0.0919336
0.0716612
0.145588
0.0925358
0.17814
0.118693
0.0325118
0.149662
0.290806
0.270937
0.153759
0.0976217
0.197393
0.160355
0.0730265
0.0532444
0.199485
0.216886
0.350529
0.130282
0.103177
0.0865881
0.121253
0.0630149
0.124391
0.020293
0.00530983
0.0673713
0.0800689
0.130177
0.0371577
0.0390586
0.00704928
0.00236199
0.00267319
0.00713659
0.156602
0.333118
0.294532
0.0363054
0.0220016
0.000832227
0.000115715
0.0687231
0.056714
0.0896948
0.0657059
0.145933
0.150589
0.028343
0.0195156
0.0361623
0.00947986
0.00772711
0.0268591
0.212328
0.585574
0.446704
0.0143795
0.00902765
0.0137605
0
0.00288507
0.0852257
0.3794
0.176431
0.0117355
0.00187517
0.000351488
3.90542e-005
0.00431818
0.00798348
0.107199
0.39218
0.201093
0.0106413
0.0045158
0.00959767
0.00103541
0
0
0.00500184
0.198879
0.414061
0.288522
0.00140645
0.00135579
6.50903e-005
0.0012107
0.00686064
0.00688053
0.167844
0.428066
0.18911
0.027856
0.00949054
0.000455632
0.0147071
0.0233967
0.127036
0.318711
0.313309
0.0507255
0.0344783
0.0190938
0.00185067
0.0449542
0.0667593
0.16294
0.132838
0.227978
0.22625
0.0417121
0.036634
0.0329437
0.0161318
0.0525896
0.0188651
0.158435
0.491394
0.1447
0.183242
0.0221481
0.000565296
0.0327084
0.0527536
0.0297687
0.0775181
0.200796
0.272023
0.192388
0.0843963
0.0551361
0.187948
0.109997
0.260885
0.0215641
0.0824918
0.201195
0.0376427
0.0954679
0.127777
0.158339
0.0613037
0.24677
0.128969
0.117271
0.162525
0.0851775
0.123184
0.117426
0.104684
0.0605158
0.172007
0.0508595
0.0813736
0.220919
0.0823232
0.104422
0.169069
0.120455
0.142917
0.3777
0.114944
0.0759346
0.205304
0.147151
0.0863998
0.154353
0.00989743
0.00981456
0.0292683
0.0824346
0.157859
0.125024
0.0570471
0.0218501
0.0100224
0.00236737
0.011989
0.0086463
0.101504
0.4915
0.152161
0.158636
0.0198848
0.00121426
0.0374138
0.107309
0.0758666
0.0460458
0.156009
0.18994
0.0605256
0.0261799
0.0347644
0.0368674
0.131123
0.0588208
0.158468
0.618175
0.180331
0.0329425
0.00537491
0.0113273
0.00081741
0.00100547
0.000492504
0.0169624
0.235028
0.120559
0.1412
0.0124748
0
0.00572187
0.000635762
0
0.00708008
0.352271
0.246515
0.107342
0.00875365
0.000175833
0.00206414
0.00949875
0.00985512
0.133271
0.409234
0.0642397
0.00964318
0.000491911
0
0
0
0.00262316
0.217082
0.632593
0.111987
0.00659215
0.000202066
0
0.00488973
0.00104541
0
0.0137868
0.367293
0.304571
0.0436827
0.010651
0.000905074
0.00790407
0.00989695
0.014371
0.0364801
0.24283
0.193321
0.038122
0.00561334
0.00212062
0
0
0.00183951
0.224836
0.573895
0.141623
0.00526079
0.000246848
0.000987394
0.0181674
0.00623641
0.0161413
0.0975319
0.373999
0.132965
0.0230091
0.00277262
0.0078583
0.0446527
0.0715962
0.105305
0.146545
0.217931
0.147464
0.0527967
0.0118591
0.0273676
0.0784527
0.0612281
0.065162
0.164779
0.0935229
0.041945
0.0828866
0.111331
0.139242
0.113205
0.0797823
0.0871806
0.105148
0.428219
0.188514
0.0642256
0.0369502
0.0491191
0.155756
0.100818
0.0835049
0.0999263
0.158337
0.0504578
0.0841389
0.186402
0.221474
0.183563
0.21449
0.160158
0.114916
0.0136614
0.0225863
0.0100907
0.0425361
0.0541934
0.172695
0.225479
0.42987
0.133297
0.0116402
0.0137134
0.010963
0.0416356
0.0895038
0.138512
0.171829
0.172911
0.138168
0.0519235
0.0481107
0.0227495
0.102107
0.117193
0.187143
0.255828
0.379735
0.0942788
0.0228315
0.0713552
0.0676046
0.0998397
0.24316
0.0593491
0.0656852
0.12861
0.0551866
0.0941747
0.108886
0.0300448
0.0380084
0.0355449
0.00796479
0.00725905
0.00976375
0.0519675
0.320242
0.524989
0.103676
0.0243103
0.0153063
0.0626885
0.0416784
0.127696
0.0659472
0.059908
0.0673915
0.0949818
0.0723022
0.0854614
0.0140546
0.00236402
0.0166255
0.0620438
0.14093
0.462716
0.398746
0.103964
0.0323692
0
0
0
0.0152905
0.177274
0.419951
0.0390781
0.0030466
8.25321e-006
0.00308338
0.0257735
0.00803471
0.0481193
0.211905
0.323346
0.065596
0.0150429
5.77725e-005
0
0
0
0.00434713
0.0523655
0.450169
0.23543
0.069492
0.00148136
0.0321092
0.0318832
0.0200205
0.113153
0.0879415
0.368519
0.321928
0.198267
0.00334422
0.0218614
0.173356
0.0498969
0.138125
0.300689
0.190348
0.139315
0.0226893
0.000650645
0.0207241
0.105727
0.0302421
0.0889475
0.15284
0.169104
0.120999
0.0465202
0.0190146
0.0876541
0.199659
0.126003
0.318284
0.230528
0.226958
0.318585
0.214956
0.0226444
0.054437
0.132727
0.0970412
0.169154
0.259674
0.145001
0.0998387
0.0639263
0.0434941
0.0256824
0.0142507
0.0591482
0.0827732
0.135403
0.138301
0.0941627
0.0465791
0.087438
0.048611
0.119967
0.292791
0.0905585
0.0657842
0.106975
0.131873
0.0465084
0.351208
0.116985
0.0218028
0.0353542
0.0890551
0.161882
0.0747905
0.0369903
0.0541671
0.147406
0.126338
0.095142
0.304224
0.167783
0.215887
0.0577495
0.0718804
0.0582016
0.390623
0.0481631
0.0842782
0.083494
0.0301162
0.0511405
0.110894
0.0679004
0.0222466
0.154203
0.0473557
0.0912759
0.149955
0.219599
0.2357
0.151024
0.0715479
0.013729
0.0614682
0.05644
0.0278679
0.0903452
0.0677643
0.194654
0.164941
0.071642
0.0395291
0.17221
0.0652859
0.0990051
0.522851
0.158156
0.313508
0.324765
0.072934
0.033372
0.143653
0.0022749
0.00786398
0.105988
0.270048
0.162137
0.0154464
0.00482965
0.000464758
0
0
0.00292836
0.0690777
0.457243
0.265826
0.00736236
0
0
0
0.0163455
0.0650372
0.427995
0.230812
0.0606018
0.0339596
0.00358774
0.00142317
0.0144314
0.0198651
0.0783641
0.288024
0.444841
0.0554037
0
0
0.00148635
0.000637007
0
0.0112292
0.0477628
0.500765
0.337961
0.0241517
0.00331909
0.000888916
0.00355567
0.0228134
0.0107532
0.0213536
0.176369
0.24853
0.0757191
0.0378957
0.0106537
0.0248897
0.0319339
0.120071
0.187895
0.498429
0.124982
0.0268105
0.0148006
0.0320148
0.00766199
0.0195594
0.0520738
0.038194
0.14837
0.183624
0.0820223
0.0551129
0.118213
0.0313664
0.0869623
0.0228892
0.0482537
0.0895675
0.219325
0.143407
0.0877302
0.0461151
0.053728
0.167294
0.0469235
0.129315
0.135104
0.121605
0.0577678
0.0522073
0.100604
0.164622
0.0275976
0.00136647
0.0311212
0.130585
0.229603
0.209739
0.128048
0.219142
0.0651113
0.196694
0.090212
0.132659
0.176388
0.136309
0.124554
0.156744
0.238218
0.170677
0.046556
0.0868069
0.262024
0.0620277
0.127012
0.0478759
0.0791678
0.0879879
0.132514
0.158312
0.120603
0.242064
0.0295485
0.0446907
0.178336
0.208721
0.0821774
0.214847
0.0624734
0.0547805
0.197938
0.0449893
0.167864
0.032467
0.227517
0.208544
0.118503
0.199372
0.174575
0.316839
0.076409
0.0828132
0.115202
0.28247
0.127973
0.0922493
0.111081
0.0519219
0.0739155
0.0232358
0.0215902
0.0949445
0.125309
0.106528
0.098865
0.0418285
0.0333412
0.0394149
0.0251352
0.0700678
0.374027
0.293159
0.243317
0.0717809
0.162393
0.107303
0.202253
0.0342524
0.0493362
0.0574112
0.0837517
0.186936
0.055637
0.0610534
0.062988
0.119735
0.0331632
0.114134
0.247107
0.13062
0.511003
0.0800063
0
0.00232802
0.00190475
0.00180041
0.0271579
0.224512
0.249398
0.164874
0.0227168
0.0396423
0.0123636
0.00620048
0.0427759
0.0119109
0.115332
0.403123
0.378204
0.014372
0.000970699
0.00388004
0.00338874
0.00257768
0.0317673
0.109985
0.182196
0.232084
0.0935346
0.00728102
0.0014158
0
0
0.0157733
0.0375965
0.338657
0.464047
0.123922
0.0585148
0.0381767
0.0350824
0.0684862
0.0338025
0.0806214
0.238627
0.320034
0.0168707
0.0532845
0.0343794
0.0411752
0.0464639
0.0616281
0.0532232
0.0871855
0.183515
0.0634084
0.00974756
0.00429472
0.00305912
0.000475844
0.01776
0.100556
0.231249
0.532947
0.0665692
0.0350383
0.0183929
0.00509853
0.00333091
0.00715376
0.0957191
0.156343
0.481489
0.194464
0.120273
0.0152389
0.00943911
0.0193985
0.0242758
0.00622334
0.0198269
0.0644295
0.14629
0.13262
0.10506
0.0742144
0.040955
0.0834425
0.0121753
0.00703723
0.0351711
0.164835
0.2291
0.0735317
0.000937857
0.00198202
0.00100417
0.0113559
0.0507567
0.202925
0.414229
0.499997
0.337296
0.130915
0.00866802
0.0100339
0.00147982
0
0.0346582
0.311351
0.083994
0.120608
0.0669965
0.0316159
0.138969
0.0498868
0.0167376
0.0443792
0.0798915
0.204903
0.261547
0.379371
0.0793415
0.17657
0.0948185
0.0114026
0.0490467
0.102226
0.219905
0.299132
0.189371
0.0461189
0.0148859
0.00121265
0
0.024041
0.0535801
0.349288
0.326461
0.271683
0.170969
0.0448429
0.000173236
0
0.0278761
0.0259926
0.105155
0.175645
0.49795
0.135284
0.0410089
0.0190113
0.000270954
0.00577682
0.0273033
0.078302
0.188844
0.394643
0.197987
0.0248067
0
0
0.00834707
0.004763
0.216819
0.177153
0.261417
0.133801
0.0308945
0.00132715
0.00752053
0.00346609
0.0158121
0.198908
0.222341
0.269717
0.0600974
0.0105786
0.011444
0.01356
0.0211578
0.103097
0.108859
0.196701
0.260821
0.201592
0.0569042
0.032698
0.0472909
0.115974
0.03351
0.0438081
0.0595328
0.0460653
0.0754214
0.121849
0.133844
0.131818
0.296276
0.0660007
0.154308
0.265825
0.168368
0.0300324
0.0125822
0.0481023
0.0341965
0.123802
0.248683
0.0542905
0.287192
0.238557
0.166822
0.0862507
0.110926
0.0838351
0.148907
0.136898
0.00669229
0.00121118
0.0305741
0.0872655
0.148943
0.170962
0.0984521
0.186845
0.0435527
0.0834948
0.0742443
0.0284167
0.0996225
0.0795664
0.0894968
0.0943198
0.136594
0.0648223
0.0921102
0.130492
0.24714
0.283114
0.214419
0.106894
0.0577509
0.090304
0.0555041
0.352023
0.290626
0.100882
0.131753
0.119859
0.0429238
0.0494935
0.0974519
0.154544
0.0440718
0.0713937
0.0346972
0.0383206
0.078404
0.0521502
0.122787
0.14924
0.134629
0.14231
0.158071
0.123925
0.0707873
0.0753117
0.0149495
0.100103
0.0835218
0.151084
0.254406
0.259972
0.202156
0.0559407
0.0953677
0.0883789
0.0556083
0.132174
0.206828
0.287972
0.153414
0.0920121
0.0535767
0.056855
0.118301
0.105688
0.239211
0.456329
0.140258
0.0904666
0.134973
0.0993513
0.0331523
0.0145384
0.070549
0.173288
0.0928482
0.066114
0.0256128
0.0690749
0.108818
0.0448896
0.202668
0.231623
0.442276
0.0577618
0.0787595
0.0957617
0.125406
0.170685
0.0545469
0.0894983
0.0928054
0.145542
0.20249
0.20175
0.238706
0.121916
0.178949
0.0616903
0.147827
0.202909
0.246043
0.12256
0.0280443
0.00362874
0.0058168
0.00992819
0.0179553
0.157146
0.179446
0.200754
0.148492
0.0268933
0.00605689
0.0436932
0.0245942
0.0614502
0.090781
0.154165
0.376107
0.259389
0.276461
0.131367
0.0275485
0.0289731
0.0117301
0.0997073
0.0895158
0.14375
0.213394
0.281931
0.0622085
0.0915164
0.0922083
0.0362051
0.0525901
0.0657108
0.267596
0.373303
0.0393531
0.0258855
0.0313736
0.026186
0.0577764
0.0941311
0.0703631
0.36978
0.124812
0.0665411
0.0677208
0.0132195
0.00374085
0.0181598
0.0608115
0.0668585
0.372301
0.2688
0.27674
0.0874608
0.0829159
0.0900471
0.033678
0.1113
0.030282
0.260263
0.210471
0.227897
0.166297
0.156628
0.0965983
0.082484
0.146863
0.018742
0.201409
0.223723
0.189653
0.0700298
0.0030339
0
0
0.00422195
0.0152555
0.154093
0.289836
0.566561
0.144058
0.0387679
0.00244611
0
0
0
0.0360454
0.197848
0.155845
0.0798975
0.0815248
0.0292837
0.0709862
0.0260329
0.00464264
0.131818
0.231272
0.368611
0.0807213
0.0809815
0.00979876
0.0101409
0.00133811
0.0150372
0.131201
0.219957
0.420641
0.192394
0.106542
0.0356103
0.000382733
0
0
0.00216493
0.0398858
0.29079
0.234945
0.195926
0.162102
0.0195175
0
0.00622841
0.00434697
0.0112664
0.287539
0.179923
0.139141
0.0941188
0.00221691
0.00132485
0.00648269
0.0368589
0.0797237
0.116155
0.336177
0.270501
0.229259
0.0177587
0.00927392
0.0166439
0.0344553
0.0672055
0.190532
0.211064
0.184626
0.139883
0.0302299
0.00703739
0.0618619
0.0271782
0.0304908
0.240232
0.238259
0.12231
0.0508278
0.00992946
0.106821
0.0930838
0.103784
0.22672
0.0788835
0.230656
0.142935
0.0946654
0.0147144
0.00847719
0.0817985
0.140708
0.193733
0.220894
0.284932
0.124616
0.0981257
0.00613893
0.122271
0.091182
0.208734
0.28278
0.0686563
0.238204
0.0557869
0.0119017
0
0.0961805
0.0199583
0.0850714
0.199468
0.0454662
0.429401
0.147606
0.0538102
0.0324698
0.0483243
0.0170775
0.0795598
0.117444
0.0822969
0.309281
0.162411
0.103477
0.0124622
0.112215
0.0158759
0.110147
0.0965814
0.11134
0.442098
0.152947
0.0564017
0.0352082
0.064968
0.0220382
0.192003
0.0919042
0.112458
0.173546
0.138382
0.102819
0.105798
0.0386638
0.0177017
0.0972361
0.076448
0.320437
0.250434
0.0678152
0.0444396
0.0623852
0.00510705
0.0150362
0.140708
0.191178
0.234385
0.207596
0.109593
0.025424
0.0647252
0.0850354
0.0308778
0.135823
0.109014
0.33968
0.148036
0.0475657
0.0112682
0.0379968
0.0426269
0.0752073
0.222337
0.284735
0.197581
0.27482
0.121134
0.0320317
0.0169121
0.0115382
0.026529
0.0885633
0.0899535
0.174689
0.0703866
0.0360753
0.00768587
0.0228718
0.0628702
0.0662226
0.306006
0.288284
0.164836
0.403199
0.121454
0.0712201
0.0150018
0.0833413
0.0666985
0.106821
0.0792732
0.147637
0.207368
0.231809
0.0497305
0.110587
0.0955238
0.0788203
0.298137
0.239167
0.0500571
0.0551578
0.136682
0.0867366
0.0424585
0.0643429
0.0485652
0.232922
0.179018
0.127003
0.30969
0.178131
0.115681
0.0232479
0.020597
0.03997
0.12164
0.089672
0.0515454
0.130241
0.315747
0.091641
0.155078
0.0948597
0.0736176
0.318861
0.187086
0.178414
0.310504
0.193998
0.080956
0.0467204
0.0852101
0.0900547
0.204241
0.14758
0.182613
0.218743
0.099872
0.0561814
0.00199932
0.00623856
0.0123383
0.0682317
0.131785
0.292275
0.195634
0.147897
0.142173
0
0.000737476
0.0162057
0.115457
0.195329
0.175708
0.287521
0.191192
0.132146
0.0637855
0.0149378
0.022158
0.0681941
0.07819
0.310369
0.362703
0.275957
0.220618
0.0439968
0
0.00815738
0.0449032
0.0731114
0.28664
0.213743
0.0832655
0.132012
0
0.0767794
0.0156879
0.186363
0.141976
0.154525
0.178178
0.169945
0.216724
0.0809316
0.154424
0.0258859
0.110885
0.103584
0.331831
0.364269
0.0919765
0.0943532
0.00147582
0.0121961
0.0199148
0.0970101
0.0855574
0.187603
0.289732
0.16417
0.130875
0.0167452
0.0427489
0.0396536
0.0868505
0.084663
0.142519
0.0768728
0.130135
0.0905508
0.120552
0.0652068
0.0284753
0.0562636
0.244832
0.259331
0.123218
0.129211
0.0158771
0.0172217
0.00563005
0.0600907
0.118663
0.305475
0.177638
0.14107
0.209261
0.0722199
0.0249429
0.0320404
0.0388066
0.0354234
0.188461
0.409353
0.220183
0.143558
0.0285472
0.040381
0.00337803
0.0371967
0.0283238
0.272822
0.160376
0.211454
0.19019
0.150326
0.00723912
0.00482609
0.0215021
0.0397606
0.0987466
0.0733638
0.245892
0.287671
0.28381
0.0506739
0.0337826
0.0257986
0.0777984
0.0856559
0.297556
0.244573
0.112911
0.082847
0.0820685
0.0123008
0.0174075
0.00952198
0.0912068
0.176246
0.163385
0.300459
0.178506
0.0964112
0.0861053
0.105034
0.123262
0.0634969
0.0774544
0.103911
0.0913528
0.053333
0.0195069
0.0124922
0.0691108
0.158053
0.191569
0.224662
0.121557
0.176743
0.0534974
0.0100251
0.0375622
0.0429897
0.114227
0.262246
0.0798507
0.0795629
0.132993
0.082398
0.0387359
0.0385479
0.199713
0.290609
0.130109
0.283876
0.071474
0.274572
0.16974
0.134187
0.0627468
0.117189
0.24125
0.229793
0.180257
0.124853
0.173876
0.0781671
0.0188774
0.0376121
0.00234997
0.03162
0.114048
0.170659
0.210944
0.198105
0.0744741
0.0278582
0.0328461
0.0184446
0.0679682
0.0649402
0.390643
0.0727657
0.221965
0.100164
0.0528527
0.050841
0.0805328
0.0486863
0.320137
0.232128
0.123996
0.135537
0.0403364
0.010531
0.149888
0.238973
0.0813441
0.241169
0.215429
0.171315
0.110876
0.0594535
0.0297078
0.0709475
0.0233003
0.0633348
0.0390071
0.292971
0.134282
0.0455967
0.0645215
0.0315418
0.103825
0.0448541
0.116185
0.143157
0.143638
0.170924
0.1351
0.118346
0.0198877
0.134067
0.136356
0.0834528
0.0394746
0.316467
0.352283
0.156305
0.212781
0.130991
0.127322
0.0365769
0.0424988
0.101137