0.0312393
0.0929196
0.132947
0.123514
0.110878
0.0621288
0.0707261
0.0648003
0.0314534
0.0383711
0.0569624
0.0933253
0.0519214
0.125924
0.0961533
0.185875
0.109593
0.0627728
0.0554737
0.161019
0.216012
0.0705469
0.0582528
0.0158596
0.0639347
0.151336
0.152849
0.0628774
0.0393114
0.0665381
0.00622251
0.0397538
0.148853
0.280734
0.274911
0.24725
0.0887506
0.0234977
0.0900222
0.0449821
0.126625
0.0810385
0.11467
0.0397302
0.0985042
0.130326
0.0242854
0.0977051
0.0461478
0.0932916
0.00927024
0.109566
0.11436
0.144865
0.125417
0.019226
0.08154
0.0446248
0.0627387
0.122164
0.259156
0.115626
0.211697
0.128709
0.0541942
0.155911
0.0891882
0.273368
0.0136075
0.143301
0.0865931
0.152717
0.0466008
0.036593
0.121762
0.035106
0.0623536
0.0436935
0.119128
0.0945518
0.0564575
0.0385585
0.0641835
0.160405
0.0471188
0.210888
0.123443
0.12704
0.0467026
0.0376997
0.068991
0.104292
0.202918
0.0591209
0.170855
0.0013559
0.0752084
0.0386213
0.0602566
0.160211
0.267476
0.232737
0.0331714
0.153612
0.00949132
0.0741779
0.0183577
0.111702
0.0539317
0.023928
0.0508801
0.0136386
0.17244
0.0337747
0.117426
0.0470239
0.0546434
0.089183
0.0528047
0.0332221
0.0170875
0.128367
0.11848
0.20027
0.13457
0.094775
0.16177
0.100751
0.101593
0.0495426
0.153838
0.0036674
0.0673132
0.0278695
0.144664
0.13702
0.0224647
0.109273
0.0809764
0.205564
0.159545
0.194296
0.0932418
0.146561
0.0235387
0.0515847
0.0413858
0.0349911
0.026772
0.0777476
0.0734699
0.0517407
0.0362922
0.0895893
0.12264
0.0631991
0.0507303
0.0349995
0.0442622
0.0630834
0.144565
0.265046
0.0142131
0.0310859
0.0579616
0.0515281
0.212846
0.265834
0.0914711
0.0222183
0.0232639
0.146409
0.244676
0.26556
0.095765
0.303328
0.39265
0.0929274
0.0412665
0.181847
0.125608
0.0416858
0.0136012
0.00596621
0.0252302
0.0217359
0.058624
0.102259
0.279868
0.0608957
0.00458149
0.0100656
0
0.0557435
0.0642174
0.244555
0.116133
0.128614
0.154989
0.134751
0.154101
0.0733277
0.0847464
0.167724
0.115259
0.0768247
0.2214
0.0776456
0.0317715
0.060047
0.0585652
0.0746178
0.171293
0.470919
0.23538
0.187107
0.00982909
0.00836034
0.0254177
0.00478359
0.0290773
0.0495395
0.140022
0.0585382
0.0164717
0.0367237
0.0413335
0.103655
0.0589991
0.0461583
0.0228043
0.0533151
0.0236234
0.0321567
0.123856
0.0922358
0.0374492
0.0168485
0.0194877
0.034223
0.237978
0.169031
0.151786
0.432034
0.585016
0.116254
0.0427519
0.0138499
0.00252671
0.0474284
0.0620173
0.212054
0.073406
0.0352235
0.052318
0.0485211
0.0568006
0.00604897
0.0179013
0.021695
0.0584276
0.0750969
0.0296749
0.0144981
0.0197981
0.047573
0.0451435
0.0986496
0.0558089
0.0605472
0.472752
0.285107
0.0450002
0.021795
0.0222709
0.0364888
0.0579374
0.122871
0.296558
0.266187
0.048331
0.00642652
0.00353098
0.0174725
0.210192
0.262656
0.244848
0.299676
0.0422851
0.0280619
0.0131487
0.0233146
0.0867633
0.06758
0.114712
0.0420673
0.0277252
0.0352781
0.044742
0.0287196
0.0317233
0.116584
0.198541
0.104997
0.0213266
0.0119576
0.265486
0.14257
0.021942
0.0179753
0.023313
0.129771
0.200463
0.138921
0.156224
0.438093
0.311884
0.0459186
0.0311646
0.0788919
0.0513766
0.0696625
0.0758912
0.27905
0.0414923
0.094745
0.0952364
0
0.0953543
0.0343873
0.0260994
0.149811
0.138571
0.0178036
0.0242788
0.0728364
0
0.135819
0.0993308
0.178956
0.20069
0.136517
0.0519219
0.058845
0.0776574
0.0322364
0.247313
0.0551425
0.0564878
0.0967888
0.0784291
0.0143192
0.0602627
0.0919064
0.0046052
0.420528
0.0974731
0.14718
0.115468
0.0398718
0.0421803
0.00578178
0.0302705
0.0240039
0.0846308
0.058752
0.199263
0.136744
0.141389
0.0710129
0.0536906
0.0620415
0.0527006
0.193391
0.0494149
0.142911
0.0808575
0.109104
0.0283844
0.0614545
0.0554456
0.00342913
0.25363
0.0700358
0.171449
0.134208
0.0674932
0.0439572
0.0623235
0.0407344
0.0123551
0.168848
0.119592
0.38687
0.194141
0.0604418
0.0501779
0.109622
0.160214
0.0523146
0.138691
0.0171134
0.0584936
0.0307481
0.0337762
0.108971
0.187894
0.231664
0.036556
0.0408105
0.0152099
0.0350359
0.0195494
0.0796621
0.0428619
0.0503251
0.0891714
0.0601234
0.170148
0.0355584
0.262917
0.184571
0.0385675
0.153726
0.0593921
0.187539
0.0984062
0.0623841
0.122094
0.15779
0.13018
0.174967
0.109471
0.126236
0.176792
0.0283781
0.039758
0.0168976
0.0109929
0.00343163
0.0913712
0.104258
0.107531
0.20432
0.0347551
0.132649
0.0284138
0.0479624
0.0133908
0.0928429
0.0864656
0.110996
0.224847
0.0769457
0.0163748
0.165466
0.139266
0.0477773
0.084168
0.118945
0.146999
0.242029
0.0450694
0.0303492
0.0452071
0.198608
0.0605993
0.0999192
0.0124485
0.0183396
0.0489556
0.00754899
0.183806
0.157865
0.042185
0.021798
0.0118385
0.0821376
0.0646719
0.135521
0.0263294
0.291395
0.315607
0.2234
0.138241
0.016111
0.0318549
0.0596748
0.0712334
0.00495702
0.0874619
0.0279081
0.0638106
0.055761
0.0345711
0.145971
0.294822
0.0825058
0.00530687
0.157588
0.130644
0.322142
0.319713
0.0971335
0.0426486
0.0436836
0.0936007
0.0430583
0.0542725
0.0619808
0.0815964
0.0419235
0.0126294
0.123467
0.139089
0.127911
0.0458298
0.0251539
0.0355633
0.0771875
0.0706378
0.0624584
0.101377
0.203342
0.168023
0.127591
0.0564433
0.0880396
0.125943
0.0713972
0.0350714
0.201428
0.444154
0.497177
0.368765
0.0355761
0.0430555
0.0265802
0.0130797
0.020491
0.16258
0.168724
0.0282064
0.00459024
0.00110529
0.0035812
0.0223541
0.0361882
0.0649263
0.250961
0.484533
0.0319355
0.00421023
0.00555773
0.00139862
0.00465953
0.0168066
0.0634259
0.251704
0.342979
0.142702
0.101334
0.00197843
0.00620324
0.00112399
0.00369164
0.017821
0.297365
0.466782
0.0643441
0.065608
0.0656772
0.0560736
0.00326458
0.0105415
0.0157276
0.25847
0.266704
0.0140395
0.00436509
0.0599686
0.0544616
0.0666966
0.0852648
0.100101
0.114059
0.0311213
0.00419007
0.00614606
0.102356
0.273025
0.166378
0.14069
0.114174
0.130355
0.188111
0.0546013
0.0773275
0.248685
0.135407
0.0543982
0.04298
0.0249451
0.0470227
0.0357442
0.0286719
0.0392365
0.319802
0.503133
0.20082
0.0545766
0.0321605
0.133448
0.118132
0.0335747
0.0448084
0.0371592
0.193877
0.0965026
0.0799481
0.117883
0.219505
0.165241
0.038156
0.0723309
0.014835
0.0153941
0.0246777
0.0960395
0.261196
0.122321
0.215625
0.0822945
0.0745278
0.105333
0.414717
0.18754
0.0612941
0.0618139
0.15021
0.244962
0.123427
0.116184
0.0172865
0.08791
0.143109
0.224772
0.167735
0.0439679
0.0602148
0.0295588
0.0191992
0.0673941
0.00444463
0.0276692
0.0752367
0.0493508
0.0271897
0.0524601
0.032082
0.00274275
0.15405
0.021354
0.0618884
0.122007
0.0437213
0.247042
0.189432
0.0518067
0.0506513
0.0195245
0
0.0612336
0.15485
0.156501
0.511493
0.28405
0.124973
0.0905323
0.0725642
0.066369
0.109184
0.234542
0.167237
0.0192719
0.0278672
0.0115485
0
0.0817195
0.0240493
0.0478587
0.0349942
0.00844472
0.0378094
0.0199075
0.0122526
0.0159976
0.0651834
0.0216684
0.0840958
0.0380653
0.0200315
0.38947
0.0913859
0.0648103
0.0427089
0.0508724
0.0575598
0.0509335
0.0575724
0.126868
0.636679
0.076526
0.0201555
0.0265365
0.0590252
0.0248128
0.022168
0.159333
0.335263
0.0241421
0.00137546
0.0178468
0.033144
0.0609428
0.00622123
0.0559126
0.0509807
0.0263985
0.049447
0.0124934
0.031666
0.0242454
0.0320397
0.0240228
0.054566
0.0712713
0.0796408
0.324949
0.0403944
0.01507
0.0279872
0.0853074
0.0240191
0.0190302
0.214
0.305122
0.543496
0.116564
0.0215378
0.00860327
0.0595035
0.0153062
0.0216372
0.104518
0.391408
0.0150754
0.024152
0.023163
0.00609541
0.00244413
0.0195301
0.0341854
0.0239924
0.0225258
0.0695101
0.0689531
0.0341797
0.00590755
0.000544143
0.00743459
0.037052
0.0182204
0.0415076
0.227388
0.228725
0.0613653
0
0.00233835
0.00145143
0.00950234
0.02132
0.0942775
0.315227
0.749122
0.223464
0.00162187
0
0.000870859
0.0111069
0.0157855
0.0509178
0.0371131
0.0991828
0.0555659
0.00401702
0.00212325
0
0.00778512
0.0079928
0.0155225
0.0662642
0.361729
0.106644
0.00241021
0.00441209
0.00832347
0.0210171
0.0336219
0.0279824
0.207135
0.408537
0.139825
0.00241021
0
0
0.00140471
0.0028927
0.0145943
0.147399
0.640844
0.285457
0.00144613
0
0
0.00600876
0.0045996
0.00681899
0.127946
0.310949
0.103385
0.0525885
0.00919009
0.0195995
0.0198514
0.0186561
0.0278698
0.141334
0.251834
0.221161
0.20159
0.010031
0.0112807
0.00379945
0.00770963
0.0154588
0.116531
0.410557
0.233526
0.00767307
0.0200545
0.00668483
0.0175234
0.0139332
0.0162857
0.169337
0.325908
0.471932
0.0454138
0.0348689
0.0111414
0.0105141
0.0152833
0.0290319
0.176362
0.238827
0.155783
0.148618
0.0026865
0.02408
0.00199969
0.00755868
0.012421
0.160437
0.152093
0.0627372
0.0913435
0.101935
0.215528
0.0322932
0.0151151
0.0168507
0.257252
0.270042
0.254938
0.0579459
0.0446075
0.0638552
0.00333281
0.0462753
0.0507737
0.154187
0.0794532
0.0334593
0.0753053
0.448325
0.395679
0.0528962
0.0785435
0.052467
0.0275238
0.0312349
0.0699601
0.108378
0.198099
0.180277
0.0490547
0.0161702
0.00265229
0.0241568
0.0189323
0.0568941
0.123431
0.231436
0.275264
0.126787
0.0123914
0.00297666
0.00818876
0.00469656
0.0331606
0.123148
0.552996
0.228844
0.0687991
0.0379301
0.0126864
0.0125172
0.0115649
0.0657213
0.248104
0.35516
0.0641522
0.0557263
0.124062
0.0987357
0.115814
0.124529
0.0316633
0.059958
0.135406
0.193083
0.12745
0.0143964
0.0330038
0.165579
0.18768
0.0768046
0.0528243
0.0759437
0.0398544
0.0969224
0.0984005
0.0716729
0.126241
0.0958712
0.0269742
0.135381
0.1878
0.036225
0.0433311
0.123164
0.198514
0.444416
0.446709
0.0830501
0.108854
0.125172
0.00435024
0.0219442
0.036978
0.134353
0.22596
0.115531
0.00823691
0.0189593
0.00210659
0
0.0344021
0.0848501
0.0879409
0.363723
0.219724
0.0547189
0.0527134
0.0257881
0.0388879
0.0264517
0.0600584
0.113905
0.307823
0.128972
0.02301
0.00270848
0.00158961
0.0013127
0.032593
0.151961
0.245988
0.417543
0.150849
0.0585157
0.0356535
0.0426486
0.050171
0.105666
0.16437
0.365908
0.228541
0.0765664
0.0508023
0.0454215
0.0161748
0.0255762
0.020456
0.0251542
0.103521
0.471262
0.0749873
0.0234003
0.0209475
0.00860109
0.00518594
0.00875364
0.148762
0.214126
0.148362
0.0743454
0.0902756
0.0587785
0.0236473
0.0322693
0.129024
0.193232
0.186154
0.386506
0.116631
0.0870331
0.037575
0.00388456
0.0046099
0.113037
0.346806
0.310355
0.284524
0.0211318
0.000875681
0.000652871
0.0127236
0.00331621
0.00382976
0.127529
0.146309
0.438912
0.0368995
0.00845755
0.000789356
0.00826722
0.00298882
0.00529513
0.0393856
0.252693
0.346272
0.0297186
0.00836186
0.00562801
0.0150167
0.015872
0.0567353
0.142727
0.173564
0.534057
0.0911387
0.0580445
0.0230472
0.0231962
0.0264533
0.0448397
0.0415891
0.252073
0.317213
0.146927
0.0431625
0.00241537
0.00236804
0.00120644
0.000809062
0.0204582
0.228671
0.188239
0.410961
0.177387
0.00144922
0.00364291
0.00156125
0.00968817
0.0203365
0.112654
0.302434
0.16206
0.159533
0.0306574
0.0191295
0.0111272
0.00566343
0.0320809
0.300445
0.268074
0.251607
0.221953
0.0231157
0.0255004
0.0109287
0.016147
0.0322369
0.23393
0.180551
0.30198
0.120637
0.000713994
0.00049234
0.000211003
0.00967492
0.00280144
0.0219798
0.140676
0.388695
0.196408
0.0129998
0
0
0.00370805
0.000928877
0.00667102
0.296533
0.236985
0.125104
0.00893096
0.00344638
0.00147702
0.0161249
0.00415555
0.0853562
0.19803
0.48202
0.333902
0.062927
0
0
0.00230355
0.00025595
0.0241166
0.0408346
0.286035
0.230634
0.0166991
0.00768468
0.0042865
0.00996157
0.0177005
0.0158395
0.037561
0.215699
0.431493
0.00913428
0.0201696
0.0203419
0.0267562
0.0311868
0.0320699
0.0421276
0.4093
0.260495
0.0594399
0
0.0120746
0.0337684
0.136097
0.0436725
0.0118188
0.243684
0.143879
0.0145316
0.0079063
0.0911856
0.146719
0.325127
0.212264
0.0508913
0.0827743
0.15843
0.0507737
0.0555457
0.0339685
0.00835185
0.0175262
0.0254921
0.0305632
0.0161095
0.0200108
0.153581
0.493272
0.103462
0.00548902
0.0212861
0.0173609
0.000881007
0.0879177
0.0758472
0.0768288
0.0597436
0.04461
0.0712193
0.103564
0.139636
0.000528604
0.0296632
0.0468902
0.25214
0.671192
0.0307974
0.0226954
0.0185048
0.0275331
0.00100618
0.00115424
0.00615355
0.0754403
0.379779
0.036565
0.00531692
0.00892346
0.0100799
0.0111307
0.0129472
0.0402988
0.0633648
0.204805
0.0109664
0.00652039
0.0860695
0.153158
0.000297354
0.00192373
0.0106488
0.104327
0.601567
0.0329337
0.00261503
0.000806172
0.00564971
0.013593
0.0141615
0.0538644
0.0967472
0.523847
0.091351
0.00474396
0.0353353
0.13357
0.0973845
0.0604254
0.015257
0.0251585
0.0288089
0.00266147
0.00267335
0.0611703
0.164869
0.269071
0.41811
0.016576
0.0175927
0.00622525
0.00200558
0.000656985
0.00821095
0.0670935
0.112516
0.11692
0.0258606
0.104029
0.166375
0.072765
0.0114391
0.0425272
0.180578
0.354514
0.595242
0.0564631
0.0628839
0.0396815
0.0623343
0.0153011
0.0547733
0.144729
0.22053
0.125246
0.0507919
0.00601402
0.00790283
0.0453609
0.051948
0.124125
0.217179
0.221303
0.076584
0.123261
0.0460639
0.115806
0.079315
0.104969
0.101357
0.314771
0.209601
0.15482
0.0748114
0.173988
0.158796
0.237686
0.115659
0.107577
0.105229
0.106666
0.140702
0.131399
0.159818
0.331826
0.230915
0.0827234
0.00914634
0.0496466
0.0274123
0.0253189
0.160398
0.1073
0.0797213
0.0330824
0.0741918
0.154097
0.123262
0.112722
0.130736
0.239402
0.122765
0.0471842
0.0265147
0.0985868
0.227391
0.12273
0.00208746
0.016536
0.117924
0.167822
0.354342
0.272832
0.014544
0.0151502
0.0142948
0.056443
0.0968337
0.19382
0.177824
0.351194
0.395599
0.028158
0.0600524
0.0434593
0.263845
0.129349
0.0818269
0.0525338
0.0649474
0.0333724
0.0991913
0.100677
0.0893487
0.4023
0.313092
0.102481
0.143166
0.0876432
0.04637
0.053998
0.0220912
0.0731931
0.162263
0.135838
0.0894704
0.0676843
0.177643
0.126317
0.0543013
0.09655
0.110562
0.211113
0.277335
0.127209
0.280417
0.116488
0.0678558
0.164144
0.112821
0.0748014
0.134429
0.30288
0.195031
0.0542222
0.0167639
0.009033
0.00323492
0.00786437
0.0689863
0.168338
0.279579
0.401923
0.0724949
0.0311136
0.0133586
0.00633315
0.0208084
0.103027
0.102553
0.279741
0.162628
0.106834
0.0150652
0.0268744
0.0847725
0.103492
0.0618894
0.0898807
0.185809
0.352554
0.189139
0.182833
0.14987
0.0689898
0.110566
0.116411
0.173355
0.175218
0.213464
0.0513529
0.0228152
0.00239864
0.00269984
0.00409134
0.04285
0.265974
0.463599
0.245228
0.041171
0.0151155
0
0.000267366
2.97073e-005
0.0179379
0.0554799
0.119248
0.247359
0.183883
0.185575
0.105211
0.101736
0.0837972
0.0281072
0.266037
0.313965
0.170987
0.115763
0.110592
0.0358747
0.100079
0.193351
0.0778929
0.123683
0.351366
0.122448
0.0209306
0.00552151
0.00393491
0.0327241
0.121506
0.0668128
0.0263398
0.12537
0.0187685
0.0116719
0.0376345
0.063728
0.216279
0.362477
0.312175
0.257378
0.20512
0.0499479
0.0356515
0.0386506
0
0.0264665
0.123608
0.136647
0.16908
0.163147
0.091684
0.142114
0.285432
0.0757087
0.198608
0.181475
0.209547
0
0.0186391
0.0160372
0.015383
0.0697143
0.0971262
0.138302
0.120113
0.147726
0
0.0068369
0.0205638
0.0459608
0.350468
0.146889
0.0564127
0.0216299
0.0224927
0.0301363
0.0419791
0.0513852
0.110431
0.388239
0.177972
0.134611
0.0617913
0.0604201
0.00239194
0.00387391
0.0195396
0.0709721
0.622068
0.283946
0.0490216
0.0097615
0.00569753
0
0.000324201
0.00458541
0.0405742
0.47626
0.116688
0.027962
0.00675366
0
0.0125171
0.00226941
0.00907762
0.0692323
0.42075
0.194678
0.0643041
0.0581838
0.0229336
0
0.00169553
0.0104269
0.0691556
0.478774
0.174982
0.0545563
0.013416
0
0.0176616
0.00592766
0.00930158
0.0921735
0.310225
0.139354
0.170702
0.106159
0.0189221
0.0989973
0.0467367
0.00652891
0.0687456
0.162752
0.128981
0.0447301
0.0707823
0.108054
0.537074
0.160377
0.0253924
0.0326433
0.0481299
0.0731876
0.0419707
0.0918129
0.251697
0.1147
0.0230821
0.0045512
0.0295152
0.0916908
0.0814018
0.144972
0.125349
0.088479
0.468501
0.0399171
0.0167943
0.00505813
0.0164952
0.0244509
0.164815
0.194949
0.255357
0.0738396
0.0983488
0.0676435
0.114424
0.0623551
0.051478
0.0149675
0.00896617
0.0187619
0.137448
0.163206
0.0438659
0.0567899
0.0681659
0.0333859
0.00422274
0
0.0157769
0.085499
0.319595
0.334462
0.120016
0.0173077
0.00510327
0.000738785
0
0.00870804
0.366416
0.649334
0.154938
0.0435562
0.0140842
0.00209524
0
0
0.0284901
0.0895742
0.121473
0.0717335
0.0987733
0.217705
0.187234
0.00752721
0.00460201
0.013497
0.0256932
0.0361984
0.0522198
0.0760168
0.222717
0.352239
0.0769113
0.120453
0.106035
0.364063
0.452553
0.100349
0.0713126
0.0538653
0.0437588
0.00848494
0.00767002
0.0940434
0.197733
0.12344
0.0727511
0.0702412
0.0513884
0.112083
0.0844085
0.169405
0.268395
0.0242461
0.0106367
0.00915356
0.0154233
0.0520178
0.112871
0.101714
0.196858
0.157032
0.0358122
0.0224351
0.0214506
0.0798143
0.0223462
0.10092
0.237409
0.222607
0.109953
0.0571646
0.0258272
0.00509928
0.00988647
0.00507723
0.0758142
0.158789
0.347644
0.238993
0.0354527
0.0194421
0
0.0228212
0.00126323
0.119963
0.392589
0.472061
0.236614
0.0299605
0.0296917
0.036037
0.05346
0.00864828
0.0575828
0.134397
0.199968
0.126208
0.0379214
0.0229534
0.0656321
0.0641821
0.108654
0.165486
0.145476
0.233247
0.155068
0.0327867
0.00907775
0.000773011
0.0269179
0.00733779
0.073537
0.207464
0.331409
0.292287
0.0231391
0.0424544
0.00541107
0.0130223
0.022698
0.18047
0.342411
0.444058
0.237137
0.011174
0.0124065
0.0319891
0.0550242
0.0887163
0.102571
0.136095
0.214541
0.0688607
0.062038
0.0192173
0.0192278
0.0413105
0.0445169
0.0403546
0.180258
0.438192
0.195988
0.0118645
0.0121892
0.00125435
0.00429729
0.0129776
0.0636653
0.143809
0.356975
0.144899
0.0185132
0.00166421
0
0.0291054
0.0251067
0.0825333
0.270129
0.494836
0.233193
0.161376
0.102007
0.0193368
0.013657
0.014234
0.00655685
0.0819408
0.189366
0.159224
0.300361
0.377734
0.132779
0.093959
0.110383
0.0148514
0.0302283
0.0301501
0.0607181
0.0815738
0.162983
0.0300013
0.0123944
0.00951941
0.0765146
0.188234
0.246021
0.172698
0.261314
0.480076
0.233678
0.0224807
0.0106253
0.0237933
0.0291436
0.0701082
0.0771086
0.163144
0.164297
0.110739
0.127333
0.245915
0.0402006
0.014226
0.00218083
0.000855131
0.0401526
0.0366066
0.0502854
0.146913
0.525062
0.0826898
0.0043516
0.000264822
0
0.221283
0.190049
0.141025
0.0653499
0.11006
0.0092537
0.000823852
0
0
0.0792849
0.0534531
0.0467638
0.14347
0.552074
0.0718661
0.0021306
0
0
0
0.00966292
0.0585413
0.151755
0.410564
0.0671981
0.0141645
0.00294594
0
0.0122193
0.0158118
0.0902342
0.181738
0.208703
0.0391124
0.10562
0.0398988
0.0829501
0
0.010253
0.0761627
0.175008
0.540631
0.143748
0.00835821
0
0
0.0510606
0.0649078
0.212283
0.280747
0.254167
0.110028
0.0507061
0.020717
0.154854
0.0229121
0.0202606
0.0211272
0.0410372
0.0629751
0.0367449
0.102949
0.106544
0.158287
0.0690597
0.029951
0.0423118
0.0101467
0.0160536
0.0266194
0.0771821
0.242784
0.286481
0.0562869
0.0547798
0.0596786
0.0605885
0.0375464
0.0467778
0.0769429
0.133447
0.335836
0.100644
0.0231363
0.0259725
0.00560103
0.0068727
0.0289267
0.0595099
0.360963
0.62729
0.0226913
0.156564
0.427927
0.161303
0.00875662
0.0053525
0
0
0
0.189793
0.375585
0.208336
0.108576
0.0116251
0.00180531
0.00722123
0
0.0149547
0.00427344
0.121988
0.473742
0.212525
0.0309893
0.0131467
0.000882554
0
0.000329291
0.0690521
0.127365
0.247386
0.269225
0.0768204
0.0277204
0.0182133
0
0.00957527
0.198512
0.254357
0.076595
0.0318903
0.0118792
0.0121011
0.0248597
0.000919665
0.0493319
0.234808
0.177154
0.0689496
0.026673
0.00580923
0.0137846
0.024257
0.0345514
0.0853116
0.0837454
0.125068
0.329794
0.236917
0.0751973
0.0265256
0.0426719
0
0.0169502
0.293428
0.412508
0.39671
0.269695
0.0298127
0.0246565
0.0244336
0.00643826
0.00814565
0.200995
0.0852478
0.00716568
0.00253739
0.000199622
0.00759406
0.0441775
0.072525
0.0599315
0.198498
0.0427912
0
0.000703209
0.000124096
0.0145177
0.118475
0.165292
0.176867
0.458473
0.240065
0.0572545
0.02765
0.000319109
0.00477874
0.0046006
0.0130113
0.0436292
0.575555
0.0688864
0.0106757
0.0068324
0
0.000521116
0.0270983
0.0766308
0.35345
0.0705397
0.010014
0
0.0103125
0.0050946
0.0220117
0.129913
0.221852
0.226268
0.0157618
0.0154171
0
0.0145309
0.00802218
0.136762
0.363433
0.297092
0.098085
0.242487
0.0394113
0.0425308
0.0713522
0.0253904
0.0185254
0.142621
0.182499
0.333336
0.0998986
0.0590214
0.0654102
0.117655
0.0550559
0.124957
0.4111
0.257076
0.064022
0.00525959
0.00586874
0
0.0107098
0.00743066
0.0806039
0.27396
0.299961
0.0682517
0.00208444
0.000314158
0.00509328
0.0392502
0.0230961
0.092457
0.305357
0.338692
0.114812
0.0251974
0.0114357
0.0337797
0.166985
0.0753164
0.10147
0.334088
0.216709
0.0110778
0.000847055
0.0155323
0.112157
0.391505
0.134071
0.0696395
0.217506
0.20754
0.061724
0.0345731
0.0681291
0.026094
0.0194115
0.0136027
0.112155
0.254196
0.232362
0.114621
0.155574
0.154745
0.148478
0.013977
0.0173897
0.0955868
0.134818
0.120899
0.111333
0.017629
0.0551975
0.190213
0.208318
0.0845671
0.08604
0.228392
0.187999
0.0888635
0.273295
0.095814
0.162396
0.0321082
0.0311061
0.0999912
0.202852
0.177287
0.462677
0.166787
0.079307
0.0889627
0.0592512
0.0829759
0.0286018
0.00959219
0.0160866
0.0512387
0.0851036
0.074673
0.0600928
0.123454
0.443482
0.13546
0.0278218
0.00306758
0.0236873
0.33339
0.0949622
0.0361708
0.0227549
0.0159425
0.0191416
0.018323
0.0750225
0.447444
0.24873
0.251888
0.0529379
0.0697417
0.113516
0.11252
0.130801
0.108537
0.257055
0.00430746
0.012845
0.0168811
0.0451147
0.248822
0.221975
0.0525587
0.000304677
0.00121871
0.0154072
0.0266378
0.0461692
0.0841973
0.213518
0.27513
0.0492731
0.00571905
0.0226346
0.0411742
0.0776074
0.0183716
0.0178969
0.132867
0.317068
0.171339
0.0273179
0.0153339
0.00482787
0.00861676
0.0132031
0.0121377
0.277278
0.627851
0.178094
0.0048508
0.000478256
0.0571564
0.0673158
0.0461597
0.0703906
0.123496
0.167865
0.110052
0.0869369
0.157706
0.205807
0.0671407
0.026822
0.031756
0.0138945
0.0366495
0.11727
0.22906
0.459966
0.0233048
0.0212007
0.0345352
0.0786998
0.317257
0.408276
0.174014
0.0174413
0.00382694
0.106901
0.07708
0.110074
0.168107
0.175203
0.0291357
0.0483503
0.0253681
0.0359115
0.00741493
0.0897238
0.227007
0.144878
0.136234
0.0353002
0.00371003
0.000599698
0.00885795
0.0199642
0.0587321
0.297617
0.288505
0.116889
0.0530933
0.0129112
0
0.0104304
0.0253608
0.0178599
0.0281387
0.0858838
0.325682
0.111019
0.02573
0.0206275
0.0218609
0.0514475
0.0589192
0.292769
0.52069
0.295978
0.0787448
0.0229261
0.0243379
0.0109093
0.00888983
0.0495807
0.328564
0.200573
0.030794
0.0151746
0.00618577
0
0.0025846
0.0560607
0.228534
0.34167
0.197743
0.0116925
0.028078
0.002423
0.00337066
6.88865e-005
0.00743775
0.0371652
0.275815
0.395486
0.145064
0.0223924
0.00203064
0.00181925
0.00126144
0.00836566
0.186325
0.390975
0.312411
0.10176
0.0669889
0.020085
0.00062182
0
0.220779
0.279662
0.0984679
0.0293002
0.000868798
0.0110657
0
0.0105029
0.0355102
0.531401
0.133063
0.0240718
0.00714317
0
0
0.00626228
0.024804
0.253247
0.0926496
0.309764
0.253215
0.087062
0.0184483
0.0263125
0.0326496
0.00345122
0.0146816
0.398468
0.220539
0.0638018
0.00527969
0.00285723
0.0174272
0.0196408
0.0119456
0.126438
0.498627
0.116285
0.0506378
0.0712825
0.0229233
0.00462886
0.0502537
0.059472
0.232635
0.218388
0.152117
0.0776067
0.123399
0.0683273
0.0510555
0.166994
0.147346
0.0650038
0.482079
0.105907
0.00930515
0.0124412
0.0199814
0.0191305
0.0151195
0.0342715
0.157307
0.202401
0.0875678
0.0125196
0.0354886
0.165531
0.0901463
0.128971
0.119649
0.0912752
0.0231072
0.0192959
0.0530106
0.174041
0.0923996
0.0793354
0.13605
0.10298
0.00654005
0.00194995
0.0622513
0.238534
0.339203
0.123185
0.0910072
0.0848323
0.0496769
0.00609709
0.0124563
0.0100029
0.0316516
0.132754
0.311793
0.191893
0.105741
0.0582946
0.0103545
0.00116997
0.0667343
0.306351
0.291116
0.399291
0.310096
0.0589704
0.0189427
0
0.00621168
0.127627
0.353541
0.141772
0.0472895
0.0333036
0.0346901
0.0263686
0.0224263
0.133734
0.169919
0.329261
0.0253987
0.0100488
0.0120207
0.046404
0.04463
0.211301
0.0281179
0.17023
0.484697
0.141762
0.102598
0.0856036
0.0117794
0.00507643
0.00164819
0.108359
0.196554
0.399654
0.034986
0.0277871
0.0179031
0.0368867
0.051209
0.0493437
0.279719
0.112713
0.0715839
0.00326313
0.00163815
0.00484966
0.0404928
0.106133
0.360062
0.21032
0.153528
0.00920916
0.0271888
0.0198121
0.0962679
0.270338
0.230022
0.253403
0.191337
0.0942892
0.0933493
0.0340019
0.0344661
0.0159943
0.0577083
0.122736
0.157833
0.133222
0.0526238
0.0463522
0.305103
0.175132
0.128463
0.198945
0.176111
0.133201
0.0299108
0.0452683
0.028261
0.0204585
0.0670896
0.159618
0.25908
0.0889324
0.0208551
0.00276112
0.0100435
0.0412544
0.0190429
0.201017
0.463276
0.322208
0.0578382
0.00382402
0.00991382
0.0125692
0.0582987
0.150787
0.124079
0.0921387
0.187075
0.144633
0.0264579
0.00909399
0.0515326
0.0527434
0.0569155
0.19923
0.308082
0.366917
0.187703
0.0146349
0.0052007
0.00456409
0.0375008
0.0366201
0.20135
0.285602
0.153094
0.0436844
0.0106316
0.0643493
0.00571059
0.0619065
0.056843
0.13323
0.0477779
0.0496994
0.0689908
0.0425924
0.0414575
0.0322012
0.0218646
0.0233628
0.165558
0.326977
0.276602
0.239035
0.120666
0.397359
0.0299093
0.0252212
0.00785674
0.0624129
0.0787333
0.119606
0.211915
0.417723
0.0554788
0.0698475
0.0512105
0.0373738
0.178064
0.0809422
0.0209961
0.0248208
0.0260243
0.142392
0.32648
0.208253
0.29498
0.154566
0.0327086
0.0175284
0.0263318
0.0135866
0.0370713
0.109715
0.0777485
0.0804596
0.203496
0.175771
0.0359019
0.0243709
0.0295889
0.120075
0.471311
0.218902
0.210283
0.193517
0.286533
0.0163219
0.00665593
0.0102856
0.032135
0.141699
0.138379
0.336086
0.182028
0.0376968
0.0284952
0.0157862
0
0.00162823
0.0531888
0.160902
0.28977
0.172994
0.165623
0.198801
0.126185
0
0.0452961
0.244325
0.110181
0.113188
0.108725
0.105319
0.0543443
0.0677674
0
0.0113976
0.0380498
0.024919
0.0739894
0.204035
0.226358
0.377479
0.351092
0
0.0192654
0.0878286
0.16367
0.121578
0.0475637
0.109422
0.241656
0.139297
0.00102848
0.0878554
0.0816749
0.0487164
0.0455987
0.0420211
0.0794356
0.0882749
0.0493952
0.0155973
0.00619659
0.0017569
0.0119525
0.20308
0.338733
0.265457
0.406319
0.286762
0
0.0104542
0.00403617
0.0328015
0.337731
0.25477
0.146871
0.104137
0.0555068
0.00012655
0.142148
0.0324207
0.0104589
0.0573794
0.0946668
0.0788592
0.0387878
0.037622
0.0486637
0.052059
0.00138443
0.00884165
0.115468
0.502477
0.117653
0.0935937
0.0522724
0.0363109
0.0035666
0.00181109
0.0287176
0.213315
0.1608
0.0807794
0.0413197
0.0313209
0.000704435
0.000422661
0.0108393
0.104477
0.264454
0.460347
0.190558
0.0768421
0.0461102
0.000422661
0.00190332
0.00743164
0.00341962
0.0636427
0.333524
0.124169
0.0410016
0.00506283
0.00129919
0.00218578
0.0196993
0.0855027
0.202667
0.48992
0.242298
0.0425557
0.000293427
0
0.0343526
0.130126
0.0670832
0.1229
0.244237
0.0849941
0.0437239
0.00464126
0.000656628
0.0572543
0.23135
0.104371
0.277475
0.351305
0.195308
0.0898977
0.0183856
0.0045964
0.0560233
0.0593782
0.244033
0.261245
0.335858
0.162843
0.0202958
0.0167561
0.00254308
0.131628
0.0718406
0.158689
0.090715
0.157313
0.096959
0.0362498
0.0783007
0.0386103
0.0428705
0.0678728
0.077272
0.298757
0.310302
0.36134
0.0992913
0.0467752
0.0123779
0.0728107
0.0465563
0.0503301
0.13249
0.158876
0.240357
0.0615616
0.130637
0.0509104
0.131019
0.0601155
0.0338909
0.0802391
0.129702
0.0376606
0.0393434
0.103122
0.114091
0.0927791
0.059486
0.071221
0.407851
0.300777
0.061733
0.188194
0.0942326
0.076006
0.0947346
0.0856301
0.044153
0.0844206
0.11933
0.0476872
0.0409841
0.164852
0.153352
0.154896
0.0940981
0.118371
0.121914
0.172558
0.0589053
0.245746
0.336793
0.174829
0.0179819
0.00895358
0.0927159
0.189393
0.240889
0.0954841
0.129564
0.0802421
0.0241004
0.0467027
0.0419624
0.0657315
0.075677
0.298938
0.319493
0.204686
0.15567
0.0592844
0.124248
0.0360794
0.0733297
0.110496
0.140151
0.0922241
0.175265
0.199154
0.084373
0.2046
0.101783
0.162343
0.151197
0.26581
0.266929
0.160499
0.0979419
0.117806
0.101013
0.0588345
0.00555852
0.0106943
0.0625016
0.120586
0.112482
0.129543
0.0905856
0.374352
0.110934
0.00979573
0
0.00882934
0.0254539
0.0347869
0.0766902
0.233842
0.281
0.17412
0.167108
0.032762
0.0532146
0.067163
0.0357569
0.026396
0.0481771
0.547196
0.301295
0.254882
0.0148231
0.00374603
0.00874074
0.00286747
0.00737962
0.0467305