0.0850253
0.435785
0.313822
0.0505
0.00427618
0
0.015263
0.0392626
0.0327223
0.0614982
0.354974
0.190734
0.127712
0.0340974
0.00071285
0.0320402
0.0917311
0.108775
0.165076
0.176727
0.289176
0.0927998
0.00257494
0
0.0216755
0.0737148
0.130746
0.252284
0.200253
0.195271
0.170713
0.0284523
0
0.0265515
0.0648309
0.179765
0.0314472
0.15561
0.209463
0.177219
0.135898
0.0318994
0.0323894
0.0955634
0.0990841
0.100879
0.213079
0.268947
0.13672
0.113632
0.0757311
0.0603493
0.0776774
0.0631029
0.232581
0.255422
0.194662
0.191842
0.0801232
0.0209047
0.0363797
0.0785652
0.146623
0.0980834
0.380224
0.27665
0.104205
0.0734271
0.123153
0.123077
0.0995449
0.0297419
0.124835
0.114689
0.21731
0.0801854
0.028038
0.0189722
0.0301982
0.0307209
0.0547607
0.134473
0.188686
0.364216
0.0826535
0.0335796
0.0420346
0.0876284
0.123399
0.104909
0.0338063
0.147596
0.164249
0.0858322
0.123794
0.130822
0.106507
0.0691643
0.0244832
0.101967
0.260533
0.11609
0.191893
0.217124
0.319871
0.170195
0.320412
0.179531
0.0950381
0.128056
0.271829
0.0473934
0.0210562
0.0511637
0.0718651
0.100226
0.0648352
0.240908
0.229647
0.127744
0.0334757
0.0481219
0.0451835
0.0426147
0.0231037
0.160139
0.0864951
0.157014
0.0892197
0.21228
0.147394
0.306846
0.14457
0.224403
0.106308
0.240031
0.311181
0.0882216
0.177356
0.184256
0.130715
0.0669648
0.0798375
0.17869
0.129768
0.227437
0.0456756
0.0118755
0.0956171
0.0575371
0.0397702
0.0454681
0.081864
0.0980979
0.258944
0.142356
0.0740703
0.216368
0.0420597
0.10671
0.178619
0.0638257
0.184098
0.345942
0.0472089
0.0487557
0.0634818
0.0131516
0.00768459
0.0876214
0.101491
0.186317
0.442617
0.318812
0.177451
0.138143
0.00534252
0.0203574
0.141957
0.0691539
0.130246
0.181197
0.130116
0.139864
0.113003
0.0223112
0.0779355
0.0733648
0.0319389
0.213712
0.28833
0.210193
0.208755
0.0630321
0.0428503
0.0880048
0.0439291
0.0634992
0.0772823
0.225689
0.410536
0.260445
0.165299
0.0299471
0.0412725
0.0491584
0.0262124
0.0564623
0.13987
0.235209
0.242133
0.156644
0.0698857
0.131187
0.168222
0.103245
0.0981235
0.166858
0.159754
0.196835
0.0600447
0.0774426
0.116429
0.111683
0.0618964
0.123666
0.0422796
0.0320237
0.126111
0.116158
0.104763
0.140776
0.0613974
0.0745209
0.0525395
0.142762
0.0925917
0.157735
0.184793
0.0802484
0.157066
0.289858
0.141025
0.316811
0.202165
0.149812
0.195692
0.30986
0.0552261
0.0652429
0.113756
0.244835
0.077198
0.0262449
0.037024
0.0751196
0.0922139
0.120949
0.100628
0.0101919
0.0606259
0.287709
0.027976
0.069476
0.147276
0.0742786
0.126769
0.0913829
0.0294744
0.169341
0.343706
0.155613
0.121589
0.117115
0.101504
0.0580408
0.0514733
0.0228981
0.20972
0.47925
0.0973482
0.106932
0.113838
0.0907444
0.100068
0.121505
0.132299
0.25546
0.275792
0.0166941
0.0192644
0.0473315
0.0273506
0.0268663
0.02732
0.0399541
0.23514
0.319772
0.139753
0.0314213
0.0250454
0.0114081
0.00279568
0.012878
0.0978542
0.279006
0.283869
0.0239057
0.0314863
0.0480746
0.0548602
0.0495749
0.0312428
0.0940048
0.255319
0.371691
0.204076
0.0360807
0.0642858
0.0848082
0.017486
0.000854787
0.0940711
0.378398
0.156196
0.0137936
0.0188021
0.00965302
0.00109259
0.00123016
0.00162969
0.0241443
0.18346
0.264604
0.0603298
0.0230584
0.013257
0.0040295
0.000578375
0.000945956
0.0124277
0.232419
0.35201
0.00602851
0.0662783
0.0388639
0.0335271
0.0395713
0.00649724
0.00967219
0.294354
0.522928
0.0527845
0.0093184
0.00270341
0.0182332
0.00404863
0.00864669
0.029561
0.490338
0.237562
0.150386
0.0335192
0.0144763
0.0238018
0.0197718
0.0427635
0.0376751
0.189663
0.0636447
0.196958
0.131889
0.041816
0.0426425
0.080672
0.104022
0.0324648
0.0581966
0.334249
0.112413
0.00666516
0.0107389
0.200913
0.0846789
0.103888
0.116129
0.398377
0.080654
0.135175
0.105809
0.13972
0.354078
0.180398
0.20397
0.157037
0.23499
0.04527
0.0899441
0.127078
0.0677635
0.0607683
0.106896
0.10041
0.0479214
0.00989329
0.154857
0.116473
0.0383507
0.140351
0.116102
0.188247
0.131484
0.243266
0.0908915
0.109277
0.110888
0.123545
0.269571
0.142823
0.0665328
0.146948
0.0922754
0.237504
0.393718
0.211604
0.0620426
0.282329
0.196847
0.0705122
0.11456
0.135866
0.217048
0.0584345
0.0758995
0.030019
0.123475
0.0844567
0.133219
0.10025
0.113548
0.0531522
0.0894198
0.296993
0.0985278
0.078762
0.0753983
0.0792384
0.0711951
0.0814041
0.0545418
0.170663
0.19177
0.0561664
0.0604736
0.260619
0.158218
0.0775618
0.108952
0.0685426
0.156611
0.443584
0.212645
0.0728869
0.264031
0.154158
0.0681858
0.256879
0.226119
0.0827201
0.194896
0.048105
0.0709657
0.0522862
0.00909448
0.0253445
0.0898432
0.0451972
0.0767946
0.191646
0.201731
0.203837
0.111857
0.00443274
0.0133878
0.101854
0.0503653
0.145589
0.20895
0.0876306
0.217898
0.290675
0.0115068
0.0459242
0.11537
0.158654
0.10903
0.308233
0.257647
0.356623
0.362106
0.0310292
0.0694376
0.078041
0.0407735
0.0570925
0.151281
0.257322
0.0878984
0.0559303
0.0185945
0.00901113
0.0311019
0.0261743
0.113732
0.181144
0.136701
0.0442158
0.0408189
0.027722
0.032194
0.0762153
0.0924838
0.0948558
0.385495
0.285205
0.0720688
0.044941
0.0306477
0.0164617
0.0204895
0.0169145
0.282321
0.595277
0.169473
0.00811271
0.00129719
0.0151686
0.00294952
0.0144848
0.118607
0.0753897
0.21896
0.12262
0.0594526
0.0635455
0.00729903
0.0234091
0.0607915
0.0655685
0.129559
0.21675
0.219272
0.142737
0.0973683
0.000981771
0.00614548
0.0174761
0.114245
0.230369
0.429453
0.241978
0.0256765
0.00677624
0.00403529
0.00160521
0.0085214
0.123017
0.257418
0.342945
0.279509
0.0825584
0.0205465
0.0107677
0.0406636
0.0145825
0.279593
0.236631
0.127832
0.207101
0.166006
0.0280243
0.0119411
0.0509001
0.0150647
0.110371
0.233134
0.0323547
0.0827102
0.0837415
0.087556
0.169878
0.217326
0.106026
0.0697117
0.186334
0.171383
0.164091
0.131309
0.0659426
0.119433
0.129172
0.025557
0.229605
0.0978534
0.0215479
0.0771059
0.101449
0.231102
0.443723
0.255796
0.049142
0.0349011
0.154798
0.0104936
0.00878487
0.0324128
0.0728087
0.170326
0.0950183
0.146725
0.13563
0.257804
0.0947479
0.0400799
0.0445378
0.0863935
0.0341098
0.00443329
0.103074
0.399246
0.135401
0.00790967
0.0315762
0.0659903
0.150005
0.280521
0.137506
0.105938
0.124779
0.22291
0.0115372
0.0475573
0.0499753
0.17221
0.0863587
0.0254947
0.0765396
0.462169
0.178671
0.0129952
0.0430512
0.0589281
0.0373657
0.0489135
0.0107035
0.0139973
0.156603
0.39882
0.0210094
0.00589247
0.0035219
0.00727163
0.000941822
0.00546771
0.0127933
0.209805
0.296599
0.0113937
0.00697483
0.0345844
0.0231606
0.0494516
0.0167826
0.0639301
0.381532
0.560233
0.0228798
0.000841781
0.00260739
0.00683016
0.0145628
0.000781101
0.0496409
0.339897
0.316803
0.0923584
0.0226677
0.00351395
0.0594644
0.0169316
0.0249304
0.0389871
0.125288
0.223444
0.246044
0.0653985
0.0331655
0.10498
0.0288047
0.0311669
0.0630709
0.114319
0.52998
0.159022
0.0405784
0.0115339
0.00914692
0.00854157
0.00392695
0.0277334
0.146223
0.411408
0.365047
0.0928586
0.0693885
0.0249266
0.0011775
0.00929438
0.0130417
0.098308
0.233095
0.15699
0.0511989
0.0758922
0.0454464
0.00727458
0.0339856
0.0413627
0.239072
0.278096
0.151454
0.0692783
0.154139
0.0530942
0.0182426
0.0404361
0.0360311
0.198796
0.41807
0.186186
0.0516539
0.043808
0.040092
0.000150511
0.0187835
0.0193761
0.288096
0.380591
0.13811
0.156874
0.103876
0.0628218
0.00235166
0.0490945
0.042369
0.288921
0.146845
0.134463
0.0355932
0.0628207
0.11537
0.100532
0.0484773
0.122039
0.0741171
0.149413
0.110866
0.051837
0.051082
0.171623
0.145459
0.0484754
0.356042
0.276997
0.207236
0.15783
0.217599
0.149741
0.070429
0.0140608
0.0376239
0.0816502
0.120469
0.312272
0.309738
0.185528
0.119102
0.091343
0.077936
0.0287472
0.222658
0.211158
0.163076
0.0631117
0.0452425
0.102376
0.181727
0.0379675
0.013497
0.095072
0.164612
0.199099
0.221617
0.173864
0.110091
0.173116
0.013805
0.0422089
0.0355616
0.0391643
0.161797
0.272776
0.193298
0.0454381
0.0726213
0.0553085
0.00808818
0.054946
0.0821276
0.158068
0.581251
0.333471
0.0500694
0.0505619
0.0100675
0.00874013
0.0046364
0.029149
0.0685823
0.225154
0.145755
0.0115682
0.0117211
0.00828109
0.00968735
0.00792601
0.00265506
0.111384
0.404694
0.111832
0.00162318
0.00158094
0.0142285
0
0.000824386
0.0157034
0.0786491
0.442026
0.174909
0.00691395
0.0109945
0.00114148
0.00173741
0.0067358
0.0185441
0.139653
0.626176
0.165398
0.00136645
0.00231426
0.00799033
0.00247454
0.0111933
0.0136277
0.195809
0.340811
0.113427
0.00425561
0.0020748
0.00698414
0
0.00360022
0.0378231
0.215543
0.26059
0.112676
0.0486241
0.0823875
0.0241772
0.0722501
0.0143006
0.1665
0.253741
0.447698
0.0820201
0.00222664
0.0247658
0.00906867
0.00121422
0.016104
0.0368071
0.210296
0.192224
0.0504228
0.201897
0.413251
0.0415716
0.0422423
0.0270983
0.113588
0.0532183
0.0654471
0.016849
0.0561172
0.176165
0.0744616
0.0842623
0.0118794
0.104418
0.0166579
0.0142492
0.0357056
0.0802393
0.25872
0.130238
0.0394013
0.00533875
0.0158671
0.0221119
0.0358158
0.0122435
0.246625
0.52162
0.045529
0.0443694
0.00657753
0.0403555
0.00892975
0.021448
0.0298732
0.247636
0.599274
0.0394258
0.00809938
0.000351008
0.0042317
0.121259
0.0492238
0.0801721
0.149421
0.201682
0.106132
0.0417458
0.0151388
0.0907168
0.178422
0.0240201
0.0259294
0.0493911
0.127953
0.0646238
0.010422
0.00898387
0.363793
0.120594
0.126987
0.0549106
0.31831
0.482555
0.0191142
0.00277618
0.000391399
0.0659706
0.265316
0.0975468
0.0202765
0.03987
0.0423808
0.00884862
0.00587355
0.0287161
0.309612
0.316567
0.0493518
0.0141537
0.0125257
0.0412602
0.0598065
0.0158523
0.0897198
0.455414
0.44648
0.0444991
0.0144363
0.0122769
0.0816611
0.145145
0.000655084
0.141488
0.419809
0.0985834
0.145635
0.0500207
0.0351481
0.0427318
0.0564362
0.00764265
0.0375402
0.0942862
0.0926738
0.137756
0.0477289
0.07398
0.118781
0.132262
0.00109181
0.0629743
0.0748297
0.285122
0.0804137
0.044653
0.0272002
0.0567631
0.066633
0.00241138
0.0542564
0.142624
0.270193
0.249577
0.25567
0.116994
0.0366692
0.00447616
0.0168796
0.0134788
0.108737
0.0372019
0.056453
0.165335
0.109074
0.0934388
0.076951
0.000344482
0.0152956
0.0567707
0.107489
0.219707
0.571604
0.266632
0.0859796
0.0139988
0.00241138
0.00354105
0.0356549
0.213218
0.124511
0.123318
0.0698742
0.0159997
0
0.00880374
0.00657778
0.146414
0.357347
0.189985
0.167651
0.0752133
0.0232148
0
0.0157097
0.0122575
0.16657
0.242723
0.166713
0.198531
0.154979
0.0446811
0.00421902
0.000574282
0.000246121
0.0299293
0.420253
0.429664
0.239794
0.0946096
0.0213439
0.000602717
0
0
0.055396
0.1053
0.139891
0.140322
0.0591507
0.0114942
0
0.00294954
0.00293795
0.0321965
0.118981
0.323117
0.142832
0.049535
0.00724722
0.00602405
0.00133389
0.00708296
0.0289914
0.0875299
0.368437
0.255159
0.011469
0.00127965
0
0.00494707
0.000260373
0.0162531
0.0870946
0.659683
0.291852
0.00801407
0
0.000190556
0.00843567
0.000433955
0.0259537
0.0994153
0.295644
0.104498
0.0074632
0.00517053
0.00895796
0.00583088
0.00238236
0.0057817
0.0728546
0.395283
0.146715
0.0540057
0.0377743
0.0132324
0.0213217
0
0.0316526
0.204246
0.522164
0.11388
0.00181158
0
0.0027313
0.0056867
5.3696e-005
0.0101361
0.391927
0.367149
0.0451156
0.121221
0.0463453
0.026662
0.0518345
0.00576059
0.0639011
0.0726202
0.359459
0.126554
0.0711983
0.107234
0.0246594
0.0178491
0.0228939
0.129811
0.119032
0.315789
0.072345
0.0182492
0.106656
0.053364
0.0138206
0.0534209
0.0905424
0.225384
0.109145
0.0194361
0.17858
0.176756
0.12958
0.128595
0.108451
0.203682
0.151424
0.0155402
0.0072192
0.0343103
0.204779
0.212766
0.0987109
0.288421
0.416171
0.0662536
0.107122
0.0186535
0.0153693
0.0512633
0.01967
0.00336017
0.026306
0.0250148
0.0406604
0.0164804
0.00441392
0.224656
0.453418
0.019265
0
0.0208322
0.0286946
0.0991567
0.00253801
0.00883607
0.0328412
0.0933667
0.0715054
0.0106925
0.118894
0.256283
0.0488764
0.000182103
0.00668255
0.308441
0.657263
0.0272509
0.00229351
0.0313075
0.0873562
0.00253834
0.000769328
0.00210089
0.194636
0.356643
0.0167839
0.00026414
0.00232674
0.00402108
0.00104251
0.00641691
0.00502034
0.148444
0.409298
0.0320724
0.000440233
0
0
0.00261783
0.00700352
0.0113655
0.21331
0.464764
0.0173182
0.000440233
0.0025587
0.003236
0.00619662
0.0124819
0.0207583
0.193735
0.524134
0.045481
0.00262429
0.000472643
0.00152845
0.0323728
0.0749348
0.0224388
0.209885
0.476568
0.0226928
0.000166402
0.000386941
0.00819419
0.0791303
0.100145
0.043883
0.0267199
0.0403001
0
0.00542191
0.0338465
0.0504517
0.0680317
0.0597543
0.0344136
0.290458
0.637577
0.0587153
0.0146307
0.00364362
0.0193736
0.131291
0.132509
0.04022
0.0372475
0.0696806
0.00596103
0.00938659
0.0153045
0.0253946
0.127986
0.0810935
0.0263613
0.0594999
0.0470467
0.10857
0.0530866
0.0654416
0.155475
0.192235
0.230603
0.0713551
0.135611
0.0666877
0.0587851
0.0345903
0.0747529
0.131284
0.159534
0.105759
0.148785
0.100897
0.0541071
0.231428
0.180725
0.0730422
0.125509
0.233525
0.271851
0.22409
0.312941
0.182751
0.0769156
0.244236
0.0616761
0.204665
0.054802
0.145536
0.166084
0.117623
0.0387527
0.0320357
0.0505269
0.0186633
0.106747
0.062367
0.142649
0.279563
0.260662
0.0982095
0.0512028
0.095377
0.0722044
0.0934625
0.121501
0.161936
0.118889
0.13126
0.0810315
0.119188
0.202697
0.0582254
0.24839
0.170289
0.180562
0.14217
0.0837521
0.0459975
0.226641
0.353002
0.21669
0.26431
0.160586
0.110056
0.0522772
0.144905
0.0988139
0.016956
0.023543
0.0581892
0.0648988
0.25744
0.343923
0.201677
0.114859
0.15412
0.0231201
0.081522
0.0567326
0.0440462
0.151075
0.129118
0.0286351
0.0823263
0.0637794
0.0511918
0.110242
0.193933
0.185478
0.13531
0.19275
0.0716496
0.248123
0.280295
0.176563
0.279873
0.283801
0.140354
0.0356511
0.214598
0.199184
0.0371472
0.0963497
0.0138221
0.0406225
0.0111208
0.00414793
0.035495
0.49292
0.199974
0.0331267
0.124549
0.0152478
0.0613112
0.00226153
0.0214424
0.0144073
0.0529029
0.0555585
0.0894051
0.198679
0.10469
0.208197
0.186437
0.00943997
0.00644568
0.191104
0.054907
0.0542976
0.244553
0.136961
0.473455
0.201148
0.0331396
0.168649
0.496118
0.0934516
0.0157116
0.0359194
0.00942385
0.0309596
0.000197246
0.0323293
0.42531
0.218359
0.0257738
0.0555013
0.0116555
0.0111651
0.0289687
0.021962
0.118478
0.06383
0.207102
0.0339656
0.0250965
0.065832
0.0753639
0.310336
0.220263
0.143725
0.186243
0.0730612
0.0215947
0.0260737
0.00137172
0.0187992
0.0695628
0.201044
0.282586
0.232795
0.0286218
0.0126172
0.049055
0.0404106
0.0542429
0.0840568
0.119158
0.150932
0.266307
0.00887734
0.016355
0.101679
0.119608
0.122912
0.0777111
0.284622
0.390006
0.144
0.0533507
0.0226966
0.012237
0.0335885
0.0248872
0.0304886
0.0940631
0.209954
0.217527
0.109738
0.0270652
0.231683
0.416798
0.12619
0.0137528
0.126646
0.253993
0.0830994
0.000733512
0.00891033
0.109214
0.114187
0.0757085
0.0106002
0.0953148
0.175459
0.0210376
0
0.0118691
0.174128
0.418808
0.0400941
0.00433506
0.0231355
0.0532117
0.0477916
0.0273074
0.013515
0.24194
0.370977
0.122991
0.00481722
0.0449992
0.0548986
0.00314873
0.00182589
0.0194639
0.230448
0.609178
0.0822838
0.0028425
0.00693147
0.00791711
0.0012051
0.0206851
0.0279408
0.166842
0.424292
0.0090451
7.45539e-005
0.00284013
0.00368394
0.0167305
0.0390495
0.0633259
0.163142
0.344533
0.0782317
0.0126977
0.0244094
0.0184494
0
0.015094
0.0554103
0.177016
0.562914
0.0472787
0.00224092
0.000405733
0.000495897
0.0165705
0.08577
0.305428
0.215795
0.157037
0.156526
0.0342754
0.0397812
0.0252033
0.0577931
0.0264619
0.0235866
0.055093
0.112442
0.0469955
0.0131824
0.0203283
0.0996963
0.164466
0.0422857
0.00707896
0.00571979
0.0103209
0.005746
0.00420808
0.00532365
0.226061
0.115075
0.19145
0.201392
0.0754986
0.0275722
0.0867161
0.0255132
0.0361315
0.18499
0.406018
0.203108
0.0641534
0.00722834
0.000824384
0.0208627
0.0056176
0.0197783
0.683967
0.0703887
0.11107
0.178785
0.121818
0.0511182
0.0876494
0.0839665
0.0630465
0.0794258
0.222364
0.123537
0.220169
0.187634
0.0986057
0.0313408
0.17084
0.087908
0.250675
0.0472936
0.125986
0.0859705
0.244051
0.0861143
0.131052
0.0617295
0.115419
0.0814818
0.254896
0.166115
0.122956
0.181379
0.0693034
0.109751
0.125123
0.266391
0.314346
0.168637
0.0449947
0.0756201
0.0504612
0.0317537
0.0462648
0.118104
0.0522527
0.217664
0.168341
0.17398
0.118502
0.00447789
0.00308693
0.0844972
0.155495
0.154719
0.209991
0.122282
0.0581846
0.196907
0.0542688
0.0176773
0.0111838
0.0968858
0.105954
0.23979
0.266806
0.36715
0.436046
0.077021
0.00863739
0.00989709
0.10683
0.145558
0.144655
0.144661
0.195353
0.0986504
0.0168308
0.0112205
0.0339847
0.0744301
0.116149
0.0855383
0.111203
0.181028
0.0480169
0.126447
0.101103
0.100285
0.288276
0.35182
0.0633955
0.290449
0.313999
0.20144
0.0297094
0.0168081
0.0288882
0.0411873
0.0812681
0.0414866
0.156433
0.203152
0.0910035
0.0370984
0.0161844
0.0440242
0.266271
0.302324
0.136373
0.00711786
0.0132017
0.000267753
0.0253219
0.0392051
0.0419721
0.240161
0.235001
0.00695596
0.000113791
0.00532385
0.000591539
0.0073161
0.0395976
0.0672314
0.426307
0.363972
0.0532247
0.0109656
0.0226978
0.00236758
0.00776467
0.00140286
0.00599298
0.216421
0.240268
0.0330959
0.00065913
0.00180493
0
0.0054175
0.000601944
0.0084894
0.33677
0.525679
0.0532433
0.0113659
0.00519273
0.000752868
0.00300284
0.0126293
0.0337011
0.201848
0.334561
0.142103
0.0556124
0.0246576
0.00907879
0.0182481
0.0607408
0.0799943
0.072683
0.303154
0.178221
0.000879454
0
0
0.00370627
0.0209999
0.0138033
0.257906
0.480877
0.0731884
0.0899717
0.0215298
0.018317
0.0602242
0.200137
0.109133
0.193242
0.45912
0.081005
0.108396
0.152499
0.0445588
0.060357
0.081712
0.0790432
0.0332863
0.119543
0.182049
0.217693
0.246816
0.0362776
0.115428
0.221054
0.0786499
0.00250972
0.0839711
0.403076
0.17719
0.145327
0.120074
0.189695
0.225932
0.0921109
0.0747769
0.165908
0.117768
0.214353
0.20979
0.11476
0.126389
0.0819124
0.0151133
0.0198682
0.0595199
0.355799
0.0840242
0.0655971
0.00341942
0.134717
0.256184
0.104316
0
0.0196611
0.125569
0.0144063
0.00607248
0.00398766
0.251592
0.520643
0.0913852
0.000803053
0.000294696
0.0182514
0.0960886
0.0448531
0.00848123
0.0801271
0.126689
0.0253649
0.00200529
0.017235
0.166805
0.0202707
0.00434466
0.00149576
0.322976
0.544956
0.0362601
0.000481832
0.00260368
0.0358255
0.00227848
0.00255948
0.0249462
0.167535
0.409983
0.0892714
0.0110044
0
0.00122687
0.0246089
0.0518244
0.187201
0.121268
0.0800762
0.269854
0.0872274
0.0348648
0.0597029
0.0159494
0.000286213
0.00249259
0.248186
0.534392
0.0652076
0.0109946
0.00411528
0.00931435
0.133956
0.0281916
0.0157308
0.144095
0.261847
0.179195
0.156969
0.162083
0.14476
0.0786524
0.120393
0.112878
0.0375178
0.00378885
0.136718
0.0405467
0.0317003
0.161601
0.298557
0.134936
0.0382456
0.00419348
0
0.044983
0.00902206
0.0201595
0.557065
0.10733
0.0432332
0.0156431
0.0212815
0.0248638
0.0866476
0.116673
0.111602
0.201412
0.215018
0.0409797
0.0134056
0.000407792
0
0.0291491
0.0550376
0.0391594
0.538009
0.0317656
0.10118
0.0849434
0.239546
0.0928096
0.0336504
0.0250424
0.0696558
0.0416129
0.175328
0.188859
0.0703986
0.157716
0.0945395
0.0317612
0.0634908
0.21146
0.107734
0.0728398
0.0643256
0.0992462
0.158626
0.179141
0.0138191
0.104654
0.113545
0.163986
0.442591
0.167639
0.0484781
0.190722
0.246784
0.0323089
0.192747
0.190762
0.280339
0.0510142
0.0898049
0.219943
0.114561
0.0738424
0.00607443
0.0461034
0.0597814
0.0608338
0.0747139
0.240682
0.408922
0.19896
0.0677758
0.0048952
0.0398255
0.0278987
0.0274982
0.136347
0.0880434
0.0968137
0.192265
0.3502
0.0776315
0.112732
0.0618987
0.0664928
0.0104153
0.111238
0.229217
0.355109
0.285402
0.0728812
0.109205
0.0812916
0.0805181
0.110142
0.181205
0.168274
0.154126
0.0515578
0.0297873
0.030329
0.0385153
0.0241002
0.110529
0.15274
0.096859
0.121077
0.0276311
0.0439312
0.0746316
0.100991
0.108632
0.0300541
0.132042
0.327197
0.48973
0.048977
0.0126107
0.0334182
0.0315607
0.0379783
0.247137
0.22234
0.311016
0.298293
0.0165787
0.00767937
0.0102506
0.050695
0.122787
0.0514308
0.0505034
0.0113396
0.0199492
0.00264982
0.00737417
0.126348
0.243067
0.0811576
0.0170538
0.00768695
0
0.00968022
0.0170762
0.0132131
0.363705
0.530644
0.0614355
0.121647
0.0520286
0.030616
0.0196222
0.0608529
0.0602541
0.09005
0.136721
0.144319
0.0902065
0.0262607
0
0.066358
0.357844
0.148242
0.290226
0.247797
0.0877188
0.00654253
0.00218084
0
0.00299963
0.0125053
0.0162423
0.257634
0.315567
0.0135196
0.0556883
0.00404734
0.00958062
0.0251768
0.0749131
0.0508457
0.382885
0.453271
0.0459706
0.052626
0.0152659
0
0.0253994
0.082082
0.0828036
0.19129
0.1654
0.0248173
0.0237005
0.00218084
0.0010533
0.0026552
0.00231707
0.0945982
0.397289
0.378029
0.0631497
0.0556866
0.0128704
0.0364594
0.0468629
0.0545819
0.0248621
0.196135
0.243921
0.0544378
0.0284125
0.0242445
0.0342567
0.028274
0.023392
0.0041126
0.0908552
0.179087
0.0482841
0.0130477
0.00015534
0.00284868
0.00102315
0.00177806
0.0245667
0.29694
0.431338
0.069881
0.00764367
0.0014648
0.00186797
0.000947789
0.00233743
0.0111224
0.421281
0.558437
0.044353
0.0186222
0.00818264
0.00484722
0.0430777
0.110438
0.00646607
0.0263994
0.0396407
0.0353719
0.00435307
0.000794791
0.00155224
0.222718
0.513321
0.0129285
0.00251247
0.00457691
0.0110701
0.0236747
0.00861867
0.000330238
0.104976
0.120353
0.0102261
0.218375
0.249544
0.0343845
0.0255966
0.0129913
0.00203324
0.440592
0.507482
0.0146256
0.0304256
0.0569152
0.0183159
0.00647111
0
0.00095752
0.173594
0.513756
0.0211865
0.00156353
0.0183889
0.00700974
0.0721317
0.0427783
0.000574512
0.131941
0.318544
0.0164686
0.0791164
0.200612
0.0726958
0.00355102
0.00343497
0.00305498
0.238486
0.498218
0.0201909
0.00678162
0.0217552
0.00355317
0.0296204
0.0325328
0.00363645
0.0490124
0.273727
0.0157612
0.0563529
0.201645
0.0682705
0.12884
0.104537
0.00622059
0.0476838
0.0785664
0.011073
0.22247
0.251606
0.154761
0.238651
0.0803121
0.0103676
0
0
0.00599037
0.136828
0.101655
0.450232
0.114295
0.0606104
0.00197164
0.0123281
0.0548888
0.00301096
0.0605621
0.228225
0.216517
0.353366
0.0827618
0
0
0.00446028
0.000855767
0.0210349
0.0851703
0.359326
0.0541727
0.0529906
0.0315051
0.0457141
0.230704
0.0467732
0.0496144
0.0551839
0.100135
0.332187
0.162054
0.0695976
0.0960687
0.263447
0.0825999
0.0876437
0.0428116
0.141581
0.0747022
0.111354
0.0699021
0.12673
0.304998
0.154146
0.0109376
0.0124089
0.0195507
0.138899
0.128057
0.132927
0.0704637
0.317052
0.453892
0.0808806
0.0726833
0.0649575
0.165745
0.0913035
0.0261192
0.106968
0.292386
0.145118
0.0815218
0.0876684
0.123949
0.0299238
0.12752
0.124989
0.208535
0.184945
0.133245
0.125174
0.197105
0.21165
0.0755192
0.0629441
0.0579382
0.036172
0.121564
0.245312
0.0998096
0.200626
0.178766
0.0463598
0.154129
0.106862
0.186403
0.224601
0.13717
0.136533
0.244797
0.247238
0.0409642
0.139
0.285279
0.436191
0.0271008
0.0179327
0.0331918
0.053333
0.0635753
0.157819
0.0720089
0.2362
0.31391
0.0367961
0.0120456
0.0224721
0.0465582
0.113328
0.0428562
0.14624
0.167278
0.353482
0.148355
0.0652778
0.0443765
0.0522772
0.0478813
0.0438387
0.0299791
0.131648
0.335149
0.102881
0.0604546
0.0370286
0.0510249
0.0342643
0.044336
0.0085806
0.0162526
0.047093
0.121915
0.0568813
0.0428847
0.0453461
0.0718849
0.0360057
0.00962175
0.00193592
0.103316
0.506557
0.160176
0.0568911
0.0369047
0.0280729
0.00889936
0.000859778
0.0938061
0.245933
0.145177
0.0234902
0.0233766
0.019193
0.0144374
0.00589115
0.0024647
0.0909547
0.353392
0.583409
0.0975809
0.0140589
0.00437405
0.0030246
0.0970697
0.0216321
0.00179735
0.0781931
0.329844
0.200754
0.118256
0.108001
0.0428483
0.0545417
0.00637688
0.00107841
0.00970293
0.0182163
0.134872
0.280631
0.465096
0.10668
0.0386533
0.0122769
0.0215161
0.151568
0.442136
0.154056
0.029253
0.0292684
0.021557
0.0338726
0.00925164
0.00947165
0.0372546
0.0592831
0.127463
0.150294
0.189983
0.051015
0.00697596
0
0
0.000286895
0.00396
0.0442143
0.213249
0.303326
0.0583807
0.00913552
0
0
0
0.00527459
0.0445437
0.487158
0.504004
0.0696672
0.0015751
0.00519965
0.00518495
0.00653945
0.0127497
0.0789808
0.185756
0.156072
0.0245465
0.00885268
0.0116907
0.0147241
0.00238899
0.0687348
0.110835
0.299615
0.290022
0.0589132
0.0982555
0.0356342
0.000586163
0.114848
0.0512067
0.0126111
0.318308
0.383167
0.102945
0.152179
0.0805721
0.0142525
0.490831
0.244534
0.00355628
0.0726236
0.118388
0.110958
0.107188
0.0443533
0.00904938
0.0231605
0.0455207
0.0803925
0.171022
0.216036
0.1302
0.193663
0.126845
0.0253434
0.144235
0.0612078
0.0649654
0.0784216
0.0895567
0.191277
0.0492542
0.0657546
0.0307821
0.411081
0.455664
0.0301485
0.0253263
0.0164748
0.0452721
0.0427534
0.0867551
0.0442881
0.0774303
0.282292
0.0556241
0.0983076
0.141716
0.0469728
0.095179
0.116061
0.0624391
0.185124
0.204037
0.0831683
0.0485315
0.0533791
0.136308
0.0396153
0.0834027
0.102293
0.266207
0.213069
0.107142
0.061481
0.0836417
0.0284453
0.12235
0.0493775
0.0825087
0.0521922
0.0606049
0.021129
0.0341893
0.116948
0.153927
0.314757
0.0446224
0.0763392
0.0323221
0.0280544
0.0710443
0.0232949
0.0450718
0.392705
0.143492
0.0993245
0.202017
0.236191
0.106058
0.118933
0.0232229
0.0193755
0.031404
0.32276
0.201199
0.239302
0.161178
0.0622949
0.188403
0.12695
0.00916358
0.148668
0.126632
0.0812701
0.0894196
0.0909793
0.108512
0.11018
0.036136
0.0167646
0.0119633
0.0269235
0.0271934
0.0366565
0.0268263
0.154026
0.369284
0.272856
0.171943
0.017028
0.272847
0.0208921
0.147213
0.101484
0.161498
0.120399
0.182505
0.133595
0.0743675
0.0672374
0.00959142
0.00998686
0.00760814
0.11067
0.151156
0.430193
0.261976
0.119554
0.0177807
0.0220633
0.0252013
0.0179683
0.0769381
0.157381
0.26165
0.229677
0.0779865
0.0381377
0.0845114
0.115141
0.189652
0.33751
0.107148
0.126276
0.143469
0.113696
0.0742727
0.0682662
0.0390929
0.0103848
0.0631292
0.0682636
0.291717
0.177833
0.113872
0.139201
0.353518
0.278809
0.153179
0.157397
0.0577077
0.108018
0.0795213
0.124006
0.0119749
0.0735781
0.100893
0.261221
0.248016
0.0901696
0.0171963
0.0205652
0.0164776
0.00264759
0.0453464
0.0948938
0.283895
0.166838
0.117188
0.0218678
0.0240944
0.00178444
0.0339049
0.225108
0.215972
0.234764
0.169297
0.0551781
0.00674278
0.0128863
0.0166734
0.00459215
0.0503849
0.0852163
0.213179
0.42282
0.35532
0.0444708
0.0564586
0
0.000401639
0.00331877
0.144903
0.293856
0.120546
0.0365519
0.00545354
0.00542315
0.000401639
0.00010908
0.000396581
0.176458
0.356566
0.263338
0.0645629
0.0088521
0.00565298
0.00454549
0.00359796
0.00438186
0.066079
0.222813
0.479242
0.190094
0.0127088
0.0126146
0.000875615
0.0311727
0.0211538
0.0961634
0.279482
0.351761
0.0649529
0.0114996
0.017428
0.0266204
0.011567
0.0260606
0.0856752
0.272594
0.384094
0.225382
0.0492128
0.0438092
0.0468165
0.0268451
0.0651006
0.0572009
0.0828342
0.12087
0.14257
0.102768
0.0732871
0.0542548
0.135168
0.0881696
0.0671594
0.171589
0.13117
0.120628
0.043348
0.0802789
0.189539
0.22714
0.12825
0.0699427
0.0811719
0.26944
0.194715
0.0219776
0.0324773
0.128482
0.00454158
0.0530835
0.0793605
0.0628425
0.082119
0.0845382
0.135994
0.111059
0.0377267
0.0054426
0.124714
0.194237
0.0700044
0.209989
0.164149
0.206234
0.182792
0.0549633
0.0477721
0.0547066
0.140873
0.289344
0.234113
0.165186
0.0114544
0.0104537
0.0111
0.0368998
0.119243
0.298158
0.420546
0.132435
0.103701
0.0135014
0.0354643
0.0210554
0.0434505
0.0648052
0.0676235
0.0129334
0.142126
0.230063
0.155975
0.166408
0.123692
0.13046
0.0961257
0.0576041
0.0119661
0.138937
0.319999
0.24847
0.167245
0.207773
0.0369207
0.0461171
0.0857453
0.106291
0.101622
0.106024
0.0606958
0.106672
0.0994252
0.241215
0.0538225
0.0377834
0.0167461
0.118236
0.170478
0.155224
0.172924
0.268437
0.0523673
0.0453531
0.123943
0.051482
0.0983494
0.0942327
0.0527372
0.0323714
0.0782865
0.014788
0.0245604
0.160156
0.403839
0.122812
0.0536841
0.0307421
0.0298093
0.0291485
0.199516
0.0755021
0.118022
0.0558755
0.0901618
0.0837758
0.0437016
0.0263585
0.0875371
0.0896649
0.0454342
0.172208
0.508716
0.369034
0.139752
0.0516224
0.00142167
0.0449568
0.0578224
0.0611423
0.104341
0.288006
0.0717625
0.062262
0.0592203
0.00419047
0.0148478
0.137912
0.179313
0.227381
0.187826
0.0447406
0.0653962
0.124214
0.0192005
0.0135909
0.0646423
0.0211145
0.0524846
0.342255
0.236326
0.0646401
0.175982
0.00590215
0.0819231
0.0548392
0.0681884
0.131378
0.273573
0.169728
0.113008
0.430622
0.0383511
0.0489837