0.0856434
0.0733936
0.112737
0.100169
0.10596
0.0264572
0.0450448
0.0684434
0.0381377
0.0729446
0.168653
0.135244
0.0925089
0.0824099
0.0529539
0.0412023
0.0379805
0.121839
0.109472
0.0879943
0.0570483
0.110257
0.277176
0.0646405
0.0568723
0.0373285
0.0455001
0.0757406
0.19065
0.24372
0.117445
0.22513
0.0854781
0.0676481
0.0360756
0.0910894
0.0526159
0.119442
0.0812742
0.0558877
0.105902
0.0625588
0.0129324
0.0441488
0.14056
0.0410943
0.0645309
0.103793
0.115716
0.180394
0.0953814
0.0614176
0.0841994
0.178258
0.0502304
0.193966
0.2319
0.0795299
0.116685
0.050895
0.0452678
0.0445287
0.0514978
0.0885059
0.121677
0.244182
0.108624
0.210575
0.10676
0.110963
0.0973034
0.0569147
0.0314241
0.017044
0.148697
0.141004
0.0510997
0.105878
0.0887003
0.0525141
0.0955247
0.0797865
0.0487025
0.173869
0.194209
0.054856
0.0702354
0.0762194
0.0935703
0.0696783
0.0871168
0.029616
0.182451
0.0513462
0.0541337
0.142718
0.182271
0.118003
0.0825184
0.0768819
0.0800259
0.165427
0.0689012
0.0312536
0.156783
0.19646
0.160718
0.14843
0.0906005
0.0392642
0.0926621
0.0779032
0.089203
0.0129806
0.063008
0.111178
0.0372387
0.0727676
0.0668177
0.0671138
0.0763977
0.151114
0.0517464
0.127714
0.166794
0.0584215
0.0820693
0.0764352
0.13347
0.0436454
0.0347173
0.0485556
0.0824661
0.179194
0.141724
0.103213
0.13873
0.208633
0.249313
0.0980938
0.0532048
0.068163
0.14085
0.132053
0.0813614
0.059435
0.0295805
0.0552037
0.0902845
0.0835389
0.102585
0.0744552
0.0424858
0.160345
0.0784333
0.0598415
0.216751
0.0737817
0.0734788
0.0789925
0.0297733
0.110588
0.0567004
0.133067
0.0834262
0.145795
0.0701615
0.0598827
0.108518
0.108342
0.0537961
0.186895
0.157423
0.127436
0.201812
0.0444929
0.0547966
0.119065
0.146122
0.20493
0.0750679
0.048721
0.0387967
0.133312
0.0462768
0.0340578
0.0405859
0.00696075
0.0438736
0.113468
0.0514486
0.052403
0.151733
0.0969516
0.0779786
0.0301038
0.0273252
0.0142064
0.160157
0.125626
0.129575
0.154283
0.0470898
0.0490163
0.0283329
0.0136808
0.0634224
0.555649
0.305732
0.15564
0.126195
0.04838
0.0749346
0.0146776
0.00390359
0.0113758
0.0113088
0.0140703
0.0198023
0.0379044
0.0221756
0.0155823
0.00147016
0.00660864
0.00256647
0.0191811
0.0602424
0.0946298
0.0978217
0.0185347
0.011554
0.00316836
0.00753914
0.00427746
0.119791
0.176834
0.104773
0.0319846
0.00452749
0.0036064
0.000150289
0.000921174
0.00176064
0.360802
0.759215
0.298143
0.0688355
0.00597688
0.00065533
3.44912e-005
0.000916598
0.000810209
0.0126051
0.0383018
0.0774988
0.146782
0.0338926
0.00181386
0.000663187
0.000789261
0.00120103
0.0298221
0.0387128
0.0729626
0.226101
0.090912
0.0135
0.00117733
0.00135973
0.0165003
0.357104
0.50608
0.114353
0.0689199
0.00757301
0
0
0.00205016
0.0295979
0.444736
0.354652
0.0746059
0.104235
0.0295589
0.0317379
0.0555589
0.135704
0.238079
0.0671864
0.0527623
0.052902
0.15764
0.0756896
0.0287223
0.0142081
0.0339014
0.0704903
0.181315
0.106101
0.120018
0.170351
0.0423226
0.0197569
0.0215741
0.0479116
0.0651016
0.319076
0.173568
0.0334367
0.09857
0.138487
0.0779281
0.159234
0.373226
0.280217
0.278018
0.347342
0.212083
0.0951305
0.118095
0.0244993
0.0516464
0.129846
0.101579
0.0398492
0.0268543
0.0323168
0.0836453
0.192053
0.140014
0.0470446
0.00312516
0.0134457
0.036997
0.0419731
0.109533
0.0992213
0.21113
0.215866
0.105302
0.021406
0.031033
0.131749
0.0886073
0.0298698
0.0635401
0.138074
0.162933
0.0771295
0.00175659
0.0405484
0.155516
0.0815656
0.0309849
0.126855
0.2723
0.190772
0.0611319
0.0487932
0.0577423
0.0238988
0.0561695
0.133971
0.0751108
0.0990522
0.139232
0.103261
0.0452718
0.0126696
0.09141
0.0629789
0.106839
0.0478394
0.153444
0.122417
0.102449
0.0534665
0.015376
0.0476432
0.0161833
0.029909
0.096757
0.148463
0.24609
0.106101
0.100654
0.0426977
0.0421526
0.0158469
0.0386934
0.065019
0.162231
0.263767
0.118371
0.145603
0.0733378
0.0741758
0.0232027
0.0677713
0.0261377
0.0411954
0.0583964
0.0829814
0.0451634
0.0366568
0.0502828
0.0515788
0.102641
0.0309892
0.0692458
0.133515
0.0839897
0.0495797
0.0694886
0.0314396
0.0213294
0.0575796
0.0883255
0.0502589
0.0759681
0.0536163
0.0807442
0.0609397
0.17864
0.216856
0.313612
0.40866
0.206108
0.0912836
0.0496778
0.0628132
0.0319252
0.0502845
0.0603967
0.0526047
0.00783425
0.0304654
0.0291215
0.0102003
0.0185798
0.0490625
0.100105
0.0714072
0.0809138
0.0554826
0.0135774
0.00653555
0.0149608
0.014244
0.100248
0.267901
0.19388
0.228327
0.142633
0.0914732
0.0154259
0.0583298
0.103406
0.0240596
0.44922
0.314363
0.198185
0.0927197
0.0191268
0.0013384
0.156562
0.241446
0.180358
0.0209753
0.0156617
0.0179973
0.0104172
0.00463589
0.00237469
0.00955322
0.00930159
0.0189275
0.099965
0.0367149
0.0244919
0.0141659
0.00687709
0.00147374
0.00735391
0.0135026
0.0249592
0.128612
0.221552
0.0986888
0.0110044
0.00601843
0.000269103
0.0241166
0.0252874
0.0328377
0.452283
0.758989
0.145189
0.00855843
0.0058131
0.000161462
0.0036138
0.00565087
0.048716
0.0501511
0.0453057
0.0196724
0.0105201
0.00600271
0.000644782
0.00029305
0.000917979
0.00599436
0.122011
0.204902
0.0383022
0.00545172
0.0036595
0.00103761
0
0
0.00209377
0.307791
0.446402
0.0348432
0.00384887
0.00286047
0
3.35235e-005
0.000268109
0.0193559
0.37109
0.655184
0.0970329
0.00145901
0.00171628
0
0
0
0.00353895
0.0895848
0.235409
0.0428632
0.00122169
1.10322e-005
9.92898e-005
0
0
0.00110575
0.133402
0.479872
0.134972
0.00230888
0
0
0
0
0.000157964
0.136118
0.522063
0.0752206
0
0
0
0
0
0.000663449
0.176121
0.522063
0.127206
0
0.00113978
0.00455913
0.00460593
0.018063
0.00639089
0.304371
0.493803
0.075369
0.0051587
8.30279e-005
0
0.00246593
0.00930357
0.0260162
0.301404
0.262639
0.0109558
0.0259408
0.0410541
0.0290411
0.104597
0.160748
0.190233
0.237083
0.38631
0.0706025
0.0205936
0.0292328
0.0278394
0.0151779
0.0714725
0.0203874
0.137416
0.118003
0.0256158
0.206488
0.176246
0.0440034
0.0811191
0.139884
0.0687703
0.163305
0.0750625
0.0170875
0.0304191
0.0882265
0.0510376
0.204081
0.312143
0.203437
0.247592
0.128543
0.0631354
0.00869517
0.0322074
0.0100244
0.0749155
0.141469
0.240978
0.117078
0.0692018
0.104782
0.278391
0.192483
0.0371587
0.12531
0.180345
0.120238
0.329365
0.117527
0.074525
0.0773074
0.0284819
0.0196592
0.101568
0.208877
0.346094
0.123497
0.152851
0.0595533
0.070173
0.120584
0.0479422
0.0404863
0.00200019
0.0263997
0.115016
0.133999
0.0683104
0.0967858
0.172867
0.043014
0.045728
0.07053
0.0346483
0.0963783
0.15228
0.0714711
0.1098
0.181833
0.083344
0.0487573
0.00832302
0.0643867
0.0485661
0.140537
0.0950561
0.150819
0.173201
0.190005
0.127688
0.0379564
0.019762
0.0245265
0.0298616
0.0188172
0.0413349
0.0492217
0.0377994
0.0204522
0.053937
0.0215842
0.0363375
0.0146371
0.0281575
0.0689513
0.0324639
0.0652971
0.0301719
0.0707945
0.04011
0.0498447
0.102904
0.0197748
0.0540586
0.0826484
0.0501657
0.0333007
0.0305877
0.0339534
0.597739
0.468244
0.0282236
0.101732
0.0413167
0.0198017
0.0137905
0.0301379
0.0777324
0.00563979
0.00688906
0.0123842
0.0148595
0.00428017
0.00428839
0.00333665
0.00592285
0.00536409
0.0220922
0.0556226
0.0615883
0.087522
0.0448939
0.00220812
0.00319134
0.00286434
0.00180098
0.14174
0.262697
0.0136288
0.0214931
0.00349612
0.00115644
0.000420356
0.000930082
0.00616957
0.127776
0.879688
0.101915
0.0724802
0.0265484
0.000228985
0.000425258
2.67462e-005
0.00110223
0.0483051
0.0436967
0.038896
0.0461934
0.0199145
0.000156916
0.016958
0.0155124
0.00654876
0.144295
0.196871
0.0243951
0.021285
0.00257032
0
0.0309005
0.0413124
0.0230851
0.150307
0.571797
0.0529778
0.0455832
0.0116537
1.71707e-005
0.00951706
0.00419045
0.00866587
0.403485
0.590243
0.0454332
0.0172803
0.00142525
0
0.0158086
0.0154801
0.0192911
0.103877
0.275567
0.0185168
0.00272869
0.000253906
0
0.0050592
0.00843756
0.00617744
0.164053
0.497171
0.0366887
0.000417373
0.000152344
0
0.000320597
0.000172629
0.00487306
0.18884
0.497171
0.0398608
0.000354038
0
0
0.00159554
0.00349625
0.00316447
0.233865
0.497171
0.043377
0
0.00211172
0.00316757
0
0
0.0015998
0.163213
0.452826
0.0380959
5.99794e-005
0
0
0
0
0.00473318
0.208521
0.491733
0.0553582
0
0
0
0
0
0.000662693
0.148518
0.420305
0.0638573
0.00882281
0.00224235
0.00395285
0.00109448
0.0069452
0.00289349
0.124254
0.446756
0.107072
0.0160767
0.000320335
0.00460585
0.00766137
0.0115753
0.00228097
0.176767
0.592515
0.060037
0
2.15006e-005
0.000408509
0
0.000891474
0.00303763
0.226925
0.45719
0.0462443
0.0162771
0.0277728
0.0517647
0.01429
0.0553101
0.0253516
0.191196
0.350918
0.0414799
0.00489107
0.00219791
0.00654443
0.0042017
0.00382117
0.0105816
0.148496
0.184123
0.00467314
0.0857993
0.21402
0.0952922
0.00751116
0.0338197
0.0367526
0.114474
0.099252
0.0114523
0.0801709
0.110574
0.0954334
0.0198353
0.0834909
0.0163834
0.0228903
0.00603227
0.0186943
0.27874
0.26177
0.0555898
0.0181136
0.0454555
0.00520981
0.0284114
0.0255935
0.000289295
0.243198
0.389916
0.109845
0.00851619
0.0321173
0.0123847
0.00615015
0
0.0326388
0.514
0.479858
0.0546227
0.0213251
0.00893035
0.015416
0.0262773
0.0257349
0.0700152
0.350434
0.202939
0.0218097
0.0507778
0.0555573
0.0456507
0.112516
0.0718105
0.0432858
0.0969453
0.0400928
0.0569957
0.116064
0.154262
0.132788
0.0316853
0.00558047
0.062285
0.483919
0.298494
0.0474724
0.107907
0.136311
0.129755
0.0633351
0.0390633
0.0114256
0.0680141
0.174094
0.224475
0.166042
0.341961
0.140846
0.0207489
0.0514294
0.0348891
0.0307044
0.0536037
0.0207684
0.00991601
0.00621739
0.0328904
0.0216086
0.0643075
0.0830083
0.104217
0.0710942
0.0625216
0.0197778
0.00313046
0.00874037
0.0115861
0.04354
0.0627746
0.0505148
0.0576111
0.0322032
0.0424499
0.00929793
0.0576381
0.0198741
0.0489161
0.230429
0.370385
0.669202
0.102375
0.0546884
0.00543569
0.0347128
0.0068661
0.056946
0.0496169
0.0168209
0.00940701
0.00610353
0.00248481
0.00105128
0.00242076
0.12602
0.395815
0.0912494
0.00825637
0.00216458
0.000691552
0.00118829
0.000976104
0.00476761
0.00351392
0.107208
0.214301
0.0893021
0.206287
0.0202148
0.0481904
0.00935585
0.000893269
0.083997
0.63661
0.408846
0.0855416
0.198526
0.008696
0.0996666
0.0565797
0.000946893
0.129985
0.353294
0.0183488
0.00383999
0.000123408
0
0
5.11157e-005
0.000904191
0.122637
0.492022
0.0354606
0.00654567
1.76297e-005
0
0
0
8.0856e-005
0.112898
0.492022
0.0878943
0.0404251
0.0442894
0.00460375
0.0267178
0.0190296
0.000895849
0.170857
0.492022
0.0863454
0.0499026
0.0299136
0.00767292
0.0227507
0.0310523
0.00156537
0.0988635
0.496243
0.0501913
0.00454497
0
0
0
0
0.000847145
0.187675
0.496243
0.0492205
0.00177732
0
0
0
0
0.00141191
0.15237
0.384725
0.0778026
0.0098301
0.0065478
0.00289659
0.00686313
0.0263723
0.00307561
0.116791
0.444656
0.117789
0.056439
0.0400373
0.0162741
0.00111328
0.00580357
0.00288665
0.172819
0.440406
0.045177
0.000263047
0
0
0
0
0.00142189
0.242036
0.381368
0.0827794
0.00348048
0.00757968
0.0113695
0
0
0.0103843
0.150197
0.421226
0.108411
0.0571565
0.03027
0.0271029
0.00182999
0
0.0129269
0.400661
0.327434
0.119073
0.0128915
0.00729994
0.0180454
0.00108242
0
0.0955095
0.204626
0.259835
0.16008
0.0333731
0.0124425
0.0263702
0.0492313
0.0553448
0.0161615
0.0842645
0.209874
0.145275
0.0420353
0.0017775
0.0566117
0.171811
0.132384
0.0415333
0.330009
0.118267
0.249185
0.0303198
0.00840349
0.0217007
0.112416
0.0909724
0.116919
0.16246
0.0345277
0.126043
0.033716
0.0076325
0.0859119
0.338112
0.365287
0.36593
0.0998683
0.0896458
0.0327137
0.0109803
0.00572822
0.0244296
0.062259
0.0526011
0.0541698
0.057829
0.0262356
0.0143504
0.154398
0.368538
0.0373507
0.00585959
0.0198412
0.0392994
0.140542
0.00707694
0.0163354
0.0557308
0.0496805
0.07172
0.181517
0.225539
0.371768
0.0545421
0.00301179
0.0361199
0.281956
0.58996
0.0557926
0.0721552
0.114667
0.134067
0.00175736
0.000878454
0.00300824
0.198852
0.343655
0.0185439
0.000668702
0.00177736
0.00283303
0.00456285
0
0.00928121
0.312206
0.359849
0.0327997
0.0371972
0.00870688
0.0144094
0.00112255
6.17437e-005
0.00997936
0.254942
0.501381
0.00954192
0.00468091
0.00907555
0.00199092
0.00718384
0.00588904
0.0443994
0.327419
0.347437
0.0228096
0.0523172
0.0593589
0.0175951
0.0409358
0.00152889
0.0214002
0.273222
0.289278
0.0702096
0.110223
0.104838
0.118433
0.0440702
0.0107022
0.0339496
0.123528
0.279856
0.183637
0.063471
0.173551
0.105767
0.0792913
0.0232203
0.0732566
0.203378
0.168231
0.0387936
0.120823
0.263181
0.20482
0.166963
0.0909982
0.326625
0.191247
0.194007
0.0447919
0.0229958
0.191156
0.229489
0.0184533
0.0352626
0.0263872
0.0491159
0.0368138
0.0398947
0.0388335
0.00757547
0.0176026
0.0148208
0.0336356
0.0731613
0.158391
0.632639
0.263282
0.107507
0.00308628
0.0120683
0.0908643
0.0921535
0.015329
0.0243757
0.0199575
0.0499871
0.0466767
0.0745315
0.0989169
0.062715
0.0936637
0.0307655
0.0973126
0.229521
0.273543
0.0979117
0.0579742
0.0658315
0.000141191
0.0227945
0.0658095
0.0473346
0.195307
0.0603619
0.14147
0.0546827
0.000214751
0.0131943
0.17556
0.130564
0.0668158
0.189774
0.0487036
0.43503
0.246113
0.00202297
0.00129867
0.00141963
0.00168282
0.0286574
0.0875481
0.0746082
0.114199
0.066983
0.000339151
0.00426938
0.00230914
0.00503822
0.0339568
0.12262
0.105807
0.586678
0.3547
0.00612428
0.0302205
0.118759
0.0424333
0.0387951
0.0519422
0.0283419
0.191378
0.14759
0.00537153
0.0532783
0.117614
0.0744602
0.0440068
0.0349314
0.0260643
0.130478
0.23047
0.00973449
0.00923932
0.00183836
0.00506619
0.00867284
0.0242348
0.0477863
0.395893
0.388482
0.0149096
0.006649
0.00300856
0.0102661
0.00533919
0.00499021
0.0278969
0.439707
0.515986
0.0318005
0.0893171
0.115756
0.051153
0.0117351
0.0135001
0.0110027
0.0846134
0.223785
0.0120733
0.0659528
0.148594
0.0714372
0.0809266
0.125371
0.0967953
0.0621777
0.112844
0.0157513
0.00620273
0.00797899
0.00629365
0.00181944
0.00507468
0.00940478
0.325502
0.529294
0.0423703
0.00621333
0.0341372
0.00885715
0.0138978
0.0761749
0.143805
0.342092
0.489064
0.0810088
0.0628126
0.193443
0.0938956
0.0724352
0.0943715
0.161162
0.0767667
0.0616857
0.0265914
0.242426
0.176816
0.0564282
0.00985104
0.00970176
0.0691123
0.0378979
0.104037
0.159506
0.038596
0.0272713
0.0119582
0.0112291
0.0629414
0.230779
0.327582
0.316758
0.08775
0.16057
0.0194946
0.00499145
0.00355812
0.027943
0.089606
0.22251
0.480242
0.330741
0.199494
0.0485836
0.0556822
0.00902971
0.0024789
0.00400262
0.027164
0.0573392
0.157874
0.168435
0.0264551
0.0388009
0.0381341
0.0594987
0.0789383
0.110757
0.132434
0.295385
0.185827
0.068154
0.0590756
0.0351758
0.0406987
0.00181786
0.13216
0.21132
0.268308
0.586777
0.137399
0.128822
0.0702075
0.106176
0.0706401
0.0558904
0.0390997
0.326409
0.0567291
0.00778324
0.0268846
0.116825
0.102484
0.105861
0.0886518
0.0733946
0.15952
0.00800932
0.00371908
0.0365922
0.264734
0.408568
0.0776174
0.0412771
0.0333933
0.0372625
0.265183
0.0635405
0.0778443
0.118944
0.148858
0.148583
0.0227581
0.0131277
0.167641
0.0483529
0.0338304
0.0517457
0.339175
0.548575
0.135588
0.00649737
0.0058315
0.0292162
0.00014424
0
0.00938318
0.173304
0.420794
0.0192775
0.00171199
0.00331927
0.000267873
0.00961378
0.00585475
0.0677295
0.198601
0.263942
0.0507915
0.0156412
0.0274045
0.015456
0.000390369
0.000910862
0.00434442
0.248133
0.543597
0.0276945
0.00311112
0
0
0.0288007
0.0481566
0.0343075
0.201137
0.441697
0.12879
0.0386892
0.00405395
0.0270964
0.0966453
0.0439056
0.0931335
0.120834
0.0619428
0.0584039
0.0366137
0.128702
0.146827
0.231273
0.101931
0.186385
0.0689061
0.135041
0.0699989
0.0435008
0.106064
0.17015
0.214089
0.157579
0.085499
0.122331
0.163751
0.166175
0.0511265
0.0328764
0.241038
0.324536
0.112941
0.167103
0.189158
0.29309
0.166501
0.0938938
0.0380975
0.379451
0.0826625
0.0367474
0.0550908
0.0104601
0.0239221
0.00639134
0.0113686
0.0953759
0.130841
0.076664
0.0282823
0.0266972
0.0224379
0.0238206
0.0229727
0.0111746
0.195098
0.178394
0.0739173
0.0839875
0.0916828
0.0573346
0.153175
0.0712919
0.10953
0.199158
0.216422
0.110445
0.0522667
0.0321592
0.0278644
0.0153821
0.0266026
0.155462
0.512772
0.555355
0.0436932
0.0220188
0.0451326
0.109752
0.143845
0.0718954
0.026986
0.0691314
0.0647908
0.0159061
0.0185395
0.0616683
0.15298
0.345793
0.19344
0.342774
0.242656
0.0140459
0.148138
0.0574151
0.0652759
0.0982359
0.0461337
0.0467045
0.053327
0.249461
0.36813
0.136291
0.0819664
0.0809203
0.140814
0.228887
0.257947
0.132084
0.138095
0.0962022
0.00407317
0.00311396
0.0148749
0.0151696
0.0491849
0.07821
0.275724
0.241238
0.0074574
0.00237217
0.00158145
0.00199647
0.00107502
0.005006
0.104241
0.650856
0.395853
0.0170523
0.0472286
0.0194528
0.0240519
0.0184824
0.0656874
0.125186
0.0983749
0.0399408
0.0206425
0.0651447
0.0262937
0.0297702
0.00280445
0.0272454
0.191203
0.307537
0.142957
0.0365046
0
0.000495322
5.50357e-005
0
0.000783712
0.0167958
0.322712
0.266649
0.0123867
0
0.00346725
0.00038525
0
0.00278531
0.0414772
0.368471
0.369675
0.0247897
0.0228565
0.0176824
0.0128326
0
0.00439131
0.0403367
0.244384
0.215742
0.00780365
0.0105241
0.00752414
0.00183323
0
0
0.019606
0.386635
0.487973
0.00752437
0.0208422
0.00270567
0.000156464
0
0.00307496
0.0502235
0.274278
0.272713
0.0428777
0.0902527
0.00908245
0
0.00511516
0.0464758
0.0231161
0.210365
0.300229
0.172141
0.00491884
0.000778496
0
0
0
0.0171412
0.328204
0.414382
0.0164052
0.0219489
0.00544947
0
0.0030691
0.0276219
0.0290346
0.312126
0.475399
0.0966455
0.0913569
0.0329236
0.0567608
0.0632402
0.11092
0.0197457
0.160978
0.164787
0.215775
0.349163
0.084536
0.120006
0.0938257
0.0886299
0.0240607
0.0592232
0.0457707
0.191163
0.0139598
0.00644724
0.00950361
0.0392872
0.0729038
0.0621106
0.334937
0.426683
0.160978
0.0527276
0.0249779
0.027937
0.0602793
0.0592418
0.0630264
0.31362
0.373766
0.0973131
0.230949
0.0516948
0.0446155
0.0523273
0.0655209
0.0428359
0.00651626
0.0278879
0.104281
0.058861
0.0352552
0.0186498
0.247296
0.462049
0.0465096
0
0.0161279
0.0263692
0.0511898
0.0200245
0.014662
0.0452845
0.071847
0.0207723
0.0604735
0.146831
0.0270839
0.0216792
0.0180987
0.00989669
0.358466
0.633035
0.00966605
0.00403995
0.0316782
0.0060656
0.00133459
0.00311403
0.000613055
0.239433
0.455562
0.0257222
0.00607801
0
0
0.0246123
0.0804413
0.0102086
0.148043
0.310381
0.113097
0.0469707
0
0.0071935
0.00161539
0.00230707
0.00668806
0.312305
0.525431
0.0233081
0.00243411
0
0
0.00530501
0.0301256
0.0195055
0.216045
0.308499
0.0909078
0.0170388
0
0
0.178075
0.240783
0.0529668
0.0896825
0.191781
0.130775
0.0449965
0.00698241
0.175902
0.214298
0.088145
0.15075
0.122683
0.237254
0.135103
0.103516
0.049644
0.47078
0.037279
0.105131
0.0418376
0.16619
0.239427
0.122203
0.0287703
0.0577881
0.0394226
0.0508393
0.0438414
0.0467133
0.024767
0.228863
0.159735
0.138881
0.182331
0.173715
0.00613567
0.0412931
0.0146821
0.0301972
0.104765
0.11214
0.168452
0.263187
0.0850499
0.0237084
0.0252403
0.004655
0.0567206
0.0160718
0.175847
0.264364
0.362572
0.249259
0.00233616
0.127761
0.00906544
0.110477
0.102712
0.0873662
0.104304
0.255516
0.0565247
0.00525994
0.0812845
0.00543926
0.0997641
0.137197
0.384168
0.252267
0.245655
0.0857155
0.0638931
0.0173238
0.00926044
0.0683628
0.0114836
0.164662
0.13798
0.187179
0.248703
0.122778
0.0535648
0.0804569
0.112702
0.164879
0.17666
0.174582
0.17387
0.1305
0.0297393
0.00112727
0.00511793
0.0820464
0.101347
0.439701
0.217294
0.0650526
0.0651483
0.19204
0.183402
0.15474
0.169239
0.148374
0.260457
0.183855
0.0999874
0.103945
0.132511
0.0789137
0.124802
0.105579
0.187135
0.0937285
0.0675961
0.0450562
0.0855334
0.329682
0.204867
0.116479
0.0353931
0.0902673
0.124023
0.0669201
0.0584391
0.13805
0.126961
0.236213
0.235109
0.22614
0.233536
0.0350773
0.0267574
0.0298339
0.056253
0.243247
0.318472
0.275698
0.192435
0.164803
0.0075889
0
0.000752202
0.0823364
0.200443
0.140866
0.0469977
0.00160713
0.0104331
0.0502682
0.146337
0.146726
0.0661812
0.086867
0.0379059
0.0063144
0.00630771
0.032864
0.0758507
0.459085
0.51342
0.0543121
0.167211
0.174604
0.0955975
0.0345207
0.0124656
0.0173121
0.0913613
0.0698051
0.0974262
0.0836831
0.0489687
0.00911807
0.0113868
0.140804
0.0981489
0.21105
0.276192
0.155212
0.00336618
0.00420539
0.000995984
0.0105649
0.0287431
0.0643969
0.305159
0.326095
0.00995018
0.000758281
0.00759919
0.00697189
0.00633891
0.0124076
0.125603
0.511579
0.444723
0.0354216
0.0197003
0.0527105
0.0447128
0.0191637
0.134839
0.0992211
0.0875506
0.102348
0.0471845
0.0465717
0.0842203
0.122107
0.0319625
0.0566098
0.209229
0.302206
0.133433
0.0185905
6.94925e-005
0.000818412
0.00173681
0.00158766
0.00154486
0.0590122
0.323703
0.246706
0.019846
0.00178174
0.00012553
0.000676402
0.00319952
0.00194653
0.0258107
0.358242
0.442354
0.0178878
0.0125677
0.0120261
0.0281796
0.0129717
0.000810695
0.0851281
0.228765
0.165302
0.0265898
0.00462759
0.000816982
0.00378922
0.00181915
0
0.0338432
0.356046
0.47229
0.05306
0.013707
0.00724136
0.00787769
0.0266544
0.0333044
0.00633871
0.143479
0.321215
0.0293998
0.0291023
0.0211951
0.0417079
0.302173
0.373414
0.00281858
0.015393
0.122984
0.0332606
0.0467093
0.0187515
0.0090929
0.0142859
0.00830891
0.0349949
0.212161
0.487034
0.0835204
0.180307
0.151521
0.0648821
0.265105
0.187396
0.0436908
0.0260981
0.292022
0.0902622
0.00831917
0.00704537
0.0263607
0.342116
0.403986
0.0054578
0
0.00601204
0.00535184
0.00105419
0.00210373
0.0290785
0.293735
0.220971
0.0325513
0.00144801
0
0
0.0699677
0.0962637
0.0323285
0.395227
0.332063
0.0224948
0.000387081
0.0219974
0.0134801
0.0127009
0.0174239
0.0190652
0.36723
0.287494
0.0283861
0.0101361
0.00159625
0.00068411
0.00954599
0.0209284
0.0513376
0.290003
0.245973
0.123925
0.0220282
0.0746695
0.0404605
0.00699401
0.0225962
0.0650037
0.16833
0.27844
0.1562
0.120428
0.169063
0.0948666
0.0477483
0.0836571
0.0695729
0.287206
0.228267
0.109636
0.0315195
0.0553006
0.108908
0.0212136
0.165477
0.202116
0.328403
0.231838
0.0856097
0.0183822
0.0799865
0.177706
0.0366996
0.101792
0.016477
0.0975499
0.0768507
0.0917633
0.0605661
0.182423
0.0636111
0.0215898
0.0782125
0.0102852
0.0923409
0.248521
0.16956
0.119127
0.184987
0.115177
0.335827
0.158852
0.0282516
0.0417846
0.0280453
0.0660764
0.0548735
0.180358
0.172305
0.321132
0.290357
0.0654325
0.151067
0.299709
0.0841876
0.0479702
0.153806
0.241748
0.0090269
0.0061976
0.0142201
0.0599901
0.164916
0.184925
0.128731
0.0302316
0.0216576
0.0611277
0.113672
0.0985781
0.143389
0.181428
0.193082
0.121562
0.0137758
0.0142337
0.0889191
0.254598
0.199983
0.070857
0.242481
0.0762509
0.057868
0.0193729
0.0324044
0.0214608
0.350052
0.411165
0.323803
0.25038
0.0873283
0.0684635
0.00554022
0.0381486
0.0325591
0.135823
0.169328
0.179478
0.180119
0.0419971
0.0137746
0.00344958
0.00454967
0.0221848
0.151682
0.322226
0.206536
0.0837731
0
0
0.000255494
0.00668192
0.00325234
0.133791
0.247576
0.413226
0.192479
0.0460928
0.0569173
0.000235155
0.0136491
0.00144565
0.118253
0.42003
0.286299
0.0910724
0.05068
0.105836
0
0
0.0700014
0.16532
0.208399
0.0691352
0.0112178
0.00504991
0.0387525
0.103119
0.0603692
0.215286
0.127915
0.0390017
0.00762017
0.0773374
0.0269381
0.066617
0.319204
0.312481
0.056933
0.133144
0.331559
0.148331
0.0385851
0.0424683
0.0614091
0.0314435
0.0428403
0.392835
0.159531
0.11721
0.05661
0.0296514
0.041854
0.0441672
0.0849787
0.322832
0.18861
0.21676
0.147894
0.00992249
0.144825
0.049318
0.0123341
0.0951079
0.20357
0.203477
0.231239
0.325586
0.0530223
0.0684062
0.0971783
0.0621559
0.0346315
0.149452
0.339237
0.221137
0.112949
0.0162398
0.0505338
0.0442924
0.0069271
0.0277172
0.201321
0.229008
0.176637
0.199593
0.0482232
0.0741769
0.0374502
0.000712833
0.0622087
0.24118
0.0905279
0.0571738
0.108103
0.0370348
0.000311468
0.0512237
0.115554
0.153402
0.110417
0.0470273
0.0181923
0.0276748
0.00516433
0.0175587
0.127547
0.433856
0.484587
0.158436
0.166631
0.0628854
0.0580167
0.0175428
0.0137132
0.00320513
0.0283434
0.101452
0.180904
0.154261
0.0466407
0.0161883
0.00136003
0.0295312
0.0989199
0.150289
0.186042
0.377933
0.0701724
0.0189547
0.00224048
0.00224048
0.0247169
0.200718
0.22786
0.344879
0.0859888
0.231157
0.198801
0.0390474
0.113483
0.107836
0.263725
0.0867764
0.302457
0.103825
0.0942099
0.0367257
0
0
0.0369054
0.18802
0.114061
0.135138
0.18339
0.184555
0.091741
0.0369984
0.0207888
0.0611854
0.243947
0.161913
0.254387
0.243328
0.0901905
0.152751
0.0688605
0.279421
0.267043
0.0611204
0.0167648
0.0794007
0.0543828
0.029793
0.0490298
0.063124
0.368956
0.37535
0.0206302
0.0183155
0.0161635
0.0122021
0.181824
0.0927485
0.17837
0.133479
0.129555
0.0477597
0.0495234
0.129262
0.18858
0.0896341
0.0530685
0.209469
0.316011
0.281073
0.0177039
0.0475263
0.0316189
0.0395284
0.0680051
0.127021
0.0967758
0.240053
0.220474
0.0543121
0.0578054
0.0965217
0.0931275
0.0631058
0.245755
0.164535
0.11771
0.167475
0.0309292
0.0152841
0.0923125
0.119355
0.0562971
0.0935208
0.147454
0.288904
0.286626
0.0545492
0.17551
0.105827
0.0545917
0.214759
0.226587
0.185281
0.0767395
0.104302
0.0222608
0.0613397
0.0900272
0.0993391
0.13586
0.0696745
0.0209849
0.0450423
0.0313961
0.0581197
0.0720287
0.0336046
0.0922823
0.245833
0.244404
0.0606962
0.144634
0.0852148
0.0577926
0.0427797
0.0100258
0.10895
0.0319927
0.122392
0.258669
0.194545
0.0794505
0.0711138
0.0784881
0.0472005
0.0449179
0.103282
0.22632
0.364836
0.552641
0.199792
0.0828479
0.0516778
0.00216124
0.0281829
0.148173
0.386239
0.175345
0.0608243
0.055004
0.0135035
0.00193825
0.00140477
0.0304045
0.0605485
0.370222
0.258789
0.100929
0.0379978
0.00364435
0.0118814
0.056285
0.127228
0.0852756
0.321514
0.256752
0.260091
0.074373
0.0194462
0.0224069
0.00103134
0.0181894
0.0707682
0.292437
0.232642
0.0533178
0.00831217
0.0113928
0.02666
0.11859
0.195616
0.0377253
0.135027
0.187248
0.220512
0.0728417
0.0594892
0.0884889
0.0860654
0.0963275
0.0170755
0.0510347
0.252865
0.188143
0.168561
0.141035
0.147818
0.0122951
0.012459
0.0971039
0.195294
0.245348
0.0408628
0.0181466
0.038596
0.0415709
0.175567
0.262157
0.0949793
0.261986
0.475228
0.0965794
0.0940404
0.0788739
0.0365603
0.0244969
0.0818716
0.0216997
0.0437727
0.200182
0.158218
0.151513
0.16934
0.123732
0.00202882
0.0115715
0.185697
0.0791563
0.0623931
0.055389
0.126029
0.185341
0.157025
0.0171721
0.196255
0.156585
0.205338
0.295493
0.0775773
0.118608
0.112394
0.0573925
0.0142017
0.0432418
0.214454
0.194085
0.0731861
0.011648
0.156468
0.161944
0.190908
0.190774
0.300183
0.162183
0.0587494
0.0279394
0.0482237
0.176069
0.119089
0.0636848
0.00994204
0.168086
0.075055
0.040467
0.0374321
0.100778
0.290115
0.0866103
0.0258951
0.0624177
0.125273
0.15675
0.133215
0.0418858
0.163145
0.300065
0.0935174
0.107706
0.138254
0.258976
0.0711841
0.0697975
0.0481007
0.273983
0.387596
0.070074
0.0533201
0.101796
0.146295
0.132373
0.05669
0.00687376
0.0486025
0.0940808
0.0190577
0.0417939
0.137617
0.227894
0.191851
0.0537355
0
0.00942646
0.010871
0.0299356
0.0522926
0.257261
0.548481
0.0278155
0.0226853
0.0101721
0.0664637
0.139232
0.102178
0.135814
0.118713
0.149849
0.0471107
0.0351022
0.0418537
0.0617121
0.0501711
0.0986969
0.142451
0.191517
0.191951
0.143674
0.0510228
0.00056823
0.00954199
0.0116436
0.0448968
0.0627562
0.179946
0.303847
0.28008
0.100078
0.0307662
0.0347894
0.00829611
0.0803883
0.26106
0.246387
0.355727
0.0830868
0.0351435
0.0396273
0.0906914
0.0228796
0.00830335
0.0301713
0.127908
0.124283
0.206833
0.0959562
0.0888519
0.0964491
0.0264763
0.00631918
0.103809
0.193536
0.310475
0.275426
0.135561
0.202911
0.102633
0.0256503
0.0192948
0.0864869
0.0906349
0.228776
0.171831
0.126182
0.304254
0.252513
0.170689
0.00593076
0.0481223
0.0540363
0.077884
0.184383
0.17332
0.0800885
0.0593577
0.0394148
0.0212142
0.0605177
0.0981202
0.19665
0.232721
0.254476
0.135491
0.200616
0.0810207
0.0316561
0.034213
0.0571619
0.0808452
0.0707049
0.0814222
0.133397
0.281137
0.190647
0.0375932
0.0642188
0.0339608
0.0359228
0.204441
0.102954
0.133109
0.185004
0.109742
0.0552361
0.0242435
0.0218958
0.16936
0.27619
0.167517
0.0964174
0.251255
0.0751664
0.0764309
0.0372198
0.0287992
0.0736537
0.303735
0.13486
0.13967
0.157747
0.0869777
0.157814
0.0558254
0.021138
0.209186