0.133936
0.166258
0.0332606
0.0484124
0.0583953
0.0753889
0.0462129
0.0571344
0.0883194
0.418146
0.172657
0.0276946
0.0121288
0.0089027
0.0816447
0.165978
0.269447
0.480961
0.10203
0.169144
0.102041
0.0743283
0.0586861
0.0332757
0.0229113
0.0507105
0.0335449
0.120833
0.106255
0.0616738
0.0504239
0.0367457
0.0513529
0.0593439
0.221887
0.130658
0.263827
0.0585996
0.0240561
0.00607998
0.00161717
0.00815555
0.0490379
0.101295
0.318031
0.605078
0.0730683
0.0289622
0.0101333
0.00290379
0.00964551
0.00904841
0.0325028
0.561103
0.0502936
0.0220364
0.0219315
0.0127944
0.0141588
0.0138362
0.00871566
0.0493638
0.0481773
0.0746846
0.0362443
0.0289179
0.0151948
0.00862782
0.0336127
0.0115805
0.0130142
0.0407155
0.475117
0.0577006
0.00556168
0.0084273
0.0032694
0.0118624
0.0209237
0.0303709
0.459896
0.408291
0.0916693
0.00529978
0.0213318
0.0602329
0.0196277
0.0450565
0.0685797
0.479206
0.0354066
0.028814
0.0105585
0.0232867
0.0130003
0.0347753
0.0187864
0.0235689
0.0355263
0.0207682
0.0131674
0.022063
0.0447197
0.0862436
0.0486407
0.0638891
0.0654762
0.0480481
0.471853
0.0481653
0.0306799
0.0616605
0.159217
0.0531264
0.0361449
0.0718409
0.36564
0.374051
0.0811954
0.1228
0.0519098
0.140347
0.141973
0.0579567
0.0845603
0.136953
0.0275452
0.00240517
0.0398358
0.0387205
0.143403
0.0585533
0.0877954
0.208537
0.0940646
0.0419219
0.0704831
0.197888
0.0299578
0.0740888
0.0259833
0.0614917
0.185325
0.114291
0.30082
0.12771
0.223588
0.0426841
0.0643939
0.131639
0.0846856
0.107535
0.0847306
0.192151
0.0747299
0.116099
0.0780075
0.105565
0.0653384
0.172166
0.0783509
0.11678
0.0593565
0.152677
0.421871
0.0521785
0.0922531
0.0276862
0.0568542
0.0749718
0.0501451
0.119855
0.0582415
0.199486
0.0762612
0.232787
0.023655
0.0856029
0.0310549
0.0956867
0.158291
0.0519959
0.0191214
0.0177829
0.0590683
0.0572905
0.204474
0.074272
0.136216
0.468604
0.220085
0.0361604
0.00741678
0.0143375
0.0313354
0.132712
0.104519
0.248926
0.120575
0.0524784
0.0289918
0.0319506
0.0854466
0.00575594
0.0972265
0.0388857
0.0797276
0.365784
0.226866
0.0455962
0.0266245
0.012708
0.00163023
0.0945616
0.102804
0.119586
0.165854
0.0557848
0.0185091
0.00658959
0.00919125
0.00455255
0.0334087
0.0325786
0.115769
0.150843
0.0926166
0.0487819
0.00395375
0.00637224
0.0264635
0.0456904
0.0417768
0.264789
0.173765
0.172547
0.0526618
0.0149229
0.00799103
0.00401203
0.0256873
0.0479351
0.108357
0.405168
0.595909
0.17716
0.00895371
0.00622377
0.0327185
0.0245111
0.0705987
0.266226
0.0610623
0.0602289
0.0275275
0
0.00139024
0.0300594
0.0572029
0.0191532
0.127848
0.189681
0.0857174
0.0350649
0
0.00787828
0.0227161
0.08963
0.0608868
0.197173
0.28982
0.432996
0.144735
0
0.00370835
0.031456
0.0190935
0.0131939
0.112015
0.453746
0.47467
0.143627
0.00119221
0.0189323
0.0381437
0.091793
0.0386415
0.116066
0.165237
0.0244438
0.00761094
0.00106354
0.0274886
0.0049703
0.0829671
0.111396
0.316799
0.273462
0.0413285
0.00793793
0.0176451
0.0427426
0.000620808
0.0695326
0.171554
0.43889
0.214294
0.120171
0.0286749
0.0384294
0.0610599
0.0397539
0.324974
0.155085
0.158557
0.0729832
0.0109799
0.0134688
0.161812
0.171593
0.0256716
0.348076
0.14688
0.092436
0.0448465
0.0745468
0.108797
0.0830068
0.133161
0.0889984
0.0622811
0.079496
0.0165994
0.0562525
0.0248976
0.0665567
0.148707
0.116214
0.144491
0.0823325
0.121687
0.0718093
0.242992
0.0338067
0.0300031
0.0389521
0.197268
0.104911
0.0690028
0.110517
0.253667
0.182623
0.00553308
0.0187874
0.198578
0.171017
0.13085
0.082755
0.121356
0.41626
0.126768
0.0305936
0.0268134
0.0808994
0.102436
0.0911364
0.0511912
0.0764613
0.108581
0.145888
0.0388385
0.0364677
0.015783
0.117489
0.0975773
0.129188
0.101304
0.149957
0.240882
0.0136156
0.00280261
0.103424
0.152683
0.0786163
0.0930788
0.0648859
0.293806
0.202487
0.00884469
0.00316558
0.00399666
0.240106
0.0851128
0.240037
0.138185
0.236444
0.0714155
0.0901554
0.0307977
0.03672
0.0941641
0.105465
0.0914471
0.122481
0.0958236
0.0525456
0.11452
0.126945
0.114502
0.143812
0.125666
0.103737
0.206597
0.0600495
0.139437
0.102638
0.0128953
0.00383442
0.165526
0.100363
0.2036
0.133019
0.114529
0.266574
0.195597
0.0515888
0.0317351
0.115947
0.118656
0.157401
0.187698
0.133981
0.0363999
0.0102389
0.073591
0.0380261
0.099606
0.0584964
0.0755239
0.202821
0.115049
0.0696647
0.0636484
0.155891
0.0150158
0.10575
0.0110731
0.0920869
0.193052
0.178165
0.137938
0.0331673
0.0312167
0.0170576
0.0847925
0.0588424
0.0737568
0.171665
0.124679
0.408656
0.320608
0.0742185
0.00587445
0.114107
0.0857701
0.134928
0.222663
0.117137
0.0168406
0.0226868
0.0429774
0.0106582
0.0343518
0.00406298
0.00742902
0.0161134
0.0178168
0.0650212
0.0297328
0.0225256
0.0167891
0.0686843
0.0131009
0.00694297
0.00974052
0.0506124
0.211341
0.211899
0.0568023
0.00507296
0.0192784
0.0255247
0.0109439
0.0325401
0.0427282
0.485807
0.686584
0.193366
0.00845493
0.0207647
0.0295048
0.000630265
0.0138361
0.151188
0.0623309
0.0503545
0.0144188
0.00270986
0.0152254
0.00222258
0.00804827
0.00325826
0.0318226
0.171163
0.205026
0.108128
0.00397361
0.00173514
0
0.00622249
0.00440068
0.0272129
0.256833
0.400385
0.158899
0.000592748
0.00438628
0.0037043
0.000887497
0.00105267
0.0651443
0.403209
0.529514
0.36361
0.00512562
0.000490722
0
0.000532498
0.000177499
0.0840654
0.129522
0.215226
0.0993128
0.0338347
0.000849036
9.14051e-005
0.000671503
0.00443554
0.0268427
0.218518
0.37682
0.0851503
0.0501687
0.000574712
0.00122745
0.000274215
0.00837946
0.0844724
0.27416
0.313906
0.211239
0.0516871
7.99596e-005
0
0
0
0.0532822
0.434283
0.470954
0.0920742
0.0794335
4.79758e-005
0.00303941
0.00455911
0
0.092722
0.272024
0.359153
0.0881029
0.00901042
0.00514578
0.00259242
0.000142698
0.00306945
0.0932908
0.21804
0.246434
0.0640553
0.00307478
0.0523385
0.03601
0.0705345
0.0130375
0.0553355
0.503434
0.301969
0.045957
0.0354525
0.0344798
0.0821384
0.0210406
0
0.149457
0.231371
0.0565509
0.00985926
0.0428237
0.286678
0.19288
0.0671261
0.0012781
0.130251
0.057991
0.0546119
0.0137769
0.118866
0.129004
0.0765995
0.194528
0.0566008
0.0331182
0.0212659
0.00403602
0.0267964
0.27092
0.216472
0.0835266
0.162966
0.0465552
0.00867298
0.00986435
0.00466991
0.00133347
0.231522
0.491705
0.142736
0.0773698
0.00461226
0.0194281
0.00165851
0.0014897
0.0288925
0.396755
0.391337
0.162373
0.0355342
0.0073484
0
0.123411
0.00109224
0
0.000517109
0.00600565
0.0020094
0.00132074
0.00659304
0.239041
0.114378
5.07532e-005
0
0.00361976
0.00426971
0.00331175
0.00289647
0.0046709
0.310676
0.280424
0.0158007
0
0
0.000422167
0.000177447
0.00513675
0.0885489
0.537661
0.308012
0.0404414
0.000448547
0.00403692
0.00011538
0.000383437
0.0293071
0.05029
0.537661
0.0964266
0
0
0.00163802
0.00615577
0.00234991
0.0030345
0.0082792
0.239305
0.10338
0
0
0
0.0082367
0.00314132
0.00691787
0.0114549
0.250825
0.207905
0.0234307
0.00149981
0.0134983
0.00215133
0.00960797
0.0175818
0.0663304
0.584425
0.25331
0.0484582
0.000899884
0.00809896
0.0112761
0.0194217
0.00480318
0.0537528
0.584425
0.0758388
0.00305368
8.78916e-005
0
0.00542174
0.0035772
0.00654306
0.00580071
0.167276
0.114743
0.0155174
0.00163637
0
0.00390991
0.00294407
0.00631843
0.00510817
0.173697
0.255886
0.095512
0.00463771
0
0.00437353
0.00402141
0.00104514
0.00606494
0.555671
0.343121
0.213293
0.0599548
0.0874606
0.00495249
0.00032262
0.000535403
0.00103239
0.55645
0.123357
0.0722208
0.0146224
0.000712913
0.00480665
0.00231804
0.00325994
0.00730636
0.0886199
0.165074
0.290807
0.0889167
0.0175944
0.00758788
0.00886092
0.0045257
0.00900302
0.0173555
0.318678
0.304449
0.139779
0.128525
0.00656999
0.00020658
9.31782e-005
0
0.266983
0.384404
0.509852
0.246896
0.0785767
0.00399541
0.00109485
0
0
0.092809
0.122942
0.269166
0.0734433
0.0306909
0.00459672
0.00502653
0.00104802
0.00317396
0.0128259
0.221957
0.373976
0.102577
0.017478
0.00222459
0.00254341
0
0.000889301
0.0556178
0.239017
0.378521
0.0945233
0.0594763
0.00554119
0.000342451
0
0
0.0344267
0.311226
0.568159
0.0710453
0.0380759
0.00323666
0
0
0.000579413
0.0603635
0.180431
0.242166
0.0881443
0
3.87895e-005
0.000349106
0
7.13273e-005
0.0335835
0.253173
0.328591
0.114285
0.00122963
0
0
0
0
0.0465065
0.20218
0.440937
0.0747824
0.021846
0.001877
0.00348586
0
0.000520525
0.0699677
0.300087
0.553203
0.0809402
0.0131076
0.0201232
0.0250665
0.000206643
0.000143242
0.0867338
0.242856
0.363698
0.0996937
0.00845953
0
0
0
0
0.0394258
0.333008
0.511658
0.0782653
0.0121586
0.0245753
0.0114929
0.0133904
0
0.0387302
0.233187
0.404072
0.0576038
0.000585345
0.0170582
0.0121583
0.000708298
0.000236099
0.0275479
0.172833
0.291178
0.0480059
0.013377
0.1087
0.0150433
0.0084592
0.00014166
0.0181308
0.214719
0.188414
0.0262393
0.0754561
0.11853
0.0763326
0.0362367
0
0.0317817
0.081909
0.0150222
0.00285932
0.126788
0.343089
0.141119
0.0298537
0
0.0314998
0.0554314
0.0711051
0.0127017
0.166733
0.397229
0.0327751
0.0206056
0
0.00522559
0.0105342
0.00422274
0.00091233
0.286852
0.620203
0.059968
0.0127422
0
0
0.00237843
0
0
0.079782
0.317886
0.0596855
0.00634572
0
0.0157867
0.0158198
0.0115091
0.00413259
0.118099
0.203383
0.0348257
0.00379236
0.000897662
0.0502214
0.0307789
0.0231863
0.00579658
0.148352
0.386415
0.0430752
8.08277e-005
0
0.197766
0.303307
0.0563681
0.010853
0.105188
0.192704
0.0178493
4.79328e-005
0
0.639324
0.217601
0.0396872
0.00252713
0
0.0712377
0.0228665
0.0241207
0.200714
0.50247
0.290457
0.0792416
0.00385794
0.0182935
0.0182638
0.00865795
0.139186
0.181395
0.434381
0.0936184
0.153769
0.0397369
0.0456478
0.174003
0.126935
0.0432286
0.121829
0.150174
0.168592
0.165833
0.0336166
0.0305844
0.0887554
0.0447568
0.158665
0.124911
0.159805
0.163872
0.0668897
0.0176584
0.0560279
0.00595529
0.0380095
0.124301
0.142117
0.340204
0.235949
0.162117
0.149772
0.0328642
0.0416871
0.0769613
0.0498806
0.0980105
0.383713
0.12483
0.210806
0.0745033
0.0471731
0.0632493
0.0402746
0.172378
0.152771
0.15373
0.271155
0.335763
0.274548
0.0234741
0.0785772
0.0584515
0.0782102
0.145412
0.137494
0.23639
0.186294
0.0709186
0
0.0104461
0.00992462
0.00136192
0.00640635
0.185895
0.344041
0.323116
0.0641002
0.0901472
0.00458125
0
0
3.14394e-005
0.220196
0.200816
0.182542
0.14452
0.00153301
0.0723975
0.0273851
0.00943966
0.0149588
0.0478775
0.372815
0.525043
0.0913948
0.0130972
0.035739
0.0248652
0.0165624
0.0192618
0.0427981
0.191864
0.211458
0.0863856
0.0956098
0.00452032
0
0
0
0.108373
0.249675
0.322851
0.11651
0.0292321
0.000886656
0
0
0
0.0811672
0.259334
0.443427
0.0571105
0.0153955
0.00383875
0.00551467
0.00346682
0.0079605
0.0441184
0.258882
0.51611
0.201974
0.0240333
0.0209097
0.00431306
0.000113013
0.00111396
0.0542834
0.199422
0.287908
0.0482043
0.00870843
0.000600339
0
0
0
0.0337385
0.238048
0.371391
0.0634685
0.03734
0.000360203
0
0
0.00129516
0.0784075
0.232041
0.399674
0.178462
0.0123104
0.00691891
0.00053514
0.000496456
0.00124052
0.0472011
0.462185
0.263854
0.148232
0.0393177
0
0
0.000827426
0.00270775
0.247002
0.167838
0.302935
0.112256
0.12609
0.0202486
0.0169366
0.00442147
0.00176189
0.13126
0.171276
0.202429
0.0632046
0.0756543
0.141262
0.131137
0.0385267
0.00144106
0.167242
0.34428
0.065508
0.228905
0.132661
0.04896
0.0259259
0.0374834
0.00931772
0.229772
0.121227
0.0191293
0.116451
0.0787655
0.201135
0.159173
0.239168
0.0874459
0.455881
0.0922475
0.0666069
0.00978442
0.00131879
0.0764912
0.0666145
0.0239261
0.00203691
0.0833578
0.0513763
0.024866
0.0121492
0.0312599
0.121079
0.00754871
0.00659167
0.00197633
0.0548686
0.100543
0.00286887
0.03225
0.00774114
0.0899449
0.0884258
0.109471
0.074708
0.677033
0.0972484
0.015413
0.0771054
0.0950137
0.262876
0.0672912
0.00957792
0.0224706
0.524137
0.00476976
0.00485549
0.00505684
0.103444
0.304988
0.00614224
0.00100632
0.000335438
0.00660765
0
0.000562574
0.000534988
0.169912
0.460741
0.0316851
0
0
0
0.0076846
0.00818262
0.0155308
0.114738
0.487228
0.0211924
0.00295874
0.00124332
0.0504091
0
0.00112074
0.00799509
0.200601
0.551592
0.0290363
0.0155968
0.00099676
0
0.0226237
0.0450022
0.0112506
0.111273
0.232639
0.018352
0.00849063
0.0254719
0.129266
0.270296
0.0766372
0.0187509
0.0593427
0.0920384
0.00293875
0.014151
0.0424531
0.519244
0.0358724
0.0270013
0.0236037
0.16852
0.268557
0.0265579
0.0390497
0.0537302
0.106133
0.236258
0.0450022
0.0213626
0.0790638
0.0863942
0.0092551
0.0659806
0.182673
0.519244
0.125097
0.279712
0.0799061
0.186353
0.145822
0.120536
0.0547087
0.099831
0.0962612
0.0970488
0.163814
0.0613105
0.0650891
0.124162
0.0969173
0.156832
0.151739
0.159381
0.186642
0.139799
0.1122
0.119441
0.11153
0.119758
0.223022
0.185426
0.189294
0.106351
0.0210015
0.0239768
0.0376031
0.0263532
0.0796525
0.279303
0.414786
0.245067
0.0449282
0.0965868
0.0680438
0.015483
0.0741985
0.0541416
0.177347
0.168979
0.0631453
0.113013
0.123409
0.0764994
0.0083594
0.100128
0.0283259
0.187484
0.22193
0.0677884
0.0230709
0.018594
0.011027
0.00612759
0.0105998
0.0405777
0.239451
0.354256
0.053879
0.0332661
0.010782
0.00504054
0.0045639
0.0385509
0.0233093
0.473693
0.525504
0.0302183
0.0567121
0.0637563
0.0577497
0.00495934
0.125553
0.0582477
0.0734758
0.0904166
0.0246521
0.141537
0.281732
0.0758791
0.000708477
0.0665216
0.077049
0.156825
0.254291
0.0225027
0.0226286
0.00552907
0.00571365
0.0029756
0.051819
0.0479124
0.245317
0.275751
0.0160862
0.0264623
0.023585
0.00952276
0.000425086
0.0274145
0.0563004
0.369756
0.633927
0.0494839
0.109287
0.173932
0.0224089
0.00560346
0.0185951
0.0215678
0.0628496
0.126431
0.0261051
0.0784028
0.158912
0.180955
0.0623914
0.104013
0.0745657
0.0837995
0.0375645
0.022616
0.0140969
0.00739489
0.00154479
0.00336208
0.0211391
0.0210534
0.255885
0.50276
0.0449105
0.010172
0.0115417
0.0555599
0.0374348
0.109117
0.136004
0.483039
0.441757
0.0177299
0.100675
0.206159
0.223
0.0409018
0.0382891
0.0501906
0.112853
0.0244707
0.0270239
0.25978
0.154009
0.114606
0.0165708
0
0.00804271
0.0446959
0.0301353
0.177339
0.0329102
0.0294693
0.0649908
0.0245411
0.0392943
0.0995398
0.505758
0.318331
0.0684263
0.13019
0.0270828
0.0256072
0.00760983
0.00513184
0.0359938
0.224599
0.360375
0.315754
0.276361
0.0415975
0.117625
0.0231301
0.0190988
0.0147013
0.0282551
0.0215084
0.199687
0.098122
0.0184636
0.0566163
0.0193426
0.0848113
0.0616663
0.138816
0.133638
0.487902
0.162971
0.0277847
0.0400446
0.0144932
0.0231267
0.0829561
0.0577718
0.218186
0.257983
0.28921
0.0687051
0.0458741
0.0332629
0.0986932
0.130463
0.017602
0.0786472
0.450121
0.032884
0.009688
0.112948
0.0449228
0.0715735
0.0318195
0.0477667
0.0724756
0.406267
0.0264083
0.0459375
0.219933
0.2076
0.20537
0.0649703
0.0369993
0.027081
0.272322
0.109529
0.0243484
0.116326
0.0617941
0.183849
0.125457
0.116779
0.033736
0.297892
0.0271726
0.0646715
0.208645
0.27292
0.3362
0.16397
0.252114
0.0282509
0.128644
0.0027775
0.0157557
0.0371375
0.177196
0.383502
0.0279784
0.00842218
0.00116976
0.0276789
0
0.00247985
0.0142134
0.185519
0.466241
0.0254929
0.0351063
0.0105968
0
0.00104875
0.0204461
0.0315739
0.321086
0.375651
0.0414712
0.0474192
0.00238322
0.00478136
0
0.0143185
0.0472032
0.263299
0.429702
0.0208736
0.0219545
0.0161615
0.0035863
0.0413417
0.00741235
0.0399769
0.183643
0.203699
0.0645176
0.177148
0.0909621
0.0598016
0.131396
0.00748144
0.0260582
0.0881184
0.0567237
0.0423566
0.298969
0.341319
0.276756
0.00829465
0.0518864
0.0901695
0.124549
0.217085
0.0756866
0.185831
0.100172
0.0274251
0.0356344
0.0361886
0.0665232
0.150388
0.220705
0.162663
0.37825
0.322881
0.121438
0.0282708
0.0103551
0.0800294
0.028437
0.10823
0.0736279
0.2406
0.185951
0.0564382
0.0217801
0.00508655
0.00154276
0.000661181
0.0084822
0.0685666
0.26035
0.318902
0.0504479
0.00745754
0.0128965
0.0578516
0.0319201
0.111612
0.109865
0.258407
0.276863
0.0354062
0.00421033
0.00211802
0.00417411
0
0.00754634
0.0666752
0.336434
0.582003
0.0260831
0.0120462
0.015056
0
0
0.00294621
0.0386348
0.147285
0.248787
0.0196759
0.0198928
0.00903358
0
0
0.000420888
0.013899
0.235166
0.384584
0.0246509
0.00312378
0.00215085
0
0
0.00491036
0.0417716
0.225472
0.455182
0.0296913
0.00905921
0.00129051
0
0
0.00070148
0.00827898
0.293552
0.534365
0.041961
0.00956539
0
0
0
0
0.0223614
0.225014
0.270387
0.0102579
0.00460633
0
0
0
0
0.0292522
0.320046
0.404311
0.0470769
0.00300797
0
0
0
0
0.00711852
0.284464
0.342618
0.0135987
0.000130992
0
0
0
0.00153762
0.0364689
0.400143
0.419956
0.0318976
0.000418486
0
0
0
0.00202697
0.0110125
0.177663
0.308788
0.0398959
0
0
0
0
0.00948494
0.031748
0.37675
0.503726
0.0261201
0
0
0
0
0.00111349
0.0210333
0.205773
0.249709
0.0366273
0
0
0
0
0.000159069
0.012305
0.327708
0.450779
0.0317732
0.00707041
0
0
0
0.00259863
0.0195112
0.280884
0.330286
0.0690504
0.0499655
0.000408217
0.000329414
0.00625887
0.0552414
0.0303164
0.188935
0.309662
0.253341
0.00313679
0
0
0
0
0.00779097
0.23573
0.389066
0.0358352
0.0168379
0
0.0023059
0.0438121
0.0808651
0.0184465
0.313381
0.470712
0.133887
0.067462
0.0179246
0.0754267
0.0868249
0.121711
0.0876093
0.146603
0.180444
0.185079
0.24322
0.109375
0.124882
0.170382
0.0578112
0.0670313
0.0386414
0.0461009
0.381887
0.0305634
0.0149791
0.127348
0.175646
0.155933
0.0515035
0.350157
0.267515
0.202891
0.103322
0.073828
0.206443
0.249012
0.0657562
0.0463663
0.128063
0.0901616
0.259202
0.180604
0.043736
0.0315739
0.0517498
0.0941957
0.082157
0.0531182
0.0103493
0.517505
0.0850367
0.0158531
0.0353625
0.198656
0.32943
0.140027
0.114363
0.0117541
0.276563
0.0778965
0.028682
0.0307746
0.0599695
0.0195406
0.0183586
0.0109139
0.0329332
0.299269
0.0713833
0.010243
0.0100554
0.1577
0.407326
0.016932
0.00631216
0.0331928
0.194485
0.0109364
0.00509839
0.00790114
0.306751
0.323552
0.0319121
0.0210481
0.00163445
0.0141381
0.00212779
0.0110767
0.0343035
0.279517
0.272093
0.013171
0.00139272
0.00320655
0.0117811
0.0145524
0.00303837
0.00329308
0.25894
0.564145
0.00715665
0.000983975
0.00642647
0.0128464
0.00354631
0.0260982
0.0329637
0.203366
0.388782
0.0255388
0.00367764
0.000372037
0.00706867
0.0354005
0.0519353
0.0885395
0.190074
0.198
0.074994
0.0498707
0.0316641
0.121505
0.149657
0.0325411
0.0511334
0.113491
0.180307
0.250007
0.170397
0.284818
0.523835
0.0522489
0.0686408
0.0820127
0.117193
0.165711
0.0305662
0.0168784
0.00760451
0.0787243
0.17999
0.0584113
0.032403
0.0314833
0.03703
0.0660364
0.0360107
0.0603762
0.382685
0.0097381
0.00829223
0.0167334
0.0181567
0.0415952
0.10127
0.23671
0.20007
0.0154125
0.0220674
0.00155097
0.00465291
0
0.00160615
0.0141506
0.213194
0.345859
0.0201676
0.051961
0.00191976
0.0187245
0.0313516
0.069868
0.0578496
0.385252
0.254082
0.0674625
0.0269489
0.000221567
0.000664701
0
0.000580901
0.0282158
0.494977
0.413899
0.0220057
0.0151293
0
0
0
0.000794191
0.00632243
0.146015
0.396174
0.0267722
0.00158583
0
0
0
0.000113456
0.00265791
0.287017
0.51037
0.0410614
0.0211023
0
0.0009291
4.88999e-005
0.00418479
0.0115462
0.232732
0.318586
0.0258659
0.00232968
0
0.0065037
0.00253994
0.00709032
0.0182677
0.323757
0.356326
0.0321084
0.000754555
0
0
0.00157255
0.000524183
0.00413351
0.281728
0.313188
0.023342
0.000452733
0
0.0102156
0.0335494
0.035261
0.0874038
0.346395
0.32266
0.0378108
0.00606722
0.0209838
0.00226062
0.0132033
0.00467042
0.0102096
0.353826
0.305067
0.0138049
0.0320438
0.124299
0.0578709
0.295811
0.0763965
0.104275
0.313297
0.249482
0.0161242
0
0
0.0288642
0.0372315
0.0376082
0.0806596
0.212349
0.286891
0.0688769
0
0
0.0168284
0.0103398
0.00601403
0.055416
0.36652
0.493497
0.0576999
0.0123197
0.0487491
0.0978297
0.31849
0.0755293
0.0915786
0.0992296
0.125099
0.0512438
0
0
0.0384462
0.0843806
0.0569392
0.106138
0.224875
0.384759
0.0814392
0
0
0.00400717
0.00267145
0
0.0399052
0.212854
0.33796
0.0141137
0
0
0.00818942
0.0331578
0.017972
0.0173234
0.338887
0.553056
0.0458655
0.000178814
0
0.0299548
0.0809511
0.09329
0.113507
0.185449
0.216018
0.016526
0.0012517
0
0.0499246
0.11208
0.0651903
0.0679917
0.317521
0.325442
0.0258665
0.00944087
0.00278479
0.0251237
0.0313468
0.014597
0.0123072
0.251065
0.28753
0.0580867
0.0168019
0.00501062
0.0390563
0.026336
0.0110433
0.0136164
0.229538
0.300868
0.0567939
0.00168922
0.000238005
0.00499659
0.00993156
0.00144123
0.00907774
0.228279
0.307841
0.0245273
0.00232696
0.000449432
0
0
0
0.00269203
0.367115
0.59699
0.0435177
0.00591776
0.00209399
0.00633368
0.00728677
0.00397926
0.00547243
0.0859712
0.159052
0.0274517
0.00620831
0.00185767
0.00074952
0.0805254
0.31326
0.00961239
0.0205337
0.0578004
0.0198324
0.000614276
0.000233128
6.42445e-005
0.000578202
0
0.00252825
0.322078
0.576014
0.055792
0.0181753
0.0121169
0.000449712
0.152538
0.355168
0.0156691
0.195839
0.396171
0.0868629
0.00172261
0.000419207
0.000274358
0.146916
0.499005
0.00506038
0.00148785
0.00569524
0.00284508
0.00751915
0.00966998
0.0171545
0.103144
0.344793
0.011263
0.0101915
0.00232929
0.00327161
0.0179328
0.0119552
0.000164615
0.21152
0.583813
0.0128191
0.0257355
0.0581687
0.0249521
0.0142783
0.00180789
0.00190012
0.105646
0.358725
0.0273509
0.0284445
0.0296162
0.0120708
0.0740265
0.0529272
0.0796077
0.18526
0.306731
0.0250515
0.0460504
0.0110133
0.0242239
0.16474
0.0798198
0.0391244
0.166819
0.106099
0.110353
0.0510386
0.023393
0.0577399
0.0812646
0.00927386
0.00771667
0.256594
0.272529
0.0631473
0.0774867
0.115793
0.0496031
0.386947
0.0550107
0.0342969
0.278439
0.34579
0.168033
0.0421411
0.0762119
0.0429743
0.023493
0
0.012409
0.0105114
0.0496952
0.0628827
0.243423
0.108801
0.024517
0.00258663
0
0
0
0.00139972
0.0528775
0.510174
0.262888
0.00314003
0.0067369
0.00200762
0.00245827
0.0079573
0.0245755
0.0562206
0.22476
0.0720791
0.00209788
0
0
0
0
0.000839829
0.0455088
0.647449
0.194263
0.00243629
0.00177467
0
0.00176266
9.27716e-005
0.00292069
0.0154037
0.288828
0.198188
0.0131722
0.000203399
0
0.0123386
0.0048187
0.00508726
0.00778466
0.163602
0.148331
0.0217666
0
0
0.0010576
5.5663e-005
0.000417242
0.0159185
0.540219
0.261316
0.00917475
0
0
0.00740318
0.00289122
0.000827066
0.00299955
0.533516
0.340315
0.0126783
0.0206275
0.0551608
0.0177205
0.0201881
0.0331574
0.00684101
0.223642
0.203555
0.0124305
0.112554
0.296732
0.134231
0.305382
0.0779621
0.021699
0.171873
0.151639
0.00523095
0.0112677
0.023117
0.0204251
0.0350355
0.152369
0.0407504
0.44992
0.283278
0.00822026
0.0688112
0.119235
0.126496
0.247257
0.282231
0.088922
0.114591
0.067307
0.0138093
0.0510752
0.134116
0.139583
0.360099
0.042605
0.0254788
0.0489269
0.0644136
0.0308047
0.00452616
0.00345415
0.0466579
0.188354
0.198312
0.158186
0.101495
0.196727
0.0828653
0.050086
0.0626383
0.0814479
0.15848
0.0700586
0.0691668
0.08025
0.0491247
0.043292
0.0316831
0.00575692
0.164169
0.580827
0.232414
0.129318
0.0875487
0.0717562
0.107323
0.00591631
0.00115511
0.0288367
0.186482
0.287414
0.107044
0.0609281
0.0541881
0.0162453
0.0567529
0.00591162
0.0373021
0.175178
0.226334
0.0641845
0.218622
0.102983
0.0474888
0.0118341
0.00642927
0.132869
0.494278
0.327897
0.0572756
0.0079291
0.00669608
0.0209887
0.106633
0.0549261
0.104479
0.292564
0.354016
0.0483855
0.0579222
0.0689342
0.0834554
0.0399794
0.00265515
0.00742803
0.0243758
0.0169726
0.0312549
0.31215
0.220839
0.0363382
0.00327454
0
0
0.00885175
0.000983526
0.0267142
0.406194
0.509129
0.0698542
0.0848182
0.0351227
0.0228094
0.0998015
0.158475
0.0369406
0.159038
0.16391
0.0763255
0.0196992
0.00617144
0
0.0982557
0.134204
0.105294
0.327494
0.261965
0.0402516
0.00331557
0
0
0.000854985
9.49983e-005
0.00539083
0.257532
0.437219
0.0785198
0.126673
0.0404275
0.00331309
0.125316
0.145911
0.00304595
0.267185
0.483459
0.132026
0.0174515
0.00738977
0
0.00803795
0.0209684
0.0649231
0.218131
0.211843
0.0461998
0.159607
0.0286904
0.0231916
0.0317986
0.0330482
0.0318276
0.272285
0.250489
0.126125
0.208668
0.0826123
0.0194194
0.282132
0.468508
0.00838098
0.0862157
0.16011
0.0998017
0.0793556
0.0484866
0.024075
0.129101
0.293696
0.0312702
0.0942475
0.0521036
0.0579744
0.317899
0.0726159
0.0777144
0.0913458
0.115713
0.0145546
0.138406
0.118912
0.154888
0.314169
0.101231
0.0714891
0.0608783
0.133414
0.0173806
0.127938
0.049078
0.14282
0.0304463
0.0138084
0.00459896
0.0791511
0.133738
0.0352878
0.109902
0.0670586
0.0312233
0.15406
0.0266773
0.0487019
0.152969
0.454988
0.163018
0.0189846
0.0400062
0.019321
0.126384
0.0408705
0.0130379
0.0312018
0.160017
0.0414022
0.183111
0.0660354
0.0867041
0.0578707
0.0717415
0.0292212
0.146072
0.5214
0.278382
0.062804
0.186326
0.0793473
0.0371425
0.00459295
0.00289893
0.00663817
0.00722137
0.0193765
0.139509
0.0481228
0.0349652
0.040194
0
0
0
0
0.0183685
0.415915
0.18313
0.0605041
0.180107
0.243761
0.0123084
0.157919
0.0217132
0.0232381
0.0824218
0.0786615
0.267795
0.259254
0.145225
0.00150986
0.0277661
0.0233266
0.137153
0.313973
0.183483
0.471046
0.00469717
0
0
0
0
0.00414291
0.309873
0.202225
0.0178988
0.0127573
0
0
0
0.000802626
0.00914752
0.520255
0.325942
0.0111757
0.0381941
0.0417705
0.0200242
0.0358732
0.0514752
0.0621283
0.174238
0.180092
0.0935453
0.17388
0.260393
0.140169
0.0555379
0.0466618
0.0197191
0.275501
0.350696
0.100393
0.0189546
0
0.00131293
0.0132019
0.064695
0.114731
0.315014
0.153666
0.0140122
0.0082707
0.00126607
0.00987223
0.0677225
0.147819
0.236006
0.110555
0.0364375
0.0112604
0.21789
0.150157
0.0565376
0.0435626
0.0643838
0.16196
0.291916
0.319987
0.158314
0.0692989
0.0127467
0
0.058797
0.182464
0.421943
0.291445
0.229171
0.112774
0.00612461
0.00194684
0.0074353
0.0396975
0.0569432
0.116403
0.0620119
0.0293527
0.0239035
0.00772524
0.000516393
0.0587776
0.280141
0.283295
0.143036
0.0627326
0.0139715
0.0307321
0.0164241
0.000864423
0.000170755
0.0313154
0.100197
0.213739
0.132831
0.116582
0.153862
0.00234629
0.000123489
0.00695085
0.434928
0.581904
0.179407
0.0594916
0.0509118
0.0885669
0.0023018
0.00219735
0.0733386
0.326013
0.319311
0.0690135
0.012886
0.0010717
0.00541717
0.0441954
0.0289047
0.0527803
0.199178
0.27337
0.130919
0.0420556
0.0504035
0.0410809
0.00787187
0
0.00752393
0.304678
0.513129
0.129432
0.0324177
0.00610644
0.0146723
0.0903456
0.00710921
0.023895
0.0761059
0.239536
0.218064
0.113491
0.0949712
0.197549
0.0609964
0.0320783
0.0228643
0.150422
0.298459
0.110054
0.0494826
0.0996248
0.0610361
0.0476451
0.017627
0.00750838
0.137614
0.349128
0.133259
0.0882607
0.0755951
0.0414906
0.129985
0.0248254
0.0877449
0.0925579
0.256031
0.16387
0.0625288
0.117328
0.318516
0.0990868
0.0256223
0.0635423
0.183237
0.48233
0.114008
0.00447377
0.0186489
0.146679
0.0736069
0.0432792
0
0.0190224
0.154397
0.132526
0.186692
0.12784
0.0588534
0.0704303
0.0308744
0.0298313
0.0115896
0.0790667
0.112811
0.425129
0.255893
0.0901728
0.0896465
0.0313933
0.042158
0.0927452
0.375304
0.106772
0.0228213
0.0564922
0.0956703
0.163138
0.0513542
0.307852
0.0515015
0.22792
0.15032
0.18718
0.195174
0.129903
0.112564
0.0607471
0.0905693
0.0226303
0.0673966
0.0638058
0.217359
0.197246
0.0741056
0.293251
0.163906
0.106301
0.0368877
0.0990568
0.0257821
0.192387
0.132185
0.0944311
0.214573
0.106806
0.242318
0.0218992
0.119749
0.0793234
0.133646
0.194044
0.160065
0.299715
0.169125
0.101506
0.0372194
0.109533
0.12726
0.241171
0.155859
0.279073
0.117573
0.0744518
0.0282501
0.0141567
0.0464445
0.0288488
0.186286
0.0950374
0.10418
0.198297
0.256976
0.061037
0.0524083
0.109471
0.116427
0.0579219
0.127839
0.122775
0.118659
0.123649
0.0909534
0.0997689
0.0201552
0.125227
0.2695
0.0964374
0.175453
0.322944
0.346379
0.213314
0.284606
0.0213342
0.0369565
0.0938646
0.115487
0.242169