0.141728
0.00149906
0.0185675
0.0344825
0.105279
0
0.00171265
0.0825528
0.215141
0.021272
0
0.0189974
0.011931
0.0473064
0
0.00102759
0.0121604
0.021272
0.300628
0.0104934
0
0
0.229406
0.246645
0.0633958
0.412278
0.141729
0.407865
0.0137587
0.114414
0.285148
0.228557
0.110288
0.00719312
0.0899528
0.0812904
0.0322635
0
0.0194384
0.0268729
0.0237561
0
0
0
0.0322635
0.266613
0.0147211
0.0116631
0.163403
0.158544
0
0
0
0.0609056
0.132674
0.100915
0.145464
0.193817
0.173228
0
0
0
0.0715671
0.478269
0.195088
0.0972992
0.322828
0.509731
0
0
0
0.138856
0.312179
0.0282349
0
0.169362
0.284933
0
0
0
0.0649456
0.277146
0.0854611
0.0466958
0.195061
0.295265
0
0
0
0.11412
0.452271
0.070482
0.00235499
0.240461
0.334607
0
0
0
0.0820432
0.206358
0.00704101
0.00667083
0.105926
0.140531
0
0
0
0.0890586
0.474146
0.147885
0.162665
0.389001
0.32002
0
0
0
0.182994
0.29132
0.0689354
0.0232379
0.0812188
0.184351
0
0
0
0.0845134
0.152211
0
0.0232379
0.0465091
0.024397
0
0
0
0.0679486
0.00641466
0
0.0033197
0.00616515
0
0
0
0
0.00641466
0.0379486
0.0106162
0
0
0.0409736
0
0
0
0.00610013
0
0
0
0.00227772
0.00911086
0
0
0
0
0
0
0.00173485
0.00115657
0
0
0
0
0
0.027046
0.631249
0.539034
0.02404
0.0637761
0
0
0
0
1.78111e-005
0.0106225
0.0409744
0.035674
0.039079
0
0
0
1.78111e-005
0.00552622
0.0809591
0.419608
0.142072
0.219833
0.0451926
0.0232914
0
0.000124678
0.00303806
0.200834
0.269113
0.100954
0.0493499
0
0
0
0
0.0501496
0.418617
0.497254
0.357894
0.109653
0.0228247
0.038819
0
0
0.00606776
0.0378233
0.31627
0.121786
0.245092
0.0997379
0.0374094
0
5.10896e-005
0.00609034
0.0201617
0.0821699
0.206782
0.23959
0.170469
0.0437774
0
0
0.0689643
0.238594
0.350928
0.253211
0.129227
0.0324731
0.0589017
0
0
0.0684758
0.269496
0.221915
0.380713
0.270893
0.0706852
0.0505908
0
0.00075095
0.0480312
0.0939873
0.0457205
0.109434
0.0793265
0.0911142
0.0585029
0.022003
0.0193337
0.0926867
0.276055
0.0344811
0.0174771
0.00802419
0.0176179
0.0450442
0.0881836
0.158001
0.173529
0.524676
0.077809
0.185766
0.0913223
0.0594586
0.0244192
0.00216305
0.0141209
0.264439
0.568182
0.069504
0.0284158
0.0396847
0.0355755
0.0400683
0.0135255
0.129649
0.0892051
0.184628
0.0193275
0.00939248
0.00687603
0.0407963
0.0186218
0.0652067
0.240514
0.191988
0.0614445
0.0214976
0.0680394
0.0345038
0.0651702
0.0113679
0.0143052
0.288957
0.132604
0.354246
0.0267859
0.0260479
0.243814
0.182759
0.111018
0.0197204
0.173215
0.105541
0.0765166
0.0336618
0.135469
0.515808
0.30528
0.085384
0.0624515
0.115602
0.16214
0.0286262
0.0635941
0.12393
0.117966
0.0973185
0.0220239
0.0911996
0.0910118
0.295673
0.0599287
0.0531081
0.276063
0.231915
0.0435163
0.00104411
0.0175364
0.0627029
0.187429
0.287124
0.150669
0.310401
0.161729
0.0204822
0.00289768
0.0217582
0.0804453
0.196629
0.377188
0.0788098
0.30454
0.221327
0.00621662
0
0.00310831
0.0503778
0.288752
0.249101
0.1097
0.35172
0.291211
0
0
0
0.0743199
0.34481
0.333637
0.0838079
0.12866
0.295583
0
0
0
0.122851
0.164698
0.158137
0.00704233
0.188696
0.166045
0
0
0
0.0600454
0.0701249
0.0662948
0.00410279
0.00829706
0.00754726
0
0
0
0.0260705
0.631861
0.195795
0.0124362
0.174783
0.314904
0
0
0
0.156602
0.116393
0.0119813
0
0.0617665
0.0416488
0
0
0
0.0484985
0.0185715
0.0159895
0.00177661
0
0
0
0
0
0.0185715
0
0
0
0
0
0
0
0
0
0.00384459
0
0
0
0
0
0
0
0.00384459
0
0
0.00446224
0.000234855
0
0
0
0
0
0.0288452
0.011982
0
0
0
0
0
0
0.000887119
0.313115
0.289632
0.740323
0.0671965
0
0
0
0
0.00147853
0.00154558
0.0112824
0.0395587
0.00236228
0
0
0
0
0
0.00521544
0.215833
0.404142
0.0122841
0.00228969
0
0
0
0
0.0240286
0.100012
0.449876
0.0348919
0
0
0
0
2.28177e-005
0.01809
0.380317
0.603518
0.0733024
0
0
0
0
0.000677978
0.00564
0.232567
0.384118
0.0276305
0.00655305
0
0
0
0.000486604
0.0305626
0.282414
0.41406
0.107396
0.00662057
0.000395479
0.00355932
0
0.00135211
0.0455401
0.229999
0.41406
0.016837
0
0
0
0
0.00701825
0.136943
0.273571
0.41406
0.0184961
0
0
0
0
0.0261974
0.0576357
0.200664
0.332004
0.0797295
0.0214693
0.000598744
0.00622293
0
0.00417189
0.111559
0.327432
0.243649
0.0803664
0.0837298
0.0151926
0.0082976
0
0.0202666
0.179816
0.312505
0.307661
0.0179336
0.000906296
0
0
0
0.0345103
0.290266
0.46783
0.260114
0.00604051
0.00814932
0
0
0.00575009
0.0528889
0.170034
0.400853
0.0553668
0.0321657
0.031935
0.0165285
0.00573439
0.0110227
0.0263986
0.179865
0.331512
0.0180314
0.00844525
0.0905867
0.0271213
0.0132506
0.0410075
0.0688264
0.207738
0.475852
0.0852848
0.00292387
0.0971715
0.0094017
0
0.0717228
0.0634992
0.119569
0.191603
0.00977244
0.0153051
0.475852
0.0399846
0.000364246
0.138648
0.069164
0.0477315
0.0721212
0.00317312
0.0348444
0.356623
0.0804938
0.0379043
0.0158165
0.0436367
0.0307478
0.00829082
0.00360144
0.0604373
0.467401
0.170887
0.0553265
0.0558177
0.0649797
0.0231546
0.011968
0
0.0403842
0.530329
0.0541337
0.00536899
0.0336562
0.015184
0.113571
0.0475542
0.0029082
0.045868
0.461527
0.101071
0.0367522
0.0244195
0.0929934
0.271853
0.458608
0.0911256
0.303222
0.37009
0.0478967
0
0
0.08927
0.0878318
0.451124
0.0432555
0.110124
0.0834335
0
0
0
0.0184741
0.125971
0.0553546
0
0.0757867
0.160379
0.028738
0
0
0.0556989
0.0129473
0.0199439
0
0
0.0175724
0
0
0
0.00629937
0.0581266
0.11162
0.00587474
0.0616259
0.115146
0
0
0
0.0581266
0.0612893
0
0
0
0.115906
0
0
0
0.0612893
0.0725538
0
0
0
0.115906
0
0
0
0.0628198
0.606962
0.25868
0
0
0.193176
0
0
0
0.182674
0.00123889
0
0
0
0.00397555
0
0
0
0.00123889
0.0200777
0.0177067
0.000931931
0
0
0
0
0
0.0103699
0.125304
0.228893
0.0128494
0
0.00662592
0
0
0
0.0513138
0.288406
0.851996
0.143249
0
0
0
0
0
0.123454
0.0168997
0.0664072
0.0326849
0
0
0
0
0
0.00551711
0.0702353
0.342475
0.219466
0.00632964
0
0
0
0
0.00231078
0.119836
0.5347
0.16244
0
0
0
0
0
0.0318097
0.195344
0.5347
0.344962
0.000895967
0
0
0
0
0.0170323
0.0375175
0.265846
0.331678
0.0172232
0
0
0
0
0.00301395
0.0659641
0.256566
0.4228
0.0226488
0
0
0
0
0.0137709
0.141652
0.4228
0.218894
0.00195197
0
0
0
0
0.0157839
0.214079
0.4228
0.230729
0.00605662
0
0
0
0.00609214
0.0351707
0.120653
0.223939
0.274755
0.00614781
0
0
0
0
0.0175666
0.21626
0.395886
0.222249
0.00216944
0
0.000160277
8.43568e-006
0
0.0363856
0.16982
0.465051
0.179642
0.00850474
0.00198517
0.00106894
0
0.0215867
0.0287496
0.152205
0.465051
0.182428
0.0030626
0.0384624
0.0274119
0.000403352
0.023407
0.0708234
0.246031
0.495925
0.172182
0.00266186
9.84594e-005
0.000675851
6.4197e-005
0.000153287
0.0355996
0.276637
0.542259
0.175085
0.00384242
0.0126742
0.00294114
0.000355177
0.00875137
0.0296429
0.150932
0.354063
0.0960658
0.00194834
0.0488865
0.0352849
0.00173765
0.0104363
0.0456661
0.123152
0.154214
0.041495
0.0109049
0.0436276
0.0141213
0.00364291
0.00775751
0.0240119
0.0880914
0.244877
0.0477859
0.00990265
0.210169
0.0116352
0.000169388
0.0392529
0.0327253
0.0171967
0.061061
0.00360373
0.014475
0.585938
0.0354803
1.35982e-005
0.0506888
0.0258395
0.0249857
0.0261694
0.00756923
0.0182561
0.35521
0.0127941
0.00152451
0.00478562
0.00946277
0.00119406
0.00175494
0.00148375
0.0264773
0.585938
0.0313298
0.000143588
0.0018042
0.00238034
0.00471815
0.0033597
0
0.0146756
0.534139
0.0411896
0.000656615
0.00879442
0.00375743
0.0611943
0.0448888
0.0242412
0.0500515
0.298932
0.0410294
0.00459631
0.0123501
0.0321345
0.00010971
0.000255991
0.0155556
0.0319409
0.53456
0.0521238
0
0.0023672
0.00289325
0.0301111
0.0116315
0.298865
0.155333
0.384408
0.0734245
0
0.0165704
0.0337675
0.0528987
0.00708148
0
0
0.00337023
0
0
0.0118466
0.0566183
0.0414318
0.0102752
0
0
0.00119608
0
0
0.0197443
0.0436636
0.419804
0.0523057
0.00234183
0
0.000556717
0
0
0.201317
0.456005
0.394921
0.242602
0.058059
0.0058132
0.000760946
0
0
0.230405
0.480028
0.0337149
0.0633512
0.00776162
0
0.00102007
0
0
0.00180329
0.0108462
0.117521
0.364329
0.0515837
0
0.00163481
0
0
0
0.0121433
0.223764
0.549852
0.0845247
0.0106641
6.53044e-005
0
0
0.0209438
0.0933023
0.241276
0.57232
0.182321
0.0144798
0
0
0
0.00842915
0.0283056
0.104708
0.385261
0.0341754
0
0.000306328
0
0
0
0.0184176
0.168949
0.461929
0.0649313
0
0
0
0
0.000998291
0.0320764
0.147928
0.461929
0.104214
0.0199916
0
0
0
0.000830062
0.011599
0.24599
0.461929
0.157798
0.0260801
0
0
0.00269243
0.00213895
0.0117305
0.145702
0.428604
0.0885275
0
0
0
0
0.000987439
0.0168401
0.19431
0.428604
0.134189
0
0
0
0
0.000141063
0.0135034
0.195301
0.428604
0.103417
0.0074752
0
0
0.00266316
0.00224355
0.00933017
0.227859
0.428604
0.177263
0.0709241
0
0
0.00512478
0.000515324
0.0102838
0.168467
0.386594
0.0941808
0
0
0
0
0
0.0081707
0.219005
0.408025
0.134237
0.0135516
0
0
0
0.00621676
0.0121541
0.205762
0.386527
0.152994
0.0601357
0
0
0.014156
0.00283658
0.0101088
0.385188
0.40024
0.0982695
0.0161504
0
0
0.00949162
0.00556647
0.0482549
0.158691
0.499212
0.206326
0.0328164
0.0117555
0.0131714
0.00425849
0.0322986
0.0213104
0.090956
0.32225
0.116243
0.0118174
0.138452
0.115462
0.0282222
0.0774349
0.097522
0.302933
0.368904
0.143326
0.0204922
0.0114219
0.0330375
0.0309396
0.0231752
0.0596807
0.22221
0.154525
0.0804811
0.00720503
0.104401
0.137164
0.123254
0.147789
0.223069
0.0904782
0.0545661
0.00831651
0.00108303
0.106254
0.0765944
0.0230656
0.0599469
0.127573
0.127812
0.00334389
0.00558482
0.0213768
0.0418422
0.0102366
0.00634402
0.0168301
0.192867
0.307125
0.00771503
0.0115282
0.0488795
0.0639134
0.0593959
0.0588901
0.136164
0.426487
0.335681
0
0.0885029
0.357501
0.0709298
0.00819591
0.0152954
0.0748175
0.518481
0.0331402
0.000963138
0.00897576
0.0351234
0.253268
0.00389366
0.00107147
0.00167004
0.0534715
0.00252819
0.000137591
0.00513263
0.0331681
0.590108
0.0137915
0.00012545
0.000227215
0.00378085
0.0669561
0
0.0526632
0.193661
0.335954
0.0142597
0.00804346
0.00776106
0.1079
0.00371659
0
0.00964116
0.0572782
0.590108
0.0402342
0.00114907
0.000232151
0.00498223
0
0
0.0180795
0.0605412
0.551637
0.0405364
0
0.00301573
0.00374745
0.0433382
0.0352299
0.254655
0.179282
0.233186
0.0680395
0
0.0211101
0.0689627
0
0.00368555
0.00581018
0.0702087
0.569231
0.0458946
0
0.00937535
0.00605546
0.0683001
0.141432
0.0584457
0.156537
0.274496
0.0238842
0
0.0656275
0.0745816
0.313413
0.0596095
0.0270007
0.0232725
0.0299176
0.0138881
0.0436312
0.184864
0.284682
0.220309
0.190473
0.165593
0.0618344
0.0628139
0.00833286
0.0276834
0.170283
0.272393
0.205802
0.0937609
0.117299
0.161615
0.239414
0.098068
0.122099
0.113202
0.108625
0.0526482
0.0526647
0.256273
0.306259
0.329017
0.0642891
0.075767
0.102213
0.108412
0.190483
0.496126
0.17222
0.0526185
0.0237039
0
0.0132143
0.0705889
0.0931955
0.16905
0.596518
0.153671
0.0624933
0.0153082
0
0.0167742
0.099451
0.0638343
0.0239389
0.0644605
0.137581
0.0866342
0.0694301
0.00289856
0.0468841
0.131539
0.141189
0.039774
0.0333287
0.0793065
0.0452411
0.0255136
0.0030396
0.116759
0.251451
0.146938
0.0851787
0.275852
0.202853
0.10957
0.0335808
0
0.0122263
0.0620527
0.0250956
0.134022
0.401328
0.311941
0.133331
0.0201485
0
0.0358349
0.194835
0.0177071
0.0243539
0.0131775
0.118196
0.0770514
0.0559679
0.00998159
0.0816896
0.218433
0.0620279
0.0104339
0.0389646
0.10615
0.0845038
0.0335808
0.0173999
0.135883
0.583102
0.0642316
0.124322
0.290308
0.097277
0.0465036
0.00427627
0
0.0221107
0.123351
0.0133063
0.118294
0.19136
0.142116
0.265615
0.0242688
0
0.0786314
0.0607926
0.0135164
0.0138495
0.0191139
0.0158518
0.0409043
0.00712711
0.00496949
0.0655061
0.54463
0.061247
0.00790671
0.00461028
0.019597
0.170912
0.040448
0.000467564
0.173013
0.537952
0.0956338
0.107613
0.164338
0.180311
0.193527
0.00896132
0
0.170875
0.0810749
0.0128962
0.281697
0.190849
0.0790164
0.023612
0
0
0.129171
0.107416
0.108982
0.0116831
0.00776784
0.0295004
0.0997391
0.0149355
0.00184785
0.334376
0.361557
0.0838047
0.166769
0.0161107
0.0116751
0.0103961
0.00520786
0.00734072
0.254621
0.372703
0.380607
0.231651
0.136608
0.0252648
0.00327565
0.00138747
0.0137264
0.0408066
0.0528959
0.164587
0.214109
0.0669174
0.0211355
0.0143163
0.0139026
0.0384503
0.073906
0.0855853
0.244795
0.257291
0.027733
0.00551019
0.00196539
0.0403522
0.0854396
0.0675377
0.264117
0.464719
0.301472
0.381733
0.109272
0.0233614
0.0476024
0.140116
0.0672972
0.165874
0.171614
0.162956
0.0241812
0.0521898
0.146887
0.0110227
0.01156
0.0256364
0.0572704
0.180081
0.108063
0.0152091
0.171101
0.514858
0.0370584
0.0247401
0.107715
0.0672114
0.150053
0.299664
0.296723
0.128216
0.145395
0.00828645
0.0197491
0.0269941
0.0153111
0.044177
0.251792
0.169146
0.177637
0.368279
0.037641
0.032377
0.149447
0.0168655
0.0646844
0.0144937
0.000968163
0.0643737
0.184463
0.2525
0.0308578
0.0572591
0.0178806
0.0251449
0.00048835
0
0.00590458
0.0351007
0.593337
0.0429749
0.00567744
0.00509231
0.000596873
0.0320503
0.032853
0.0493561
0.116732
0.303752
0.0425002
0.071543
0.0158601
0.0208086
0.00515688
0.0026099
0.0127529
0.0506204
0.593337
0.068617
0.0314586
0.00788495
0.0198096
0
0.0035597
0.00359874
0.0525272
0.523825
0.0268792
0
0.00268627
0.000953842
0.0336867
0.104189
0.0342047
0.116601
0.272882
0.020659
0.0191691
0.0196941
0.00922439
0.00462981
0.000508529
0.0394296
0.130593
0.546427
0.0465539
0.0277155
0
0.0138894
0.00748033
0.0284845
0.0465925
0.171722
0.454198
0.0651078
0.0479343
0.0014837
0.00198421
0.0381061
0.0693436
0.324869
0.191096
0.190846
0.0365237
0.0303059
0.0133374
0.0181224
0.0119697
0.0270116
0.2019
0.287676
0.232382
0.0645433
0.0185091
0.0337349
0.0681796
0.00592357
0.217726
0.538881
0.269182
0.0645552
0.00133177
0
0.00528848
0.00619442
0.00867923
0.0609253
0.236877
0.253113
0.13702
0.0980651
0.00329702
0.0408198
0.045706
0.0289579
0.0153712
0.0430541
0.0973224
0.0872224
0.0873787
0.110577
0.14442
0.206162
0.0440186
0.0092227
0.011209
0.00290013
0.0367408
0.111114
0.367386
0.230844
0.134449
0.02938
0.034678
0.0114672
0.139998
0.246073
0.287845
0.141241
0.087307
0.074208
0.0204841
0.0304701
0
0.10116
0.371875
0.310976
0.366571
0.0845458
0.024245
0.0404029
0
0.0109055
0.00436305
0.024318
0.0808844
0.18794
0.202222
0.0966151
0.0151568
0
0.00155792
0.00173806
0.00870234
0.0511112
0.188974
0.656871
0.155382
0.0156538
0.00198807
0
0.0254939
0.139966
0.184045
0.232897
0.0728424
0.0527048
0.0178068
0
0
0.00249479
0.0102635
0.0798095
0.239885
0.34743
0.154107
0.000747506
0
0
0.00294272
0.00103235
0.0120098
0.0877905
0.421575
0.0565124
0
0
0
0.00829037
0.00585884
0.00344687
0.126656
0.572242
0.0894405
0.00142496
0
0
0.00049385
0.000740775
0.014818
0.0912562
0.243398
0.0998064
0.00125381
0
0
0
0
0.0117958
0.147638
0.535314
0.130164
0.00595975
0.00306588
0
0.00189563
0.00180819
0.00555764
0.130906
0.387119
0.0741091
0.0956436
0.0214612
0
0.00466921
0.0196676
0.0179851
0.107318
0.336804
0.25955
0.00201173
0.00183953
0
0
0
0.0169563
0.133111
0.464669
0.0547212
0.0182073
0.0128767
0
0.00778202
0.0192713
0.0273315
0.143475
0.526128
0.191961
0.134049
0.0414749
0.0239906
0.0166536
0.0896222
0.110321
0.0349842
0.19918
0.235523
0.177585
0.337434
0.263416
0.0217693
0.0778987
0.153025
0.0210454
0.0873882
0.0497323
0.0558578
0.0454025
0.0584539
0.0277561
0.0781387
0.0607151
0.105618
0.38617
0.224845
0.0897398
0.162381
0.290979
0.0321193
0.080388
0.109621
0.0540851
0.410746
0.0795957
0.39633
0.37143
0.275313
0.0397519
0.00872312
0.0316603
0.0108137
0.0102616
0.0685955
0.440129
0.171199
0.101172
0.0979543
0.0346702
0.0126608
0.0299139
0.00185566
0.158922
0.109756
0.0982661
0.211705
0.0229834
0.0185206
0.0410391
0.012418
0.359119
0.0875373
0.140243
0.02059
0.0272922
0.0242752
0.038377
0.00955381
0.0084542
0.15373
0.133689
0.0667466
0.0412535
0.0324763
0.0577484
0.297437
0.0324542
0.0211653
0.00306304
0.0438627
0.0562463
0.0182055
0.0446544
0.06816
0.670629
0.0864657
0.104696
0.00571109
0.0633686
0.0269497
0.00537906
0.00707027
0.0415056
0.23033
0.0823481
0.0275903
0.0212911
0.0314182
0.107351
0.0245998
0.0752904
0.0845221
0.422599
0.204431
0.185021
0.0302772
0.0648979
0.0514266
0.0270752
0.118091
0.128299
0.312904
0.062173
0.0579447
0.00147051
0.0512521
0.00799148
0.0135972
0.0850803
0.14719
0.453878
0.0819191
0.0169643
0.000250815
0.00851926
0.143893
0.0451254
0.121844
0.108047
0.230141
0.0744288
0.0673496
0.0102935
0.091811
0.0523034
0.022662
0.0567258
0.154413
0.629614
0.0727459
0.000706515
0
0.0374394
0.0524558
0.318869
0.641861
0.241371
0.0312566
0.00803253
0.00124461
0.00217769
0.00842923
0.0175326
0.0569982
0.12148
0.230142
0.181735
0.104836
0.0180558
0.0152438
0.0142837
0.0835075
0.154014
0.182448
0.161506
0.0304488
0.039156
0.0339069
0.00623994
0.0121895
0.0289092
0.0385432
0.0533662
0.109787
0.245891
0.240741
0.0632234
0.0129369
0
0.00903967
0.02999
0.0155878
0.193681
0.2395
0.179578
0.0614393
0.00991495
0.00697855
0.0139609
0.0460353
0.00981867
0.186577
0.38735
0.155654
0.0789054
0.00810139
0.0032086
0.00394331
0.0159072
0.0734617
0.184044
0.30258
0.332787
0.0624563
0.00627457
0
0.0172596
0.0293376
0.0524063
0.192769
0.364429
0.367681
0.0545991
0.00292468
0.00192516
0.0143817
0.0119156
0.00443008
0.111407
0.380859
0.196021
0.16409
0.0452226
0.0240541
0.0114469
0.0010947
0.00513315
0.0287711
0.151122
0.165406
0.30397
0.181335
0.106683
0.060166
0.0400192
0.0550018
0.179315
0.431399
0.24659
0.0457276
0.0177663
0.0126754
0.0443929
0.044682
0.0639613
0.0760934
0.241841
0.118176
0.205674
0.0555843
0.0489612
0.00454515
0.00213903
0.000499373
0.00456449
0.0352924
0.0550862
0.113979
0.23242
0.177784
0.0149854
0.00128342
0
0
0.00746568
0.0902606
0.123326
0.674562
0.305007
0.0346724
0.0192523
0.00491137
0.0066449
0.0862999
0.0820113
0.0940151
0.0817277
0.0805684
0.0549238
0.0117336
0
0
0.0459683
0.211356
0.17802
0.251314
0.139089
0.00342844
0
0
0
0.000352731
0.0278786
0.0709042
0.393492
0.085558
0.000785366
0
0
0.00171025
0.00256537
0.035104
0.14802
0.629161
0.135935
0.0139861
0.000180429
0
0
0.00383115
0.0410459
0.057711
0.213188
0.0556604
0.00548134
0
0
0
0.00953424
0.0230632
0.0657588
0.508846
0.0785728
0.00500381
0.00797461
0.0131867
0.00316634
0.00611436
0.0201608
0.113338
0.329722
0.0690478
0.00836023
0.0159637
0.0347255
0.00366409
0.0124036
0.0316849
0.101142
0.565834
0.049371
0
0
0
0
0.00238889
0.0186144
0.0744911
0.36819
0.0299267
0
0
0
0
0
0.0354765
0.127542
0.565834
0.0397436
0.00312239
0.00286894
0.00932327
0.00162626
0.00323973
0.0100214
0.0316376
0.422007
0.055485
0.00380889
8.9907e-005
0.0018939
0.0050527
0.00724341
0.00178101
0.012572
0.359274
0.0846025
3.19775e-005
0
0
0
0
0.0309375
0.0968529
0.527669
0.0517775
0.00219114
0.00131153
0.000502172
0.000932606
0.00273128
0.0269773
0.0939276
0.548109
0.160056
0.00112498
0.00938073
0.0266389
0.0451032
0.0657899
0.048966
0.0078661
0.138212
0.0586381
0.0369932
0.0352946
0.232462
0.212082
0.156695
0.12153
0.0385536
0.0258055
0.0406583
0.00858615
0.126601
0.109022
0.0517193
0.0192009
0.0168811
0.0390311
0.378917
0.234061
0.0151373
0.246971
0.591132
0.295331
0.136299
0.0323778
0.00385913
0.0539042
0.114932
0.0928811
0.0274181
0.197527
0.128821
0.201774
0.0680909
0.0158528
0.00384161
0.0603042
0.0505366
0.00580532
0.0263403
0.111327
0.462425
0.0584293
0
0
0.034424
0.0242352
0.0683754
0.327059
0.176135
0.341223
0.111507
0.00543397
0
0.0173848
0.0142231
0.00548406
0.024247
0.181848
0.51183
0.14356
0.00932148
0
0.0104309
0.029671
0.0533834
0.0993102
0.0737374
0.0284833
0.0387443
0.0623299
0.0209898
0.0218791
0.00807301
0.0287176
0.0663681
0.122163
0.332921
0.196782
0.0983389
0.0205378
0.000213939
0.0588901
0.087294
0.0795226
0.0589762
0.0570837
0.0511485
0.0706629
0.0464115
0.0578066
0.00564265
0.0352396
0.110216
0.230211
0.724662
0.195451
0.181803
0.0248196
0.00149757
0
0.0012921
0.0254397
0.0960723
0.205008
0.156477
0.039702
0.00424861
0
0.00228667
0.00188654
0.018552
0.0594639
0.229932
0.248056
0.0414696
0.00158019
0
0
0.00192766
0.0374968
0.139554
0.52755
0.0923731
0.0466959
0.00104037
0
0
0.000351475
0.0207105
0.0568622
0.634959
0.149089
0.0232905
0.000948114
0
0.0148561
0.0234739
0.0415772
0.0494203
0.309965
0.19901
0.0219048
0.00936564
0.00646079
0.0130844
0.0326231
0.054463
0.0247106
0.0900628
0.0521282
0.0594378
0.0312346
0.0340659
0.000308616
0.00388596
0.0195412
0.0236767
0.800683
0.168728
0.0082641
0.00561939
0.00674535
0.0146719
0.0159866
0.0779168
0.068769
0.176618
0.0466937
0.0314388
0.0158814
0.0361907
0.0891566
0.0592773
0.064036
0.0122274
0.145107
0.144572
0.112517
0.0495408
0.0901506
0.146243
0.0762559
0.0936169
0.0281978
0.103224
0.233656
0.382555
0.104082
0.066763
0.135142
0.138919
0.160633
0.0955421
0.105728
0.080997
0.132032
0.0345034
0.0409531
0.228174
0.310177
0.169952
0.186309
0.109232
0.0787789
0.168265
0.0542992
0.0490116
0.0750426
0.0149959
0.037885
0.0257853
0.0544071
0.142236
0.24852
0.173326
0.0371526
0.0389597
0
0.0194611
0.0050157
0.0921993
0.12988
0.159352
0.606441
0.0875078
0.195845
0.0835338
0.11287
0.111571
0.092746
0.0784357
0.0950787
0.0327953
0.0407679
0.10625
0.0313591
0.151526
0.0586686
0.150129
0.118631
0.086072
0.0663456
0.0308605
0.00441473
0.000324083
0.00259394
0.000183307
0.0105567
0.0185297
0.0512301
0.37402
0.0378755
0.0030121
0.000540139
0.00162042
0
0.00334488
0.0264459
0.144738
0.80035
0.0815265
0.0109949
0.0177434
0.0224388
0.0114832
0.0312495
0.0142459
0.0198305
0.0674599
0.0222423
0.0124894
0.0131869
0.0158539
0.00379313
0.0533784
0.0173504
0.0724669
0.231246
0.0622449
0.00106877
4.41883e-005
0.000132565
0
0.000703807
0.0378981
0.10157
0.450606
0.0501093
0.0109381
0.0063276
0
0
0.0136937
0.0737602
0.183306
0.662267
0.130254
0.00829615
0.000966105
0.00372433
0.010878
0.0335658
0.0467377
0.0563177
0.190787
0.0505051
0.0158216
0.0350017
0.0163186
0.0661509
0.0777915
0.154647
0.176518
0.304948
0.073612
0.0361823
0.166644
0.0840047
0.0122292
0.0156866
0.0343923
0.135926
0.337119
0.191968
0.0455663
0.284721
0.384692
0.0986985
0.122082
0.0222021
0.070895
0.156579
0.109591
0.0294654
0.0776525
0.0243409
0.0267514
0.0457365
0.108198
0.204452
0.241566
0.082242
0.0971508
0.117854
0.0857092
0.0172806
0.0642048
0.0351928
0.206176
0.447239
0.0922264
0.0152314
0.0477492
0.143051
0.0954236
0.320535
0.0787295
0.0166798
0.0370808
0.00720355
0.00191052
0.00736804
0.0411375
0.156906
0.448936
0.0996265
0.0126581
0.0014856
0.000818795
0.0650387
0.11871
0.253362
0.0757879
0.177696
0.0164111
0.0447752
0.16173
0.0246403
0.00893933
0.090661
0.481148
0.147019
0.364792
0.0318183
0.00618805
0.0103992
0.00196549
0.0395784
0.034539
0.03067
0.0375545
0.0425965
0.0357958
0.0454967
0.0288515
0.0234886
0.00318664
0.00649063
0.0524785
0.110513
0.551432
0.0855323
0.0711724
0.0139572
0.00078917
0.0117212
0.0322485
0.0175912
0.0740954
0.105709
0.117843
0.02108
0.0146846
0.0104933
0.000622762
0.00180889
0.0151725
0.105298
0.724471
0.12761
0.0156775
0.00350875
0.00071009
0
0.000173468
0.0118529
0.0492349
0.419061
0.0257863
0.0111997
0
0
0
0
0.00471418
0.0163707
0.458478
0.0289082
0.0004456
0
0
0
0
0.00125765
0.0360267
0.525924
0.033447
0.000944901
0
0
0
0
0
0.0277114
0.525924
0.0377393
0
0
0
0.000640355
0
0.00226063
0.0308277
0.544409
0.049899
0.000154556
0
0.00105361
0.0147134
0.011997
0.0286367
0.0642892
0.123693
0.0131457
0.0241581
0.00160731
0.0073753
0.000384213
0
0.000235358
0.0823414
0.720464
0.0481767
0
0
0.000384213
0.014371
0.0130816
0.0295996
0.112975
0.199214
0.0196436
0.00639024
0.000964384
0.00268949
0.0931859
0.148658
0.126246
0.127361
0.0682687
0.0445085
0.180977
0.0404985
0.0125622
0.115405
0.216386
0.0951546
0.2738
0.10274
0.0573866
0.127657
0.0767533
0.0576579
0.0625302
0.128056
0.244256
0.213828
0.174574
0.044354
0.0694714
0.015033
0.00458095
0.030596
0.09165
0.246948
0.2437
0.161111
0.113005
0.163547
0.0565125
0.0453445
0.192306
0.0918626
0.105334
0.21574
0.0849262
0.0314093
0.0677878
0.108187
0.0918892
0.12186
0.141404
0.198907
0.170187
0.179041
0.0317313
0.063656
0.0622169
0.0507393
0.0821455
0.0378461
0.108927
0.173647
0.107186
0.0692982
0.137476
0.138416
0.139575
0.0921839
0.173712
0.103558
0.131006
0.1699
0.0170732
0.0778844
0.109742
0.194306
0.0611312
0.121691
0.0994672
0.139665
0.159884
0.0105216
0.0523946
0.0397686
0.05548
0.0875344
0.0715108
0.0853652
0.0592609
0.316694
0.105507
0.0803253
0.10342
0.134883
0.0772502
0.108416
0.0596063
0.120835
0.117458
0.0897811
0.121107
0.07564
0.105465
0.0905696
0.0286855
0.0529741
0.0687594
0.268886
0.277396
0.190103
0.0765421
0.0934765
0.00835419
0.00319426
0.0235379
0.0403016
0.0949329
0.0581826
0.0153392
0.0206389
0.0238686
0.00626602
0.0641507
0.0776212
0.235815
0.299274
0.129554
0.0978254
0.0429045
0.0297737
0.00404503
0.00295204
0.0309812
0.04915
0.132478
0.0569495
0.0202
0.00354027
0.00423147
0.0133998
0.0195174
0.0913262
0.206065
0.772511
0.105809
0.0385905
0.000347121
0.00721527
0.0211259
0.0540461
0.0562919
0.0746676
0.117232
0.0795147
0.144827
0.0632536
0.0356434
0.15682
0.185168
0.159829
0.0220541
0.0557761
0.0338016
0.164375
0.174709
0.0603812
0.0264746
0.0186822
0.0887739
0.134126
0.403327
0.0605031
0.111717
0.00153606
0.0129025
0.119756
0.215893
0.228486
0.187279
0.576346
0.0311533
0.117401
0.00434847
0.0346713
0.10714
0.25666
0.251689
0.0436199
0.0289713
0.000170718
0.0250131
0.0551872
0.0222293
0.0203272
0.181505
0.419651
0.0944926
0.261614
0.00624655
0.00162366
0.00377651
0.00441928
0.0921304
0.248902
0.156722
0.0593205
0.222847
0.0163909
0.00929114
0.000886836
0.0383239
0.0247484
0.132235
0.150627
0.0457135
0.544541
0.0406325
0
0
0.0193405