0.157599
0.0679252
0.0500837
0.123877
0.0419633
0.0560191
0.0170278
0.0786157
0.190823
0.315383
0.164793
0.0756195
0.121449
0.0243116
0.0886771
0.0855515
0.121274
0.15399
0.150743
0.139704
0.188725
0.200713
0.0436832
0.0285762
0.0137007
0.0392199
0.0833116
0.117957
0.357247
0.345574
0.290689
0.0480195
0.193677
0.135452
0.0866736
0.120524
0.202673
0.122794
0.0445677
0.0496079
0.031449
0.0806859
0.09741
0.0903088
0.113382
0.195642
0.0676086
0.121973
0.0781467
0.0867342
0.0888566
0.10753
0.0892367
0.1665
0.138975
0.296804
0.187003
0.102636
0.141493
0.270763
0.187043
0.0740722
0.0605623
0.156639
0.262019
0.301828
0.171863
0.21917
0.192456
0.142581
0.118272
0.121836
0.138511
0.0508235
0.141835
0.058197
0.0600677
0.112134
0.141457
0.0708662
0.0726786
0.334534
0.0891931
0.0818151
0.0679829
0.0477851
0.0630972
0.274944
0.262151
0.196257
0.100304
0.114742
0.321003
0.141282
0.0729485
0.10705
0.0741995
0.105991
0.081933
0.23526
0.15131
0.24007
0.149483
0.0765453
0.100059
0.126229
0.225853
0.154706
0.220437
0.0854277
0.0814664
0.039067
0.0120901
0.0210344
0.18572
0.135395
0.0895835
0.267964
0.138044
0.130114
0.115959
0.0513524
0.107207
0.178119
0.0968948
0.188163
0.126355
0.0729506
0.10031
0.104417
0.0242928
0.0391096
0.183701
0.139322
0.0473234
0.342275
0.224988
0.234726
0.350827
0.0601645
0.0771727
0.193749
0.112765
0.236733
0.153568
0.074243
0.0583055
0.148225
0.0969715
0.055336
0.0599579
0.0624921
0.187928
0.0838707
0.0729245
0.0380279
0.146575
0.196775
0.0521597
0.0666969
0.0766483
0.0932119
0.230402
0.147558
0.151391
0.282581
0.112781
0.149866
0.128918
0.0770966
0.35879
0.0790095
0.0337892
0.0486609
0.262055
0.263591
0.288478
0.216888
0.116187
0.20713
0.191
0.134092
0.0133617
0.0655881
0.0993505
0.0380807
0.0147762
0.0475456
0.0822105
0.232973
0.123255
0.0279271
0.0479034
0.0276138
0.109223
0.0936987
0.100444
0.182644
0.279123
0.100165
0.00415335
0.153672
0.173156
0.169755
0.0583133
0.142754
0.149274
0.432997
0.195857
0.0514157
0.157701
0.108902
0.281679
0.104024
0.194104
0.266426
0.0800528
0.0624886
0.0328646
0.0140042
0.0179337
0.045237
0.0695386
0.0778405
0.0910826
0.212711
0.104232
0.0502803
0.0328494
0.0311082
0.0292173
0.0365873
0.0772458
0.151602
0.169454
0.227247
0.141068
0.0422965
0.0301437
0.0827211
0.0536055
0.0942631
0.145929
0.419844
0.547248
0.30764
0.0153221
0.0186649
0.0188941
0.016157
0.0472911
0.272024
0.164781
0.0992177
0.0584379
0.0345654
0.00594193
0.0148838
0.0167486
0.0338776
0.0695107
0.179244
0.124211
0.130402
0.0667074
0.0106413
0.0039351
0.0513921
0.0452901
0.0676179
0.329591
0.454279
0.237426
0.00782948
0.00319307
0.0089303
0.00835524
0.00934619
0.0755675
0.291027
0.425789
0.35469
0.0150733
0.0797464
0.0842099
0.0233751
0.129153
0.0530725
0.111501
0.0805378
0.135193
0.0394659
0.0307846
0.0230524
0.122181
0.12259
0.139469
0.111897
0.033982
0.0643941
0.0121962
0.046105
0.04497
0.148408
0.216982
0.234328
0.134983
0.171044
0.229643
0.0460529
0.275717
0.235748
0.108014
0.310801
0.181372
0.15962
0.0913198
0.140906
0.111883
0.223787
0.10707
0.144461
0.246129
0.274692
0.127348
0.109265
0.162123
0.180475
0.0599459
0.0718024
0.0172104
0.0183853
0.0689225
0.039049
0.296577
0.32637
0.223923
0.0938156
0.131667
0.0582319
0.0492336
0.0594769
0.0537898
0.269071
0.195704
0.162015
0.117329
0.125691
0.109533
0.117551
0.0410946
0.0645744
0.305809
0.193585
0.168757
0.173291
0.182542
0.118237
0.206396
0.0406306
0.0143692
0.287335
0.174934
0.0650662
0.0903393
0.118563
0.121547
0.101195
0.0204257
0.0432048
0.183134
0.104198
0.133258
0.137617
0.117729
0.217492
0.174045
0.101178
0.0705451
0.236702
0.158021
0.0817667
0.0634875
0.0750711
0.121363
0.228703
0.0639262
0.266131
0.177835
0.084783
0.1513
0.0792524
0.104623
0.27998
0.31334
0.205748
0.158796
0.0881352
0.116932
0.17168
0.0844646
0.0695969
0.0860907
0.0939077
0.076315
0.291998
0.132777
0.121549
0.176798
0.126739
0.0504179
0.0347169
0.141939
0.0559278
0.297359
0.173848
0.0210032
0.247254
0.120825
0.094705
0.141617
0.0969825
0.091097
0.351033
0.166474
0.0429131
0.324916
0.208082
0.107923
0.0321726
0.104892
0.049719
0.123121
0.0581756
0.0674386
0.0815507
0.0516954
0.0662592
0.0769135
0.12165
0.0178049
0.144075
0.215878
0.166685
0.176221
0.131754
0.145932
0.108519
0.0916585
0.1201
0.163441
0.10944
0.118842
0.231092
0.0873913
0.0708438
0.0324788
0.0796209
0.0281619
0.215007
0.324129
0.503333
0.244121
0.157672
0.0909257
0.0500066
0.030491
0.0527936
0.0505662
0.144553
0.129744
0.132642
0.0832678
0.0748057
0.0448342
0.0284656
0.142102
0.0507845
0.0933871
0.0880512
0.167009
0.125781
0.121018
0.0773678
0.0997905
0.0972769
0.111802
0.270803
0.348822
0.113143
0.0536889
0.0216995
0.0120237
0.0117752
0.0426067
0.242196
0.466964
0.434632
0.126237
0.0386042
0.0225021
0.0253371
0.0807916
0.0754802
0.0728165
0.0819114
0.0130988
0.0696062
0.0506663
0.0497383
0.0158024
0.0908164
0.0807907
0.146791
0.162154
0.1634
0.0600659
0.0242038
0.0574778
0.0107032
0.0881475
0.12395
0.162984
0.314672
0.248629
0.071419
0.0226771
0.013957
0.00620321
0.050857
0.114034
0.356077
0.497188
0.439581
0.0552629
0.00789716
0.00705436
0.00067961
0.0398886
0.130117
0.0881635
0.138804
0.208201
0.0147414
0.00384624
0.0141893
0.00437301
0.0284609
0.0537597
0.149489
0.314218
0.24176
0.00108548
0
0.000183555
0.000340887
0.0229129
0.0836559
0.241592
0.365588
0.257436
0.0126639
0
0.001488
0.000165333
0.0107352
0.0480419
0.327209
0.534124
0.168216
0.00278355
0.00552169
0
0.0141259
0.0172011
0.0603677
0.185065
0.29891
0.157145
0
0.00176774
0
0.00993695
0.00903713
0.0708485
0.156357
0.167733
0.116911
0.00427709
0.136728
0.0758676
0.0184055
0.0365753
0.0449531
0.342868
0.387235
0.0483684
0.00328695
0.128283
0.0190528
0.115365
0.0380752
0.0861539
0.169947
0.0522691
0.00829273
0.0260586
0.568472
0.0620884
0.144521
0.0297415
0.0587752
0.0377783
0.0391379
0.0514739
0.0313615
0.292875
0.183867
0.0178051
0.0533355
0.0203036
0.0662639
0.0315749
0.0667458
0.119572
0.202064
0.0925459
0.0230447
0.0283368
0.0341295
0.00948863
0.00363413
0.00394578
0.113618
0.675123
0.106404
0.02712
0.00283643
0.00548623
0.0667095
0.0323535
0.0166842
0.239664
0.405502
0.122228
0.0127564
0.00289001
0.0170127
0.0443034
0.135038
0.12213
0.127239
0.13644
0.0851829
0.0701349
0.106898
0.00573874
0.159505
0.118324
0.124755
0.0729087
0.251883
0.103191
0.0688179
0.193296
0.0233083
0.20654
0.226339
0.214822
0.190201
0.131496
0.103138
0.0231822
0.0628288
0.044676
0.350829
0.190888
0.244491
0.164093
0.314027
0.111918
0.00950471
0.21894
0.0614055
0.182065
0.0837705
0.184672
0.0620624
0.108531
0.0486947
0.0441667
0.112719
0.096958
0.307104
0.129009
0.162954
0.0900776
0.0745855
0.0339414
0.0888721
0.123051
0.176718
0.282269
0.0455017
0.287193
0.0971371
0.158283
0.042569
0.0669492
0.178577
0.165365
0.301341
0.167211
0.252791
0.0772572
0.138007
0.0707481
0.191114
0.156754
0.136779
0.12343
0.0914123
0.0276715
0.0588983
0.066728
0.019528
0.0459195
0.04768
0.0279791
0.133248
0.140922
0.049532
0.147101
0.0857064
0.0515153
0.0179353
0.0457674
0.00827755
0.128391
0.180625
0.161779
0.0868304
0.107787
0.026528
0.0728465
0.0367186
0.00811945
0.198375
0.463068
0.554102
0.351007
0.0866887
0.0185001
0.0392515
0.016116
0.000595764
0.0576641
0.0972017
0.0845157
0.119141
0.0160138
0.0100091
0.000936445
0.00740488
0.00629477
0.142735
0.171378
0.23821
0.147568
0.0197797
0.000622888
7.84174e-005
0.000903379
0.0330298
0.122615
0.280569
0.320399
0.222128
0.0072534
0.00199362
0.00234846
0.000648738
0.00417099
0.3613
0.491984
0.35383
0.183014
0.00542945
0
0
0
0.0431834
0.111625
0.156907
0.160819
0.0523838
0.00479178
0.000128984
0.000199873
0.000599618
0.0218333
0.189117
0.277787
0.217127
0.0251782
0.000419113
0
0.00139911
0.00546567
0.0267414
0.280497
0.364821
0.157191
0.0333334
0.000891433
0
0
0
0.0321433
0.415034
0.501599
0.242075
0.0149391
0.0262783
0
0
0
0.0288001
0.165509
0.212853
0.18034
0.00590445
0.00104196
0
0.000470742
0.00456547
0.0325405
0.257145
0.410527
0.165314
0.00501507
0.000625177
0
0
0.00191534
0.0336079
0.282991
0.356231
0.236555
0.0104565
0.0295763
0.00122493
0.0190313
0.00447266
0.0507806
0.250339
0.466375
0.162192
0.0062739
0.0456869
0.00966219
0.0379444
0.00818757
0.0817643
0.235031
0.537639
0.086957
0.00230522
0.000378424
0
0
8.61331e-005
0.0169434
0.23298
0.57495
0.0525404
0.00662939
0.0345537
0.000621964
0.0175945
0.0094094
0.0213882
0.155811
0.351816
0.0424348
0.00217459
0.0268666
0.00621705
0.00996956
0.00406623
0.0305944
0.0975579
0.177386
0.0171336
0.018439
0.0891965
0.00454131
0.00458811
0.00288433
0.0137218
0.10554
0.168378
0.0101112
0.012404
0.245814
0.0217825
0.0565452
0.0222372
0.0161284
0.0348598
0.0136824
0
0.0181533
0.557423
0.0536065
0.0541025
0.015528
0.00674322
0.0177623
0.0252461
0.00424712
0.0296386
0.45077
0.0264524
0.00680147
0.0028138
0.00534389
0.000489103
0.00135756
0.000346481
0.0358945
0.557423
0.0636219
0.00336049
0.00168828
0.000629799
0.000578878
0
0
0.0511851
0.537056
0.0720903
0.0240156
0.00100958
0.000578878
0.0321068
0.0351781
0.00579302
0.0773212
0.243826
0.123179
0.0606289
0.00248515
0.0130058
0
0
0.000469815
0.0543698
0.667188
0.0843815
0.0145361
0.000343916
0
0.0148074
0.0177968
0.00564165
0.0843965
0.270166
0.0861067
0.083933
0.0120397
0.0101062
0.140691
0.154388
0.0957327
0.0954119
0.0166828
0.0290075
0.0291997
0.00525952
0.0587119
0.165258
0.134442
0.148981
0.145527
0.0549542
0.0508073
0.00273882
0.0608206
0.102947
0.163981
0.155859
0.14976
0.101721
0.120508
0.0934522
0.0663148
0.0029762
0.0345014
0.195756
0.412197
0.562134
0.231649
0.0941504
0.0421325
0.00665915
0.11871
0.112959
0.110327
0.0324361
0.104479
0.0423862
0.0333287
0.0192356
0.0325639
0.0510293
0.0938412
0.157506
0.133412
0.217007
0.0361032
0.0357223
0.0286955
0.0654595
0.101864
0.0505865
0.130567
0.303235
0.340746
0.0490397
0.0213278
0.0138635
0.0353851
0.0836203
0.0827293
0.318589
0.496208
0.414615
0.0447853
0.0775107
0.0247613
0.0589752
0.0618834
0.0448799
0.0700995
0.111177
0.187648
0.0527706
0.0122727
0.00620744
0.0120683
0.02086
0.0136808
0.142228
0.254029
0.310246
0.109148
0.00578076
0.00186255
0.00568053
0
0.0255502
0.227508
0.264038
0.265049
0.0481101
0.0306913
0.00295984
0.00520608
0.0122326
0.0303528
0.338945
0.539846
0.300488
0.0365366
0.00312768
0
0.000344246
0.000114749
0.0531414
0.145171
0.237265
0.152658
0.0592173
0.000356808
0.000194504
0.000583511
0
0.00806619
0.231782
0.453332
0.116469
0.0276627
0.000350567
0
0
0
0.00859609
0.214183
0.45397
0.110546
0.0097511
0.00555981
0
0.0027644
0.000921466
0.0209414
0.214842
0.469141
0.208901
0.0295956
0.00926635
0
0.00382246
0.00127415
0.0113286
0.196302
0.359119
0.0682139
0.0024853
4.65935e-005
0
0
0
0.0164846
0.278192
0.327059
0.141697
0.0344048
0.0761141
0
0
0
0.0481445
0.225507
0.410308
0.179291
0.0151382
0.00123158
0
0.000449361
0.000149787
0.0285643
0.439944
0.277054
0.10361
0.0685595
0.063467
0
0
0.00038064
0.16428
0.239832
0.190554
0.222938
0.0855701
0.190592
0.0473509
0.0696967
0.0191712
0.0795701
0.144397
0.110383
0.104809
0.0375631
0.233585
0.165348
0.13631
0.0471127
0.137398
0.259469
0.152309
0.107803
0.174031
0.223228
0.102933
0.0551574
0.0318167
0.115788
0.196846
0.0335298
0.0395572
0.0814539
0.247815
0.294923
0.175073
0.151664
0.339565
0.0844318
0.0350971
0.00544437
0.000892151
0.0725441
0.0573348
0.0278891
0.0144233
0.108756
0.0725573
0.0119794
0.00710248
0.0155749
0.0688065
0.00446826
0.0050529
0.00302189
0.100918
0.339774
0.00897121
0.0310061
0.0185059
0.0619717
0.0879778
0.0547305
0.0570919
0.561481
0.311917
0.00759688
0.0991677
0.151121
0.169191
0.00147358
0.0309314
0.0104942
0.52871
0.0137114
0.00200542
0.00306335
0.0257869
0.335315
0.0108251
0.00340532
0.00106497
0.0167549
0.00093331
0.000113951
0.000341854
0.0335376
0.552676
0.0412024
0.000486474
0.000152138
0.00039999
0.0393372
0.000786374
0.0204079
0.0930093
0.439816
0.00802398
0.0223643
0.00745476
0.0753205
0.00155552
1.62787e-005
4.88362e-005
0.0661344
0.552676
0.0576597
0.0031949
0.00106497
0.000666651
0
0
0.00048864
0.044105
0.526957
0.070622
0.00470072
4.8409e-005
0
0.00389973
0.010545
0.00858862
0.0860745
0.206698
0.0447312
0.0269497
0.0102601
0.00527082
0.0026173
0.00392595
6.98057e-005
0.0724182
0.666492
0.110959
0.00630159
0.00420919
0.00982144
0.0632577
0.0515561
0.0141288
0.0742778
0.315612
0.100547
0.0161221
0.0369281
0.0974622
0.0874476
0.0397595
0.0807941
0.0936814
0.133786
0.0345849
0.0452773
0.0291508
0.0356531
0.0848639
0.183113
0.326149
0.21783
0.105662
0.039075
0.138801
0.16625
0.064804
0.0366755
0.0218578
0.0288224
0.0608039
0.103632
0.0227243
0.0924711
0.133901
0.0694651
0.046211
0.0500865
0.0495487
0.119465
0.0756808
0.0775201
0.579495
0.435681
0.114913
0.0574905
0.193975
0.188242
0.0506603
0.0174653
0.0119041
0.0739074
0.141209
0.0350655
0.150708
0.187471
0.129594
0.0350225
0.148685
0.0647188
0.0450334
0.0859389
0.0438472
0.0222319
0.0416295
0.0221309
0.028237
0.013514
0.0461007
0.444734
0.345505
0.0606734
0.0281223
0.013726
0.025167
0.0196084
0.115956
0.121379
0.396275
0.423724
0.157829
0.146634
0.14975
0.141406
0.035091
0.0817295
0.0407058
0.0418986
0.0991207
0.0266798
0.196447
0.383387
0.154668
0.011883
0.00908767
0.0052065
0.040769
0.13958
0.0559158
0.0287144
0.0229586
0.0517354
0.019988
0.0592364
0.0679361
0.190361
0.416683
0.113445
0.0555095
0.0531142
0.038842
0.00774267
0.00606967
0.00867749
0.217302
0.55027
0.181777
0.115472
0.244004
0.0567782
0.0250947
0.0404201
0.012815
0.0141094
0.0361276
0.0385867
0.0719089
0.23579
0.28277
0.123245
0.0673669
0.0843552
0.0898209
0.0240671
0.0143249
0.025927
0.018154
0.00797616
0.0241643
0.0450343
0.0267081
0.116098
0.468808
0.157183
0.00332855
0.0215439
0.0980935
0.0866805
0.0750572
0.149508
0.457489
0.393603
0.120871
0.117208
0.20757
0.280609
0.0616412
0.0133944
0.0338077
0.0892425
0.0304508
0.0176567
0.346336
0.1581
0.0777317
0.0331783
0.0183483
0.00406788
0.0245606
0.0194466
0.121395
0.0173952
0.0253149
0.090538
0.0385581
0.0171679
0.0575814
0.428869
0.329898
0.130796
0.133906
0.0197994
0.0195869
0.00798829
0.0248815
0.0161281
0.160549
0.257977
0.435613
0.294026
0.125585
0.0142546
0.0713662
0.0528222
0.0379632
0.0126938
0.0248715
0.124496
0.250102
0.0496793
0.00400738
0.0376083
0.0798272
0.0924521
0.0700935
0.0913921
0.403984
0.191077
0.0306315
0.0201139
0.0154385
0.049773
0.0443494
0.118462
0.12183
0.362464
0.406085
0.104983
0.0936972
0.0370494
0.105006
0.0481379
0.0590282
0.0244962
0.35666
0.201128
0.0130341
0.0761374
0.033169
0.0969869
0.0297922
0.0356769
0.0217867
0.291147
0.164878
0.00708828
0.2413
0.178578
0.23147
0.028741
0.0975704
0.0122292
0.208049
0.220329
0.0276085
0.064989
0.0216517
0.171217
0.0605613
0.117131
0.0217499
0.277991
0.125225
0.00425297
0.14478
0.0758549
0.332431
0.11139
0.434634
0.0614312
0.19404
0.0167214
0
0.0532312
0.098658
0.34673
0.00935236
0.0329554
0.00567448
0.0287839
0.000325917
0
0
0.0729956
0.543364
0.0387719
0.00183414
0.0006751
0.000558372
0.0172998
0
0.0319387
0.0633023
0.426037
0.0466743
0.122673
0.0206913
0.0251978
0.000862624
0
0
0.0500604
0.543364
0.0794708
0.00468329
0.00200713
0.00144879
0.00579926
0.0109664
0.00101691
0.071627
0.4297
0.0823921
0.000686595
0.00338874
0.00790705
0.0764443
0.101345
0.0399038
0.0793149
0.254862
0.0872798
0.00183182
0.0247524
0.0764244
0.00355579
0.0201769
0.0140123
0.0998552
0.59044
0.107111
0
0.000484106
0.00112958
0.0300119
0.175385
0.149447
0.293729
0.354424
0.0721629
0
0.0103369
0.0112835
0.0174733
0.0428089
0.0351735
0.0792067
0.0607149
0.054521
0.0674037
0.151509
0.0802616
0.0875076
0.121715
0.0386738
0.0801826
0.0241087
0.0906184
0.59484
0.430049
0.141821
0.0811945
0.0864725
0.099137
0.100678
0.0957584
0.0881125
0.0291074
0.0991729
0.0573305
0.153993
0.208617
0.0646738
0.142796
0.0511236
0.131606
0.0990532
0.119007
0.084565
0.0392039
0.0330318
0.00639579
0.00595803
0.0114292
0.048879
0.356716
0.20805
0.0674561
0.0248728
0.00431864
0.000282099
0.00151217
0.0693053
0.0791269
0.504034
0.504936
0.124008
0.0563968
0.0616981
0.0120374
0.0134118
0.0392337
0.0349192
0.091285
0.060186
0.0376665
0.069676
0.0237876
0.0051016
0.0115182
0.0813285
0.0389307
0.214154
0.340974
0.0732424
0.00157431
0
0
0.00233023
0.0262146
0.0170224
0.219979
0.320831
0.0796419
0.0125795
0
9.12535e-005
0.00156761
0.00805942
0.00122987
0.252402
0.544839
0.134543
0.0141416
0.00791636
0.00683366
0.0129821
0.0318013
0.00613885
0.170998
0.259221
0.05516
0.0117508
0.00689044
0.00410019
0.00734157
0.0132046
0.0378469
0.359089
0.410621
0.0911037
0.00955322
0
0.000188378
0.00138974
0.00321779
0.0037866
0.106795
0.39645
0.0968863
0.00136475
0
0.000113027
0.00194306
0.00536298
0.0165648
0.244715
0.480396
0.122048
0.00597798
0.00164261
0
0
0
0.0305345
0.183299
0.349994
0.0772251
0.000781888
0
0
0
0
0.00709346
0.237813
0.480396
0.134793
0.00693732
0
0
0.000229849
0.00134421
0.00564391
0.193982
0.340336
0.151731
0.0594103
0.00517172
7.58922e-005
0
0.0158306
0.0580807
0.114864
0.239515
0.339744
0.00428907
0
0
0
0
0.000396195
0.168931
0.469701
0.144048
0.0390025
0.035916
0
0
0.0151064
0.0770194
0.208902
0.469701
0.201737
0.0737301
0.0229587
0.0591653
0.0216438
0.10038
0.178907
0.132424
0.113295
0.21088
0.249375
0.0695926
0.213107
0.0716801
0.190385
0.0956458
0.0517101
0.0212063
0.196428
0.107296
0.100371
0.0733845
0.0137136
0.107892
0.217919
0.310971
0.373533
0.121465
0.182745
0.090556
0.194233
0.0608078
0.32064
0.115685
0.139971
0.164806
0.158931
0.351305
0.0292817
0.0830463
0.0265663
0.105972
0.0309464
0.0572622
0.0171713
0.458196
0.294135
0.0010355
0.00199182
0.0124677
0.230833
0.0915148
0.205477
0.0342179
0.420541
0.155334
0.0232205
0.0707798
0.0261581
0.134912
0.0128695
0.00533715
0.0602144
0.237015
0.18979
0.010424
0.0175896
0.00722123
0.0955207
0.016152
0.00467226
0.0201984
0.218218
0.0446148
0.000410934
0.000846126
0.0298299
0.320251
0.0560138
0.0448753
0.00840489
0.0506014
0.00235677
4.02917e-005
0.000120875
0.0408964
0.573562
0.0804128
0.00186589
0.000799667
0.00244268
0.0353502
0.00372656
0.00632278
0.0263434
0.389503
0.0318186
0.00190034
0.00112823
0.0324177
0.00178499
0.000390831
0.000865324
0.0524189
0.573562
0.0748801
0.000262994
0
0.00178499
1.61133e-005
0.00856211
0.0095089
0.0722346
0.462223
0.0695253
0.00089741
0
0
0.000112793
0.0662886
0.0807411
0.200521
0.243409
0.0762768
0.00628187
0.0188798
0.000993678
0
0.000805466
0.000984458
0.0573833
0.592932
0.0983183
0.00766578
0
0
0
0.00673914
0.0368847
0.138149
0.411474
0.209134
0.0536604
0.0113279
0.000596207
0.109078
0.0784186
0.140605
0.0953187
0.0508307
0.087818
0.0954409
0.100832
0.0703803
0.115158
0.163729
0.136345
0.129392
0.0337576
0.212421
0.15028
0.0613931
0.0419473
0.0923562
0.207265
0.177217
0.257078
0.0197159
0.0451626
0.0592027
0.0867506
0.131935
0.203827
0.229856
0.382769
0.351772
0.00745984
0.101071
0.102999
0.0244934
0.0632345
0.0471697
0.134815
0.0531875
0.0648306
0.0793743
0.117736
0.168459
0.0485192
0.0142595
0.140784
0.156507
0.038733
0.187075
0.207278
0.0559279
0.204738
0.236493
0.131092
0.121168
0.130687
0.150903
0.129667
0.0281841
0.129097
0.187809
0.0491817
0.059117
0.200719
0.232726
0.156173
0.272354
0.191824
0.10741
0.227009
0.17705
0.18104
0.0615387
0.0733472
0.0270576
0.078629
0.0663846
0.0223215
0.10012
0.253476
0.146694
0.0274882
0.0590888
0.0138727
0.0255533
0.0799607
0.200997
0.321016
0.543651
0.170862
0.153166
0.159567
0.0480019
0.0952939
0.111185
0.0553336
0.0572277
0.0972697
0.113851
0.112659
0.108253
0.0181774
0.0521016
0.184805
0.200191
0.177788
0.202624
0.129418
0.00230335
0.00965542
0.00291947
0.0066048
0.0176824
0.111515
0.218968
0.344993
0.0705343
0
0.00508082
0.00723801
0.014203
0.00958649
0.0901161
0.394879
0.602007
0.104391
0.0187568
0.0187325
0.0276842
0.0462336
0.0811019
0.084962
0.128372
0.141939
0.0607809
0.0266504
0.107673
0.0670807
0.0994209
0.0719829
0.128461
0.210907
0.222138
0.0507768
0.00135418
0.00307155
0.00317019
0.00228661
0.00426406
0.0249946
0.178935
0.365541
0.0795014
0.0138858
0.0180653
0.000438793
0
0.00774239
0.0197947
0.252309
0.542578
0.147425
0.00545025
0.0415769
0.0271326
0.0160062
0.0350952
0.0646013
0.158975
0.193655
0.0235046
0.00414117
0.00855939
0.00566658
0
0.0710265
0.0413936
0.358633
0.421888
0.0901276
0.0313042
0.0262985
0.00590055
0.000468117
0.0105246
0.0178256
0.176914
0.362444
0.10011
0.0433555
0.0239449
0.0112109
0.00333639
0.0486038
0.0116033
0.124247
0.42107
0.119027
0.00244846
0.000606965
0.000260128
0
0.0282096
0.00574824
0.232624
0.387044
0.113645
0.00217227
0.000480315
0.000120079
0
0.00334701
0.00037189
0.217446
0.51426
0.181638
0.013167
0.00842686
0.00591231
0.00171714
0.0258883
0.00302677
0.0527643
0.256962
0.083665
0.0172989
0.00895309
0.00777658
0.00622147
0.0418617
0.00132919
0.0194334
0.092473
0.0540242
0.00524533
0.00146255
0.000344416
0
0.00222976
0
0.184963
0.59871
0.169112
0.020468
0.00718771
0.00282886
0.0123955
0.0266245
0.000163055
0.174801
0.59871
0.19627
0.00481299
0.00440484
0.00408562
0.0179707
0.303722
0.0124099
0.00292716
0.00788018
0.0110354
8.43988e-005
0.000410806
0.000544653
0.0280384
0.577581
0.0491333
0.000270454
3.33744e-005
0.00071851
0.0232342
0.0214322
0.00225808
0.0770762
0.29293
0.00156455
0.042
0.228297
0.0909275
0.0133367
0.0307056
0.00031701
0.146854
0.577581
0.0207364
0.00204415
0.0323259
0.0250421
0
0
0.000176735
0.0246701
0.436938
0.0456193
0.00291154
0
0
0
0
0.00933918
0.121718
0.389839
0.0823761
0.0203808
0
0
0.000200808
0.00381537
0.00123715
0.0562409
0.514182
0.0415971
0.000155787
0
0
0
0
0.00866003
0.208665
0.514182
0.0652588
0.00109051
0
0
0.0397688
0.22941
0.129682
0.170205
0.059361
0.0275772
0.054208
0.0990185
0.0608525
0.22646
0.233496
0.238287
0.197267
0.0454194
0.0206412
0.0401491
0.0342838
0.075174
0.0549715
0.11081
0.152859
0.316916
0.0931528
0.0635148
0.193676
0.129503
0.0423252
0.152766
0.246325
0.105885
0.274453
0.173572
0.0814012
0.102016
0.0566045
0.0656391
0.180804
0.0996717
0.105171
0.0780404
0.0104152
0.072032
0.14779
0.0262771
0.075266
0.114626
0.105814
0.121354
0.156603
0.0857304
0.113858
0.30546
0.22022
0.104784
0.127426
0.183221
0.0424165
0.117708
0.0456559
0.114964
0.179291
0.0428158
0.0616459
0.0702689
0.0331925
0.126379
0.156613
0.0617547
0.120133
0.370489
0.286734
0.144125
0.0984882
0.123888
0.0453318
0.0657932
0.150365
0.0619124
0.0722037
0.0896504
0.0765405
0.129041
0.127877
0.0141061
0.107075
0.325389
0.0976929
0.146221
0.0381968
0.215265
0.0519195
0.057654
0.0666613
0.0645244
0.171862
0.0633211
0.0925282
0.154778
0.167878
0.26104
0.215833
0.0489062
0.224059
0.399498
0.071582
0.0391531
0.0828799
0.298494
0.0594712
0.0670662
0.0797107
0.137358
0.233955
0.0588499
0.142044
0.0784222
0.172158
0.0766146
0.339573
0.205838
0.131045
0.15208
0.117047
0.0806407
0.141704
0.112371
0.124209
0.104412
0.0707897
0.29379
0.27244
0.0502929
0.0534627
0.0625427
0.155581
0.0384464
0.182667
0.236628
0.141589
0.210257
0.152162
0.037478
0.109822
0.085428
0.0143726
0.127378
0.0730789
0.0179352
0.107613
0.132558
0.0950971
0.141156
0.0153086
0.0110901
0.0496935
0.0268582
0
0.205166
0.145939
0.502652
0.420429
0.030916
0.00621753
0.0683751
0.0792401
0.00836745
0.130233
0.207353
0.0510288
0.118898
0.015133
0.0241889
0.0465751
0.0366093
0
0.136793
0.287246
0.236976
0.230687
0.0496077
0.0184713
0.00647694
0.00549511
0
0.0593699
0.0267384
0.319283
0.296205
0.0609774
0.0258787
0.00263861
0.00870445
0
0.00683716
0.0193048
0.433631
0.573798
0.175838
0.0403421
0.0317136
0.0569114
0.00800075
0.0255604
0.0635604
0.12509
0.0950255
0.0462383
0.0869132
0.0245739
0.0972348
0.0133346
0.0265257
0.0418183
0.265556
0.18188
0.1223
0.00842669
0.000254395
0.00142913
0
0
0.00356351
0.167309
0.361159
0.102072
0.0143325
0.000669225
0.000268494
0.00310957
0.00290342
0
0.16906
0.537958
0.152122
0.0328281
0.00216901
0.012401
0.00102734
0.00838546
0.0097031
0.170906
0.179954
0.100429
0.0148166
0.000151067
0
0
0.000705727
0.00224271
0.30951
0.496645
0.144539
0.0561028
0.0625709
0.000334043
0.067917
0.0997564
0
0.0647819
0.425248
0.139637
0.0514314
0.107143
4.77205e-005
0.150763
0.444676
0.00686366
0.00373824
0.0941358
0.0699788
0.0542749
0.0380326
0
0.00951881
0.00834304
0.00294337
0.261991
0.480594
0.137003
0.0737363
0.0764494
0.012766
0.0578958
0.183697
0.00949545
0.138283
0.217596
0.165538
0.00363017
0.013839
0.000543679
0.0702207
0.43791
0.0277655
0
0
0.0031126
0
0
0.00380576
0.175843
0.463929
0.0650115
0.00155467
0
0
0.0166659
0.0164862
0.0309259
0.157226
0.375625
0.0150944
0.0281203
0.0217262
0.0444275
0.00142209
0.000948063
0.0185556
0.247602
0.483837
0.0540169
0.157664
0.0442711
0.00276285
0.0508346
0.0865569
0.294478
0.211453
0.0466223
0.0309232
0.0847991
0.0570228
0.0646353
0.0756168
0.111401
0.144038
0.160689
0.207673
0.0469123
0.125096
0.0517679
0.0363591
0.0932252
0.192128
0.349672
0.145282
0.104864
0.0923974
0.0378602
0.0247776
0.0552322
0.220426
0.183309
0.344587
0.0777303
0.215799
0.0858949
0.104226
0.035218
0.075642
0.0302207
0.0848246
0.0644735
0.110166
0.0928149
0.104228
0.217427
0.0879811
0.0274471
0.0402062
0.017868
0.11053
0.072011
0.0739642
0.183924
0.258989
0.225965
0.129032
0.1244
0.0991464
0.216259
0.107646
0.118716
0.114775
0.20492
0.0862031
0.0481238
0.085786
0.0883084
0.0920472
0.0945588
0.130949
0.23924
0.385502
0.142858
0.0896289
0.0947448
0.0452081
0.105232
0.0160586
0.121071
0.130132
0.113646
0.14527
0.146541
0.32035
0.246329
0.150171
0.149596
0.18161
0.0741198
0.0419462
0.0785792
0.17585
0.156421
0.0739753
0.0652726
0.0214264
0.114316
0.133404
0.201805
0.0722063
0.0671965
0.313355
0.208178
0.223033
0.032437
0.110519
0.0455231
0.1063
0.115579
0.105124
0.125652
0.092255
0.0979635
0.200194
0.183844
0.0680228
0.0299897
0.0380508
0.104827
0.0778679
0.0400028
0.113919
0.151832
0.251303
0.162479
0.0618888
0.125668
0.150374
0.145694
0.0798754
0.139351
0.042099
0.141363
0.051331
0.0778493
0.228837
0.127207
0.118716
0.052251
0.0474634
0.0922348
0.150432
0.113201
0.122284
0.409648
0.264092
0.0357138
0.0272981
0.0422552
0.0494372
0.184075
0.194139
0.0835607
0.209092
0.087107
0.0750799
0.0290347
0.0307627
0.0127656
0.0935486
0.261615
0.218871
0.372036
0.229715
0.113006
0.0899072
0.00614288
0.0900224
0.0966095
0.0514416
0.0893775
0.172645
0.17384
0.162561
0.119133
0.0418386
0.0341171
0.0602137
0.147948
0.171881
0.23896
0.229768
0.087335
0.0634245
0.170799
0.0524434
0.0258261
0.13787
0.148281
0.208367
0.216981
0.148421
0.0544867
0.260963
0.0881306
0.183231
0.142678
0.211126
0.19627
0.187014
0.119145
0.0712264
0.115157
0.0504212
0.0590615
0.164278
0.106827
0.20209
0.18218
0.0436426
0.069158
0.158531
0.0972607
0.147454
0.196453
0.163714
0.150472
0.0914724
0.054855
0.00501574
0.0226309
0.00589626
0.0576063
0.0592976
0.127181
0.148675
0.16417
0.0507977
0.00048858
0.000277432
9.24775e-005
0.0191287
0.0465108
0.487135
0.551416
0.300214
0.012998
0.0113755
0.0266288
0.0110657
0.063243
0.0835614
0.0566599
0.0701413
0.107246
0.084962
0.000347585
0.00277539
0.0259623
0.112885
0.0890201
0.0987971
0.154326
0.266841
0.0367079
0.000227185
0
0
0.00792722
0.0312753
0.380748
0.362273
0.0924958
0.0889224
0.0313671
0.0862454
0.0489197
0.0537096
0.0733313
0.362608
0.31254
0.214361
0.0663326
0
0
0.0451509
0.0702579
0.0615927
0.136478
0.122842
0.0716847
0.123325
0.0936531
0.288766
0.242512
0.0722449
0.171301
0.199427
0.146557
0.105824
0.0540828
0.0324658
0.185142
0.199951
0.174686
0.0231785
0.0757357
0.062268
0.106121
0.00745603
0.00976784
0.108417
0.236823
0.306935
0.095522
0.339195
0.12952
0.0111858
0.0941515
0.095749
0.397083
0.1579
0.106156
0.0504326
0.0418492
0.0345732
0.094148
0.0379466
0.0300829
0.17004
0.142372
0.38234
0.154144
0.183738
0.0856508
0.0688327