0.119253
0.0364084
0.0988274
0.0997697
0.121451
0.11645
0.0756849
0.109407
0.0850889
0.237479
0.0961789
0.171585
0.116849
0.0438728
0.033978
0.0840271
0.0401831
0.0421109
0.161044
0.174198
0.303932
0.353642
0.0966316
0.0950879
0.0704672
0.019473
0.122933
0.408895
0.212942
0.266461
0.17074
0.0119339
0.0103779
0.0106434
0.0146043
0.137719
0.0338756
0.023145
0.0723569
0.0378675
0.00901769
0.0043846
0.040071
0.0210248
0.0116969
0.0218266
0.0747237
0.095544
0.0400722
0.0237031
0.0272675
0.0640132
0.0249717
0.0237388
0.0721862
0.101397
0.187088
0.0509964
0
0.00131223
0.00635499
0.0300848
0.0329016
0.0754929
0.698804
0.582059
0.0445495
0.00387
0.00999823
0.0194871
0.0359531
0.0748495
0.0362828
0.0941727
0.0811026
0.0143123
0.00993655
0.0123131
0.0131976
0.00293223
0.0144618
0.21521
0.278717
0.101918
0.00934002
0.0040116
0.00499245
0.00283969
0.0215808
0.0698647
0.0517132
0.484644
0.361603
0.006548
0.00205444
0.00296654
0.0038163
0.00216641
0.0181917
0.258447
0.484644
0.349647
0.00146507
0.000293491
0.000703589
7.81765e-005
0.00260785
0.0446162
0.219212
0.318298
0.0227875
0.00212697
0.000938945
0
0.000901422
0.0148567
0.0527092
0.431576
0.280121
0.018433
0.00153396
0
0
0.00137893
0.00318505
0.134927
0.250701
0.425528
0.0628534
0.00234118
0
0
0
0.00170285
0.029523
0.374723
0.354941
0.0139809
0.00221569
0.000505448
0.00540402
0.000953651
0.000474729
0.0757839
0.417299
0.0574941
0.00939276
0.000641014
0
0.000285151
0.00303594
0.00142008
0.254967
0.380814
0.0112208
0.0041628
0.000698135
0.000398988
0.00199606
0.012204
0.0110312
0.467946
0.324271
0.0841276
0.00102474
0.00115433
0.0015607
0.00613854
0.00108327
0.00283282
0.166039
0.260513
0.0106998
0
0.000624279
0.000936419
0.000876934
0.0070102
0.0908307
0.361464
0.158834
0.000317551
0.00519719
0.00243834
0.00153806
0.000707062
0.0148968
0.0850866
0.452402
0.0964383
0
0.00499455
0.0145076
0.00496548
0.00183626
0.086559
0.419966
0.311755
0.094944
0.00241387
0
0
0.00336721
0.000841803
0.0202936
0.199149
0.294275
0.0718268
0
0.000220618
0.00125017
0.00561202
0.001403
0.104033
0.458936
0.253533
0.0410316
0
0.00437115
0.0353103
0.00524322
0.00498966
0.0844484
0.36152
0.0974691
0.0289238
0.00240545
0.00819038
0.0343956
0.0868277
0.0201077
0.0678278
0.286653
0.074231
0.0293883
0
0.000599483
0.004671
0.000984039
0.000189807
0.19172
0.50562
0.115135
0.0104961
0
0.00117005
0.00482448
0.0611815
0.021101
0.333123
0.50562
0.141185
0.0265908
0.0110278
0.0285302
0.0496285
0.186181
0.0357318
0.056387
0.144226
0.031577
0.00619163
0.0210938
0.0699071
0.0902376
0.105993
0.0248206
0.0981487
0.0673408
0.0356325
0.00884187
0
0.00520644
0.0306502
0.179958
0.0451422
0.432331
0.636086
0.0831602
0.0555947
0.026143
0.0558568
0.0660581
0.126547
0.0183477
0.296108
0.271772
0.0923591
0.0295069
0.175822
0.287864
0.103314
0.0960325
0.035924
0.0990921
0.0854792
0.120982
0.0707706
0.264674
0.218977
0.112802
0.020326
0.0848764
0.133982
0.132172
0.149513
0.172505
0.1347
0.257028
0.104523
0.050996
0.0105351
0.143555
0.175172
0.274645
0.243845
0.173814
0.149883
0.171185
0.00552283
0.0554972
0.0757971
0.0916417
0.273484
0.105413
0.087185
0.0672548
0.0508726
0.00688705
0.0101155
0.0113955
0.00425228
0.0982299
0.126618
0.083302
0.183565
0.0807744
0.0212436
0.00961063
0.00647859
0.00415405
0.0613426
0.18624
0.104715
0.176884
0.0816265
0.0602429
0.0135847
0.050916
0.029766
0.139272
0.0914015
0.105418
0.742157
0.34462
0.146346
0.0226411
0.0330164
0.0157026
0.0353427
0.0143711
0.075168
0.242101
0.0519288
0.00310908
0.000531637
0.000132909
0.00321822
0.00767375
0.0105665
0.344609
0.460633
0.0380956
0
0
0
0.00311741
0.0124756
0.00441766
0.0858607
0.460633
0.182569
0.0220306
0.00130124
0.000221515
0
0.00169164
0.0095223
0.253993
0.460633
0.152194
0.034522
0.000741245
0
0.000745794
0.00422616
0.03387
0.518002
0.373429
0.0056971
0.00017367
0.000260505
0
0.000744534
0.0123348
0.130452
0.44325
0.201097
0.00485234
0.00583683
0.00182354
0
0.00136508
0.0322721
0.0642833
0.313298
0.254283
0.028926
0.0513497
0.00288899
0
0.02261
0.0328916
0.14811
0.246026
0.151779
0.0219081
0.0295379
0.012917
0
0.036434
0.0660203
0.271555
0.309276
0.135344
0.0198673
0.0091695
0.00121366
0.0101265
0.0345544
0.0735229
0.397002
0.189487
0.0625466
0.0191367
0.0278406
0.0383999
0.0282527
0.070212
0.140162
0.188677
0.149052
0.274435
0.0438272
0.0215241
0.0172675
0.0975021
0.133078
0.122464
0.111358
0.0298946
0.0926051
0.0234895
0.0488543
0.071084
0.38857
0.326579
0.195821
0.413659
0.116465
0.0124752
0.0406359
0.0908095
0.0901546
0.0234835
0.0521682
0.21044
0.245348
0.049148
0
0.0387411
0.0398056
0.02806
0.0741161
0.25485
0.338435
0.0397024
0.0054904
0.00748514
0.0728144
0.164338
0.138691
0.327984
0.25047
0.172798
0.0699618
0.0184642
0
0.0685084
0.0830491
0.0983325
0.153835
0.185142
0.165475
0.0763532
0.0181904
0
0.00808197
0.0637644
0.01596
0.0887782
0.341627
0.290685
0.111922
0.0130996
0.00241446
0.00812914
0.106014
0.0374554
0.167908
0.598215
0.357637
0.0584223
0.0225921
0
0.01347
0.0695237
0.054431
0.111081
0.128891
0.0882782
0.112335
0.0512825
0.0186842
0.0135486
0.114128
0.0803281
0.0610813
0.145714
0.127693
0.025837
0.0070707
0.00183767
0.000429869
0.00560604
0.00751155
0.136066
0.333827
0.0750829
0.0102074
0.0040272
0.00090924
0
0.00724703
0.00480113
0.436137
0.600676
0.114817
0.0429957
0.0239109
0.0147574
0.000716449
0.00650253
0.0139287
0.0354561
0.109469
0.025425
0.0371507
0.0134247
0.00750095
0
7.72266e-005
0.00162299
0.326704
0.33827
0.0219904
0.00415715
4.58809e-005
0
0.00144224
0.0133425
0.00393321
0.36025
0.314126
0.0243419
0.029491
0.00990226
0.0051568
0.00750705
0.0185989
0.0101315
0.45388
0.205389
0.0235246
0.00436838
0.000481348
0
0
0
0.00213078
0.382511
0.216831
0.00398036
0.00425087
0.00132021
0.00148021
0.00133631
0.0133426
0.0915764
0.477192
0.208979
0.00168429
0.0571958
0.0281072
0.0229888
0.0297678
0.0296766
0.0429084
0.282044
0.0972763
0.0464016
0.0728937
0.0489455
0.0297551
0.0816872
0.0216033
0.0460373
0.035695
0.0250097
0.0707024
0.0141243
0.00630042
0.0128383
0.0198053
0.125982
0.357447
0.715216
0.114935
0.0091561
0.0515098
0.0487216
0.0824769
0.0889393
0.146891
0.245914
0.176996
0.0257212
0.0509774
0.0570744
0.0330761
0.121503
0.0727282
0.0806263
0.0151086
0.0126007
0.00698982
0.0275297
0.018911
0.0246838
0.455988
0.307406
0.132282
0.0202012
0.00672337
0.00347426
0.00601714
0.0336853
0.0157096
0.151804
0.222539
0.110005
0.0175631
0.0161801
0.0216249
0.0134863
0.0102955
0.0170924
0.4762
0.498112
0.185075
0.0209722
0.00612622
0.00523745
0.00364032
0.000435904
0.0429656
0.489404
0.251622
0.057106
0.00247502
3.85711e-005
0
0
0.0153028
0.0950114
0.355192
0.168545
0.102867
0.0248908
0.000430992
0.000352997
0.00200032
0.00250405
0.0243245
0.42089
0.390668
0.100315
0.00584241
0.00288274
0
0.000197505
0.0192786
0.0213721
0.278708
0.181121
0.121473
0.0459036
0.00552289
0
0.00138254
0.143064
0.13137
0.149947
0.106684
0.245813
0.0899905
0.00266491
0.0422851
0.0364511
0.316729
0.198102
0.21935
0.10669
0.103896
0.0453684
0.00159895
0.0686593
0.0554987
0.0639568
0.026641
0.388759
0.331514
0.235397
0.14621
0.00592057
0.00572893
0.00548398
0.161773
0.0575156
0.292504
0.286493
0.1019
0.0592064
0.00266491
0.00954821
0.0222374
0.159942
0.125518
0.263652
0.0479168
0.0174683
0.0289273
0.12641
0.0640796
0.0372391
0.0345087
0.0215888
0.0691223
0.0067898
0.015919
0.116911
0.689295
0.263534
0.0666479
0.06935
0.0408622
0.0805699
0.0567349
0.0195068
0.0137723
0.0380539
0.00365595
0.0156726
0.0135187
0.00541731
0.01189
0.00112608
0.00538616
0.0592663
0.346093
0.242605
0.0296777
0.00182364
0
0
0.00747113
0.020522
0.0527646
0.313286
0.218437
0.0731966
0.0168019
0.00117604
0
0.0062076
0.0176228
0.0475286
0.136918
0.163383
0.156392
0.00811172
4.75799e-005
0.00014274
0
0.00802801
0.0332016
0.257457
0.438468
0.094415
0.0173173
0.000112542
0
0.0279315
0.045615
0.144716
0.377024
0.473406
0.19002
0.0483027
0.0266671
0.00574023
0.0197592
0.0197407
0.122493
0.177752
0.123838
0.175724
0.108058
0.056849
0.0375685
0.0403824
0.031173
0.0690384
0.0998313
0.0597034
0.0987073
0.0321109
0.02346
0.0153352
0.171271
0.137973
0.354454
0.558702
0.257178
0.147129
0.113587
0.0610081
0.0625794
0.142953
0.087346
0.0988602
0.18048
0.0294758
0.0957734
0.158956
0.0772706
0.0992693
0.0376861
0.0132136
0.0281001
0.0524798
0.0463381
0.0725062
0.176747
0.106654
0.0688445
0.0202911
0.00543378
0.00969401
0.476533
0.463888
0.126178
0.101537
0.0621737
0.148157
0.0668851
0.0202814
0.0404643
0.0945636
0.0778609
0.150953
0.0517096
0.121359
0.107564
0.0382587
0.0353724
0.0914787
0.093243
0.201984
0.227768
0.0078673
0.00758123
0.000487548
0.000402206
0.0016939
0.0265716
0.269981
0.122756
0.00946332
0.000395808
0.000869104
0
0.000241324
0.0160517
0.240154
0.60648
0.103306
0.000395808
0.0027919
0.0115582
0.000812579
0.00281544
0.0135653
0.0749022
0.0908772
0.0450185
0.016289
0.000237485
0.00144851
0
0.00168927
0.0300677
0.387107
0.494029
0.060335
0.00336851
0
0.00033488
0.000781386
0.00807463
0.0546087
0.250457
0.396669
0.0122121
0.000226567
0.0151145
0.0144487
0.0128998
0.0283626
0.0955462
0.195151
0.177769
0.00547992
0.0106898
0
0
0
0.00449546
0.0623973
0.385395
0.391699
0.0166211
0.000248711
0.0176593
0.00631074
0.00773608
0.0410604
0.183493
0.434022
0.350627
0.00822767
0.0115059
0.0200109
0.0119789
0.151892
0.203487
0.0957048
0.00401581
0.00504225
0.0150093
0.0100296
0.00329365
0.0104769
0.296162
0.448971
0.16912
0.0122951
0.00240457
0.0031075
0.00367908
0.0355901
0.0290558
0.192028
0.256273
0.270163
0.00744126
0.00103465
0.0109773
0.00569796
0.00497486
0.00214906
0.184376
0.43861
0.394996
0.0505402
0.00244576
0.00188307
0.0046847
0.0072314
0.0188789
0.294096
0.388934
0.155997
0.0238508
0.00784629
0.00185118
0.0125649
0.024523
0.0330989
0.348575
0.279401
0.109982
0.0226217
0.0112775
0.00177661
0.00966409
0.00722297
0.00231381
0.114743
0.283557
0.272813
0.116309
0.0300397
0.0129583
0.0204356
0.0305028
0.0552916
0.231793
0.267441
0.351984
0.117413
0.0672745
0.0379151
0.0125649
0.0264053
0.0701955
0.381937
0.235178
0.0602565
0.0190398
0.00202589
0.00256471
0.00404097
0.107547
0.0760214
0.175499
0.111959
0.0309982
0.0297697
0.010053
0.016843
0.0388294
0.0480915
0.247224
0.423134
0.163222
0.200514
0.0560445
0.0306884
0.0466459
0.00369541
0.138573
0.289946
0.300909
0.0407755
0.325906
0.136649
0.0194439
0.122
0.0348165
0.0714039
0.0226446
0.0278005
0.0175635
0.0662822
0.0386188
0.0179445
0.0107
0.0448399
0.0563146
0.0108269
0.00453108
0.00607412
0.0617133
0.00790888
0.0316119
0.0973119
0.0874864
0.0875599
0.0627615
0.0398847
0.0146894
0.6121
0.168968
0.0269465
0.0716303
0.0332169
0.128802
0.0165164
0.0605142
0.0422779
0.591196
0.115295
0.0670273
0.117467
0.163796
0.0249044
0.00274472
0.00043752
0.00206097
0.0424599
0.0169089
0.0503959
0.18281
0.0887727
0.00603579
0
0.000243362
0.154327
0.244526
0.14488
0.202162
0.209813
0.0612054
0.0799675
0.00809734
0.050488
0.0436002
0.183401
0.0440391
0.167191
0.263198
0.135981
0.0339965
0.0257486
0.0536601
0.396492
0.517048
0.055259
0.170415
0.223193
0.0445571
0.00871761
0.0209207
0.0119132
0.298856
0.250368
0.148582
0.195493
0.0637636
0.0155137
0.0683813
0.0732618
0.0262486
0.0981461
0.0789919
0.0403424
0.0570543
0.040589
0.0459105
0.0280456
0.0278155
0.0414261
0.541106
0.499326
0.0795471
0.0643476
0.0397436
0.0207535
0.0552625
0.0677098
0.042433
0.120257
0.101636
0.0791132
0.0479012
0.140712
0.0592134
0.0984865
0.0750705
0.0503563
0.0558661
0.0587214
0.030334
0.105977
0.220914
0.141798
0.0116218
0.0409672
0.0481608
0.114489
0.109287
0.0727666
0.133037
0.222469
0.138835
0.125315
0.203235
0.0771869
0.162664
0.0884654
0.0436301
0.0965614
0.336405
0.168686
0.0391647
0.138562
0.194094
0.357319
0.178337
0.0431472
0.130611
0.174547
0.0964189
0.000325437
0.015387
0.0187344
0.022473
0.0271511
0.0880639
0.0499453
0.0550939
0.0353761
0
0.00728713
0.0141244
0.00683529
0.133828
0.558341
0.427588
0.136852
0.0266794
0.000229738
0.0241729
0.0896393
0.0840418
0.0335989
0.0323545
0.0366093
0.0501368
0.0177196
0
0.036816
0.0796408
0.0997887
0.320839
0.412965
0.113099
0.0744097
0.0195234
0
0
0.000199519
0.000698292
0.127875
0.279105
0.146644
0.0186966
0.000845328
0.00587944
0
0.00812424
0.0256859
0.276054
0.4749
0.158386
0.00819309
0.00417004
0
0.00447597
0.00286488
0.0127035
0.233721
0.274081
0.0312033
0.00525571
0.00062424
0.00159056
0.00682463
0.0120688
0.00944062
0.342429
0.4749
0.162876
0.0427558
0.0832756
0.0253806
0.0151337
0.133144
0.203874
0.211
0.103061
0.0132389
0.0110315
0.000973581
0.00256385
0.000791048
0.0859337
0.333383
0.281956
0.112023
0.00805034
0.000655102
0.000572113
0.00662811
0.00678751
0.0412849
0.103
0.251145
0.410537
0.0983813
0.00305948
0.00162264
0.000339021
0.000558353
0.0207841
0.167784
0.342846
0.472336
0.0642755
0
0
0.00164516
2.21442e-005
0.0498383
0.329221
0.310898
0.156286
0.0321994
0.00746119
0.0082254
0.136563
0.0982932
0.12732
0.107193
0.290076
0.225273
0.131748
0.0470388
0.0612645
0.00216001
0.000155009
0.0108869
0.269581
0.480386
0.293651
0.0213965
0.0100362
0.00849659
0.122835
0.0508584
0.0682774
0.0700562
0.121082
0.0963485
0.0741561
0.0280956
0.110995
0.0986911
0.179855
0.228296
0.0230565
0.120023
0.0747246
0.0408979
0.0337867
0.0291626
0.0308296
0.146685
0.192941
0.0182903
0.500104
0.170914
0.00590906
0.0454405
0.00769508
0.0881072
0.0605209
0.0755971
0.00656272
0.0694566
0.0445577
0.0217701
0.00923572
0.0524165
0.0170563
0.0291854
0.0438054
0.0102795
0.529239
0.392205
0.0747105
0.00244237
0.00628189
0.00573772
0.0113593
0.0122463
0.013473
0.433213
0.11367
0.00219965
0.0148232
0.00195674
0.0205327
0.00119193
0.0325898
0.0201597
0.385534
0.201946
0.0391237
0.0383057
0.0229347
0.000516193
0.00049228
0.00114865
0.00841419
0.38328
0.338692
0.120637
0.00202291
0.000516193
0.000860321
0
0.00465568
0.0036231
0.33822
0.301233
0.221733
0.0681205
0.00120929
0.0330448
0.0105473
0.0500461
0.0380646
0.201629
0.17888
0.168195
0.226689
0.0377368
0.0616872
0.069742
0.0614333
0.187579
0.200699
0.0778915
0.212576
0.243594
0.0521118
0.0159548
0.00597789
0.00714945
0.00509933
0.203407
0.270615
0.358472
0.258412
0.0390422
0.191615
0.0418452
0.0612657
0.0282713
0.126734
0.185229
0.24862
0.232914
0.184512
0.0377035
0.0435846
0.0481949
0.197023
0.23422
0.100545
0.11052
0.0644155
0.0606164
0.0359105
0.0194583
0.0431875
0.0448999
0.0586194
0.0732395
0.0636554
0.0764466
0.0428268
0.342733
0.0549589
0.0919161
0.0343676
0.139124
0.21169
0.0966457
0.0572353
0.29896
0.426561
0.0735209
0.0372221
0.00936875
0.0615289
0.10094
0.0529048
0.0684083
0.469273
0.0455664
0.0364323
0.0369952
0.029139
0.00499022
0.0160225
0.0281173
0.043114
0.0627649
0.0402621
0.0362908
0.10735
0.0853257
0.0244221
0.015888
0.0148774
0.0183131
0.0420382
0.353405
0.0287258
0.0245752
0.0118729
2.11293e-005
0.0138608
0.016474
0.0584501
0.408927
0.449188
0.0332611
0.0714533
0.0696244
0.00791978
0.0148914
0.00768357
0.0551267
0.579601
0.0265627
0.0224569
0.111719
0.11586
0.0436253
0.0275732
0.0247855
0.0176774
0.0117148
0.00878389
0.0927534
0.107741
0.173396
0.265483
0.22107
0.0779453
0.00755543
0.00443668
0.262194
0.0221212
0.0998211
0.145205
0.0394231
0.0138453
0.0601104
0.163228
0.392779
0.0365857
0.0637196
0.220406
0.306913
0.386334
0.0850412
0.154648
0.113258
0.127758
0
0.0169475
0.011903
0.0342764
0.219254
0.146775
0.0143252
0.000195357
3.44748e-005
0.0703169
0.0337195
0.0641173
0.0602825
0.336625
0.280911
0.0727914
0.0269509
0.140838
0
0.0110624
0.0294044
0.103022
0.343265
0.0356916
0.0130629
0.000902115
0.00227357
0.113819
0.0706581
0.18272
0.335368
0.581219
0.059316
0.000846248
0.00117304
0.0579738
0.00307942
0.0115916
0.0106453
0.0171454
0.135747
0.336076
0.0711689
0.00127041
0.00107993
0
0.00122804
0.00169034
0.0403254
0.233482
0.514968
0.0726848
0
0
0.00571662
0.016798
0.0369633
0.0544778
0.13032
0.273191
0.0458834
0.00267266
0.00463213
0
0.00125107
0.0133489
0.0352716
0.243661
0.514968
0.247321
0
0
0.00567164
0.00360301
0.00289162
0.0828746
0.244526
0.314254
0.0360323
0.0109986
0.00810985
0.0263276
0.0246961
0.0198479
0.0339959
0.0540342
0.0420608
0.02042
0.0250324
0.0303939
0.00752797
0.0139695
0.0163204
0.0445612
0.165326
0.741493
0.341483
0.00730726
0.00995913
0.0413855
0.061147
0.0573871
0.0787664
0.0414687
0.173061
0.0830739
0.0164654
0.0236288
0.0307883
0.041177
0.0453637
0.0414001
0.0639525
0.0337702
0.0199377
0.0305234
0.0378618
0.0173767
0.0199071
0.0260726
0.0291278
0.378002
0.522104
0.426015
0.017165
0.0105363
0.0557104
0.0730931
0.106463
0.153168
0.0579275
0.0175587
0.0154433
0.0270497
0.0437968
0.0949191
0.0918198
0.0864796
0.122648
0.0942917
0.138842
0.358908
0.0163652
0.0478984
0.0019225
0.00062766
0.000970024
0.00240703
0.0827859
0.217011
0.311399
0.0219
0.000269028
0.0015361
0
0
0
0.0672349
0.116069
0.302943
0.120991
0.0089574
0.0397583
0.0136663
0.00487238
0.00752174
0.0119813
0.0916755
0.35123
0.116158
0.0286422
0.0317575
0.00233168
0
0
0.00215887
0.0562423
0.435914
0.555452
0.0993941
0.0293337
0
0
0
0.036725
0.0497779
0.214561
0.181934
0.0930791
0.269967
0
0.0159309
0.00281134
0.02966
0.0418074
0.108028
0.109445
0.253073
0.072818
0
0
0
0.000676784
0.00636375
0.180884
0.412396
0.253502
0.357105
0
0
0
0
0.000461533
0.0297515
0.112128
0.507764
0.279521
0.00578527
0.0152747
0.00262707
0.0157341
0.0307889
0.00775771
0.00682908
0.211314
0.323001
0.0142579
0.00373666
0.000435364
0.00652941
0.0136917
0.00217006
0.00903649
0.37254
0.318851
0
0
0
0
0
0.000869137
0.00076622
0.33758
0.369745
0.000177565
0
0
0
0
0
0.0123886
0.458534
0.278383
0.00701892
0.00130957
0.000823048
0
0.000814701
0.00038468
0.0112286
0.301742
0.285949
0.00627311
0.00292525
0.00762704
0.00434743
0.0117439
0.00898519
0.0500802
0.439279
0.299667
0.00306717
0
0
0
0
0
0.0129003
0.322957
0.391266
0.019891
0.0382794
0.0138638
0.030432
0.0177942
0.00816702
0.0357041
0.361145
0.129274
0.00387798
0.0214792
0.0353451
0.0405838
0.0566677
0.0759614
0.164844
0.2786
0.0128658
0.0129827
0.109712
0.146143
0.144242
0.0819694
0.13766
0.123015
0.0701964
0.226509
0.0329548
0.196393
0.17743
0.12241
0.0938376
0.0583194
0.0936256
0.178873
0.0365314
0.0314922
0.326839
0.537894
0.176278
0.184016
0.136945
0.0735719
0.0190419
0
0.00168529
0.0336305
0.11489
0.162831
0.012559
0.018574
0.00490829
0.00157701
0.0106547
0.0140736
0.0783339
0.34754
0.463924
0.0296575
0.00205652
0.000478572
0.00388657
3.06694e-005
0.0101619
0.158691
0.297063
0.154127
0.035386
0.0241793
0.00648037
0.000225287
0.00874907
0.01175
0.227994
0.463924
0.402453
0.0290814
0.0028115
0.00167465
0
0.00257253
0.00794438
0.0253222
0.0401769
0.0706014
0.138267
0.0616212
0.0155267
0.0100728
0.00010039
0.000739848
0.00986729
0.0204574
0.0861382
0.509013
0.464603
0.0202393
0.00345438
0.0119559
0.023424
0.0454587
0.0480981
0.031988
0.0645251
0.0708485
0.0531401
0.034579
0.00154716
0.0218699
0.0450675
0.0110073
0.00783778
0.356421
0.509013
0.136446
0.0955567
0.000646498
0.00218952
0.0035571
0.0114313
0.0161894
0.30018
0.370738
0.00526888
0.00176705
0.00573622
0.00818804
0.0162071
0.025284
0.00882425
0.105923
0.187881
0.0045421
0.00906117
0
0.00234507
0.00397336
0.00148636
0.00116531
0.291399
0.528644
0.0486455
0.0310106
0.00189805
0.000107771
0.00160225
0.00306024
0.00228541
0.150647
0.528644
0.0467075
0.00665987
0.0498363
0.0224568
0.0452995
0.0634439
0.0280763
0.0342951
0.0937398
0.0263742
0.0630264
0.118834
0.0868885
0.0405679
0.0429452
0.0187461
0.0134716
0.0387549
0.0179225
0.0561864
0.0395662
0.00504374
0.0060106
0.00466222
0.00469039
0.111583
0.853653
0.187753
0.0477579
0.10264
0.0454777
0.0154267
0.0142038
0.017027
0.0300976
0.121064
0.117183
0.0512601
0.121982
0.0429796
0.0125569
0.0100271
0.00496417
0.0231363
0.133908
0.110252
0.0748416
0.127085
0.0219018
0.00556342
0.00283222
0.00559248
0.0146162
0.407319
0.681163
0.279878
0.0850965
0.0356472
0.0285749
0.0330426
0.0184994
0.02612
0.036729
0.021917
0.0543584
0.158982
0.0695014
0.04662
0.0198255
0.0375807
0.0383667
0.120211
0.106189
0.175506
0.108374
0.00849653
0.00406369
0.000946463
0.00443719
0.00746752
0.137855
0.297165
0.329635
0.322683
0.00639995
0.0107272
0.01061
0.0125335
0.0421495
0.0193912
0.10354
0.603965
0.103935
0.0378613
0.0454431
0.0111013
0.0293768
0.0246997
0.0424259
0.0778798
0.169812
0.244034
0.0512851
0.0762365
0.08173
0.0759497
0.0717621
0.0142276
0.0748478
0.266072
0.304148
0.0108017
0.0130342
0.0127495
0.00429388
0.0148404
0.000572175
0.00328519
0.392758
0.361695
0.0065097
0.00734946
0.00624457
0
0
0
0.0522796
0.539399
0.232802
0.0393941
0.051921
0.0902165
0.0258914
0.0257667
0.00503876
0.022263
0.174766
0.217338
0.0172156
0.026838
0.0460019
0.00241702
0.00389502
0.00404671
0.0786086
0.31517
0.323115
0.00764325
0
0.000241306
0.000241306
0.00141371
0.000353428
0.0543677
0.371104
0.526629
0.0361249
0.0428592
0.00781994
0.0139925
0.00497476
0.00124369
0.017779
0.336573
0.22089
0.00728755
0
0.0102388
0.0193951
0.0162105
0.00860435
0.0694229
0.228077
0.352468
0.0612003
0.0338779
0.0338751
0.0427863
0.0231259
0.0135824
0.0239573
0.211897
0.187582
0.0403195
0.11484
0.0666727
0.0203308
0.00848553
0.00592478
0.00370308
0.0809114
0.0454808
0.067603
0.32562
0.286594
0.0262209
0.0322786
0.0369086
0.00145693
0.00555355
0.129543
0.111828
0.214592
0.0393046
0.00864899
0.00281232
0.00405014
0.0032643
0.0617145
0.0329551
0.228871
0.654929
0.335257
0.00567663
0.00904605
0.0195322
0
0.00562944
8.36491e-005
0.0400756
0.315779
0.285835
0.0547996
0.0148361
0.0121298
0.00075817
0
0.0282216
0.0349787
0.31829
0.381096
0.131877
0.00825331
0.016811
0.00963905
0.0141745
0.00102028
0.0758981
0.465406
0.311821
0.0442123
0.0260563
0.00873518
0.0176176
0.00852052
0.0464473
0.0324037
0.305943
0.245676
0.0762305
0.10025
0.0378682
0.0426958
0.0451057
0.0807979
0.0988844
0.18678
0.0864222
0.0211259
0.0106879
0.0348192
0.0506026
0.123426
0.0382083
0.0795065
0.203241
0.0802615
0.0202886
0.323614
0.539079
0.141941
0.296707
0.162814
0.139464
0.112486
0.0607021
0.0554831
0.0333921
0.0287094
0.0243253
0.120752
0.123852
0.13057
0.186533
0.178607
0.0700845
0.105995
0.107548
0.0115807
0.24944
0.00385123
0.00223892
0.0104012
0.00977094
0.0102925
0.150647
0.457215
0.0444716
0.0349724
0.000317621
0
0.00066393
0.00129632
0.00595977
0.0912543
0.485808
0.147338
0.000700132
0.0225952
0.0120856
0.0238995
0.0274089
0.0414144
0.0756295
0.221562
0.0445431
0.0460102
0.00229139
0.00422265
0.00810976
0.00376281
0.0243534
0.0618686
0.485808
0.383085
0.0276544
0.0012643
0.000102888
3.77994e-005
0
0
0.0163486
0.337873
0.155668
0.00178843
0.00643613
0.00106053
0.000264595
0.00111045
0.0024034
0.00513422
0.116503
0.125193
0.0167639
3.37306e-005
0.000145988
0.000583951
0
0
0.0063057
0.472994
0.472994
0.0210382
0.00285254
0
0
0
0.000237332
0.000576711
0.330353
0.472994
0.0648107
0.0319071
0.00819649
0.00521558
0.00705374
0.00640318
0.0119462
0.0475675
0.0669233
0.0626693
0.0628043
0.0333177
0.01455
0.00446537
0.0152855
0.0274103
0.0330623
0.0237806
0.0698285
0.0339015
0.017566
0
0
0.000554602
0.00143967
0.179997
0.769084
0.198492
0.13846
0.0680638
0.0131119
0.00163187
0.0165733
0.018956
0.089881
0.351879
0.280165
0.0473401
0.0666314
0.0541888
0.0171383
0.0377995
0.0608639
0.0520285
0.0462016
0.0338031
0.190859
0.135677
0.0925745
0.0877322
0.0737725
0.0423837
0.0256
0.0743887
0.0111168
0.37843
0.091451
0.0281521
0.0149653
0.0600672
0.0645312
0.052638
0.106181
0.290709
0.428947
0.0820332
0.0286983
0.0463516
0.088116
0.0511813
0.0175876
0.11397
0.546453
0.170259
0.0595309
0.0613308
0.0651098
0.0248817
0.0220604
0.0230263
0.0425335
0.012516
0.0829869
0.0149803
0.0285447
0.031144
0.00750663
0.0367524
0.0286534
0.0704028
0.0723783
0.296103
0.132323
0.0275599
0.0132429
0.0260857
0.0268073
0.034494
0.0733108
0.307703
0.334024
0.672339
0.079517
0.000554589
0.00499964
0.0421078
0.0508592
0.0524624
0.198849
0.0330654
0.00721244
0.0174605
0.0155005
0.0164801
0.0248877
0.0120226
0.0209952
0.0242546
0.086176
0.0813497
0.146412
0.0835586
0.0371938
0.0317735
0.0177297
0.0076554
0.0173793
0.13602
0.318827
0.133648
0.0203708
0.00751612
0.0256074
0.0086696
0.0112068
0.0768169
0.165603
0.590236
0.590236
0.14284
0.0186379
0.0338494
0.0100452
0.00378534
0.0335458
0.0372158
0.121815
0.212969
0.0240405
0.00569567
0.00245322
0.00139427
0.00024388
0.00465744
0.00697943
0.176769
0.447982
0.0897399
0.00291808
0.00718775
0
0
0.00057094
0.0520335
0.379123
0.447982
0.0355018
0.00590399
0.00263465
0.000789957
0
0.00784228
0.0312894
0.319146
0.447982
0.0315572
0.0103134
0.0110021
0.00490795
0
0.011164
0.00828504
0.0940586
0.668268
0.242651
0.0406502
0.0596259
0.00155988
0.0325964
0.0190593
0.0289554
0.019418
0.217782
0.184256
0.062023
0.167131
0.0550975
0.0626362
0.0488094
0.0327735
0.117171
0.433381
0.129866
0.0481592
0.0461162
0.0113437
0.00880445
0.0138662
0.00828504
0.0252348
0.136177
0.164802
0.088758
0.0535147
0.0704712
0.0416996
0.0370517
0.124719
0.106476
0.0305965
0.080752
0.139987
0.136549
0.147242
0.0904744
0.105969
0.131308
0.184883
0.144111
0.229535
0.112829
0.143531
0.0799355
0.0168917
0.187325
0.105294
0.165288
0.036407
0.153705
0.257072
0.21937
0.14082
0.112097
0.0713101
0.0878202
0.11766
0.111505
0.208805
0.325812
0.277973
0.16543
0.167999
0.051658
0.0465968
0.0571433
0.0625115
0.0605299
0.0537294
0.0838978
0.0927836
0.0533525
0.0784888
0.00596844
0.0208663
0.0510527
0.0153665
0.0322365
0.0920081
0.575726
0.585293
0.128729
0.026552
0.0493504
0.0557505
0.0690082
0.0805024
0.107239
0.07247
0.0382456
0.0413611
0.017963
0.0225236
0.0778788
0.0368264
0.0386478
0.201685
0.213881
0.158482
0.103451
0.000130938
0.000449864
0.0103908
0.00180144
0.00111256
0.00632147
0.263684
0.431204
0.0494488
0.00654374
0
0.00531566
0.00252855
0.00014536
0.000436079
0.230774
0.521123
0.0943689
0.00303718
0.0131406
0.0304543
0.0204982
0.00823329
0.037798
0.0650348
0.176772
0.0437542
0.0408635
0.0188652
0.0280089
0.0292894
0.0122922
0.0132289
0.12914
0.521123
0.155032
0.00798072
0.0022698
2.62235e-005
0.000236012
0
0
0.0621032
0.42478
0.124492
0.0748392
0.0134931
0.00171648
0.000224524
0.00140256
0.000574114
0.0317168
0.268657
0.323614
0.0306763
0.00191922
0.00329529
0.00519284
0.011549
0.0209565
0.0672792
0.388
0.260361
0.0752505
0.0490412
0.00127344
0.000995642
0.00579508
0.0227952
0.0413809
0.399034
0.42478
0.147067
0.011087
0.00184664
0.000823805
0.00374865
0.0016556
0.00466307
0.0584917
0.253384
0.242759
0.00207435
0.000650586
0.00156438
0.00577181
0.00238864
0.000280668
0.0287708
0.302436
0.19062
0.0599139
0.00137
0
0
0.00289436
0.00695236
0.194466
0.459477
0.459477
0.0137327
0.000195715
0
0
0
0
0.0503982
0.459477
0.236406
0.0412353
0.00217056
0.000409681
0.0015797
0.00107927
0.00185751
0.00990945
0.153061
0.284617
0.332112
0.0211419
0
9.58457e-005
0.000986982
0.00288271
0.00310258
0.0466925
0.443314
0.0675231
0.000257507
0
0
0
0
0.00130843
0.279832
0.443314
0.442816
0.0310488
0
0.00664092
0
0.00077085
0.00230597
0.0897908
0.155838
0.437514
0.0547857
0.00244254
0.000327231
0.00268819
0.000597693
0.000931711
0.0212464
0.133811
0.437514
0.301984
0.022887
0.00737494
0.0102309
0.00189341
0.00255575
0.0254568
0.259066
0.437514
0.0707874
0
0.0188395
0.0105229
0.00493919
0.00442798
0.0433187
0.161089
0.346359
0.108319
0.00732739
0.0226863
0.0741438
0.028242
0.0159648
0.0707172
0.095345
0.575185
0.544732
0.0382071
0.0346188
0.00805691
0.00673494
0.0179813
0.0598012
0.0621208
0.274935
0.279086
0.0757279
0.0475963
0.0261715
0.03688
0.0171162
0.0558749
0.104112
0.148657
0.132524
0.0710353
0.0386619
0.0718705
0.0401774
0.0450319
0.0765152
0.0445554
0.0305215
0.0490754
0.15847
0.0470991
0.0900838
0.0484626
0.030205
0.0477307
0.0459313
0.0654881
0.133268
0.209925
0.127681
0.088919
0.107007
0.0145175
0.0224542
0.00294291
0.0417375
0.0863297
0.232239
0.244336
0.112423
0.15634
0.0806332
0.022078
0.0335536
0.00632348
0.0689686
0.310989
0.1593
0.157162
0.140313
0.01673
0.0143372
0.0515938
0.106832
0.153553
0.42489
0.377698
0.191631
0.179664
0.0797829
0.000169649