0.0222374
0.0441986
0.0627655
0.108272
0.00895986
0.100473
0.163723
0.0878745
0.0765241
0.0245794
0.0599853
0.0773006
0.05421
0.0596648
0.279587
0.143177
0.0644017
0.0479708
0.014224
0.0476957
0.0943492
0.0599624
0.110476
0.207259
0.0855949
0.103038
0.170717
0.0502025
0.130091
0.235774
0.106
0.171325
0.213911
0.0573054
0.0964003
0.0838144
0.0606106
0.0697074
0.0492432
0.0449043
0.0957651
0.157552
0.0829411
0.0577227
0.0202863
0.0937612
0.0526593
0.0669817
0.10473
0.143505
0.112713
0.201034
0.119241
0.0289874
0.104671
0.085773
0.163414
0.133016
0.158437
0.102613
0.0553856
0.0914489
0.0442133
0.120177
0.040794
0.172408
0.21227
0.207763
0.0945693
0.120896
0.165861
0.0813714
0.021124
0.0124528
0.048579
0.0452411
0.0729756
0.0521323
0.0720645
0.0132881
0.0108973
0.0187265
0.00848271
0.0388952
0.133858
0.503474
0.0809297
0.0302364
0.000297098
0.0108409
0.0117571
0.0108692
0.063047
0.124154
0.123105
0.0502515
0.0500514
0.0280503
0.0215013
0.00644603
0.00468541
0.0508449
0.261717
0.547344
0.162756
0.0367391
0.00207969
0.00403867
0.00110561
0.000324668
0.00353106
0.0629917
0.189202
0.0257647
0.017328
0
0.000618609
0
0
0.00128116
0.101777
0.541627
0.0565464
0.0146858
0
0
0.000380574
0.000194801
0.00839861
0.0682127
0.191069
0.0754367
0.0234759
0
8.83727e-005
0
0
0.00357283
0.157085
0.667351
0.0726036
0.0154923
0
0
0
0
0
0.0674885
0.419976
0.0507957
0.000630216
0
0
0.00241551
0.00460397
0.00172694
0.058983
0.376293
0.0278994
0.00307146
0.00126412
0.00247835
0
0
0
0.107499
0.555995
0.0283461
0.000201693
0
0
0.00338722
0.00354679
0.00103616
0.067275
0.499094
0.0285499
0.00680688
0.00209178
0.0017766
0.0387619
0.0307003
0.0165404
0.101144
0.424706
0.0289114
0.0188278
0.016566
0.0347938
0.0522168
0.0114955
0.0131176
0.0929975
0.143093
0.1197
0.0228435
0.0127718
0.0247199
0.0868078
0.0536859
0.0247476
0.100568
0.503259
0.0978859
0.0506214
0.015993
0.0284255
0.141001
0.0648212
0.0465407
0.114707
0.0892727
0.0811696
0.137737
0.0319853
0.0216165
0.0385599
0.0123646
0.00469899
0.0377076
0.115008
0.18008
0.0334257
0.0129975
0.0132485
0.0298211
0.027642
0.0488489
0.0722415
0.216363
0.268389
0.0789705
0.0219791
0.00790663
0.120947
0.0754839
0.0564925
0.0303038
0.130265
0.100112
0.11087
0.0508166
0.00840214
0.111996
0.255908
0.239033
0.0534092
0.357224
0.168016
0.096917
0.0468975
0.00474398
0.00547314
0.00621279
0.0335437
0.0630824
0.0837458
0.0977923
0.0259622
0.0107155
0.0131635
0.0109295
0.0149077
0.0672842
0.0592664
0.0421628
0.0796046
0.0175812
0.0495516
0.0376425
0.146606
0.211376
0.122069
0.048567
0.128546
0.052424
0.0190392
0.0154369
0.0417706
0.580428
0.227265
0.0581333
0.0259917
0.0266555
0.0308696
0.0297883
0.0894372
0.427537
0.00666895
0.0150782
0.0337602
0.0481269
0.0977407
0.0310137
0.0171619
0.0335543
0.0081006
0.000917342
0.00563006
0.00877051
0.180026
0.484636
0.0539057
0.0129163
0.0305188
0.0001626
0.199964
0.045471
0.0370944
0.0324432
0.103616
0.0171719
0.0555479
0.0775869
0.267606
0.0149828
0.021195
0.065356
0.0977568
0.57176
0.13916
0.0511686
0.0427088
0.0529149
0.00589665
0.0648274
0.15131
0.160314
0.0999353
0.0804471
0.0192376
0.0205708
0.0546386
0.0365052
0.229218
0.210679
0.130942
0.137655
0.0454718
0.0148584
0.0253345
0.0281156
0.0194489
0.0664623
0.180814
0.20736
0.0697153
0.0440318
0.0966054
0.0809293
0.132293
0.0148635
0.272671
0.201521
0.273426
0.0884735
0.0933695
0.0914893
0.0957354
0.0859209
0.0476427
0.124024
0.160705
0.140033
0.100105
0.0291077
0.0290845
0.030669
0.0137757
0.0529555
0.030174
0.131714
0.285742
0.124961
0.0211885
0.025872
0.0384628
0.0240157
0.0162303
0.119819
0.124487
0.250352
0.0914671
0.148301
0.0625217
0.0219002
0.0113744
0.0644141
0.0230003
0.107484
0.34444
0.211534
0.092394
0.0761641
0.0147704
0
0.00552715
0.00340598
0.0268904
0.146199
0.119907
0.0171022
0.00426725
0.00714372
0.00692042
0.00129802
0.000139238
0.0195726
0.254432
0.379016
0.11628
0.0126758
0.000749874
0.00221453
0.0111675
0.00293494
0.0797214
0.178833
0.16562
0.0302128
0.00716646
0.00152404
0
0.00908614
0
0.0953782
0.404608
0.482226
0.108591
0.00578295
0
0.00908614
0.00183449
0
0.00783857
0.0810594
0.136212
0.0744093
0.0167048
0
0.00183449
0.00110069
0
0.00863786
0.188622
0.517136
0.0764344
0.0116661
0
0.00110069
0.0128414
0
0.0159331
0.159842
0.198758
0.052849
0.00839311
0
0.0128414
0.00770486
0
0.016784
0.225965
0.611185
0.139612
0.00896665
0
0.00770486
0
0
0.000682212
0.102997
0.479079
0.0298509
0.000245448
0
0
0.00311394
0.00240627
0.0020025
0.0566201
0.437089
0.0425187
0.00785964
0.00121089
0.00178468
0.00248396
0
0.0016045
0.119143
0.492285
0.110552
0.018572
0
0.00584358
0.0637431
0.0911455
0.0063092
0.0922394
0.386989
0.100524
0.0266642
0.000267702
0.0419759
0.0138853
0.0172135
0.00680449
0.0182205
0.0740436
0.0230359
0.00875785
0.00204471
0.00470862
0.0486591
0.0582947
0.015662
0.0159468
0.00633002
0.00650168
0.0187279
0.00602751
0.00298121
0.158542
0.244405
0.0143315
0.0268979
0.0560798
0.0203131
0.00564641
0.000710772
0.0168893
0.503764
0.732996
0.0145453
0.0127067
0.00225442
0.000651792
0.00216177
0.00115924
0.00164244
0.0396305
0.0486026
0.0061342
0.00165227
0.00257118
0.0013702
0.00667244
0.00347579
1.53958e-005
0.103316
0.153313
0.0273681
0.000428193
0.0122739
0.00259783
0.00239783
0.00174525
0
0.253907
0.47831
0.00201838
0.000862045
0
0
0.000795837
0.000490511
0
0.421925
0.652118
0.0120823
0
0.00103973
0
0.000215918
0.00312463
0.00530846
0.116382
0.161005
0.0187171
0.000644826
0.00797874
0.00110968
0.000260262
0.00033739
0.00207102
0.25289
0.157648
0.00379704
0.000311296
0.00338644
0.0122698
0.0264226
0.033139
0.105604
0.293755
0.537425
0.0103539
0
0.000829843
0.00568031
0.000845933
0.00632968
0.0134456
0.440127
0.428671
0.00358705
0.0141555
0.124982
0.0772658
0.111254
0.0607697
0.11974
0.165379
0.056346
0.00870574
0.00397792
0.0208364
0.0740229
0.118193
0.0903434
0.200086
0.0370668
0.0778398
0.0362308
0.0170093
0.0659071
0.0730581
0.0879338
0.0354076
0.0405154
0.265842
0.132607
0.0580914
0.0399592
0.421427
0.295719
0.345381
0.126677
0.192206
0.209703
0.205653
0.205274
0.0827343
0.193179
0.177493
0.207992
0.0311704
0.105981
0.0386626
0.0608404
0.0506833
0.0598148
0.0481874
0.0464968
0.0919956
0.101247
0.110527
0.00660873
0.124467
0.0566409
0.230119
0.132278
0.0879136
0.0857797
0.0978158
0.043927
0.04474
0.0505022
0.0458211
0.0486624
0.0919393
0.186113
0.171165
0.154846
0.0571787
0.0158309
0.0784147
0.0869142
0.19831
0.363113
0.210624
0.104637
0.063913
0.0174133
0.00965895
0.0510324
0.0426325
0.21967
0.118956
0.0771828
0.020694
0.0140278
0.00443917
0.0676126
0.0255219
0.0638885
0.247767
0.181727
0.0478156
0.0366972
0.0397776
0.00171584
0.00909613
0.0970656
0.130676
0.182221
0.199327
0.0838034
0.0309774
0.0340706
0.00511079
0.193678
0.353603
0.108205
0.236275
0.169333
0.0276307
0.0306604
0.112198
0.0120109
0.00878029
0.00282575
0.0334721
0.0841901
0.0682287
0.0481793
0.0138787
0.0104872
0.000135733
0.00785397
0.00861741
0.0588022
0.203999
0.177189
0.123695
0.0402063
0.00133543
0.00220579
0.0972682
0.188599
0.129031
0.0815719
0.0578332
0.0479597
0.0202315
0.0209641
0.000950132
0.268865
0.580254
0.430251
0.0993499
0.0959563
0.140927
0.058796
0.00222572
0
0.0040809
0.0136538
0.0158526
0.0446139
0.0564916
0.0250105
0.0191066
0
0.00210139
0.0059869
0.0450039
0.0381572
0.0922449
0.155159
0.0353134
0.0124011
0
0.00512124
0.144055
0.358247
0.0808365
0.0165472
0.0194764
0.022448
0.0240188
0
0
0.230692
0.803992
0.102793
0.087467
0.0401797
0.00873312
0.0112061
0
0.00643401
0.0266984
0.0283714
0.0108561
0.0395111
0.0835423
0.0326214
0.0195292
0.00101258
0.0294921
0.163634
0.18076
0.00164216
0.0115874
0.0455729
0.0345154
0.0245735
0.00168764
0.0625031
0.194192
0.491871
0.028902
0.0367366
0.0156638
0.00865434
0.0117175
0.00168764
0.0444775
0.468826
0.593411
0.00263978
0.00385882
0.00404098
0.0103169
0.0147441
0.00281273
0.0714397
0.135457
0.231686
0.00127506
0.00124224
0.00350344
0.00328232
0.00185333
0.000155706
0.00962031
0.229194
0.453702
0.00208664
0.00026827
7.30165e-005
0
0
0
0
0.24581
0.481954
0.00110858
0
0.000190429
0.000789195
0.001112
0.00025951
0.00782476
0.310968
0.481954
0.010192
0
0
0
0
0.000536666
0.00214667
0.152488
0.409404
0.000722102
0
0
0
0
0
0
0.198677
0.460058
4.74538e-005
0
0
0.0015823
0.00237345
0.0154767
0.0107326
0.177696
0.460058
0.00734738
0
0
0
0
0.00139479
0.00887383
0.229883
0.460058
0.0163808
0.00465154
0.0261657
0.0144593
0.0199826
0.0356812
0.0381001
0.18045
0.412478
0.00145907
0.000716594
0.00904149
0.0520672
0.0165812
0.0629825
0.0399431
0.12488
0.184376
0.00243178
0.0799262
0.243926
0.129153
0.0565498
0.0496514
0.0589068
0.203431
0.212886
0.00904718
0.057652
0.22394
0.128656
0.0815426
0.105991
0.0481879
0.0271749
0.0190706
0.000347397
0.26516
0.555406
0.170302
0.0561014
0.0540679
0.0249288
0.0427492
0.0295556
0.058614
0.111544
0.39015
0.086994
0.0633355
0.0128194
0.0242748
0.0672036
0.0409619
0.263829
0.172982
0.169766
0.034123
0.0353078
0.00183134
0.032527
0.00243316
0.00490362
0.0350794
0.271175
0.494857
0.0426064
0.0188623
0
0.00353832
0.00558099
0.0065637
0.195855
0.407639
0.30312
0.0442496
0.0335603
0.00311875
0.00974583
0.0148153
0.0200654
0.0143824
0.007588
0.0105013
0.022912
0.0177209
0.0117398
0.00586307
0.0467699
0.0575687
0.00857199
0.0147153
0.0309213
0.0323425
0.019456
0.00451405
0.000827169
0.241998
0.171753
0.0224589
0.00282758
0.00263322
0.00671048
0.00395181
0.00154539
0.135576
0.334285
0.817062
0.0267811
0.00246923
0.00380791
0.0129329
0.00994042
0.0015492
0.0319379
0.0299392
0.0499347
0.00680892
0.00583709
0.0061834
0.00575
0.00438487
0.00101254
0.000146065
0.0979334
0.164159
0.00540097
0.00757727
0.00263449
0.00114548
0.000844345
0.00240923
0.000343268
0.213056
0.490807
0.00486736
0.00153676
0.000577011
0.00194937
0.00256687
8.65558e-005
0
0.494885
0.607252
0.00213003
0.00124533
8.92153e-005
0.000174016
0.000329601
0
0.000607916
0.0954016
0.160659
0.0160001
0.00427684
0.00188664
0.00069741
0.000436215
0.000651481
5.56866e-005
0.148139
0.383709
0.0491843
0.00238746
0.00172194
0.00255052
0.00116809
4.79891e-005
0
0.327317
0.512815
0.00330662
0.000134923
0
0
0
0
0.000440076
0.330797
0.512815
0.00624674
0
0
0
0
0
6.2868e-005
0.117961
0.357361
0.0165658
0.000451225
0.000281863
0.00100218
0.00106761
0
0
0.15939
0.477931
0.0107479
0.00376537
0
0.000127268
0.000320196
0
0.000350158
0.189327
0.477931
0.0018964
0
0
0
0
0
0
0.253423
0.477931
0.00430646
0
0
0
0
0
0
0.12973
0.414172
0.00479173
0.00256703
0
0
0
0.000150305
0.00381445
0.195101
0.461169
0.000444052
0.00026484
0
0
0
0.000250508
0.00533484
0.199059
0.461169
0.0017229
0.000630782
0.000210261
0
0
0
0.000258453
0.224148
0.461169
0.00125843
0.0010513
0.000350435
0
0.000250801
0.00054441
0.00190528
0.191039
0.49248
0.000472139
0.000599741
0.000944211
0.000371056
0
4.06596e-005
0.000772529
0.270953
0.49248
0.027352
0.00419819
0.00419074
0.000618427
0
0.00168887
0.00675549
0.176767
0.362497
0.000833922
0.0061183
0.0269255
0.0051704
0.000817623
0.0017748
0.00111153
0.155324
0.34898
0.118435
0.106698
0.135052
0.050069
0.000490574
0.0020782
0.00424129
0.159389
0.399557
0.0757657
0.00262148
0.00335487
8.43241e-005
0.000975963
0.013409
0.029427
0.104549
0.337789
0.078779
0.0410491
0.107778
0.0161901
0.022216
0.084245
0.0896792
0.0623794
0.363367
0.271351
0.127093
0.0762658
0.0381111
0.0016266
0.0323114
0.0240405
0.0187152
0.261423
0.195059
0.33399
0.353635
0.0114651
0.0152805
0.131395
0.0631887
0.0395747
0.0468694
0.00945066
0.121962
0.256609
0.0311823
0.026337
0.0399015
0.0261375
0.0050265
0.000636935
0
0.230688
0.415812
0.027659
0.0122418
0.0061175
0.00174079
0.00235971
0.0186838
0.0111812
0.302461
0.449523
0.00562365
0.00675267
0.0363281
0.0153058
0
0
0.000887907
0.37134
0.453815
0.00362617
0.000464758
0.000289527
0
0.000449943
0.000384694
0.00220056
0.204874
0.338233
0.0374913
0.00985008
0
0.000449943
0
0.00692714
0.0220712
0.281691
0.245167
0.0741069
0.0325918
0.00785391
0.016975
0
0
0.00417246
0.327544
0.468326
0.0282573
0.000889043
0
0
0.000289939
0.0133871
0.0256738
0.33729
0.431155
0.106829
0.0249241
0.0192572
0.0176427
0.15744
0.0878318
0.0284719
0.0118447
0.00477052
0.00132028
0.00519767
0.0264093
0.166009
0.153786
0.487675
0.105054
0.0467762
0
0
0.0363511
0.0177229
0.0649856
0.141209
0.0553862
0.0391328
0.0197411
0.00873325
0.00924195
0.0363837
0.131513
0.400779
0.0886061
0.250979
0.150979
0.0779604
0
0
0.327746
0.356378
0.252635
0.149179
0.437169
0.0596198
0.0142991
0.000370746
0
0.0248815
0.0118791
0.000943998
0.283053
0.475711
0.0244493
0.0184256
0.0237548
0.00590656
0.0153692
0.0134535
0.00120394
0.0603719
0.199295
0.0934515
0.0254496
0.00259522
0
0.280863
0.322457
0.016358
0.102993
0.179579
0.0393105
0.0420339
0.109286
0.0549442
0.199343
0.299963
0.000722361
0.217621
0.431108
0.0389219
0.0187077
0.031259
0.0141758
0.00371074
0.00333882
0.00133971
0.233493
0.515515
0.0259316
0.00254835
0.0106485
0.00981113
0
0
0.000191388
0.0614913
0.17986
0.0626681
0.0358154
0.155387
0.116987
0.153506
0.150643
0.000803828
0.13446
0.390743
0.0556499
0.00424725
0.065479
0.0731122
0.161194
0.238215
0.000114833
0.233703
0.567769
0.00264697
0.000183854
0.000524653
0.000786979
0
0
0.000902511
0.289309
0.567769
0.00760867
0.000306423
0
0
0.000331631
0.000732924
0.00631757
0.155159
0.272863
0.0120071
0.00128698
0.00367257
0.00658219
0.0495218
0.141181
0.00240233
0.136758
0.137508
0.00634955
0.00214496
0
0.00206776
0.0135671
0.039976
0.0178097
0.376292
0.670628
0.00904521
0.00636072
0.00516954
0.000149202
0.00132601
0.00175943
0.00597695
0.291654
0.44887
0.0170221
0.0130527
0.0126412
0.00104442
0.0025612
0.0030153
0.00698114
0.102454
0.0871234
0.00825614
0.00596997
0.00768862
0.00324152
0.0141845
0.0188853
0.0186021
0.0338635
0.0355665
0.0219741
0.0145827
0.0267611
0.00831008
0.00980728
0.00434722
0.0085704
0.075743
0.104766
0.00560976
0.00831827
0.0769827
0.0230022
0.00441058
0.00507994
0.00326398
0.0313504
0.13131
0.110996
0.193954
0.381885
0.402199
0.101636
0.00304796
0.00101095
0.00348437
0.00924212
0.0169802
0.0068649
0.053807
0.0310811
0.0099571
0.0030025
0.00341733
1.89259e-005
0.0397758
0.173605
0.0812184
0.229893
0.5512
0.340634
0.00166827
0.0013081
0.00211977
0.115723
0.0980013
0.164983
0.115542
0.154407
0.0810274
0.0150434
0.00569037
8.2847e-005
0.0763441
0.0614779
0.415577
0.29498
0.0238914
0.0393283
0.0344904
0.00948396
0
0.019877
0.0974928
0.144994
0.124607
0.262332
0.254482
0.00189679
0.000812911
0
0.00642904
0.0580119
0.462868
0.413626
0.074934
0.113534
0.00316132
0.00135485
0
0.00307459
0.00318364
0.266149
0.299306
0
0.000441551
0.00659114
0.00112165
0
0.000554955
0.00539505
0.262736
0.411857
0.000318547
0.000526987
0.000431171
0
0
0
0.00513578
0.368431
0.348064
0.0016663
0
0.000373883
0.000160236
0
0.000924925
0.00751211
0.34684
0.425815
0.00891782
0.00452393
0.0030182
0
0
0.00251696
0.0333122
0.303878
0.345114
0.00264037
0.00239011
0.00195554
0
0.000833636
0.0113781
0.068265
0.285638
0.334588
0.041424
0.00754412
0.0165579
0.0126309
0
0.00419493
0.0505223
0.393038
0.346009
0.0296268
0.0205179
0.0136888
0
0.000500182
0.0075379
0.0990211
0.37693
0.302098
0.0849885
0.0387103
0.0104111
0.00523421
0.128938
0.00968603
0.00934191
0.00541672
0.00252301
0.00912868
0.0315544
0.114547
0.403407
0.0609897
0.0172823
0.0341169
0.0192853
0
0.00712447
0.352509
0.66287
0.285364
0.0336674
0.00401827
0.00517675
0.00926696
0.00372678
0.0126442
0.0226804
0.027435
0.0715022
0.0191823
0.00147754
0.013818
0.0156086
0.00435981
0.0137356
0.116424
0.218597
0.0523973
0.00229864
0.00625338
0.0116976
0.00377601
0.000912478
0.000825183
0.238674
0.40417
0.0141046
0.00297735
0.0059304
0.00498002
0.00874039
0.0344661
0.0297876
0.317984
0.487736
0.000155248
0.000528064
0.000237321
0.00301093
0.00187524
0.000451013
0.00173533
0.120383
0.222014
0.00537211
0.00113826
3.3903e-005
0.000339833
8.49584e-005
0
0.00394634
0.296822
0.487736
0.00718832
0.00152132
0.00986213
0.00626887
0.00445795
0.0374137
0.0437065
0.196991
0.287267
0
0.011777
0.0230387
0.00848825
0.000409202
0.0166798
0.02419
0.243372
0.380878
0
0.000344497
0
0
0
0
0.00620373
0.257648
0.447146
0.0020927
0
0
0
0
0
0.00308974
0.398461
0.447146
0
0.0139214
0.0128225
0.00338087
0.000366524
0.00104593
0.00239981
0.153157
0.326544
0.000902214
0.00808497
0.00378803
0.0014666
0.000610873
0
0.00222633
0.0640926
0.192854
0.0112037
0
0
0
0
0
0.000118703
0.339407
0.52383
0.00149297
0.00118937
0.000232878
0
0
0
0.00127129
0.334703
0.52383
0.0172893
0.0108904
0.00417698
0.00164711
0.00544045
0.0022825
0.00592833
0.0293525
0.0906235
0.0193214
0.00864264
0.00938321
0.00505866
0.0168259
0.00824685
0.00673549
0.0136999
0.00846534
0.00926067
0.00447154
0.000995681
0.00045157
0.00617115
0.000952429
0.00668824
0.350328
0.794459
0.0267109
0.0142333
0.00351051
0.00114416
0.0212997
0.00352693
0.013763
0.124021
0.368149
0.0168742
0.00149783
0.0053302
0.0221741
0.0361977
0.0314002
0.00989327
0.00898558
0.00161075
0.00391055
0
0.150956
0.365477
0.174237
0.0916616
0.111751
0.0911404
0.00283881
0.00168041
0.00688602
0.00143734
0.013041
0.076287
0.158036
0.0522919
0.0264006
0.0512405
0.00759659
0.000713822
0.180719
0.422609
0.341871
0.507686
0.17428
0.237941
0.0487499
0.00720526
0
0.0936756
0.187593
0.11689
0.0987188
0.0841771
0.0708556
0.00303499
0
0
0.0286621
0.0649564
0.347717
0.410585
0.0388238
0.0309851
0.00182099
0
0
0.125471
0.210451
0.189103
0.238367
0.0330814
0.108384
0.0397489
0.00657608
0
0.0436909
0.0470918
0.423715
0.474462
0.00405653
0.020639
0.01785
0.00394565
0
0
0.00368776
0.275746
0.316125
0.00173016
0
0
0
0
0.000129972
0.0033351
0.278267
0.311173
0.0117732
0.0022761
0.00115288
0
0
0
0.00102089
0.310569
0.44004
0.000247166
0
0
0
0
0
0.00248
0.358858
0.432533
0.0106935
0.00130312
0
0
0
0.000576012
0.00884432
0.288394
0.274824
0.0422276
0.0107699
0.00510937
0
0
0.000345607
0.0343026
0.304323
0.253062
0.0629529
0.0360014
0.00306562
0
0
0
0.00442505
0.39796
0.370979
0.0318241
0.0054441
0
0
0
0
0.0244218
0.404915
0.380081
0.111362
0.0248733
0
0
0.0507399
0.0308324
0.0463703
0.106633
0.0687551
0.0569191
0.0802573
0.0882982
0.0644777
0.0258374
0.0175194
0.102068
0.174591
0.171726
0.0577267
0.237943
0.106372
0.030117
0.094829
0.0290376
0.070246
0.184079
0.108835
0.0541325
0.0198456
0.0265405
0.110429
0.0209646
0.0122211
0.0398825
0.141682
0.397228
0.199146
0.0871589
0.0498328
0.0523672
0.00277588
0.00432387
0.0178613
0.0133374
0.013092
0.0133521
0.0908557
0.118114
0.00650626
0.0143148
0.00179889
0.00919
0.00811955
0.00628678
0.0176757
0.28714
0.858034
0.037512
0.00166553
0.00449703
0.0119013
0.00951215
0.0436391
0.0491592
0.018649
0.0198624
0.00228859
0.00858887
0.00586216
0.0256737
0.0310573
0.045773
0.0649047
0.0453954
0.0773447
0.0130145
0.00155544
6.81235e-005
0.000587556
0.00116457
0.00202284
0.00647254
0.199771
0.401192
0.00474612
0
0
0
0.000221158
0.00156479
0.00702248
0.428622
0.583361
0.00156619
0.000933264
0.000476864
0.00339799
0.0107138
0.021144
0.0287146
0.0628593
0.0680038
0.00254502
0.000633778
0.00570401
0.00437172
0.0137648
0.0203937
0.0368669
0.198064
0.407639
0.0100607
0
0
0
0
7.08357e-005
0.000471005
0.191024
0.432341
0.00247868
0
0
0
0
0
0.000106362
0.250017
0.440475
0.0122495
0.000381934
0.00343741
0.00108361
0.00294813
0.00196937
0.00637888
0.159027
0.381362
0.0068303
5.4562e-005
0.000491059
3.26318e-005
0.000130527
0.000717684
0.00658943
0.333749
0.440475
0.00740357
0.000100188
0
2.17127e-005
0.000230828
1.86389e-006
0.000309509
0.177525
0.390868
0.005613
0.00299299
0
3.61878e-005
0.000906859
9.6365e-005
0.00209884
0.131481
0.372541
0.00432526
0
0
0
0
5.82823e-005
0.00146306
0.282815
0.462812
0.0026244
0.000327382
0
0
0
0
0.000165017
0.324709
0.462812
0.00219055
0.0060146
0
0.000315879
0.0105743
0.0595297
0.0333738
0.0620189
0.181637
0.00770064
0.00663642
0.0119448
0.0484487
0.0500112
0.185068
0.151219
0.328548
0.0849314
0.0219881
0.00663642
0
0
0
0.00966625
0.00961714
0.260899
0.511083
0.0104691
0.0286329
0
0
0.00042556
0.0233652
0.122426
0.400916
0.466963
0.0727491
0.00124976
0.0207575
0.0531291
0.135182
0.156855
0.0605265
0.232243
0.0801785
0.0393118
0
0.0137675
0.0222759
0.379414
0.471886
0.00398494
0.0304815
0.0381691
0.0231245
0.0325389
0.0320719
0.0285967
0.075731
0.0554434
0.0887099
0.202546
0.174249
0.136696
0.0279263
0.0534531
0.0476611
0.39254
0.436531
0.014889
0.0241751
0.057664
0.0840374
0
0.000875737
0.00177059
0.245676
0.371867
0.000148819
0
0
0
0
0
0.00295377
0.292664
0.312738
0.0173947
0.00441091
0
0
0.00216829
0.00613016
0.00546591
0.330715
0.412424
0.00212578
0
0
0.00122242
0
0
0.00227746
0.373029
0.394094
0.031945
0.00396364
0
0
0
0
0.0126171
0.314224
0.223905
0.0311188
0.00883049
0
0
0
0
0.0104542
0.247427
0.346436
0.0871967
0.0142844
0
0
0
0
0.00972821
0.3671
0.31884
0.0513428
0.00647878
0
0
0
0
0.00583693
0.251047
0.54236
0.0930484
0.0161937
0.00265435
0
0.0705309
0.00366981
0.0462161
0.170857
0.0725488
0.072059
0.032457
0.0331249
0.0351385
0.00766427
0.00202358
0.0567588
0.116344
0.223089
0.213098
0.0749703
0.0237646
0.0184682
0.0623826
0.0266582
0.0681557
0.275029
0.142234
0.137292
0.0919124
0.0478104
0.00518933
0.0472587
0.066016
0.287855
0.173791
0.14821
0.201408
0.0924925
0.0312275
0.00331505
0.000970199
0.0267913
0.0389631
0.0364951
0.156318
0.188004
0.0368016
0.0513402
0.0143633
0.00104011
0.0518629
0.111958
0.198208
0.167253
0.216997
0.0715702
0.0451939
0.0227595
0.0125084
0.0738784
0.180065
0.0955659
0.13424
0.129932
0.0668487
0.0400009
0.00861795
0.010711
0.114166
0.148527
0.308181
0.161364
0.18131
0.0953916
0.0268949
0.0742184
0.000158726
0.00400405
0.0299776
0.111802
0.142512
0.119305
0.0529193
0.0194981
0.00586623
0.00420868
0.0378782
0.0472072
0.218196
0.216388
0.179001
0.156018
0.2791
0.0247268
0.00111108
0.0117887
0.0330973
0.170835
0.221027
0.074285
0.0306439
0.00736767
0.0286424
0.00060124
0.00593556
0.0316666
0.273718
0.529241
0.182102
0.0156801
0.00691866
0.00409177
0.00111799
0.0100619
0.0055237
0.0274555
0.0436368
0.0392344
0.129835
0.21787
0.0063458
0.000159713
0.00143742
0.000259649
0.0248096
0.0602634
0.0680981
0.486872
0.683725
0.00605734
0.000159713
0.00143742
0.00554642
0.0419465
0.163292
0.0544707
0.0135312
0.00533809
0
2.28162e-005
0.000205346
0.00364498
0.104196
0.258931
0.0905859
0.108797
0.085595
0.00858466
0.000946936
0.00220952
0
0.00356169
0.00686285
0.0122101
0.212431
0.406638
0.018401
0.00157823
0.00368253
0
0
0.000202956
0.001223
0.302092
0.532635
0.0277999
0.0073424
0.0154666
0.00022156
0.0211694
0.0630128
0.0281928
0.0766617
0.15011
0.0334107
0.0160445
0.0257777
0
0.00239066
0.0379095
0.0108896
0.187992
0.532635
0.0640596
0.00109105
0.000348757
0
0
0
3.26315e-005
0.174753
0.391135
0.0080635
0.00880922
0
0
0
0
0.016554
0.217974
0.435316
0.0235988
0.00233267
0.0024413
0
0.000129795
0.00282961
0.000858489
0.194033
0.439143
0.0128253
0.000595203
0
0
0
0
0
0.333942
0.439143
0.00324183
0.0347349
0.0160133
0.008933
0.0238245
0.0251451
0.023432
0.150037
0.307882
0.0800569
0.0370811
0.0449375
0.017645
0.298375
0.329867
0.0061784
0.0335691
0.106932
0.0669215
0.0227716
0.0239514
0.000861451
0.0195836
0.00811153
0
0.270254
0.50431
0.0612433
0.0938399
0.172342
0.0147253
0.289474
0.189002
0.00220185
0.0946321
0.306316
0.104346
0.0035296
0.0110679
0.00306762
0.315114
0.325706
0.00512599
0
0.00522679
0.00448475
0
0
0.000127804
0.297586
0.361723
0.0244165
0.000333196
0
0
0.0287991
0.0631118
0.0117844
0.329125
0.321078
0.0090816
0.004006
0.0224865
0.0150629
0
0.00115759
0.0111023
0.285618
0.476082
0.0423231
0.00414907
0
0
0.000378198
0
0.000595683
0.257922
0.411482
0.0372308
0.000571314
0.000143184
0.000241744
0.00342138
0
0.00035741
0.140741
0.414635
0.120177
0.0436747
0.0255648
0.0231024
0.00471004
0.000329413
0.00625886
0.162677
0.561016
0.0828369
0.0319287
0.0291012
0.00860721
0.0421808
0
0
0.0555013
0.30524
0.0839824
0.0575471
0.0806655
0.149354
0.080943
0.0228552
0.0381449
0.111109
0.128389
0.157183
0.0991794
0.0149544
0.0279372
0.0345805
0.0659229
0.225936
0.0462498
0.0751284
0.152126
0.131678
0.0672151
0.00661425
0.135114
0.00564445
0.0797304
0.0685671
0.131617
0.16336
0.126556
0.0136572
0.0919871
0.0410535
0.0161486
0.124425
0.0452972
0.0675879
0.238039
0.339919
0.112455
0.038184
0.0176398
0.0522944
0.217209
0.0573547
0.0414917
0.0559173
0.0691221
0.0375568
0.000373966
0.0117372
0.0696419
0.200788
0.163315
0.176354
0.145245
0.0479926
0.00783373
0.0254625
0.00982502
0.034969
0.205447
0.0440436
0.0381048
0.0820155
0.24366
0.095791
0.00877384
0.0104199
0.097344
0.225526
0.11073
0.276457
0.140695
0.147374
0.0411171
0.00524238
0.000359802
0.0116278
0.031765
0.0642146
0.212567
0.0605619
0.00890167
0.000178488
0.00930681
0
0.00125476
0.00729869
0.0760162
0.455226
0.140925
0.0055585
0
0.00132504
0.000679869
0.0147627
0.0229883
0.0177807
0.339897
0.0802691
0.0306717
0.00124942
0.000220486
0
0.000752857
0.00402993
0.0406714
0.581022
0.185477
0.0172736
0
0
0
0
0.0129198
0.0905239
0.217033
0.0664737
0.000930445
0
0
0
0
0.0185967
0.246444
0.421304
0.0666648
0.0148061
0.00114847
0.00213286
0
0
0.0095592
0.10006
0.248584
0.109741
0.00693576
0
0
0
0
0.0124217
0.272443
0.632121
0.0919341
0.000971834
0
0
0.00920445
0.0166136
0.00205724
0.092245
0.298989
0.0435441
0.0237184
0.0295824
0.0178122
0.0264573
0.0303328
0.00255747
0.038483
0.245557
0.0419239
0.0985508
0.49721
0.0625654
0.000297764
0
0.00314609
0.136801
0.503659
0.0279185
0
0
0.000552989
0.00208435
0.00440579
0.0154143
0.0963503
0.427974
0.024969
0.0162698
0.0472931
0.00847035
0.00302243
0.00276988
0.000535581
0.00222929
0.0130969
0.00359438
0.142914
0.413502
0.0135117
0
0.000163675
2.88838e-005
0
0
0
0.358967
0.610739
0.00516747
0.000332337
0.00190954
0.00267074
0.0108949
0.0271133
0.00229507
0.0268675
0.0914803
0.00916455
0.000321615
0.000272791
4.81396e-005
0.00416672
0.00402723
0.00247683
0.152321
0.461246
0.0119216
0.0131289
0.00772832
0.000102256
0.00194287
0
0
0.202526
0.472685
0.0278284
0.0740796
0.0613109
0.00895972
0.0592539
0.0442096
0.00044615
0.158876
0.310861
0.0633553
0.00468848
0
0
0.000254873
0.00027345
0.000774646
0.185504
0.44357
0.0198056
0.0356091
0.0223294
0.00211857
0.0220831
0.0123068
3.35946e-005
0.246502
0.480654
0.143485
0.041742
0.0488338
0.0244675
0.220678
0.277107
0.0033866
0.0402251
0.0946484
0.0302978
0.00248938
0.0152958
0.0720853
0.261317
0.417445
0.0377481
0.0437715
0.0157003
0.00493566
0.0846271
0.111082
0.0503669
0.225587
0.129557
0
0.078844
0.425613
0.228954
0.0583759
0.105144
0.157294
0.338174
0.200414
0.0964112
0.083594
0.0564609
0.0852608
0.0141707
0.00386005
0.0378615
0.0969307
0.278415
0.100712
0.120775
0.118056
0.0690966
0.101553
0
0
0.0117768
0.109382
0.0556655
0.0689527
0.164946
0.455846
0.0521442
0.0173162
0.0684133
0.0973079
0.121114
0.204431
0.191474
0.119642
0.0993236
0.262625
0.00278627
0.013466
0.0141827
0.0541055
0.0843463
0.110931
0.138086
0.531287