0.0938411
0.187533
0.038358
0.0438129
0.0687897
0.0324441
0.0133281
0.0393153
0.0630721
0.154205
0.148119
0.016762
0.0781554
0.136392
0.0405752
0.0492742
0.151121
0.173353
0.154142
0.259275
0.0972137
0.118494
0.106616
0.0576043
0.028697
0.0138788
0.033501
0.191151
0.262154
0.0746099
0.144613
0.089954
0.0643036
0.0953151
0.0845081
0.241391
0.116075
0.0799299
0.0684485
0.0706804
0.139065
0.0438559
0.0537606
0.0639593
0.1267
0.134223
0.14717
0.166425
0.134779
0.0889614
0.0446222
0.021384
0.105224
0.17081
0.184568
0.127142
0.0637988
0.100694
0.0731996
0.0800795
0.0973412
0.054909
0.137791
0.141929
0.188429
0.214953
0.222436
0.089217
0.0725779
0.0284634
0.0887055
0.0896716
0.0558333
0.0439499
0.0627594
0.103076
0.124549
0.0629538
0.0297236
0.115011
0.093483
0.0778493
0.0893545
0.066689
0.0882937
0.219094
0.0979117
0.028141
0.098193
0.0748994
0.0273589
0.100586
0.216999
0.168036
0.122375
0.0942655
0.028141
0.0864459
0.0586898
0.140458
0.129893
0.137267
0.0815396
0.180285
0.255073
0.153445
0.123882
0.13454
0.149532
0.119183
0.0598263
0.0438498
0.0927393
0.0403688
0.0143051
0.0642544
0.0840459
0.114952
0.0921211
0.0928179
0.0357293
0.0980927
0.0951521
0.0572859
0.0787688
0.103951
0.246997
0.144942
0.121268
0.0632382
0.0621167
0.144063
0.096694
0.103744
0.133486
0.255937
0.19015
0.294648
0.0999742
0.0163466
0.0313069
0.0351741
0.133122
0.178145
0.0532963
0.0753787
0.0611086
0.0438569
0.0993315
0.111554
0.065882
0.0490157
0.0532666
0.0461479
0.0632761
0.121864
0.124337
0.117182
0.210946
0.0635045
0.0379124
0.0329618
0.182565
0.157509
0.158735
0.0412031
0.0297166
0.0384408
0.0122101
0.0895019
0.13149
0.122096
0.128087
0.120384
0.140422
0.139616
0.286094
0.124254
0.0560878
0.0544852
0.0068419
0.0196181
0.106873
0.086672
0.0668875
0.185008
0.082357
0.00544427
0.00672467
0.015217
0.0157539
0.0495828
0.0979905
0.122405
0.240379
0.167448
0.045004
0.00448364
0.0228498
0.0141437
0.0400577
0.0532596
0.0793634
0.296957
0.190249
0.102522
0.0487308
0.0514447
0.0271605
0.0122887
0.0222459
0.0872973
0.370557
0.178503
0.209177
0.109813
0.0664138
0.036367
0.0120279
0.0415236
0.080041
0.151667
0.0982432
0.0882585
0.0557331
0.124209
0.0501391
0.00551288
0.0269657
0.0866395
0.0839843
0.0952818
0.139453
0.13435
0.165335
0.12202
0.0157103
0.0209511
0.0432101
0.153658
0.0541005
0.153246
0.115361
0.37191
0.205762
0.0798534
0.0802387
0.109303
0.0237406
0.0186708
0.0922111
0.233868
0.0415644
0.0270126
0.00597859
0.0699327
0.0704876
0.0680109
0.0561802
0.0561158
0.0384508
0.0361012
0.0771855
0.00282035
0.0639485
0.0368689
0.171922
0.121556
0.161844
0.0526256
0.340246
0.0775238
0.0309815
0.0669882
0.0529844
0.0149253
0.012795
0.0559959
0.226027
0.312713
0.0624238
0.0016774
0.0365763
0.0146056
0.0777882
0.136017
0.285554
0.29462
0.0763794
0.0533938
0.00370436
0.00583884
0.0030793
0.0662772
0.109503
0.179524
0.106514
0.116545
0.0791622
0.0279484
0
0.00114018
0.0247237
0.113589
0.215306
0.11987
0.094
0.0295734
0.00617393
0.00350331
0.0093023
0.112919
0.264918
0.294566
0.119739
0.0959685
0.0707815
0.0573427
0
0.0339549
0.201871
0.303212
0.145718
0.0460335
0.119745
0.0679488
0.0985421
0.162747
0.0370282
0.0300481
0.0527762
0.00788549
0.0634901
0.137231
0.0804121
0.0722247
0.142081
0.0550392
0.112782
0.118073
0.0597101
0.178019
0.161328
0.0126892
0.0384804
0.128056
0.0214961
0.103522
0.299999
0.0428495
0.174383
0.241065
0.0327426
0.0346987
0.108245
0.0870755
0.136678
0.278493
0.262048
0.197805
0.104815
0.0615781
0.0218126
0.0386077
0.0783588
0.1853
0.153131
0.0540971
0.105591
0.0487791
0.114462
0.104952
0.151602
0.119239
0.0722928
0.0670659
0.0192296
0.0202202
0.154665
0.07392
0.0622592
0.0754028
0.122902
0.151644
0.152905
0.231056
0.148471
0.0739759
0.105074
0.152507
0.278112
0.176424
0.084702
0.0765321
0.0406895
0.0443434
0.0221248
0.0702824
0.168288
0.146956
0.0987392
0.0144302
0.0195956
0.00930412
0.0241945
0.207471
0.0444305
0.14391
0.103885
0.091941
0.120468
0.106577
0.0531404
0.138357
0.0937475
0.0695665
0.153977
0.192854
0.13804
0.0088055
0.028241
0.0267171
0.065418
0.283824
0.0855858
0.255277
0.136426
0.136306
0.0494085
0.0948686
0.102838
0.172491
0.241367
0.0674069
0.122536
0.0671043
0.0373499
0.102973
0.073108
0.051108
0.11839
0.226951
0.159681
0.19268
0.0827655
0.0167849
0.0135495
0.011832
0.0627545
0.157802
0.179999
0.10414
0.142201
0.13637
0.108481
0.0818338
0.0604096
0.0751674
0.106458
0.143349
0.181182
0.0937145
0.138075
0.157644
0.057267
0.0110822
0.0745516
0.193083
0.176952
0.132758
0.0833538
0.0205736
0.00978802
0.00118607
0.0023151
0.0590134
0.113639
0.163081
0.119066
0.170022
0.0856179
0.0288681
0.0506307
0.0707298
0.0469598
0.0669383
0.1837
0.150358
0.0314797
0.0731579
0.0921707
0.0432959
0.0159045
0.0804968
0.147621
0.192959
0.175773
0.259883
0.127704
0.0177975
0.100163
0.15809
0.130353
0.120071
0.036425
0.0113439
0.0348611
0.029341
0.00707021
0.0363748
0.0544334
0.0475551
0.0362733
0.0496862
0.0262679
0.021548
0.0148033
0.00854058
0.0978733
0.0547871
0.0916228
0.0657763
0.076355
0.204062
0.104101
0.0803726
0.000691324
0.0139309
0.0416972
0.022927
0.0317002
0.34679
0.717928
0.0945164
0.0752631
0.00301095
0.0366903
0.0192986
0.0273506
0.0926402
0.0358697
0.0593014
0.0126516
0.00183575
0.00266341
0.0259417
0.00833501
0.0325394
0.0219612
0.127732
0.243089
0.0631175
0.0112072
0.00637616
0.00221226
0.00170614
0.0175758
0.0381808
0.260992
0.395762
0.0551244
0.00392528
0.000641722
0.0107001
0.00317146
0.0135506
0.0354605
0.260412
0.636873
0.270717
0.0506957
0.00945689
0.0139793
0.00105638
0.00590304
0.0416137
0.250117
0.159441
0.0346047
0.00651723
0.00275519
0.000491139
0.00954605
0.0358523
0.145505
0.175485
0.0260577
0.00185046
0.00035824
0
0.0112458
0.0941837
0.197321
0.241223
0.250461
0.317909
0.200297
0.0836188
0.0145885
0.0324568
0.0763056
0.0572018
0.144733
0.133604
0.0518437
0.0517185
0.0515293
0.0910151
0.104867
0.438699
0.272897
0.211219
0.0251616
0.00601325
0.000339358
0.0021487
0.0234525
0.0699932
0.184691
0.172345
0.0865711
0.0136071
0.00265535
0.00448601
0.0150409
0.0687309
0.0941233
0.130847
0.0478938
0.0172376
0.00554203
0.00637714
0.00455423
0.0447923
0.302007
0.295613
0.470795
0.198234
0.0624821
0.0838788
0.00852258
0
0.0379689
0.327198
0.296407
0.132287
0.0318233
0.0567407
0.0922427
0.0318796
0.00571184
0.0431722
0.0487529
0.0672908
0.26357
0.0408125
0.168771
0.117791
0.0343133
0.0261701
0.0712043
0.0742885
0.0708192
0.354043
0.211437
0.118473
0.164126
0.0868318
0.0298979
0.0330101
0.0718638
0.051586
0.0993288
0.0208255
0.149848
0.0639243
0.118161
0.157956
0.198844
0.0837038
0.0629718
0.213694
0.0503284
0.053628
0.114048
0.0711702
0.0724818
0.101386
0.0757003
0.0272312
0.119972
0.186983
0.103782
0.0931252
0.100083
0.134028
0.178884
0.126303
0.105493
0.0356924
0.0517705
0.0591381
0.0259668
0.0856991
0.193396
0.188985
0.126836
0.0783579
0.0973204
0.0515791
0.0348781
0.0664303
0.0512741
0.0755674
0.154945
0.205496
0.189956
0.119983
0.0675486
0.0575956
0.0811517
0.0812091
0.0530519
0.0916952
0.048701
0.0519133
0.0175413
0.0200031
0.0465913
0.194904
0.204546
0.0667523
0.0442835
0.0384852
0.0468777
0.094187
0.072723
0.0633989
0.133696
0.13453
0.0308293
0.0703055
0.0479313
0.0874271
0.0533919
0.0284579
0.0573597
0.342947
0.529865
0.130723
0.0329442
0.0142486
0.0517382
0.0582286
0.0379818
0.0703605
0.0467505
0.0635671
0.0179188
0.0167429
0.0288511
0.0562981
0.0483968
0.0394954
0.0128913
0.0723976
0.0830438
0.0277789
0.0217165
0.0684858
0.0603604
0.0153903
0.0438066
0.0270323
0.196349
0.268279
0.0408072
0.00244611
0.016916
0.0430688
0.0312399
0.0329787
0.0221023
0.446642
0.655568
0.0475815
0.00218956
0.0354895
0.0417902
0.0146954
0.0386256
0.0216659
0.0454134
0.0750223
0.0122805
0.017955
0.0242708
0.0115876
0.0019613
0.0102382
0.0116621
0.135973
0.196536
0.0176844
0.0213149
0.00514179
0.0193868
0.0188727
0.0170037
0.0257291
0.198817
0.469971
0.0268182
0.00840752
0.0142838
0.00397506
0.00241589
0.00885318
0.00439597
0.329075
0.655605
0.0185289
0.0191882
0.022404
0.0276315
0.00588905
0.0131051
0.0222417
0.0863504
0.265783
0.0226354
0.0132166
0.000143893
0.00393476
0.00899034
0.00559413
0.00865613
0.147813
0.472297
0.0459728
0.0308732
0
0.0062661
0.00118056
0.00418332
0.0158526
0.192155
0.424809
0.0224401
0.00447603
0.00570442
0.0192756
0.00230714
0.00580377
0.0185868
0.194055
0.546043
0.116239
0.0324159
0
0.0131168
0.0008119
0.0241727
0.0182756
0.224742
0.294608
0.0305188
0.0221648
0
0.0187229
0.000985418
0.00189122
0.0327419
0.230476
0.225821
0.106976
0.0432141
0.0149799
0.0444815
0.0151406
0.00806385
0.0700655
0.327856
0.35119
0.113232
0.035075
0
0.0312048
0.00164236
0.0143906
0.0308498
0.537061
0.159032
0.0788753
0.0249431
0.0338119
0.119661
0.0552613
0.0731143
0.181661
0.0823712
0.0930886
0.100804
0.0911322
0.0468501
0.0877495
0.0855346
0.0253803
0.0620011
0.015205
0.0273343
0.0416426
0.178678
0.214652
0.106236
0.195866
0.0425798
0.0221393
0.164445
0.0240607
0.0272338
0.0951076
0.236462
0.272587
0.149289
0.0798088
0.154329
0.019758
0.0114186
0.0151433
0.44999
0.4637
0.165208
0.0855808
0.0169419
0.0200223
0.00177157
0.0157956
0.00818571
0.134261
0.286135
0.105201
0.0965807
0.0174123
0.00442349
0.0894073
0.164812
0.0591917
0.0425323
0.197032
0.100175
0.0261041
0.0113067
0.0361198
0.0668066
0.126721
0.0555694
0.296866
0.256274
0.0526299
0.00969156
0.000774273
0.0107439
0.131239
0.527124
0.389481
0.0813243
0.106056
0.0544878
0.0114234
0.00541991
0.0259312
0.101106
0.0619392
0.0231899
0.0666483
0.0641017
0.0684702
0.0412351
0.0261375
0.068542
0.0464519
0.0664637
0.100843
0.281679
0.123074
0.0640738
0.0497259
0.0192633
0.0314334
0.202404
0.186458
0.0419727
0.0982809
0.0628264
0.0356175
0.0390632
0.079306
0.225682
0.104212
0.04894
0.0808643
0.314286
0.341459
0.0447218
0.0552359
0.081202
0.162531
0.0255966
0.0383591
0.0575765
0.0743683
0.0434055
0.0395747
0.0107725
0.0146876
0.00838416
0.113562
0.0565957
0.0194795
0.0341744
0.0224962
0.0408133
0.0271851
0.0550997
0.0390092
0.0977777
0.0719591
0.162441
0.126565
0.144652
0.0308132
0.00877533
0.0146409
0.0247768
0.525825
0.530388
0.225642
0.0668951
0.0393162
0.0181167
0.00345897
0.0494207
0.087946
0.0573875
0.0800202
0.0133758
0.0127022
0.00224107
0.00438225
0.00548181
0.00805043
0.0092564
0.0629555
0.321684
0.0665908
0.00808222
0.000579358
0.00133687
0.000645778
0.00390298
0.00570855
0.164509
0.378313
0.0701006
0.0251624
0.000243801
0.000136066
0.000339406
0.0063217
0.0112185
0.130117
0.739095
0.151015
0.0244034
0.000137209
0
0
0.00988209
0.0252295
0.0802844
0.303679
0.0408887
0.00114089
0.00074965
0.000916239
0.000323177
0.00617612
0.00611988
0.167055
0.434047
0.038207
0.00692468
0.000814246
0.000549743
0.000538628
0.00514954
0.0117902
0.0985867
0.459304
0.125426
0.00317893
0
0
0
0.0253933
0.0575276
0.237224
0.477389
0.201834
0.0183955
0.000607428
0
0
0.0164962
0.0789076
0.104595
0.294882
0.0274565
0.00713598
0.00239109
0
0.00326619
0.0116485
0.008107
0.16603
0.299343
0.0886515
0.00867835
0.0145653
0.0176594
0.00626749
0.0170861
0.0193634
0.245828
0.39159
0.0707398
0.0123831
0.000824314
0
0.0019217
0.00874275
0.0425368
0.233075
0.589273
0.231996
0.00315069
0.00234994
0.00252277
0.0033356
0.0133521
0.0184414
0.214333
0.230432
0.0528718
0.00368435
0.00514444
0.0170075
0.00159089
0.0032399
0.0244963
0.246035
0.411798
0.17694
0.0142037
0
0.00371417
0.000195483
0.00806843
0.0118228
0.230601
0.327571
0.14254
0.0181707
0.0114552
0.00553547
0.00109342
0.00313715
0.0138732
0.274092
0.299307
0.374359
0.166455
0.145274
0.065015
0.0286554
0.00218316
0.00456168
0.176594
0.248505
0.175798
0.00804466
0.0015204
0.00462348
0.00471202
0.0103064
0.0172533
0.241351
0.122778
0.0719448
0.0288808
0.068194
0.0875601
0.0510634
0.0647656
0.113119
0.171286
0.192746
0.433734
0.130522
0.118542
0.0784585
0.0518085
0.0124727
0.0297864
0.211966
0.126429
0.196102
0.147371
0.462886
0.191171
0.0784217
0.0609406
0.0856739
0.0540164
0.0105692
0.00187396
0.0577395
0.266902
0.170631
0.0512253
0.0387506
0.0645392
0.0140432
0.0190414
0.0290971
0.130532
0.313552
0.11166
0.0227588
0.0024632
0.0133659
0.036536
0.0109074
0.00242773
0.138299
0.635108
0.14845
0.0358375
0.0275185
0.0289029
0.0219532
0.020584
0.0498747
0.100752
0.430386
0.0858255
0.0574394
0
0.0250995
0.0748561
0.148747
0.128031
0.128165
0.113251
0.0429088
0.0265814
0.00514822
0.0516134
0.118216
0.383242
0.30163
0.0828301
0.0333935
0.031391
0.0331904
0.0108672
0.0602781
0.0740233
0.0807181
0.177645
0.0833282
0.132859
0.083385
0.0684503
0.0254096
0.112084
0.0702795
0.256916
0.493059
0.235781
0.0618268
0.083191
0.0524382
0.0583573
0.154724
0.109108
0.072763
0.0531847
0.0481536
0.0598865
0.0251514
0.0533327
0.0762383
0.145502
0.0776595
0.0219655
0.028947
0.0813864
0.296701
0.0642188
0.0960729
0.111418
0.166762
0.035646
0.0200921
0.038202
0.0779423
0.126794
0.094724
0.119137
0.0803158
0.0760609
0.0842497
0.0286977
0.00984419
0.0248431
0.282051
0.342195
0.284991
0.137631
0.210238
0.0221462
0.0252659
0.0878373
0.0669066
0.172314
0.0301214
0.0276134
0.00796396
0.0113525
0.156865
0.284358
0.218973
0.102814
0.151515
0.0153971
0.0356909
0.0140435
0.0123694
0.00812737
0.00927002
0.0352617
0.044716
0.211848
0.140148
0.273829
0.0416727
0.0193595
0.0299061
0.111405
0.139883
0.139887
0.271727
0.0789009
0.557289
0.191948
0.00229685
0.112117
0.334152
0.143819
0.0836487
0.0334739
0.00607863
0.00636332
0.00461565
0.00357257
0.0829055
0.419602
0.276272
0.0686673
0.0579277
0.00602653
0
0.00470803
0.0235787
0.0290047
0.146276
0.0978942
0.101774
0.150812
0.0437631
0.177565
0.168858
0.0286143
0.017862
0.206759
0.230769
0.047574
0.405494
0.0506746
0.11588
0.196572
0.0689795
0.0485553
0.274459
0.256056
0.00773034
0.0296339
0.00663293
0.00274707
0.0100152
0.0430574
0.144308
0.394495
0.334198
0.0202672
0.00645901
0.0069861
0.00611068
0.00705354
0.041825
0.00771454
0.223524
0.226468
0.0046382
0.207437
0.0488407
0.12694
0.209791
0.023739
0.0316903
0.294449
0.206503
0.0125841
0.0424915
0.0489027
0.18686
0.28499
0.0241103
0.357818
0.474213
0.141815
0.0182519
0.00192456
0.00317236
0.00830105
0.00588813
0.0274225
0.302553
0.50461
0.108207
0.0139906
0.00247236
0.00113487
0.0114789
0.0205422
0.00623972
0.0800589
0.170625
0.0774318
0.0152765
0.00360501
0.0236221
0.149301
0.158405
0.0271399
0.0783612
0.0607391
0.009924
0.0302963
0.00893483
0.0203903
0.0521938
0.0808124
0.0311755
0.0922573
0.180781
0.0771995
0.0412823
0.0236964
0.0254577
0.0049832
0.0109831
0.00170653
0.0619523
0.0730897
0.235117
0.217999
0.278439
0.398182
0.228674
0.038119
0.000220276
0.0138844
0.0106491
0.00910984
0.0493958
0.0233233
0.0538567
0.0123223
0.0186336
0.00547195
0.000416906
0.0163228
0.263767
0.198798
0.243725
0.404764
0.243368
0.0528637
0.000132165
0.0260438
0.039505
0.155957
0.0961253
0.122301
0.139095
0.159312
0.0380411
0.0225416
0.0366314
0.0449259
0.0980308
0.140478
0.449022
0.0928493
0.0842866
0.0280961
0.0375694
0.00742541
0.0403923
0.194199
0.0891027
0.18394
0.138278
0.163759
0.052476
0.0262772
0.0123757
0.0509781
0.118355
0.134251
0.632459
0.0879835
0.0804885
0.0314856
0.0437953
0.00673978
0.00630958
0.00613822
0.113031
0.507865
0.0467049
0.00530035
0.00288363
0.00691235
0.014893
0.00940801
0.0185854
0.059739
0.308131
0.0240865
0.016917
0.00849376
0.0163093
0.00227699
0.00768809
0.00740824
0.13444
0.613933
0.0613236
0.000587675
0
0.00805787
0.0182732
0.00884193
0.0150322
0.0918705
0.361296
0.0432368
0
0.0307684
0.0182107
0.0392603
0.0313087
0.0541893
0.0642911
0.141419
0.0313073
0.0117022
0.0234036
0.0387512
0.018774
0.0989504
0.296071
0.263109
0.156271
0.039525
0.00483922
0.0247231
0.0387617
0.0308124
0.0218095
0.0321846
0.101912
0.288451
0.0725592
0
0.0449169
0.0325503
0.00800168
0.027385
0.150617
0.304845
0.611928
0.250268
0.048653
0.0239248
0.0100567
0.0120198
0.0169235
0.0275518
0.0579824
0.084257
0.105074
0.139045
0.0480217
0.0403463
0.0391133
0.0123203
0.00714128
0.00655276
0.085445
0.292865
0.397464
0.056291
0.0757796
0.035818
0.0871088
0.0912861
0.118515
0.151256
0.112775
0.102508
0.0207686
0.0174756
0.050038
0.074567
0.0372587
0.0620041
0.0935052
0.245809
0.380236
0.0861559
0.0491677
0.0042041
0.000350587
0.000168896
0.00299091
0.0386161
0.10716
0.312155
0.0435916
0.0115594
0.00310789
0.00458485
0.00739665
0.0271237
0.0613943
0.0823212
0.662285
0.257855
0.00998835
0.0198974
0.0129448
0.00154269
0.00352627
0.0322748
0.0858352
0.169509
0.0478054
0.0211725
0.0336963
0.013543
0.00183891
0.00507062
0.0258535
0.104492
0.311802
0.238173
0.0647147
0.00638426
0.011691
0.00630427
0.0155265
0.0458499
0.02356
0.217463
0.291752
0.0571908
0.00440324
0.0208541
0.0210146
0.00202271
0.138418
0.035812
0.177102
0.400092
0.1069
0.0414436
0.0148114
0.00359066
0.00133995
0.00141652
0.0153745
0.126883
0.311929
0.0760467
0.0363891
0.0117591
0.0021544
0
0
0.0129806
0.203479
0.579677
0.124123
0.000295082
0.020333
0.0156346
0
0.0621365
0.0198174
0.161058
0.27501
0.0215702
0.00429254
0.0239189
0.00620183
0.000225113
0.0125991
0.018672
0.300435
0.398774
0.0167234
0.00753662
0.000782707
0
0
0
0.00415875
0.135006
0.35825
0.0832757
0.0217618
0
0
0
0
0.00670587
0.255698
0.57197
0.0819155
0.00347336
0.0047294
0.00115078
0.00062523
0.000520008
0.00643522
0.134579
0.275345
0.0271789
0.000420326
0.000134507
0.00256035
0.00561693
0.00399738
0.00789342
0.0398409
0.208043
0.035896
0.0234484
0
0
0
4.4514e-005
0.00367518
0.164091
0.529378
0.0525121
0.00769629
0
0.000270593
0.00050253
0.00118844
0.00266439
0.230361
0.632632
0.0681401
0.000825468
0.00153301
0.00438956
0.0265478
0.0366548
0.0206314
0.0253984
0.0690744
0.00799162
0.00137578
0.0136721
0.218105
0.272645
0.282929
0.109353
0.0531662
0.0142179
0.000121725
0.00663589
0.0107311
0.000531525
0.0110703
0.0395901
0.0194284
0.162028
0.4428
0.0864097
0.00963046
0.0194733
0.0550775
0.163221
0.343018
0.245272
0.377532
0.274709
0.0586231
0.0102292
0.031492
0.210933
0.130451
0.190021
0.0902482
0.0429669
0.00908754
0.00352826
0.0168926
0.035983
0.108747
0.106887
0.536254
0.0776961
0.0253909
0.00545253
0.00588044
0.032758
0.0233309
0.0683367
0.0980201
0.198766
0.140559
0.286491
0.0569853
0.0597163
0.0563618
0.0507335
0.0768926
0.203629
0.503986
0.0732886
0.136114
0.0183566
0.0958028
0.003635
0.00578041
0.00295063
0.118038
0.551375
0.0320651
0.00185361
0
0.00126537
0.0366534
0.00703704
0.0231032
0.112569
0.233101
0.0201721
0.00282016
0.011655
0.0310072
0.013515
0.0184955
0.0266155
0.181299
0.583403
0.0426302
0.0180757
0
0.0206152
0.0520776
0.0190895
0.0279609
0.181317
0.310539
0.0326326
0.0488743
0.0184939
0.0380049
0.0817491
0.0171896
0.0304192
0.0842822
0.158403
0.0655733
0.0222243
0.02216
0.0649788
0.0443508
0.0132176
0.0186534
0.095945
0.350208
0.356734
0.19018
0.118589
0.024004
0.121289
0.0392428
0.03092
0.134002
0.0911158
0.0217596
0.175489
0.138495
0.0723405
0.108064
0.0235427
0.0041789
0.0354227
0.0596007
0.199431
0.470473
0.364234
0.0278036
0.0392788
0.0673115
0.0527468
0.105503
0.184244
0.157222
0.0440332
0.048374
0.031166
0.0998445
0.14569
0.0482667
0.0985904
0.0586366
0.126756
0.149911
0.0908087
0.0582822
0.0599046
0.0747177
0.0921798
0.163385
0.0881707
0.165045
0.027704
0.125898
0.213436
0.086398
0.278375
0.112373
0.145746
0.0585489
0.24764
0.152233
0.055071
0.0973742
0.125953
0.103125
0.0284791
0.0244124
0.0499283
0.0795402
0.104138
0.0802033
0.0803636
0.138587
0.10541
0.0208412
0.0465918
0.0611421
0.0979868
0.182878
0.276255
0.179438
0.10108
0.290047
0.082247
0.0248526
0.0177065
0.0831467
0.101237
0.0218678
0.0397608
0.194175
0.331364
0.0819644
0.0329198
0.0145497
0.0264447
0.187798
0.104633
0.127179
0.087226
0.0580893
0.010554
0.01123
0.00741553
0.0195769
0.0957447
0.245492
0.109534
0.158792
0.0642429
0.0177607
0.0167537
0.00606518
0.00315404
0.176548
0.583549
0.235627
0.0941072
0.0584457
0.00989333
0.0138201
0.0132882
0.0345553
0.139576
0.157583
0.0999457
0.127076
0.0437039
0.0209984
0.103501
0.0856396
0.042695
0.0564525
0.179683
0.116075
0.0534152
0.0128052
0.00475197
0.00716887
0.00197266
0.000223008
0.0552903
0.305554
0.155794
0.0442251
0.00543661
0.000678853
0.0067569
0.000810563
0.00156106
0.238924
0.686032
0.124458
0.0700142
0.0174384
0.00921288
0.0434356
0.0208215
0.00875545
0.0131731
0.0621638
0.0601347
0.071004
0.0160024
0.004841
0.0526359
0.00743498
0.00532296
0.186985
0.36147
0.0668613
0.0203176
0.000113009
0
0.00133229
7.01206e-005
0.00194679
0.160974
0.37581
0.0612433
0.0165707
0
0
0
0
0.00417189
0.229508
0.464065
0.141678
0.0124613
0.00506688
0.000829668
0.0108669
0.00284671
0.0136584
0.16587
0.328587
0.0752007
0.0172417
0.000696934
0
0
0.00134069
0.0321428
0.301934
0.416711
0.171285
0.0047689
0.0030317
0
0.000187071
0.00315944
0.0118748
0.137852
0.341073
0.116103
0.00643228
0.00505283
0
0.0195472
0.043062
0.0721245
0.302791
0.388505
0.0819175
0.0178503
0
0
0.00191536
0.00574608
0.0177761
0.188961
0.316721
0.155423
0.0274099
0
0.0138773
0.032736
0.0491862
0.0222119
0.229539
0.481032
0.228426
0.0282267
0.0239511
0.00973463
0.0407476
0.0587053
0.0656253
0.361159
0.175783
0.201143
0.0595315
0.11607
0.0704413
0.172329
0.215701
0.0438758
0.169817
0.0637624
0.306072
0.0176
0.0173584
0.0158705
0.0332831
0.0316234
0.0133416
0.174351
0.355837
0.302169
0.0435655
0.136011
0.0570112
0.113486
0.0934213
0.0171022
0.110637
0.229355
0.321767
0.012869
0.0402559
0.0293
0.145999
0.292525
0.037105
0.0245649
0.0114787
0.0425377
0.0154642
0.00696745
0.0204615
0.246742
0.30451
0.018777
0.038362
0.0205148
0.0127986
0.017696
0.0656584
0.0506799
0.183998
0.293109
0.0169537
0.0169598
0.0432911
0.0426779
0.0062966
0.00648356
0.0213445
0.255061
0.659165
0.0364218
0.00515581
0.00677687
0.0105231
0.0300937
0.00988489
0.0201285
0.155071
0.100156
0.00118873
0.106841
0.171748
0.0334566
0.029167
0.00352314
0.00408947
0.0144574
0.0237767
0.0410819
0.313642
0.386764
0.0288106
0.012343
0.00191846
0.0317132
0.143372
0.375632
0.0186083
0.0515497
0.139783
0.0352736
0.00740579
0.00319743
0.0172321
0.0202435
0.0530257
0.00799978
0.376537
0.471461
0.0498242
0.0662357
0.0746547
0.0931419
0.119372
0.0190565
0.0492257
0.0165089
0.0577222
0.09981
0.0649507
0.147417
0.0868916
0.069052
0.0598692
0.171162
0.0846201
0.0702286
0.0762531
0.244093
0.325104
0.0917208
0.0489021
0.0230965
0.058138
0.0335547
0.0365302
0.0768117
0.327618
0.326746
0.0671236
0.0267432
0.0858945
0.0988859
0.0343181
0.167087
0.234771
0.12808
0.164507
0.0408552
0.00200176
0.0194684
0.0639736
0.0690191
0.0342144
0.0485482
0.215692
0.238709
0.0737792
0.0131092
0.0244444
0.0127907
0.0738028
0.0565251
0.0647488
0.354302
0.186376
0.0144435
0.0191631
0.0502359
0.0308285
0.0261539
0.120695
0.155868
0.349745
0.318963
0.039889
0.1115
0.11563
0.0134833
0.0365157
0.0907221
0.0973619
0.120024
0.0786517
0.0294448
0.0497116
0.0941609
0.0559992
0.160493
0.188439
0.0896636
0.0421939
0.0180219
0.0369033
0.162766
0.160363
0.0971673
0.0960676
0.163229
0.0675757
0.132074
0.149299
0.0326355
0.203634
0.303104
0.0430141
0.0937779
0.0784343
0.0890023
0.0669047
0.078731
0.151959
0.176497
0.199791
0.0570598
0.0782991
0.0741788
0.119575
0.130865
0.0259569
0.0572473
0.144684
0.0759327
0.0804832
0.0450847
0.0474186
0.0764874
0.175241
0.0664993
0.0362133
0.137747
0.0453364
0.12476
0.150883
0.283869
0.107055
0.078138
0.0944937
0.187137
0.0778888
0.0370235
0.053169
0.0746923
0.0937121
0.0808059
0.0855832
0.0756594
0.0997506
0.0425307
0.0319458
0.15722
0.155477
0.117201
0.0845184
0.0132047
0.0234128
0.00407573
0.0152515
0.027144
0.0664336
0.183207
0.219802
0.0578109
0.0923205
0.045078
0.00420282
0
0.0168364
0.0950016
0.439185
0.493511
0.306961
0.0116846
0.0279607
0.0290677
0.0119851
0.0361766
0.0496047
0.0571104
0.0186966
0.0240968
0.0900954
0.17345
0.0790043
0.0166095
0.0378497
0.0374245
0.0627265
0.0655591
0.168736
0.0588414
0.0181543
0.0015372
0.00284147
0.00869272
0.0091977
0.0953163
0.285987
0.206996
0.0329894
0.0040276
0.02106
0.0294784
0.0604358
0.00369931
0.16418
0.543658
0.240298
0.0615845
0.0709266
0.029473
0.00573557
0.00406807
0.00508902
0.0195039
0.118649
0.101676
0.0362017
0.0238254
0.0112421
0.00769021
0.0160479
0.00428541
0.12565
0.506056
0.202544
0.00518907
0.00369877
0.0153745
0.0136064
0.0179463
0.000373881
0.125077
0.327718
0.12168
0.0190519
0.0689843
0.0431442
0.06119
0.0244143
0
0.100321
0.294084
0.118959
0.00463229
0.00037372
0.00219636
0.00389361
0.0044139
0.00106919
0.121951
0.446339
0.122209
0.0151435
0.0271749
0.00797558
0.0281875
0.0135273
0.00044874
0.188352
0.600326
0.112212
0.0350789
0.0840225
0.0486141
0.127085
0.155015
0.0145598
0.0160516
0.0732412
0.0308333
0.0235152
0.0277168
0.0106822
0.131852
0.619363
0.112387
0.000233274
0.000933097
0.00508563
0.0998697
0.0908432
0.025074
0.0712546
0.0615848
0.00841794
0.0726635
0.267891
0.112323
0.116323
0.114832
0.131519
0.2407
0.428245
0.0764832
0.00444894
0.0359959
0.0540779
0.00437243
0.00859217
0.0165587
0.0658213
0.582045
0.0985633
0.0335934
0.0370436
0.00792003
0.00896754
0.0149818
0.0125689
0.00976978
0.104573
0.0333009
0.203975
0.245658
0.0825808
0.0203531
0.0370263
0.104806
0.201117
0.516523
0.1161
0.0147079
0.0017728
0.00175444
0.017589
0.0204855
0.0293938
0.0455542
0.11256
0.0923953
0.0337994
0.0349481
0.0506305
0.216589
0.226182
0.0727039
0.0376629
0.0481501
0.0366604
0.0161572
0.0550638
0.0659448
0.147399
0.201428
0.0483604
0.0303019
0.14595
0.114744
0.018006
0.159207
0.164986
0.247499
0.144649
0.0977731
0.0635027
0.239121
0.0327963
0.050938
0.0867056
0.0758398
0.240662
0.182919
0.072459
0.0682254
0.173252
0.115649
0.0280042
0.281804
0.153228
0.11451
0.0632448
0.000813153
0.039802
0.126426
0.0657635
0.00551569
0.0969507
0.0815004
0.145113
0.145366
0.00957238
0.0722247
0.0762462
0.0223448
0.00638678
0.0617596
0.0872626
0.0766427
0.0469161
0.00569207
0.0373622
0.138168
0.086608
0.027274
0.346783
0.157593
0.127061
0.0816486
0.0108708
0.021626
0.0650946
0.0327925
0.0293172
0.54311
0.334144
0.066468
0.119451
0.0243478
0.0867151
0.067782
0.00493632
0.0215325
0.0442076
0.0548118
0.0648154
0.0960704
0.0599248
0.0558082
0.0568812
0.0026041
0.0437957
0.0441098
0.0496197
0.164975
0.0922899
0.0288112
0.0198003
0.00462697
0.00392126
0.0636089
0.442433
0.306206
0.291766
0.229113
0.0220877
0.0192423
0.0143536
0
0.0954529
0.232128
0.283719
0.13069
0.13224
0.0625937
0.0227513
0.0342178
0.00368927
0.0240419
0.0346328
0.0380716
0.161601
0.0881877
0.0581928
0.0289978
0.00616072
0.0344388
0.0592252
0.0653806
0.0927846
0.304915
0.385434
0.0116549
0.00809946
0.0204751
0.00645072
0.0509433
0.0931574
0.118386
0.228307
0.239043
0.0447805
0.0188727
0.00783983
0.168607
0.119651
0.139096
0.13434
0.0494801
0.0524047
0.0822282
0.0473826
0.034247
0.0557016
0.0699173
0.0358425
0.0487926
0.0347181
0.186138
0.185301
0.125672
0.0610549
0.0746938
0.0465701
0.0077381
0.0354361
0.050716
0.0435422
0.0583413
0.0426973
0.0190464
0.218081
0.207266
0.199653
0.166998
0.0198924
0.0889922
0.106653
0.179129
0.143026
0.161822
0.158041
0.217994
0.0943137
0.0431666
0.127633
0.109061
0.0729424
0.0482625
0.0658075
0.0404822
0.0468569
0.0400791
0.0736678
0.0604154
0.0279718
0.0523167
0.147748
0.0874806
0.0973262
0.425039
0.341186
0.0428564
0.137543
0.11142
0.10197
0.132227
0.0781927
0.0445877
0.0278707
0.00587361
0.0791257
0.158622
0.0801985
0.10917
0.187252
0.0929563
0.0390876
0.076321
0.0545109
0.0193281
0.00335613
0.00019619
0.0131061
0.0159947
0.0103126
0.126863
0.30256
0.103245
0.0338279
0.00189921
0.000915642
0.00988712
0.00360084
0.00354577
0.288275
0.700369
0.191611
0.0297239
0.0230662
0.00931546
0.0194406
0.0225423
0.0147334
0.0552934
0.0646586
0.0286062
0.0628824
0.0317879
0.0135309
0.0132071
0.008583
0.0149963
0.0964667
0.185709
0.186697
0.176768
0.0733955
0.0282934
0.0204861
0.00954481
0.000148409
0.0918422
0.367975
0.296839
0.27894
0.259556
0.278145
0.173063
0.122618
0.00471791
0.00544523
0.0690521
0.170082
0.152316
0.0307476
0.0115882
0.00696641
0.0148848
0.011673
0.0256123
0.117885
0.284939
0.245043
0.178229
0.120879
0.033487
0.0402401
0.00749875
0.00558666
0.0260282
0.173556
0.12076
0.216276
0.423236
0.321007
0.25958
0.0464557
0.00820121
0.000868089
0.0166068
0.0595111
0.0450541
0.115729
0.0961353
0.0770388
0.0914382
0.0429571
0.00719424
0.0288523
0.143225
0.242076
0.25128
0.060764
0.068824
0.0147282
0.0111757
0.0130773
0.0438243
0.113043
0.062332
0.151087
0.0323816
0.0192781
0.0456293
0.0426472
0.0293808
0.0885196