0.117571
0.0829111
0.0101206
0.0290416
0.0436033
0.0803146
0.129352
0.237093
0.228088
0.0456154
0.112861
0.0311468
0.0484026
0.0286085
0.0393029
0.237423
0.24011
0.12606
0.0920993
0.0526833
0.0227759
0.0174249
0.00672385
0.0114735
0.0820942
0.164278
0.367558
0.0354645
0.0812226
0.0384849
0.0290416
0.013547
0.00549317
0.251086
0.303826
0.171512
0.0719504
0.156851
0.067427
0.0185481
0.0367284
0.00793912
0.0919401
0.192551
0.0979417
0.0686598
0.0919025
0.0555816
0.0175401
0.0554664
0.0810949
0.133636
0.412017
0.179572
0.0354041
0.223005
0.0991643
0.0223545
0.0392368
0.00594264
0.126582
0.200912
0.0475641
0.0257358
0.27327
0.106929
0.0473711
0.102095
0.116975
0.141306
0.169564
0.0350491
0.127891
0.0490414
0.0296571
0.00151916
0.0257464
0.0411228
0.046391
0.113392
0.125165
0.366086
0.207216
0.0445829
0
0.00367806
0.00506924
0.0038863
0.0715515
0.197612
0.0523941
0.183769
0.0535867
0.0340847
0.072421
0.0813472
0.0594666
0.0953777
0.0269906
0.185295
0.55277
0.141623
0.0189316
0.0333029
0.0565234
0.0454653
0.13984
0.117153
0.187442
0.104214
0.0387169
0
0.00324585
0.00844991
0.00632319
0.0740422
0.134051
0.161498
0.0259622
0.0230447
0
0.0068552
0.01839
0.021078
0.168263
0.443526
0.118271
0.205626
0.129335
0
0.0239874
0.00659523
0.00860698
0.0998773
0.155086
0.138781
0.0498632
0.0640069
0
0.0378683
0
0
0.242039
0.552803
0.0680916
0.00512352
0.000581802
0
0.0017925
0.00643541
0.0197186
0.142602
0.302698
0.0947236
0.00684801
0
0
0.000169976
0.00165075
0.0152398
0.179788
0.395428
0.0562028
0.0164619
0
0
0.00421864
0
0.0071847
0.243506
0.395675
0.169128
0.0340593
0
0
0
0
0.0119745
0.287516
0.450787
0.188215
0.0109885
0
0
0
0
0.00122525
0.0667818
0.303004
0.312355
0.0483632
0.00457728
0
0
0
0
0.0429948
0.202863
0.318157
0.0330446
0
0
0
0
0.00178136
0.0771785
0.335752
0.449512
0.0324293
0
0
0
0.00113396
0.000610595
0.0266425
0.371686
0.27364
0.119297
0.00631729
0
0.00652938
0
0.01026
0.0319929
0.0985805
0.239591
0.0770378
0.00090247
0
0.0108823
0
0.0171001
0.136885
0.298514
0.356901
0.118519
0
0
0.000932769
0.00425419
0.00389757
0.068658
0.26878
0.366575
0.111563
0
0
0.00155462
0.00255251
0.0126224
0.270461
0.276171
0.0840276
0.00214512
0
0
0.0010847
0
0.00170446
0.141844
0.274269
0.0633315
0.0133842
0
0
0
0
0.0271745
0.271088
0.364849
0.0918847
0.0144052
0
0
0.000154957
0
0.00304759
0.271763
0.255631
0.0461478
0.0172605
0
0
0
0
0.0530555
0.497148
0.348231
0.0283865
0.0106537
0.00185689
0.00433273
0
0
0.0372615
0.272166
0.190049
0.097225
0.00421578
0.00309481
0.00722122
0
0
0.0404607
0.375073
0.418917
0.0265049
0.00758984
0.00309481
0.00722122
0
0
0.0510334
0.342628
0.181524
0.176161
0.0141329
0.00515801
0.0120354
0
0
0.0192015
0.291076
0.397617
0.0521447
0.02232
0.0412855
0
0.0424638
0.0131108
0.0892073
0.149219
0.151877
0.0767355
0.106833
0.112428
0
0.0420048
0.00507225
0.24142
0.257958
0.0800371
0.111149
0.124462
0.110714
0.0297805
0.070773
0.0218514
0.0270695
0.145443
0.196065
0.13939
0.216645
0.333047
0
0.0756922
0.0490886
0.0786769
0.0728872
0.10841
0.0614365
0.166357
0.0724511
0.00287634
0.0135222
0.0399284
0.158848
0.18757
0.0237214
0.0440996
0.151523
0.0600527
0.0267714
0.0368768
0.115562
0.208467
0.161637
0.0747706
0.0635308
0.0837537
0.142965
0
0.0422054
0.214743
0.166092
0.09256
0.0439469
0.149911
0.0888457
0.103566
0.0151602
0.0305144
0.230546
0.209918
0.176561
0.223016
0.0223499
0.0517112
0.0140702
0.0256977
0.0361542
0.0464404
0.0595684
0.0996452
0.0582447
0.0483
0.144918
0.0392645
0.0152529
0.0400649
0.0433922
0.0452428
0.170923
0.198071
0.0845943
0.0983389
0.121467
0.0306246
0.0413229
0.0145386
0.0327719
0.0817552
0.128316
0.245845
0.658735
0.213475
0.0323359
0.0786344
0.00619889
0.0134634
0.10829
0.210048
0.0197784
0.0589636
0.0368288
0.0127092
0.0191086
0.00438809
0.00585561
0.0806879
0.112002
0.0991633
0.121191
0.0628546
0.021182
0.0165141
0
0
0.107929
0.140754
0.121442
0.376888
0.17093
0.0376
0.0246512
0.00428255
0.00184375
0.0349009
0.0758792
0.190676
0.499558
0.540548
0.0934373
0.0120753
0.0255898
0.00639743
0.0599189
0.0505993
0.143139
0.0527082
0.0149275
0.00202382
0.00088559
0
0.00409981
0.0468595
0.103589
0.149114
0.0148414
0.000755845
0
0
0
0.00683301
0.0631901
0.314012
0.269401
0.173332
0.160624
0.0175482
0
0.0066461
0.0172999
0.039025
0.16329
0.235833
0.0483794
0.0182126
0.00119777
0
0.00645236
0.038047
0.0466935
0.723969
0.0752214
0.00703581
0
0
0
0
0.00148751
0.0412206
0.270679
0.0856329
0.00529283
0.000790372
0.000646668
0
0.00169416
0.0148283
0.0834817
0.18828
0.0500095
0.0220722
0.00353857
0.000260417
0
0.0239897
0.0846371
0.114326
0.622258
0.025557
0.00483958
0.0214237
0.00536305
0
0.0308709
0.337385
0.390278
0.300988
0.0668405
0.0130401
0.00357718
0.00292678
0
0.00766766
0.0251164
0.146135
0.114475
0.0806963
0.0200097
0.00906129
0.00175607
0
0.00655785
0.0169375
0.179857
0.103069
0.0262206
0.00105447
0.0347738
0.0209998
0
0.0248505
0.469752
0.523657
0.109024
0.167558
0.010118
0.0350079
0.0122925
0
0.0230155
0.211778
0.344407
0.23666
0.0823721
0.0315903
0.00957042
0
0
0.0184629
0.0155131
0.133373
0.161915
0.105276
0.0325197
0.0013672
0.0139911
0.00190775
0.0410598
0.0306093
0.26257
0.346473
0.15169
0.0268482
0.0276577
0
0
0.0412341
0.0614452
0.0978218
0.389386
0.217039
0.0470141
0.00778871
0.0233185
0.00317958
0.0734043
0.0385849
0.127207
0.530144
0.0511904
0.0112338
0.00371281
0.0147841
0.00372037
0.033777
0.0608529
0.30658
0.254612
0.207372
0.056504
0.0195634
0.0132698
0.00191278
0.0180325
0.074573
0.240126
0.331214
0.280876
0.118181
0.0378846
0.0221281
0.0064884
0.0585642
0.0524302
0.0952322
0.202845
0.392539
0.226268
0.0748741
0.0179295
0.0142098
0.04147
0.0774817
0.0634451
0.221943
0.074851
0.0440487
0.039663
0.0193651
0.00445636
0.00137592
0.0211049
0.0642826
0.104972
0.112426
0.071892
0.0918733
0
0.0133542
0.0123969
0.0278449
0.0204434
0.0810744
0.208798
0.0762204
0.0325512
0.00710174
0.0144148
0.0121025
0.0601215
0.251571
0.206234
0.644158
0.239881
0.0952158
0.0024574
0.0138022
0.00145925
0.033238
0.0765087
0.223628
0.0352517
0.0286601
0.0361513
0.00108498
0.020239
0.0288604
0.030718
0.0112583
0.0197003
0.0475019
0.0828687
0.101798
0.0540615
0.0163749
0.0256035
0.0323583
0.0255548
0.0646657
0.373398
0.131213
0.0349478
0.00237412
0.0144704
0.00153596
0.00996563
0.018433
0.121339
0.394379
0.607638
0.190761
0.119475
0.0147653
0.000921579
0.00900008
0.0297932
0.230206
0.0275828
0.088404
0.167013
0.0747315
0.0100191
0.00084433
0.00177083
0.00421783
0.0196814
0.135513
0.339931
0.219315
0.061072
0.018772
0.00325622
0.00469002
0.0404611
0.0222837
0.0971158
0.303665
0.285594
0.200266
0.0347407
0.00393734
0.0104261
0.00530238
0.0396663
0.116653
0.419247
0.45028
0.214411
0.072064
0.0293558
0.0381692
0.0867018
0.014504
0.121677
0.212579
0.105431
0.0231545
0.00541505
0.00864154
0.0127407
0.0422568
0.0266476
0.16858
0.194215
0.215656
0.0513513
0.00122134
0.0406963
0.0168522
0.0414797
0.0489455
0.155824
0.392274
0.250127
0.0365575
0.0252435
0.024997
0.0315622
0.0867712
0.0243199
0.387678
0.519069
0.167761
0.0560172
0.0569116
0.0309066
0.0875259
0.0569373
0.0626089
0.154804
0.0908764
0.0690965
0.0111824
0
0.0111572
0.0120855
0.035875
0.0882932
0.131825
0.0393689
0.0185762
0.00178349
0
0.00398484
0.0228942
0.0577487
0.358923
0.308926
0.267447
0.0340366
0.0463727
0.0263623
0.0082446
0.081556
0.0466362
0.11331
0.271409
0.0951254
0.0168298
0.023672
0.0123544
0.00395815
0.0526921
0.199121
0.645032
0.0548312
0.0126288
0.0055655
0.000409586
0
0.0138806
0.0546334
0.0741017
0.271719
0.0387501
0.00180411
0.0296536
0.00415407
0
0.0279187
0.194851
0.168457
0.143427
0.0819427
0.00180411
0.0033393
0.000245752
0.00879481
0.0136162
0.0912655
0.268446
0.527077
0.0531601
0.00025773
0.0393723
0.0139149
0.00847485
0.0513876
0.473137
0.328557
0.231653
0.0120938
0
0.0188077
0.00589666
0.00224154
0.0328758
0.237356
0.215831
0.0752719
0.0407097
0.00624058
0.0133079
0.00217873
0.00373591
0.0702969
0.268139
0.173765
0.0810646
0.0133876
0.00214559
0.0358269
0.0217
0.0170494
0.0927165
0.437968
0.234349
0.0821591
0.00665449
0.0206348
0.0116651
0.0119024
0.0261513
0.213586
0.53461
0.315102
0.0557901
0.0490046
0.0214007
0.023692
0
0.0103607
0.0596088
0.186063
0.0891437
0.156873
0.0978589
0.0481997
0.0138785
0.00201743
0.019222
0.0178306
0.0332425
0.0586862
0.182315
0.00710936
0.0372582
0.0162602
0.00281623
0.0333965
0.194911
0.638556
0.408593
0.0887983
0.0457578
0.0527836
0.012589
0.00591147
0.0713549
0.137588
0.258262
0.107936
0.0912269
0.275794
0.160472
0.0849056
0.00395276
0.0162185
0.0190653
0.0267016
0.0388625
0.121274
0.34482
0.177057
0.0909875
0.00320276
0.0517263
0.0463271
0.0310059
0.13985
0.142492
0.078878
0.126099
0.0908866
0.0695233
0.133988
0.0845781
0.184201
0.0582373
0.0994819
0.0622831
0.124617
0.142847
0.0822891
0.169475
0.0287688
0.0900431
0.421196
0.24365
0.145796
0.0729641
0.055548
0.0244923
0.092863
0.0786189
0.0700139
0.153232
0.120705
0.462413
0.242981
0.139414
0.00731932
0.0471816
0.0592737
0.0419557
0.0715118
0.215125
0.167435
0.10817
0.107175
0.0476723
0.171644
0.126181
0.0513015
0.0199951
0.0515203
0.147688
0.0964483
0.145472
0.00917188
0.131443
0.156131
0.133483
0.113026
0.265129
0.173013
0.0909129
0.0161686
0.0271754
0.0138654
0.0196216
0.0137751
0.0162854
0.0578758
0.273018
0.415835
0.0469696
0.0828347
0.0278119
0.0178934
0.00610671
0.0150191
0.088571
0.0373639
0.0475371
0.0194316
0.0833835
0.208946
0.112507
0.0451656
0.0306459
0.0425883
0.119735
0.2122
0.0907349
0.455608
0.463264
0.138126
0.0132545
0.0162412
0.0478871
0.0830658
0.176735
0.0621993
0.065286
0.0271472
0.026261
0.01571
0.0139703
0.0452609
0.0321735
0.216021
0.246649
0.187851
0.0814484
0.0403887
0.0365986
0.0284164
0.019362
0.046661
0.0614685
0.0621484
0.236666
0.132601
0.0843575
0.00859663
0.0191843
0.045978
0.0164336
0.0806684
0.174135
0.693022
0.331269
0.0712123
0.01571
0.014222
0.0255348
0.0667548
0.320409
0.222412
0.0884547
0.0480424
0.0374099
0.035471
0.0375611
0.00163217
0.137178
0.266646
0.0933395
0.0429679
0.155329
0.0755261
0.149665
0.0559174
0.00817568
0.0264288
0.145452
0.169367
0.451642
0.24632
0.0533729
0.0336539
0.017057
0.0111592
0.0423008
0.139857
0.0927779
0.260559
0.382188
0.129347
0.140253
0.0402466
0.00976871
0.141413
0.165307
0.0326769
0.0754374
0.128094
0.0372461
0.231201
0.126296
0.0686662
0.147194
0.0610007
0.012929
0.0369304
0.0267542
0.0482926
0.168846
0.344977
0.402949
0.0495691
0.123307
0.0354181
0.139136
0.242423
0.0895826
0.203331
0.114786
0.0720348
0.0670764
0.105159
0.0105587
0.0205319
0.0631926
0.111861
0.295106
0.292835
0.224283
0.0582159
0.00716227
0.000686126
0.00262671
0.0257132
0.0273581
0.106323
0.206864
0.269423
0.0277092
0.00147444
0.0105466
0.0156263
0.0400839
0.0686143
0.546013
0.311452
0.133616
0.0776869
0.0631414
0.00480288
0.0196381
0.064515
0.0595358
0.131403
0.137003
0.137367
0.0452608
0.0181244
0.000686126
0.0700007
0.198373
0.290043
0.353429
0.184899
0.106278
0.00222209
0.00512508
0.0105673
0.0267824
0.0495196
0.0920172
0.350329
0.202999
0.0204892
0.000373833
0.036254
0.0061389
0.0436092
0.0738069
0.118253
0.249921
0.208324
0.0102978
0.00113448
0.00307505
0.000988911
0.0371301
0.292123
0.414626
0.24315
0.127367
0.0215551
0
0.0215254
0.0045855
0.0583574
0.394985
0.330969
0.129999
0.07676
0.01975
0.000202008
0.0223329
0.00256171
0.0143914
0.0543273
0.198129
0.312895
0.208715
0.0218427
0.0243418
0.0352641
0.00172148
0.00377097
0.0653524
0.256761
0.182553
0.0492089
0.0377499
0
0.012356
0.00236719
0.0295595
0.370705
0.373729
0.131915
0.0594427
0.037564
0.0599657
0.074546
0.00791435
0.00147867
0.303552
0.438895
0.0810314
0.0195118
0.0988245
0.0998194
0.231695
0.0703433
0.0609647
0.0884191
0.144799
0.106273
0.0174545
0.081829
0.062828
0.221166
0.168942
0.0721589
0.0989699
0.0100964
0.0392623
0.125581
0.165803
0.247166
0.375931
0.064635
0.00870924
0.0864878
0.190803
0.0382394
0.0638241
0.256443
0.195829
0.237807
0.0952052
0.0103084
0.0904221
0.0259766
0.0473757
0.120645
0.269702
0.239206
0.256818
0.156636
0.054801
0.0625107
0.0429116
0.0203978
0.0091205
0.0400302
0.121948
0.153017
0.197186
0.0162758
0.140033
0.0905782
0.0811323
0.0697045
0.138012
0.202169
0.187967
0.177437
0.0771548
0.0341711
0.0829723
0.031926
0.0102969
0.097106
0.101992
0.246305
0.218925
0.0653999
0.116399
0.202678
0.0350425
0.032769
0.0514136
0.00195037
0.00722628
0.0109534
0.0351869
0.179291
0.0409412
0.00836037
0.00518934
0.00744411
0.00458188
0.00935212
0.0209985
0.245382
0.447837
0.0570774
0.00336159
0.00147877
0.00340373
0.00312016
0.00969252
0.00814291
0.02649
0.25151
0.053169
0.00381839
0.0015531
0.00159603
0.000827592
0.00752818
0.00913126
0.135212
0.713953
0.17744
0.0121101
0
0.000188004
0.00303115
0.00224171
0.0223685
0.174532
0.1692
0.0351705
0.0030568
0.0018899
0.00360895
0.000890299
0.00182911
0.0246968
0.430885
0.334546
0.0391509
0.00183408
0.00164029
0.00444082
0.000777671
0.01342
0.0171978
0.0873907
0.271852
0.165859
0.023732
0
0
0.000466603
0.00805202
0.0112716
0.164082
0.52389
0.413009
0.0307407
0.00130013
0.00191055
0.00143833
0.00575333
0.0258156
0.312507
0.276657
0.0431786
0.00272101
0.00159268
0.00902519
0.00572493
0.039767
0.0460888
0.223555
0.305314
0.133767
0.0132971
0.0023011
0.00796352
0
0
0.00342293
0.145465
0.424009
0.26996
0.0143471
0.00408947
0.00600947
0.00833769
0.00472333
0.00955917
0.154423
0.461201
0.290692
0.0119988
0.00694923
0.0263465
0.0216685
0.101465
0.0360312
0.188937
0.238516
0.157365
0.0494136
0.0250185
0.0939782
0.0420114
0.0935285
0.0580115
0.0726137
0.159753
0.11801
0.161491
0.164691
0.198715
0.0656606
0.0133526
0.00631731
0.145503
0.34029
0.283434
0.037516
0.0580868
0.259282
0.149023
0.101807
0.115929
0.0921498
0.115152
0.146822
0.113767
0.263385
0.369699
0.0470737
0.0600797
0.0643601
0.0404538
0.0911178
0.0618733
0.120164
0.0922844
0.0475179
0.0279152
0.0261303
0.0450476
0.0748361
0.366776
0.29482
0.17619
0.0387679
0.0163175
0.115311
0.0805191
0.259213
0.100542
0.0912987
0.044125
0.102536
0.0950918
0.0393879
0.0588264
0.0298407
0.341635
0.362702
0.453515
0.134138
0.104734
0.0194838
0.000656786
0.000104283
0
0.00251301
0.0212335
0.332682
0.22855
0.0362649
0.00524981
0.00198137
0
0
0.000250239
0.025613
0.376138
0.180201
0.0148795
0.00756307
0.00493489
0
0.00151442
0.0562575
0.233377
0.46461
0.0822913
0.00913745
0.000308927
0
0
0.000216345
0.0114175
0.184612
0.528465
0.117289
0.00638159
0.00216249
0
0
0.00570023
0.00120965
0.0206969
0.420783
0.219086
0.0209125
0.0103705
0.0174206
0.101702
0.0736465
0.00984618
0.000905474
0.282743
0.202692
0.0633463
0.0301707
0.116835
0.0121781
0.011444
0.0342037
0.157858
0.452424
0.222728
0.0250308
0.0100263
0.00293061
0.273437
0.134588
0.0623214
0.102553
0.255473
0.124856
0.112841
0.122281
0.170015
0.15562
0.0474104
0.00517388
0
0.0198327
0.0209896
0.0191829
0.0255406
0.163069
0.199013
0.0133056
0.00100871
0
0.00814778
0.00470979
0.00862574
0.022277
0.28125
0.295946
0.071963
0.00884928
0.00557288
0.0182187
0.00726462
0.0347939
0.111318
0.384195
0.369076
0.0184441
0.0222742
0.0252353
0.0110944
0.0063893
0.0645036
0.0840161
0.585893
0.180268
0.130859
0.120828
0.0214883
0.0448528
0.066018
0.017248
0.0242206
0.0655396
0.100138
0.116419
0.101112
0.0336463
0.105187
0.14517
0.0513251
0.0994154
0.0531982
0.393102
0.214035
0.0903858
0.0393799
0.0286743
0.0421991
0.0273952
0.0708145
0.170981
0.207864
0.130353
0.0526304
0.0204106
0.147353
0.0693685
0.0638363
0.214728
0.253591
0.00802234
0.00752301
0.00205958
0.0104416
0.207944
0.0678622
0.00780078
0.00577185
0.00250691
0.00405609
0.015302
0.00943441
0.0241915
0.549293
0.388825
0.043152
0.0124078
0.00946864
0.0127405
0.0123142
0.00485403
0.00938236
0.162964
0.0504261
0.035803
0.0202299
0.0242017
0.00507403
0.0152016
0.0059153
0.00562941
0.296778
0.354973
0.348495
0.19589
0.0391806
0.004986
0.0246801
0.0305361
0.0106387
0.15868
0.243131
0.0313203
0.0159714
0.0161024
0.00395119
0.014808
0.0339388
0.0112822
0.213428
0.588114
0.138158
0.0250807
0.0274315
0.005706
0.0114568
0.0271075
0
0.0594346
0.200559
0.229768
0.160263
0.0407115
0.0316354
0.00597831
0.0451734
0.00823616
0.0536192
0.392901
0.353454
0.119365
0.110628
0.00739421
0.00814182
0.0507517
0.0997536
0.18608
0.359788
0.132847
0.0423692
0.0595173
0.0127439
0.0135697
0.0795122
0.256144
0.275187
0.121983
0.0745608
0.0479014
0.0582432
0.0897126
0.0464739
0.0836124
0.0639521
0.0268083
0.208362
0.341895
0.100911
0.269603
0.0797225
0.0786231
0.121324
0.182403
0.0509806
0.0944326
0.400618
0.124821
0.198611
0.0465514
0.00943333
0.0259423
0.143005
0.21059
0.142515
0.15426
0.0885642
0.161208
0.132747
0.0549124
0.0609991
0.0387641
0.069306
0.103972
0.155116
0.223073
0.199212
0.0658054
0.0734225
0.0833056
0.109751
0.0784794
0.222468
0.516847
0.127292
0.0759089
0.160356
0.167233
0.184196
0.0715055
0.102776
0.18719
0.163221
0.114773
0.157955
0.0748458
0.037036
0.156563
0.0696922
0.0365805
0.0312806
0.162277
0.115113
0.0307253
0.0365211
0.0833355
0.366242
0.290147
0.129134
0.0724606
0.192257
0.0906596
0.0664079
0.101323
0.145908
0.141085
0.0734363
0.0388981
0.051141
0.131064
0.0919575
0.0981521
0.224668
0.358324
0.264795
0.0991427
0.0287936
0.0564676
0.204934
0.153873
0.34126
0.00402654
0.065053
0.247792
0.370186
0.251216
0.0282721
0.023042
0.0160538
0.0192041
0.00839699
0.0284768
0.102525
0.340024
0.352108
0.0599662
0.0191738
0.00841082
0.00104059
0.0794967
0.235547
0.292124
0.156328
0.0649341
0.0269078
0.031913
0.0369338
0.118539
0.0217544
0.120813
0.3669
0.20932
0.131728
0.0231162
0.0135317
0.0221069
0.0123801
0.0187767
0.0181741
0.055502
0.325249
0.216611
0.079944
0.0161783
0.00747607
0.00265789
0.22599
0.114017
0.0900538
0.274098
0.118044
0.0226492
0.0316947
0.045508
0.0964933
0.016645
0.0560047
0.376153
0.415266
0.149097
0.0182797
0.00633748
0.01182
0.00631094
0.0863211
0.0816309
0.20312
0.391606
0.130277
0.00230929
0.00687062
0.0162071
0.0317657
0.268923
0.118505
0.0291641
0.0294358
0.0202158
0.00907239
0.0218438
0.120225
0.314679
0.204483
0.0501469
0.0437852
0.142085
0.185307
0.086215
0.139984
0.173892
0.395614
0.114566
0.093507
0.0509871
0.0656596
0.0630034
0.0268948
0.0348708
0.0524383
0.0597369
0.0731694
0.0514426
0.0143749
0.127004
0.355172
0.336257
0.194823
0.138776
0.104632
0.227699
0.178246
0.0438744
0.0245159
0.0154624
0.0303116
0.0200718
0.0358208
0.0665073
0.188921
0.18568
0.0374512
0.0139144
0.0394567
0.040552
0.0127357
0.0933825
0.178067
0.301242
0.212706
0.0137124
0.00336635
0.0350721
0.0193652
0.0365946
0.150798
0.133072
0.370449
0.304822
0.0849507
0.038123
0.00827853
0.00579315
0.00430508
0.148494
0.18996
0.0291311
0.0467108
0.0207145
0.032783
0.0820722
0.0281788
0.0579576
0.0693684
0.0961868
0.00882948
0.0659415
0.0238168
0.031359
0.109894
0.265036
0.590357
0.420206
0.0768193
0.0630336
0.0885934
0.0775087
0.0635243
0.0140057
0.00806089
0.0125208
0.067503
0.0756342
0.0269016
0.0931507
0.0542221
0.0537295
0.0706751
0.253098
0.165319
0.0975423
0.0372733
0.00107947
0.00505955
0.00531969
0.000685505
0.00593579
0.144924
0.301202
0.116852
0.0141434
0.028862
0
0.0166571
0.0242988
0.00920429
0.165632
0.444023
0.0721764
0.0633032
0.00190307
0.00482758
0.00149634
0.00114251
0.0156409
0.145886
0.247637
0.0243951
0.00214164
0.00364707
0
0.0060771
0.0145793
0.00368744
0.108599
0.669129
0.158059
0.00892803
0.0638359
0.0174006
0.0343813
0.0376048
0.00379995
0.0392509
0.274662
0.0775188
0.163175
0.0763219
0.0368206
0.0283563
0.0227485
0.0145713
0.0767261
0.45298
0.149034
0.167056
0.027573
0
0.0145766
0.0216128
0
0.0125549
0.374455
0.288256
0.0959985
0.107064
0.0331139
0.00765843
0.00906158
0.0109241
0.0158295
0.21039
0.375013
0.323301
0.161874
0.0364944
0.0258351
0.00710172
0.0243424
0.0930842
0.313125
0.0935635
0.136064
0.190153
0.106204
0.214607
0.060453
0.0204791
0.0395884
0.0633258
0.0826829
0.284283
0.228791
0.0466156
0.00229703
0.00949041
0.0385755
0.0148832
0.110259
0.189752
0.342244
0.322425
0.0850186
0.155055
0.0468197
0.0560988
0.00193946
0.0449284
0.0805668
0.429341
0.100952
0.192898
0.290932
0.0892125
0.008172
0.0144246
0.0205549
0.0425193
0.130201
0.228066
0.270166
0.194548
0.0482454
0.000823703
0.0472438
0.0680335
0.0614526
0.202328
0.225785
0.217284
0.211301
0.0599624
0.013118
0
0.0376416
0.0336624
0.204107
0.244113
0.459013
0.196996
0.115576
0
0.04092
0.064185
0.0308141
0.124146
0.0748558
0.109165
0.140318
0.059366
0.00792753
0.0369091
0.0297663
0.0214856
0.0732927
0.0109233
0.0954649
0.481288
0.113995
0.0174587
0.00723513
0.00740396
0.0108569
0.00812734
0.0933777
0.324638
0.238507
0.0835004
0.000612391
0.032472
0.0255293
0.0123022
0.0151234
0.0308094
0.208622
0.616694
0.131504
0.00102065
0.00463886
0.00630933
0.00792876
0.0030329
0.0308052
0.109737
0.624161
0.178381
0.0456616
0.00147702
0.00124246
0.00744747
0.01553
0.0730378
0.0475739
0.177687
0.141027
0.0637951
0.000155518
0.0161546
0.0546156
0.0570287
0.0581823
0.145126
0.522741
0.0931615
0.00313836
0
0.00509553
0.0164816
0.0481088
0.109549
0.0831696
0.0659156
0.0170058
0.00479507
0
0.0280286
0.0978686
0.169744
0.0694375
0.0457894
0.0307695
0.0518031
0.0629833
0.0263395
0.0742649
0.153752
0.085526
0.114063
0.0558606
0.00101885
0.0252947
0.204337
0.343152
0.308262
0.22321
0.18979
0.135881
0.0441007
0
0.0030469
0.00201799
0.00152861
0.0537793
0.24522
0.281014
0.288797
0.0737807
0.000370568
0.0343618
0.0399643
0.0478389
0.0642648
0.177262
0.22508
0.113414
0.0588367
0.00409645
0
0.0128392
0.0137706
0.0390265
0.200506
0.22029
0.138741
0.0769654
0.0448665
0.0329791
0.0143785
0.00424
0.0399624
0.273172
0.264097
0.142957
0.143235
0.0203669
0.00938685
0.0066416
0.0220265
0.0339544
0.115771
0.198785
0.133953
0.0608044
0.00495403
0.020356
0.0190569
0.02968
0.0754093
0.289682
0.467837
0.048466
0.0465747
0.0795128
0.0715896
0.050907
0.00846942
0.0120913
0.118169
0.140088
0.0421509
0.0506582
0.0525014
0.0409793
0.174841
0.152054
0.0564687
0.0759243
0.0869096
0.109779
0.0109648
0.00828693
0.0118085
0.0304264
0.00511375
0.0185987
0.152429
0.497889
0.193792
0.0626185
0.0203668
0.00490982
0.073504
0.0370019
0.0179554
0.140834
0.469755
0.0102047
0.0147443
0.00393152
0.000407431
0.0646681
0.142881
0.202132
0.0214726
0.0160986
0.00111369
0.00750043
0.00132361
0
0.0206015
0.146089
0.6876
0.370378
0.0400109
0.0354358
0.0531439
0.0186957
0
0.0274537
0.0643618
0.0702951
0.0423259
0.0795532
0.00680643
0.0313372
0.0110695
0
0.0109803
0.104081
0.217364
0.222342
0.136205
0.00971523
0
0
0
0
0.0105914
0.187312
0.352202
0.129888
0.0369999
0.0138561
0
0.00100585
0.00402341
0.000363056
0.0319207
0.502806
0.41172
0.00208042
0.00158012
0
0
0
0.015939
0.0619838
0.193522
0.135727
0.0156956
0.00535684
0
0
0
0.00336084
0.0243426
0.336771
0.368576
0.058797
0.012704
0
0.00308284
0.0117554
0
0
0.2148
0.360978
0.27347
0.0466801
0.0103146
0.00553603
0.0181122
0
0.0102493
0.0550605
0.369002
0.0236155
0.00180682
0
0
0
0
0.00811055
0.202358
0.410565
0.254603
0.0447241
0.000344026
0
0
0.00236939
0.00805003
0.0902535
0.48454
0.312749
0.231727
0.0243606
0.0165072
0.00506086
0
0.0134809
0.00885801
0.123924
0.205928
0.556866
0.115983
0.104718
0
0.00303841
0.014434
0.00843243
0.0525202
0.365508
0.194834
0.0092105
0.0035523
0.000669984
0.00683637
0.00288978
0.0104834
0.138817
0.247696
0.314638
0.0745962
0.0248661
0.00557444
0.011227
0.00905654
0.0336443
0.037046
0.165271
0.642668
0.200565
0.0731934
0
0.00467135
0.00722187
0.00987666
0.0412318
0.0863743
0.322485
0.36163
0.064003
0
0.000667335
0.010311
0.0451047
0.0859141
0.117517
0.22146
0.075255
0.014064
0.0106551
0.0124572
0.0137994
0.0347953
0.070694
0.0847318
0.0828223
0.0374036
0.0100911
0.00649918
0.00394566
0.0126586
0.0869967
0.168731
0.0531499
0.0949056
0.262351
0.0829684
0
0
0.0204622
0.108722
0.202981
0.133367
0.0703291
0.0238558
0.0209697
0
0
0.0424533
0.125346
0.393628
0.0377478
0.0140464
0.0405738
0.0412588
0.0136945
0.000875206
0.0184661
0.226315
0.31072
0.123464
0.0249872
0.074375
0.0434441
0.0196603
0.00612644
0.0115167
0.164451
0.49364
0.134781
0.0303569
0.000888007
0.00743125
0.000391118
0
0.0440506
0.137787
0.378356
0.174812
0.0528453
0.022544
0.133641
0.0862073
0.0291669
0.00549548
0.132764
0.193023
0.145754
0.0296924
0.0328128
0.0406069
0.0186414
0.0109148
0.026303
0.154723
0.464399
0.122146
0.0948989
0.102618
0.178761
0.0883452
0.0480999
0.0342649
0.169978
0.227118
0.116983
0.0999848
0.0231719
0.0197922
0.0121113
0.00652592
0.00488167
0.0368762
0.16576
0.13598
0.0662761
0.00985666
0.041655
0.0201855
0.00777385
0.00937212
0.0440052
0.261329
0.180311
0.0428696
0.0136377
0.0136089
0.00726676
0.00875602
0.0120264
0.136126
0.459616
0.234155
0.0410913
0.0164278
0.0371282
0.0121113
0.00121287
0.00248411
0.094252
0.549279
0.115213
0.0299342
0.00988787
0.00913414
0.00301252
0.00116019
0.00324146
0.0319545
0.299328
0.146472
0.0529124
0.013633
0
0
0.00226686
0.0105527
0.0994877
0.307484
0.0872169
0.0298013
0.0164798
0.0104035
0.00180751
0
0.00985694
0.161764
0.422666
0.15735
0.0400638
0.00813029
0
0
0
0.0210767
0.195796
0.500818
0.0821268
0.107641
0.0483453
0
0
0.01833
0.0532199
0.152232
0.171171
0.0380566
0.0682995
0.040354
0
0
0.076292
0.190879
0.230358
0.234109
0.259256
0.0816658
0.018241
0
0
0
0.0147688
0.175215
0.391161
0.214653
0.134065
0.0555469
0
0
0.032667
0.074642
0.171067
0.238383
0.0195263
0.0203684
0.0065421
0
0
0.0849084
0.181724
0.183758
0.197046
0.082342
0.106272
0.0181698
0
0
0.0415213
0.138432
0.284631
0.461847
0.0923821
0.0746556
0.0315158
0
0
0.0569137
0.125976
0.117131
0.193931
0.131192
0.154225
0.0627407
0
0
0.0397287
0.147552
0.206767
0.260601
0.0301206
0.0274569
0.00460276
0
0
0
0.113019
0.224639
0.35427
0.190486
0.0469782
0.0010882
0.00598012
0.000314743
0.0203728
0.156207
0.228821
0.391107
0.025784
0.0564413
0.044116
0
0
0.00277276
0.184705
0.190267
0.0914774
0.120718
0.0344053
0.0167108
0.00996687
0.000524572
0.0122237
0.248825
0.333655
0.232153
0.367966
0.158599
0.0199293
0.0367442
0.0076207
0.0665234
0.0582294
0.0806754
0.151085
0.320514
0.137891
0.0583615
0.0544744
0.0419004
0.109248
0.0577979
0.136967
0.0724435
0.282429
0.0997575
0.0400296
0.0599729
0.00574705
0.039914
0.074758
0.171598
0.227061
0.294189
0.127864
0.076453
0.0819188
0.0223853
0.0774429
0.0362274
0.140871
0.201283
0.16283
0.0403592
0.0442578
0.0107324
0.0330517
0.0812081
0.0568906
0.0953388
0.111265
0.207249
0.02382
0.0342747
0.0444769
0.0205229
0.0257217
0.0229276
0.117039
0.320813
0.276741
0.0296766
0.0161846
0.0145257
0.0189797
0.0850686
0.0499232
0.118721
0.208874
0.38415
0.0291001
0.00796673
0.0436457
0.0346988
0.0859918
0.0338683
0.0903468
0.432515
0.0997431
0.00585607
0.0276951
0.0684639
0.0397658
0.00254139
0.00826077
0.117805
0.200795
0.130374
0.043996
0.0838781
0.0614384
0.0570889
0.0177898
0.0105637
0.161544
0.219261
0.257866
0.0316632
0.0116949
0.0890422
0.0511458
0.0317574
0.00524211
0.0675997
0.292198
0.289841
0.0770338
0.0295729
0.0738188
0.0488528
0.0140811
0.00588812
0.394714
0.411996
0.0962397
0.0817951
0.0688261
0.110252
0.0351823
0.0133471
0.0188744
0.0950352
0.130124
0.101912
0.103322
0.138167
0.161411
0.0435711
0.0363317
0.0283724
0.0628246
0.111328
0.242927
0.149043
0.13143
0.111509
0.0195525
0.00503152
0.00437892
0.23866
0.247065
0.426112
0.228497
0.323366
0.168093
0.0132586
0.00519024
0.00875306
0.0502276
0.133781