0.220778
0.118585
0.0390151
0.0182075
0.0729555
0.108075
0.0449999
0.0873491
0.137265
0.184974
0.0162866
0.00513659
0.0221878
0.112907
0.176902
0.103122
0.342385
0.364211
0.181768
0.0640619
0.0397166
0.0317709
0.0494086
0.0283686
0.0428001
0.14259
0.13171
0.249324
0.0818619
0.0305664
0.00935181
0.029773
0.0327978
0.0889966
0.259971
0.380431
0.169669
0.00579844
0.000349098
0.00207829
0.0672701
0.0858621
0.0515348
0.197344
0.254777
0.258158
0.104739
0.0316706
0.0623393
0.055573
0.0751575
0.0623199
0.190699
0.324122
0.163382
0.0306189
0.00487737
0.00407905
0.0255657
0.0214738
0.0467763
0.159981
0.289418
0.301727
0.11849
0.0281455
0.014184
0.0284601
0.0122898
0.0154562
0.183679
0.453597
0.102568
0.1601
0.0583382
0.0503728
0.0156696
0.0160204
0.0351362
0.0281159
0.0975631
0.108495
0.229655
0.0490245
0.0162969
0.00823107
0.0751316
0.0549231
0.0306291
0.0992771
0.225243
0.266588
0.0397554
0.00674947
0.00351048
0.00185862
0.00205639
0.025711
0.152137
0.27668
0.724798
0.0595325
0.00172988
0.000520499
0.00939102
0.00259653
0.00138859
0.0678054
0.105892
0.145758
0.0071331
0.00362708
0.013371
0.0630636
0.023029
0.028202
0.0509533
0.142468
0.159289
0.0322422
0.0097468
0.0204971
0.0218363
0.0179525
0.069261
0.11272
0.256492
0.534557
0.0236625
0.000117341
0.000645558
0.00683775
0.0010153
0.00303822
0.0239339
0.434496
0.493946
0.0910499
0.00526605
0.00828641
0.00131361
3.12776e-005
0.0161482
0.0674071
0.0774031
0.0913345
0.0660641
0.0195487
0.017107
0.00421828
0.00283237
0.0484288
0.0972565
0.142603
0.0478026
0.0671868
0.0425236
0.025373
0.0240466
0.00126562
0.0635589
0.20799
0.334217
0.171054
0.0572951
0.00552758
0.00793575
0
0
0.0251877
0.203358
0.301718
0.0323912
0.013083
0.00436617
0.00405992
0
0
0.106174
0.714085
0.132779
0.0148225
0.0391908
0.0244496
0.00774404
0.00850528
0.00599586
0.0462081
0.141865
0.0677057
0.0676336
0.0730522
0.0250229
0.0184093
0.0218195
0.0118745
0.0592033
0.108681
0.140792
0.00201359
0.00617173
0.0085379
0.00105657
0
0.00924702
0.181017
0.554537
0.0814385
0.0449763
0.0374093
0.0133929
0.00121361
0.00121361
0.0795925
0.378133
0.563495
0.030972
0.0683517
0.0325916
0.00657035
0.06835
0.0457462
0.0425723
0.0463448
0.114914
0.114727
0.133774
0.0494939
0.01642
0.0861995
0.0384007
0.0823708
0.0445578
0.140549
0.0551986
0.0607335
0.0378855
0.00227597
0.00339127
0.00339127
0.0813216
0.357176
0.454791
0.317081
0.0808128
0.0219298
0.00346624
0.00422101
0.0103264
0.0553404
0.253147
0.532321
0.104967
0.0983673
0.0584566
0.0194209
0.0380034
0.0123381
0.0216966
0.0248943
0.124044
0.0666861
0.0980066
0.158805
0.00401188
0.00590986
0.00798531
0.00942537
0.0424742
0.176299
0.409784
0.181522
0.0567543
0.00665294
0.00720298
0.0100498
0.0340862
0.0417463
0.235615
0.230498
0.529411
0.409924
0.0117236
0.00438051
0.00196412
0.00430706
0.00991629
0.123399
0.0446909
0.123917
0.179422
0.0032148
0.00871374
0.0113143
0.00545264
0.0271915
0.0845834
0.241923
0.163095
0.0990998
0.00853289
0.0168001
0.00670776
0.0271526
0.0717715
0.163044
0.116799
0.37369
0.40152
0.0233814
0.000152536
0.00137282
0
0.00477617
0.0895657
0.435376
0.290909
0.249207
0.067667
0.00400763
0.00702766
0
0.00747949
0.220703
0.0680612
0.038682
0.064658
0.107421
0.0556744
0.0431386
0.0621217
0.0613656
0.0404545
0.131908
0.0651357
0.0322104
0.0566324
0.0457339
0.0815604
0.332535
0.0993558
0.138628
0.0568123
0.0913758
0.0789739
0.151625
0.162608
0.0985815
0.118179
0.0323477
0.0865896
0.107048
0.114175
0.073637
0.13515
0.15638
0.185528
0.578872
0.15339
0.186397
0.0471007
0.0365646
0.0181237
0.0411488
0.03655
0.0406177
0.154413
0.0367509
0.0899343
0.168397
0.195631
0.153674
0.10834
0.0479472
0.00930831
0.0268594
0.0243506
0.103798
0.0816969
0.155878
0.0659705
0.0906858
0.0296376
0.0679018
0.250782
0.0686652
0.177657
0.0889388
0.438383
0.539822
0.236895
0.0808672
0.0237121
0.0338443
0.0232875
0.101789
0.0737024
0.212874
0.065557
0.0124537
0.00478438
0.00090259
0
0.00281157
0.0208146
0.0773055
0.483745
0.0522499
0
0.000386824
0.000128941
0
0.000306805
0.0200143
0.0192843
0.313071
0.242509
0.0325469
0.0232447
0.00631813
0
0
0.00233955
0.0917849
0.662649
0.15909
0.00133519
0.00270777
0.00090259
0
0
0.0101732
0.0945246
0.308276
0.0161933
0
0
0
0
0
0.0103744
0.287895
0.191518
0.0160505
0
0
0
0
0
0.0687468
0.137985
0.48172
0.0342789
0
0
0
0
0
0.00527802
0.539701
0.398624
0.0145829
0
0
0
0
0
0.0713841
0.231686
0.0333092
0.00581411
0
0
0
0
0.0019236
0.135997
0.176054
0.00289298
0.000260455
0
0
0
0
0.0368294
0.367175
0.455241
0.0654014
0.00140296
0
0
0
0
0.000379441
0.235715
0.277035
0.00104282
0
0
0
0
0
0.0448638
0.595788
0.044472
0
0
0
0
0
0.00095106
0.105344
0.29543
0.0148837
0.00493176
0.00841431
0
0
0
0.0721588
0.302507
0.245065
0.0453583
0
0
0
0
0
0.000488807
0.191105
0.504138
0.013652
0.00151031
0.00453092
0
0
0
0.0758515
0.545455
0.299994
0.00824655
0.00969822
0.0208556
0
0
0
0.0912965
0.287452
0.140332
0.0725109
0.0083145
0.0121288
0.00159528
0.00296266
0.0112362
0.130772
0.260107
0.18825
0.0078602
0.00400288
0.0120086
0
0
0
0.167104
0.448921
0.095565
0.00729024
0.00278631
0.00720518
0.000957167
0.0017776
0.00674175
0.490496
0.472405
0.0691524
0.151538
0.0579946
0.0209529
0.00679371
0.0126169
0.0176034
0.155544
0.12556
0.0910214
0.162821
0.185953
0.131225
0.00672152
0.0077737
0.00332904
0.0401694
0.0445087
0.0456836
0.0305687
0.00818052
0.00264447
0.00407622
0.00757013
0.0122073
0.644407
0.383631
0.0442165
0.157019
0.0439276
0.0495977
0.0150381
0.00596705
0.00995078
0.353918
0.193198
0.0858674
0.259675
0.30647
0.299921
0.0238058
0.00172006
0.00526747
0
0.0088652
0.0955827
0.429533
0.208264
0.175862
0.0686831
0.0206933
0.0302202
0
0
0.192103
0.293307
0.119255
0.185251
0.0782743
0.0120404
0.0377554
0.114274
0.0454178
0.119685
0.235521
0.0902275
0.112109
0.121065
0.0355357
0.0583651
0.0610092
0.0377834
0.12332
0.0409538
0.0865947
0.0835694
0.0832802
0.0823821
0.0362263
0.0445684
0.028318
0.0815794
0.0756741
0.0585157
0.117992
0.191143
0.0687478
0.080722
0.222023
0.0983315
0.161937
0.0278827
0.0737371
0.130476
0.119034
0.0894593
0.0253482
0.0293767
0.0200346
0.0429671
0.0319124
0.0402491
0.476998
0.593239
0.0661909
0.0353206
0.110413
0.0311026
0.0729202
0.0422489
0.0642611
0.0985735
0.0878054
0.00649719
0.0166635
0.0641308
0.0196433
0.070218
0.0349283
0.150878
0.388952
0.100557
0.0181582
0.00447087
0.00685943
0.00349453
0.0431415
0.00847184
0.0585986
0.287786
0.270927
0.0289479
0.008366
0.0280937
0.004163
0.0200487
0.00712551
0.107131
0.685585
0.23778
0.0506497
0.00347776
0.00246152
0
0.0140532
0.00555291
0.15047
0.251831
0.0280802
0.00798907
0.00185371
0
0
0.00227635
0.0521682
0.388016
0.218482
0.0398171
0.00155765
0.000264816
0
0
0.00473922
0.00850157
0.119515
0.546504
0.069761
0.0195625
0.00535056
0
0
0.00363809
0.0774897
0.289181
0.440026
0.175205
0.118727
0.0354463
0.00764579
0.0178402
0.0544858
0.10698
0.419738
0.0843029
0.0412396
0.0135662
0.0090687
0.015918
0.00449568
0.00959733
0.398115
0.374657
0.0409148
0.00589137
0.0212026
0.0151145
0.0465276
0.0314698
0.0519741
0.139857
0.194174
0.0939103
0.192168
0.113038
0.0514621
0.109917
0.0431293
0.146827
0.325949
0.125221
0.0249139
0.0274526
0.0439541
0.059464
0.202422
0.153833
0.284191
0.327228
0.0610958
0.00374881
0
0.00219303
0.00157312
0.00953653
0.00936981
0.15442
0.224643
0.000962732
0
0
0
0
0
0.0308206
0.487656
0.332131
0.018931
0.00224929
0
0.00365505
0.00618901
0.0287537
0.0429292
0.227687
0.465859
0.0014113
0
0
0
0
0
0.00663366
0.36996
0.085615
0
0
0
0
0
7.16252e-005
0.160471
0.396695
0.0422004
0
0
0
0.000783365
0.00705029
0.106971
0.489154
0.246812
0.360505
0.00858109
0
0
0
0.00601599
0.001504
0.0412818
0.293927
0.222879
0.0222099
0.0161116
0.00209245
0.0667369
0.0972811
0.141623
0.188455
0.314094
0.00604673
0
0
0
0.000682787
0.00757172
0.212991
0.296633
0.0465807
0.000296216
0
0
0
0.00256611
0.0127366
0.441854
0.273613
0.0093994
0.0255346
0.00638033
0.0142079
0.00495759
0.071496
0.0736116
0.362911
0.178784
0.0614981
0
0.000221381
0.00214898
0.00297455
0.0454445
0.114964
0.563784
0.162456
0.000140885
0.00165817
0
0
0
0.00387413
0.03452
0.427937
0.182101
0.00495942
0.0218507
0.00739331
0.0242423
0.0396788
0.0110149
0.0642384
0.345398
0.0864047
0.0179412
0
0
0
0
0.0532462
0.165736
0.465991
0.0856621
0
0.0378794
0.000896477
0.0060328
0.0421482
0.0499198
0.235782
0.519386
0.0656176
0.027133
0.107073
0.0369385
0.125278
0.149709
0.0343704
0.057747
0.224823
0.0508923
0.065653
0.130728
0.0289062
0.0614917
0.0631102
0.0129578
0.0263719
0.0790901
0.130372
0.0858909
0.177495
0.00892199
0.0460361
0.17437
0.076276
0.264208
0.600094
0.138417
0.167699
0.178181
0.0548367
0.0527588
0.0846259
0.0505217
0.0731544
0.117937
0.233744
0.145286
0.00586405
0.0226049
0.0784202
0.0555929
0.0550574
0.0283992
0.013575
0.00542488
0.00340696
0.00157714
0.0147669
0.40198
0.388015
0.0593014
0.010029
0.0101362
0.00159746
0.000401415
0.129631
0.0373712
0.123719
0.109351
0.0502553
0.028544
0.0497304
0.0140735
0.0840038
0.0765296
0.0154899
0.486191
0.45459
0.203808
0.0463365
0.037358
0.0030524
0.0562016
0
0.0125822
0.175563
0.208292
0.040002
0.00522124
0.00261598
0.000525971
0
0
0.0208206
0.347273
0.298066
0.0969246
0.00812536
0.00262986
0.000876618
0
0.000693403
0.000242148
0.154123
0.260425
0.132027
0.0201331
0.00749681
0.000876618
0.00128775
0
0
0.162486
0.672842
0.222574
0.0188175
0.00438309
0.00146103
0
0.0091099
0.0480508
0.490325
0.183618
0.0526491
0.0150194
0.00235541
0.00119025
0.00111229
0.0474514
0.0919842
0.299329
0.123988
0.166767
0.0809772
0.0391088
0.0829416
0.0674049
0.00390874
0.00503342
0.192844
0.506125
0.169741
0.0160307
0.00392568
0.00198375
0
0.0118843
0.0551349
0.246485
0.189215
0.235954
0.05615
0.0389568
0.0753066
0.0355753
0.133175
0.0708743
0.0544565
0.103043
0.118821
0.0591852
0.0861937
0.104617
0.200407
0.363629
0.0523287
0.0139917
0.0143539
0.015649
0.0415105
0.0928093
0.0895717
0.322558
0.108564
0.212864
0.310977
0.105236
0.126014
0.0375255
0.0323228
0.0813529
0.0910366
0.489731
0.226176
0.163669
0.0119787
0.0385264
0.0148979
0.00669521
0.0148458
0.184757
0.302724
0.00438725
0
0
0.000640831
0.00465151
0.0112869
0.0233504
0.21935
0.454689
0.00401028
0
0
0
0
0.00137318
0.000588508
0.2675
0.38104
0.0317245
0.00967154
0
0.0037024
0.000745386
0.000296435
0.0012452
0.185531
0.494415
0.021674
0
0
0
0
0.00961229
0.00411956
0.296496
0.395459
0.0182737
0
0
0
0.00898323
0.0154239
0.0204278
0.23629
0.274545
0.0716892
0.065397
0.00849326
0.0977533
0.0990984
0.121646
0.101668
0.216819
0.328969
0.0267902
0
0.0272307
0.00501425
0.0440196
0.0925158
0.0692995
0.272161
0.143218
0.0480018
0.0617815
0.119355
0.0893274
0.17424
0.385489
0.291178
0.141625
0.0367941
0.0212651
0.050274
0.0175422
0.0960752
0.0862841
0.209088
0.0679207
0.0285644
0
0.000783345
0.00760407
0.0105253
0.0646175
0.293947
0.576019
0.0479588
0
0.0168327
0.0145646
0.0476736
0.0580304
0.13332
0.128002
0.209033
0.0825425
0.00748628
0
0.00406079
0.0076431
0.0168686
0.254503
0.456968
0.274314
0.00442269
0
0
0
0
0.000590317
0.0855857
0.224283
0.315902
0.0111734
0
0.0373661
0
0
0.00514356
0.104916
0.348201
0.288897
0.0278731
0.0205674
0
0.000438066
7.73058e-005
0.00516288
0.289861
0.379446
0.174099
0.000767636
0
0.00546404
0
0
0.0196799
0.308591
0.4285
0.158054
0.0355836
0.0065906
0.0795345
0.0117617
0.00762839
0.0208115
0.113621
0.395631
0.264965
0.0630406
0.0575585
0.0373027
0.0541482
0.0468081
0.0403904
0.109154
0.132777
0.0565577
0.0571448
0.0415532
0.0269937
0.123009
0.0260857
0.0330072
0.281657
0.470109
0.246132
0.073091
0.0279819
0.138359
0.351888
0.159208
0.0457567
0.166051
0.124155
0.0428057
0.0164107
0.0233879
0.171439
0.0300373
0.0577743
0.067799
0.0582608
0.0470624
0.0190333
0.00579376
0.102078
0.122799
0.0101666
0.0731792
0.100503
0.260878
0.0537709
0.0294411
0.00635122
0.10818
0.194079
0.0667482
0.0661499
0.15869
0.187745
0.260356
0.0615136
0.115564
0.17645
0.179884
0.0733858
0.0323102
0.156546
0.634409
0.132772
0.101067
0.0965028
0.192481
0.00380085
0
0.0263725
0.102048
0.229249
0.0315599
0.00572793
0.000721703
0.00813478
0
0
0.0153528
0.368911
0.343603
0.0273144
0.000484999
0.000161666
0
0.0102947
0.00637104
0.000427153
0.0602178
0.430259
0.110431
0.0107719
0.00437292
0.0140253
0
0
0.000762821
0.104831
0.55903
0.313736
0.00132613
0
0
0
0
0.013894
0.328198
0.325701
0.0202179
0.000650534
0.000328733
0
0
0.0260337
0.122367
0.166071
0.39973
0.0953382
0.0637183
0.0270118
0.00470817
0.000435956
0.00174383
0.000632805
0.0888901
0.447441
0.272588
0.002123
0.00201403
0.000355418
0.000726594
0.0142058
0.0343719
0.0635953
0.295519
0.184861
0.264188
0.1043
0.00527106
0.0289095
0.0961866
0.197884
0.0982782
0.232043
0.107508
0.102449
0.072999
0.0152305
0.322431
0.12128
0.127183
0.0115693
0.104134
0.0444218
0.0689526
0.0945656
0.11123
0.0159342
0.044696
0.0535258
0.0300746
0.149985
0.143273
0.358353
0.329008
0.046243
0.327379
0.0490373
0.0289455
0.00320978
0.0624802
0.044195
0.159873
0.344014
0.242179
0.335082
0.0201562
0.00956367
0
0.00995193
0.00151545
0.0056194
0.016377
0.138842
0.429628
0.023161
0
0
0
0
0.00349673
0.0014986
0.264486
0.384188
0.00716857
0.00166817
0
0.00597116
0.00196704
0.00936567
0.0375201
0.188939
0.547952
0.0204964
0
0
0
0
0
0
0.244703
0.292074
0.0787768
0.0269814
0.0680517
0.0117635
0.0437588
0.0428846
0.0206203
0.187565
0.0842227
0.124179
0.180616
0.282082
0.118201
0.169048
0.154031
0.0846398
0.0426993
0.415788
0.142099
0.0491971
0.0425232
0.00647474
0.00745597
0.0446548
0.0208461
0.160542
0.164526
0.375818
0.29534
0.212304
0.0752572
0.0364237
0.155178
0.12221
0.0384002
0.00245482
0.0331483
0.1143
0.160611
0.203117
0.11828
0.0877078
0.0290135
0.000875442
0
0.00506879
0.0138639
0.0390803
0.496876
0.231011
0.0396828
0.000582685
0
0.0171838
0.116035
0.179787
0.156794
0.149879
0.0385116
0.0496827
0.0793524
0.00336593
0
0.00446296
0.0243722
0.285526
0.569672
0.0728321
0.00158641
0.0131605
0.0011937
0
0.000469285
8.28151e-005
0.017363
0.410195
0.20952
0.0203611
0
0
9.01638e-005
0
0.000562673
0.0728512
0.3328
0.190257
0.0475874
0.0132952
0.0017131
0.000861923
0.0014189
0.00460178
0.224338
0.534486
0.073576
0.000383465
0
0
0.00143654
0.0103619
0.0782633
0.249059
0.393189
0.0707602
0.00466135
0
0
0.0224997
0.0947864
0.05028
0.147851
0.325993
0.173578
0.0922495
0.0268276
0.0093965
0.202892
0.335715
0.179886
0.0968809
0.12709
0.0395074
0.0174449
0.00383252
0.0105557
0.00766508
0.0374296
0.19512
0.342834
0.312699
0.114009
0.048363
0.00110269
0
0.0964542
0.181101
0.334115
0.174659
0.155382
0.127543
0.0706685
0.0236397
0.00404236
0.0709038
0.0593291
0.0322147
0.0724935
0.148145
0.189098
0.0560748
0.159537
0.277794
0.0990086
0.0848974
0.0132627
0.13117
0.417018
0.259012
0.118792
0.10632
0.252577
0.0178811
0.0282067
0.0291638
0.0246367
0.0320644
0.0864364
0.0712526
0.0632647
0.165408
0.0249755
0.0139432
0.0100783
0.0336313
0.108646
0.41213
0.34543
0.0491871
0.140053
0.00769931
0.00722896
0
0.0341234
0.237995
0.195283
0.0266909
0.00182534
0.0122067
0
0
0
0.0184897
0.255046
0.514654
0.0429402
0
0
0.00217444
0.00103271
0.000877446
0.00711365
0.0855561
0.261511
0.234351
0.0119259
0.00658165
0
0
0
0.00738497
0.121274
0.476027
0.370218
0.004975
0
0.000346223
0.00138489
0.000396243
0.0250649
0.131443
0.368644
0.0636109
0.00159948
0.000282262
0.00163141
0.0396157
0.078438
0.0901267
0.0836365
0.0845543
0.113536
0.0467628
0.00227496
4.94604e-005
0.000197841
0.000237746
0.0245277
0.0583763
0.376144
0.548062
0.0189496
0.00100278
0.012102
0.0463706
0.0749495
0.264053
0.221555
0.146172
0.364514
0.0546637
0.0156346
0.0215218
0.170565
0.174841
0.0943671
0.0329249
0.0223644
0.138217
0.183187
0.024465
0.291687
0.164694
0.0992612
0.0285928
0.000904216
0.00387517
0.0425128
0.169106
0.166069
0.0642067
0.200861
0.223244
0.320163
0.190983
0.120237
0.0885074
0.0704772
0.0476072
0.40016
0.2442
0.183851
0.121694
0.0194589
0.0841891
0.0697802
0.0891163
0.2492
0.276738
0.0188864
0.00467045
0.00180379
0
0.00021663
0.00122757
0.011349
0.134502
0.373739
0.0178099
0
0
0
0
0
0.00666941
0.176946
0.394385
0.0368609
0.0128732
0.00894334
0
0.00737289
0.00564953
0.0149704
0.25521
0.556381
0.0170961
0
0
0
0
0
0.0111157
0.367899
0.261644
0.0426887
0.00770652
0.00161009
0.00175621
0.0157837
0.0683381
0.0826386
0.13871
0.0784328
0.106912
0.0519357
0.018783
0.057487
0.0535848
0.279998
0.352077
0.0781745
0.40381
0.039872
0.0563941
0.00409782
0.0122935
0.0547585
0.085135
0.0812075
0.238363
0.134067
0.0754095
0.217272
0.050543
0.225538
0.199711
0.28787
0.280227
0.134139
0.00484151
0.0281347
0.0430949
0.033876
0.0904052
0.036101
0.100453
0.149128
0.0123596
0
0.00269452
0.12187
0.331625
0.192989
0.0191481
0.00863412
0.0178847
0.00125386
0.008356
0.0703675
0.230216
0.0555933
0.233111
0.13476
0.113388
0.10379
0.0222445
0
0.0723136
0.636476
0.369851
0.14117
0.0498944
0.0129122
0.00928264
0.00042474
0.00266691
0.00427065
0.0915412
0.370812
0.260602
0.0146624
0.000508798
0
0
0.00444485
0.0320611
0.176096
0.291463
0.20283
0.0225627
0.00196378
0.00430008
0.000477786
0.00160014
0.027967
0.37563
0.40171
0.0934233
0.0161119
0.000847996
0
0
0.0296885
0.0536397
0.194037
0.427594
0.140263
0.0287088
0.00141333
0.0301006
0.0195495
0.00687451
0.0687772
0.380249
0.335347
0.143381
0.0910308
0.043154
0.0198661
0.0181561
0.109189
0.054448
0.23171
0.106732
0.0971078
0.133911
0.0922617
0.061221
0.0543523
0.0836182
0.0643988
0.229231
0.412537
0.231945
0.0497793
0.0555286
0.121695
0.078202
0.195024
0.0342841
0.0552817
0.082619
0.13012
0.0989523
0.169211
0.106618
0.125328
0.0422267
0.06716
0.034639
0.0401934
0.0189795
0.0708727
0.0457806
0.0325344
0.0345344
0.0322391
0.0276183
0.026137
0.0470091
0.0800074
0.499716
0.344324
0.047485
0.0105362
0.0581534
0.122892
0.0930464
0.0550832
0.0369997
0.0409923
0.0442319
0.0273275
0.0970689
0.0603136
0.0823121
0.0458703
0.0312177
0.119594
0.589018
0.216408
0.0504445
0.0328995
0.00148131
0.000472682
0.00110458
0.00279712
0.0195481
0.151716
0.251601
0.0408961
0.000249644
0
0
0
0
0.0200939
0.130863
0.457414
0.0606626
0
0.0035084
0.00185252
0.00293235
0.00285739
0.0213998
0.2072
0.315173
0.123626
0.00196304
0
0
0
0
0.00152098
0.0790323
0.612926
0.284346
0
0
0
0
0.00492765
0.00772822
0.0663983
0.391549
0.0553671
0.00177668
0.00499421
0.00427199
0.00400464
0.0658356
0.101103
0.0714972
0.3174
0.20915
0.0212469
0
0
0
0.00054561
9.62842e-005
0.0194115
0.455252
0.216218
0.00259253
0.000450047
0
0
0.00381927
0.0261386
0.0245104
0.301603
0.524018
0.0387556
0.0316928
0.0198694
0.0236885
0.074285
0.119586
0.103606
0.120731
0.215061
0.0691442
0.195967
0.0394978
0.02848
0.0278643
0.015329
0.0629161
0.084124
0.1472
0.20512
0.0183788
0
0
0.00195628
0.0358007
0.029199
0.165894
0.599703
0.105847
0.170664
0.0272323
0
0
0.00506507
0.011063
0.139499
0.389586
0.345101
0.268066
0.0123298
0.00310517
0.00268935
0
0.00656042
0.00907774
0.0251147
0.183871
0.40579
0.00999236
0.000481046
0
0
0
0
0.00133857
0.238967
0.295271
0.0250185
0
0
0
0.000937204
0.0260378
0.06268
0.316284
0.571717
0.0779685
0.00336732
0
0
0
0
0.00231834
0.292528
0.293835
0.054635
0.05051
0.00108937
0.00326812
0.0120069
0.015601
0.00493805
0.10837
0.14927
0.182659
0.24228
0.0505621
0.0553309
0.0545083
0.0376264
0.0124193
0.0641564
0.37367
0.277643
0.0437117
0
0
0
0
0
0.0866636
0.174016
0.633101
0.211339
0.0257619
0.000432832
0.00173133
0
0
0.0496243
0.0135884
0.19297
0.288818
0.0509717
0.0634411
0.0576805
0.0138666
0.0046067
0.015893
0.000870856
0.14823
0.503212
0.116832
0.0302335
0.0249626
0.00152063
0.000268346
0
0.0324969
0.421138
0.249621
0.0254624
0.00114991
0.00430935
0
0
0.0140181
0.00866578
0.273448
0.449736
0.0325627
0.00169288
0.00258561
0
0
0
0.000261057
0.0855052
0.46482
0.241487
0.0333343
0.00317338
0.000167021
0
0
0.0500965
0.104039
0.237797
0.284343
0.0729553
0.00838666
0.00118015
0.0182515
0.0314336
0.00191867
0.214062
0.539382
0.116558
0.0176859
0
0
0
0
0.0236698
0.164034
0.260832
0.143491
0.0277116
0.00350694
0.00150298
0.0154486
0.0306163
0.180516
0.0996259
0.108948
0.327884
0.152919
0.0360861
0.0620722
0.097598
0.138824
0.227349
0.0691323
0.0706916
0.155681
0.150066
0.0832094
0.182678
0.0810645
0.12985
0.122826
0.16768
0.115076
0.158377
0.0277309
0.0301815
0.0217611
0.084065
0.212632
0.222575
0.214343
0.198556
0.257094
0.0674621
0.0796926
0.0400336
0.0701634
0.19194
0.0715519
0.122326
0.171454
0.129989
0.0527805
0.0364807
0.10191
0.0244689
0.122755
0.128264
0.0815215
0.133981
0.0519566
0.0961378
0.535485
0.217295
0.0757013
0.0833025
0.037133
0.0976553
0.194136
0.0796017
0.0308672
0.0692134
0.112159
0.0731316
0.103303
0.103991
0.081673
0.15426
0.0957673
0.0782912
0.168239
0.191731
0.193172
0.162315
0.00614715
0.00549219
0.00995939
0.00239678
0.0104424
0.122274
0.199443
0.0908927
0.00421679
0.00130817
0.00392155
0.00150887
0
0.000866803
0.0551335
0.629756
0.292923
0.00705552
0.0315287
0.031545
0.0169846
0.0042546
0.00707584
0.0304555
0.0928855
0.0733354
0.0208583
0.0231378
0.032098
0.0119221
0
0.000732063
0.0161721
0.51286
0.325649
0.0215304
0
0.000249957
0.000107124
0
0
0.00478462
0.311441
0.260393
0.0155497
0
0
0
0
0
0.000314397
0.145092
0.448079
0.0529971
0.000717965
0.00267884
0.0014153
0
0
0.00121026
0.307953
0.383637
0.0448787
0
0
0
0
0
0
0.192605
0.508141
0.144191
0.00262935
0
0
0
0
0
0.0506347
0.330403
0.0982683
0.0418016
0.00703943
0
0
0
0
0.0442943
0.20912
0.306562
0.000857118
0
0
0
0
0
0.0588718
0.509151
0.241902
0.0367728
0.000220886
0
0
0
0
0.0159229
0.303477
0.520431
0.148343
0.0102159
0
0
0
0
0.0094899
0.0431433
0.3074
0.424507
0.0508882
0.00103203
0
0
0
0
0.00193144
0.205826
0.147167
0.00551186
0
0
0
0
0.000458279
0.0556981
0.483077
0.496892
0.0275327
0
0
0
0
0
0.000721678
0.310917
0.319994
0.189194
0.0168983
0
0
0
0
0
0.039903
0.161176
0.439999
0.0715227
0
0
0
0
0
0.00703989
0.516548
0.103388
0.00296119
0
0
0
0
0
0.0643192
0.397387
0.369071
0.0407755
0.00353478
0
0
0
0
0.0107773
0.0719167
0.486719
0.149506
0.000335681
1.5146e-005
0
0
0
0.0043808
0.0202021
0.351307
0.355513
0.0220961
0.00337965
0
0
0
0.00123609
0.188469
0.44858
0.14344
0.017118
0.00237987
0.000449988
0
0
0.0136551
0.0633978
0.279242
0.2535
0.0296956
0.0111444
0.00314991
0
0
0.020623
0.0111288
0.265873
0.57512
0.136906
0.023085
0
0
0
0.00161211
0.0402327
0.155571
0.257084
0.161721
0.0188251
0.00095613
0.00218079
0.0126727
0.0243216
0.0852574
0.19798
0.301906
0.0985017
0.0426268
0.00280111
0
0
0.0675803
0.182085
0.217696
0.227742
0.100455
0.0332051
0
0.0123972
0.00427549
0.0426631
0.103161
0.108602
0.101631
0.128477
0.00808714
0.00460336
0.0616849
0.0938575
0.11363
0.1639
0.119118
0.1602
0.254691
0.0134723
0.0572059
0.111633
0.150376
0.164878
0.24936
0.175603
0.137677
0.0847996
0.00744507
0
0.144758
0.152777
0.0589983
0.161759
0.0902357
0.0824964
0.164254
0.0106608
0.0101197
0.210689
0.305932
0.304359
0.0555113
0.128804
0.123766
0.0352218
0.0481197
0.0652767
0.0433037
0.108628
0.0944552
0.0663525
0.0943365
0.113513
0.0916544
0.0838533
0.0569484
0.0865649
0.313106
0.155394
0.123918
0.148014
0.07595
0.0727386
0.10106
0.0685827
0.0416892
0.165983
0.131297
0.182815
0.0508216
0.0707955
0.219731
0.274225
0.213024
0.0664144
0.349335
0.142078
0.0891504
0.0822321
0.053144
0.0156305
0.0532584
0.0453799
0.0533408
0.150525
0.0685503
0.0768933
0.130273
0.125907
0.00688737
0.0251784
0.0236518
0.505351
0.507628
0.0534355
0.0850926
0.0604957
0.075691
0.0477298
0.112295
0.132626
0.0440327
0.120864
0.0778114
0.0347361
0.15843
0.252875
0.0722719
0.0991863
0.0885147
0.0879342
0.0792972
0.0533881
0.00339981
0.0100797
0.019822
0.00327521
0.00584322
0.000181962
0.211248
0.346994
0.0623985
0.014971
0.000790268
0.00950724
0.00535374
0.00840621
0
0.201917
0.695794
0.317516
0.0248857
0.0237061
0.0526215
0.0289437
0.0316129
0.011909
0.0362108
0.0667888
0.0422647
0.0772555
0.0190934
0.0711113
0.0436802
0.0240289
0.00170129
0.0341597
0.188152
0.252989
0.0105446
0.00133727
0.00286391
0.00243865
0.000742484
0
0.0543733
0.389455
0.295588
0.100575
0.00551963
0.000181127
0.000336379
0
0
0.0162284
0.356921
0.51316
0.0455021
0.0158415
0.0285581
0.0201742
0.00123747
0
0.00917401
0.181175
0.219938
0.234416
0.0607681
0.00672742
0.0100139
0.0193428
0
0.00309255
0.239576
0.307889
0.240098
0.00921962
0
0
0
0
0
0.0798053
0.411534
0.466314
0.0218766
0
0
0
0
0
0.00457715
0.331148
0.344309
0.0450312
0.000584383
0.00990636
0.0297265
0
0.000200472
0.0685526
0.216525
0.347564
0.0508991
0.00536391
0.0138218
0.0112023
0.00406114
0.00172302
0.0288964
0.280151
0.570332
0.0859057
0.00236649
0
0.00389739
0
0
0.000733587
0.118703
0.462739
0.28198
0.0436366
0.00542384
0.0105173
0
0
0.00334645
0.0157421
0.355516
0.0703054
0.0079075
0.0106199
0.0312854
0.0137986
0.0139363
0.00778507
0.122486
0.315948
0.131349
0.01925
0.00284396
0.115383
0.0239153
0.0184583
0.0071674
0.00726975
0.309814
0.505091
0.188801
0.0524392
0.0372373
0.0106803
0
0.0267431
0.0241076
0.111363
0.242615
0.233079
0.0644801
0.0784225
0.034424
0
0.0442257
0.0921333
0.270179
0.249122
0.0472103
0.0573886
0.17817
0.0372392
0.0220051
0.0445719
0.0154624
0.151945
0.148611
0.0618043
0.0945629
0.183074
0.0663014
0.0250326
0.0737096
0.117773
0.0991676
0.185631
0.11608
0.0539162
0.0599967
0.0108567
0.0101345
0.023714
0.103068
0.364036
0.32547
0.104703
0.038967
0.0520714
0.00974635
0.0320001
0.0206462
0.0717511
0.0953899
0.23093
0.0722305
0.040998
0.116853
0.0375003
0.0840018
0.0636807
0.115305
0.364875
0.40356
0.15064
0.0456162
0.0629446
0.0203155
0.136224
0.132133
0.098496
0.304665
0.155873
0.0599007
0.0091921
0.0303561
0.0460897
0.0642744
0.0611665
0.0741876
0.15381
0.069765
0.0202668
0.00950208
0.052632
0.0497249
0.102029
0.145225
0.153792
0.328103
0.264725
0.247421
0.0344481
0.0524993
0.112271
0.0999423
0.0784484
0.0918518
0.323731
0.28851
0.162454
0.0148636
0.0725961
0.14573
0.135077
0.103688
0.137638