0.0937165
0.0917105
0.146706
0.0884686
0.0222642
0.0584641
0.0549057
0.160485
0.134085
0.0841103
0.130016
0.147162
0.145386
0.056754
0.173603
0.139263
0.0875716
0.128567
0.113555
0.20261
0.209784
0.171961
0.106609
0.218558
0.0652073
0.0115985
0.0104062
0.109568
0.3234
0.346494
0.380398
0.110212
0.178109
0.119882
0.0176221
0
0.0264552
0.0415904
0.0953518
0.203679
0.0571334
0.0382827
0.056899
0.0205732
0.0373197
0.00354306
0.010655
0.139068
0.406139
0.282609
0.00904421
0.00843267
0.00337695
0.00491588
0.0146946
0.0456864
0.163958
0.433534
0.0949857
0.0502138
0.0623524
0.00861138
0
0.000445458
0.0027465
0.171016
0.521375
0.231546
0.0287676
0.0146751
0.0115549
0
0
0.00400479
0.138391
0.444142
0.440529
0.0462827
0.0213622
0.0186793
0.00708063
0.00259985
0.0358259
0.0672269
0.0747759
0.0824239
0.10271
0.0612085
0.0383351
0.0617101
0
0.00652459
0.15063
0.304091
0.347418
0.135342
0.0761474
0.0895472
0.00424838
0.00298207
0.052209
0.0580936
0.0508258
0.123116
0.203176
0.112965
0.0731074
0.0343178
0.017108
0.0404781
0.087872
0.0359169
0.0537243
0.23367
0.0693747
0.0671994
0.130121
0.0284753
0.0203575
0.0552179
0.0814863
0.100118
0.343061
0.0441604
0.109395
0.0896441
0.0363597
0.0928957
0.12735
0.116566
0.0940864
0.213899
0.0658062
0.0501359
0.198293
0.0698718
0.0762974
0.160907
0.320995
0.1567
0.242334
0.0492208
0.0402736
0.207861
0.106198
0.0392066
0.0164044
0.0330469
0.0420889
0.124617
0.032221
0.0737883
0.0760175
0.168844
0.051583
0.0342584
0.195526
0.177137
0.0176148
0.0397033
0.050585
0.0505501
0.235981
0.163478
0.0741187
0.202378
0.108167
0.12143
0.0468466
0.0548341
0.0870124
0.39513
0.153623
0.0174025
0.198203
0.183387
0.132749
0.11037
0.232727
0.0670711
0.0680899
0.0659776
0.119408
0.224657
0.136357
0.0186956
0.0441498
0.0186836
0.0481737
0.104618
0.145448
0.155937
0.129719
0.188128
0.0511891
0.220585
0.0987655
0.165479
0.115233
0.055295
0.0373286
0.142521
0.148974
0.106961
0.134388
0.123283
0.0997085
0.164473
0.161854
0.0902406
0.110076
0.206462
0.0817992
0.145646
0.206328
0.32796
0.0611647
0.0644614
0.0410756
0.0503464
0.27446
0.0806528
0.230487
0.110743
0.0758289
0.105677
0.0514343
0.0416529
0.0124743
0.186861
0.0633512
0.138946
0.137216
0.0770714
0.137265
0.129454
0.0598339
0.0745059
0.301992
0.0769336
0.150523
0.119516
0.159327
0.281762
0.117651
0.102517
0.015
0.188509
0.098352
0.13177
0.0762241
0.162122
0.0625983
0.0367952
0.0798868
0.0358076
0.106649
0.094611
0.114012
0.0739564
0.0406833
0.0196422
0.0750934
0.104314
0.170018
0.135203
0.177023
0.059598
0.0214075
0.0381697
0.239599
0.0764827
0.13803
0.0592082
0.065376
0.170492
0.0996992
0.02716
0.127663
0.0652667
0.088369
0.0652009
0.140451
0.155148
0.423284
0.196613
0.0196885
0.0202457
0.0126655
0.0456601
0.0269555
0.065172
0.0705895
0.134836
0.0443456
0.0380445
0.0690231
0.00774106
0.00802225
0.0429731
0.0470505
0.273303
0.236425
0.0603717
0.0310682
0.0439177
0.00775486
0.0560125
0.0845814
0.0933737
0.15358
0.249383
0.0814795
0.012682
0.0166568
0.00110784
0.0722148
0.346033
0.313241
0.322033
0.222992
0.0238643
0.00675722
0.00999407
0.0425408
0.101203
0.125287
0.0800216
0.0718538
0.120487
0.0486883
0.0167747
0.0604298
0.0373474
0.098717
0.232414
0.224325
0.133742
0.15632
0.0197707
0.0279579
0.0723312
0.110961
0.0909616
0.146563
0.144776
0.0321567
0.0220794
0.0287524
0.0551344
0.128149
0.0551799
0.0230036
0.515598
0.501229
0.162738
0.0811571
0.0312277
0.0716389
0.135528
0.00505539
0.0156271
0.118204
0.34966
0.141909
0.06332
0.00718531
0.0027029
0.013127
0.00508604
0.0148059
0.0911203
0.386666
0.126849
0.0134249
0.00484216
0.00461912
0
0.00106566
0.0100755
0.348133
0.457532
0.160904
0.0366388
0.0029367
0.00674231
0.0218784
0.00847674
0.0320008
0.182974
0.41554
0.111867
0.00454004
0.000461435
0.000153812
0
0.0453145
0.117647
0.178077
0.252296
0.0980603
0.0705768
0.0512061
0.048236
0
0.0437103
0.159193
0.0775197
0.101794
0.117298
0.130588
0.0528821
0.0407753
0.0126744
0.108088
0.262465
0.271352
0.275697
0.051705
0.0191323
0.00449923
0.00149974
0
0.173273
0.384317
0.324536
0.12791
0.0775893
0.0535272
0.00300037
0.00210318
0.000901037
0.0432763
0.0635878
0.0368653
0.0414558
0.0433994
0.02697
0.00914601
0.0181772
0.048416
0.167846
0.088573
0.0621842
0.0698721
0.0400421
0.0126896
0.00538149
0.0117207
0.066491
0.0669892
0.257108
0.331782
0.0514011
0.0282815
0.0116293
0.000592745
0.00237098
0.00652399
0.30228
0.630755
0.267085
0.0126457
0.00903197
0.00357943
0.000355647
0.00142259
0.0280643
0.131969
0.0484234
0.0250289
0.0534056
0.0362662
0.0178595
0.00248151
0.0127034
0.0448839
0.165605
0.040582
0.00639181
0.051781
0.0500422
0.0533166
0.0172723
0.0502677
0.0683469
0.400284
0.270061
0.0493309
0.0131488
0.0100994
0.00783054
0.000509117
0.00267882
0.0531402
0.701049
0.136243
0.0110204
0.0269968
0.0137587
0.0163194
0.00604234
0.0160179
0.163247
0.0836122
0.0230946
0.00154531
0.0190633
0.0494792
0.0557034
0.061948
0.0897419
0.0840333
0.0362116
0.0304355
0.00689046
0.00561948
0.0438403
0.0694688
0.125644
0.175904
0.145679
0.431754
0.0923267
0.000927183
0.00940756
0.0126783
0.0171547
0.0503624
0.108132
0.319857
0.109956
0.0829843
0.0025567
0
0.0192412
0.10185
0.27443
0.442098
0.30857
0.0239496
0.0269677
0.0184727
0.00549552
0.0365345
0.0483835
0.0888613
0.12052
0.100022
0.0701336
0.0289271
0.0337547
0.00778273
0.0179558
0.0680779
0.0722144
0.0989417
0.109654
0.00379052
0.0157546
0.00817558
0
0.0154064
0.0975182
0.189819
0.502972
0.237043
0.0669908
0.017481
0.0140622
0.0061833
0.0179685
0.0457996
0.0991489
0.474493
0.351134
0.157389
0.0274843
0.0517151
0.0461301
0.0171471
0.16048
0.0782923
0.0581571
0.122251
0.125945
0.11872
0.0464624
0.0325471
0.0949439
0.188589
0.113834
0.0069501
0.062058
0.209799
0.0416737
0.0516987
0.0367281
0.0952623
0.0902053
0.131155
0.317788
0.285402
0.195167
0.164868
0.134148
0.0294762
0.131806
0.168805
0.11651
0.072287
0.121572
0.0444802
0.117585
0.142562
0.0542186
0.0653933
0.0532562
0.02683
0.000430448
0.0205339
0.00870798
0.106455
0.401302
0.37305
0.118626
0.032663
0.00711466
0.00175805
0.00228081
0.092189
0.156506
0.152854
0.0836873
0.058094
0.0570042
0.0177524
0.00788127
0.0359756
0.0329103
0.0807075
0.226745
0.404965
0.185095
0.0556001
0.0682053
0.0880713
0.0307088
0.0702043
0.0938839
0.0875005
0.077385
0.0117466
0.0106215
0.0144241
0.0342441
0.0324592
0.0319759
0.107338
0.395408
0.397966
0.0486065
0
0.0071482
0.0125347
0.0168404
0.0791629
0.19105
0.19508
0.112151
0.0311699
0.0189082
0.0111916
0.0523871
0.0349054
0.023712
0.259664
0.453889
0.423139
0.0731117
0.0537889
0.00195836
0.0014473
0.00378946
0.000193287
0.052852
0.458042
0.476609
0.0575177
0
0.00315739
0.00270799
0.00396827
0.00449582
0.032392
0.205921
0.262858
0.0403402
0.003356
0.0119664
0.00445857
0.0048374
0
0.0853515
0.263299
0.436016
0.0859479
0.056751
0.00675299
0.00158491
0
0.00493053
0.0184327
0.0824884
0.187479
0.110637
0.0231878
0.0282921
0.012208
0.0180841
0.0393711
0.0855398
0.0907067
0.0755218
0.0154085
0.0140637
0.00571428
0.0030422
0.00725914
0.111045
0.218031
0.21436
0.0689114
0.0391954
0.0226596
0
0.0037807
0.00775655
0.0452763
0.11012
0.172016
0.198349
0.0544892
0.0102717
0.012432
0.0120163
0.0303337
0.137148
0.350619
0.654572
0.256264
0.0531769
0.00648505
0
0.0264649
0.0513701
0.0240652
0.124641
0.257503
0.0327323
0.0186307
0.00394247
0
0.000936173
0.00173861
0.0498624
0.277428
0.268328
0.0045656
0.00220073
0
0.00684987
0.00171247
0.00119065
0.0286912
0.184237
0.498461
0.101993
0.0257801
0.000563209
0
0.00655321
0.0121703
0.0185628
0.339794
0.501521
0.0465254
0.00361703
0
0.0253745
0.0204515
0
0.178151
0.179505
0.083314
0.00630797
0.000700885
0
0.00790934
0.00185887
0.0175327
0.395716
0.0736486
0.0191246
0.0105133
0.00241573
0
0.00697866
0.00963489
0.171813
0.138755
0.256747
0.281797
0.0353676
0.000420531
0
0.0399015
0.0264156
0.0439264
0.511725
0.153494
0.113177
0.0140522
0.00144944
0
0.0187919
0.0395369
0.405239
0.180147
0.0177355
0
0.001398
0.00348747
0
0.00867217
0.0532137
0.25187
0.0389453
0.0175168
0.0121437
0.00216314
0.0063265
0.0427648
0.0668407
0.20009
0.232537
0.286638
0.0122678
0.00438145
0.0008388
0.00209248
0
0.021615
0.185882
0.456599
0.0889217
0.00490083
0.0222754
0.015142
0.00181774
0.0761963
0.158708
0.448848
0.361923
0.00132062
0.00618177
0.0162203
0.00745147
0.00548367
0.0564797
0.0896884
0.274078
0.126997
0.0268891
0.00757751
0.00977675
0.00741021
0.00876961
0.025993
0.0781031
0.255669
0.177903
0.0102878
0.00621057
0.0340471
0.0521603
0.000783382
0.113105
0.274772
0.460306
0.146112
0.00893081
0.00187569
0.0131868
0.0362693
0.00618226
0.115481
0.419065
0.37249
0.126334
0.0649254
0.0184273
0.0503166
0.0253564
0.0521988
0.0529815
0.0996929
0.156778
0.164225
0.037843
0.0565507
0.124476
0.0382439
0.0588857
0.168204
0.0819894
0.061648
0.0275084
0.0194643
0.0162706
0.058771
0.11047
0.127776
0.215114
0.446175
0.170082
0.11479
0.156695
0.172951
0.296521
0.218461
0.205979
0.24217
0.110096
0.0433983
0.030578
0.0602894
0.0762776
0.0925104
0.0475461
0.0381756
0.13141
0.025376
0.0152349
0.0244906
0.0730652
0.0261622
0.0340649
0.0898577
0.0569597
0.0565613
0.0508982
0.131668
0.0984414
0.390476
0.19224
0.175707
0.0701557
0.0585047
0.108444
0.0146268
0.0241226
0.156897
0.403681
0.0594919
0.0185836
0.00550258
0.00717667
0.0407799
0.0647501
0.215832
0.370135
0.0374184
0.117175
0.127534
0.187647
0.114615
0.0614192
0.00466874
0.023735
0.0165254
0.00584294
0.108365
0.173519
0.327254
0.251289
0.22336
0.00838391
0.000271502
0.00101143
0.00806201
0.0508638
0.242008
0.257208
0.107651
0.0532455
0.00111508
0.000965095
0.0018534
0.000460286
0.0128018
0.236979
0.483347
0.28808
0.159494
0.00503035
0.00499767
0.00152848
0.00357325
0.0367563
0.0761514
0.293583
0.227006
0.198699
0.0265809
0.0056358
0
0.00721005
0.00214932
0.0800256
0.245556
0.160455
0.0464994
0.0687515
0.0224595
0.0103529
0.0250128
0.00653654
0.0885636
0.405249
0.294543
0.111429
0.0252656
0.0298016
0.00742401
0.041688
0.00761686
0.119409
0.406263
0.252838
0.0571818
0.0913066
0.0330025
0.00445441
0.00455603
0.0400822
0.123028
0.17252
0.0505943
0.00344366
0.0130161
0.0048681
0.00664109
0.0125088
0.170216
0.463912
0.196591
0.0385873
0.000892207
0.00267662
0.00668577
0.0128315
0.00267472
0.0143787
0.093336
0.299935
0.156494
0.0205525
0.0399407
0.00251794
0
0
0.0821251
0.407821
0.490115
0.165864
0.0114378
0.0187363
0
0
0.0256167
0.144975
0.39406
0.0944637
0.0162641
0.00873035
0.00271317
0.00254648
0.0156257
0.0427303
0.209692
0.273903
0.0484926
0.0251536
0.0700124
0.0815752
0.0668665
0.0181609
0.0473028
0.0881587
0.448204
0.288933
0.0534179
0.033974
0.0215186
0.00958175
0.0181609
0.0821688
0.106337
0.215083
0.0926108
0.0720278
0.336227
0.26979
0.0728381
0.0302682
0.0666996
0.114375
0.188151
0.0373674
0.0318558
0.0426174
0.136428
0.1549
0.0729751
0.423604
0.0638405
0.0917737
0.00916265
0.012632
0.0102068
0.0589466
0.119552
0.371706
0.0425274
0.0220577
0.0495888
0.0568134
0.100213
0.287391
0.297981
0.180959
0.0532522
0.317633
0.0269018
0.0327977
0.0577635
0.0913656
0.131311
0.121923
0.149266
0.190682
0.406084
0.0138756
0.00509072
0.00211102
0.00823355
0.0022108
0.023496
0.0960341
0.300631
0.261162
0.00764275
0.00982997
0.0552272
0.0287749
0.0813282
0.183269
0.25104
0.191253
0.35294
0.0495731
0.00789446
0.0417872
0.109872
0.0556514
0.0192352
0.0251643
0.130368
0.240368
0.0397121
0.0101108
0.204982
0.299265
0.15288
0.11611
0.112067
0.0830728
0.0240718
0.00433515
0.00843193
0.0407616
0.0115954
0.0777113
0.219377
0.198717
0.0513326
0.000973852
0.0023492
0.00221939
0.0131226
0.0108683
0.144232
0.360525
0.170401
0.0224599
0.0275325
0.026489
0.00667991
0.0793484
0.116073
0.214693
0.184373
0.0999552
0.0462973
0.00529779
0.0158934
0.000954273
0.0083998
0.0366504
0.639127
0.322041
0.0747043
0.0241301
0.000291655
0.00209924
0.00684973
0.0286036
0.0635341
0.214847
0.198905
0.0332685
0.00345706
0.04108
0.0330723
0.0591838
0.0749306
0.125001
0.236116
0.0687243
0.00886839
0.0031291
0
0
0.000601598
0.00722144
0.0472559
0.57486
0.207459
0.0545171
0.00588897
0.00410175
0.00425978
0.0159215
0.0341711
0.166454
0.500744
0.213842
0.077126
0.00981494
0.178639
0.083871
0.0943266
0.0658103
0.119163
0.129397
0.0423538
0.0195854
0.0830526
0.158753
0.0348021
0.0324271
0.00587181
0.0251447
0.0464969
0.178203
0.156137
0.171462
0.035589
0.021792
0.0702718
0.0620422
0.354874
0.513012
0.158518
0.0314807
0.0300664
0.0425539
0.0168053
0.0555626
0.0410369
0.156368
0.219774
0.255873
0.10416
0.07262
0.000416107
0.016345
0.42621
0.145194
0.0311123
0.0101085
0.00312907
0
0
0.00115708
0.0222114
0.416974
0.237076
0.0439597
0.00734415
0.00145483
0.0129674
0.00595182
0
0.0224632
0.454661
0.308081
0.0949583
0.0289386
0.0061585
0
0
0.00182939
0.0515375
0.347594
0.121818
0.0466996
0.0255588
0.00918669
0.020815
0.0182069
0.0179602
0.0329514
0.17132
0.242742
0.0873474
0.0227524
0.0141595
0.0634643
0.0305786
0.0226962
0.0260094
0.0554321
0.340524
0.25226
0.191835
0.0621786
0.0804918
0.0266205
0.0113084
0.0791278
0.157324
0.0895589
0.0543544
0.0335863
0.0276271
0.0944434
0.0604274
0.00678505
0.0683944
0.0835618
0.259603
0.419757
0.316205
0.106293
0.154152
0.0389341
0.000747672
0.0023174
0.0338432
0.205486
0.12414
0.0421152
0.0137405
0.00582092
0.00123608
0
0.00828392
0.128191
0.370075
0.243135
0.0164142
0.00523742
0
0
0
0.0028168
0.0197261
0.188481
0.249922
0.0898238
0.0113039
0.0132734
0.00206013
0
0.000690825
0.0320701
0.301502
0.663376
0.0842418
0
0
0
0.00811862
0.0115557
0.144677
0.268133
0.16601
0.014943
0.01021
0.00744058
0.00190858
0.013531
0.025221
0.134474
0.195244
0.144665
0.146455
0.0988087
0.0151914
0.00318097
0
0.000275243
0.0155737
0.209563
0.527597
0.090943
0.00654699
0.00106294
0
0
0.0197063
0.0881243
0.257808
0.450194
0.249564
0.117314
0.00177157
0
0.00925321
0.0443735
0.155858
0.147932
0.114689
0.239786
0.190123
0.030783
0.00685028
0.0914414
0.0623741
0.0806285
0.0708421
0.073505
0.145571
0.122059
0.0765902
0.040772
0.00603387
0.0665
0.171507
0.220665
0.340882
0.382014
0.283456
0.0127299
0.0189009
0.157835
0.0776748
0.102866
0.17943
0.161292
0.224855
0.183073
0.0992228
0.143644
0.0899486
0.0383366
0.0395164
0.0462597
0.125148
0.0714398
0.0236402
0.0548912
0.0294932
0.0386728
0.0219662
0.0204514
0.217874
0.30142
0.211539
0.166414
0.110055
0.0386959
0.168794
0.0398994
0.121374
0.102552
0.109705
0.0552451
0.0484618
0.101633
0.0781977
0.0487771
0.0264858
0.114251
0.486935
0.455156
0.13897
0.0934714
0.112675
0.0624612
0.00491295
0.00907841
0.00213348
0.072569
0.102043
0.227439
0.0942542
0.0250581
0.010752
0.00177259
0.00531778
0.000212445
0.0238268
0.0931644
0.593816
0.0751707
0.00270869
0.00297015
0.00165632
0.00150818
0.00917879
0.224911
0.238912
0.160459
0.0412792
0.0155413
0.0100398
0
0
0.00243958
0.205732
0.414205
0.352636
0.0203947
0.000801165
0
0
0.000733089
0.00809434
0.050073
0.0778002
0.479397
0.107545
0.0297356
0.00618386
0
0.00513162
0.0500577
0.0829977
0.21746
0.243671
0.149867
0.0493386
0.0103064
0
0.00122182
0.0258628
0.257179
0.376733
0.293149
0.0777603
0.00575934
0.00295616
0
0.0085527
0.106288
0.256637
0.295982
0.139532
0.0933107
0.00959891
0.00492693
0.00258583
0.00388268
0.0405452
0.110486
0.445134
0.289686
0.0914919
0.0194675
0.0114618
0.00966337
0.0125047
0.0284608
0.0655184
0.17015
0.152037
0.102157
0.0795768
0.0274705
0.0347191
0.0233116
0.0671323
0.220189
0.462571
0.215128
0.0413475
0.0110911
0.0474144
0.142694
0.0653715
0.0425817
0.101553
0.162481
0.125803
0.0903834
0.0997056
0.083959
0.0019646
0.0484097
0.288147
0.474368
0.242931
0.122611
0.00977187
0.00026485
0
0.000729936
0.0359466
0.129372
0.135145
0.172709
0.141332
0.0588251
0.0119273
0.0121027
0.0475387
0.0904763
0.175448
0.222609
0.25183
0.184883
0.0122371
0.00404749
0.00911705
0.00594858
0.00822317
0.0633146
0.11661
0.203353
0.262643
0.0856597
0.013291
0.00117455
0.00256661
0.0340742
0.09978
0.106334
0.0828947
0.0555902
0.034662
0.0360702
0.0203334
0.00153996
0.026994
0.14014
0.26039
0.504003
0.188441
0.0447764
0.0551109
0.00996611
0.00525279
0.0289144
0.0767414
0.113346
0.112459
0.106255
0.0501736
0.0388131
0.0151556
0.00315167
0.0173486
0.0784131
0.257549
0.336862
0.244203
0.167116
0.0735258
0.0599699
0
0.000919035
0.0102751
0.105763
0.270806
0.0768948
0.00604879
0.00476427
0.000499948
0
0
0
0.101965
0.510621
0.302347
0.00871126
0.00463466
0.000514962
0
0
0.00584824
0.127595
0.189276
0.114029
0.0584297
0.0147906
0.0096592
0
0
0
0.0786866
0.24118
0.554456
0.100551
0.0432899
0.0278164
0
0
0.000705578
0.0357048
0.255839
0.280215
0.026499
0.00272617
0.000159454
0
0.00251981
0.01901
0.0764011
0.250441
0.378135
0.137551
0.00215181
0
0.014585
0
0.00824887
0.0285651
0.0634568
0.505657
0.125887
0.0275254
0.0237849
0.0245997
0.00553578
0.110827
0.326024
0.166361
0.313974
0.128869
0.0250422
0.0252863
0.0067051
0.00733642
0.0276776
0.104801
0.270885
0.393623
0.180929
0.00398386
0.00783562
0.0724362
0.0240613
0.0293519
0.14341
0.183528
0.183791
0.158213
0.0264999
0.0640403
0.0454634
0.0227753
0.112604
0.330087
0.299835
0.271656
0.0952521
0.032405
0.058184
0.0907919
0.0236806
0.105019
0.112092
0.179199
0.172012
0.201888
0.0677337
0.220402
0.0888286
0.027538
0.0527572
0.091465
0.129915
0.0580525
0.0662957
0.0356356
0.0631807
0.0294003
0.012061
0.0589158
0.252308
0.388572
0.2077
0.102151
0.0366379
0.0381532
0.041104
0.0116681
0.125545
0.140139
0.142488
0.0677987
0.0968764
0.0334667
0.238502
0.0349969
0.0146598
0.158349
0.384393
0.287348
0.301923
0.208271
0.013147
0.169975
0.000287926
0.00057703
0.016405
0.161464
0.199108
0.14073
0.056757
0.00272042
0.00304231
0
0
0.057559
0.358585
0.263593
0.0865274
0.0162222
0.00196105
0.0016045
0.00792888
0.0233723
0.160486
0.245127
0.158821
0.212751
0.0984429
0.000388632
0.0108762
0.00138524
0.0205139
0.319277
0.570177
0.123426
0.0931258
0.014521
0.00326842
0.00267416
0.012852
0.00319801
0.081862
0.331878
0.224543
0.0815466
0.0414282
0.0178638
0.0223848
0.02142
0.00629037
0.0834825
0.22875
0.144002
0.0939052
0.0314477
0.0205352
0.0297498
0.0410925
0.0281259
0.229386
0.551079
0.104673
0.0258406
0.0107417
0.019956
0.0307633
0.0684875
0.0360736
0.105698
0.406646
0.22141
0.0615678
0.0156524
0.0230739
0.0386752
0.0508653
0.026633
0.0772674
0.259096
0.306332
0.1651
0.0213151
0.00648107
0.0314882
0.169494
0.0796409
0.0518417
0.117277
0.213574
0.124642
0.0994302
0.0335941
0.0405056
0.0413518
0.0197824
0.115756
0.395405
0.27883
0.162663
0.0992309
0.042903
0.0104494
0.140978
0.111046
0.108804
0.0670407
0.201299
0.126407
0.144181
0.040606
0.00530941
0.103883
0.0866276
0.18643
0.185499
0.0882246
0.0767636
0.0179889
0.0122134
0.0516968
0.00950892
0.0423424
0.28757
0.199539
0.14374
0.171029
0.0273633
0.00904389
0.0068427
0.0723425
0.0499617
0.201438
0.204233
0.0409175
0.095559
0.0614454
0.023626
0.0847385
0.0102891
0.0765003
0.416634
0.279958
0.095736
0.192027
0.0934005
0.0112108
0.0148998
0.0124927
0.0371884
0.167182
0.110455
0.145338
0.114455
0.0227536
0.0471786
0.0512832
0.017555
0.0246185
0.0668281
0.118018
0.126502
0.140365
0.307059
0.206903
0.179864
0.0157179
0.0651641
0.258526
0.10931
0.202358
0.163045
0.0390118
0.0134319
0.0366382
0.0337174
0.0797511
0.26319
0.0488272
0.121234
0.075026
0.113818
0.189636
0.140971
0.00064221
0.00197345
0.00592035
0.0720253
0.0729395
0.098493
0.158285
0.105404
0.0279589
0
8.19818e-005
0.000245945
0.0477595
0.108218
0.402764
0.323186
0.217366
0.0431308
0.00724255
0.0114224
0.0358894
0.00803101
0.0241168
0.062576
0.139251
0.149339
0.0384202
0.00370332
0.000970982
0.00291295
0.00301101
0.0630775
0.251749
0.51496
0.310136
0.0270915
0.022389
0
0.0120952
0.0322108
0.0291406
0.291727
0.246566
0.145899
0.0827442
0.0446234
0.0506431
0.129694
0.329312
0.0557139
0.146562
0.176381
0.121047
0.153598
0.00495707
0
0.00469897
0.00632706
0.0507868
0.165459
0.322767
0.238802
0.106456
0.0192123
0.0610358
0.0525387
0.0608888
0.0526335
0.23287
0.306299
0.261421
0.240443
0.0424209
0.15887
0.0992955
0.215857
0.104475
0.111789
0.0711895
0.0501382
0.110809
0.124207
0.124474
0.0743801
0.0765679
0.0664253
0.0675205
0.0672817
0.109698
0.346019
0.0282601
0.193396
0.0608022
0.0385919
0.0498309
0.313806
0.210588
0.127417
0.1246
0.193117
0.27562
0.0470223
0.0270417
0.0749129
0.175408
0.100858
0.21698
0.367416
0.046067
0.00861234
0.0584108
0.097382
0.0699977
0.0351649
0.0421953
0.135601
0.216781
0.0663453
0.0582275
0.154034
0.197592
0.124129
0.161603
0.0831199
0.114142
0.145927
0.114011
0.272443
0.0581212
0.0502079
0.111561
0.0407024
0.0188401
0.208844
0.204561
0.065527
0.34923
0.494216
0.0967747
0.117751
0.0729229
0.0225492
0.183407
0.12777
0.0351405
0.131116
0.284267
0.185413
0.0825221
0.155476
0.0386843
0.0141775
0.0355465
0.0247318
0.103301
0.371911
0.368935
0.0963911
0.0629219
0.00315036
0.0170166
0.0185673
0.0623696
0.22608
0.428387
0.12374
0.0196947
0.0681374
0.00840866
0.0266586
0.0718242
0.0985927
0.187595
0.253413
0.191558
0.057097
0.0481316
0.000637404
0.0273298
0.0869297
0.04169
0.0453766
0.172036
0.428905
0.174449
0.0330709
0
0.0119412
0.0184576
0.0311128
0.0291481
0.06256
0.340066
0.386815
0.142106
0.0249869
0.00963536
0.0070897
0.152945
0.143843
0.115026
0.190432
0.163465
0.0562741
0.00634183
0.0207518
0.0799485
0.0864213
0.108475
0.0926426
0.162858
0.269475
0.191096
0.0699525
0.0632521
0.0293941
0.012335
0.0148279
0.0534162
0.159549
0.266623
0.249464
0.112175
0.0529964
0.0126211
0.11032
0.123293
0.095495
0.00654916
0.091505
0.108183
0.0948202
0.0477913
0.0680462
0.0370931
0.0589817
0.0573898
0.0466671
0.157414
0.230374
0.171727
0.275035
0.103837
0.111179
0.196416
0.295328
0.00681154
0.0438187
0.0680023
0.0828785
0.223059
0.250007
0.0443506
0.036451
0.0684298
0.0795
0.0441668
0.130192
0.0948959
0.0296944
0.0382742
0.0164225
0.0244173
0.0915563
0.0909654
0.0680913
0.350754
0.232533
0.0264005
0.0138786
0.0379125
0.0576243
0.0629814
0.0429616
0.0892216
0.144598
0.10622
0.0411189
0.0249648
0.0135003
0.0289458
0.0167542
0.0667141
0.305529
0.507636
0.209156
0.0187779
0.00684153
0.00226548
0.0198673
0.0719091
0.0536134
0.122187
0.267365
0.159226
0.0160704
0.00226548
0.0174455
0.0372435
0.127286
0.0345572
0.115303
0.157879
0.134501
0.0611
0.028544
0.00165488
0.00868432
0.0450381
0.0966005
0.187
0.377253
0.254725
0.0220802
0
0.0179322
0.0243178
0.0875496
0.0518528
0.0711127
0.216696
0.275314
0.117596
0.0151741
0.0268566
0.0161034
0.0523902
0.00757703
0.0834054
0.0712307
0.125073
0.0892933
0.050368
0.0158954
0.00445875
0.0133762
0
0.126817
0.323688
0.568179
0.252587
0.0788358
0.0291631
0.00797626
0.0255941
0.00544743
0.0482939
0.0524128
0.12935
0.117104
0.0340008
0.0200789
0.011175
0.0477305
0.0263819
0.0537691
0.113585
0.20376
0.214462
0.0658987
0.00137597
0.000205356
0.000616068
0
0.0441901
0.200359
0.302053
0.218612
0.0766035
0.0298646
0.0128347
0.0124785
0.0352834
0.0632453
0.227604
0.310254
0.355457
0.230137
0.0153875
0.00589183
0.0224374
0.00884359
0.0103419
0.0732703
0.118963
0.194369
0.0994526
0.122982
0.00827234
0.0154182
0.0260359
0.00797377
0.0401764
0.107541
0.309409
0.343907
0.0369375
0.0299285
0.0153324
0.0298348
0.0282647
0.193098
0.193664
0.169672
0.180431
0.189792
0.251972
0.014219
0.011645
0.0314208
0.109479
0.128151
0.242038
0.406374
0.106281
0.0124505
0.00589695
0.0203047
0.00219278
0.0220051
0.0908372
0.110312
0.275152
0.238261
0.142428
0.00652808
0.00397662
0
0.0189516
0.10488
0.132754
0.386648
0.129014
0.389208
0.0581919
0.0151138
0.0364543
0.0195704
0.0180404
0.0647598
0.105336
0.0427809
0.448634
0.39864
0.0548014
0.0352551
0.00692584
0.0178429
0.0469763
0.021343
0.161073
0.206
0.0588322
0.00812047
0
0.0160229
0.0247021
0.0445447
0.0930835
0.159072
0.356849
0.288804
0.0625832
0.00320522
0.00961377
0.0163736
0.0266647
0.0342167
0.0374996
0.280966
0.375071
0.125942
0.00716547
0.00865917
0.00557635
0.0143776
0.0275019
0.0746102
0.193503
0.304353
0.165004
0.0246508
0.0157211
0
0.00465133
0.0425164
0.131942
0.364758
0.296412
0.0564446
0.00864101
0
0.00334581
0.00621365
0.0452167
0.0521828
0.289701
0.364217
0.0503001
0.0143921
0
0
0
0.0157859
0.238174
0.235331
0.254237
0.112425
0.140381
0.0501505
0.0333016
0.0310886
0.0628087
0.218133
0.174545
0.127495
0.0996368
0.144424
0.152909
0.112535
0.153769
0.0431882
0.0799999
0.242721
0.331981
0.0577434
0.10765
0.0543396
0.0245322
0.0295774
0.00422736
0.141469
0.11996
0.106224
0.088799
0.156112
0.19286
0.0881892
0.146721
0.0137949
0.108692
0.0816583
0.0411915
0.0547768
0.0325042
0.0617427
0.130825
0.310284
0.0760887
0.143604
0.242613
0.276334
0.0283104
0.00909829
0.00461017
0.0884583
0.252708
0.11202
0.123725
0.075642
0.0704485
0.115976
0.116841
0.106413
0.0874799
0.137234
0.0135861
0.118223
0.211396
0.323003
0.144762
0.186076
0.0493309
0.0664679
0.100723
0.0254321
0.010497
0.0344621
0.0466192
0.0765918
0.102981
0.121774
0.0748925
0.0229048
0.00548123
0.00300948
0.0204183
0.036183
0.202507
0.349662
0.303887
0.0584222
0.0159988
0
0.0138111
0.109387
0.108534
0.149943
0.109383
0.129654
0.0592526
0.0150486
0.00718285
0.00828664
0.0769716
0.0862811
0.176972
0.233779
0.386553
0.203154
0.0491748
0.00430971
0.0045979
0.0213475
0.0720373
0.171653
0.241829
0.177282
0.0900439
0.0366056
0
0.0217397
0.0516324
0.124548
0.0632493
0.0995831
0.0573157
0.0784698
0.0543451
0.0140766
0.00275874
0.0176068
0.0459455
0.0885256
0.298503
0.319577
0.289145
0.0828156
0
0.0122609
0.0476581
0.124338
0.0512871
0.283429
0.0945946
0.132858
0.036128
0.00766303
0.0424922
0.0166931
0.0638506
0.0402767
0.040791
0.0369882
0.0847349
0.0690442
0.0414907
0.059649
0.0116929
0.14007
0.126237
0.0545699
0.0314652
0.102833
0.0868696
0.0669685
0.0230716
0.0251221
0.235878
0.213957
0.0996213
0.00938617
0.0331019
0.00799592
0.0223629
0.103239
0.0430331
0.466333
0.318402
0.0400752
0.0511776
0.0641719
0.0086329
0.103239
0.0716574
0.0216361
0.109562
0.0792248
0.0263406
0.0183383
0.0671134
0.118567
0.132626
0.249095
0.0609267
0.060629
0.0605225
0.0118685
0.00462829
0.127313
0.196514
0.354272
0.103286
0.0306616
0.147404
0.0932623
0.109077
0.157802
0.115588
0.0086489
0.0937119
0.162022
0.109996
0.0590575
0.0961982
0.240159
0.136587
0.087072
0.0339107
0.0841203
0.172393
0.0532311
0.0317926
0.0256388
0.00319751
0.002919
0.110705
0.0885359
0.266755
0.327361
0.130934
0.104402
0.0256337
0.0134998
0.00798666
0.101546
0.118604
0.30273
0.0933119
0.106341
0.0985045
0.0710461
0.056886
0.0283544
0.0221498
0.0458301
0.0590092
0.103848
0.249797
0.355797
0.05302
0.0303165
0.0485367
0.0164523
0.0329471
0.0462491
0.221208
0.149146
0.148355
0.0197693
0.0111687
0.00721329
0.0184957
0.0775791
0.118533
0.324596
0.41744
0.254256
0.0782047
0.0439374
0.00685356
0.0105116
0.0552362
0.127883
0.0604734
0.138258
0.272814
0.0175792
0.0607366
0.0441854
0.0279055
0.0226394
0.0375134
0.0803058
0.124882
0.151195
0.0383654
0.138167
0.0543194
0.0921435
0.113483
0.131955
0.263923
0.411746
0.186842
0.068706
0.0671251
0.00343417
0.0104342
0.0311276
0.140808
0.0968918
0.328006
0.291288
0.0295889
0.0601065
0.0118875
0.0191737
0.0301747
0.0491233
0.045655
0.0526806
0.0458178
0.0585543
0.0738746
0.0534233
0.105815
0.124965
0.152046
0.0445489
0.0671595
0.108402
0.0333672
0.0537872
0.13173
0.108846
0.0810464
0.0701278
0.0149156
0.22742
0.223733
0.0582715
0.0803225
0.066244
0.0233052
0.0223169
0.00717267
0.0556001
0.153336
0.0864022
0.0969825
0.121855
0.211167
0.098232
0.120275
0.0455327
0.0800594
0.131929
0.121766
0.0933183
0.0436311
0.174893
0.0928969
0.0163569
0.0221991
0.133131
0.217677
0.0723157
0.209974
0.0972371
0.202771
0.19685
0.0468476
0.0297744
0.0842548
0.0802025
0.0635295
0.092505
0.167347
0.155369
0.0621522
0.0478181
0.0153964
0.0507648
0.100951
0.215433
0.164698
0.323448
0.160834
0.0629423
0.0537719
0.112924
0.131812
0.175168
0.0828758
0.123868
0.134185
0.077837
0.0934422
0.0266629
0.0157235
0.163201
0.168529
0.100231
0.0737412
0.138776
0.0836756
0.100866
0.100522
0.195427