0.0267469
0.00611133
0.026276
0.0898147
0.184533
0.221219
0.103919
0.0382892
0.100447
0.0375255
0.0385745
0.094291
0.0834692
0.222577
0.18996
0.159101
0.0490863
0.0304182
0.0700568
0.0352507
0.0335824
0.135116
0.288418
0.165304
0.0813874
0.116904
0.206032
0.0749597
0.0151217
0.00782808
0.0324824
0.266702
0.215124
0.216219
0.196374
0.154719
0.156757
0.106337
0.0665181
0.0404579
0.114606
0.0461748
0.0856679
0.0587892
0.0393448
0.225446
0.116249
0.0941323
0.0851926
0.0389631
0.0403781
0.0338644
0.0634654
0.0484637
0.172267
0.0376789
0.0385332
0.0201671
0.187966
0.0597573
0.147639
0.223357
0.132464
0.229742
0.0428531
0.115783
0.0895236
0.216765
0.0572935
0.0394029
0.26575
0.164736
0.0518447
0.0334382
0.0504175
0.0754087
0.0513024
0.145153
0.0838784
0.0623255
0.0215685
0.0486825
0.0548913
0.0254898
0.04293
0.0418566
0.165326
0.239035
0.274912
0.0986503
0.0610923
0.0400501
0.120965
0.147452
0.290333
0.0727005
0.0408379
0.0853268
0.0407626
0.0437351
0.0781821
0.121702
0.335205
0.206434
0.0686579
0.175288
0.109329
0.0129925
0.124105
0.0834458
0.0427846
0.0163737
0.00612451
0.0409213
0.168915
0.216958
0.115391
0.12062
0.17361
0.182423
0.125919
0.0854024
0.0878847
0.0575245
0.0440565
0.0467938
0.061469
0.04937
0.064844
0.218597
0.0583222
0.127163
0.21585
0.104334
0.0291323
0.115976
0.182671
0.254141
0.12632
0.0769995
0.193201
0.130207
0.0251861
0.0309982
0.0108125
0.0587987
0.145186
0.234259
0.108131
0.0436096
0.00386471
0.00105537
0.00390733
0.0369525
0.0648243
0.17185
0.2942
0.0981199
0.00900482
0.0376362
0.0840711
0.0358332
0.0410911
0.0830235
0.139319
0.256094
0.161437
0.10918
0.00489017
0
0.00251393
0.0717094
0.0503262
0.104211
0.496773
0.187417
0.067186
0.0273199
0.059326
0.0132705
0.0440066
0.0442691
0.0778409
0.135064
0.0460589
0.00312143
0.0482944
0.119883
0.0382029
0.239198
0.38385
0.214076
0.168035
0.0684041
0.0181438
0.0784346
0.110129
0.0980972
0.0654925
0.0267241
0.0609668
0.216078
0.0481579
0.0237685
0.0377251
0.0950358
0.0745492
0.100545
0.223949
0.200067
0.205044
0.0575352
0.0835918
0.156184
0.155493
0.325576
0.183359
0.264105
0.104203
0.0800656
0.0253542
0.0213516
0.0574084
0.0306338
0.0818655
0.163563
0.2054
0.138794
0.13601
0.0256954
0.0447559
0.104442
0.0601414
0.100129
0.0611027
0.246012
0.192679
0.116899
0.0344966
0.122283
0.101873
0.0670207
0.0994007
0.194434
0.378639
0.292954
0.239547
0.0771436
0.177491
0.0645928
0.037291
0.0676584
0.149831
0.0857601
0.0641032
0.03653
0.0166348
0.0793402
0.0720875
0.0312365
0.0692855
0.107786
0.117266
0.0726974
0.0681706
0.0676099
0.159731
0.0824945
0.0239442
0.0382108
0.205229
0.202315
0.122314
0.114958
0.0441196
0.153962
0.17604
0.0195884
0.0736987
0.117005
0.0805327
0.0590581
0.0509425
0.190329
0.588723
0.316462
0.0392394
0.0583278
0.147189
0.126215
0.0513126
0.0492864
0.0978693
0.0669953
0.0348733
0.033762
0.0406812
0.288405
0.0756222
0.0271652
0.0508566
0.0399057
0.0175465
0.038889
0.0987612
0.115412
0.190651
0.0748579
0.0468592
0.0178379
0.178033
0.377196
0.122747
0.0800193
0.158252
0.285965
0.0490614
0.0156763
0.0228323
0.0221444
0.0513048
0.0752574
0.260566
0.367967
0.0284716
0.0592009
0.0410145
0.0671743
0.22897
0.115304
0.0606781
0.122789
0.121946
0.0899948
0.0310017
0.0275045
0.0241549
0.0641905
0.0459188
0.0669163
0.189326
0.182904
0.0250842
0.0456741
0.0184656
0.0237847
0.133356
0.12916
0.171417
0.474965
0.118648
0.186842
0.0688761
0.162168
0.040399
0.0126163
0.00610032
0.0492699
0.265774
0.168875
0.0913444
0.0112186
0.0196026
0.00754487
0.031936
0.0105513
0.067814
0.179714
0.148237
0.0339336
0.00972297
0.113296
0.0659451
0.0655907
0.0188494
0.0949237
0.232332
0.130697
0.157918
0.0511498
0.131824
0.0290615
0.0114742
0.0441711
0.175085
0.1241
0.125382
0.0516985
0.085068
0.347543
0.0647454
0.0187184
0.108482
0.453552
0.210674
0.0708026
0.00414441
0.0112441
0.0786305
0.0625554
0.0643142
0.0138127
0.0214443
0.0280053
0.0165498
0.0478586
0.0240158
0.0416256
0.122655
0.0725037
0.0271722
0.0282517
0.00951254
0.0285793
0.107985
0.139844
0.249423
0.0431842
0.00681564
0.0196892
0.0660113
0.0457955
0.0386232
0.606078
0.528946
0.108507
0.0391696
0.0214288
0.026345
0.014562
0.0356562
0.111682
0.0599737
0.0282985
0.0136936
0.02829
0.015788
0.0151998
0.00813815
0.00130759
0.0106898
0.160319
0.062507
0.0382389
0.0113903
0.00930496
0.016675
0.00536806
8.83188e-005
0.00947981
0.334152
0.332275
0.0343129
0.00595544
0.00740509
0.0052463
0.00089255
0.00218548
0.0230568
0.736398
0.314197
0.0465395
0.00180799
0.00180773
0.00171766
0
0
0.0487228
0.154719
0.0443032
0.0168476
0.0184282
0.0283227
0.0200124
0.000446688
0
0.0199861
0.120464
0.0304148
0.0156279
0.0422462
0.0363964
0.0237556
0.00609318
0.0211689
0.0619241
0.638723
0.0883096
0.00851571
0.00138131
0.00583689
0.00609123
0
0.00779323
0.184401
0.434976
0.0325154
0.00788985
0.00300159
0.00882354
0.0113271
0.0280371
0.122284
0.43728
0.0419099
0.00699011
0.0186311
0.0350868
0.0109405
0.028438
0.0136535
0.0815729
0.088671
0.024367
0.0177011
0.0249202
0.0240296
0.0078809
0.0654357
0.0591142
0.121372
0.112156
0.123591
0.00629063
0.00556225
0.00348085
0.00395789
0.0170628
0.144866
0.345477
0.371353
0.0109361
0
0.00251439
0.00221674
0.00622908
0.0564372
0.282912
0.634647
0.186435
0.0181328
0.0310196
0.0333303
0.019963
0.0168296
0.110443
0.0859467
0.120266
0.0652714
0.0403459
0.061171
0.0653988
0.0900378
0.0634497
0.188701
0.176487
0.148543
0.0454007
0.00285393
0.00213997
0.000931242
0.000169821
0.0121559
0.08587
0.176917
0.52628
0.101878
0.000999636
0.0168362
0.0122134
0.0161082
0.0242905
0.120494
0.270268
0.51411
0.116478
0.0583133
0.0984678
0.0652236
0.112419
0.0824301
0.129718
0.203636
0.0968317
0.0361694
0.0491523
0.0731267
0.0342948
0.0847757
0.302283
0.36005
0.164407
0.0527628
0.0396881
0.0413113
0.0534497
0.0321315
0.0540038
0.0642032
0.0662396
0.27773
0.367287
0.0925294
0.0944137
0.0747465
0.0435659
0.107546
0.300768
0.114594
0.120761
0.214825
0.159321
0.101352
0.0226589
0.0164211
0.0488532
0.177994
0.28434
0.0932146
0.0461719
0.154478
0.104037
0.0127782
0.00934971
0.0217025
0.00974578
0.0330936
0.249
0.216329
0.305285
0.111536
0.0587189
0.0794421
0.0804837
0.160177
0.116414
0.050095
0.11044
0.196176
0.0918212
0.144267
0.051657
0.0264062
0.00660154
0.0133839
0.303228
0.338182
0.171983
0.0254671
0.00823219
0.0100903
0.0128741
0.0177676
0.0466595
0.196214
0.325054
0.0745214
0.150509
0.0381117
0.0782464
0.0164759
0.0155564
0.0334592
0.0996544
0.186101
0.170315
0.133282
0.0982414
0.0138896
0.0755679
0.00839938
0.0572529
0.166177
0.250155
0.222449
0.114899
0.0645539
0.00657275
0.0557334
0.0769806
0.0782998
0.153551
0.342739
0.328979
0.0386373
0.0231551
0.0317463
0.00759025
0.0221427
0.02714
0.0348696
0.0167688
0.0226178
0.0119273
0.0838344
0.253349
0.0329481
0.0245161
0.0524197
0.0916449
0.0178776
0.00230282
0.0331142
0.0402791
0.0814185
0.0562966
0.0634595
0.0332469
0.0280691
0.0568987
0.0338054
0.0441284
0.479611
0.706549
0.138678
0.0457847
0.0334315
0.019371
0.0101691
0.029959
0.0530803
0.13339
0.234904
0.0142901
0.00803682
0.00765924
0.015242
0.00632963
0.0107295
0.281574
0.349564
0.122045
0.0090873
0.0108611
0.00176863
0.000381293
0.00527455
0.068495
0.0433742
0.308252
0.46884
0.0792206
0.0555972
0.00600181
0.0025274
0.00268514
0.0327106
0.283019
0.245534
0.300375
0.139733
0.133959
0.00395219
0
0.00130382
0.141964
0.195632
0.315922
0.0729752
0.00387984
0.00444431
0.000464711
4.61737e-005
0.000638736
0.0456247
0.398481
0.301406
0.0995705
0.00733597
0.0217085
0
0
0
0.046493
0.248299
0.180825
0.135752
0.0752343
0.0336401
0.000478601
0.00412124
0.00209166
0.123989
0.415055
0.342172
0.229453
0.152453
0.0361809
0.00358209
0.0587908
0.0213675
0.0836566
0.26722
0.0467785
0.00851281
0.00153051
0.00542065
0
0
0.00390151
0.118877
0.171259
0.00253863
0
0
0
0
0.0146911
0.0789259
0.284557
0.408864
0.0953055
0.049285
0.030381
0.00903441
0.00660916
0.0309452
0.0158184
0.213355
0.312363
0.0101527
0.00361681
0
0
0.00452397
0.0176882
0.18109
0.614347
0.0343096
0.000292632
0
0
0
0
0.073706
0.179264
0.1761
0.00606827
0.0119044
0.0029761
0
0.00037917
0.0041371
0.122509
0.314875
0.145571
0.0545835
0.000641175
0
0
0
0.0017857
0.100833
0.388981
0.406463
0.00453874
0.0198407
0.00496017
0
0
0.00770732
0.259796
0.495875
0.288616
0.00270257
0.0187356
0.00468391
0
0.00152543
0.0122138
0.0947193
0.392459
0.0892346
0
0.0103361
0.00459139
0.00301104
0.00462656
0.0482937
0.11849
0.29505
0.0747678
0.00162154
0.029524
0.00738099
0
0.000984417
0.0598287
0.332854
0.406788
0.117689
0
0.00531193
0.0025324
0.00180663
0.0124392
0.258517
0.457001
0.238801
0.0358927
0.0195427
0.0150734
0.0200336
0.050665
0.0351947
0.12529
0.184958
0.243114
0.0932905
0.0690832
0.0417419
0.0503113
0.0743314
0.0828527
0.0683635
0.106459
0.148444
0.141756
0.000440049
0.0026567
0.0260412
0.0733053
0.127355
0.421954
0.481865
0.178665
0.0478527
0.0398238
0.0659101
0.172797
0.171148
0.151487
0.129097
0.0990041
0.0879506
0.0511945
0.105905
0.161658
0.10651
0.0245018
0.0322208
0.0193903
0.0236913
0.0917782
0.155491
0.0977086
0.340172
0.141295
0.00471
0.00099536
0.0209623
0.103937
0.245797
0.0934142
0.11861
0.19372
0.183715
0.0909589
0.0462271
0.0248184
0.0488118
0.0812343
0.132327
0.13586
0.372596
0.25828
0.0570043
0.0152195
0.0448685
0.13749
0.200551
0.146139
0.161384
0.107735
0.00277323
0.0656071
0.0272634
0.0709341
0.0496199
0.157919
0.187331
0.082348
0.054079
0.00657905
0.0417657
0.149044
0.165326
0.116621
0.282961
0.222933
0.0767004
0.0357697
0.00657905
0.043056
0.0495937
0.150624
0.0930643
0.281225
0.109537
0.0777518
0.0673261
0.0596321
0.154711
0.365644
0.17677
0.0981951
0.224137
0.106489
0.00601261
0.00955821
0.0539192
0.0913651
0.116003
0.0506811
0.0158692
0.0303439
0.0120277
0.0258935
0.18086
0.295596
0.247899
0.125348
0.0336173
0.0200533
0.00817997
0.0528555
0.00663837
0.0114729
0.0227392
0.184828
0.359318
0.0523209
0.0088501
0.0106515
0.00319846
0.0306947
0.0780082
0.206623
0.459513
0.493828
0.0451462
0.0303939
0.00410418
0.031632
0.0638959
0.161124
0.183253
0.10837
0.0456771
0.0251885
0.0143858
0.00561578
0.0698613
0.225724
0.128207
0.194135
0.131124
0.0880632
0.0221364
0.0176761
0.00970697
0.106549
0.0577965
0.0837003
0.215332
0.330654
0.139411
0.0405219
0.0239763
0.00336947
0.0417177
0.161307
0.218273
0.482334
0.431722
0.0710727
0.0580281
0.0475124
0.0128522
0.0521246
0.246674
0.141457
0.0954321
0.0738313
0.0263713
0.0366364
0.0745936
0.0252711
0.0698283
0.21699
0.1856
0.141245
0.143995
0.0122578
0.0711551
0.299151
0.085906
0.0440171
0.153954
0.221217
0.189408
0.150966
0.0798129
0.197675
0.19157
0.035706
0.0257751
0.0733716
0.0864193
0.0315854
0.174633
0.16677
0.325033
0.418932
0.103874
0.0504667
0.288977
0.109682
0.0673649
0.0410172
0.0140815
0.0407142
0.208421
0.0744325
0.138925
0.368254
0.0716037
0.0173443
0
0.0101728
0.0217912
0.0665924
0.229962
0.481812
0.0693009
0.0748874
0.0365844
0.0739036
0.107311
0.103631
0.241439
0.142873
0.10698
0.272359
0.0980057
0.0517568
0.0231548
0.080551
0.0527419
0.0901152
0.139677
0.251605
0.0674471
0.00676453
0.0011503
0
0.000884337
0.0110505
0.142136
0.26391
0.192277
0.0033144
0.00248876
0.000600623
0
0
0.0206647
0.472143
0.33492
0.0807477
0.095382
0.0128316
0.0074324
0.0281296
0.021024
0.0742397
0.157635
0.0996379
0.0968667
0.0075204
0.000603898
0.0036716
0.0658534
0.0235909
0.100539
0.584109
0.207709
0.0628618
0
0.00240364
0.000600911
0
0.00215233
0.0547089
0.354222
0.122135
0.0167831
0
0.000343378
8.58445e-005
0
0.00600139
0.147008
0.329216
0.0691707
0.00503185
0
0
0.00135135
0.0173818
0.0273034
0.150752
0.562639
0.116616
0.0198022
0
0
0
0.000128412
0.0442232
0.280461
0.466351
0.0785021
0.00652478
0
0.000301575
0.00512956
0.0165476
0.051869
0.195236
0.365786
0.142796
0.0171169
0.0253346
0.0179314
0.0432041
0.0621139
0.079398
0.125776
0.103645
0.071137
0.0223119
0
0
0.00648969
0.0149899
0.157122
0.451767
0.435813
0.126328
0.0163814
0.0247595
0.0342615
0.0763457
0.0882791
0.168613
0.375489
0.119889
0.0553082
0.0136396
0.0728709
0.0637998
0.0501773
0.056667
0.0441633
0.0521725
0.0621653
0.145083
0.12548
0.136865
0.220214
0.132775
0.0973418
0.0153901
0.0165384
0.0547681
0.1798
0.166316
0.0772188
0.142418
0.129366
0.152878
0.0630133
0.161111
0.0589881
0.164018
0.0980916
0.375317
0.330517
0.16376
0.173163
0.00999232
0.064097
0.09139
0.147446
0.30227
0.0173331
0.0304634
0.00774881
0.00874281
0.0301801
0.0960913
0.180774
0.325167
0.0736929
0.107072
0.0815045
0.118567
0.263095
0.242723
0.0438257
0.110072
0.184594
0.0659273
0.0246692
0.144541
0.0584587
0.0636363
0.042877
0.0967424
0.183565
0.129465
0.0269186
0.0728708
0.0849422
0.176702
0.219028
0.213731
0.139612
0.186441
0.112117
0.0415583
0.0109881
0.0121493
0.0444983
0.153226
0.274845
0.0236904
0.00521724
0.00415873
0.00127403
0.0165351
0.0466431
0.318376
0.287902
0.400056
0.0357245
0.0152883
0.0109298
0
0.00553469
0.0034852
0.0643837
0.0990293
0.259242
0.097793
0.0212329
0.00643425
0.001701
0.00388039
0.0168341
0.24365
0.245481
0.447839
0.187575
0.0616538
0.0185962
0
0.00651706
0.0155584
0.149047
0.24809
0.130609
0.00566006
0.00758072
0.00541958
0
0.0159723
0.0420883
0.211181
0.369262
0.161402
0.0206999
0.0087265
0.00176404
0
0.00131821
0.00652954
0.0672635
0.182351
0.379756
0.0605342
0.0168163
0.00903262
0
0.000873556
0.0024981
0.0498341
0.250195
0.59971
0.138366
0.00306471
0.00129038
0
0.0193607
0.0519983
0.146073
0.28344
0.133673
0.099511
0.0434997
0.0037613
0.00042825
0.00570238
0.0364006
0.0563997
0.341934
0.208401
0.14654
0.0825172
0.0241321
0.0139251
0.00102835
0.00239948
0.0740218
0.271653
0.352349
0.234367
0.030157
0
0
0.000146907
0.0177261
0.0628233
0.309092
0.366827
0.303858
0.104049
0.00601936
0.000796099
0.0134915
0.0650192
0.106947
0.214842
0.17717
0.0921092
0.119383
0.132272
0.0959865
0.121332
0.044832
0.161835
0.123176
0.136316
0.112322
0.158414
0.12905
0.150664
0.040928
0.0943665
0.107486
0.2107
0.334221
0.223836
0.196355
0.0913934
0.0249398
0.123952
0.186149
0.134483
0.315592
0.215317
0.135852
0.260032
0.123245
0.0402844
0.0531044
0.0163021
0.0402592
0.0880097
0.076124
0.120208
0.201755
0.0743869
0.0349495
0.00501372
0.0157081
0.0286548
0.142782
0.0762298
0.238127
0.442336
0.164108
0.0321024
0.0274153
0.159488
0.112437
0.248729
0.130131
0.0923956
0.181392
0.0810229
0.00473845
0.0141304
0.24628
0.21982
0.319577
0.12328
0.258221
0.2259
0.1348
0.000141462
0
0.00148909
0.00479476
0.0301051
0.10231
0.271857
0.245445
0.0460033
0.00783589
0
0
0.000150827
0.0101723
0.164387
0.341501
0.207037
0.0245979
0.000924422
0.00360858
0.0316157
0.0414188
0.155746
0.312315
0.24898
0.0447319
0.0174101
0
0.00282303
0.00658574
0.0197319
0.184509
0.554307
0.260338
0.0252071
0.00234223
0
0
0
0.0187144
0.0324716
0.238692
0.246491
0.132453
0.0159938
0.00154154
0.00237256
0.039624
0.154329
0.087681
0.231784
0.137499
0.0207349
0.0260622
0.0234302
0.0127966
0.0298527
0.0514745
0.13343
0.49077
0.246436
0.0398853
0.00588821
0
0.0629166
0.0550069
0.150908
0.070348
0.485926
0.201312
0.110585
0.0672105
0.0803912
0.0080541
0.0703111
0.105132
0.0802894
0.0467198
0.0619601
0.0280746
0.104611
0.0672939
0.176341
0.0899592
0.0289175
0.0621535
0.00143741
0.0658572
0.101526
0.0957179
0.228919
0.224388
0.0749086
0.0764716
0.0246806
0.141049
0.0710319
0.0736644
0.175674
0.192589
0.531771
0.0969529
0.00255038
0.00887907
0.00280421
0.0414358
0.0637295
0.15285
0.480355
0.0292721
0.0483421
0.0375099
0.0486502
0.05022
0.122564
0.0730429
0.0892308
0.0317856
0.0387945
0.0243164
0.0457808
0.0625291
0.129754
0.133114
0.0865658
0.171821
0.067435
0.221933
0.0106354
0.0158411
0.0254158
0.0823313
0.159004
0.0967079
0.231683
0.176452
0.101603
0.00346101
0.0122588
0.0517002
0.243581
0.100339
0.15831
0.488679
0.224519
0.00260937
0.000472167
0.0125915
0.0288227
0.217283
0.113677
0.0203305
0.015468
0.00643539
0.00205489
0.0116444
0.0367865
0.0879522
0.376329
0.323007
0.105962
0.00369112
0.000406141
0.00151463
7.93596e-005
0.000238079
0.00964845
0.270973
0.14415
0.0357443
0.0435358
0.0250299
0.000293556
0.00166348
0.00647826
0.0191037
0.383401
0.499431
0.271207
0.0147821
0.00978129
0.00100669
0.0057046
0.00975051
0.0330467
0.250632
0.219573
0.0454169
0.00127446
0
0.000143814
0.000814943
0.0182236
0.0463746
0.40805
0.303054
0.0563893
0.000182066
0
0.000143814
0.000814943
0.00317371
0.0119357
0.0874182
0.375179
0.176226
0.0112098
0.00487062
2.05448e-005
0.00011642
0.0554937
0.0877224
0.141966
0.476685
0.343729
0.0493977
0.0471796
0
0
0.0296636
0.105031
0.304491
0.196773
0.0471866
0
0
0
0
0.0158819
0.167235
0.3443
0.237413
0.064047
0.0175902
0.00463633
0.00347119
0.0013667
0.0974187
0.259815
0.289871
0.140621
0.158518
0.0590863
0.057781
0.0416881
0.0251768
0.0446971
0.363851
0.443791
0.14995
0.0619478
0.0376741
0.0252655
0.0541534
0.0615035
0.0214393
0.112554
0.23897
0.212233
0.133113
0.0986144
0.0231325
0.106607
0.191465
0.0838548
0.19867
0.127609
0.111884
0.187483
0.0794638
0.0161784
0.108998
0.0634096
0.0210371
0.232523
0.29958
0.215067
0.133597
0.168332
0.111933
0.0952249
0.107287
0.130254
0.274948
0.268957
0.215914
0.176967
0.178759
0.13601
0.018773
0.120241
0.0824266
0.203519
0.0917688
0.114894
0.107549
0.0104912
0.000343321
0.0354138
0.182581
0.184804
0.293453
0.104769
0.171928
0.0903708
0.0124337
0
0.0289396
0.0498408
0.0861923
0.226247
0.188931
0.222286
0.160617
0.0250998
0.0286369
0.0339735
0.162499
0.403851
0.268815
0.190511
0.320925
0.193003
0.00601268
0.0716252
0.00857606
0.026543
0.0840802
0.250048
0.156552
0.0536995
0.00750163
0.0011077
0
0.00469027
0.0079101
0.0995679
0.319805
0.257682
0.0287221
0
0
0
0.00514564
0.0720453
0.444199
0.267006
0.0617002
0.0466175
0.0164708
0.000897021
0.0170433
0.00361244
0.0221917
0.478008
0.38604
0.0630989
0.000974147
0
0
0
0.0299749
0.0483544
0.113408
0.274765
0.278116
0.127017
0.0209601
0.0116364
0
0.116065
0.0831861
0.0296826
0.0751724
0.257904
0.202268
0.147345
0.0923619
0.0640643
0.0211742
0.0432974
0.338236
0.515392
0.129551
0.0329979
0.0186963
0.00759951
0
0.0821734
0.084093
0.0364834
0.274797
0.142898
0.098677
0.0692248
0.0729497
0.0440314
0.345831
0.134673
0.0104514
0.00779107
0.0719542
0.0530922
0.0759128
0.0952064
0.140771
0.599066
0.145907
0.0161486
0
0.0162466
0.0149187
0.00304557
0.0557661
0.33851
0.133502
0.100911
0.0067877
0.0384816
0.0455875
0.0667163
0.0702334
0.126853
0.090697
0.180942
0.124663
0.0667268
0.00508391
0.0702148
0.114248
0.0632822
0.115916
0.155951
0.164323
0.0117814
0.0700179
0.113608
0.0993568
0.0726558
0.0425146
0.132115
0.145559
0.0574323
0.00404534
0.0334565
0.110351
0.2456
0.140601
0.20224
0.270405
0.111603
0.0608615
0.066325
0.217191
0.222101
0.0983979
0.0447292
0.0294961
0.0879759
0.120172
0.0504599
0.0479452
0.0565486
0.113466
0.119793
0.134604
0.167259
0.281979
0.0830754
0
0.00256425
0.000452514
0.0136817
0.208549
0.192254
0.0767684
0.0499134
0.0164831
0.0195305
0.00153855
0.00716957
0.00824312
0.245822
0.517147
0.353183
0.0709089
0.0804922
0.00188969
0.0184221
0.00660433
0.0183935
0.107393
0.125491
0.065132
0.0736486
0.0105811
0.0325508
0.0107698
0.0559149
0.0329044
0.172486
0.352152
0.25927
0.0593786
0.0997271
0.0123379
0.00230204
0.00336392
0.0227857
0.032628
0.261654
0.186464
0.0724972
0.0661467
0.0210558
0.0161143
0.0354984
0.0948769
0.0347344
0.359415
0.457787
0.151848
0.257216
0.0205631
0.00383673
0.0239255
0.0231502
0.0199266
0.122371
0.167758
0.0859453
0.0958274
0.0350931
0.0268571
0.00498634
0.0265714
0.031463
0.283399
0.285592
0.170651
0.308499
0.0173081
0.0093881
0.0687343
0.129452
0.101895
0.0888666
0.264489
0.113294
0.192868
0.116288
0.085159
0.0580306
0.199285
0.216295
0.0758653
0.175049
0.0855979
0.0650631
0.023537
0.0109242
0.0355268
0.0131372
0.0350538
0.135541
0.313604
0.155743
0.267702
0.132473
0.0549325
0.0572734
0.0645595
0.0896307
0.0399387
0.290601
0.396139
0.32309
0.11029
0.0774362
0.0093178
0.106006
0.0865887
0.0417015
0.0391058
0.101281
0.1281
0.0956254
0.0754271
0.0357314
0.112961
0.081172
0.0451572
0.0382633
0.148387
0.205618
0.239466
0.0757639
0.0118448
0.050372
0.0335701
0.00433355
0.033014
0.301969
0.37415
0.437378
0.332007
0.110407
0.0166001
0.00535903
0.0193756
0.0438829
0.167054
0.329044
0.0622995
0.0993241
0.0758573
0.0762257
0.0702568
0.0353659
0.0301932
0.0410377
0.0440189
0.0321788
0.283674
0.365798
0.0514204
0.0716666
0.0564279
0.0365486
0.00707492
0.0522977
0.158235
0.328064
0.191907
0.00716234
0.00649696
0.013436
0.0186719
0.0295703
0.0375269
0.081767
0.56855
0.408594
0.0111076
0.00725405
0.0194209
0.0158898
0.00304447
0.00856958
0
0.143347
0.455836
0.0583679
0.0196766
0.0116858
0.004948
0.000904512
0.0171857
0.00669148
0.0564459
0.462141
0.149176
0.0142299
0
0
4.16913e-005
0.000792132
0.0141431
0.257109
0.40673
0.0467172
0.00204359
0.00651473
0.00431091
0.000129216
0.0024551
0.00912349
0.0754372
0.462065
0.117281
0.00266647
0.0206844
0.00457051
0.000291839
0.00558733
0.0392096
0.120906
0.439846
0.331637
0.050546
0.0101737
0.0738867
0.0214663
0.00674827
0.036821
0.0499616
0.0605525
0.193983
0.0775067
0.0514884
0.207332
0.136598
0.0310671
0.0743829
0.117228
0.458767
0.123905
0.00615355
0.0612953
0.1003
0.050418
0.0475991
0.0645191
0.0814954
0.162199
0.0234471
0.0295974
0.123517
0.23121
0.194384
0.03834
0.0185488
0.0153827
0.00303412
0.0394476
0.0633848
0.0979878
0.194597
0.216266
0.0723176
0.0212873
0.0766058
0.0533251
0.0230791
0.123771
0.267471
0.236366
0.216109
0.0915849
0.0274392
0.0579037
0.207047
0.00871339
0.0707216
0.138228
0.158692
0.237906
0.0815042
0.0679399
0.311642
0.13313
0.0157859
0.0880047
0.134774
0.227019
0.254784
0.210217
0.121731
0.0565491
0.0791765
0.0685352
0.036197
0.0470211
0.0911865
0.0918023
0.217309
0.0886002
0.0487139
0.0160874
0.0138145
0.026548
0.0850116
0.211879
0.166124
0.117268
0.138704
0.00807845
0.0186164
0.0600904
0.132699
0.111345
0.211697
0.252331
0.29168
0.109099
0.0416887
0.078126
0.151811
0.141514
0.148558
0.243738
0.222642
0.16845
0.0459877
0.0495639
0.0263489
0.0255302
0.0992575
0.0770248
0.121437
0.101522
0.0754856
0.037603
0.0429329
0.0908098
0.0947801
0.318112
0.276236
0.30339
0.0523253
0.0907231
0.132541
0.0766231
0.089286
0.0864071
0.0409642
0.0314933
0.0818849
0.102822
0.170153
0.105205
0.0975948
0.097852
0.23328
0.260779
0.0915527
0.0956475
0.0424261
0.131334
0.0145763
0.0140435
0.0328206
0.0274951
0.0571356
0.120403
0.250542
0.0969682
0.080822
0.0576293
0.0198393
0.00775221
0.0055064
0.0285735
0.385017
0.366394
0.326932
0.282866
0.015588
0.0274515
0.0284589
0.092412
0.0971993
0.0678279
0.11626
0.0522277
0.04305
0.120767
0.0210462
0.0124359
0.0288589
0.0229255
0.155901
0.261441
0.216451
0.148022
0.0727983
0.0236771
0.0447439
0.00195806
0.0149781
0.133923
0.223303
0.193499
0.198746
0.261775
0.0378593
0.0761159
0.0144854
0.0199707
0.0260639
0.21374
0.389506
0.431439
0.169767
0.04737
0.0265893
0.00024207
0.002475
0.0451366
0.11705
0.124164
0.0867713
0.294302
0.106553
0.0518451
0.00040345
0
0.0109064
0.123586
0.178205
0.20621
0.288366
0.0199351
0.0081454
0.00748564
0.00539608
0.000390995
0.0219386
0.181281
0.405671
0.470095
0.243031
0.0735184
0.000965072
0.000170307
0.00703391
0.0234633
0.103693
0.323283
0.164809
0.0232586
0.00979778
3.75763e-005
0
0.0154271
0.0466584
0.103909
0.220443
0.213743
0.0959159
0.0509732
0
0
0.023691
0.0378098
0.111834
0.249201
0.275495
0.336648
0.130792
0
0
0.0147205
0.0187026
0.0231448
0.0621967
0.316121
0.55517
0.166078
0.01159
0
0.0173585
0.0147409
0.00301659
0.0262344
0.223883
0.128292
0.0482792
0
0.000273843
0.00835425
0.0175318
0.0285321
0.103835
0.374048
0.162984
0.0161044
0.00333934
0.0019169
0.0044332
0.0233847
0.022416
0.0781988
0.199516
0.461886
0.343138
0.137608
0.00117402
0.019281
0.00782088
0.00722797
0.0119579
0.0479746
0.0908723
0.458935
0.252316
0.00965597
0.115736
0.0265252
0.0251097
0.0418611
0.280785
0.14355
0.0519639
0.0558857
0.00186166
0.0286268
0.0274898
0.0505958
0.0482925
0.0956187
0.0670627
0.0690386
0.114854
0.0149957
0.093585
0.0598942
0.0622755
0.0615391
0.0920953
0.0352525
0.307368
0.139132
0.0312766
0.170154
0.0938616
0.0755375
0.0788716
0.12202
0.126636
0.385108
0.0293347
0.0871458
0.197119
0.0831831
0.0811731
0.0463262
0.0610048
0.0372713
0.0840912
0.111894
0.113382
0.150879
0.105109
0.0993122
0.0847959
0.104744
0.0884251
0.179113
0.0544698
0.210619
0.293776
0.0763574
0.0963717
0.191744
0.118209
0.10475
0.313311
0.00815732
0.0541082
0.0920431
0.0215929
0.0569421
0.0785275
0.132143
0.256276
0.162697
0.0155537
0.0567467
0.0522452
0.0404942
0.111009
0.177462
0.160143
0.132662
0.171577
0.061865
0.121106
0.111293
0.0181264
0.0894171
0.22766
0.1407
0.104305
0.181014
0.210844
0.286721
0.168016
0.00672212
0.123586
0.205951
0.0710646
0.00240783
0.0207537
0.0518005
0.0625098
0.0168795
0.0426726
0.219221
0.223372
0.0763827
0.0348108
0.126469
0.144582
0.0641305
0.023192
0.0196212
0.0871045
0.0867621
0.14405
0.0233466
0.0175556
0.0342036
0.00846219
0.0187699
0.122764
0.442331
0.386288
0.214805
0.196875
0.128661
0.0659916
0.00838187
0.00617025
0.0606875
0.331632
0.149364
0.0876278
0.0924946
0.158494
0.0831694
0.0130206
0.00532593
0.00902211
0.0893809
0.0992544
0.0856781
0.110517
0.068167
0.0843698
0.0813666
0.0476675
0.088016
0.133697
0.137131
0.173496
0.333402
0.168157
0.0353487
0.0143252
0.0285157
0.0387626
0.161284
0.146276
0.0781953
0.131688
0.0373648
0.0209345
0.145688
0.123993
0.32978
0.280419
0.25719
0.0130381
0.0444446
0.0263389
0.10264
0.118445
0.0833237
0.189429
0.0824196
0.0340428
0.0800793
0.0888048
0.042849
0.0628758
0.0857509
0.0921633
0.190216
0.106998
0.108002
0.0552922
0.0887418
0.012992
0.0670237
0.197668
0.0955153
0.340101
0.166968
0.140863
0.162128
0.31135
0.072882
0.0820577
0.121209
0.0586088
0.181438
0.175666
0.210355
0.174289
0.0668811
0.022061
0.00335612
0.0146011
0.0430796
0.0660531
0.101451
0.159469
0.211967
0.0972897
0.0374743
0
0
0.0370024
0.10834
0.228776
0.324074
0.108329
0.11264
0.0413476
0.0234858
0.0118834
0.0672562
0.0711013
0.182858
0.254811
0.120594
0.115772
0.0853792
0.0160349
0.0252162
0.0697783
0.0981664
0.25982
0.419031
0.0719269
0.0601893
0.0903948
0.00447314
0
0.0570282
0.125028
0.187865
0.191338
0.130077
0.0748825
0.15479
0.00745522
0
0.0826146
0.116004
0.193982
0.375125
0.0626947
0.147658
0.214782
0.0507604
0.00870815
0.024189
0.0838254
0.142002
0.133764
0.183578
0.107163
0.278127
0.0701762
0.00647651
0.0560856
0.0640471
0.161107
0.335534
0.174496
0.0633208
0.0551017
0.00617809
0.00856741
0.0492077
0.0674194
0.126686
0.290979
0.24678
0.0663858
0.0341012
0.0753273
0.0537325
0.0490852
0.093018
0.0701541
0.136844
0.101425
0.0144359
0.0384912
0.0173714
0.0611463
0.2553
0.144992
0.194479
0.263319
0.034385
0.0198631
0.0272815
0.108836
0.234531
0.308999
0.306246
0.0932439
0.0578645
0.15574
0.0906444
0.0807263
0.0662305
0.028275
0.0269583
0.033842
0.039459
0.0347184
0.196855
0.198279
0.146987
0.0598406
0.00993837
0.0513136
0.0489478
0.0403273
0.0355856
0.0477847
0.110325
0.16783
0.132647
0.143824
0.0441211
0.129937
0.0478625
0.00179825
0.273093
0.346859
0.463579
0.198051
0.0513989
0.0051168
0.0559091
0.088254
0.0316868
0.0979503
0.0873806
0.0837093
0.0841058
0.0472338
0.0403228
0.0433009
0.0401432
0.0554165
0.0784621
0.188063
0.0636588
0.148057
0.0913116
0.0823798
0.0392962
0.101098
0.15761
0.206786
0.166102
0.153373
0.120798
0.135511
0.0159754
0.102299
0.16075
0.058498
0.0715973
0.337006
0.115814
0.333433
0.355617
0.0693194
0.13595
0.151384
0.0689316
0.0591328
0.145369
0.102533
0.16327
0.0858483
0.0317496
0.00684293
0.070887
0.0989442
0.0217724
0.043262
0.16879
0.374977
0.248332
0.0833718
0.00392446
0.0252947
0.0441565
0.0563712
0.310915
0.153836
0.203112
0.115794
0.0762686
0.0762078
0.0467864
0.0513977
0.0255714
0.106913
0.189929
0.386567
0.190147
0.126869
0.0842456
0.0120733
0.0244499