0.233189
0.0834911
0.0302981
0.098937
0.0306354
0.102635
0.0302322
0.0305634
0.0745762
0.0823585
0.0415385
0.0723947
0.131528
0.090112
0.0626747
0.0703197
0.110821
0.0455911
0.348195
0.106248
0.152744
0.234984
0.101478
0.103715
0.107543
0.0750364
0.193158
0.295899
0.0868462
0.268234
0.295843
0.118315
0.079539
0.188882
0.0517557
0.113978
0.112812
0.0831681
0.0571828
0.0901863
0.090723
0.0193801
0.0878805
0.0850803
0.0370301
0.118922
0.104939
0.037508
0.0388265
0.0705209
0.107701
0.131889
0.175095
0.126812
0.15582
0.193532
0.289643
0.189207
0.0942434
0.0901449
0.141214
0.0115374
0.0605521
0.405862
0.191727
0.103022
0.0693499
0.104921
0.198066
0.169896
0.025075
0.221325
0.0200809
0.0112032
0.00440481
0.00542022
0.0338751
0.100572
0.0847933
0.148693
0.0684315
0.037272
0.0885757
0.0254681
0.0104433
0.0530455
0.0958136
0.0957547
0.183576
0.0910389
0.171924
0.161272
0.0157198
0.0090337
0.0738807
0.117623
0.0660046
0.0790727
0.105766
0.397782
0.638059
0.042422
0.00626597
0.0620638
0.104537
0.0699359
0.129428
0.156182
0.0339819
0.113662
0.0286695
0.0187003
0.0269191
0.00626978
0.0172446
0.0588053
0.0234779
0.105473
0.188742
0.0268505
0.0168887
0.019863
0.00284222
0.00366504
0.0302407
0.060525
0.281181
0.457422
0.0293616
0.0112202
0.0132343
0.00565372
0.0057555
0.0181591
0.0298306
0.539895
0.474682
0.0215558
0.0101332
0.00675485
0
0.000491225
0.0127407
0.131801
0.0831428
0.0695806
0.00687866
0.00396553
0.00173227
0.00253663
0.000198035
0.03499
0.126526
0.0779723
0.0190227
0.00891027
0.00555072
6.39488e-005
0.0011855
0.0142867
0.0728613
0.20504
0.377159
0.133106
0.00256627
0.00115744
0.000183518
0
0
0.0311074
0.303081
0.277788
0.016384
0.000789584
0.000792959
0
0.000493877
0.0151134
0.105029
0.694766
0.0418504
0.022353
0.0138338
0.0107992
0.00288647
0.00253865
0.061726
0.0799532
0.103093
0.0925007
0.0470537
0.0239378
0.0280205
0.0198223
0.00152319
0.0573658
0.0884772
0.075272
0.0785446
0.00157089
0.00119185
0.00462164
0.00173188
0.00152319
0.0819007
0.255923
0.536858
0.0882924
0.00913438
0.00274795
0.0158852
0.00514162
0.00824055
0.147358
0.395493
0.54043
0.0831877
0.0360629
0.0217347
0.0327013
0.0243528
0.024052
0.033562
0.11302
0.050767
0.0236151
0.00638655
0.0187949
0.0154685
0.00849102
0.0435752
0.0833492
0.316193
0.0673855
0.0980826
0.00673496
0.00284732
0.0193031
0.00394512
0.0637726
0.229085
0.41127
0.297368
0.0759328
0.00480788
0.0515042
0.00951618
0.000710487
0.077094
0.260658
0.534784
0.182139
0.0622838
0.0269193
0.0656002
0.00269704
0.00323244
0.0165171
0.0651518
0.291067
0.137505
0.219783
0.102106
0.119259
0.057748
0.116363
0.0328984
0.0214494
0.0885305
0.174076
0.145844
0.0531979
0.0843647
0.00415029
0.00286902
0.0217599
0.139731
0.360325
0.244021
0.313364
0.17033
0.0931469
0.0441308
0.051725
0.0151469
0.0415107
0.138709
0.400831
0.152365
0.0662296
0.0983623
0.132544
0.211706
0.0526702
0.0408388
0.0628152
0.105068
0.0950673
0.0393709
0.0721291
0.0919503
0.125493
0.0601507
0.0506325
0.117586
0.252285
0.197086
0.167183
0.147797
0.115763
0.0650053
0.0061769
0.0294773
0.165981
0.315219
0.0762462
0.111646
0.144786
0.147441
0.0690055
0.0218412
0.0499141
0.2822
0.326379
0.195745
0.111563
0.202628
0.168876
0.101314
0.0271417
0.0662097
0.0312071
0.0567903
0.207633
0.0631296
0.184689
0.217911
0.0772731
0.0720765
0.139413
0.00717067
0.0454942
0.0984102
0.188301
0.255158
0.281286
0.20276
0.0122423
0.0213641
0.0364965
0.00629891
0.118098
0.0418415
0.181597
0.30646
0.310713
0.14581
0.116515
0.00605632
0.038328
0.0923039
0.0935533
0.134306
0.0710002
0.0294079
0.0562295
0.0314297
0.0141615
0.0554209
0.322539
0.128558
0.0817797
0.0260016
0.0233042
0.0649895
0.0185531
0.113258
0.183465
0.0703954
0.0917316
0.19086
0.118369
0.110019
0.241934
0.108509
0.0454616
0.0487784
0.237491
0.171882
0.370576
0.190533
0.0426267
0.270205
0.0963309
0.273224
0.264582
0.121236
0.126132
0.0588125
0.000497043
0.00865116
0.0112939
0.00304922
0.0321587
0.0506073
0.194787
0.298963
0.155314
0
0.00431732
0.00509915
0.00306097
0.0141892
0.0236042
0.0856935
0.166516
0.349152
0.0683126
0.00230822
0.0182714
0.00863173
0.0557441
0.0912353
0.104661
0.494874
0.550783
0.0260386
0.00106117
0
0
0.00165888
0.0108372
0.159604
0.208279
0.0548391
0
0
0.000201299
0.000301948
0.00156467
0.00468288
0.32439
0.23679
0.0064281
0
0
0
0
0.00142913
0.0331214
0.112193
0.432614
0.177207
0.00256092
0.000691704
0.00162863
0
0
0
0.464463
0.501898
0.0708045
0
0.0028501
0.0114004
0
0
0.0239246
0.251125
0.0529055
0.00014257
0
0
0
0
0.00310482
0.094146
0.175215
0.00608954
0
0
0
0
0.00065059
0.026743
0.333844
0.487449
0.103004
0.0147422
0
0.000837985
0.00335194
0
0
0.135587
0.405015
0.0116706
0.000956428
0
0
0
0
0.0339883
0.544509
0.0368341
0
0
0
0
0
0.00493173
0.107509
0.280152
0.0146753
0
0
0
0
0.0031751
0.0660104
0.192533
0.259822
0.0912368
0.000474486
0
0
0
0
0.00409511
0.274369
0.507626
0.0115716
0
0
0
0
0.00131061
0.144244
0.573126
0.228487
0.0125028
0
0
0
0
0.0167299
0.14944
0.205638
0.133197
0.0349321
0.00166666
0.0075466
0.000397189
0
0.0288267
0.115826
0.335126
0.0958132
0.00610568
0
0
0
0
0.035135
0.346986
0.403411
0.0768647
0.0637997
0.000238094
0
0.0110347
0.0134869
0.212366
0.388126
0.464103
0.0931228
0.0620797
0.013091
0.0159441
0.00651712
0.0191987
0.0355727
0.0910093
0.286491
0.126845
0.0543181
0.0455125
0.0246105
0.0110887
0.0534797
0.0340815
0.0437339
0.0772503
0.121162
0.124434
0.00487669
0.000137372
0.0690985
0.13998
0.300708
0.415776
0.473773
0.170042
0.0508552
0.0475521
0.00980485
0.0542223
0.192082
0.274421
0.220234
0.112108
0.0874098
0.118922
0.102036
0.0917044
0.014846
0.0428056
0.0185174
0.0344922
0.11204
0.192352
0.126001
0.0978947
0.150708
0.0772499
0.052533
0.0538871
0.0485181
0.182316
0.186389
0.149355
0.111032
0.122826
0.0262901
0.0914461
0.24142
0.102982
0.0813659
0.100387
0.361623
0.0707656
0.195287
0.028519
0.106153
0.23213
0.154664
0.265859
0.195155
0.0192888
0.0521654
0.122848
0.142003
0.108092
0.0266828
0.0597734
0.14593
0.0222002
0.0629765
0.0970113
0.0866096
0.123282
0.180339
0.0766466
0.101062
0.0435824
0.0701495
0.0549572
0.11087
0.115489
0.174986
0.19875
0.154402
0.163101
0.326918
0.152215
0.0988399
0.180667
0.113803
0.166467
0.39415
0.354762
0.17616
0.0718631
0.0745598
0.0260616
0.0805712
0.0637669
0.0771793
0.058205
0.0802867
0.0661278
0.0204126
0.0176167
0.0554653
0.0888626
0.317103
0.217129
0.0308222
0.0966635
0.0593654
0.041403
0.0313974
0.0519645
0.190951
0.127158
0.132223
0.150346
0.0754829
0.0376707
0.0101794
0.0121723
0.0475851
0.180438
0.514393
0.545998
0.101709
0.014557
0.0172828
0.00873954
0.0183826
0.0177395
0.0569271
0.26856
0.0820052
0.00241558
0.00780553
0.00512085
0.00727356
0.0144352
0.0204728
0.264347
0.37057
0.0406946
0.00280164
0
0.00517334
0.00105057
0.00183681
0.00852175
0.0519986
0.384616
0.271575
0.00892008
0.000845649
0.00071737
0.00176999
0.0100299
0.00971445
0.236806
0.55615
0.241077
0.0498524
0.017211
0.0449379
0.00664346
0.00143285
0.0615803
0.435799
0.234278
0.022634
0.00863989
0.0057146
0.0117933
0.00706744
0
0.232389
0.399982
0.113369
0.0106818
0.0129428
0.0400022
0.0771072
0.0678945
0.010568
0.0795897
0.271561
0.26412
0.156383
0.0892129
0.0706376
0.0974066
0.0680328
0.0172836
0.183189
0.16795
0.0581988
0.0642913
0.0398812
0.0948644
0.266307
0.293162
0.0813523
0.280966
0.0960977
0.0316673
0
0.00264876
0.0121847
0.0451151
0.0499347
0.0977341
0.315073
0.0261521
0.00302314
0
0
0
0.00495578
0.0407263
0.448852
0.0878635
0.0380967
0.0152671
0
0.00158925
0.0174847
0.135214
0.219091
0.213018
0.275373
0.0148441
0.00181388
0
0
0
0.0140081
0.0922054
0.573649
0.109059
0.00481287
0
0
0.000368687
0.00331819
0.00876169
0.203905
0.324362
0.0378726
0.00584814
0
0
0.00258081
0.0275832
0.20172
0.549335
0.11056
0.313693
0.00830965
0
0
0.000614479
0.00553032
0.00483835
0.0633795
0.345337
0.246093
0.0219222
0
0.0180735
0.0114218
0.095317
0.19091
0.251489
0.18946
0.00371052
0.000687663
0
0
0.00102056
0.0338628
0.297278
0.266685
0.00776247
0.0152859
0
0
0.00761393
0.0106754
0.134237
0.338015
0.237709
0.0363208
0.0460875
0.00589845
0
0.0157032
0.0170978
0.0916392
0.426524
0.190666
0.0248651
0.0113479
0.000597256
0
0.00333102
0.016585
0.175601
0.540936
0.203123
0.0174653
0.0226027
0.000757387
0
0.0313794
0.0539043
0.175105
0.262312
0.187808
0.0831496
0.00876353
0.0118402
0.000326229
0.0200278
0.0641124
0.219346
0.225669
0.0595588
0.0454659
0
0
0
0.00438757
0.0359459
0.281766
0.465087
0.167807
0.0530883
0.000307798
0.000923393
0
0.00263254
0.0615089
0.300885
0.465515
0.177557
0.0851259
0.0211651
0.027735
0.0166414
0.00409412
0.0563061
0.195604
0.196663
0.0943897
0.0345461
0.0607106
0.0154552
0.0263346
0.00220707
0.0636834
0.107342
0.130479
0.193804
0.0544433
0.0184352
0.0178866
0.00480986
0
0.140303
0.283753
0.631992
0.257956
0.0879591
0.0586928
0.0314972
0.0165187
0
0.101931
0.13346
0.196386
0.174305
0.0839532
0.0482022
0.180137
0.218985
0.11915
0.107866
0.0458935
0.0540682
0.105566
0.100061
0.0253394
0.0727977
0.157872
0.100649
0.270276
0.198873
0.138643
0.0596735
0.0159164
0.145158
0.273677
0.205735
0.047559
0.0692712
0.0216915
0.0500557
0.132106
0.176053
0.0941783
0.082653
0.149919
0.108148
0.510375
0.155695
0.109703
0.129359
0.124477
0.010722
0.0675811
0.113862
0.0682107
0.113122
0.071084
0.0254577
0.00831563
0.000647158
0.0054629
0.0859706
0.295103
0.338815
0.109549
0.0160494
0.000848455
0.00235446
0.0133419
0.00530972
0.0199034
0.0692618
0.144302
0.318571
0.110067
0.0196241
0.0153877
0.00775178
0
0.027675
0.143286
0.488004
0.518665
0.0506282
0.000121208
0.000336351
0.00190599
0
0.0157656
0.292955
0.327176
0.0493125
8.68424e-005
0
0.00192247
0.010894
0
0.043868
0.345261
0.27785
0.0945583
0.0358353
0.0346369
0.00282814
0.00155628
0
0.0030582
0.123768
0.447
0.354881
0.00280218
0
0.000274638
0.00155628
0
0.00323461
0.161079
0.330567
0.2413
0.0466714
0.0149411
3.9234e-005
0.000222326
0.0523724
0.0666173
0.177594
0.163933
0.146348
0.166569
0.141533
0.100857
0.0475031
0.277536
0.0567533
0.0638416
0.0600547
0.0310542
0.118433
0.19895
0.271995
0.212538
0.0451618
0.0851124
0.336401
0.200044
0.206228
0.133429
0.0863877
0.0388228
0.0246572
0.290911
0.16506
0.274103
0.157432
0.0398228
0.0932424
0.112137
0.109117
0.142959
0.166644
0.0150194
0.0101731
0.00210842
0
0.0077158
0.0735279
0.153303
0.23209
0.39849
0.0129754
0.00250116
0
0
0
0.0080062
0.0665487
0.427759
0.286422
0.0481538
0.0529062
0.0267155
0
0.011596
0.0218332
0.0473937
0.166007
0.529384
0.0325941
0.0175081
0
0
0
0.000664732
0.0318656
0.255329
0.429772
0.0281671
0
0.000708598
0.00651504
0.00123882
0.00560719
0.0219534
0.286971
0.315046
0.139058
0.00407053
0.098868
0.0802183
0.0930891
0.111183
0.0793704
0.177701
0.335321
0.0571251
0
0.0179138
0.0217842
0.0522179
0.0392503
0.088369
0.150205
0.131639
0.188432
0.00678421
0.109357
0.21966
0.293851
0.256329
0.142312
0.146346
0.048049
0.0530342
0.00313726
0.0706851
0.0629249
0.0951407
0.215215
0.039465
0.0158408
0.0130196
0.00625609
0.00094411
0.0193635
0.0470564
0.379877
0.476802
0.0434447
0.00113429
0.0117857
0.0762854
0.00837496
0.0751268
0.179879
0.18365
0.126596
0.0219639
0.0268969
0.00185994
0.0108553
0.00681716
0.0319603
0.205202
0.584849
0.119943
0.00541853
0.00456829
0
0
0
0.00185468
0.059286
0.320139
0.18021
0.0226284
0.00508643
0
0
0
0.00309113
0.1075
0.292708
0.169321
0.0588865
0.0319774
0
0.000184378
0.00065653
0.0205893
0.177894
0.548857
0.036387
0.00089096
0.00106788
0
0
0
0.0526592
0.238709
0.52888
0.0479927
0.00424043
0.0034714
0.0108284
0.00388382
0.00908715
0.00670284
0.157349
0.320729
0.26107
0.0819286
0.0352578
0.0278099
0.00907854
0.023237
0.0103626
0.0833036
0.107106
0.0776613
0.0237655
0.0425262
0.00185419
0.00153678
0.0514949
0.0893628
0.442676
0.592662
0.0874944
0.00992537
0.00626089
0.0137216
0.00972668
0.106009
0.0778432
0.221945
0.195048
0.0240445
0.00830511
0.0197847
0.156458
0.180338
0.0407503
0.00776559
0.0435166
0.0206805
0.0326447
0.124219
0.223934
0.0934123
0.0206814
0.0262085
0.0958231
0.338052
0.103716
0.0517369
0.136346
0.230517
0.18238
0.130667
0.0379712
0.00110937
0.0215905
0.0323425
0.0277058
0.21145
0.254363
0.116555
0.00668915
0.00258853
0.0336013
0.253611
0.415051
0.154773
0.191971
0.257125
0.00440834
0.00033818
0.00493604
0.0844079
0.248879
0.054814
0.00738801
0.0107342
0.0118571
0
0
0.0055001
0.176759
0.545635
0.0585298
0
0
0
0.0058807
0
0.000380102
0.0336865
0.245835
0.181511
0.0347316
0.0124006
0.0119774
0
0
0
0.0444739
0.571151
0.334155
0.0460138
0.000169425
0
0
0
0.00681145
0.166307
0.495603
0.0407829
0.000470365
0
0
0
0.0012206
0.0445048
0.129169
0.339597
0.0775213
0.0137402
0
0
0
0
0.00212805
0.0283141
0.457079
0.376894
0.0662844
0
0
0
0.00311627
0.0318703
0.0469067
0.312635
0.251274
0.0771929
0
0
0.0282493
0.0298179
0.149994
0.12084
0.296819
0.175602
0.089712
0.0417283
0.0178715
0.121262
0.0580951
0.111382
0.11767
0.0786795
0.158241
0.15853
0.183324
0.127289
0.00659452
0.0378288
0.0844296
0.0671561
0.291647
0.276985
0.200624
0.0924514
0.0755728
0.063073
0.0757204
0.0489068
0.0310565
0.0632247
0.257708
0.21214
0.266812
0.406237
0.157741
0.0176972
0.0198812
0.0240473
0
0.0251501
0.0334322
0.11009
0.236748
0.362465
0.0190136
0.00654162
0
0
0
0
0.0465901
0.369081
0.147701
0.0218127
0.00713664
0.00336633
0
0.0346957
0.0290275
0.113983
0.401638
0.376285
0.0296528
0.00941106
0
0
0
0.000992217
0.0437955
0.461697
0.233184
0.050272
0
0.0441224
0.0599584
0.0504769
0.013958
0.0641091
0.14772
0.156482
0.108623
0.0291518
0.171748
0.33349
0.236977
0.100778
0.0772849
0.112183
0.276404
0.0666055
0.00835926
0.0557692
0.0663471
0.00790393
0.0191324
0.0469093
0.202043
0.264371
0.389514
0.167307
0.290208
0.295333
0.0415184
0.0863321
0.054447
0.0562415
0.0245712
0.0317205
0.0239723
0.0984958
0.283775
0.124694
0.0425416
0.0104811
0.0245375
0
0.00393459
0.011447
0.110311
0.357152
0.298217
0.0063053
0.00146444
0.00178987
0.0463083
0.145127
0.105043
0.184853
0.271016
0.0236736
0.031468
0.00990757
0.00393541
0.00120356
0.013079
0.048161
0.579043
0.344468
0.0461754
0.0040131
0.0015597
0
0
0.000190519
0.00133912
0.0956091
0.279685
0.282025
0.000454971
0.000177893
0.000217425
0
0
0
0.0867733
0.259057
0.278809
0.0113275
0
0
0.000190964
0.00375821
0.0125938
0.53587
0.277065
0.0551977
0
0
0
0.000318274
0.00604721
0.00458456
0.288644
0.403802
0.111277
0.00576085
0
0
0.000117234
0.000429361
0.021621
0.0760837
0.35345
0.284662
0.0196627
0.000383655
0.000117234
0.00727131
0.00250057
0.0406042
0.0612959
0.215176
0.14277
0.0230627
0.0106311
0.00303365
0.00209746
0.00237578
0.00333828
0.159184
0.632067
0.166745
0.0121098
0.000639425
0.000820637
0.0498779
0.0112299
0.00800259
0.0687645
0.402082
0.100472
0.0329663
0.0170386
0.0143854
0.0909605
0.0564926
0.0442771
0.0101025
0.0681236
0.0448441
0.0293722
0.146962
0.0783954
0.0952084
0.0235694
0.0237549
0.00801518
0.326721
0.43704
0.138723
0.135825
0.116119
0.355993
0.188732
0.0751683
0.0198174
0.0485462
0.0178861
0.0318598
0.0788656
0.0853061
0.211891
0.164571
0.239686
0.0695956
0.238309
0.194676
0.0814514
0.114093
0.111942
0.00571891
0.00222723
0.00742433
0.00207512
0.16088
0.23295
0.0942518
0.00644228
0.00924754
0
5.03513e-005
0.000956675
0.00294604
0.214539
0.486324
0.203942
0.000618533
0
0.00894995
0.016936
0.0668948
0.0180946
0.119123
0.225911
0.0996106
0.0137548
0.0115351
0
0.000352459
0.00741559
0.00215659
0.129602
0.557158
0.329893
0.00673906
5.53393e-005
0
0
0.000256232
0.00196371
0.0807699
0.399458
0.164317
0.000434321
0
0
0.0075365
0.044518
0.0569593
0.0777324
0.268475
0.134444
0.00304024
0
0
0
0
0
0.0277161
0.41386
0.339305
0.0181451
0
0
0.0045219
0.0387374
0.0900784
0.120913
0.350347
0.451289
0.113656
0
0.00691617
0.11911
0.221573
0.133574
0.109431
0.0914867
0.0780487
0.0434628
0.0259791
0.152593
0.236982
0.163201
0.0520391
0.024277
0.0447541
0.0517677
0.0864149
0.168211
0.00871679
0.0929189
0.225357
0.283729
0.336286
0.168317
0.248528
0.0931173
0.000230033
0.265584
0.200594
0.262297
0.211742
0.161203
0.0909559
0.128782
0.0222014
0.158554
0.210076
0.0491024
0.0145046
0.00360266
0.000475973
0.0044245
0.00655185
0.019895
0.167738
0.296417
0.0194465
0.00886781
0
0
0
0.000934942
0.0241345
0.252988
0.335219
0.0385869
0.0400812
0.0263082
0.00768996
0.00944493
0.0305093
0.00562116
0.291992
0.381801
0.0178703
0.00126683
0
0
0
0.000133563
0.0265126
0.590171
0.137968
0.0180168
0.00801017
0.0281612
0.0136778
0.00971863
0.0633771
0.0723385
0.172841
0.0783307
0.156885
0.0833943
0.110875
0.0438178
0.0531634
0.397701
0.121858
0.0574149
0.201551
0.0388901
0.0418401
0.0411217
0.0520382
0.0463643
0.0540011
0.0765059
0.357764
0.107379
0.055689
0.0825206
0.161355
0.157367
0.184915
0.556941
0.102044
0.139814
0.0141993
0.0683958
0.0734712
0.0717463
0.0414378
0.0295533
0.156267
0.0240286
0.00215046
0.00106933
0.0127757
0.117334
0.537666
0.0598288
0.0111044
0.0237014
0.00376686
0
0.0188651
0.0371872
0.171992
0.0747527
0.0501414
0.121219
0.274633
0.0160427
0.0136905
0.0059068
0.0623103
0.531356
0.415017
0.0143029
0.0620529
0.0537891
0.00226012
0
0.000514222
0.0106027
0.0398412
0.540808
0.0750357
0.00350699
0.000679465
0
0
0.000857037
0.019903
0.0261907
0.372056
0.184953
0.0115121
0.000407679
0
0
0.000308533
0.042863
0.241962
0.427175
0.0396781
0.019025
0.00475625
0
0
0.000514222
0.0462226
0.183539
0.42733
0.0915514
0.0187844
0.00784926
0.00143378
0.00143378
0.00243857
0.0138282
0.041269
0.388103
0.385039
0.02351
0.000303956
0.00068922
0.00784102
0.0459078
0.0262302
0.0340073
0.157025
0.283011
0.0162015
0.00480493
0.00367965
0.0508228
0.0308223
0.0276396
0.172408
0.525754
0.150014
0.0300935
0.0283931
0.0127714
0.0679234
0.187585
0.029926
0.0489684
0.200404
0.113291
0.0149188
0.0170359
0.0152966
0.258174
0.286689
0.141903
0.0485553
0.0243395
0.0102541
0.045814
0.0688251
0.0768595
0.16869
0.11272
0.069568
0.112509
0.0930955
0.0972371
0.0927046
0.0698768
0.101539
0.11749
0.280971
0.216485
0.106888
0.155712
0.0201399
0.087953
0.242931
0.167638
0.266215
0.147776
0.183018
0.115759
0.433803
0.115168
0.124876
0.0677033
0.106048
0.169744
0.0144616
0.0161124
0.0618383
0.0419841
0.118045
0.149176
0.0583297
0.0846234
0.048989
0.00720929
0.000222424
0.00545921
0.00369944
0.111669
0.432349
0.45455
0.08652
0.0677802
0.0402169
0.0368306
0.0245605
0.108076
0.0587341
0.038926
0.034941
0.1633
0.161442
0.0275845
0.00282781
0.000274342
0.00882267
0.0712708
0.102222
0.454114
0.299978
0.187087
0.000703425
0
0
0
0.0140563
0.133497
0.311457
0.0431529
0.00659663
0
0
0.0031238
0.020579
0.0645531
0.110348
0.541118
0.18987
0.00650987
0.0018479
0
0
0.00879347
0.0236078
0.0276692
0.304099
0.109779
0.0133214
0
0
0
0.00527608
0.0103974
0.0186131
0.505431
0.348869
0.0158069
0.00773476
0.00284812
0.0150412
0.0497719
0.111161
0.0916583
0.300996
0.152446
0.0438663
0.132713
0.00829827
0.0342992
0.0476494
0.0572371
0.0675236
0.145618
0.0733832
0.1566
0.00855102
0
0
0.000515836
0.00975707
0.0280063
0.40939
0.392989
0.0918562
0.113581
0
0
0.000859726
0.00507223
0.0190263
0.300108
0.418141
0.332395
0.167274
0.00352731
0.0102877
0.00798915
0.00430312
0.0072786
0.0321424
0.0251821
0.230544
0.160607
0.0335973
0.00390419
0
0
0
7.91252e-005
0.0446148
0.386317
0.178182
0.00876471
0
0.000119948
0.000479792
0.0010398
0.0568469
0.201656
0.455971
0.38373
0.139536
0.0273293
0
0
0
0.000553877
0.0885842
0.466975
0.150071
0.0725881
0.0539163
0.0343111
0.0180312
0.0147266
0.00322371
0.05748
0.238828
0.163343
0.16864
0.126183
0.159456
0.113329
0.0598549
0.0941425
0.0233605
0.0863502
0.364287
0.255237
0.105148
0.00490159
7.36456e-005
0
0
0.0712939
0.188996
0.305282
0.512816
0.303684
0.0388761
0.0251894
0.00201218
0.00134145
0.0229799
0.0724432
0.0686952
0.139537
0.204581
0.0764936
0.0627712
0.0588312
0.0753225
0.000378028
0.00829137
0.0282343
0.133307
0.554786
0.119359
0.00908484
0.0335217
0.0215043
0
0
0.101939
0.360763
0.244042
0.0242469
0.0181889
0.00400134
0.00266756
0
0.0045879
0.0353789
0.323505
0.453744
0.0464748
0.0025786
0.0024008
0.00160054
0
0
0.00361904
0.088125
0.441412
0.258197
0.01203
0.0114955
0.00287388
0
0
0.00746112
0.108034
0.317667
0.301427
0.0667321
0.0282643
0.00992931
0.0103792
0.00868002
0.0264301
0.209896
0.420321
0.168562
0.0079355
0
0
0
0
0.0522278
0.306513
0.269117
0.155499
0.038063
0.01731
0.00117214
0.0126129
0.0116174
0.0751636
0.100859
0.1915
0.296933
0.120382
0.0767241
0.0520092
0.0724362
0.162849
0.354399
0.0834614
0.021491
0.0759551
0.0272758
0.0304133
0.0312055
0.0640111
0.406424
0.0861993
0.318906
0.147318
0.0587323
0.0700403
0.0476802
0.00742988
0.0966066
0.160719
0.215057
0.147753
0.0308695
0.0150696
0.0194902
0.0434387
0.0229219
0.117964
0.286969
0.246073
0.170896
0.0965277
0.125411
0.0265728
0.063548
0.209551
0.152422
0.187856
0.190289
0.238605
0.128683
0.280938
0.0563106
0.0591421
0.0458686
0.0473437
0.0826387
0.109309
0.278751
0.290981
0.228796
0.0362972
0.079783
0.173569
0.0478148
0.0518651
0.199192
0.190422
0.225475
0.163405
0.0595068
0.0745572
0.0690103
0.0560783
0.0524919
0.0687262
0.0765125
0.0347563
0.0868795
0.0126691
0.00596062
0.0180111
0.159021
0.139491
0.0746545
0.00697235
0.000386444
0.0120102
0.0311929
0.0887342
0.408222
0.322069
0.165071
0.185772
0.144837
0.093487
0.0251092
0.00902277
0.00766336
0.0292343
0.163346
0.171252
0.290679
0.0873482
0.030641
0.041833
0.10243
0.164456
0.322385
0.22413
0.270269
0.00981143
0
0
0.0152061
0.0208395
0.0604236
0.304296
0.128946
0.0128495
0.000769268
0
0
0.00912364
0.0315102
0.0344211
0.352159
0.417808
0.0417607
0.0412871
0.00588197
0.000792849
0.0207005
0.0686694
0.0903095
0.299266
0.137162
0.0250106
0.0165467
0
0
0.00395027
0.0649172
0.046678
0.510927
0.332173
0.062875
0.00262282
0
0
0
0.00788182
0.00380035
0.146287
0.375157
0.0731502
0.0139496
0
0
0
0
0.000139032
0.114373
0.504836
0.27843
0.03523
0
0
0
0.0131364
0.0113765
0.139637
0.313029
0.10024
0.0339377
0.00361947
0
0
0
0.000973223
0.0645617
0.470328
0.256867
0.0947644
0.00339222
0
0
0
0
0.0207245
0.221964
0.402935
0.441784
0.0924904
0.0105773
0
0
0
0.00137647
0.0596567
0.345663
0.0576159
0.0105882
0
0
0
0
0.0179225
0.214977
0.341749
0.262269
0.0470147
0.0083283
0
0
0
0.00231684
0.103701
0.373573
0.402668
0.215973
0.0342565
0
0
0
0.000468246
0.0148996
0.0683954
0.275328
0.465422
0.100581
0
0
0
0
0.00290792
0.0123819
0.310363
0.159249
0.00956611
0
0.0014469
0.0122399
0.00233742
0.0231819
0.119337
0.280308
0.436959
0.00441342
0.0314371
0.0158845
0.0634081
0.0237932
0.00788843
0.0471219
0.156973
0.503384
0.137157
0.000140331
0.00216203
0.00592769
0
0.000451904
0.0178368
0.0760941
0.406588
0.264236
0.023389
0.0116979
0.0258898
0.0243287
0.0133565
0.0296459
0.230895
0.383745
0.0178118
0.053551
0.053246
0.0669059
0.0245144
0.01429
0.113991
0.209178
0.17434
0.0594926
0.0693827
0.11059
0.0815373
0.0585537
0.0790125
0.199237
0.0513813
0.250267
0.325331
0.110163
0.0102543
0.0171849
0.0463442
0.0576682
0.0609806
0.0963345
0.308599
0.231338
0.116344
0.0368581
0.03862
0.0151678
0.0488637
0.0866677
0.192022
0.0943831
0.110449
0.121194
0.123323
0.0367434
0.0865705
0.257627
0.298319
0.210339
0.168875
0.123728
0.132136
0.110326
0.0241318
0.0252796
0.21571
0.288088
0.130008
0.275991
0.120685
0.0614613
0.100935
0.0897155
0.0198658
0.0696113
0.103606
0.118212
0.116709
0.0759737
0.0996654
0.0893041
0.0775771
0.0709617
0.168527
0.149522
0.394134
0.238158
0.125156
0.0758038
0.0878625
0.0538293
0.0331097
0.0927289
0.165827
0.291018
0.210759
0.108043
0.14471
0.139583
0.0334626
0.050111
0.165534
0.173725
0.0678601
0.232141
0.268609
0.21849
0.0206293
0.0421812
0.0919481
0.0278933
0.0442747
0.10191
0.147179
0.259506
0.150541
0.0184735
0.0809565
0.151473
0.0562947
0.0328821
0.120601
0.141285
0.200309
0.132863
0.0805636
0.050848
0.14989
0.116221
0.150498
0.0776549
0.210443
0.123236
0.124342
0.0472807
0.166929
0.363093
0.229746
0.154784
0.0712693
0.138166
0.0956032
0.0427005
0.0138946
0.0146121
0.0378224
0.0654467
0.0502833
0.181073
0.174893
0.0344042
0.0663084
0.118353
0.0353677
0.110926
0.150555
0.161162
0.0799725
0.191357
0.0471327
0.104572
0.0901456
0.0667454
0.153767
0.0847733
0.0510444
0.457739
0.345333
0.0429616
0.124757
0.112811
0.0321171
0.158662
0.349678
0.282144
0.0484636
0.0262583
0.00857866
0.0363164
0.0983857
0.0299782
0.170369
0.151852
0.0905738
0.0240193
0.0304785
0.101071
0.00498322
0.0352409
0.0181748
0.404856
0.242593
0.120674
0.278982
0.152548
0.0603773
0.0226992
0.0429521
0.0173833
0.131932
0.293455
0.21885
0.100165
0.20839
0.327811
0.045403
0.161746
0.0906073
0.204608
0.201394
0.200871
0.0519176
0.0193346
0.0575379
0
0.00247201
0.0058455
0.144899
0.196482
0.164272
0.112631
0.0102893
0.00601523
0
0
0.00144931
0.109794
0.279492
0.288003
0.0750627
0.0952386
0.199677
0.0362538
0.0808635
0.0272038
0.0868477
0.198272
0.273014
0.178858
0.0213132
0.0347028
0.00517912
0.0101051
0.0816106
0.172171
0.443271
0.432775
0.223893
0.0310917
0.000254585
0
0
0.00343662
0.0491883
0.158643
0.33809
0.37822
0.100441
0.0176041
0
0
0.00344798
0.0174706
0.109723
0.32756
0.22853
0.0278553
0.0037423
0
0.0171176
0.191164
0.167785
0.190359
0.303407
0.30768
0.155342
0.0383961
0
0.0183916
0.107605
0.126562
0.0892667
0.169048
0.281707
0.111208
0.0192386
0
0.00792569
0.0346296
0.0282152
0.135205
0.180633
0.193474
0.187405
0.00263902
0.0636654
0.0404946
0.201775
0.19316
0.209712
0.133931
0.220749
0.0873196
0.0254959
0.0241779
0.0677026
0.0551819
0.100448
0.213525
0.111273
0.204057
0.00879047
0.00203487
0.180958
0.208634
0.187589
0.29771
0.366145
0.105641
0.192428
0.10547
0.022277
0.0898606
0.0663962
0.109119
0.126084
0.0910847
0.105993
0.230394
0.109018
0.080852
0.125191
0.123701
0.0753567
0.0966515
0.0788152
0.160869
0.259672
0.0780697
0.0348438
0.152272
0.0939389
0.0869672
0.272815
0.193494
0.0682466
0.404552
0.266668
0.165233
0.104506
0.0544012
0.119816
0.289594
0.105679
0.1427
0.169327
0.221183
0.13144
0.134563
0.119458
0.0249092
0.04608
0.108373
0.14863
0.198748
0.367398
0.110867
0.114306
0.0954432
0.000643067
0.00435838
0.0764894
0.0946151
0.202067
0.280633
0.211574
0.163267
0.0852545
0.178489
0.13172
0.0285893
0.131795
0.222893
0.358523
0.0990419
0.100654
0.0754038
0.114921
0.0515483
0.0197733
0.0253108
0.357002
0.347978
0.0954792
0.0401278
0.0231171
0.00215043
0.00852588
0.0221043
0.0690034
0.295582
0.229175
0.0725742
0.051132
0.0510685
0.0123327
0.0081162
0.035586
0.141968
0.332692
0.31041
0.0410684
0.00553065
0.0387491
0.0604595
0.0589445
0.0238361
0.0629897
0.278512
0.131646
0.0352596
0.0190663
0.0243017
0.0886631
0.0656898
0.054042
0.138145