0.17201
0.0933484
0.0656214
0.050576
0.0905245
0.03899
0.109733
0.314663
0.252738
0.177243
0.127776
0.0252177
0.17543
0.189389
0.0758648
0.055339
0.127772
0.15252
0.152573
0.13239
0.178633
0.161028
0.229254
0.102841
0.150734
0.119102
0.145113
0.117454
0.0691548
0.0404489
0.0813124
0.326939
0.195008
0.208716
0.178489
0.0739314
0.0786044
0.0607671
0.00567243
0.0647271
0.0676164
0.0295043
0.0319237
0.01168
0.0408881
0.102528
0.118591
0.0138585
0.0480287
0.0387146
0.0269545
0.0440197
0.0226556
0.019272
0.0904693
0.0876091
0.0937537
0.0836519
0.120642
0.0473094
0.0525778
0.0606938
0.0108088
0.225664
0.811182
0.241166
0.101327
0.0451842
0.00698971
0.00845625
0.00463148
0.00826352
0.0761544
0.0870819
0.0170135
0.0167371
0.00797026
0.00367644
0.00536585
0.00642993
0.00474611
0.189451
0.254514
0.0174021
0.00497516
0.014705
0
5.05398e-005
0.00788587
0.0278965
0.101628
0.528571
0.136978
0.00736921
0.00140698
0.000502712
0.000335141
0.000119282
0.00134938
0.238394
0.653447
0.164816
0.000656091
0.000978828
0
0
0.000834973
0.00429486
0.249382
0.161859
0.00281744
0.00177202
0.00754989
0
0
0.004218
0.0292907
0.456031
0.0661197
0.00121206
0.00332537
0.000966458
0
0.000243836
0.00584088
0.0973534
0.32983
0.371255
0.0277851
0
0.000112098
0
0
0.000268979
0.0166219
0.58586
0.161957
0
0
0
0
0
0
0.118104
0.238
0.00593111
0.000808359
0.000819287
0
0
0.00134158
0.00826143
0.228426
0.073339
0.000549536
0.000104782
5.64212e-005
0.000159974
0.000906521
0.00148537
0.100154
0.471913
0.346502
0.0194352
0
0
0
0
0
0.0100896
0.279075
0.12772
0
0
0
0
0
0
0.196294
0.583038
0.0142576
0.00249106
0.00110268
0.000619205
0.00108382
0.00089225
0.000141618
0.186705
0.266392
0.0156891
0.00692048
0.00365299
0.00433443
0.00764143
0.00316569
0.00413631
0.266777
0.177826
0.0122456
4.52954e-005
3.79105e-005
8.84578e-005
0
0
0.00512851
0.362014
0.374739
0.00529388
0.00054572
0.000265373
0.000619205
0.00079248
0
0.0953767
0.61675
0.262429
0.0160664
0.00981089
0.00569984
0.00331312
0.0083863
0.00439621
0.0182502
0.167471
0.0744371
0.0236866
0.00978764
0.00776126
0.00980837
0.00575209
0.00588599
0.0286697
0.0821862
0.0295692
0.00569521
0.00170311
0.000591776
0.00111385
0.00131052
0
0.224472
0.681025
0.105369
0.0408781
0.0101596
0.00307827
0.0117349
0.0026579
0.000561044
0.274648
0.531042
0.0680191
0.0704073
0.0497982
0.0239093
0.0136994
0.00886876
0.0524112
0.0654137
0.0929201
0.100055
0.0654654
0.0824353
0.0478219
0.024535
0.0472991
0.064585
0.0866785
0.0615251
0.101155
0.270467
0.12333
0.0309506
0.0685929
0.0183233
0.0216219
0.333604
0.509367
0.225178
0.243386
0.138112
0.0578342
0.046724
0.123501
0.12478
0.100937
0.111632
0.279142
0.0324308
0.0318335
0.0355682
0.0377431
0.154667
0.0669509
0.0858795
0.0705305
0.0562416
0.118134
0.108373
0.0209854
0.0215189
0.203427
0.0597989
0.103592
0.174452
0.107564
0.123421
0.0798064
0.0449742
0.0346426
0.129118
0.113194
0.076514
0.175427
0.217703
0.274427
0.430967
0.0588264
0.0640699
0.196247
0.241287
0.0744038
0.138688
0.140732
0.104017
0.0756774
0.176082
0.0714056
0.0889697
0.0411906
0.0715293
0.164902
0.0778785
0.111481
0.0837576
0.129933
0.0679559
0.109571
0.112891
0.216592
0.128776
0.0678291
0.12608
0.0510582
0.153299
0.027895
0.0372049
0.0745765
0.137409
0.382699
0.160685
0.14898
0.161164
0.481596
0.231385
0.13421
0.0767192
0.135576
0.0761294
0.157204
0.0440495
0.0810255
0.111641
0.0465438
0.0178347
0.0146611
0.0480406
0.0256323
0.0101584
0.0475982
0.402254
0.293467
0.0510198
0.00551722
0.000414312
0.0055014
0.00203098
0.000824049
0.0268728
0.1823
0.366778
0.0722362
0.0342519
0.00667792
0.0268753
0.00371128
0.0167497
0.0132146
0.371741
0.587315
0.0295087
0.00332446
0
0.00605769
0.00120909
0.00100182
0.0324945
0.384852
0.182451
0.0056034
5.13769e-005
0
0
0
0.000500108
0.135916
0.389576
0.127492
0
0
0
0
0
0.00304178
0.0211719
0.300764
0.275284
0.0058793
0
0
0.00192402
0.000641342
0.00298152
0.125883
0.580484
0.231914
0.000500538
0
0
0.000224766
7.49219e-005
0.0217229
0.204377
0.195158
0.0215693
0
0
0
0
0
0.0174543
0.437188
0.118041
0
0
0
0
0
0
0.0876656
0.208336
0.441854
0.0814699
0.00412273
0.0038498
0.0235357
0.0101189
0
0.0461858
0.559387
0.268269
0.0077511
0.0288591
0.00641633
0.0544736
0.018559
0.00176998
0.119321
0.277855
0.0168569
0
0
0
0
0
0.00290102
0.195162
0.108577
0
0
0
0
0
0
0.083983
0.450869
0.390409
0.0380657
0
0.0102329
0.000836967
0.0115912
0.00291928
0.00287394
0.305392
0.150238
0.000454466
0
0
0
0
0
0.12493
0.566461
0.0120118
0
0
0
0
0
0.0044481
0.166426
0.277268
0.00522059
0
0
0
0
0
0.0745574
0.373196
0.155658
0.0135627
0
0
0
0
0
0.0041824
0.354044
0.432558
0.00313235
0
0
0
0
0
0.0920678
0.557928
0.196802
0.000525157
0
0
0
0
0
0.156356
0.326326
0.0308498
0.00786251
0.00217259
0.00116179
0.00384881
0
0
0.357227
0.364411
0.0133831
0.000315094
0
0
0
0
0.000565179
0.17844
0.3953
0.0381029
0
0
0.000137458
0.00054983
0
0.00505268
0.515693
0.317787
0.00558293
0.026111
0.00777949
0.00415352
0.0132481
0.00324781
0.00647808
0.292393
0.169927
0.0264746
0.0387024
0.00879671
0.00452401
0.0121214
0.0239716
0.0230944
0.117408
0.0415197
0.0503274
0.00415499
0
0.000473148
0.00189259
0.000463973
0.0189561
0.613966
0.224483
0.00616942
0.0178676
0.0021544
0.000909762
0.00363905
0.0119063
0.0934059
0.59049
0.12826
0.0223018
0.103602
0.0401537
0.0223719
0.0550653
0.108446
0.0518715
0.0519046
0.0680341
0.127983
0.0759592
0.132235
0.0702368
0.089565
0.225828
0.216074
0.0185866
0.0499796
0.106327
0.0756222
0.0186127
0.033369
0.0384847
0.13345
0.306708
0.522358
0.12886
0.0975338
0.0826786
0.0508446
0.102748
0.0756024
0.224651
0.222033
0.162157
0.0658108
0.137732
0.0439271
0.020025
0.0458083
0.0417615
0.0444584
0.0512791
0.0612111
0.092126
0.05482
0.0361736
0.145383
0.393986
0.177611
0.0664347
0.0226617
0.0328573
0.0237647
0.0447052
0.0846735
0.046899
0.149295
0.15975
0.101655
0.0258793
0.0128385
0.00791615
0.0246906
0.0211903
0.279344
0.664658
0.266625
0.134654
0.0292538
0.0140649
0.00285637
0.0111772
0.00304185
0.151804
0.330321
0.0700149
0.0480251
0.00131512
0.00238557
0.000587391
0.00442987
0.000447166
0.135532
0.408031
0.0582382
0.0312885
0
0.00464519
0.002298
0.000496914
0.000341078
0.13873
0.28653
0.0998018
0.120036
0.0158986
0.00338682
0.00323092
0.000896668
0
0.0818614
0.609347
0.307705
0.107132
0.00332901
0.00315812
0.00590884
0.000925983
0.0075371
0.15631
0.312934
0.0335396
0.00924884
0.0017144
0.00217736
0.000804166
0.00210571
0.0698706
0.342404
0.375294
0.0977805
0.0322438
0.0127139
0.00891925
6.45668e-005
0.0300852
0.00318265
0.11003
0.525052
0.144669
0.0679406
0.0215294
0.00123684
0.00206146
0.000892481
0.0605809
0.112429
0.326833
0.194109
0.208793
0.123073
0.0649584
0.0412192
0.1027
0.11525
0.214197
0.192258
0.0661685
0.0362628
0.115622
0.0405854
0.00739214
0.0800205
0.199774
0.093067
0.0225627
0.0358585
0.0269356
0.208965
0.0567352
0.04195
0.217384
0.140898
0.0228733
0.135873
0.114095
0.10483
0.182083
0.135709
0.0729665
0.288702
0.148273
0.00142966
0.017811
0.0119255
0.0246543
0.193029
0.114943
0.120374
0.614873
0.131185
0.0120396
0
0.00962268
0.00213944
0.0336098
0.00750315
0.0155362
0.245984
0.0882569
0.000427364
0
0
0
0
0
0.0467685
0.418039
0.103306
0.000427364
0
0.00137467
0.00128366
0.025896
0.0125475
0.034355
0.569681
0.131974
6.1052e-005
0
0
0
0
0
0.0234177
0.569681
0.0434296
0
0
0
0
0
0.00275121
0.162954
0.256239
0.0483113
0.00665554
0
0.00151739
0
0
0.116209
0.46686
0.15007
0.120368
0
0
0
0
0
0.000345895
0.0402275
0.516152
0.159403
0.0288399
0
0.0152693
0.0839311
0.00664924
0.0594759
0.210359
0.484468
0.0133844
0.00704822
0
0.00436806
0
0.0022115
0.28697
0.311516
0.0293917
0.00054217
0.00100689
0
0.00262084
0
0.0271807
0.444452
0.158864
0.00267416
0.0458064
0.0305414
0
0.0439551
0.134077
0.0161732
0.330652
0.209638
0.105484
0.00179859
0.00436306
0
0.026373
0.0554878
0.157639
0.559246
0.108657
0.00131196
0
0
0
0
0
0.0454912
0.385281
0.0923328
0.000863035
0.00106576
0.00021641
0
0.00111887
0.00882625
0.134187
0.50996
0.104229
0.00368218
0
0
0
0
0.011374
0.191985
0.372678
0.0447297
0.00175639
0
0
0
0.00186478
0.060248
0.263174
0.490616
0.0847034
0.00091764
0.00286763
0.00553265
0.014317
0.0109238
0.0447956
0.174842
0.359724
0.0637702
0.0169904
0.0130647
0.0136118
0.0290228
0.0145582
0.0313301
0.0652626
0.0834623
0.0372482
0.0372015
0.00429532
0.0112542
0.025936
0.030147
0.187658
0.33359
0.699268
0.0825696
0.0036707
0.0485567
0.0686964
0.0541424
0.0487793
0.132593
0.135457
0.186323
0.0328533
0.0369743
0.0565637
0.0544045
0.149344
0.215646
0.102152
0.00415583
0
0.000714619
0.00568132
0.00869601
0.181041
0.379822
0.277836
0.167343
0.0247567
0.0019897
0
0.000233116
0.034373
0.144288
0.137125
0.323306
0.169961
0.0333195
0
0.031031
0.0470829
0.00302442
0.0822292
0.180364
0.381673
0.433635
0.0509381
0.00287433
0.00733205
0.0110139
0
0.0448135
0.113663
0.104157
0.128916
0.0156308
0.00329819
0.000986487
0.000174086
0.000214879
0.014527
0.39446
0.328066
0.136435
0.0038311
0.00197892
0.00184136
0.000881801
0
0.0156736
0.0453439
0.170159
0.339545
0.0178601
0.00279698
0.00177676
0.00266514
0.00150415
0.000265439
0.169275
0.371368
0.553834
0.00612059
0.00115471
0.00100599
0.0018844
0.00081601
0.0263988
0.371111
0.233048
0.0995938
0.0214748
0.00230369
0.00737334
0.00246727
0.035887
0.113936
0.17902
0.0941264
0.168757
0.131016
0.0507321
0.10382
0.185136
0.00571207
0.00100801
0.126742
0.220511
0.29424
0.0150199
0.00239485
0.00764532
0.00598618
0.0263166
0.243482
0.461599
0.291151
0.229338
0.092385
0.0242266
0.0506198
0.0758397
0.0863637
0.0893953
0.0473041
0.0211492
0.0315178
0.0442123
0.0395925
0.0581312
0.283696
0.1003
0.0301971
0.00495537
0.000830818
0.00148176
0.0132106
0.0258288
0.0361451
0.544495
0.116102
0.254036
0.220113
0.119475
0.0312674
0.0348292
0.0193214
0.0341234
0.152369
0.21009
0.1346
0.0348644
0.0378862
0
0.00954012
0.0117341
0.0293866
0.544495
0.0419217
0
0
0
0
0.00104349
0.00245543
0.0132799
0.455871
0.0723618
0
0
0
0
0
0
0.0189812
0.489083
0.0785315
0.00614397
0
0
0
0
0.000425729
0.0201151
0.489083
0.100755
0
0
0
0
0
0
0.0443272
0.489083
0.0686239
0
0
0
0
0
0.00396779
0.0435113
0.445298
0.131701
0.0487469
0.00172008
0.0115812
0.0918954
0.00735676
0.0407741
0.109303
0.360751
0.0642413
0
0
0.00110987
0.0126231
0.00760379
0.029628
0.149371
0.509705
0.0863464
0.0283655
0.0028668
0.0129151
0.0830906
0.0506177
0.316934
0.324039
0.248952
0.0952394
0.0701282
0.00707552
0.0453266
0.222575
0.0290658
0.132647
0.083254
0.0997768
0.00882192
0.0102014
0.0046299
0.0279338
0.135024
0.291401
0.557826
0.0311012
0.000910477
0.0882365
0.0415784
0.0138625
0.0279787
0.179785
0.0977234
0.322281
0.120185
0.0391464
0.0109837
0.00722173
0.0111665
0.0236451
0.256702
0.363229
0.220886
0.00680278
0.00100487
0
2.47919e-005
0.00011251
0.000342342
0.0655092
0.302293
0.303442
0.00876342
0.000459251
0
0
0.000266939
0.00294151
0.1268
0.276692
0.222335
0.055907
0.000194318
0
0.000173544
0.000817907
0.00445548
0.235675
0.511335
0.182899
0.00144488
0
0
0
0.00186857
0.025852
0.313073
0.378333
0.120457
0.0279032
0
0.00424959
0.00562552
0.00769806
0.0160228
0.138617
0.285705
0.358019
0.0647871
0.000170772
0.0435492
0.0661098
0.0277229
0.0280475
0.104918
0.192161
0.171029
0.0122017
0.0163981
0.00125903
0.00323885
0.00449453
0.0689121
0.247832
0.421734
0.2491
0.0429567
0
0.0253058
0.0442035
0.0325715
0.107198
0.220102
0.44346
0.198611
0.0124334
0.0224562
0.0319331
0.104624
0.0518227
0.113598
0.191653
0.0931959
0.0357264
0.0651655
0.129366
0.0115526
0.0254681
0.0337679
0.129683
0.497429
0.0749375
0.0167819
0.0129123
0.0232227
0.0697379
0.0469785
0.015346
0.0262972
0.169753
0.249316
0.19387
0.107695
0.210704
0.0233671
0.0252297
0.0092076
0.0418028
0.422776
0.398808
0.123371
0.0183688
0.030751
0
0
0.00304907
0.0675387
0.319167
0.0303091
0.00291983
0.00164041
0.00246061
0.000597856
0.000580242
0.00693675
0.1177
0.538633
0.0406972
0.000410546
0.000666381
0.000952575
0
0
0
0.0262983
0.338796
0.155486
0.014139
0.000234344
0.000351516
0.000144958
0.00157515
0.000218689
0.0267442
0.538633
0.319172
0.0351736
8.933e-005
0.000118481
0.00258538
0.00250921
0.0144707
0.0736
0.347108
0.0649909
0.0124241
0.00209081
0.0026385
0.00438843
0.0622927
0.20448
0.206675
0.25805
0.305852
0.193788
0.0641076
0.0370986
0.00127712
0.00720283
0.00479025
0.0131596
0.293833
0.214298
0.0469266
0.00212329
0.000945464
0.0090857
0.0523326
0.0466471
0.0244738
0.108735
0.333195
0.384443
0.307791
0.0284347
0.0406473
0.0909626
0.116351
0.104479
0.0336481
0.125918
0.1256
0.113849
0.0744472
0.133183
0.0792168
0.0247702
0.039579
0
0.0396035
0.0472516
0.122913
0.472861
0.0261796
0.0430672
0.0210807
0.0135427
0.0103617
0.127039
0.201335
0.35677
0.152069
0.0873646
0.0198353
0.00361301
0.00565415
0
0.0371083
0.0482133
0.24032
0.557491
0.0721967
0.00632877
0
0
0
0
0.00119206
0.0203923
0.414719
0.0758246
0
0
0
0
0
0
0.0278288
0.501443
0.0558249
0.000904109
0
0
0
0
0.000715235
0.0271598
0.501443
0.0810254
0
0
0
0
0
0
0.0392737
0.501443
0.0719892
0.0347871
0.0134629
0.0107535
0.0381775
0.022497
0.0202708
0.0907422
0.430975
0.03294
0.0763337
0.0650052
0.126476
0.1779
0.0809942
0.251256
0.180516
0.121058
0.16041
0.095374
0.0417822
0.0144198
0.0237918
0.0134982
0.0041792
0.0441678
0.464286
0.161308
0.365422
0.275777
0.191535
0.140629
0.0336258
0.0703935
0.034048
0.119318
0.010335
0.0303068
0.0721112
0.16287
0.30994
0.105574
0.309361
0.0698234
0.00200362
0.00147643
0.00179015
0.0171931
0.0668264
0.323548
0.195276
0.069106
0.00565147
0.000164047
0.0402785
0.236822
0.317081
0.272592
0.315395
0.0263972
0.0900701
0.0119334
0.00227497
0.00177041
0.0150881
0.0611827
0.193231
0.385699
0.0624466
0.0147708
0.00489248
0.000430396
0
5.86595e-005
0.0015837
0.014466
0.282007
0.268489
0.0429789
0.00122676
0
0
0
0.000631597
0.0224305
0.367248
0.205547
0.047308
0.00222065
0
0.00014556
3.63901e-005
0.027042
0.173334
0.461016
0.100096
0.00438903
0.000538816
0
0
0
0.0238593
0.135589
0.572026
0.102208
0.0104052
0.000317236
0
0
0.000205878
0.000650266
0.0248021
0.235542
0.194015
0.0953884
0.00696045
0
0.0160523
0.0165012
0.0189348
0.031315
0.331549
0.234507
0.0808145
0.00441938
0.0064636
0
0
0.0150191
0.0636668
0.452813
0.125816
0.0256364
0.00099435
0
0.00740033
0.0137539
0.0311016
0.0653358
0.636808
0.148685
0.0415662
0.0205441
0.00109672
0.0209876
0.00854605
0.00117555
0.0016207
0.127607
0.212274
0.119065
0.0856017
0.0720388
0.00620774
0.00431842
0
0.00967533
0.173227
0.411944
0.215069
0.0138112
0.0101907
0.0368512
0.0409156
0.0130686
0.0112927
0.119648
0.216198
0.11507
0.0982047
0.0431123
0.0197378
0.0188849
0.00069139
0.00253588
0.173834
0.504929
0.46189
0.0166177
0.00606219
0
0
0
0.00674064
0.158637
0.18459
0.0706006
0.00076816
0
2.16905e-005
0.000491604
7.14427e-005
0.00406007
0.242493
0.43173
0.19496
0
0
0
0
0.00171851
0.0031623
0.0761332
0.205328
0.226309
0.00128027
0
0
0
0.00286419
0.00466697
0.0839502
0.457859
0.529938
0.00207981
0
0.000603046
0.00244979
0.0215831
0.0185144
0.0989182
0.215901
0.117575
0.00154372
0.00053345
0.0179362
0.153819
0.215029
0.0622553
0.0403666
0.0516266
0.0866384
0.12065
0.00283319
7.62071e-005
0.000523461
0.0266226
0.0628737
0.119707
0.308727
0.547489
0.0216631
7.62071e-005
0.0103302
0.209754
0.311452
0.289119
0.179174
0.228181
0.201585
0.047675
0.000127012
0.0766825
0.173762
0.116113
0.0215666
0.00450053
0.0151677
0.0475283
0.167566
0.105788
0.115872
0.0605731
0.0172597
0.00358485
0
0.00312903
0.00717057
0.116928
0.552159
0.0976137
0.248652
0.22393
0.117625
0.0262413
0.107548
0.0605014
0.0608924
0.069857
0.22195
0.108182
0.0628459
0.0250939
0
0.0330232
0.0256683
0.114709
0.524905
0.0486617
0.000674267
0
0
0
0
0
0.0234267
0.413241
0.077952
0
0
0
0
0
0
0.0243441
0.510774
0.094845
0.00471987
0
0
0
0
0
0.0354402
0.474141
0.107865
0
0
0
0
0
0
0.0268732
0.510774
0.108083
0.0313373
0.0122827
0.00179042
0.000198935
0
0.0198501
0.0928447
0.376539
0.132972
0.192593
0.112156
0.0310845
0.019812
0.00643684
0.139459
0.179626
0.104058
0.0753468
0.00816303
0.0125552
0.00633392
0.0239711
0.031447
0.0402687
0.17358
0.526043
0.0342786
0.0317407
0.0271562
0.0763245
0.135789
0.109851
0.366
0.378257
0.134699
0.044754
0.1478
0.132556
0.0604433
0.0813543
0.0146267
0.115136
0.0789296
0.00380703
0.0048298
0.0121833
0.0718869
0.20701
0.229646
0.00963645
0.0105123
0.00759167
0.00117415
0.00952516
0.0304005
0.0425813
0.0890571
0.276411
0.121637
0.390821
0.161932
0.00369235
0.00289788
0.0233064
0.481172
0.396671
0.285494
0.0363199
0.0458847
0.0068673
0.00411522
0.000435793
0.000108948
0.082913
0.314887
0.287427
0.00592871
0.000317557
0.000400428
0
0.000336079
0.00277896
0.0717409
0.231197
0.362413
0.0167965
0.00152215
0
0
0.000261476
0.00448812
0.324036
0.47677
0.170842
0.00183942
0.000144771
0.000174829
0.000352876
0.00235255
0.0295318
0.162539
0.340236
0.237788
0.0108834
0.000913289
0
0
0.00116942
0.00966968
0.0878052
0.168098
0.342721
0.0350605
0.000716799
0
0
0.00745945
0.00969882
0.0672581
0.197974
0.485672
0.0981483
0.0311433
0.0368328
0.00141519
0.00865301
0.0637602
0.249061
0.334635
0.212052
0.0179836
0.000430079
0
0.000467083
0.0351966
0.0329424
0.18212
0.374616
0.277145
0.0789947
0.00696864
0.0147653
0.0041187
0.0544542
0.0362311
0.00955786
0.0134095
0.0494206
0.113277
0.0963352
0.0817169
0.0539305
0.0261081
0.0189614
0.000820988
0.00191564
0.0884176
0.3584
0.513462
0.0221548
0.00726175
0.128653
0.0574767
0.0277326
0.00602986
0.0421216
0.14551
0.10201
0.072305
0.0864652
0.133405
0.0581352
0.0692651
0.0290732
0.039349
0.299877
0.497275
0.0523751
0.19498
0.000375008
0
0.00203138
0.00304707
0.0191452
0.140584
0.313141
0.00542922
4.16675e-005
0
0
0.00338564
0.00507845
0.0229308
0.205745
0.475966
0.0190175
0
0.0605032
0.00432754
0.0113545
0.00711713
0.0188462
0.130505
0.445723
0.0294678
0.0719714
0.0082683
0
0.000483662
0.000725493
0.0169121
0.0839679
0.550336
0.115633
0.00967926
0
0
0.00245891
0.0182084
0.0422919
0.10226
0.405077
0.0714463
0
0
0.0413809
0.0350871
0.0773437
0.0706304
0.205064
0.323779
0.184192
0.00141699
0.000303128
7.57821e-005
4.89837e-005
0.000832322
0.00523903
0.030013
0.332482
0.160359
0.00448282
0.0021219
0.00331718
0
0.00126474
0.00585377
0.0683196
0.459412
0.467571
0.0155774
0.0202907
0.0548351
0.0430882
0.0372265
0.012438
0.129385
0.139646
0.155843
0.0763921
0.0954776
0.0240825
0.0174352
0.00823998
0
0.0388247
0.0396838
0.114315
0.427431
0.00618421
0.00305868
0
0.000175574
0.000976776
0.0426297
0.223322
0.429802
0.144259
0.0741487
0.000408357
0
0
0
0.0123071
0.042719
0.33065
0.539108
0.0627109
0.00170592
0
0
0
0
0
0.0176205
0.375341
0.0911225
0
0
0
0
0
0
0.00864138
0.500345
0.0954564
0
0
0
0
0
0
0.0599404
0.500345
0.182513
0.00389536
0
0
0
0
0
0.00435613
0.500345
0.106611
0.0458998
0.038535
0.0102717
0.025204
0.0300897
0.00871081
0.0391661
0.35468
0.0520224
0.13213
0.139505
0.166286
0.153411
0.0833854
0.129311
0.0836511
0.08417
0.238587
0.101243
0.0358567
0.00451282
0.00524042
0.00429854
0
3.95043e-005
0.459672
0.188447
0.494472
0.2847
0.109626
0.0562272
0.0137634
0.00845821
0
0.133784
0.00134943
0.0687805
0.154237
0.115117
0.179322
0.0466948
0.0979114
0.0203927
0.00131787
0
0.0828992
0.47016
0.141627
0.106757
0.0141766
0.0129736
0.00100423
0.00194655
0.0244612
0.374595
0.345028
0.0812653
0.0849435
0.0136952
0.00758366
5.56158e-005
0.00455349
0.00747451
0.265771
0.504235
0.0548689
0.0476209
0.00682881
0.00108338
9.2693e-005
0.00517506
0
0.0295612
0.360943
0.227766
0.0400037
0.00118467
0
0.000118735
0.000356206
0.000873621
0.0615348
0.249936
0.204973
0.0858613
0.0068065
0
0
0
0.00243589
0.0947305
0.424124
0.0875799
0.00580967
0.000138908
0
1.69622e-005
0.00248678
0
0.170015
0.624547
0.147279
0.0311776
0.000972358
0
0
0
0.00447082
0.0698459
0.335576
0.305564
0.0792009
0.00656188
0.000374427
0.000293882
0.00312841
0.0200076
0.0156946
0.14922
0.322619
0.0923107
0.0168463
0.00548179
0.00881276
0.0275458
0.00112354
0.0862628
0.627671
0.28585
0.0527962
0.0083882
0.0045954
0.00393405
0.00747681
0.00611553
0.00521617
0.164263
0.22943
0.0410859
0.0248436
0.041785
0.036901
0.0421379
0.167729
0.0624925
0.0521471
0.0334589
0.0347183
0.110084
0.0443742
0.028146
0.102759
0.194174
0.0659961
0.143037
0.0817436
0.136747
0.096128
0.0933274
0.0256642
0.320848
0.314796
0.0773545
0.0875275
0.276233
0.133211
0.0444169
0.0384533
0.0411447
0.088134
0.273491
0.0563697
0.121341
0.27856
0.316714
0.0624213
0.0238878
0.0393711
0.396042
0.0920712
0.00729162
0.0340831
0.0246964
0.116043
0.113672
0.207763
0.0272458
0.221055
0.0213871
0
0
0
0.053057
0.0764265
0.408106
0.176137
0.0632529
0.0701561
0.0132595
0.0338703
0.115966
0.22541
0.135795
0.0770372
0.063833
0.423521
0.0372101
0.0251248
0.0351416
0.107873
0.22305
0.132801
0.320012
0.203441
0.293825
0.00263309
0.000322427
0
0
9.99784e-005
0.00658756
0.26727
0.22321
0.0130267
0.00902794
0.00225699
0
0
1.42826e-005
0.000271369
0.266949
0.473342
0.0451817
0.00939868
0.0145944
0.0179208
0.0463967
0.0500765
0.0203761
0.328064
0.248704
0.0436495
0.0127814
0.00629426
0.00134894
0.00437877
0
0
0.230123
0.526071
0.0678524
0.0105162
0.000650545
0
0
0
0
0.104891
0.36913
0.122058
0.0463974
0
0
0
0
0
0.0236117
0.387663
0.480809
0.0133712
0.000390327
0
0
0
0
0.0497523
0.356345
0.101517
0.0507382
0
0
0
0
0
0.0115438
0.330047
0.378392
0.0800883
0
0
0
0
0
0
0.0904482
0.442023
0.290538
0.0139316
0
0
0
0
0
0.00651006
0.516927
0.0814787
0
0
0
0
0
0
0.072043
0.364737
0.324798
0.0132945
0
0
0
0
0
0.00629162
0.369077
0.363569
0.106385
0.00666553
0
0
0
0
0
0.279195
0.275162
0.453742
0.106917
0.00730463
0.00225977
0.000564943
0
0
0.0916487
0.402283
0.0916789
0.000983761
0
0
0
0
0
0.143879
0.34844
0.318322
0.0207871
0
0
0
0
0
0.0627832
0.0924447
0.425922
0.164089
0.00828877
0.00697029
0.00174257
0
0
0.00913918
0.0726249
0.261681
0.253308
0.0306056
0.00418218
0.00104554
0
0
0.01336
0.160832
0.417237
0.0639081
0
0
0
0
0
0.0169585
0.131996
0.490267
0.339316
0.0487729
0
0
0.0024402
0
0.00630678
0.0271785
0.117318
0.307635
0.0285381
0
0
0
0
0.0041376
0.00866444
0.192084
0.583109
0.0447344
0.00781607
0
0
0.00162547
0.00108365
0.051286
0.269243
0.36199
0.0441369
0.0032784
0
0.00558416
0.00218431
0.00269194
0.0178021
0.242995
0.429582
0.0205648
0.00676499
0.000700209
0.0208862
0.022219
0.00697712
0.0153221
0.141243
0.759591
0.18238
0.0584609
0.00545979
0.00565619
0.0183905
0.0159742
0.0450395
0.0279791
0.10486
0.116541
0.0552601
0.039686
0.0581873
0.0411477
0.0245939
0.0550772
0.14531
0.380183
0.0396151
0.0118869
0.00524297
0.0553934
0.0581974
0.0261591
0.114258
0.0829583
0.0527192
0.0375163
0.0159133
0.0183738
0.0506951
0.035133
0.0204401
0.128563
0.0471339
0.118935
0.206529
0.0862403
0.0651354
0.0712593
0.033857
0.0453699
0.217464
0.0767836
0.0951375
0.239763
0.11984
0.0186559
0.0284521
0.0643201
0.245772
0.10014
0.175894
0.141207
0.0542906
0.0328537
0.148306
0.156392
0.1395
0.073266
0.466295
0.391012
0.163477
0.0811063
0.0176372
0.0111987
0.0840932
0.181647
0.216386
0.148502
0.105655
0.0482247
0.155177
0.102287
0.0313389
0.0252622
0.0544054
0.224438
0.0945948
0.197035
0.148399
0.215359
0.190686
0.0412448
0.0915198
0.0586156
0.175803
0.408189
0.221494
0.137798
0.0700871
0.0149303
0.000144555
0.045442
0.0888565
0.207095
0.227986
0.352642
0.291969
0.116724
0.0699114
0.00676793
0.0601294
0.0195486
0.179769
0.0357334
0.118828
0.104553
0.13422
0.115536
0.0280434
0.240083
0.138682
0.0540833
0.0457489
0.0303889
0.0194505
0.00902826
0.0102083
0.0172032
0.295227
0.543287
0.0798333
0.10685
0.209
0.166866
0.0737891
0.0947845
0.0297398
0.137519
0.0427487
0.164222
0.222531
0.0997711
0.116577
0.0263066
0.0243642
0.0296175
0.148773
0.253268
0.245191
0.0190526
0.00179636
0.00705988
0
0.000564091
0.00131621
0.0734774
0.339867
0.13466
0.0428009
5.30817e-005
0.00100855
0
0
0
0.00905918
0.292939
0.385554
0.103475
0.0211109
0.0641681
0.018821
0.00314782
0.00219369
0.0414589
0.159545
0.253617
0.144395
0.00886411
0.0151993
0.00549539
0.000315381
0
0.00356239
0.158742
0.628146
0.0799423
0
0
0
0
0
0
0.0745014
0.301942
0.285516
0.0098288
0
0
0
0
0
0.0108123
0.319164
0.146916
0.00435025
0.000249139
0
0
0
0
0.0621819
0.448015
0.336459
0.0213469
0.0203626
0.0133555
0.00816542
0
0
0.0229888
0.553924
0.321107
0.0748829
0.00468154
0
0
0
0
0.000325441
0.109038
0.297511
0.334449
0.0388497
0
0
0
0.00422126
0.00422126
0.0309327
0.448098
0.11963
0.0652817
0.0163786
0.00876497
0
0.00238935
0.0051984
0.208407
0.445564
0.353782
0.0783958
0.00381692
0.0249891
0.0607338
0.0657313
0.049991
0.0600422
0.112216
0.463131
0.0540555
0
0.00058494
0.00526447
0.00402036
0.00402036
0.00599608
0.0595631
0.562123
0.232665
0.0112422
0.00409458
0.0368512
0.0106047
0.0191414
0.00213871
0.12043
0.372601
0.0311727
0.000290477
0.0657482
0.0785135
0.0525336
0.0353048
0.0153746
0.0956609
0.36204
0.0674212
0.00203334
0.0623166
0.0883576
0.0159496
0.042263
0.016709
0.0632709
0.506199
0.452827
0.0426645
0.0284913
0.0302688
0.0491377
0.059071
0.0133526
0.0144421
0.207899
0.271862
0.0572779
0.0659414
0.00530485
0.0894373
0.110489
0.0295874
0.160683
0.233875
0.185542
0.061252
0.0350274
0.0879685
0.0420059
0.130013
0.0573688
0.0581476
0.0907546
0.12593
0.234631
0.0824801
0.0586586
0.0448672
0.0983597
0.0495674
0.0721726
0.0828385
0.153961
0.0656449
0.104852
0.0378372
0.201921
0.195321
0.0632345
0.127048
0.152383
0.161909
0.0628968
0.0759022
0.0318506
0.0891034
0.102432
0.0628807
0.11449
0.0723109
0.0689456
0.343954
0.196623
0.0832172
0.076035
0.196282
0.0887219
0.203268
0.190958
0.274286
0.0755534
0.138787
0.0407004
0.0507597
0.24621
0.081601