0.0889443
0.0757819
0.0773968
0.105095
0.126118
0.0217156
0.101841
0.169713
0.197464
0.0780084
0.113921
0.113754
0.130264
0.169803
0.0274257
0.0468488
0.152725
0.0755315
0.216839
0.0351192
0.0549163
0.275936
0.168639
0.0172021
0.213343
0.229217
0.153307
0.0704723
0.0423712
0.0627393
0.25273
0.160354
0.0800297
0.217567
0.367173
0.103175
0.0418452
0.108374
0.107479
0.156885
0.12195
0.0487067
0.0203011
0.0282235
0.0183402
0.06909
0.343764
0.184335
0.139287
0.103695
0.0639649
0.0884085
0.0727177
0.0539838
0.10746
0.129036
0.0713248
0.156743
0.113606
0.158743
0.111506
0.0960789
0.0407129
0.22796
0.489377
0.175791
0.180617
0.111077
0.163794
0.0878952
0.00390898
0.140585
0.100243
0.151373
0.0887391
0.015199
0.0101535
0.0379276
0.0870302
0.0493735
0.0475116
0.184518
0.0766427
0.0841912
0.023187
0.00661684
0.0213923
0.0872781
0.0712604
0.148248
0.128468
0.281907
0.297224
0.128338
0.0297954
0.0494515
0.0507083
0.00234951
0.0542884
0.352845
0.310875
0.470415
0.114647
0.0496711
0.00782013
0.0305568
0.102302
0.182551
0.0873432
0.0240485
0.0191936
0.00924391
0.00608304
0.00452998
0.0216522
0.0383397
0.132938
0.201783
0.021705
0.0077864
0.00958612
0.00816798
0.00140307
0.0225472
0.0637941
0.162664
0.266931
0.174214
0.0719769
0.0235717
0.0251977
0.000551613
0.0117743
0.0854478
0.209391
0.690157
0.272281
0.00378774
0.00319965
0.00359968
7.01467e-005
0.0109558
0.0549701
0.304649
0.14805
0.0033356
0.00439441
0.00878053
0.00787857
0.0114387
0.0106464
0.0342275
0.0988016
0.227472
0.0117055
0.00563481
0.0379749
0.0194916
0.0171103
0.00331942
0.0880451
0.187041
0.439947
0.0470613
0.000231035
0.000539082
0.000641938
0
0.00314697
0.0164532
0.300633
0.421587
0.00231125
0.000298224
0.000323449
0.0010699
0
9.22981e-005
0.208037
0.533877
0.161673
0.0432206
0.012933
0.0417548
0.0144347
0.00307893
0.00199741
0.0733546
0.145632
0.134108
0.0626697
0.0129925
0.020871
0.0101632
0.0146111
0.0118473
0.0594326
0.124624
0.17903
0.0114013
0.000995918
0
0.000154202
0
0.007579
0.392469
0.42589
0.145356
0.0262844
0.00116703
0
0
0.00274745
0.148866
0.540333
0.341253
0.0952563
0.0593748
0.00982405
0.00690015
0.0131728
0.0250601
0.0335699
0.0644413
0.101397
0.0621795
0.0711957
0.0160371
0.0394632
0.0408182
0.0380305
0.0494304
0.0585364
0.118799
0.161666
0.066095
0.00787798
0.00571659
0
0.0124342
0.23092
0.573812
0.146605
0.374789
0.177062
0.0485583
0.0400161
0.0175447
0.0137605
0.0953051
0.319948
0.305853
0.0668687
0.0288413
0.00772416
0.0404931
0.0503916
0.0464769
0.0343474
0.0368569
0.0887211
0.125455
0.0552265
0.02792
0.0632909
0.0261297
0.0374343
0.0314035
0.0590612
0.0956678
0.229012
0.0695224
0.0174824
0.0250264
0.0308944
0.0117702
0.0549328
0.279787
0.498947
0.313527
0.156749
0.000631787
0.027266
0.0202099
0.00566213
0.0670304
0.274949
0.473807
0.0900161
0.0345755
0.0122689
0.0368862
0.0236573
0.033143
0.0244838
0.149244
0.118743
0.182027
0.142228
0.027044
0.0233902
0.0643482
0.0428466
0.0180832
0.171549
0.181465
0.382818
0.117282
0.00659462
0.012488
0.00265202
0.00374409
0.046295
0.222602
0.272909
0.234382
0.0615364
0.0241163
0.00702649
0.0418928
0.0666851
0.203267
0.508264
0.198543
0.114397
0.0100016
0.0204322
0.152529
0.0574257
0.0171177
0.125269
0.157364
0.151373
0.0401691
0.0176771
0.0126618
0.0637918
0.0627358
0.115442
0.272159
0.374582
0.12695
0.121658
0.0228161
0.0233984
0.209573
0.136182
0.103437
0.0855452
0.108079
0.157416
0.0660512
0.0559485
0.0487325
0.118872
0.114344
0.220795
0.232412
0.406194
0.128314
0.0194796
0.0437955
0.0549476
0.0183155
0.0251887
0.0737065
0.0982276
0.0684098
0.0135316
0.0555857
0.230109
0.178736
0.0473619
0.0237138
0.0581561
0.0344373
0.00690259
0.0400721
0.0105583
0.101268
0.169506
0.0489751
0.0186763
0.0445028
0.0837919
0.16738
0.0128981
0.022954
0.538265
0.632569
0.0759249
0.00273254
0.00703979
0.0177776
0.0435506
0.0118411
0.0209899
0.162727
0.169606
0.038456
0.00893694
0.00737989
0.005653
0
0.00899928
0.0904857
0.223303
0.268282
0.0278438
0.0105401
0.000754708
0.00598499
0.0259003
0.020011
0.0169797
0.353367
0.379147
0.0127922
0.00458836
0.000299562
5.28639e-005
0
0.00234183
0.0966275
0.577214
0.363376
0.00607328
0.024087
0
0.000747183
0.00559474
0.00439256
0.15874
0.132236
0.0781145
0.00519495
0.00622617
0
0.0046133
0.0294687
0.0648216
0.371814
0.138842
0.00563091
0.000598135
0.000731054
0
0.000659043
0.00899996
0.140477
0.236062
0.360716
0.162933
0.000497068
0.00776155
0.0012592
0.0118432
0.0105865
0.0253784
0.638746
0.240729
0.0575076
0
0
0.00881442
0.0269425
0.00696233
0.149591
0.228008
0.0236607
0
0
0
0
0
0
0.156864
0.152452
0
0
0
0
0
0
0.068167
0.338311
0.502564
0.0320145
0.000497649
0
0
0.00266433
0.00504395
0.000315449
0.278295
0.261599
0.000213679
0
0
0
0
0.00281956
0.08542
0.56399
0.0445293
0
0
0
0
0
0.0074781
0.163837
0.255111
0.0164787
0
0
0
0
0.000211293
0.122157
0.333345
0.165781
0.0441996
0
0
0
0
0
0.0284451
0.310351
0.469312
0.00561257
0
0
0
0
0
0.134342
0.567155
0.193006
0.0275776
0.00946532
0.00530346
0.00598183
0.00310364
0.0145317
0.150373
0.349684
0.0394712
0.147919
0.0465954
0.0371242
0.0418728
0.0217255
0.0305366
0.0642632
0.223018
0.0853136
0.00234512
0.000875181
0.00258067
0.0035891
0.00517273
0.0230056
0.264613
0.521474
0.0548907
0.0596647
0.00595902
0.0273944
0.0251237
0.0362091
0.0530304
0.417374
0.41086
0.0287397
0.231276
0.0472861
0.0502783
0.0315747
0.0147197
0.0109585
0.0584744
0.23242
0.277053
0.209724
0.0859262
0.0646135
0.066562
0.00677499
0
0.127118
0.23909
0.273931
0.190541
0.106788
0.106289
0.0220606
0.063516
0.0306173
0.303306
0.295747
0.0656307
0.199289
0.365469
0.149952
0.115365
0.081152
0.0314715
0.132081
0.118556
0.0653678
0.279643
0.0933851
0.0606738
0.105219
0.00950906
0.000548439
0.0752058
0.176672
0.222331
0.137122
0.0806239
0.117494
0.102974
0.126851
0.0516228
0.201652
0.322626
0.150968
0.185181
0.303932
0.112571
0.223975
0.0401728
0.0185401
0.0561522
0.091558
0.0900877
0.119675
0.184263
0.216943
0.263795
0.134673
0.0495402
0.136913
0.0939977
0.0808459
0.129138
0.0305678
0.0528651
0.149742
0.0600596
0.0614292
0.018343
0.0404541
0.0460007
0.0636127
0.0459477
0.0761062
0.236408
0.0769771
0.0960923
0.0632586
0.146136
0.0254972
0.190782
0.217772
0.233845
0.161059
0.0794918
0.0170917
0.00392425
0.00548291
0.016467
0.0854912
0.195439
0.435063
0.493214
0.214088
0.0600451
0.0277445
0.0310676
0.0039581
0.0138311
0.0482592
0.126973
0.0809852
0.00971668
0.0137482
0.0171615
0.064837
0.00260415
0.0112787
0.192129
0.435761
0.0925475
0.00525182
0
0.00253836
0.0209701
0.000337897
0.0101461
0.0661743
0.294234
0.190152
0.0523782
0.0176678
0.00783056
0.0134973
0.000230263
0.0196994
0.1033
0.662804
0.292016
0.0208849
0.002033
0.000927954
0.00360305
3.28947e-005
0.00527817
0.150522
0.273543
0.0246199
0.004924
0.000890791
0
0
0
0.037573
0.377499
0.26981
0.0321156
0.0113727
0.00623554
0
0.00369597
0.00307239
0.00465065
0.103289
0.486804
0.158419
0.0205446
0.00734369
0
0
0
0.0310168
0.279809
0.48526
0.133354
0.154772
0.0514058
0.00328632
0.0258692
0.0208667
0.091637
0.364232
0.175883
0.0369448
0.00551489
0.011985
0.0798685
0.0210201
0.0123185
0.347044
0.211878
0.060214
0.00527783
0
0.0528061
0.191392
0.0454154
0.0982559
0.0931726
0.206536
0.22374
0.0938732
0.138358
0.0569752
0.166992
0.0797239
0.0929424
0.128448
0.070824
0.0310235
0.0120901
0.0374079
0.0950731
0.406623
0.169661
0.367155
0.261601
0.0291043
0.000495957
0
0
0.0149725
0.0348442
0.0195947
0.188861
0.188804
0.000578865
0
0
0
0
0.00280997
0.0716883
0.434734
0.156989
0.00580833
7.0851e-005
0
0.00296668
0.0208498
0.0767292
0.0574483
0.43139
0.288431
0.000347319
0
0
0
0
0.000401424
0.0229088
0.552143
0.0395158
0
0
0
0
0
0.0232253
0.235554
0.245818
0.00602679
0
0
0
0
0
0.149028
0.511542
0.117224
0.149502
0.00134557
0
0
0
0
0.00621163
0.0689548
0.465885
0.0942647
0.00968799
0
0.0130519
0.0101062
0.052259
0.153925
0.252924
0.435871
0.000331051
0
0
0
0.00195483
0.00819249
0.256459
0.310512
0.0337
0.0051282
0.000358078
0.00680349
0
0.0136838
0.0381376
0.377941
0.201922
0.00575853
0.0275738
0.0044624
0
0.0138797
0.0187792
0.0936636
0.424847
0.219693
0.099874
0.00886425
0.000517693
0.000971927
0.00198282
0.0244485
0.179356
0.54333
0.144011
0.00445038
0.0262405
0.0300299
0.0372283
0.000551414
0.0365372
0.0789384
0.358056
0.149634
0.00142346
0.0474771
0.133274
0.0360564
0.0183494
0.057787
0.124293
0.195283
0.0732691
0.000269808
0.000137218
0.00101181
0.00475717
0.00582457
0.0340331
0.241959
0.546817
0.163644
0.00438902
0.0154844
0.0111063
0.00838702
0.0530552
0.0642562
0.251092
0.37772
0.286404
0.00211338
0.082319
0.216626
0.0381605
0.09136
0.0440659
0.0967042
0.0976071
0.081572
0.00447684
0.0626268
0.139453
0.0532968
0.160977
0.131566
0.0958365
0.148134
0.0607446
0.00746139
0.0976949
0.100031
0.0288739
0.133871
0.107428
0.288126
0.242466
0.311674
0.0310478
0.0700505
0.220062
0.0579287
0.389504
0.311332
0.161795
0.166596
0.119497
0.0419364
0.0456095
0.115945
0.124577
0.0698388
0.0603539
0.0428096
0.0294809
0.0159025
0.00278088
0.0109825
0.10754
0.284377
0.344247
0.207749
0.0953519
0.0350225
0.0095415
0.000129701
0.0885218
0.0634207
0.0540668
0.0607411
0.0996258
0.120341
0.080984
0.0317749
0.0894569
0.0215969
0.0282364
0.151836
0.490992
0.427691
0.264452
0.0988446
0.0182665
0.0359262
0.000588187
0.0192374
0.111866
0.161707
0.104069
0.0151779
0.00162764
0
0
0.00411731
0.0166569
0.341581
0.32718
0.0836164
0.00152831
0
0
0
0
0.00309285
0.0408693
0.26071
0.231733
0.0251859
0.0045997
0
0
0
0.00348617
0.13546
0.549743
0.467555
0.000817798
0
0
0
0.00193509
0.0297924
0.473067
0.267941
0.0523819
0.00907068
0.0024362
0.000812068
0
0.0184368
0.0643074
0.305373
0.136054
0.23598
0.0602043
0.0166141
0.0826429
0.0722013
0
0.00453485
0.175799
0.344955
0.315985
0.010806
0.00406034
0.00135345
0
0.00645362
0.0700991
0.186463
0.258064
0.288857
0.0574063
0.0142995
0.0510883
0.0653895
0.0658021
0.0717885
0.105563
0.0434433
0.149045
0.0390057
0.0533158
0.128938
0.191078
0.15014
0.0551267
0.0217779
0.00447133
0.0387958
0.0324458
0.105329
0.141406
0.430535
0.0973767
0.236477
0.210501
0.165934
0.118533
0.0320507
0.00858129
0.066831
0.140065
0.373821
0.193587
0.120051
0.0324132
0.0181727
0.00522529
0.001093
0.0459586
0.466483
0.131354
0.003373
0
0
0.00267037
0.00399583
0.0174777
0.0276328
0.324454
0.216875
0.000476069
0
0
0
0
0
0.00629839
0.472845
0.226969
0.00880361
0.00778535
0.00101017
0.000381481
0.000254321
0
0.00831988
0.390066
0.295979
0.000793448
0
0
0
0
0.00175336
0.0278091
0.512687
0.175565
0.0043034
0
0
0
0
0.00210914
0.0169519
0.460692
0.20866
0.0391198
0.00147751
0.0421118
0.0326688
0.0625835
0.0447113
0.0504676
0.407005
0.196753
0.00320924
0
0
0.00487924
0.0146377
0.029943
0.145241
0.440859
0.192794
0.0369758
0.00246252
0.0265377
0.0638991
0.0812696
0.253491
0.236292
0.231479
0.0771069
0.0219712
0.00427911
0.0455438
0.0549913
0.113965
0.208692
0.0426485
0.0842721
0.0124306
0.00187102
0.00256746
0.00699529
0.0483654
0.353797
0.491703
0.0316429
0.00136878
0.0710769
0.0243486
0.00713184
0.0315735
0.112606
0.124518
0.185787
0.0528968
0.027772
0.0047954
0.00228036
0.00427911
0.00735067
0.217829
0.595439
0.137014
0.00162535
0
0
0
0.000660971
0.00505944
0.0722713
0.298229
0.216722
0.0321671
0.00117687
0.0103097
0
0.00267658
0.0417282
0.125092
0.235267
0.145119
0.0904454
0.00131365
0
0
0.00303281
0.00526903
0.234801
0.602779
0.0558389
0.000474964
0
0.00147282
0
0.0052318
0.0210117
0.255571
0.446887
0.08593
0.00423153
0.000163646
0.0793489
0.0317482
0.00918867
0.0890912
0.161921
0.299757
0.117431
0.126418
0.0229063
0.0671105
0.180391
0.0798731
0.193356
0.119546
0.0877499
0.0506814
0.0527909
0.0309396
0.0645947
0.0406616
0.0370448
0.0755501
0.293052
0.615745
0.0984808
0.0124352
0.00687075
0.107822
0.200137
0.108447
0.143286
0.103419
0.182311
0.0506358
0.0313915
0.0310991
0.162277
0.0936495
0.0512079
0.0340215
0.0851467
0.0527257
0.0316186
0.0192722
0.147504
0.105443
0.0119885
0.0757503
0.209561
0.359503
0.255014
0.0389356
0.0092527
0.0774429
0.161094
0.0935378
0.0398047
0.0553573
0.123545
0.0530667
0.146917
0.198015
0.185988
0.125959
0.012787
0.0315967
0.0714973
0.325222
0.455264
0.214705
0.101154
0.103564
0.0017109
0
0.0117574
0.110417
0.202319
0.0529123
0.00162413
0
0.0011406
0
0
0.00639297
0.238349
0.553922
0.028276
0.000791816
0
0
0.00285151
0
0.00170721
0.0262929
0.267282
0.180486
0.0157864
0.000626308
0.001901
0
0
3.00979e-005
0.0538738
0.572436
0.295692
0.00586218
0
0
0
0
0.00690893
0.148679
0.433702
0.0283648
0.00404232
0.000329514
0
0.000912482
0.0344657
0.0539145
0.206875
0.378365
0.189736
0.0388675
0.0167514
0.00686968
0
0
0.000748867
0.0360641
0.490753
0.215086
0.0139053
0.00434394
0.00367749
0.0101865
0.0182653
0.0188745
0.0512838
0.251138
0.303751
0.134734
0.167328
0.0242222
0.0398265
0.104405
0.11506
0.172004
0.163483
0.11724
0.0434202
0.0580746
0.0286949
0.256539
0.0869543
0.119445
0.0624751
0.0403804
0.0130621
0.0246918
0.0737078
0.335891
0.0551594
0.0285229
0.0374423
0.0635983
0.110227
0.157382
0.133628
0.311022
0.122615
0.240429
0.015379
0.0410352
0.0394928
0.0328036
0.0149134
0.0521108
0.250724
0.566552
0.186556
0.00385922
0.0107757
0.00268775
0
0
0.00192682
0.00819663
0.330669
0.260488
0.00804262
0
0
0
0
0.00171621
0.0288673
0.43596
0.196329
0.000444933
0.00382122
0.00161265
0
0
0.00321137
0.0200494
0.410933
0.331367
0.0132292
0
0
0
0
0.000245173
0.00654789
0.479079
0.197662
0.0474567
0.0415956
0.0063108
0.0156389
0.0469167
0.0269804
0.132791
0.306488
0.0722812
0.093409
0.121636
0.0789803
0.130294
0.148472
0.204486
0.159997
0.0893014
0.354789
0.138289
0.0843415
0.010518
0.00938333
0.02815
0.0044361
0.0316378
0.332531
0.228037
0.332863
0.363549
0.210666
0.0832549
0.0692784
0.0342355
0.0443998
0.108599
0.0148304
0.0270951
0.0471538
0.0900349
0.196377
0.105832
0.116714
0.0287969
0.00401617
0.000518812
0.000345875
0.00378869
0.0557351
0.401501
0.32332
0.00993558
0
0
0.0385887
0.0941841
0.180788
0.242912
0.158374
0.0402546
0.0191388
0.00935088
0.00581491
0
0.000713605
0.0174416
0.25329
0.627011
0.0676552
0.00138983
0
0
0
0
0.00100939
0.0204747
0.339396
0.277907
0.00167731
0
0
0
0
0.00168232
0.0167381
0.315036
0.205113
0.0118508
0
0
0
0.000543343
0.00217337
0.176283
0.565143
0.0828952
0.00220507
0
0
0
0.0038034
0.0152136
0.143709
0.468793
0.0985287
0.00367512
0
0
0.0128423
0.00884399
0.0308352
0.06611
0.364927
0.264184
0.017864
0.000335295
0.00301766
0.0581215
0.0529019
0.0562548
0.142436
0.171009
0.104641
0.0213736
0.0184677
0.0232234
0
0.0029723
0.0208947
0.215406
0.600492
0.133276
0.0329495
0.0166854
0.00306861
0.075842
0.0259554
0.0395936
0.190727
0.363589
0.103873
0.0884748
0.0397123
0.0426794
0.0847393
0.0183864
0.0020303
0.0197051
0.0621854
0.0310765
0.131579
0.208461
0.221169
0.0216366
0.00116347
0.000129275
0.050154
0.230809
0.335286
0.251137
0.118448
0.0891349
0.162506
0.0334501
0.0196891
0.0427074
0.0554591
0.0258392
0.0539284
0.102017
0.412005
0.0519588
0.0283054
0.0313328
0.101828
0.344534
0.261921
0.183349
0.114228
0.23256
0.000600181
0
0
0.0168767
0.191137
0.18832
0.0360907
0.00240817
0.00119726
0
0
0
0.00477535
0.347537
0.496461
0.0982079
0.000278242
0
0.00175361
0.0013611
0.00364202
0.0201215
0.146358
0.144721
0.128779
0.0498259
0.0254749
0
0
0
0.00367019
0.11484
0.479377
0.428455
0.0293809
0.00923163
0.00245143
0
0.00300804
0.0154572
0.159494
0.324986
0.107807
0.00342715
0.00346747
0.0292228
0.0450038
0.12219
0.124603
0.0458174
0.100839
0.0570201
0.0890241
0.0222041
0.00408572
0
0.00304224
0.0277613
0.0696783
0.405275
0.523724
0.0420319
0.00069196
0.0218918
0.0364692
0.234726
0.251099
0.246562
0.195543
0.258216
0.0743345
0.00492135
0.11431
0.0751172
0.148799
0.0736015
0.0108631
0.0216843
0.0368309
0.142707
0.114094
0.274355
0.03892
0.0653397
0.0106566
0.00181278
0.00149585
0.0103936
0.086359
0.422704
0.0786468
0.0903535
0.34103
0.162055
0.157407
0.0421399
0.0844048
0.0460491
0.0648633
0.333295
0.0783681
0.194503
0.0338897
0.0414946
0.00431891
0.0812898
0.0405585
0.476388
0.164519
0.00111203
0.00297175
0
0
0
0.000465809
0.00585169
0.310864
0.226372
0.0019189
0
0
0
0
0.00151564
0.0155885
0.395104
0.24669
0.00552792
0.0117771
0
0
0
0.00804165
0.00475567
0.426377
0.30921
0.00697662
0.0148956
0
0
0
0.00644157
0.0479112
0.525077
0.216878
0.0410733
0.0158444
0.00140985
0
0.00299502
0.0460713
0.0819025
0.324017
0.174644
0.132782
0.115925
0.0537931
0.00387787
0.0321768
0.233206
0.136787
0.151536
0.19768
0.0237541
0.0586236
0.059605
0.010145
0.0165814
0.130182
0.1993
0.336781
0.0766577
0.0393621
0.0732468
0.150844
0.12083
0.144095
0.49974
0.255389
0.10487
0.0309549
0.0424064
0.0821843
0.0697173
0.0368235
0.0341711
0.108761
0.0276571
0.0107188
0
0.0055025
0.0604986
0.326365
0.301981
0.0203462
0.00998943
0
0
0.0226602
0.0290347
0.162911
0.108886
0.154588
0.122706
0.212247
0.0457006
0.0110145
0.00598722
0.0384477
0.578568
0.472941
0.146769
0.0269621
0.0183835
0
0
0
0.0022828
0.036339
0.34579
0.332515
0.0287683
0.000947483
0
0
0
0.0120756
0.102985
0.19991
0.289005
0.0505439
0.00157914
0
0
0.000970766
0.0331059
0.272111
0.467658
0.155171
0.0323741
0
0
0
0.00291102
0.0683383
0.19051
0.3732
0.249997
0.0721078
0
0
0.00129308
0.000869455
0.0216928
0.100321
0.270344
0.389308
0.0452299
0.0377174
0.0204422
0.00310187
0.056217
0.0544343
0.110644
0.159565
0.193797
0.03533
0.0770373
0.0405458
0.04569
0.0226837
0.0909705
0.234295
0.467488
0.389199
0.0320385
0.0164219
0.0212277
0.0125163
0.112456
0.10315
0.156597
0.211277
0.164686
0.000247717
0.0277866
0.0705559
0.0349575
0.132509
0.193546
0.0587433
0.0628985
0.020657
0.0308572
0.0200414
0.0954331
0.227964
0.0839498
0.161
0.167657
0.102203
0.216319
0.146587
0.117901
0.115445
0.164671
0.193961
0.326131
0.120513
0.0778472
0.0220307
0.0519711
0.00286305
0.098163
0.232757
0.0892408
0.293336
0.229348
0.0764646
0.165596
0.22866
0.124919
0.113008
0.219018
0.00302604
0.00962986
0.0260929
0.0089991
0.0771698
0.0848391
0.187919
0.0918773
0.0494488
0
0.000526928
0.000283731
0.000323555
0.0410024
0.227331
0.52473
0.0705699
0.0252708
0.0084534
0.0588717
0.0425491
0.0116782
0.0493941
0.109999
0.247531
0.0944544
0.0569612
0.00468591
0.0280183
0.00277201
0.00281326
0.0300328
0.179085
0.609332
0.174175
0.0317667
0.000450124
0
0.00021301
0.00523401
0.0351391
0.118831
0.382615
0.0730182
0.00131142
0.000750207
0.00232412
0.0428461
0.0441718
0.190146
0.101448
0.38256
0.205344
0.0105014
0.000308145
0.00585477
0
0.00180499
0.0169914
0.0491476
0.308579
0.153642
0.0122179
0.0023169
0.000836395
0
0.0109746
0.0554541
0.0187245
0.455993
0.452836
0.0325025
0.01373
0.0114451
0.0629339
0.0280733
0.117678
0.0323751
0.139278
0.145246
0.0744031
0.140846
0.0148876
0.0402921
0.00783668
0.0311734
0.00324464
0.0696741
0.080199
0.403278
0.0164868
0
0
0.00357792
0.0258786
0.00514345
0.193309
0.453776
0.109002
0.109123
0
0
0
0.00445334
0.00046352
0.035898
0.384362
0.518716
0.149403
0.00153282
0.0030143
0
0
0
0.0065929
0.00472633
0.344445
0.210984
0.00853325
0.0122121
0
0
0
0.00169448
0.0108679
0.411348
0.168271
0
0
0
0
0
0.000941842
0.0638805
0.469584
0.350395
0.0475303
0.00531895
0
0
0
0
0.00305186
0.469584
0.188219
0.0616855
0.0572113
0.0666705
0.0155219
0.00489961
0.0294529
0.0439667
0.221494
0.11555
0.19345
0.14569
0.195321
0.117068
0.0415873
0.0932218
0.0515263
0.0399214
0.333493
0.240669
0.0426945
0.0212087
0.00722497
0
0
0
0.268494
0.31378
0.562002
0.19785
0.0783518
0.0318129
0.000182588
0
0
0.05327
0.0380817
0.137969
0.236929
0.11486
0.11073
0.0347488
0.0344111
0.00870774
0.00445076
0.013101
0.0978712
0.528244
0.167079
0.0370506
0.00744891
0.00271602
0
0
0.106898
0.323836
0.31248
0.0544214
0.0220835
0.000452458
0
0
0.0133481
0.0261698
0.250855
0.486609
0.0838654
0.00956326
0.000271475
0
0
0.00181604
0.00863011
0.126359
0.363611
0.241893
0.0457541
0.0130567
0
0
0.00519273
0.0214761
0.199846
0.178537
0.272785
0.185262
0.0679347
0.00188317
0.00290787
0.0257774
0.0437551
0.259048
0.472322
0.143122
0.0329199
0.00232063
0
0.0126616
0.0419222
0.091768
0.296051
0.259034
0.112556
0.127157
0.0471164
0.0411158
0.0608034
0.130141
0.0637935
0.133564
0.224138
0.320212
0.289692
0.0844681
0.0417275
0.0333658
0.120908
0.120658
0.0330122
0.0660559
0.103382
0.151647
0.0477393
0.0657097
0.0914612
0.114441
0.101753
0.163908
0.142067
0.101773
0.276074
0.106557
0.144117
0.103844
0.269569
0.0686803
0.00811797
0.129604
0.0992931
0.39893
0.0940503
0.107651
0.0519573
0.167558
0.219776
0.14394
0.0545927
0.095901
0.0247153
0.0252083
0.00137472
0.0410032
0.229563
0.10445
0.184043
0.0592808
0.0622773
0.0925842
0.15932
0.04041
0.0785782
0.198142
0.285154
0.210288
0.0886884
0.343045
0.0100651
0.0615272
0.0304228
0.0892154
0.272946
0.125605
0.274272
0.208096
0.214633
0.0230464
0.206084
0.0839896
0.105136
0.146737
0.0664301
0.101146
0.0273836
0.0202437
0.076925
0.139082
0.170767
0.089337
0.114807
0.02759
0.0847812
0.007399
0.032664
0.129966
0.293295
0.486953
0.193016
0.0483008
0.0867933
0.162534
0.196933
0.0569313
0.062915
0.0951109
0.0682242
0.102023
0.133261
0.0535225
0.112539
0.0880241
0.0452364
0.220471
0.2521
0.265763
0.221595
0.140397
0.00168042
0.0331967
0.00173224
0.00808925
0.0202471
0.0771777
0.248249
0.222059
0.012989
0.012539
0.0116612
0.00103934
0.0195945
0.00240709
0.0057487
0.298115
0.537542
0.100487
0.0354841
0.0700492
0.0121257
0.00798867
0.0408747
0.0998893
0.156685
0.190408
0.0640016
0.0499024
0.0673668
0.00727541
0.00279922
0.000311024
0.01373
0.208136
0.490036
0.19315
0.0105026
0.00126084
0
0.00477239
0.000530265
0
0.0921301
0.389672
0.130123
0.0406751
0
0
0
0
0
0.0297016
0.417702
0.484769
0.0307895
0.0173941
0
0.00068177
7.57522e-005
0.000835367
0.0988896
0.273522
0.163085
0.0557721
0.0142804
0
0
0
0
0.0698327
0.246042
0.410379
0.133621
0
0
0
0
0
0.00177327
0.0895801
0.431661
0.445362
0.0585779
0.00466025
0
0
0
0
0.00513267
0.348275
0.126605
0.00158976
0
0
0
0
0.00570111
0.0575776
0.358946
0.373377
0.0298913
0.00066575
0
0
0
0
0.00617252
0.349794
0.389004
0.226826
0.0355058
0
0
0
0
0
0.113417
0.336811
0.40432
0.0894678
0.000768149
0
0
0
0
0.0314664
0.357246
0.130355
0.0110054
0
0
0
0
0.000337096
0.142264
0.405772
0.320679
0.0344613
0
0
0
0
0
0.020866
0.174549
0.267046
0.211691
0.021033
0
0
0
0
0.0211614
0.0647894
0.299135
0.429488
0.0740497
0.00712524
0
0
0
0.00302306
0.302455
0.29485
0.143993
0.0346413
0
0
0
0
0.0143557
0.161894
0.34657
0.379887
0.0736832
0.00354445
0.0101062
0
0.000572462
0.0285648
0.0512362
0.291235
0.493434
0.11534
0.0349405
0.000386286
0
0.0595684
0.0436757
0.0789857
0.203746
0.271389
0.0660339
0.0418744
0.0114378
0.0584239
0.143865
0.157402
0.0704982
0.333621
0.325101
0.0693417
0.0124165
0.0315127
0.00332432
0.0481951
0.0691032
0.0614526
0.223573
0.172513
0.09962
0.0185161
0.0577199
0.0207432
0.08393
0.163805
0.073703
0.122105
0.0961089
0.0975687
0.148504
0.0289897
0.113457
0.0812292
0.158056
0.045579
0.0275196
0.123466
0.207852
0.38021
0.0380071
0.0414083
0.0210175
0.0739037
0.0665093
0.129835
0.152099
0.168747
0.225509
0.0614223
0.0436326
0.0282454
0.145516
0.019914
0.0379668
0.130774
0.249912
0.493853
0.212035
0.0212055
0.005827
0.0311356
0.305635
0.180022
0.0394122
0.135376
0.000366917
0.0654471
0.0642004
0.0659332
0.295219
0.166157
0.272525
0.159968
0.105268
0.00022015
0.159028
0.138328
0.0980333
0.251432
0.173094
0.0868606
0.0203664
0.00400239
0.00746023
0.0331934
0.0663604
0.0950724
0.241237
0.273651
0.294785
0.116711
0.0238571
0.00647199
0.0365442
0.0812576
0.0866927
0.219732
0.135153
0.262545
0.205108
0.0458492
0.0102774
0.0548724
0.068162
0.0749307
0.146242
0.139076
0.111744
0.0897098
0.0134202
0.0583791
0.113051
0.281395
0.321996
0.174616
0.257049
0.22462
0.111711
0.0572696
0.0133098
0.0145569
0.0389348
0.0813145
0.139055
0.243171
0.060899
0.0433022
0.0324658
0.0506847
0.109303
0.150779
0.334712
0.204539
0.13567
0.047407
0.00658569
0.00137825
0.014454
0.045787
0.116507
0.215167
0.130144
0.190971
0.0533429
0.00395141
0
0
0.00872043
0.155195
0.428415
0.264852
0.218947
0.0200829
0.0185699
0.00618997
0.0379307
0.0494449
0.0658963
0.154489
0.118779
0.403056
0.118791
0.0937039
0.0103166
0.0110678
0.00713083
0.0280874
0.273457
0.341031
0.179257
0.0552493
0
0
0
0.00129977
0.0783702
0.215129
0.169765
0.192634
0.0696939
0
0
0
0
0.0351136
0.175164
0.469688
0.305068
0.104808
0.0467086
0.000974189
0
0.0597507
0.0187145
0.112147
0.235724
0.344552
0.0689507
0.00684308
0
0.00445114
0.119872
0.0524737
0.0517231
0.428798
0.1562
0.00711573
0
0
0
0
0.0025887
0.0606705
0.404805
0.343433
0.0567813
0.000798894
0
0
0
0
0.0166645
0.441526
0.217449
0.0165366
0.00135889
0
0.00378472
0.0230715
0.0156407
0.0244319
0.323591
0.326035
0.0507349
0.00640759
0
0.000540674
0.00100411
0.000225582
0.0207305
0.392992
0.318859
0.194411
0.0139294
0
0
0
0
0.0015842
0.179471
0.471978
0.398316
0.027103
0
6.4903e-005
0.000584127
0
0
0.0213932
0.299081
0.131088
0.0411912
0.0124901
0.00619718
0.00015627
0.00246624
0.0110143
0.18086
0.402863
0.234258
0.0515474
0.0268464
0.0151374
0.012989
0.0172637
0.0058318
0.0380916
0.529487
0.349434
0.0535587
0.0140746
0.00025989
0.00233902
0.000505293
0.00567611
0.0688075
0.299659
0.28366
0.148598
0.0234576
0.00462117
0.0192644
0.00353705
0.0556811
0.202609
0.306626
0.174786
0.0203833
0.024788
0.0184332
0.0284652
0.0156929
0.0162573
0.0818987
0.151208
0.0726195
0.0254722
0.0230679
0.0134096
0.0140182
0.0443614
0.148045
0.234071
0.10311
0.176608
0.0911177
0.0345906
0.0114562
0.0833494
0.0370301
0.0881533
0.172138
0.204812
0.161137
0.119281
0.089209
0.0232578
0.214405
0.0853001
0.153882
0.185537
0.10399
0.0337597
0.0198512
0.0160331
0.0117052
0.038443
0.0765249
0.243471
0.231212
0.423065
0.120245
0.0488667
0.0225609
0.058342
0.126623
0.124688
0.370781
0.230229
0.175148
0.129097
0.195227
0.106103
0.11815
0.0768173
0.0218377
0.0456245
0.102355
0.0352308
0.100766
0.248612
0.179799
0.256277
0.142077
0.00269931
0.00397133
0.0165084
0.438078
0.291012
0.15133
0.0612405
0.0364394
0.0377565
0.0287043
0.0996035
0.112105
0.159133
0.262751
0.257902
0.188202
0.0699223
0.0170516
0.0192326
0.0471239
0.0703232