0.0433323
0.0202946
0.0311458
0.023851
0.012308
0.0685017
0.203887
0.34118
0.0757852
0.0638648
0.042691
0.0489141
0.104256
0.0984865
0.0951939
0.0575045
0.348491
0.251451
0.0546157
0.0657856
0.0230106
0.00366569
0.0411205
0.222112
0.178461
0.225996
0.0860114
0.0771644
0.0334877
0.0378148
0.040823
0.157455
0.156311
0.145539
0.253318
0.22807
0.0355999
0.00763808
0.0197006
0.0220284
0.0565642
0.0359395
0.0262828
0.0439443
0.129498
0.0162212
0.0124891
0.0546298
0.033811
0.328234
0.676953
0.0790687
0.0432215
0.0587403
0.0422089
0.00633738
0.00954578
0.0136205
0.0470065
0.0285895
0.0559463
0.0534589
0.137729
0.0267204
0.0273167
0.036391
0.0406234
0.216147
0.409436
0.124936
0.0591874
0.103707
4.0695e-005
0.00161613
0.00646451
0.00691467
0.143909
0.368655
0.0891321
0.00863131
0.00189029
0
0
0
0.0123448
0.0931139
0.320532
0.516397
0.030282
0.00781962
0.00111507
0.00418717
0.0125375
0.0385738
0.149858
0.335426
0.0675956
0.00589083
0.00550691
0.00631924
0.0222837
0.0708207
0.0829652
0.173062
0.387458
0.262451
0.0123931
0.00801492
0.00249639
0
0.000449336
0.0045143
0.0155302
0.142437
0.421842
0.100169
0.00506156
0.0245087
0.0161374
0.0193202
0.029502
0.0201922
0.0872326
0.323926
0.311983
0.0509784
0.0623183
0.105178
0.0453301
0.0213838
0.0371963
0.164265
0.290415
0.0997441
0.0369656
0.309925
0.432902
0.0051092
0
0.017956
0.0893686
0.19293
0.22367
0.0711478
0.0552364
0.0279149
0.01876
0.0407203
0.0157573
0.0341147
0.112639
0.260304
0.10954
0.100477
0.0193617
0.00467395
0.0179344
0.0048852
0.036586
0.0752766
0.286516
0.221359
0.387365
0.281768
0
0
0.0168661
0.0371674
0.0491899
0.147739
0.0896371
0.523415
0.0504498
0
0
0.00240944
0.00793647
0.0248308
0.166938
0.362296
0.0596217
0.0272341
0.00163228
0.00281142
0.000781124
0.0145339
0.0597238
0.192579
0.240348
0.076684
0.0567888
0.000834165
0.00125125
0
0.000729066
0.0211747
0.165167
0.391506
0.251494
0.00568059
0
0
0
0
0.00819038
0.113861
0.46997
0.0818102
0.0110012
0
0
0
0
0.0603004
0.25689
0.530106
0.0744843
0.0149348
0.004466
0.000193784
0
0.00584469
0.0159512
0.158612
0.302173
0.0850152
0.0268016
0.061264
0.0068281
0
0.0525878
0.051004
0.171449
0.147352
0.0214592
0.00253068
0
0
0
0.00350681
0.153922
0.428724
0.313672
0.0315749
0.0101027
0.00613486
0.00328297
0
0.026726
0.267249
0.59058
0.150378
0.0840219
0.13587
0.145942
0.0387925
0
0.0513141
0.0619401
0.106453
0.0413885
0.232933
0.257346
0.144174
0.0495551
0.000741378
0.00639893
0.0333978
0.0277194
0.0860443
0.0604221
0.108571
0.0433522
0.0170233
0.0048692
0.0330084
0.262903
0.559537
0.139319
0.246441
0.22174
0.130343
0.0193656
0.147282
0.119989
0.230291
0.164134
0.172458
0.178733
0.124487
0.068261
0.0465783
0.00337517
0.0004692
0.0182049
0.0234342
0.111065
0.122797
0.0768899
0.043031
0.141091
0.0286856
0.0359119
0.0336733
0.120122
0.22834
0.353797
0.108886
0.0811221
0.0321537
0.127461
0.082368
0.0579458
0.0511524
0.179149
0.377658
0.0641307
0.0426301
0.0716213
0.0393221
0.037872
0.00572926
0.321787
0.528362
0.0765049
0.07357
0.0497599
0.000819326
0.0373416
0.132358
0.1779
0.181199
0.114165
0.0448231
0.120795
0.0951271
0.0219949
0.0842144
0.144348
0.184216
0.130877
0.088903
0.130777
0.13657
0.063756
0.0605267
0.0698645
0.106019
0.248079
0.194693
0.369471
0.0898575
0.265898
0.129453
0.0766887
0.105371
0.14916
0.223778
0.0981394
0.123536
0.0144592
0.0125197
0.0162741
0.00693014
0.0124413
0.0239326
0.0318473
0.0198831
0.0290141
0.0246356
0.0280302
0.13444
0.0270185
0.0992296
0.0774693
0.0264513
0.0149043
0.0348168
0.029941
0.023457
0.0764678
0.0447648
0.0129783
0.0309542
0.0547567
0.0114756
0.0151698
0.059869
0.0900701
0.890167
0.213263
0.0354231
0.0124637
0.0332788
0.00584928
0.0588076
0.00694593
0.0162966
0.151097
0.0775734
0.111382
0.0912089
0.00717986
0.000817082
0.00332763
0.0229526
0.133736
0.28723
0.135047
0.109168
0.108088
0.0196466
0.00922579
0.00754836
0.0381043
0.118997
0.541135
0.0984491
0.0353264
0.00581343
0.00150356
0.000492726
0.00861863
0.0608968
0.356876
0.541135
0.0957519
0.0284606
0.00460054
0
0.00131797
0.00107834
0.0760155
0.262566
0.118542
0.0227152
0.0156219
0.0341972
0.0356968
0.0375918
0.0274386
0.268306
0.483745
0.0150112
0
0.00250579
0.013476
0.025
0.0386737
0.0374502
0.0556521
0.357878
0.295395
0.0124011
0.00278843
0.000266987
0
0.00321152
0.0142081
0.276753
0.432775
0.253183
0.00252711
0
0.00111991
0.00634612
0.00192691
0.0327025
0.300491
0.207672
0
0
0.00197407
0.0043502
0.00371032
0.00531522
0.0465754
0.420054
0.0344431
0
0
0.00028201
0.000928912
0.00933704
0.00833527
0.206087
0.420608
0.209851
0.112007
0.000903483
0.000516796
0.0127776
0.0167646
0.000989376
0.0508109
0.503384
0.0918126
0.0145857
0
0.000861327
0.0181402
0.0147553
0.00951215
0.308512
0.192341
0.00570512
0
0
0
0
0.00793061
0.0173535
0.269539
0.0713738
0.00800085
0
0.00533717
0.00133429
0
0.0361329
0.134627
0.342169
0.303667
0.00833892
0
0
0.000118102
0.00224393
0.00744206
0.0550117
0.510099
0.0901468
0.00480051
0
0.00889529
0.00222382
0
0.0263823
0.27055
0.510099
0.0112352
0.00123723
0
0.00619752
0.00344554
0
0.099876
0.239382
0.176709
0.00367457
0.00178973
0
0.00088536
0.00338161
0.000502649
0.238395
0.458585
0.101536
0.0224539
0.000742339
0
0.0103292
0.0158554
0.000402264
0.107724
0.363248
0.384304
0.0202548
0
0
0.0014756
0.0224908
0.00577036
0.283991
0.412023
0.168346
0.00733767
0.0230357
0.00874834
0.00164896
0.00703486
0.0185586
0.198295
0.321731
0.0563494
0.0214158
0.0441932
0.0290967
0.0133861
0.1576
0.176462
0.189031
0.142653
0.0379467
0.0199535
0.00187464
0.00124976
0.000989378
0.00703057
0.045242
0.340671
0.274501
0.0618355
0.0028505
0.00312441
0.00208294
0.00803169
0.115536
0.336061
0.551365
0.23043
0.0204285
0.0800138
0.0393819
0.0304878
0.0505418
0.233571
0.161212
0.103567
0.0243578
0.0307502
0.199768
0.0831461
0.0763159
0.0911975
0.137728
0.0279824
0.0211679
0.100908
0.20192
0.0139097
0.0132964
0.00601741
0.0576533
0.232333
0.356427
0.575787
0.0671874
0.00470148
0.163424
0.0947713
0.0717362
0.126998
0.235646
0.119372
0.128268
0.116394
0.144368
0.0293389
0.0403862
0.0794696
0.110627
0.156936
0.103796
0.104849
0.0890091
0.236477
0.0281925
0.0954379
0.0614257
0.14807
0.206848
0.0503784
0.169507
0.0830087
0.0994458
0.00890064
0.0544108
0.158763
0.125079
0.213909
0.324499
0.0800576
0.0365129
0.0933503
0.0421133
0.11765
0.178581
0.320827
0.265317
0.172328
0.12493
0.0361452
0.0991862
0.00521162
0.00706595
0.0553617
0.085941
0.0238384
0.0052537
0.0235307
0.0086827
0.00348988
0.0105359
0.061235
0.506384
0.276619
0.019851
0.00149485
0.0110867
0.00350778
0.010528
0.00426167
0.0153087
0.12337
0.239799
0.0464439
0.0116617
0.0162753
0.00865688
0.00490826
0.00288226
0.124731
0.492471
0.503548
0.0890878
0.00556773
0.0120816
0.00485996
0.00046478
0.0151314
0.130741
0.411551
0.107072
0.00523529
0.000777726
0.00313014
0.00272371
0.00295991
0.0201415
0.268404
0.413594
0.0263031
0.0132405
0.000466636
0.00365594
0.00443398
0
0.00118923
0.0994185
0.312767
0.204131
0.038336
0.00919115
0.0207452
0.00443398
0
0.000510747
0.241014
0.52279
0.146403
0.0347741
0.00784495
0.0156002
0.00738997
0
0.00823595
0.241298
0.280628
0.0164514
0.0230042
0
0.000318583
0.000477875
0.00281556
0.0959235
0.344777
0.342623
0.0453349
0.0546642
0.00739859
0.0165103
0.00239382
0.0337583
0.000356061
0.257775
0.421646
0.0866344
0.120318
0.0265853
0.000530972
0.0239205
0.00691003
0.0288592
0.271554
0.219948
0.21126
0.262783
0.0485199
0.0224411
0.175822
0.16914
0.219123
0.185952
0.157847
0.016902
0.0656287
0.0545687
0.061683
0.0305547
0.068539
0.371435
0.0555076
0.0159628
0.000478727
0.0334808
0.0638998
0.0424461
0.0561832
0.291847
0.0643656
0.0930808
0.0597057
0.0891696
0.17619
0.0565274
0.0854076
0.183824
0.385082
0.128384
0.00635419
0.00228041
0.00335109
0.0590256
0.0489359
0.0603051
0.137816
0.540844
0.13303
0.00185685
0
0
0.000301374
0.00572608
0.00784732
0.0344605
0.353738
0.0535861
0
0
0.00113012
0.000282531
0
0.0279536
0.173402
0.467934
0.0681588
0
0
0
0.000180824
0.00343565
0.00577403
0.0529013
0.5111
0.138834
0
0
0
0
0
0.00921111
0.058732
0.5111
0.030256
0
0
0.00109819
0.00411056
0.00234159
0.126682
0.253879
0.210623
0.0146736
0
0
0.000156885
0.00643258
0.0204486
0.433257
0.237709
0.0957621
0.125508
0.000936315
0.01779
0.00316519
0.00863584
0.0112127
0.101335
0.121219
0.453932
0.0473605
0.00156053
0.02965
0.0243059
0.0626005
0.103239
0.474523
0.207502
0.198559
0.0073242
0
0
0
0.0047926
0.0405179
0.320235
0.0953873
0.0406016
0.00101849
0
0
0
0.0447938
0.16152
0.452056
0.131953
0.0148618
0.00161249
0.000226565
0.00549753
0.0111826
0.0412296
0.160285
0.491896
0.0975643
0.0228266
3.55936e-005
0
0.00834958
0.00699548
0.0668541
0.275976
0.46967
0.0734363
0.00564317
0.00284245
0.00348078
0.000633324
0.0122815
0.0938256
0.224305
0.393345
0.0684714
0.000858082
0.0367113
0.0272864
0.00853223
0.0259628
0.105731
0.165284
0.158395
0.0398812
0.0387118
0
0.000361899
0.0034924
0.0155934
0.108523
0.35329
0.410732
0.0618356
0
0.00906611
0.00979735
0.00139684
0.018273
0.176599
0.499618
0.265744
0.0235712
0.00502179
0.00617281
0.0190822
0.0277079
0.0665796
0.165368
0.204933
0.0338173
0.0114403
0.0219829
0.0341479
0.0447739
0.0908264
0.202625
0.234
0.255143
0.0227942
0.00234734
0.0604981
0.0261884
0.034524
0.0209303
0.0909005
0.201652
0.161953
0.0560571
0.0363877
0.0493757
0.0425732
0.07278
0.120275
0.282692
0.475055
0.384084
0.0644792
0
0.0824208
0.00818897
0.0250194
0.163852
0.261285
0.125368
0.0619891
0.0171608
0.00441209
0.00808774
0.00948816
0.16711
0.33129
0.378928
0.160701
0.0231924
0.0331003
0.00860506
0.0039644
0.00390285
0.014854
0.0778892
0.154746
0.267213
0.179891
0.173428
0.0255318
0.00489681
0.00537917
0.0580409
0.145074
0.208425
0.344751
0.129098
0.362893
0.0576949
0.00556158
0.00184929
0.046973
0.140996
0.199304
0.0739164
0.0123548
0.015919
0.00206529
0.00187219
0.00117774
0.0979995
0.406344
0.360829
0.0732226
0.010439
0.00828334
0.00109416
0.000267456
0.00110957
0.0129187
0.109275
0.346897
0.242554
0.0181021
0.0532638
0.00768068
0.00312032
0.00440855
0.0191385
0.19375
0.509628
0.281194
0.0174835
0.00243466
0.000148587
0.00044576
0.0101843
0.127011
0.253308
0.142703
0.099969
0.0381116
0.000102176
0.0445276
0.0217076
0.129029
0.151411
0.0835225
0.112747
0.161663
0.0569007
0.0071715
0.254096
0.330814
0.0259772
0.068135
0.189468
0.218529
0.188637
0.0142565
0
0.0146519
0.0120652
0.263924
0.371285
0.372117
0.160412
0.172347
0.0143943
0
0.0489018
0.199775
0.0952731
0.0357224
0.0110842
0.0259464
0.0386853
0.00794067
0.0148464
0.0973404
0.393379
0.0774683
0.00145148
0.000136331
0.000992767
0.00772962
0.00180439
0.00989528
0.0552488
0.511196
0.192109
0.148703
0.0930332
0.0215345
0.0353696
0.00363209
0
0.0136986
0.391087
0.131493
0.0128786
0.00796598
0.00340451
0.00376371
0.000418189
0
0.0209128
0.511196
0.0439364
0
0
0
0
0
0.000183562
0.0419459
0.455044
0.0950345
0
0
0
0
0
0.00151241
0.0669856
0.467076
0.0643986
0
0
0
0
0
0
0.0294634
0.467076
0.100063
0
0
0
0
0.00447138
0.0526453
0.239295
0.467076
0.136566
0.00308137
0.0608131
0.0113881
0.0151415
0.0106981
0.0405731
0.119544
0.48457
0.0953883
0.00513561
0.113446
0.0867908
0.116592
0.110798
0.228304
0.133357
0.173385
0.12941
0.00184882
0.0389061
0.00786923
0.018809
0.100174
0.217985
0.408524
0.33326
0.121553
0.00507983
0.0909906
0.062234
0.145993
0.217327
0.205878
0.149583
0.0783909
0.0123956
0.000659162
0.0193375
0.0346637
0.0644588
0.240742
0.35321
0.0470446
0.0071268
0.000747272
0
0.0114025
0.0190815
0.0711046
0.344634
0.319292
0.0218779
9.12335e-005
0.0201431
0.00229083
0.0226108
0.0260195
0.138634
0.325027
0.138123
0.00524077
0.00723207
0.00129952
0.000270762
0.0193504
0.0209896
0.311886
0.503166
0.18794
0.022307
0.000638635
0.00569827
0
0.00783513
0.0725021
0.109764
0.322078
0.181942
0.0369988
0.00029991
0.0127869
0.00141274
0.000479728
0.0896583
0.227906
0.554829
0.114305
0.0250216
0.00160694
0.0398879
0
0.0241462
0.119245
0.250162
0.269034
0.0577289
0.0795443
0.00209937
0.0943022
0.0155572
0.00535502
0.180841
0.279911
0.328559
0.0856224
0.078563
0.0262627
0.0461707
0.0230882
0.0347968
0.0404077
0.0630233
0.0505616
0.0393301
0.0231587
0.0305747
0.0476249
0.122216
0.161075
0.144567
0.175756
0.108317
0.0426717
0.0341555
0.0448125
0.0633417
0.0223309
0.0547417
0.0457388
0.0768921
0.0480587
0.0524728
0.0185108
0.0240243
0.0648322
0.215468
0.231108
0.42673
0.629191
0.0663467
0.00839025
0.0575748
0.0245699
0.00190934
0.0728001
0.0958933
0.0601776
0.132934
0.0761207
0.127685
0.0181235
0.00267603
0
0.0451735
0.137409
0.13623
0.379837
0.0921172
0.263004
0.0277625
0.000756841
0.0046769
0.189437
0.17925
0.209596
0.265673
0.0493046
0.0751752
0.0158364
0.00211032
0.00330232
0.156954
0.24708
0.264803
0.473265
0.110083
0.152474
0.0135414
0.00330232
0
0.000826645
0.033096
0.217585
0.347765
0.0225909
0.0386664
0.00300859
0.00041353
0.00407544
0.00312009
0.0300695
0.248623
0.366083
0.0256113
0.00323225
0.00106719
5.90757e-005
0.00180435
0.00578652
0.0267608
0.103002
0.508782
0.135134
0.0181438
0.00100133
0.00180435
0.00285336
0.00160527
0.00170527
0.0947433
0.508782
0.155643
0.00727212
0.00174583
0.000257764
0.0134965
0.0147114
0.0708863
0.108953
0.282664
0.0682373
0.0348932
0.00431535
0.00586731
0.0896017
0.146248
0.193101
0.144867
0.361114
0.0930954
0.129952
0.0629913
0.0916215
0.0120286
0.0146312
0.0135672
0.0346561
0.220681
0.124202
0.149282
0.0343915
0.00921651
0.0709792
0.039776
0.0282082
0.0350078
0.227396
0.147184
0.523937
0.309515
0.21375
0.0849987
0.0811962
0.0716035
0.0346591
0.101604
0.0158014
0.0536363
0.0526694
0.26627
0.11126
0.0091456
0.0130998
0.00997869
0.0110315
0.00122572
0.00576937
0.019252
0.534998
0.0721086
0.0124298
0.0144878
0.0153813
0.0609621
0.0177742
0.175533
0.199272
0.392629
0.116956
0.000976479
0.00554962
0.00598721
0.00661891
0.000735434
0.0138318
0.0758089
0.534998
0.0658581
0
0
0
0
0
0
0.0121079
0.448517
0.0836558
0.0314223
0.0163439
0.00479231
0.00642685
0.0120645
0.0952342
0.158888
0.448517
0.086587
0.00208524
0
0
0
0
0
0.0152552
0.448517
0.277468
0.113205
0.0453875
0.0118963
0.0107114
0.00723871
0.0489381
0.0376376
0.448517
0.0488074
0.0502235
0.0612827
0.0614438
0.0620582
0.171444
0.279612
0.258369
0.163077
0.0191307
0.00937011
0.0657314
0.108547
0.265846
0.263386
0.186909
0.0768674
0.00835871
0.230156
0.245251
0.289334
0.135439
0.0803324
0.0792682
0.103146
0.0353722
0.132736
0.0301018
0.10237
0.330669
0.24133
0.279585
0.12169
0.0488837
0.00627597
0.00248554
0.00291319
0.00194309
0.0127873
0.0258981
0.224066
0.160091
0.0273577
8.27953e-005
0.00206919
0.000197219
0.000277585
0.00755169
0.0217083
0.531619
0.340343
0.0223042
0.00576424
0.00024086
0.0019754
0.00303858
0.0355019
0.0845739
0.324857
0.0688532
0.0154498
0.000579567
0.0029631
0.00118524
3.9655e-005
0.000731465
0.131968
0.552288
0.164669
0.00913164
0.00034774
0.00177786
0.0158915
0
0.0153134
0.128122
0.373653
0.159466
0.0102531
0.0228881
0.00295867
0.0900897
0.0599814
0.0220095
0.195692
0.163443
0.0558422
0.0448891
0.0340642
0.0563994
0.00120009
0
0.0165674
0.233918
0.616617
0.201169
0.00999938
0.00263845
0.00402671
0.0777834
0.141251
0.0624722
0.281301
0.239073
0.141882
0.0170858
0.051313
0.0705129
0.04078
0.0418669
0.0290355
0.0300428
0.0294339
0.0242984
0.0102299
0.0154447
0.0188046
0.0237458
0.0842195
0.107533
0.247282
0.583393
0.131908
0.00453327
0.00754008
0.00563138
0.0454102
0.0862862
0.0503445
0.0452969
0.0337394
0.00289852
0.00504069
0.023889
0.0176805
0.020301
0.103771
0.102396
0.0935636
0.5296
0.318016
0.0511796
0.00405747
0.00349183
0.00159426
0.0405859
0.0404942
0.121811
0.272254
0.145357
0.0825684
0.0159633
0.000200778
0.00690781
0.035719
0.041835
0.113329
0.267707
0.177385
0.179855
0.025267
0.00690781
0.000464922
0.00740052
0.0125178
0.0423792
0.260602
0.397844
0.15001
0.0103595
0
0.00414469
0
0.0308715
0.0536771
0.334518
0.441609
0.322759
0.0240039
0.00414469
0.00472841
0.00205222
0.00737662
0.0233128
0.318694
0.217194
0.0343656
0.00234067
0.00472841
0.00166205
0.00187734
0.00471661
0.0496424
0.312003
0.270652
0.0257402
0.000942182
0.000675487
0.00283705
0
0.0211316
0.0180016
0.215605
0.328829
0.165259
0.00363136
0.00283705
0.00054623
0.00101366
0.00599298
0.0527352
0.237223
0.490563
0.379122
0.0318451
0.000405292
0.0203905
0.0609541
0.0998897
0.0649743
0.0769377
0.0605079
0.0613569
0.0243182
0.00126589
0.185483
0.16489
0.205138
0.0279429
0.0177792
0.0226928
0.187986
0.177276
0.179646
0.0131447
0.087095
0.204417
0.135538
0.259825
0.206256
0.188243
0.049188
0
0.218331
0.372348
0.416364
0.0989163
0.256112
0.121378
0.101688
0.103084
0.150704
0.151774
0.036623
0.0309153
0
0
0.00181002
0.0587565
0.10205
0.298528
0.132629
0.00339538
0
0
0
0
0.00440087
0.0522896
0.522134
0.209658
0.116775
0.0592953
0.00632436
0.0377911
0.0402244
0.0261009
0.0502567
0.374758
0.213495
0.0108683
0
0
0.000279016
0.00530128
0.00229038
0.0310799
0.522134
0.0534769
0.00251887
0
0
0
0
0
0.0434361
0.457635
0.184927
0.0763283
0.0192677
0.00590773
0.00514035
0.000745556
0.0194473
0.128585
0.334635
0.118059
0.00510451
0
0
0
0
0
0.0867648
0.457635
0.0975983
0.0456945
0.0327846
0.00208948
0.0251597
0.0678234
0.083445
0.35936
0.431599
0.218705
0.245609
0.162131
0.0427425
0.0344139
0.018838
0.0931928
0.153152
0.0865957
0.0482282
0.145998
0.204369
0.0895646
0.0908638
0.0385118
0.0571347
0.0326149
0.00499118
0.054378
0.0843463
0.0828782
0.0323513
0.165111
0.278525
0.39867
0.355933
0.104471
0.0207774
0.0575021
0.158344
0.181254
0.264282
0.253003
0.229965
0.0678293
0.00350452
0.00608927
0.0077644
0.0679827
0.119783
0.136703
0.0143566
0.0046444
0.00190699
0.00780343
0.00308552
0.000473056
0.0798899
0.260786
0.481744
0.0515207
0.00820202
0.00117895
0.0051832
0.00471596
0.0136031
0.331018
0.294906
0.0718415
0.0202479
0
0.0119196
0.00525563
0.00221906
0.0115213
0.413724
0.449697
0.167123
0.0171834
0.00345899
0.00739501
0.0066614
0.000179471
0.000667274
0.0233378
0.1706
0.422719
0.219971
0.0280356
0.0110555
0.00267835
0.0429015
0.0545563
0.0233879
0.112063
0.326531
0.239977
0.0267359
0.131836
0.032777
0.000214382
0.0164633
0.121611
0.267192
0.254729
0.177031
0.0370541
0.0198332
0.00678188
0.0195435
0.0397579
0.0430049
0.214303
0.381047
0.27012
0.0899194
0.123747
0.0184921
0.0983424
0.108166
0.0642798
0.0519927
0.0606205
0.00215148
0.0179815
0.0263179
0.0323323
0.0897124
0.0927937
0.078267
0.0352909
0.369685
0.362432
0.13187
0.0433765
0.0472631
0.1482
0.204454
0.0872983
0.12265
0.132908
0.0216565
0.020913
0.0183515
0.0880598
0.291828
0.219695
0.178647
0.0846392
0.181072
0.0903103
0.0833262
0.154443
0.244498
0.00185919
0.00245071
0.00656683
0.00564277
0.0715235
0.24467
0.129295
0.00714672
0.00410986
0
0
0.0103561
0.0179185
0.0998234
0.339979
0.429115
0.0450682
0.000525521
0.0115137
0.00582752
0.0140871
0.0193109
0.0511911
0.168701
0.106822
0.0313402
0.0272269
0
0
0.00105565
0.0106037
0.0435932
0.37587
0.583365
0.141218
0.00367865
0
0.000917006
0.00929635
0.0110385
0.0515137
0.178019
0.227427
0.0193837
0
0
0.00152834
0.00470568
0.010545
0.0715375
0.262031
0.486048
0.060865
0.00419241
0
0.00152834
0.00356613
0.00142411
0.00989174
0.162967
0.486048
0.102439
0
0
0.00254724
0.00594356
0.000203444
0.0309328
0.133635
0.486048
0.151323
0.00698735
0.00130054
0.0110182
0.0302712
0.0233412
0.119673
0.136474
0.320127
0.0862572
0.0118389
0.0398659
0.066157
0.0569789
0.0281825
0.150695
0.112968
0.237474
0.182924
0.14116
0.00468062
0.000297445
0.000694037
0.000316469
0.0293234
0.0714434
0.443588
0.21107
0.0304301
0.0496655
0
0
0.00221528
0.0253434
0.0659855
0.443588
0.320599
0.317845
0.0712135
0.0338334
0.0102932
0.00588232
0.0351497
0.0400188
0.0457568
0.0866818
0.334863
0.130187
0.0028469
0
0
0.000259514
0.00493074
0.000288304
0.0155741
0.496757
0.0706782
0
0
0.000840331
0.00502139
0.0190963
0.116781
0.125141
0.496757
0.165478
0
0
0
3.70734e-005
0.00204846
0.00252802
0.0200673
0.496757
0.139866
0.0152456
0
0
0
0
0
0.0274988
0.442045
0.153631
0.124997
0.110489
0.0130044
0.00907698
0.0632783
0.035102
0.135682
0.279542
0.206937
0.0224224
0
0
0
0
0
0.0037064
0.442045
0.356201
0.265383
0.145353
0.0407948
0
0.00877078
0.00223482
0.0189125
0.357172
0.0399804
0.0840472
0.191362
0.0698372
0.0907789
0.120059
0.0903195
0.0612208
0.029906
0.00610366
0.0747592
0.332368
0.135757
0.178227
0.0897884
0.0507209
0.0074223
0.000193012
0.156935
0.358883
0.327622
0.0974685
0.0498499
0.0146707
0.00513795
0.00753709
0.0469319
0.0479785
0.429779
0.459426
0.0922344
0.100029
0.00996449
0.00442137
0
0.00526638
0.000992543
0.0374356
0.445274
0.170207
0.0457349
0.0108015
0
0.00397335
0.000209124
0.000905819
0.0367137
0.361699
0.209808
0.0265814
0.00196541
0
0.0024651
0.00129486
0.00592346
0.177451
0.483519
0.0577109
0.0226268
0.00137123
0.000783505
0
0.000772224
0.000543492
0.165709
0.483519
0.118252
0.00777427
0.000280773
0
0
0
0.000535658
0.0976148
0.255356
0.176868
0.0605608
0.0681866
0.0130465
0.00470517
0.00203342
0
0.0844335
0.17598
0.194306
0.115735
0.144817
0.067514
0.0331522
0.0153593
0.000321395
0.272588
0.634262
0.158304
0.0236775
0.0149031
0.00696146
0.00717282
0.000204607
0
0.196044
0.372582
0.102105
0.0425897
0.0741614
0.0734079
0.0627267
0.00928195
0.0425999
0.133701
0.0732588
0.116904
0.158493
0.0233339
0.0383923
0.0298789
0.0326612
0.128325
0.174975
0.124979
0.194355
0.150778
0.0190434
0.0705769
0.182613
0.0913591
0.0800919
0.182895
0.11856
0.145431
0.118247
0.0821647
0.0881511
0.0482976
0.0345997
0.183137
0.29253
0.342022
0.357027
0.155639
0.0787632
0.107493
0.187773
0.0613588
0.014652
0.0135084
0.0144981
0.053773
0.0572765
0.0867507
0.0632745
0.058449
0.0247506
0.000561461
0.00212866
0.00107992
0.0187321
0.0448422
0.333175
0.756062
0.137496
0.02544
0.0478077
0.0443692
0.0475243
0.0879829
0.0718981
0.0654019
0.0327934
0.0505391
0.022319
0.0211143
0.0290503
0.0248534
0.0491936
0.0763492
0.135216
0.35226
0.0751893
0.0788204
0
0.000318667
0.000530974
0.000566558
0.00282678
0.0884632
0.454254
0.0975378
0.00296558
0
0.000345102
0.000805238
8.09368e-005
0.00781682
0.0596961
0.469843
0.191685
0.00158732
0.00233317
0.00165333
0.00142868
0.0111014
0.0440093
0.0790248
0.354525
0.0605053
0.0168391
0
0
0
0.00473297
0.0374784
0.168428
0.469843
0.283071
0.0107734
0.00291689
4.91071e-005
0.000114583
0.00131412
0.0038527
0.017637
0.316114
0.210836
0.0155868
0.0259769
0.00093492
0
0.0021902
0.00146013
0.0165191
0.401979
0.334851
0.183563
0.00136054
0
0
0.0021902
0.00454098
0.0496233
0.278203
0.363429
0.0306981
0.0104816
0.00654444
0
0.00365033
0.00243356
0.00159012
0.214856
0.456908
0.177181
0.0560913
0.000854622
0
0.000270953
0.000180636
0.0108105
0.106046
0.21779
0.302947
0.275151
0.00268036
0
0
0
0.00145355
0.00437902
0.0789838
0.460366
0.0523009
0.00598236
0
0.000451589
0.000301059
0.00145355
0.0524355
0.3029
0.271005
0.414465
0.00543943
0
0
0
0.00020765
0.00335953
0.136425
0.381725
0.350951
0.0248918
0
0
0
0
0
0.00338759
0.30893
0.410854
0.245952
0.0734955
0.0239545
0
0
0
0.00907987
0.173618
0.447147
0.0207603
0
0
0
0
0
0.0072761
0.167169
0.447147
0.181252
0.0387302
0.00296692
0
0
0
0.0132912
0.0905875
0.160057
0.37849
0.158215
0.0333862
0.00470318
0.000386166
0.00407802
0.00794297
0.0431594
0.0588693
0.390089
0.292738
0.0210973
0.00783863
0.00270316
0.0159969
0.0131959
0.0180751
0.202974
0.303866
0.0956867
0.00349297
0
0.0002317
0.00583558
0.0272835
0.0428107
0.0878308
0.490976
0.340357
0.0135362
0
0.0016219
0.0211133
0.0310214
0.019978
0.00615148
0.185914
0.281021
0.0279476
0.000922531
0.000864783
0.00432462
0.00358074
0.00198877
0.000133097
0.212885
0.461121
0.0431762
0.00581505
0.00010208
0.000124764
0.0013057
0.000230417
0.0192449
0.390993
0.394856
0.0305798
0
0.00066305
0.00866088
0.0118807
0.00268912
0.0152506
0.236939
0.461121
0.0202328
0.00408768
0.00269276
0.0113892
0.0156287
0.00677199
0
0.241255
0.758078
0.0936578
0.0588263
0.0098074
0.00563558
0.0227636
0.0043483
0
0.0862132
0.19049
0.039657
0.066213
0.0510334
0.090375
0.096699
0.0201388
0.0119334
0.132375
0.390038
0.0125454
0.0462178
0.035807
0.0286251
0.0332961
0.0133574
0.00538624
0.0108632
0.0405331
0.0159984
0.0837036
0.0573249
0.0804603
0.0739179
0.0436446
0.0235455
0.0939877
0.0751086
0.0696506
0.0874631
0.0356505
0.0202065
0.00341142
0.00869695
0.0466293
0.207275
0.206452
0.12586
0.165093
0.0675204
0.00790991
0.010984
0.0157355
0.00693639
0.0678924
0.086483
0.294569
0.209944
0.0413594
0.0113159
0.00674747
0.00503738
0.00647946
0.147642
0.157588
0.461252
0.560851
0.10245
0
0
0.00199368
0.0400057
0.0736578
0.0949306
0.146971
0.206212
0.0747426
0.00440321
0.00839608
0.0148251
0.0494087
0.0511302
0.0726128
0.104488
0.149605
0.056378
0.0792683
0.0567575
0.0601436
0.00644087
0.0506913
0.0765864
0.241391
0.701064
0.091607
0
0
0.00180103
0.0250189
0.0649753
0.0875389
0.20513
0.344835
0.0515021
0.0794517
0.0750143
0.0220395
0.0114309
0.00903798
0.00735848
0.0200352
0.141625
0.1274
0.177082
0.0625656
0.0347142
0
0
0
0.00932126
0.125646
0.259344
0.324171
0.368981
0.0963178
0.0105346
0.0182334
0.0124836
0.036072
0.0788281
0.0864369
0.154025
0.170847
0.0802332
0.0969269
0.0139255
0
0.0038981
0.0583536
0.0784512
0.166612
0.448887
0.440914
0.000707316
0
0
0.000355812
0.00559881
0.0376606
0.170967
0.320439
0.0661128
0.0141
0.00934437
0
0.00059302
0.000395347
0
0.175571
0.394383
0.187727
0.0856277
0.00303468
0
0
0.00196886
0.004957
0.0693789
0.21538
0.367874
0.219871
0.0107572
0
0
0
0
0.0848922
0.188604
0.548739
0.0469145
0.0231391
0
7.0724e-005
4.71493e-005
0
0.0476362
0.174598
0.208106
0.23329
0.0231197
0.00475145
0
0
0
0.00485765
0.0666187
0.316037
0.25827
0.0343206
0
0
0
0
0.0272103
0.0635965
0.415148
0.496786
0.0362474
0.00791908
0
0
0
0.00291459
0.0160311
0.468364
0.314396
0.0407621
0.0334116
0
0
0
0
0.00649698
0.186351
0.342845
0.214231
0.0773307
0
0
0.000637826
0.000159456
0.0334598
0.0990583
0.51286
0.0747148
0.0561851
0
0
0
0
0.000839897
0.270708
0.383807
0.293278
0.134751
0
0
0.00446478
0.00150422
0.0273475
0.176032
0.231678
0.343291
0.093085
0
0
0.00183882
0.0021131
0.0435942
0.0520049
0.136052
0.590191
0.333751
0.00225054
0
0.00110329
0.00977696
0.0295441
0.018733
0.211701
0.250769
0.0757045
0
0
0.0128717
0.00953075
0.0752856
0.101345
0.14941
0.296459
0.11235
0
0
0.00772303
0.0221063
0.130303
0.0866583
0.0659926
0.684346
0.38571
0.0106162
0.00171152
0.000945935
0.0259905
0.046082
0.0429
0.0516379
0.230039
0.262341
0.0122679
0.0244433
0.0187146
0.0689646
0.0635189
0.0525695
0.113165
0.206963
0.0685011
0.00153598
0.00285253
0.000567561
0.0218438
0.117405
0.153323
0.0841225
0.0664607
0.00972131
0.0107518
0.0365494
0.0177902
0.0406998
0.129292
0.168139
0.0582149
0.105438
0.253006
0.0144809
0.12661
0.143253
0.153861
0.0657143
0.0501854
0.0342101
0.0142977
0.170868
0.0369494
0.193726
0.160736
0.0822481
0.085661
0.139984
0.1622
0.140155
0.103343
0.0163532
0.145973
0.118067
0.122323
0.200671
0.222285
0.113042
0.0419235
0.142588
0.00711061
0.107562
0.128645
0.181026
0.347877
0.271366