0
0
0.00310514
0.045935
0.396497
0.037436
0
0
0
0
0.00732849
0.0207636
0.0670014
0.380754
0.0249059
0.00126364
0.000395996
0
0
0
0
0.0527512
0.540037
0.0769533
0
0
0
0
0.0141282
0.0103049
0.108362
0.537091
0.0424632
0.000529545
0
0
0.000830135
0.0148562
0.0383149
0.0397824
0.25554
0.0781228
0.0187136
0.00545082
0.000830135
0.00138356
0.00212231
0.00547355
0.0915452
0.39273
0.155339
0.0288578
0.00675711
0.00138356
0.0112008
0.0315427
0.0217446
0.0927495
0.365638
0.125199
0.00648165
0.000466958
0.00581095
0.018668
0.00892856
0.00440866
0.244522
0.598089
0.0882372
0.00769018
0.000778263
0.00968491
0.00538629
0.011775
0.0308971
0.152008
0.290891
0.187153
0.0883206
0.0416189
0.012989
0.112738
0.0595431
0.0600735
0.088466
0.0521548
0.0954747
0.151877
0.155393
0.214746
0.0231191
0.0215867
0.0809726
0.368359
0.472259
0.0599559
0.0141164
0.00356215
0.00276794
0.145931
0.0858755
0.15696
0.279216
0.136399
0.125395
0.0703113
0.0168444
0.0364411
0.147798
0.0617297
0.0168163
0.0150393
0.00432788
0.0204036
0.0543125
0.138104
0.265951
0.0621412
0.0328973
0.00392251
0.021952
0.131393
0.404853
0.0454453
0.196045
0.203666
0.0734131
0.0621513
0.0479697
0.22806
0.0401436
0.0809177
0.0740922
0.0838009
0.0892629
0.0159057
0.120548
0.0237596
0.190248
0.318174
0.359899
0.0370159
0.179286
0.119451
0.00147196
0.000653005
0.0074402
0.0586955
0.221448
0.303234
0.0210249
0.0272702
0.0236586
0.000830141
0
0.015398
0.0807742
0.232878
0.144481
0.0585662
0.0111656
0.015585
0.00169745
0.0298665
0.00647234
0.051461
0.355707
0.451712
0.0369253
0.0257843
0.0155198
0.00798231
0.00245156
0.0103447
0.0251456
0.302006
0.453543
0.131369
0.0185467
0.0421706
0.00199061
0
0.0137006
0.0708924
0.31699
0.0928201
0.089463
0.00981652
0.023571
0.000284373
0
0.0193296
0.202874
0.364062
0.0473323
0.00896728
0
0.0022199
0.0618639
0
0.0228412
0.0673614
0.333368
0.205748
0.187366
0.0220554
0.105324
0.0522063
0
0.00887637
0.209498
0.445572
0.0496627
0.0438893
0.0398615
0.0358692
0.000668533
0.0143583
0.0246502
0.236398
0.276497
0.0594527
0.0239616
0.00510752
0
0.0192442
0.037649
0.0265208
0.222541
0.313905
0.158784
0.104128
0.00976456
0.0163001
0.00952378
0.0319131
0.0326907
0.283604
0.284163
0.095831
0.0582551
0.0521014
0.00121101
0.0530154
0.127098
0.102791
0.236654
0.217312
0.171523
0.110645
0.0525263
0.00978005
0.0746548
0.0268742
0.0137462
0.129165
0.198634
0.115754
0.0696134
0.039873
0.155461
0.200335
0.0728301
0.0211048
0.0610402
0.0553901
0.144142
0.106289
0.199361
0.277375
0.0853338
0.0835164
0.0892608
0.158101
0.151944
0.121805
0.0758296
0.0464061
0.0872857
0.0452561
0.0407664
0.0203213
0.0867084
0.0781114
0.201163
0.250965
0.243771
0.155807
0.0698311
0.0285912
0.0211423
0.0576372
0.0430145
0.124855
0.0918232
0.177524
0.127006
0.0597098
0.0472858
0.0200759
0.0661056
0.0976975
0.257642
0.255709
0.159559
0.254932
0.00590802
0.0259776
0.0123236
0.0774246
0.0857597
0.25086
0.207139
0.0846843
0.0620154
0.0195692
0.132776
0.0544149
0.115472
0.108824
0.377362
0.277131
0.0290838
0.134082
0
0
0.00839627
0.0647684
0.388216
0.0410964
0
0
0
0
0.00467871
0.0060467
0.101229
0.389728
0.0261032
0.00131012
0.000282826
0
0
0
0.0139938
0.122542
0.507145
0.0189542
0
0
0
0
0
0.00839627
0.0714394
0.566021
0.0364426
0.00936935
0.00633045
0
0.00665608
0.0117027
0.0040244
0.0683155
0.287376
0.0786546
0.00408945
0.000951323
0.00189023
0.0110935
0.00558226
0.00511468
0.121918
0.453966
0.0839676
0.00243689
0.000743946
0.00315038
0.000680836
0.000366604
0.0025325
0.0465306
0.449718
0.085234
0.0248137
0.0151552
0
0.00113473
0.000611006
0.0903818
0.179815
0.514247
0.15326
0.0134762
0.00642132
0
0.0188426
0.013945
0.0173305
0.105498
0.263199
0.0778987
0.0166662
7.68042e-005
0.00898103
0.146933
0.105013
0.0530923
0.111383
0.0667171
0.0819253
0.0378298
0.00179262
0.015863
0.0305459
0.104411
0.184502
0.141736
0.235892
0.0851756
0.0111467
0.00053763
0.014362
0.217856
0.701731
0.23203
0.069746
0.0317869
0.0386634
0.0203245
0.000959364
0.0264384
0.102467
0.100102
0.0212206
0.0679457
0.00737513
0.0112145
0.0157653
0.00586497
0.00677096
0.155789
0.170942
0.0130059
0.0578884
0.0489482
0.037687
0.0089131
0.012047
0.0458913
0.278986
0.451786
0.049603
0.0157307
0.000494262
0.00088693
0.00830124
0.00165038
0.00815304
0.642213
0.340928
0.00876557
0.00801748
0.004258
0.00743594
0.00816648
0.00143438
0.125335
0.0828675
0.0816623
0.0157008
0.0335297
0.086639
0.195363
0.0299002
0.00593943
0.0653815
0.0401572
0.0262104
0.0395083
0.0379962
0.0720434
0.337754
0.0813034
0.0437094
0.0640047
0.427821
0.100576
0.0181261
0.00478995
0.00778838
0.0653151
0.0138887
0.017024
0.277746
0.18622
0.0402427
0.049641
0.0511273
0.00855344
0.17653
0.0571905
0.390712
0.451861
0.0718038
0.00639337
0.0260909
0.0388327
0.0341918
0.0803154
0.0335791
0.0487114
0.0736319
0.0676988
0.00442467
0.00358226
0.0193728
0.0546009
0.0252542
0.0507426
0.0579232
0.066391
0.105318
0.0125592
0.0272943
0.0528863
0.00340349
0.0524732
0.0304832
0.535268
0.377083
0.141956
0.0206998
0.00334864
0.00755519
0.00480645
0.0288211
0.108075
0.496084
0.372269
0.0174994
0.00834415
0.00418336
0.0311119
0.0807849
0.08827
0.08933
0.0977267
0.0328887
0.0128609
0.0285115
0.0240789
0.0531208
0.120161
0.134212
0.0379233
0.0671717
0.0106957
0.0716947
0.0150664
0
0
0.0292369
0.134721
0.251115
0.576542
0.21253
0.000604467
0.00245194
0.00711438
0.0108606
0.218722
0.378358
0.16949
0.227144
0.0389838
0.0425067
0.0493541
0.0571917
0.0899481
0.162034
0.147723
0.0566784
0.034868
0.0123893
0.0345517
0.0628864
0.0385507
0.0663553
0.0630857
0.0995739
0.131187
0.111011
0.08007
0.00348851
0.0141507
0.040358
0.0256964
0.361366
0.44876
0.237981
0.0451225
0.0275147
0.0221367
0.0695782
0.107538
0.0594545
0.110363
0.125777
0.235005
0.0769027
0.123685
0.0122626
0.0592796
0.040959
0.0902313
0.143973
0.158314
0.0957724
0.0440397
0.0334453
0.00858275
0.111907
0.091651
0.23265
0.21903
0.188542
0.0912842
0.00492356
0.00160949
0.0476925
0.104483
0.191951
0.12062
0.13273
0.0689056
0.0404901
0.0233904
0.0490369
0.0508744
0.0592602
0.178599
0.370544
0.36863
0.159066
0.018099
0
0.00268249
0
0
0.00202444
0.0890971
0.415829
0.0249006
0
0
0
0
0.000867448
0.00381701
0.0605649
0.470572
0.0200154
0.00497294
0.00635488
0
0.00402523
0.0120757
0.0135208
0.110387
0.427264
0.164985
0.0158389
0
0
0.00305271
0.0112415
0.0161236
0.190965
0.495701
0.0536301
0.00779438
0.00714419
0
0
0.000954103
0.00668055
0.063849
0.20955
0.0193342
0.00691329
0.00760838
0
0.00350393
0.00317729
0.173258
0.259502
0.151219
0.0338151
0.00318735
0.00202966
0
0.00190624
0.00921511
0.0407659
0.214313
0.186194
0.0435842
0.00786833
0.00785786
0
0.0256712
0.0138623
0.293443
0.750852
0.0561481
0.0248677
0.00241426
0.00112255
0
0.0206881
0.0606531
0.222903
0.109342
0.0416944
0.00836766
0.000235839
0.000101074
0.000993291
0.0587118
0.29695
0.304273
0.0392934
0.00345336
0.00142484
0
0
0.00182851
0.0792635
0.100908
0.290519
0.246309
0.00835349
0.000295126
0
0
0
0.132105
0.441652
0.546877
0.0409936
0.00720853
0
0
0
0
0.111859
0.255187
0.103111
0.0062213
0
0
0.00110417
0.000122685
0.00142423
0.399791
0.207368
0.0285802
0
0
0
0.00772919
0.000858798
0.0464228
0.109406
0.412281
0.285505
0.00869691
0.0104837
0
0.000662502
0.0132577
0.00304625
0.419067
0.397177
0.175632
0.00157256
0.0131279
0.038747
0.0187286
0.112322
0.0561841
0.290761
0.0327023
0.00432572
0
0
0.000678741
0.00294445
0.00471407
0.15163
0.141318
0.00337993
0.00707113
0.00443344
0
0.00475119
0.00572502
0.141673
0.398175
0.397956
0.0816904
0.0241
0
0.00599254
0.0339577
0.0138445
0.0625455
0.243751
0.205583
0.00389145
0.00277736
0.00069434
0.000856077
0.0048511
0.00907694
0.181101
0.574843
0.021134
0.00107778
0.00533384
0.00433152
0
0.00264073
0.0109314
0.258115
0.254323
0.0209979
0.00324579
0.000726768
0.000618788
0.00170212
0.00955971
0.0692434
0.364051
0.161067
0.0222094
0.00506113
0.00360665
0.000678377
0
0.00184704
0.0618624
0.384032
0.359086
0.00791187
0.00843522
0.00187621
9.6911e-005
0.0119148
0.0411597
0.280174
0.525492
0.112302
0.00771309
0.0015918
0
0
0.00638286
0.0193269
0.0963578
0.339439
0.0568001
0
0
0.000252966
2.81073e-005
0.0254257
0.0762389
0.112527
0.204003
0.0132835
0.000964359
0.00162461
0.000286696
0
0.0174035
0.0601753
0.353017
0.440348
0.0470306
0
0
0
0
0.00756358
0.103741
0.536929
0.343466
0.0213177
0
0
0.00187486
0.000208317
0.0607098
0.155939
0.192034
0.0743482
0.00748524
0.00100045
0.00540593
0.0167945
0.0179749
0.0463279
0.0796365
0.0921162
0.0291563
0.0150326
0
0
0
0
0.0331634
0.229001
0.708747
0.291267
0.00157069
0
6.42852e-005
0.00122142
0.0154653
0.0853559
0.194259
0.206193
0.179137
0.00149749
0.0418738
0.0312677
0.089035
0.0929003
0.0886111
0.113793
0.0386287
0.0164073
0.0134552
0.0663599
0.0214289
0.0624493
0.146057
0.150395
0.265694
0.118526
0.00238233
0.00769884
0.0193381
0.00394393
0.00866594
0.075373
0.248678
0.350365
0.105552
0.0557817
0.00792587
0.0322301
0.0157243
0.0128559
0.0609888
0.171402
0.361366
0.386753
0.0166763
0.0122955
0.0526528
0.0569791
0.032348
0.145267
0.280872
0.19654
0.115296
0.0156754
0.0544917
0.0344043
0.0599863
0.0875137
0.3131
0.41783
0.0466748
0.0221769
0.00546949
0.013102
0.0717269
0.0680398
0.0590691
0.155756
0.131384
0.0646358
0.211255
0.0525812
0.0937327
0.0447237
0.101146
0.225777
0.340597
0.35432
0.0330691
0.0639597
0.0030424
0.0235845
0.00494228
0.0408961
0.113324
0.170951
0.0869872
0.0269005
0.00584011
0.00250078
0
0.0115716
0.0688008
0.22094
0.527377
0.0583636
0.0136714
0.0020649
0.000357254
0
0.00296537
0.0653764
0.277213
0.174652
0.109454
0.0167126
0.0115034
0
0
0.00177922
0.184756
0.310726
0.473609
0.204236
0.0617817
0.00181915
0
0
0.0181484
0.0666892
0.170493
0.140556
0.0172434
0
0
0
0
0.0420467
0.308732
0.388485
0.0345625
0.0265288
0.0110956
0
0
0
0
0.0733256
0.266483
0.339119
0.081055
0.011563
0
0
0
0.0189154
0.186173
0.558593
0.295679
0.0722844
0.0513744
0
0
0
0.0825287
0.415611
0.289342
0.0142234
0.10418
0.0640884
0.00443669
0.02706
0.00556952
0.15788
0.223408
0.136714
0.00859261
0.0913764
0.141715
0.092267
0.249499
0.0809133
0.0379306
0.184707
0.336958
0.149805
0.184755
0.228699
0.037385
0.0169791
0.00181343
0.0272307
0.086033
0.130927
0.0926157
0.144095
0.252849
0.206648
0.153756
0.0484701
0.141352
0.0398396
0.0185418
0.00467316
0.0175424
0.0697656
0.0777128
0.156452
0.276678
0.151131
0.0106072
0.00379719
0.00283569
0.00518754
0.00829776
0.0191022
0.163999
0.645771
0.0314165
0.0461183
0.0329956
0.0378331
0.0428034
0.048397
0.10787
0.0963349
0.193716
0.254831
0.121804
0.0860647
0.0198498
0.0298968
0.00567144
0.0115797
0.0686309
0.407365
0.12444
0.025315
0.00721036
0.00192206
0.00411006
0.00694605
0.0857604
0.232572
0.319154
0.0529568
0.0388375
0.00913155
0.0122148
0.0202663
0.0691193
0.469772
0.316564
0.131647
0.320419
0.0770599
0.0551623
0.0424957
0.0782272
0.0707282
0.0169009
0.0415041
0.222541
0.126762
0.0698746
0.0792561
0.190569
0.183917
0.157763
0.268431
0.111236
0.141911
0.00084263
0.0071976
0.00265399
0.00337334
0.00815237
0.0649803
0.353939
0.137496
0.0195045
0.00520026
0.000546118
0.000294063
0
0.00301635
0.11124
0.41325
0.126863
0.00995098
0.00123816
0.032438
0.0372069
0.0504823
0.0379381
0.167303
0.405635
0.0875519
0.0162044
0.00866709
0.00434474
0.0165273
0.00768782
0.0320729
0.42205
0.448481
0.0823744
0.00866709
0.00392169
0
0.000695437
0.003498
0.0089313
0.152472
0.417887
0.19501
0.00392169
0
0
0.00759972
0.0542634
0.0461388
0.118241
0.136947
0.116888
0
0.00772904
0
0.0352326
0.0342225
0.101207
0.555053
0.363388
0.122734
0.00931955
0.0083502
0
0.0849662
0.1303
0.129162
0.290044
0.127387
0.0830271
0.0194838
0.00777604
0.00531701
0.0269599
0.190952
0.211707
0.30468
0.096493
0.0458589
0.00135747
0.0494627
0.0539251
0.0323647
0.0497407
0.154278
0.230971
0.20934
0.00931496
0.00933269
0.0311402
0.0036342
0.177656
0.343716
0.136913
0.161553
0.150118
0.203887
0.0477579
0.179386
0.0731259
0.0381333
0.0831694
0.0507218
0.105218
0.130327
0.138806
0.0789022
0.0291517
0.0490353
0.132414
0.18608
0.131579
0.0227748
0.103492
0.0579355
0.0473557
0.017491
0.052563
0.180212
0.206995
0.308121
0.0912352
0.171587
0.132981
0.0244164
0.060866
0.0569898
0.113029
0.1517
0.220039
0.131292
0.0932261
0.0885424
0.0577259
0.0449119
0.0436461
0.182825
0.380268
0.138039
0.122118
0.262416
0.299075
0.0535083
0
0.0107099
0.137952
0.0736955
0.0711181
0.0331659
0.0332355
0.0225149
0.000191873
0
0.0401343
0.141178
0.293893
0.309031
0.0902686
0.00396093
0.00197304
0
0.000597252
0.0209752
0.166015
0.179999
0.057294
0.0473523
0.0392453
0.0440114
0.00134311
0
0.0324747
0.191929
0.347978
0.668682
0.0825217
0.00307808
0.0032884
0
0
0.0116014
0.0752748
0.310739
0.196042
0.0172671
0
0
0
0.00214983
0.0126013
0.176855
0.325862
0.17793
0.0233694
0
0
0
0
0.00250509
0.0181074
0.201747
0.519675
0.0468543
0
0
0
0
0
0.0273751
0.187322
0.519675
0.136349
0
0
0
0.0144105
0.0585356
0.268525
0.253948
0.196742
0.0955906
0.0198855
0.00294143
0
0.0765598
0.131519
0.201899
0.146883
0.0828984
0.0756932
0.0955008
0.0238229
0.0335393
0.00619663
0.0325662
0.144496
0.201431
0.475849
0.333578
0.00347129
0
0
0.102331
0.0986487
0.242656
0.201693
0.232697
0.185512
0.067497
0.0375902
0.0996834
0.15985
0.108625
0.103921
0.0646247
0.0728092
0.0282786
0.060457
0.0256485
0.105324
0.346461
0.173828
0.1836
0.0617182
0.121046
0.0907309
0.0203068
0.0156457
0.151163
0.202624
0.0865572
0.134285
0.196427
0.156062
0.0730798
0.122688
0.171478
0.173374
0.241925
0.11627
0.204801
0.313279
0.237418
0.236558
0.0971713
0.14389
0.151513
0.140993
0.0478673
0.0485671
0.062928
0.113074
0.154091
0.00282347
0.00313552
0.0321429
0.0399349
0.0239772
0.061163
0.172432
0.242166
0.352936
0.0409108
0.0117406
0.0158564
0.0711433
0.0660474
0.156895
0.171031
0.155301
0.171856
0.0491291
0.00672031
0.0354707
0.00954311
0.0452266
0.260278
0.276728
0.493343
0.370225
0.0292351
0
0.00295519
0.000149715
0.0120598
0.0277239
0.0526129
0.0911357
0.228558
0.110871
0.00958606
0.0019594
0.00104801
0.00172283
0.0140238
0.0137186
0.165252
0.460719
0.137612
0.00729076
0.00104801
0
0.00506638
0.0456771
0.101965
0.309541
0.211909
0.00768261
0
0
0
6.66161e-005
0.00221027
0.0644686
0.548864
0.389223
0.0102379
0
0
0.00478621
0
0.0193715
0.0331002
0.218169
0.350057
0.0651111
0.00568861
0.00654589
0.0297732
0
0.0320234
0.0486531
0.174959
0.153057
0.0533934
0.0470317
0.042091
0.00500517
0
0.00261323
0.0364972
0.553216
0.378258
0.08207
0.0111438
0.00631472
0.0540167
0.0134586
0.00301369
0.0212402
0.290828
0.291412
0.226324
0.0962585
0.0448166
0.0368206
8.10124e-005
0.0443493
0.0513783
0.107081
0.0848075
0.149118
0.165283
0.0747289
0.0377079
0.0267357
0.0104432
0.024811
0.0302423
0.0637706
0.110394
0.0982259
0.0530791
0.131142
0.042676
0.0197774
0.0472083
0.479302
0.306435
0.303933
0.204577
0.0923065
0.0408848
0.0251955
0.0347349
0.0670249
0.238513
0.228974
0.2721
0.203786
0.0657402
0.0439693
0.026618
0.0281567
0.0404726
0.131169
0.134817
0.0714432
0.0162513
0.0370615
0.04318
0.0378245
0.19649
0.419926
0.11386
0.0536678
0.0598715
0.0478746
0.0273494
0.020422
0.00893802
0.0151247
0.0651683
0.272533
0.114564
0.0675539
0.00101916
0.0303369
0.0223323
0.0148967
0.124296
0.437077
0.497114
0.131784
0.0771484
0.0189479
0.0182021
0.00201193
0.0327452
0.17554
0.277466
0.0702752
0.0233977
0.0156387
0.0414483
0.000612322
0
0.050033
0.183118
0.250276
0.521975
0.0923967
0.0240391
0.0753595
0
0.00120716
0.00967777
0.0661358
0.208544
0.21441
0.0944104
0.0727731
0.140803
0.00375438
0
0.0142265
0.0509697
0.187218
0.315026
0.220846
0.156319
0.269708
0.0175555
0.000971429
0.00421509
0.0175422
0.0611711
0.516712
0.163509
0.0273915
0.0127163
0.00032381
0.0068
0.0032771
0.0602564
0.0770451
0.418289
0.234271
0.0401074
0.00921546
0.00226667
0.0068
0.00119853
0.00452106
0.0669446
0.224377
0.257586
0.192544
0.105639
0.0283777
0.0476
0.00546183
0.18507
0.158612
0.131269
0.209026
0.289705
0.128464
0.0725985
0.00615954
0.0426566
0.166241
0.152586
0.271285
0.248091
0.016822
0.00415239
0.00646153
0.068305
0.127562
0.15374
0.151797
0.232836
0.152579
0.0611952
0.0263683
0.0726414
0.0515806
0.0721919
0.392374
0.301915
0.151072
0.078578
0.137786
0.0468705
0.0521911
0.262712
0.181837
0.231147
0.208088
0.197772
0.0556625
0.0954224
0.0236053
0.147502
0.12018
0.129979
0.0660078
0.0929252
0.0961814
0.0444739
0.0813735
0.149843
0.117607
0.120142
0.0852612
0.134169
0.144851
0.0960972
0.10335
0.0729043
0.233852
0.211175
0.309551
0.125931
0.0994905
0.16622
0.0459512
0.0797352
0.0422707
0.0732935
0.318077
0.178727
0.0447369
0.119241
0.16959
0.0993625
0.261852
0.111359
0.230231
0.366583
0.0415512
0.0918997
0.212544
0.0928161
0.108735
0.0754716
0.0576653
0.0316852
0.0611447
0.00574204
0.10622
0.375999
0.203487
0.309909
0.116554
0.0334737
0
0.00513414
0.0178094
0.0468692
0.119293
0.102136
0.197092
0.256187
0.0578346
0.0458741
0.0480228
0.0329181
0.0862131
0.199334
0.13846
0.431831
0.377406
0.0363645
0
0.00229341
0
0.0120365
0.0634087
0.171331
0.220439
0.0522613
0.000292262
0
0
0
0
0.00326229
0.261382
0.512746
0.0849706
0
0
0
0.0240367
0.0631805
0.186881
0.244615
0.17398
0.0579984
0.00204584
0
0
0.010107
0.0680289
0.194524
0.510845
0.289743
0.0347232
0.00284262
0
0
0.00055435
0
0
0.111724
0.420866
0.147531
0.0727651
0.00610584
0.000894439
0.0343027
0.0189868
0.00562788
0.0563065
0.283167
0.234216
0.185064
0.0427409
0.00804331
0.00351616
0.0256132
0.0717029
0.253995
0.302205
0.0918635
0.0217323
0.000952963
0
0.0116787
0.0124463
0.040761
0.122866
0.481842
0.315489
0.137554
0.00667074
0.00106934
0.089129
0.0383937
0.0247791
0.0651952
0.256706
0.127583
0.0815843
0.0992556
0.0302829
0.0513388
0.0194353
0.0237905
0.0207632
0.0963506
0.103975
0.150497
0.190488
0.0414669
0.0705758
0.0468721
0.0413777
0.129119
0.388679
0.373322
0.183648
0.0833786
0.0293123
0.0756381
0.0453605
0.0279286
0.0387633
0.193652
0.438025
0.295108
0.159102
0.0467388
0
0
0.000857431
0.0786363
0.278796
0.0313771
0.0114491
0.000124264
0.002361
0.00105033
0
0.00600201
0.190097
0.423849
0.0671969
0.0515248
0.0300036
0.0108696
0
0
0
0.107011
0.414179
0.0382722
0
0
0
0.00175056
0
0
0.154151
0.595809
0.0486717
0.0146159
0.013973
0.0157549
0.00192753
0
0.00149067
0.0609397
0.147529
0.090995
0.111119
0.112968
0.0213795
0.00115652
0
0
0.108398
0.161334
0.240868
0.18902
0.178316
0.0368403
0.00321255
0
0
0.0806501
0.197023
0.166119
0.111957
0.0320833
0.0294888
0.00192753
0
0
0.0722956
0.163933
0.566831
0.478424
0.118035
0.0339673
0.00324986
0
0
0.0507563
0.0412149
0.119844
0.19566
0.105002
0.0400646
0.0185285
0.000726455
0.0679168
0.0634327
0.0265113
0.0705709
0.397844
0.187987
0.0755896
0.00553934
0
0
0.0206149
0.035621
0.153329
0.305481
0.168515
0.0411011
0.00923223
0.000491029
0.00571959
0.00572418
0.0188632
0.0437007
0.598399
0.378939
0.0539831
0.0430816
0.0179591
0.104057
0.0888552
0.0766233
0.0411548
0.193017
0.10123
0.068909
0.21582
0.0432649
0.0493654
0.0656163
0.0868981
0.0281156
0.0635361
0.0569792
0.229923
0.0403186
0.0153477
0.00931674
0.0036951
0.0231884
0.0551705
0.49051
0.313573
0.0592781
0.202631
0.0266327
0.00352073
0.00315986
0.0141629
0.0727209
0.229916
0.281829
0.445711
0.172407
0.0119629
0.0219608
0.0666846
0.0107176
0.0388702
0.012522
0.0306006
0.245999
0.136638
0.000988923
0.0603575
0.068547
0.0448875
0.0951644
0.0391141
0.0643885
0.210503
0.246739
0.0076974
0.0012036
0.00682037
0.00153108
0.0137065
0.0184283
0.0908142
0.546711
0.355378
0.0835168
0.0666722
0.0223999
0.0105741
0.00964134
0.00425666
0.0909415
0.481079
0.0630286
0.00527988
0.0747909
0.0871849
0.145318
0.125886
0.0232373
0.0243145
0.0436791
0.0760895
0.122916
0.217335
0.110635
0.309792
0.178144
0.0119038
0.000636121
0.0296713
0.242027
0.159414
0.169308
0.0447841
0.0509576
0.0121008
0.00129243
0.0509857
0.121612
0.250132
0.499912
0.446308
0.0696202
0.101695
0.0137312
0
0.00445285
0.056188
0.0318595
0.1422
0.35546
0.0764566
0.0786654
0.0234989
0.000776136
0
0.00775761
0.0224938
0.142606
0.360309
0.189964
0.0528223
0.0371019
0.00293144
0
0
0.0657966
0.267613
0.447857
0.0344927
0.0187148
0.00124333
0
0
0.0129294
0.0196039
0.149295
0.51268
0.168167
0.0166431
0.0203034
0.000418777
0
0
0.0119367
0.0896409
0.211081
0.187115
0.0960483
0.0786337
0.0203741
0.00396794
0
0
0.0289583
0.141411
0.0774096
0.178701
0.259941
0.3215
0.0277756
0
0.00716201
0.101149
0.422257
0.381549
0.0447193
0.0367006
0.0149925
0.00939796
0
0
0.0556588
0.225525
0.16583
0.0251766
0.132526
0.378106
0.0657857
0
0.00603957
0.0115185
0.0116308
0.0159628
0.0656629
0.191878
0.292651
0.0102628
0.00279554
0.0100659
0.0140991
0.00302204
0.00879818
0.0743106
0.245932
0.283059
0.00655976
0.00465923
0
0.00539771
0.0123409
0.000969573
0.00416512
0.221384
0.445598
0.0149852
0
0.00448448
0.0063115
0.00599977
0.0167549
0.0345453
0.42998
0.483095
0.0120455
0
0
0
0
0.0774636
0.305714
0.0625529
0
0
0
0.000243692
0
0
0.12357
0.499212
0.0441822
0
0
0.00219322
0
0.00140684
0.0165467
0.137308
0.313367
0.0795882
0
0
0
0
0.000844107
0.00992805
0.19499
0.580455
0.0619878
0
0
0
0.000420462
0
0
0.0453034
0.207551
0.0902654
0.0514435
0
0.00378414
0.000252277
0
0
0.0209528
0.172477
0.389093
0.399613
0.0493092
0.00939068
0
0
0
0.0825216
0.297493
0.0436793
0.0147033
0
0
0
0
0
0.0742957
0.478679
0.398926
0.141696
0.00459795
0.00101717
0.00252073
0
0
0.000684865
0.0939196
0.181107
0.218128
0.16062
0.0280554
0.00530206
0.00151587
0.00353703
0
0.0376022
0.0631709
0.318331
0.48674
0.0484519
0.00159053
0
0
0.00808713
0.241789
0.311497
0.114955
0.078316
0.0243636
0.0111337
0.000909522
0.00212222
0
0.0671109
0.136208
0.138652
0.484017
0.140256
0.00585638
0.00507068
0.00825894
0
0.000115734
0.0150268
0.226136
0.331413
0.0406417
0.0710235
0.00516613
0.00495536
0
0
0.0208618
0.136768
0.311079
0.315569
0.00929236
0.00212373
0.00495536
0
0.00019289
0.00425022
0.0429387
0.462842
0.122075
0.045838
0.00127424
0.00297322
0
0
0
0.0183344
0.429192
0.372658
0.189446
0.00373843
0
0
0
0.0029457
0.014257
0.0913531
0.415039
0.423536
0.0808788
0.036291
0.00446074
0
0
0
0.0323938
0.305043
0.101749
0.00124569
0
0
0
0
0.00267996
0.18997
0.409359
0.35521
0.0673765
0.0187932
0.00907011
0
0
0.000289188
0.0962356
0.293197
0.333439
0.21489
0.142817
0.0140213
0
0
0
0.0212146
0.0759295
0.264663
0.439151
0.268834
0.0129961
0
0
0
0.00190835
0.0287232
0.284285
0.209559
0.10134
0.037747
0
0
0
0.0114185
0.0714651
0.161486
0.389068
0.282066
0.0552992
0
0.0182613
0.00289061
0
0.0307209
0.116988
0.217351
0.286462
0.0212315
0
0
0
0
0.0166382
0.023683
0.145775
0.53299
0.117113
0.0162163
0.00459666
0
0
0.00204349
0.0867309
0.241001
0.348544
0.0224746
0.00294243
0.0265459
0.00509324
0
0.0238407
0.0179159
0.193573
0.489306
0.0217384
0.0201737
0.0277896
0.0221451
0.000114442
0.00340582
0.000237719
0.0949936
0.540902
0.345538
0.111245
0.0348416
0.00948684
0.00504286
0
3.39599e-005
0.0229463
0.128959
0.170063
0.0963051
0.169027
0.253214
0.0353
0
0.00166403
0.107895
0.319113
0.0470959
0.12116
0.131723
0.0419077
0.00112107
0
0.000237719
0.00602011
0.0244211
0.0409775
0.180727
0.313173
0.0995279
0.00731946
0.000435659
0
0.00109532
0.00330343
0.00233645
0.0134943
0.235561
0.158655
0.00491153
0
0.0046794
0.0046794
0.0164421
0.016876
0.0731518
0.557867
0.161304
0.012569
0
0
0
0.000181323
0.00260468
0.0542307
0.266698
0.0396356
0.00274004
0.000164772
0.000668486
0.000668486
0.00986528
0.0158705
0.178866
0.635246
0.0414068
0.00275329
2.35389e-005
0
0.00499837
0.0321779
0.139144
0.270731
0.0978698
0.00348635
0.0028292
0
0
0.00299902
0.022697
0.145882
0.520236
0.139546
0.00571431
0.00169752
0
0.00952199
0.00299902
0.0877745
0.181151
0.255029
0.17932
0.020412
0.0198044
0.00952199
0.0141199
0.0153835
0.150598
0.327149
0.349444
0.169251
0.0511691
0.0303407
0.0454256
0.00145783
0.000983143
0.00507464
0.138403
0.330973
0.0757866
0.0147668
0
0.00437349
0.00242972
0.006882
0.0386471
0.176231
0.500371
0.365492
0.0795653
0
0.00728915
0.0719582
0.0316488
0.0391263
0.129597
0.168243
0.134993
0.0993106
0.0402975
0.110565
0.136646
0.226556
0.172215
0.134858
0.184689
0.156656
0.110903
0.0234411
0.133765
0.00281906
0.00190113
0.014204
0.0376651
0.231435
0.326293
0.157009
0.0926121
0.0741491
0.0181562
0
0.000797287
0.00103483
0.0419263
0.124253
0.124575
0.382044
0.44484
0.0642359
0.130892
0.0722689
0.0466004
0.112586
0.103088
0.0926815
0.0657458
0.0780913
0.106994
0.0458107
0.00558101
0.00314211
0.0312776
0.0385727
0.0595262
0.176096
0.436004
0.0375409
0
0
0
5.26069e-005
0.00229299
0.0117967
0.363491
0.343199
0.107026
0.000988331
0.00296499
0
0
0.00475187
0.0137657
0.409273
0.428089
0.0708583
0.00817494
0.0137832
0.00584435
0.00221047
0.00601672
0.0377655
0.129119
0.366284
0.0953473
0.0201127
0.0473887
0.0753012
0.0199049
0.0332631
0.0904021
0.136584
0.288241
0.0738188
0.00988707
0.00382924
0
0
0.00213896
0.00780988
0.396217
0.412666
0.276777
0.219836
0.0655166
0.013673
0.00817704
0
0.00685534
0.281786
0.311313
0.0749037
0.039583
0.0329033
0.0638521
0.0130749
0.0210129
0.041094
0.183378
0.222278
0.128223
0.195954
0.051031
0.0118858
0.0743837
0.0745164
0.0741988
0.197483
0.167566
0.175647
0.364754
0.184314
0.0526351
0.0112299
0
0.00203309
0.0302234
0.0828232
0.0653744
0.33234
0.442211
0.11382
0.00304835
0.123856
0.107042
0.00968197
0.0217478
0.0909807
0.29024
0.0874076
0.0248135
0.0981928
0.0559131
0.0507069
0.0434518
0.0362847
0.0646374
0.208678
0.160986
0.0969365
0.0478841
0.152459
0.275567
0.0322241
0.0288082
0.0291461
0.15511
0.36009
0.0395342
0.0173062
0.209242
0.147344
0.0179771
0.0133944
0.00678154
0.118311
0.262826
0.00960063
0.0429086
0.162842
0.120189
0.0237349
0.0243014
0.007554
0.0241381
0.0790557
0.0468758
0.0911434
0.331441
0.405332
0.0503498
0.0121531
0.00431559
0.0107142
0.0693241
0.042892
0.20178
0.338328
0.257628
0.0583203
0.0388401
0.00584511
0.0505054
0.0829983
0.0177677
0.0858923
0.198603
0.0993119
0.0103344
0.0183137
0.0073135
0.00359854
0.00529808
0.011979
0.207496
0.369732
0.175605
0.0379112
0.00925245
0.0404574
0.0466718
0.123261
0.155592
0.126845
0.171711
0.0863366
0.0461614
0.0494576
0.0770306
0.0523205
0.0477907
0.0937639
0.0728095
0.198713
0.398857
0.43607
0.082697
0.00170428
0
0
0.00115494
0.0546651
0.160905
0.0396971
0.0108973
0.00227535
0.000909272
0
0
0.00375995
0.0971725
0.707119
0.0824341
0.00357375
0.000990854
0.0129237
0.00317864
0.00376423
0.00573801
0.0416303
0.0770985
0.0833255
0.0950671
0.0239838
0.00636491
0.00222192
0.00518449
0.00847412
0.0621887
0.580044
0.130991
0.0202551
0.0123588