0.0841183
0.061941
0.00658231
0.0389375
0.0807332
0.0656253
0.0382834
0.116413
0.078773
0.0666428
0.0159209
0.0133916
0.128585
0.18221
0.484895
0.300665
0.111987
0.0661553
0.0998654
0.111679
0.0462313
0.0336246
0.0224925
0.0782419
0.0697606
0.104758
0.132668
0.0413743
0.021531
0.023516
0.0340445
0.195305
0.465912
0.275042
0.142117
0.101051
0.0229671
0.033707
0.0310197
0.0439023
0.0559116
0.205967
0.314085
0.132085
0.0190567
0.271511
0.0958638
0.0471708
0.00655372
0.0337443
0.0755949
0.332374
0.129238
0.112102
0.0266441
0.013406
0.0054183
0.00924442
0.113595
0.208322
0.291505
0.153013
0.0402611
0.24484
0.0300247
0.00969347
0.0267516
0.0934911
0.104891
0.46034
0.215226
0.11885
0.366553
0.102666
0.0533214
0.0132542
0.0739535
0.0257548
0.0872979
0.0426257
0.242707
0.203816
0.15435
0.0968366
0.0591869
0.0880972
0.0403105
0.132045
0.126323
0.231139
0.291233
0.0903792
0.0328811
0.0531405
0.107782
0.0517392
0.256584
0.098758
0.196197
0.131234
0.206381
0.0633642
0.217983
0.210278
0.0743351
0.273755
0.137683
0.138193
0.0502374
0.0410429
0.0204793
0.0253315
0.0330043
0.0399843
0.208339
0.279855
0.0964798
0.0408618
0.0267958
0.00380367
0.0570372
0.052197
0.0761458
0.36471
0.432555
0.192446
0.0144814
0.0623031
0.0547609
0.144069
0.18484
0.129874
0.25385
0.13611
0.0294299
0.0462311
0.0834788
0.104408
0.185701
0.257984
0.174892
0.272727
0.123923
0.0263
0.111822
0.0861673
0.0136767
0.0297559
0.0333112
0.0904469
0.209493
0.178772
0.230202
0.161646
0.084443
0.0731406
0.0387604
0.0177478
0.035784
0.0981576
0.15579
0.427027
0.183012
0.187394
0.0660654
0.0827511
0.141439
0.0592858
0.127023
0.0783365
0.124662
0.268511
0.148898
0.0471995
0.0524832
0.0827866
0.00800408
0.104277
0.183513
0.448242
0.0914113
0.0444155
0.0752605
0.0121911
0.0019302
0.000328521
0.0622316
0.104452
0.22404
0.0677382
0.0822545
0.145509
0.000502708
0
0.0135722
0.110963
0.196266
0.171183
0.0868412
0.011976
0.021125
0.0220205
0.0135114
0.0148245
0.180397
0.259269
0.286541
0.015733
0.0106246
0.0338663
0.049303
0.00423778
0.0818669
0.332676
0.524173
0.371041
0.0846528
0.0340925
0.109783
0.0105437
0.0174384
0.0765115
0.113222
0.152117
0.100907
0.132968
0.0232965
0.0236724
0.0430018
0.0965816
0.075652
0.102966
0.06574
0.0534413
0.0400676
0.0359917
0.0290458
0.0616619
0.0390296
0.113509
0.430057
0.481709
0.269741
0.0832604
0.153716
0.034101
0.0655897
0.12635
0.071233
0.339515
0.262325
0.115666
0.031343
0.0140975
0.00818658
0.0613685
0.1262
0.0485828
0.0826129
0.0419251
0.0242965
0
0.0358731
0.15814
0.174851
0.241057
0.183136
0.111998
0.0497075
0.0333784
0.0439081
0.118628
0.0146136
0.0257191
0.180627
0.0843685
0.190419
0.12188
0.0432563
0.0634555
0.45699
0.256674
0.0669388
0.324519
0.349245
0.274426
0.0872264
0.0783907
0.0116487
0.00992377
0.0950266
0.0808757
0.0585804
0.0672497
0.12742
0.146744
0.0715595
0.0307399
0.00975051
0.0550266
0.0290281
0.0263127
0.0678563
0.247796
0.327273
0.183599
0.067189
0.192623
0.172456
0.030717
0.0750639
0.125021
0.234883
0.186891
0.174315
0.188941
0.0666956
0.12693
0.106579
0.0545699
0.117233
0.384271
0.290291
0.346134
0.0595265
0.127537
0.0954113
0.0596152
0.013947
0.0417199
0.0533937
0.0444834
0.131167
0.101821
0.121048
0.123818
0.0603923
0.1716
0.243454
0.0938761
0.143999
0.133962
0.0517522
0.161407
0.103158
0.128059
0.0600321
0.0711848
0.0584712
0.0395898
0.184994
0.217627
0.386014
0.321707
0.274258
0.272095
0.0419335
0.100053
0.0808443
0.158759
0.0891123
0.050774
0.0185236
0.00831939
0.101391
0.12882
0.0936019
0.164462
0.107017
0.152955
0.0405883
0
0.092122
0.173464
0.279905
0.23243
0.185006
0.125329
0.18374
0.166376
0.0848706
0.0784836
0.150701
0.0610468
0.0894197
0.080737
0.130304
0.115986
0.0499991
0.0722758
0.109688
0.300373
0.420265
0.260148
0.132099
0.220705
0.133222
0.0642827
0.0222171
0.115411
0.106673
0.139439
0.141905
0.0468351
0.0826719
0.0882815
0.148165
0.0887017
0.169375
0.141374
0.0855853
0.186798
0.112563
0.0538818
0.108582
0.0972964
0.121909
0.14157
0.125055
0.229421
0.193981
0.11422
0.253402
0.211654
0.255733
0.284628
0.152059
0.165071
0.0648498
0.151786
0.34553
0.186876
0.00729624
0.0811173
0.120422
0.121512
0.106342
0.108197
0.11538
0.105403
0.0216438
0.0575654
0.200744
0.311722
0.143009
0.111559
0.106101
0.0555101
0.0503066
0.0169423
0.0411784
0.116119
0.235391
0.119751
0.105631
0.0569368
0.128969
0.297905
0.0654418
0.0590472
0.226647
0.502975
0.174172
0.033391
0.158097
0.210393
0.15968
0.0544471
0.163032
0.293871
0.16642
0.0569275
0.0739335
0.0257255
0.0371249
0.0619757
0.03129
0.206803
0.187322
0.11358
0.0868098
0.0754826
0.00054724
0.046557
0.128346
0.275988
0.111962
0.239206
0.212447
0.0561047
0.020316
0.110768
0.205085
0.221539
0.0628706
0.201895
0.266342
0.151243
0.172505
0.09605
0.00916509
0.125873
0.33051
0.147649
0.0628885
0.0142761
0.0351541
0.047575
0.0145743
0.0385148
0.128786
0.11771
0.17267
0.0357182
0.0265558
0.0627548
0.0599933
0.0125069
0.206653
0.281775
0.194443
0.167744
0.251568
0.165861
0.101985
0.118799
0.0334072
0.0397147
0.0834347
0.0840264
0.103162
0.446027
0.402545
0.229255
0.113334
0.031503
0.223862
0.183287
0.0403168
0.102533
0.0243933
0.0485121
0.0484226
0.070696
0.0317937
0.067061
0.101127
0.0878945
0.0618586
0.0605693
0.176811
0.0989894
0.0888629
0.0520358
0.0190421
0.0629773
0.0640889
0.0577438
0.183268
0.417545
0.188939
0.0967962
0.0326879
0.0697524
0.0319816
0.00995793
0.0433741
0.370826
0.541031
0.334402
0.177184
0.0270435
0.0118561
0.00628204
0.0136813
0.0739431
0.0629741
0.201854
0.0645156
0.00829455
0.0375021
0.0100202
0.0190011
0.0350303
0.0149721
0.147164
0.42093
0.129149
0.0131043
0.0497724
0.0255186
0.0258861
0.0251047
0.0228567
0.202602
0.449246
0.210933
0.0908087
0.00806944
0.00142722
0.00120914
0.016367
0.0249695
0.391708
0.449246
0.138876
0.0614261
0.0431056
0.0289896
0.00505966
0.0389308
0.0595949
0.0764886
0.220581
0.116901
0.0150861
0.0223642
0.0306569
0.120241
0.0928517
0.0761418
0.0580316
0.0532491
0.047657
0.0816056
0.0347294
0.121671
0.410689
0.129921
0.104795
0.203409
0.206677
0.068944
0.0673737
0.0947511
0.111284
0.0973127
0.0998434
0.0555985
0.0250895
0.0254683
0.0146205
0.170387
0.32198
0.413148
0.422668
0.0831523
0.0232537
0.0833403
0.11752
0.0437943
0.0596625
0.0695893
0.0616384
0.054263
0.0995211
0.142554
0.0887146
0.141653
0.102862
0.156177
0.216792
0.0780492
0.236607
0.116827
0.0920984
0.311857
0.152021
0.069187
0.134695
0.23446
0.143274
0.0227985
0.111375
0.21894
0.227679
0.0803693
0.206634
0.249323
0.185668
0.1941
0.208041
0.156144
0.148586
0.0951281
0.0863542
0.115386
0.107283
0.129085
0.0379597
0.15059
0.026624
0.0326769
0.0570772
0.0518069
0.204672
0.146434
0.174332
0.314322
0.121263
0.0379337
0.133678
0.0420752
0.0586604
0.180887
0.155566
0.123847
0.0924885
0.145748
0.0479007
0.023578
0.0191403
0.0649441
0.198668
0.291059
0.368202
0.436766
0.0584652
0.0361053
0.0263005
0.028751
0.0292016
0.058862
0.0965374
0.0554849
0.239806
0.0670291
0.0959679
0.133134
0.0795261
0.0873785
0.134206
0.0951908
0.0991481
0.116967
0.0483087
0.250908
0.231095
0.00535477
0.0339329
0.0432418
0.0866282
0.205487
0.493295
0.101032
0.0558135
0.0510964
0.0512827
0.108403
0.0433348
0.0572187
0.157558
0.352159
0.17395
0.210412
0.283403
0.0283256
0.0544819
0.114852
0.091029
0.102134
0.0365454
0.0948425
0.160321
0.104876
0.0412137
0.0286841
0.108515
0.0749239
0.0487121
0.30565
0.319122
0.0888574
0.06587
0.107353
0.195423
0.0476065
0.043965
0.0847973
0.0465603
0.0851244
0.146729
0.188156
0.252831
0.488124
0.0922003
0.0185639
0.0430504
0.245554
0.220407
0.0847664
0.237485
0.068899
0.0336465
0.0274904
0.004692
0.0057005
0.0926689
0.108421
0.0482692
0.0357929
0.134087
0.208704
0.185877
0.0143506
0.00753743
0.00839272
0.038284
0.0810456
0.0418377
0.299824
0.312953
0.0478944
0.00228106
0.00436204
0.0765108
0.105789
0.0198059
0.098242
0.479017
0.488141
0.353416
0.0337459
5.98707e-005
0.00719663
0.0394296
0.0183732
0.044359
0.164064
0.255646
0.127404
0.0158374
0.00450342
0.00199533
0.00349083
0.0250446
0.0265527
0.310243
0.375099
0.127868
0.0260974
0.00471356
0.0128215
0.00687604
0.00554192
0.0251695
0.188486
0.438358
0.267377
0.0354007
0
0.0028182
0.0042273
0.00410435
0.0168759
0.22138
0.446498
0.200328
0.0296474
0
0.004697
0.0070455
0.0197122
0.0158155
0.169911
0.321101
0.147185
0.0337557
0.00407574
0.00678242
0.00157802
0.00268108
0.00760245
0.266267
0.435559
0.207715
0.069794
0.000582249
0.000582249
0
0.000383012
0.00871159
0.156556
0.39296
0.152528
0.0372727
0
0.000617664
0.000926495
0.0187676
0.00545485
0.264871
0.435559
0.168592
0.0290244
0.000124199
0
0
0.00268108
0.0141537
0.22778
0.391465
0.192826
0.101621
0.00238559
0.00189655
0.00758619
0.0026546
0.0287838
0.275503
0.287655
0.100481
0.0676188
0.0741313
0.0892717
0.0551842
0.0444893
0.175005
0.224707
0.292486
0.138989
0.0186235
0.0481394
0.00436783
0.0126437
0.0185822
0.0553749
0.146791
0.118337
0.0532879
0.0696403
0.479769
0.117453
0.0885056
0.0498449
0.132214
0.0715888
0.0396685
0.0311978
0.110864
0.128289
0.104454
0.0280889
0.0468211
0.0693283
0.00567334
0
0.0148355
0.274665
0.386396
0.192458
0.0441902
0.0156474
0.00466941
0.0141215
0.00827027
0.0163857
0.141728
0.450476
0.098261
0.0274908
0.0194752
0.0408409
0
0
0.0132812
0.427303
0.454977
0.0992693
0.00211842
0.00227661
0.00186268
0.221873
0.0863852
0.0890003
0.196883
0.144041
0.100204
0.0119723
0.0228999
0.135111
0.194638
0.100902
0.243067
0.315877
0.089108
0.08023
0.0300234
0.0214635
0.0663744
0.116464
0.260915
0.123097
0.243712
0.112989
0.0842533
0.0279155
0.0844291
0.19294
0.257315
0.28784
0.164398
0.247377
0.0551132
0.0584281
0.0339922
0.108166
0.0719913
0.0156465
0.05159
0.0679723
0.0829634
0.0446652
0.0251301
0.0208623
0.00835964
0.00411088
0.0148051
0.189753
0.0989036
0.10463
0.108096
0.0693951
0.0235468
0.0281874
0.00229065
0.0987855
0.094613
0.155351
0.097832
0.0444669
0.0148551
0.00691572
0.00977788
0.0121575
0.0620618
0.574875
0.647745
0.167367
0.0668464
0.015809
0.00635139
0.0482017
0.00159392
0.0448579
0.169961
0.046293
0.0138405
0.0580075
0.0896936
0.0409849
0.0107204
0.00841619
0.12665
0.241488
0.0371541
0.0068374
0.0532584
0.0718995
0.0601927
0.0418412
0.0626984
0.165204
0.507378
0.255904
0.0259284
0.0156547
0.0103077
0.00744039
0.0288735
0.00443107
0.420749
0.507378
0.118485
0.0390198
0.0717715
0.00954188
0.0155631
0.036038
0.0367469
0.0920196
0.268245
0.0507909
0.0103338
0.0187377
0.00615481
0.0147072
0.0352057
0.0471795
0.164976
0.43534
0.113274
0.00824154
0.00360968
0.0124608
0.0197123
0.0188276
0.0600181
0.160899
0.437973
0.164401
0.0637069
0.0575705
0.000912124
0.0100665
0.0151217
0.0482383
0.256207
0.477303
0.273128
0.0564579
0.0079495
0.00597118
0.0477342
0.00332929
0.0557357
0.153901
0.381549
0.0967803
0.0105182
0.000518597
0.0126303
0.0232383
0.00330265
0.0340333
0.216983
0.47185
0.169237
0.0751461
0
0.00440848
0.0115162
0.0012786
0.0110863
0.180499
0.303859
0.25018
0.0350612
0.0152543
0.0187554
0.0344996
0.000244786
0.0173151
0.197655
0.421515
0.22493
0.0707908
0.0390035
0.0258361
0.0171875
0.00507034
0.0530246
0.158727
0.356275
0.175726
0.0716619
0
0.00365705
0.00630065
0.000815085
0.00956255
0.214963
0.460209
0.123439
0.0245436
0
0.00609508
0.00925905
0.00933689
0.0167965
0.246449
0.265606
0.0778239
0.0437658
0.0143239
0.00695863
0.00648925
0.0057056
0.191746
0.269243
0.192893
0.0242859
0.00547996
0.000949903
0.000870725
0.0027939
0.014813
0.448139
0.253454
0.526689
0.0996839
0.0119297
0
0.00146076
0.00219114
0.0163283
0.0306036
0.225388
0.447446
0.0634922
0.00715782
0.00181134
0
0
0.00233262
0.0306846
0.187759
0.105113
0.00663269
0
0.00333696
0.0127344
0.0268134
0.0688934
0.483031
0.0418895
0.0429621
0.00156393
0
0.0276343
0.0208761
0.040713
0.0429477
0.158105
0.0687179
0.0828703
0.0232563
0.00740656
0.100171
0.0034077
0.00225644
0.00901451
0.0276235
0.0206897
0.0174574
0.00724841
0.0919693
0.655374
0.0414873
0.0157951
0.0150242
0.0181326
0.000897746
0.00419182
0.000179867
0.0099647
0.160713
0.00716841
0.00360365
0.000234068
0.00597637
3.77411e-005
0
0
0.11893
0.655374
0.0382752
0
0
0.000796686
0.000541834
0.000812751
0.000477742
0.0747007
0.459493
0.0225087
0.0031985
0.00111923
0.000279808
0
0
0.000796237
0.204779
0.459493
0.0912789
0.00164234
0
0
0
0
0
0.103625
0.459493
0.0142914
0
0
0
0
0.0224122
0.00560305
0.142802
0.459493
0.145571
0.0247732
0.00047023
0
0.0912109
0.157523
0.127448
0.156355
0.0465995
0.0637993
0.0894648
0.0773647
0.0800633
0.258652
0.104976
0.0677674
0.0719924
0.0241641
0.105608
0.0899824
0.0870281
0.0722637
0.218869
0.247098
0.268826
0.150603
0.0303009
0.0634784
0.139661
0.186508
0.0826837
0.339692
0.164288
0.189165
0.0596492
0.165709
0.270484
0.170422
0.281252
0.147078
0.0736947
0.0224985
0.135273
0.0761966
0.0352553
0.058227
0.0233878
0.0099991
0.0119623
0.0307284
0.143882
0.477749
0.184206
0.100677
0.12997
0.0185379
0.0892361
0.00244683
0.0579709
0.0133382
0.0928234
0.0780728
0.115858
0.242598
0.044466
0.127997
0.0559021
0.0816208
0.0396927
0.215237
0.148222
0.164594
0.381535
0.0914577
0.39309
0.269691
0.110267
0.256274
0.255993
0.049253
0.0495292
0.127166
0.0159614
0.0863811
0.00336172
0.244822
0.349256
0.10002
0.103791
0.137846
0.0573544
0.0311174
0.0787494
0.0124163
0.0639634
0.0547232
0.0907034
0.0359573
0.0784117
0.308791
0.144845
0.334737
0.214122
0.119836
0.133552
0.0510237
0.165619
0.19282
0.168807
0.185103
0.256644
0.152713
0.109702
0.314583
0.156159
0.121793
0.177798
0.00671176
0.0320181
0.0422367
0.0307373
0.24565
0.370123
0.182708
0.0391932
0.0596293
0.0155041
0.041901
0.0181721
0.0724372
0.0506897
0.113712
0.102674
0.17276
0.248282
0.0304618
0.229314
0.19651
0.115153
0.0714779
0.0899435
0.076188
0.0228514
0.0925182
0.0376206
0.23868
0.38384
0.242595
0.307703
0.185305
0.156949
0.0217643
0.0937578
0.0466661
0.0375116
0.0246254
0.0621799
0.432058
0.167078
0.140046
0.0487961
0.207639
0.101727
0.0192291
0.0519032
0.190869
0.103817
0.0221746
0.00661228
0
0.0730493
0.0405058
0.143052
0.306241
0.190374
0.335388
0.0140701
0.0038245
0.0181317
0.149047
0.061705
0.0379429
0.185606
0.293686
0.216216
0.0638533
0.0144297
0.0251974
0.0484556
0.0246859
0.0140967
0.082514
0.298128
0.182532
0.0265247
0.000336625
0.0170525
0.0587123
0.0120863
0.0906435
0.151919
0.549549
0.155896
0.0165786
0.0116041
0.070576
0.103749
0.0576348
0.0210972
0.14955
0.211493
0.0915874
0.01177
0.0959547
0.212376
0.317792
0.150884
0.207432
0.209677
0.197921
0.0830433
0.00213154
0.00765578
0.0544313
0.127637
0.0330426
0.100644
0.155255
0.409765
0.00714986
0
0.0115736
0.0565321
0.20912
0.0451371
0.0876991
0.0832506
0.119622
0.040367
0.00318256
0.106833
0.292611
0.39661
0.144606
0.203349
0.138434
0.111353
0.0154307
0.000454651
0.0835913
0.23292
0.406426
0.0969487
0.12091
0.151636
0.088989
0
0
0.00131564
0.00963531
0.166275
0.0117502
0.00994874
0.000237724
0.00451674
0
0
0
0.0870686
0.617899
0.064806
0
0
0
0.0109897
0
0.0092095
0.0431739
0.193484
0.0319166
0.0167311
0.0375824
0.0294535
0.00156995
0
0.0284969
0.248634
0.617899
0.173377
0.00060633
0.00242532
0.00156995
0
0
0
0.113832
0.447091
0.0357345
0.00640274
0.0011299
0
0.0148438
0.02708
0.00833425
0.0880974
0.447091
0.0895106
0.0906417
0.00936195
0.0486749
0
0
0.0307536
0.161661
0.447091
0.111496
0.0106712
0.00188316
0
0.0259626
0.0149013
0.109588
0.145633
0.447091
0.077552
0.101719
0.0357516
0.151993
0.217577
0.191847
0.0606183
0.0171415
0.0107442
0.00344045
0.00811202
0.0291504
0.041197
0.145118
0.0849115
0.0554098
0.0156151
0.042822
0.0360454
0.0474927
0.202752
0.112069
0.430143
0.180674
0.0170794
0.0116124
0.0426525
0.000850183
0.000339415
0.018187
0.361231
0.464383
0.155798
0.0633007
0.0631946
0.0466151
0.00978341
0.0396777
0.161977
0.379305
0.0710779
0.0213003
0.0221015
0.0342813
0.111878
0.129718
0.0951257
0.295412
0.0998718
0.131303
0.0861102
0.0363674
0.0371142
0.0924271
0.160505
0.119161
0.403174
0.328304
0.224442
0.142895
0.12262
0.117706
0.273321
0.0702123
0.128239
0.214528
0.143426
0.0805596
0.102526
0.082791
0.114486
0.319978
0.10781
0.116254
0.159982
0.0644716
0.0298851
0.0289033
0.00847496
0.00851037
0.0199471
0.102681
0.187649
0.358574
0.216092
0.0275597
0.0295182
0.0109094
0.0548756
0.0406815
0.100228
0.305195
0.418909
0.160825
0.0181184
0.0223051
0.0103945
0.0351273
0.0651179
0.0544557
0.124583
0.228497
0.0634092
0.0408055
0.000974989
0.00169027
0.0240035
0.035268
0.0650812
0.275039
0.494462
0.0890112
0.009075
0.0117444
0.0254065
0.0420924
0.0310945
0.0325608
0.198486
0.21366
0.0743626
0.0027923
0.00169376
0.0152439
0.00585155
0.00943675
0.0411196
0.270809
0.336394
0.107126
0.011821
0.000403277
0.0036295
0.012572
0.00553058
0.0372073
0.254988
0.453397
0.0410085
0
0.000241966
0.0021777
0.00179599
0.000448998
0.0473263
0.417688
0.453397
0.0602015
0.00678509
0.00210956
0.00210956
0
0.00212997
0.0240914
0.217906
0.268776
0.119927
0.0377033
0.00613599
0.00351593
0
0.0158774
0.0026234
0.126753
0.24362
0.157508
7.39412e-005
0.0147669
0.0147669
0
0.000675494
0.0392644
0.389405
0.365
0.119582
0.0035918
0.0289783
0.0246115
0.0181726
0.0116476
0.0929413
0.329665
0.504739
0.195751
0.0314204
0.00798967
0.010903
0.0512739
0.0928145
0.0558328
0.0519484
0.128164
0.0707193
0.0105398
0.011076
0.11092
0.146272
0.207281
0.186163
0.117333
0.161721
0.0702348
0.00869312
0.0159847
0.00498866
0.0262229
0.0422676
0.0754385
0.220461
0.414056
0.194438
0.0123082
0.0114387
0.0327828
0.0198692
0.063475
0.109432
0.267738
0.510372
0.369286
0.0230455
0.00790056
0.0949274
0.114357
0.216229
0.124108
0.108929
0.168602
0.11126
0.0692004
0.00934256
0.0336138
0.117054
0.207382
0.0625621
0.084277
0.250497
0.142106
0.119229
0.00474034
0.0314552
0.0104428
0.0613953
0.041918
0.0965597
0.34333
0.472708
0.343037
0.0581746
0.00383741
0.0826772
0.144105
0.00963422
0.0413617
0.193287
0.298213
0.0221825
0.00673958
0.00284817
0.0767316
0.159805
0.0120675
0.0172053
0.0797338
0.0337712
0.00164074
0.000962797
0.0239564
0.327002
0.482518
0.06532
0.00138557
0.00554228
0.00131981
0.0908901
0.0471771
0
0.109844
0.272725
0.000750674
0.00897508
0.0473716
0.0310635
0.00303511
0.00673958
0.00342234
0.409504
0.541612
0.0260781
0.00347522
0.00332537
0.000788585
0
0
0.0306176
0.166001
0.398127
0.0680561
0.00137123
0.000241982
0
0.00633537
0.00393395
0.111272
0.198318
0.387244
0.0391444
0.0118877
0.0222954
0.10692
0
0
0.00539934
0.223506
0.462053
0.0350085
0.00183929
0
0
0.0115082
0
0.0513975
0.233812
0.462053
0.101449
0.00996845
0.0034367
0.0363806
0.305817
0.0269743
0.00847632
0.0050142
0.0253339
0.00103787
0.0071304
0.0533289
0.500551
0.513177
0.116911
0.0611429
0.0307579
0.02777
0.00799858
0.0193966
0.0480388
0.445355
0.0862143
0.0284774
0.0341209
0.023061
0.0337891
0.00413196
0.0141333
0.0717471
0.151877
0.146066
0.0565558
0.055014
0.00328898
0.0511939
0.0369939
0.058925
0.0802277
0.180359
0.522735
0.287842
0.196862
0.114351
0.216109
0.0475962
0.0553939
0.0473049
0.244364
0.199937
0.178628
0.102174
0.134129
0.272807
0.0968081
0.0353066
0.0100696
0.0351827
0.230829
0.123275
0.0996231
0.00724798
0.0465541
0.10344
0.154324
0.0471216
0.130168
0.176855
0.112331
0.0434507
0.0210207
0.0384753
0.0834611
0.0992973
0.0218687
0.0687264
0.105174
0.0511498
0.0172424
0.074332
0.0977793
0.0980275
0.0420183
0.0997064
0.0898555
0.192848
0.00455816
0.0160491
0.086328
0.0683392
0.110683
0.254221
0.681721
0.19155
0.0961467
0.05843
0.0229298
0.0370465
0.0101695
0.058137
0.093458
0.0803811
0.102599
0.10365
0.0315497
0.0270127
0.175186
0.170015
0.126274
0.15614
0.181116
0.0954761
0.0239564
0.00175101
0.000800859
0.0372985
0.0200604
0.0997457
0.226347
0.352388
0.0355087
0.0353707
0.00576668
0
0.0153927
0.00946121
0.131542
0.497811
0.502261
0.0722066
0.0253185
0.013518
0.00170807
0.0818322
0.102096
0.135769
0.0993362
0.0516882
0.0230842
0.176583
0.0481867
5.33288e-005
0.0284642
0.0462037
0.16144
0.278879
0.16397
0.116069
0.0548405
0.00738508
0.00497752
0
0.000618927
0.0327176
0.252804
0.25066
0.0940895
0.0305395
0.00913941
0.00829587
0.0166508
0.00520884
0.0835443
0.280022
0.40373
0.112934
0.191399
0.0243828
0
0
8.84181e-005
0.022773
0.1463
0.205537
0.142618
0.103756
0.00541518
0
0.00237869
0.000744121
0.0152337
0.351256
0.489222
0.232173
0.00556341
0.00288756
0.000883622
0.0131048
0.00387576
0.0311653
0.18731
0.284433
0.0862778
0.0117702
0.00210422
0
0.00187211
0.01362
0.0413235
0.231554
0.31396
0.180826
0.0373816
0.0061352
0
0.00187211
0.00349713
0.0232312
0.242363
0.425134
0.15625
0.0562313
0.00986406
0
0.000267444
0.0225499
0.151613
0.392118
0.425134
0.138746
0.037455
0.00022671
0
0.000526072
0.00626403
0.0193403
0.140063
0.276361
0.167283
0.103291
0.0154824
0.0016736
0.00759975
0.0142993
0.00152672
0.0820765
0.225738
0.0897899
0.0153908
0.00158697
0.00400709
0.000445232
0.00985553
0.165445
0.355823
0.450398
0.0596501
0.0341065
0.00414695
0.0318193
0.00311662
0.00150798
0.131488
0.35863
0.477134
0.116672
0.0505492
0.0210287
0.0141946
0.0486667
0.164059
0
0.00944026
0.0581583
0.0244919
0.00727724
0.00467974
0.017793
0.26561
0.519426
0.0253019
0.00389572
0.00181872
0.00309875
0.112796
0.0605474
0.0998296
0.0304051
0.118638
0.0584451
0.200079
0.251903
0.0999172
0.110477
0.115605
0.214535
0.256698
0.519426
0.0218259
0.0650179
0.013859
0.0183831
0
0
0.00135575
0.178897
0.362186
0.034554
0.00269257
0
0
0.0259764
0.0081846
0.031744
0.146213
0.426528
0.128239
0.00970657
0.000490629
0.00397856
0.00699043
0.0162138
0.0393897
0.320565
0.34718
0.0235282
0.00100978
0
0
0.0155858
0.013641
0.0462348
0.426528
0.395863
0.0690494
0.00429784
0.00117169
0.0102799
0.13836
0.157169
0.113309
0.145389
0.0909539
0.0319272
0.0348177
0.0778838
0.0268033
0.201356
0.250933
0.182596
0.0537596
0.0953173
0.0865098
0.0863437
0.141301
0.0871459
0.216177
0.201398
0.185523
0.241656
0.103958
0.0793132
0.105331
0.0271625
0.0213623
0.202672
0.350606
0.293735
0.132634
0.0912538
0.184252
0.0223843
0.178758
0.0861249
0.101762
0.155289
0.230085
0.00626495
0.0823253
0.154063
0.163463
0.0781095
0.078493
0.0701917
0.0967521
0.135987
0.0269556
0.0567609
0.141408
0.233923
0.0523891
0.118782
0.136702
0.237618
0.248117
0.00908676
0.254003
0.236301
0.0193538
0.189958
0.102727
0.148761
0.177752
0.153347
0.0753411
0.212893
0.282635
0.127469
0.0425266
0.0918377
0.0699603
0.130731
0.0755056
0.0649217
0.015576
0.0614955
0.153895
0.0718479
0.0975181
0.162758
0.139339
0.0915745
0.167278
0.14219
0.138163
0.112672
0.184369
0.14985
0.0860777
0.113938
0.115386
0.131336
0.0940797
0.213209
0.166311
0.0473731
0.127598
0.205646
0.139908
0.172584
0.12966
0.0684327
0.137321
0.150278
0.155476
0.484953
0.074066
0.035361
0.0161554
0.112276
0.17141
0.205596
0.0738073
0.113239
0.148338
0.357689
0.099633
0.00830937
0.0264401
0.0961089
0.153852
0.133358
0.151303
0.362214
0.139323
0.104529
0.0491251
0.0533985
0.0397793
0.0579357
0.0834535
0.146507
0.232554
0.175633
0.0897806
0.0210005
0.0277763
0.0562616
0.103136
0.184758
0.236086
0.34442
0.275551
0.0622008
0.00627563
0.00963861
0.00544968
0.00953954
0.0552184
0.139501
0.16152
0.207044
0.0538367
0.0105288
0.0149988
0.00270359
0.0211728
0.245235
0.58072
0.40096
0.120124
0.0388481
0.0237224
0.0674702
0.0117842
0.0300284
0.0421294
0.0675613
0.140982
0.213578
0.112004
0.0810585
0.104991
0.0232428
0.0364083
0.0613251
0.162243
0.137595
0.0520975
0.00935324
0.00162974
0.00300512
0.00316263
0.0343182
0.16247
0.391592
0.215708
0.0426889
0.0171729
0
0.00118299
0.00633444
0.157523
0.442473
0.506343
0.21297
0.0730029
0.0396399
0.0261072
0.0324228
0.0476288
0.0482998
0.06729
0.0853637
0.0774508
0.0256969
0.0899352
0.0179279
0.0500304
0.0679065
0.114086
0.2072
0.233327
0.182317
0.0149314
0.0129426
0.0034895
0.000387722
0.00116152
0.112536
0.206397
0.259896
0.137213
0.0245884
0.011098
0.0270758
0.00271406
0
0.141911
0.243152
0.32014
0.279847
0.0282496
0.0883291
0.00286556
0.00819341
0.00975679
0.0362445
0.0869041
0.238247
0.257154
0.040431
0.0505266
0.00488184
0.0015022
0.017729
0.121995
0.320804
0.388607
0.374685
0.0642216
0.0998936
0.0498297
0.00829885
0.0148567
0.116634
0.227024
0.138139
0.132905
0.105855
0.243907
0.135996
0.182289
0.134533
0.0490336
0.125032
0.0455307
0.0149976
0.0228421
0.0604182
0.00764725
0.00220405
0.0108962
0.15372
0.412346
0.317983
0.151502
0.139887
0.203629
0.057646
0.13919
0.0264017
0.0895113
0.291672
0.402857
0.11167
0.0268868
0.0643126
0.0532433
0.332636
0.24903
0.0323106
0.00876833
0.0114631
0.000579126
0.0015481
0.0275497
0.0170477
0.40228
0.337038
0.0636125
0.00429788
0.00373745
0.0267782
0.1093
0.109145
0.132727
0.377523
0.136488
0.0313006
0.0652769
0.100987
0.0356391
0.0138042
0.0772257
0.130738
0.437871
0.219239
0.0821258
0.0229474
0.0236224
0.0184949
0.0942981
0.147814
0.215025
0.216351
0.116646
0.12645
0.101126
0.054687
0.0264143
0.070552
0.164395
0.238536
0.0980873
0.183851
0.26776
0.0275191
0.150492
0.126085
0.0444633
0.0674527
0.151924
0.220604
0.146878
0.14624
0.0878311
0.0893204
0.0535453
0.0495502
0.03111
0.0924275
0.140013
0.378911
0.242013
0.0316552
0.0539027
0.0911201
0.0660489
0.101815
0.107479
0.015677
0.253619
0.305554
0.0241389
0.0819794
0.056373
0.108856
0.0842388
0.0440257
0.0683733
0.187083
0.333786
0.0713617
0.0542952
0.0692232
0.0364404
0.020725
0.0214377
0.110094
0.298865
0.322316
0.0341877
0.0222734
0.0360067
0.115775
0.0597116
0.015799
0.12059
0.160156
0.307842
0.0911339
0.237205
0.100794
0.0618185
0.0438419
0.037605
0.0721047
0.0493051
0.144698
0.0725021
0.0768185
0.119107
0.142459
0.0893721
0.074043
0.0335039
0.0269479
0.0670108
0.0800975
0.138889
0.338619
0.171918
0.197281
0.0935457
0.054287
0.0178933
0.0646029
0.0681371
0.196891
0.0807993
0.256664
0.458217
0.195175
0.0249167
0.00633614
0.0145923
0.0638252
0.171508
0.335144
0.139084
0.0985694
0.0287502
0.00687545
0.0232903
0.0201967
0.0899565
0.118302
0.164515
0.0743078
0.0746599
0.0125852
0.0107001
0.0202565
0.0541798
0.182323
0.253161
0.350344
0.132561
0.142726
0.0431649
0
0.0138396
0.0207183
0.0725775
0.285138
0.347385
0.0988541
0.0510585
0.0354578
0.0486726
0.038323
0.0888921
0.160251
0.320851
0.340957
0.0757274
0.0263831
0.0212938
0.0423129
0.0068217
0.0339271
0.0491585
0.10105
0.264463
0.389798
0.211125
0.0964494
0.120075
0.0441691
0.0441852
0.0370183
0.140734
0.0998427
0.056142
0.0424786
0.0374952
0.0610352
0.0495943
0.04133
0.0596989
0.0860072
0.160044
0.300466
0.261737
0.0762275
0.465103
0.182775
0.082776
0.152249
0.125728
0.0909844
0.218621
0.180126
0.0470379
0.0930411
0.115754
0.0504015
0.0337559
0.0329677
0.00730683
0.098492
0.145345
0.0365018
0.136336
0.215876
0.158149
0.0709917
0.10785
0.134376
0.348432
0.267457
0.0340262
0.240499
0.0786132
0.0980785
0.157124
0.133588
0.0315915
0.307446
0.169036
0.131124
0.0934928
0.112324
0.293199
0.20482
0.187445
0.0893431
0.0709721
0.112555
0.00690467
0.0244021
0.047206
0.0615681
0.0277826
0.211041
0.285153
0.156251
0.182743
0.0409754
0.00745243
0.0633115
0.146808
0.339472
0.336774
0.303869
0.0738806
0.0829606
0.0586641
0.0458954
0.0456864
0.105354
0.0413687
0.153264
0.161124
0.142748
0.400412
0.15027
0.108352
0.0380377
0.0395935
0.0457376
0.167353
0.195028
0.0527059
0.089703
0.0269951
0.00501584
0.0277882
0.0695571
0.269773
0.252065
0.151192
0.195551
0.122564
0.0600869
0.0268207
0.0084842
0.0503192
0.21634
0.38548
0.429007
0.0804021
0.224707
0.0770821
0.0251563
0.0230644
0.0263907
0.0788242
0.100104
0.121523
0.177719
0.131706
0.0723721
0.00498648
0.0230779
0.0325316
0.0910314
0.128351
0.388967
0.227904
0.214074
0.235228
0.268459
0.030886
0.0212984
0.0849005
0.11312
0.279967
0.0845606
0.177122
0.267331
0.407293
0.0537096
0.0995939
0.0517136
0.0473904
0.0422021
0.220032
0.147943
0.10795
0.0585902
0.0254199
0.0406688
0.0383653
0.0675314
0.338835
0.163061
0.147736
0.0912336
0.105623
0.0506336
0.134884
0.0811603
0.0572464
0.0823517