0.187958
0.247367
0.128549
0.0636504
0.0669148
0.0384087
0.0217162
0.0127566
0.0605491
0.220617
0.21872
0.166102
0.130952
0.0592849
0.0280734
0.00756613
0.00959464
0.0610925
0.33157
0.147484
0.166494
0.197577
0.150401
0.0834161
0.0386809
0.0280214
0.15057
0.289541
0.175554
0.199404
0.318363
0.244708
0.0493249
0.0131792
0.0635717
0.133319
0.11788
0.160563
0.113573
0.109737
0.0640552
0.0354878
0.0226858
0.0412576
0.0877808
0.0841566
0.177684
0.26113
0.067936
0.117646
0.0793685
0.0441112
0.150989
0.193307
0.143994
0.177359
0.212284
0.273203
0.0905252
0.0917997
0.0438985
0.0705243
0.13111
0.103882
0.200177
0.43105
0.12754
0.0828042
0.190939
0.197815
0.112316
0.106198
0.0870917
0.203915
0.164709
0.0463288
0.0415543
0.0307196
0.03265
0.0796391
0.154439
0.0926032
0.279189
0.120557
0.0825974
0.0198987
0.0383513
0.0905963
0.0895391
0.183877
0.156525
0.231326
0.226894
0.0517437
0.0561601
0.066534
0.189583
0.085038
0.12865
0.193704
0.42227
0.265337
0.245271
0.05748
0.0178564
0.108814
0.0570532
0.166621
0.0561166
0.155644
0.0733705
0.0398053
0.0699239
0.097167
0.103116
0.141658
0.13602
0.196018
0.201679
0.115946
0.0660888
0.079634
0.0731071
0.0525993
0.113596
0.191079
0.15738
0.30089
0.138662
0.152458
0.157193
0.0391935
0.0358976
0.0376964
0.0844577
0.19281
0.497569
0.245489
0.13082
0.151671
0.0308518
0.0116922
0.0368249
0.0919064
0.155321
0.15252
0.0690007
0.0925055
0.0525988
0.0139858
0.0176724
0.0409353
0.104972
0.149649
0.157973
0.0568755
0.187753
0.19307
0.0529633
0.008795
0.0125585
0.101665
0.143318
0.418586
0.20769
0.142588
0.0406833
0.0171634
0.0118389
0.00806798
0.0559305
0.305528
0.371801
0.170033
0.157795
0.108857
0.183301
0.0344067
0.0358635
0.203755
0.0722072
0.106204
0.0168667
0.0945841
0.188626
0.0474046
0.00351599
0.00403369
0.0712973
0.0666851
0.199607
0.102927
0.226825
0.171919
0.0414543
0.0184434
0.0264329
0.0887911
0.155001
0.10769
0.0379334
0.0506578
0.1408
0.148356
0.0113046
0.0600979
0.164898
0.0887962
0.335843
0.188484
0.386533
0.425485
0.105755
0.0433958
0.204147
0.167798
0.0567548
0.106758
0.108297
0.0748531
0.0514064
0.0398589
0.00690515
0.023719
0.0485072
0.0877054
0.0798298
0.075913
0.0915112
0.187669
0.128776
0.0558758
0.0738987
0.0821973
0.101502
0.390481
0.210202
0.238742
0.16047
0.0553539
0.0237927
0.119231
0.150794
0.157082
0.369889
0.274923
0.156861
0.243261
0.316659
0.00696596
0.0779594
0.202471
0.0320463
0.0333937
0.0830112
0.170215
0.162323
0.151455
0.0906015
0.0492647
0.0297609
0.165015
0.0716852
0.128632
0.247159
0.096631
0.290881
0.146863
0.168869
0.222594
0.122792
0.144578
0.113053
0.125567
0.138852
0.173855
0.0490451
0.0153863
0.0375946
0.462516
0.136686
0.0372372
0.181046
0.178862
0.281833
0.14313
0.0798391
0.145656
0.141641
0.0386836
0.0993535
0.153337
0.0423797
0.164829
0.100622
0.0975859
0.206472
0.376536
0.22828
0.14435
0.0882397
0.0365823
0.1027
0.0603171
0.061165
0.115359
0.210947
0.0558734
0.190446
0.17926
0.263712
0.220673
0.0702587
0.0574448
0.0789211
0.181099
0.234003
0.336836
0.108003
0.237466
0.141379
0.0468723
0.0811429
0.0493025
0.375803
0.0862449
0.159271
0.143814
0.0717458
0.0638798
0.0478095
0.0583743
0.215548
0.351514
0.0913911
0.1624
0.23161
0.161048
0.0288065
0.0529417
0.170759
0.183771
0.144971
0.0941013
0.116785
0.0568324
0.0420804
0.0665311
0.0534782
0.0906718
0.0788984
0.158785
0.0775317
0.137944
0.152229
0.214407
0.0286348
0.0565031
0.124184
0.136358
0.0633887
0.0461511
0.123953
0.0779954
0.025804
0.0326487
0.0274147
0.0404508
0.0517166
0.117414
0.135629
0.271382
0.107762
0.0213011
0.0447965
0.0569349
0.0319767
0.0332125
0.0205103
0.0545163
0.137709
0.183922
0.130775
0.0363205
0.0105672
0.076898
0.0406288
0.148535
0.220625
0.343395
0.657927
0.130245
0.0499721
0.00701432
0.138749
0.0211728
0.15813
0.26007
0.130161
0.0476323
0.0142512
0.0165373
0.06292
0.0239121
0.0327585
0.119585
0.311501
0.10617
0.0590956
0.0304681
0.0414156
0.123926
0.053443
0.0405848
0.277866
0.332987
0.19645
0.43803
0.0732833
0.0255748
0.0155404
0.032834
0.00454761
0.238174
0.219391
0.146228
0.183857
0.109436
0.141873
0.113501
0.0465009
0.0275157
0.12543
0.166693
0.0898196
0.0592377
0.10376
0.0372935
0.082408
0.0575497
0.0349469
0.160521
0.346054
0.195385
0.068234
0.104382
0.0152411
0.0160264
0.0146368
0.0158002
0.125974
0.0946251
0.279396
0.122546
0.110717
0.117388
0.0872337
0.0640423
0.0657816
0.27553
0.282441
0.457966
0.228167
0.0472756
0.0157664
0.0120469
0.0129982
0.0521443
0.0250233
0.118689
0.111798
0.0490745
0.0128807
0.0169745
0.00472606
0
0.00308724
0.196652
0.118013
0.17044
0.0780282
0.0245622
0.0521027
0.0151682
0.0477275
0.042385
0.0471607
0.0884353
0.259766
0.192234
0.0624981
0.00966593
0.000675152
0
0.0027743
0.255648
0.33185
0.454016
0.42133
0.302151
0.0449389
0.0365381
0.0540773
0.163486
0.145379
0.0486634
0.0519231
0.0231378
0.0234133
0.0597627
0.0130979
0.110637
0.0637073
0.0653356
0.170801
0.161223
0.148563
0.135575
0.0656588
0.0144363
0.111592
0.0934761
0.195145
0.315334
0.263471
0.0899877
0.0817914
0.150061
0.0748792
0.133669
0.162214
0.0914483
0.477748
0.418704
0.0388037
0.0210705
0.185908
0.0493785
0.107894
0.109193
0.0685659
0.280655
0.135794
0.139256
0.084963
0.020685
0.00583213
0.0306015
0.101518
0.0846029
0.369971
0.19773
0.064554
0.0618091
0.0971839
0.000817552
0.011432
0.0726309
0.0989921
0.463594
0.176885
0.0250223
0.0114485
0.0173999
0.000764828
0.00468811
0.0719729
0.161668
0.535511
0.152658
0.00793292
0.00978822
0.00956265
0.00772828
0.0115924
0.0451888
0.11661
0.24576
0.139004
0.0319676
0.0342868
0.0564169
0.0111272
0.00586859
0.0299554
0.198561
0.118467
0.0232626
0.0451546
0.305082
0.167338
0.0446508
0.0523033
0.0799096
0.206642
0.383893
0.0744266
0.00153448
0.103053
0.0349323
0.0525052
0.0419393
0.0351454
0.100914
0.0551815
0.00541594
0.0186039
0.630037
0.140958
0.0581343
0.0292053
0.0462683
0.0361073
0.0110621
0.0380049
0.0396839
0.39107
0.215648
0.0202178
0.0222124
0.0154226
0.00831741
0.0367392
0.0774073
0.0262254
0.320267
0.215141
0.0190901
0.014658
0.00474845
0.000861775
0.00121638
0.0205399
0.0638396
0.491435
0.192474
0.005055
0.00106205
0.0044444
0.00688926
0.00852309
0.0556212
0.150726
0.436372
0.297451
0.0137517
0
0.0275571
0.0576695
0.058074
0.0260408
0.0123472
0.0248301
0.0357807
0.0649594
0.104698
0.025132
0.0648583
0.121516
0.169817
0.0710352
0.120979
0.0154671
0.0292678
0.0629131
0.0633855
0.137367
0.169343
0.106822
0.0238517
0.0107722
0.0262092
0.195484
0.255125
0.0647281
0.0534638
0.458682
0.542663
0.0892807
0.0302343
0.0126091
0.0579398
0.148817
0.0761079
0.00915314
0.0411187
0.123464
0.15574
0.119278
0.0668381
0.0100951
0.0465438
0.0281114
0.0897998
0.0576277
0.141691
0.561426
0.148113
0.188248
0.0275289
0.18331
0.039463
0.0267574
0.12782
0.214356
0.0760905
0.0393885
0.113015
0.025384
0.0307898
0.0392651
0.115254
0.0882519
0.176303
0.202803
0.0902124
0.363577
0.110773
0.173395
0.183301
0.154095
0.060352
0.0795438
0.415498
0.110682
0.0621428
0.0130414
0.0590013
0.0266232
0.159771
0.0559215
0.133555
0.246807
0.107101
0.0875005
0.0721539
0.0337646
0.0332323
0.128376
0.104404
0.115212
0.226352
0.138718
0.105964
0.104618
0.0970276
0.149798
0.130507
0.168215
0.414177
0.23567
0.188512
0.036269
0.145152
0.0908356
0.203734
0.0714749
0.0727239
0.125196
0.0507897
0.0305098
0.0580634
0.0382908
0.014085
0.0431027
0.124253
0.179008
0.230454
0.0821744
0.00516836
0.0302967
0.00769171
0.016652
0.0934783
0.0829654
0.202942
0.334283
0.0770433
0.107808
0.0433348
0.0400722
0.0225785
0.0837262
0.162383
0.597834
0.417438
0.0348432
0.0327941
0.0442113
0.00933797
0.0270194
0.124452
0.0411515
0.119422
0.152354
0.10683
0.0413839
0.00200347
0.000353553
0.00351879
0.0143911
0.136202
0.356801
0.192722
0.183463
0.158062
0.00708447
0.00865881
0.00377901
0.0948275
0.079517
0.416447
0.194881
0.0315106
0.015804
0.00333911
0.000589255
0.00586464
0.0251567
0.192479
0.577525
0.216838
0.0336041
0.0350057
0
0
0
0.0136061
0.124468
0.309042
0.135554
0.0354658
0.0381868
0.0359764
0.019466
0.010501
0.080167
0.0664378
0.450377
0.18331
0.00184442
0
0.0439346
0.0128558
0.00895301
0.0212857
0.148065
0.499089
0.117994
0.0038157
0.00575964
0
0
0
0.0117765
0.112361
0.499089
0.14165
0.000566379
0.000551555
0.000212629
0
0.000285116
0.00482328
0.0673043
0.517173
0.118756
0.000866456
8.42275e-006
0.00611065
0.000317625
0.000716233
0.0073543
0.119921
0.561275
0.0886112
0
0.0321584
0.0163465
0.00872424
0.0130864
0.0225473
0.0877909
0.467784
0.0982236
0.00224416
0.0019735
0.00126871
0
0.000364086
0.00408569
0.077028
0.254462
0.0491026
0.00874576
0.0943334
0.02617
0.00124632
0.00192149
0.0134855
0.0702695
0.179959
0.0166747
0.00150635
0.201842
0.0502551
0.0283062
0.0318399
0.0183395
0.0231791
0.013821
0.0001734
0.0157173
0.569051
0.0820996
0.0245353
0.019104
0.00621504
0.015072
0.0425407
0.00528844
0.0070321
0.408227
0.0788675
0.00303238
0.00454856
0.00943606
0.000776788
0.00120661
0
0.0129975
0.569051
0.170994
0.00181943
0.00272914
0.00131566
2.22315e-005
0.00195121
0.0326153
0.0782676
0.456571
0.099025
0.00693584
0
0.000422396
0.0171509
0.0305328
0.121756
0.18644
0.279495
0.135136
0.0136222
0
0.0686038
0.00533427
0.00466609
0.015259
0.0413148
0.456571
0.25465
0.0386926
0
0.00533427
0.0476304
0.0601593
0.24032
0.250767
0.297997
0.26854
0.0827887
0
0.0785022
0.0615907
0.0872024
0.0623202
0.0301018
0.00551377
0.0024195
0.0431291
0.0588445
0.0592799
0.0403838
0.136765
0.172775
0.0739515
0.0247429
0.00161366
0.0215025
0.0496129
0.0643855
0.215693
0.270663
0.0595099
0.0262067
0.0209515
0.0172959
0.0381271
0.0442853
0.0502043
0.671861
0.414598
0.145273
0.107513
0.0608674
0.00247084
0.0428558
0.0725218
0.135237
0.0183865
0.0943393
0.124241
0.0580201
0.0133447
0.0146904
0.00663711
0.0130017
0.0204163
0.0440489
0.204209
0.223751
0.105774
0.0104202
0.0452644
0.0423297
0.041754
0.097288
0.204574
0.244658
0.247386
0.12379
0.0198503
0.0162237
0.0287549
0.0282128
0.0518407
0.0905256
0.617675
0.437238
0.1385
0.00411499
0.0278985
0.0310232
0.0121355
0.0557147
0.0350228
0.15197
0.0964905
0.0705649
0.0150351
0.0139941
0.0801476
0.0311497
0.088045
0.0260245
0.262068
0.29878
0.0695721
0.0328912
0.00201705
0.0617888
0.0264793
0.059609
0.0704822
0.496467
0.13702
0.0674741
0.00137446
0.0051783
0.041344
0.012425
0.0727431
0.0915303
0.595152
0.256258
0.0494616
0.0014466
0.00121023
0.0257699
0.0083272
0.0342359
0.0220718
0.210254
0.218845
0.0324527
0.0333879
0.00178442
0.00380194
0.00353275
0.0118928
0.0749362
0.369354
0.21549
0.00850719
0.014672
0.00297403
0.00052483
0.0019216
0.014485
0.0806326
0.509856
0.17474
0.0113171
0.00925938
0.00227516
0.00031837
0.00221703
0.00102235
0.105257
0.530446
0.268961
0.0248334
0.0286395
0.00379193
0
0.0132906
0.010715
0.080744
0.331591
0.147407
0.000961652
0.00178593
0.000386149
6.8144e-005
0.000678212
0.0122425
0.1154
0.505968
0.18245
0.000576991
0.00107156
0
0
0.00276448
0.0235204
0.162312
0.378729
0.189892
0.0158194
0.0187366
0.000492345
0
0.00469081
0.0510586
0.383676
0.295617
0.11303
0.00440819
0.00750089
0
0
0.00460747
0.227983
0.124626
0.447193
0.127729
0
0
0
0
0.00362348
0.0358668
0.12309
0.328881
0.0686645
0.000813086
0.00122094
0.000829748
0.000812228
0.00794052
0.0527027
0.399742
0.126888
0.0329445
0
0
0
0.0008692
0.0134793
0.330149
0.252381
0.0294539
0.00354906
0.000116155
0.0069547
0.0201968
0.0604046
0.154558
0.445012
0.140141
0.287921
0.0616788
0.00810417
0.0106464
0.0107882
0.00947571
0.0313105
0.0738697
0.0529313
0.0626142
0.0330955
0.0354639
0.260105
0.0400249
0.00849463
0.0104807
0.0157061
0.103483
0.00898681
0.00290975
0.0031174
0.0986953
0.161626
0.268932
0.417554
0.427114
0.0132559
0.0109784
0.0145157
0.0664547
0.385286
0.137858
0.109069
0.086514
0.0314194
0.00123912
0.00214837
0.00230081
0.00692922
0.315464
0.0488088
0.000153223
0
0.000314206
0
0
0
0.00275
0.568613
0.133569
0
0
0
0.000911371
0.00102438
0.00136581
0.0212985
0.396334
0.052066
0.000283951
0.000437973
0.000988661
0
0
0
0.0198959
0.568613
0.129814
0
0
0
0.00567643
0.0101108
0.002569
0.0445033
0.371362
0.165165
0.0173888
0
0.00567643
0.039735
0.0747358
0.170072
0.299645
0.219699
0.154864
0.0361458
0
0.039735
0.00378256
0.0060665
0.0130224
0.0752508
0.464234
0.110907
0.0156909
0.000378466
0.0347464
0.0106292
0.0424655
0.137527
0.46181
0.325478
0.0756034
0.0261516
0.000630777
0.0622355
0.0814992
0.174663
0.133209
0.0456722
0.0103698
0.0362179
0.0297324
0.0142707
0.00170814
0.314871
0.300924
0.303566
0.039689
0.00634806
0.00938478
0.00742238
0.00810798
0.0465183
0.0936344
0.216241
0.239184
0.115647
0.0648218
0.120861
0.0351571
0.0225131
0.0757026
0.166427
0.404607
0.489442
0.0791054
0.0182218
0.0572231
0.0058946
0.0288135
0.110653
0.219589
0.228944
0.346482
0.0553469
0.00297276
0.0136517
0.0125997
0.00874327
0.0609273
0.075075
0.403347
0.301774
0.0546414
0.00545731
0.0227529
0.0107154
0.00222383
0.0125077
0.0968044
0.238071
0.505506
0.0500945
0.00290784
0.00195025
0.00277612
0.0884753
0.105565
0.0701682
0.198167
0.191348
0.108288
0.0586761
0.00918921
0.0348508
0.096076
0.058745
0.055938
0.374648
0.14852
0.0346552
0.0136754
0.00316557
0.00148207
0.00207733
0.00731516
0.0953728
0.585409
0.168611
0.0138965
0.013544
0
0.000877765
0.0113329
0.00662263
0.0317429
0.150283
0.140286
0.133742
0.118845
0.00655745
0.0506148
0.115688
0.0103189
0.0467948
0.371126
0.156377
0.0477296
0.0981106
0.000872175
0.0314151
0.351739
0.0464941
0.0969447
0.559116
0.110838
0.0109817
0.0389889
0.0158612
0.00562735
0.0238307
0.00649052
0.0868317
0.442742
0.172239
0.0822471
0.108829
0.0414897
0.0366951
0.0906026
0.0636326
0.0506393
0.232067
0.0429065
0.00605036
0.0473641
0.0171381
0.0127304
0.284209
0.0755189
0.0469414
0.0654424
0.0407394
0.0485453
0.0868589
0.0536542
0.0624301
0.313515
0.247935
0.181016
0.156983
0.0862304
0.0307019
0.0265891
0.0078509
0.0103804
0.0509328
0.137098
0.466709
0.0476969
0.0155405
0.00762643
0.00337038
0
0
0.0289986
0.320287
0.158046
0.0158502
0.0269843
0.0169538
0.0171352
0.0114723
0.017433
0.1253
0.333635
0.385166
0.00450291
0.0334698
0.101741
0.0553298
0
0
0.0921497
0.45707
0.334077
0.00354881
0.000290443
0.0185565
0.01926
0.00791739
0.00347408
0.0663292
0.315131
0.134827
0
0.0103838
0.0479133
0.103504
0.0618707
0.116647
0.207611
0.326074
0.181243
0
0.0862762
0.243213
0.153312
0.0166205
0.00320992
0.13163
0.226622
0.033154
0
0.173211
0.418239
0.299785
0.0666648
0.0844323
0.140439
0.0803051
0.0177076
0.000643579
0.0155823
0.103323
0.231391
0.146803
0.186958
0.180973
0.118689
0.012164
0.00491039
0.00294833
0.0883438
0.242761
0.0895997
0.0513641
0.0323934
0.0113766
0.110656
0.000997394
0.184725
0.483389
0.338378
0.0943247
0.130669
0.126051
0.0704702
0.284694
0.0121049
0.039342
0.205353
0.222808
0.0509721
0.037101
0.0838473
0.215635
0.00383948
0.00117514
0.000154536
0.0337586
0.318621
0.0296806
8.32837e-005
0.00158286
0.0017701
0.000296912
3.29902e-005
0
0.0293061
0.587501
0.0839727
0
0
0
0.060483
0.00661974
0.0200595
0.0445703
0.325774
0.0425749
0.000224005
0.0148836
0.0581047
0.00407159
0.00235488
0.0120357
0.0353953
0.587501
0.145761
0.00236193
0.00172724
0.00463171
0.00474087
0
0.0180725
0.0430265
0.463293
0.103124
0.0159102
0.00831554
0.073852
0.00790146
0
0.103058
0.275198
0.322022
0.113269
0.0398214
0.0158034
0.123087
0.000677268
0
0.0590629
0.0381664
0.478533
0.130154
0.0308994
0.0186371
0.0272423
0.00112878
0
0.106289
0.0757371
0.312892
0.243673
0.224162
0.0691214
0.0583975
0.098468
0.12643
0.207454
0.103898
0.0873626
0.0884505
0.0650311
0.0425803
0.123595
0.149305
0.203382
0.300107
0.078988
0.0514075
0.0853122
0.0283316
0.0726463
0.179299
0.0272821
0.102069
0.407502
0.116512
0.0814338
0.0589649
0.0514944
0.0346209
0.042782
0.108732
0.19284
0.548478
0.121949
0.121252
0.136684
0.0621149
0.0423945
0.0531323
0.114697
0.0943245
0.1948
0.0272358
0.00501168
0.0489108
0.0337757
0.263021
0.198895
0.0578831
0.0364483
0.0377344
0.051895
0.0570802
0.0793354
0.156611
0.338931
0.138657
0.128283
0.0895377
0.364581
0.112898
0.136129
0.232752
0.073218
0.191388
0.0908575
0.111299
0.0853732
0.180115
0.15097
0.13209
0.253193
0.146594
0.302469
0.107975
0.0115788
0.0126293
0.0182995
0.0460276
0.0597139
0.0184443
0.11229
0.213302
0.026163
0.00335086
0.0266501
0.0169324
0.0172044
0.0386584
0.00106828
0.0741797
0.563719
0.0741021
0.176712
0.0780601
0.0594638
0.0214562
0.0111716
0.0284336
0.0819206
0.179357
0.11864
0.213048
0.0382355
0.00522169
0
0.000503074
0.00144106
0.0853712
0.519417
0.355811
0.00259012
0.00786114
0.00148863
0
0.00504447
0.00159535
0.0178322
0.378785
0.0691308
0.00920152
0.000246679
0
0
0.00351066
0.0046407
0.0145547
0.357211
0.14198
0.0329971
0.00156403
0
0
0
0.00344432
0.05658
0.519472
0.205584
0.000864394
0
0
0
0
0.00463579
0.0516869
0.549206
0.168312
0.0578171
0
0
0.00192668
0.0116817
0.00168342
0.00331655
0.183589
0.199482
0.107054
0
0.0441406
0.1657
0.193246
0.0149654
0.0183673
0.0869457
0.199721
0.010596
0
0
0.00249055
0.0119888
0.00129953
0.0112344
0.613135
0.153466
0.0429101
0
0.0130125
0.0851868
0.191133
0.0953978
0.0487409
0.496882
0.179915
0.0328641
0
0.102346
0.245024
0.247979
0.0325775
0.0554554
0.0604854
0.0747985
0.0568998
0
0.137627
0.284856
0.220709
0.0512175
0.0874091
0.0910748
0.0973835
0.0466668
0
0.0218631
0.0880344
0.187808
0.116565
0.146149
0.247893
0.209239
0.317171
0
0.0166076
0.0370643
0.0969278
0.0536648
0.143504
0.179358
0.507282
0.184139
0.00110772
0.0703637
0.136463
0.05919
0.0130707
0.0556516
0.0698993
0.136978
0.297069
0.0097695
0.0275702
0.0540028
0.0668101
0.00855375
0.0343829
0.0804173
0.239114
0.431998
0.00718206
0.00660545
0.010025
0.0161016
0.00923688
0.035529
0.0394374
0.378725
0.494152
0.090369
0.0723098
0.0389784
0.0914985
0.00781323
0.0342154
0.0563708
0.298619
0.0721136
0.00702321
0.0300397
0.0281818
0.244662
0.0566412
0.00650046
0.0410277
0.0878885
0.00284023
0.00227493
0.0137355
0.0174998
0.563622
0.150427
0.00243253
0.00483546
0.00641601
0.0983875
0.0633744
0.075211
0.0370341
0.341887
0.0713769
0.0106927
0.0310016
0.0607384
0.00126177
0.0112529
0.0151085
0.0181977
0.583094
0.184468
0.000347505
0.00290128
0.00240903
0.00698334
0.00134082
0.0276147
0.0308452
0.31579
0.0745522
0.0115161
0.00822401
0.004515
0.0488834
0.00938572
0.0570155
0.0409176
0.23686
0.164564
0.204739
0.0533308
0.031605
0.0116389
0.00281317
0.0169364
0.0974974
0.49879
0.0809512
0.00116428
0.00346749
0.002709
0.0898379
0.0447891
0.105164
0.193889
0.49879
0.238622
0.275783
0.0308359
0.018963
0.0292135
0.145386
0.25297
0.0945365
0.0490455
0.0259964
0.0162408
0.00631599
0.00771955
0.104284
0.223294
0.319534
0.151314
0.0799293
0.0727058
0.055832
0.00287911
0.0153369
0.0828552
0.220678
0.227503
0.26118
0.110791
0.0212212
0.0108782
0.00975202
0.0658126
0.270777
0.451466
0.301705
0.276394
0.0412808
0.043868
0.0374184
0.000622868
0.0610277
0.0544091
0.0982485
0.14301
0.149196
0.0746176
0.0585578
0.0226616
0.0142835
0.0152401
0.0583157
0.120263
0.302604
0.244917
0.0720846
0.043309
0.009346
0.0518714
0.0225007
0.149792
0.27055
0.172435
0.198172
0.0313757
0.0390928
0.025313
0.00328684
0.0220399
0.0548601
0.332597
0.527963
0.371695
0.0533117
0.0181351
0.00986724
0.0230079
0.0153344
0.180816
0.136355
0.191585
0.0999878
0.00631803
0.031234
0.00765791
0.0318999
0.0681983
0.239001
0.132526
0.1119
0.0251262
0
0.044846
0.0269765
0.138224
0.311006
0.103187
0.291764
0.363803
0.206097
0.0255316
0.0469762
0.00676383
0.00800731
0.0342513
0.155637
0.493946
0.236883
0.10887
0.0277856
0.0835274
0.0394189
0.0343329
0.136668
0.0408424
0.0492061
0.0459775
0.004999
0
0.00653483
0.0897688
0.255013
0.228591
0.010306
0.00577562
0.00529779
0.0029994
0
0.00663685
0.149595
0.445523
0.215346
0.0559643
0.235694
0.140289
0.0414279
0.00332115
0.0119242
0.116815
0.172463
0.154251
0.0760561
0.0508621
0.0373481
0.0209958
0
0.026072
0.32699
0.437371
0.314685
0.00533144
0
0
0.000185024
0.000740096
0.00631494
0.08824
0.346793
0.125881
0.00915352
0
0
0.00215697
0.0129369
0.0244352
0.057553
0.407015
0.0956606
0.0272864
0.02209
0.0044768
0.00497124
0
0.0279884
0.290966
0.434483
0.22679
0
0.013254
0.00622119
0.00828541
0
0.0243567
0.21174
0.486676
0.139592
0.0231595
0
0
0.00165828
0.0119725
0.0287299
0.0602872
0.310658
0.129029
0.158197
0
0
0.000152554
0.00137299
0.00600092
0.0785744
0.277954
0.245582
0.00234764
0
0.000926292
0.00138944
0
0.0181909
0.148171
0.542063
0.095716
0.0261035
0
0
0
0
0.00679308
0.162062
0.543423
0.108174
0.233441
0.00259889
0
0
0
0.000619671
0.0178953
0.14664
0.221087
0.264537
0.0622796
0.0269755
0.0100748
0.0221051
0.00128778
0.00399171
0.0846518
0.175085
0.0429907
0
0
0
0
0.00193941
0.0477677
0.567502
0.105426
0.0578241
0.0205004
0.000351719
0.00375707
0.00629598
0.000358001
0.0109018
0.567502
0.206236
0.0694097
0.0624805
0.0328666
0.0154835
0.219621
0.0373653
0.00154661
0.0133915
0.0409289
0.0024504
0.0144262
0.00791748
0.0154564
0.606313
0.126352
0
0
0.00170726
0.0230579
0.0552076
0.0263418
0.0417044
0.186572
0.0168187
0.00263341
0.190244
0.137141
0.0019614
0.0453743
0.0547187
0.138608
0.606313
0.0697165
0.000170347
0.0243733
0.0347764
0.00211559
0.000505259
0.00481152
0.0521504
0.458033
0.0866299
0.00101432
0.000602406
0.00748408
0.045839
0.0976448
0.0360573
0.12004
0.438479
0.204195
0.0749665
0.00640602
0.0523886
0.00593373
0.00251501
0.00742024
0.0401926
0.429066
0.164004
0.0160385
0.00539037
0.0287769
0.0712605
0.102366
0.0215698
0.0189864
0.301474
0.312981
0.0609332
0.0377326
0.201438
0.0492071
0.135477
0.147425
0.180006
0.104066
0.0360058
0.00591751
0.0150166
0.0618329
0.207556
0.388261
0.248828
0.159368
0.0247707
0.0174046
0.0132017
0.00147444
0.0387689
0.0487821
0.225815
0.255478
0.212558
0.168047
0.08
0.0143332
0.00686345
0.0298286
0.193395
0.380433
0.351663
0.206306
0.119857
0.0988851
0.032374
0.00583901
0.0412085
0.162562
0.255258
0.151178
0.123204
0.0802484
0.0256358
0.0326682
0
0.00462981
0.0533034
0.236338
0.348708
0.205151
0.194783
0.0251862
0.0193391
0
0.00577618
0.112332
0.256959
0.150142
0.13134
0.235398
0.10202
0.0501497
0.009047
0.0245947
0.0220972
0.173477
0.0669399
0.160176
0.499169
0.179489
0.098294
0.0817643
0.0187825
0.0612362
0.235176
0.17561
0.124023
0.087451
0.0375996
0.0214848
0
0.0143536
0.144268
0.471971
0.114355
0.152874
0.0613043
0.0908319
0.0636986
0.0106491
0.0453587
0.0308802
0.146856
0.065073
0.0773708
0.272524
0.142896
0.0942922
0.0801339
0.0178604
0.0900003
0.22934
0.146903
0.188428
0.226201
0.432428
0.169937
0.0347608
0.0575258
0.107074
0.262683
0.080631
0.0474638
0.00729188
0.0259245
0.0469904
0.130692
0.146168
0.12101
0.0834268
0.0350794
0.0092842
0
0.0196735
0.154874
0.462738
0.277728
0.107026
0.147245
0.0930746
0.0864648
0.0405538
0.222839
0.0957785
0.12402
0.163272
0.250934
0.142385
0.119327
0.0500889
0.001089
0.0672615
0.0455807
0.365739
0.296957
0.0850497
0.0798659
0.0165805
0.0170444
0
0.024161
0.150395
0.39
0.225441
0.0822352
0.0623211
0.0213299
0.0284073
0.00121075
0.0948186
0.198842
0.441924
0.152695
0.211077
0.106525
0.0406346
0.0210735
0.00319367
0.0680365
0.0593553
0.226742
0.298795
0.218629
0.0853868
0.013796
0.0377046
0.0268733
0.257942
0.115973
0.207314
0.201203
0.0619093
0.00644652
0.00266095
0.00399142
0.00125702
0.0752006
0.206053
0.326822
0.077169
0.0246791
0
0
0
0.000179574
0.0142842
0.259704
0.478546
0.0865175
0.140549
0.0409144
0.0119335
0.0953884
0.0383226
0.209621
0.167822
0.173942
0.0810049
0.0717986
0.0453685
0.0389892
0.146723
0.0360087
0.0295295
0.315226
0.429991
0.136141
0
0
0
0
0
0.00170641
0.0783111
0.398245
0.0563678
0.0014249
0.0036055
0
0.000447377
0.000366036
0
0.0348632
0.520539
0.123487
0.0191068
0.0138421
0.0109374
0.0280157
0.0221802
0.0183242
0.120188
0.391813
0.132189
0.00984013
0.0184774
0.0191649
0.00338205
0.0236833
0.030134
0.11379
0.508398
0.178446
0.0312167
0.0684032
0.0405709
0.0411687
0.0485132
0.00136157
0.016081
0.372716
0.162385
0.0487963
0.100672
0.130914
0.194792
0.287941
0.0162429
0.00242115
0.0847758
0.06811
0.065163
0.0431645
0.0443281
0.0144674
0.00540555
0.00606978
0.114271
0.498699
0.322584
0.091914
0.0672446
0.094633
0.0791889
0.088218
0.00251467
0.152779
0.348798
0.196723
0.0151197
0.0130763
0.0396738
0.092234
0.37222
0.115772
0.0210484
0.0111954
0.0270721
0.0649827
0.047207
0.0701619
0.10864
0.291068
0.215507
0.0871343
0.0691529
0.190348
0.0197645
0.0344586
0.0391301
0.105347
0.408059
0.0416238
0.0375883
0.0901242
0.0489059
0.0446001
0.0652236
0.0742788
0.243318
0.488643
0.125947
0.056588
0.110793
0.179114
0.130438
0.215117
0.179288
0.154296
0.126929
0.0266356
0.00518134
0.00186191
0.0469334
0.196502
0.31329
0.246254
0.146138
0.111316
0.0605362
0.0555361
0.0159991
0.0733584
0.189969
0.186009
0.321418
0.141122
0.145256
0.0490307
0
0.0224219
0.0991688
0.293332
0.245811
0.331266
0.113388
0.209481
0.104536
0.0635362
0.0109407
0.0802643
0.0850268
0.255588
0.178771
0.052692
0.171219
0.118766
0.11401
0.0320336
0.0569621
0.0241817
0.191728
0.127382
0.0683509
0.283061
0.21035
0.205878
0.143579
0.0858446
0.120586
0.156789
0.217631
0.104688
0.234191
0.237154
0.122036
0.0192202
0.0313484
0.108002
0.177811
0.221199
0.22436
0.210767
0.252564
0.159845
0.0473226
0.103523
0.0200947
0.0764861
0.092145
0.0459923
0.186
0.12822
0.103873
0.112326
0.0662386
0.0151351
0.0981917
0.246135
0.159932
0.201452
0.294398
0.0736865
0.0666673
0.037641
0.0791022
0.121361
0.154927
0.215447
0.126113
0.135319
0.0624637
0.0334733
0.0861433
0.0358151
0.269972
0.508581
0.325966
0.124583
0.128641
0.0161151
0.0341978
0.0359661
0.0353868
0.0588724
0.171252
0.198739
0.0681771
0.244386
0.0435052
0.0663944
0.075931
0.130434
0.182091
0.184489
0.189987
0.0361111
0.0841574
0.0153013
0.0531192
0.110226
0.0187557
0.21781
0.504849
0.281294
0.0576463
0.0839652
0.00839245
0.0311888
0.0176152
0.0885596
0.284154
0.276688
0.268661
0.0779714
0.0533175
0.0145813
0.0358553
0.0661865
0.118178
0.144958
0.0729758
0.0386387
0.0179601
0.0641187
0.033114
0.123878
0.180868
0.113476
0.0547124
0.00694649
0.0428888
0.0741019
0.289255
0.102135
0.356671
0.277438
0.100246
0.243146
0.0783481
0.0475062
0.0876966
0.043789
0.0335187
0.155175
0.161785
0.0823769
0.159111
0.139697
0.12459
0.149659
0.113474
0.194005
0.41113
0.259082
0.081942
0.115833
0.0504675
0.152095
0.0964317
0.240645
0.0918972
0.177369
0.233537
0.105715
0.224516
0.214672
0.22608
0.0645751
0.0415943
0.116108
0.214241
0.210068
0.074167
0.129867
0.0908888
0.154851
0.181462
0.0790537
0.124722
0.179703
0.264052
0.129946
0.202563
0.18668
0.0572743
0.142693
0.0329189
0.11721
0.144168
0.298048
0.0851218
0.0696942
0.071107
0.0481404
0.0540988
0.10484
0.0844472
0.241087
0.174995
0.0436221
0.0863065
0.089518
0.0886831
0.0928636
0.162775
0.120686
0.313951
0.307926
0.143029
0.0686967
0.0710902
0.00687721
0.118395
0.186799
0.0834837
0.154365
0.157908
0.0787149
0.062773
0.0739122
0.162309
0.237636
0.427748
0.139078
0.251089
0.173031
0.0381739
0.0215721
0.0599222
0.0549392
0.0199186
0.0149193
0.130982
0.17557
0.268184
0.0300204
0.0176991
0.0200504
0.0206523
0.0138142
0.00503562
0.243387
0.367792
0.266024
0.0538989
0.0373645
0.0641468
0.10041
0.0829135
0.118383
0.163327
0.192747
0.163448
0.257369
0.077966
0.0508816
0.0375728
0.00958283
0.0726935
0.284183
0.389685
0.325302
0.0177321
0.0611754
0.00694593
0.121965
0.128528
0.0291745
0.0956721
0.250193
0.154437
0.0691228
0.139307
0.0176846
0.259919
0.214827
0.099625
0.0978161
0.0807309
0.104584
0.211848
0.0806814
0.0335801
0.20771
0.0254195
0.0596737
0.270308
0.300826
0.241229
0.196582
0.293959
0.0732969
0.347243
0.0803751
0.0395926
0.153699
0.0624953
0.139306