0.0704757
0.176305
0.166559
0.109096
0.144734
0.0362369
0.0331229
0.073912
0.116394
0.0492459
0.106046
0.179507
0.103642
0.340182
0.0329758
0.0146169
0.0762249
0.117565
0.307152
0.191121
0.190675
0.159858
0.132228
0.0650898
0.0305067
0.0312791
0.093517
0.357378
0.152008
0.34668
0.140038
0.196727
0.0136247
0.0331958
0.0238689
0.108925
0.0878775
0.094747
0.039237
0.0401389
0.203569
0.049703
0.0222471
0.0209819
0.0469334
0.175438
0.250292
0.0340297
0.0253837
0.10564
0.0436818
0.0433748
0.0465942
0.0520476
0.295376
0.154405
0.164312
0.0775149
0.133031
0.015267
0.0169672
0.0352141
0.130447
0.275513
0.562079
0.218961
0.0540352
0.0864293
0.0108074
0.0555327
0.134103
0.141459
0.0581825
0.0697095
0.0574212
0.018933
0.0203404
0.0117208
0.0189689
0.00924848
0.0105663
0.0797025
0.168834
0.240028
0.104586
0.00500284
0.01995
0.0393684
0.00291761
0.0468802
0.0769745
0.256522
0.289069
0.0253104
0.0116493
0.000972209
0.0105439
0.0215016
0.0126243
0.114856
0.339272
0.700877
0.168803
0.00771761
0.0471583
0.00515061
0.00118394
0.0584176
0.0835491
0.174732
0.147798
0.107982
0.00242422
0.0485483
0.0343469
0.004162
0.126223
0.0675751
0.148064
0.28027
0.103704
0.00249099
0.028816
0.0141207
0.0100847
0.139543
0.113621
0.215555
0.423338
0.235368
0.0222809
0.161784
0.0111451
0.011763
0.12741
0.155023
0.147581
0.479917
0.205963
0.0283812
0.0970625
0.0693496
0.019605
0.144499
0.0320186
0.0665651
0.369287
0.112193
0.0151576
0.00879366
0.0191869
0.0163452
0.103466
0.0287495
0.0198101
0.262486
0.197984
0.170222
0.0768681
0.0585827
0.0214925
0.114907
0.102188
0.179627
0.331136
0.167414
0.0490674
0.00114844
0.0737776
0.010305
0.121421
0.061104
0.300252
0.279522
0.407234
0.187936
0.0529617
0.0383152
0.0127913
0.106673
0.0308277
0.0594872
0.146252
0.139636
0.112818
0.0274105
0.026958
0.00732528
0.018769
0.0720601
0.134905
0.27113
0.322579
0.108474
0.011058
0.0483049
0.0376301
0.0124964
0.0357454
0.162681
0.232346
0.249824
0.22391
0.107048
0.00915698
0.0101917
0.0186966
0.162323
0.246012
0.438092
0.327153
0.213596
0.111433
0.0245358
0.0631538
0.086554
0.025748
0.0535657
0.227535
0.242037
0.0766027
0.027355
0.0342202
0.0096478
0.0028308
0.0551999
0.176691
0.376834
0.157017
0.0590668
0.0302432
0.0172541
0.0289454
0.0656161
0.131253
0.227319
0.295518
0.202377
0.044114
0.0328483
0.0390188
0.0161917
0.0221911
0.168514
0.422425
0.425711
0.159845
0.0226201
0.0181378
0.0228862
0.014079
0.0343237
0.139196
0.195801
0.144178
0.0212029
0.00920452
0.00672395
0.00967992
0.0607158
0.226006
0.197338
0.270478
0.0480667
0.00419576
0.0256488
0.0267295
0.00580795
0.0949786
0.382751
0.275424
0.312778
0.167956
0.0376553
0.00447585
0.00578917
0.00140228
0.0508993
0.153107
0.353828
0.183989
0.0567866
0.0293703
0.162132
0.200156
0.0148815
0.0920955
0.265427
0.120791
0.11947
0.0877604
0.0171919
0.0682649
0.0497105
0.00679078
0.124589
0.291548
0.198622
0.0770819
0.298824
0.0703729
0.053391
0.0798767
0.0222592
0.0915759
0.281878
0.104175
0.0410037
0.215098
0.11819
0.214362
0.285494
0.0753145
0.0480831
0.204091
0.121634
0.0328046
0.277038
0.211765
0.116775
0.16245
0.10886
0.107695
0.333077
0.12089
0.0539601
0.0679203
0.0544549
0.0211097
0.0199091
0.00567858
0.0126135
0.0338251
0.242489
0.0795935
0.186502
0.0783746
0.0191254
0.00946172
0.00722204
0.00697443
0.0475902
0.206949
0.254309
0.344829
0.0707718
0.0391881
0.048924
0.0104599
0.00542558
0.0529057
0.481526
0.39933
0.327447
0.101722
0.0476764
0.0652052
0
0.000951347
0.156495
0.212123
0.09174
0.0974922
0.0527101
0.0653797
0.0144558
0.00231656
0.00766786
0.0561908
0.132058
0.333661
0.152551
0.107844
0.0746028
0.008605
0.00997388
0.0280115
0.0491955
0.309148
0.399834
0.226839
0.0755657
0.0386416
0.0172668
0.00595875
0.00910876
0.142404
0.238336
0.340527
0.245704
0.248306
0.0826987
0.005163
0.0585606
0.0957077
0.122469
0.0437591
0.24118
0.231865
0.0560214
0.0347934
0
0.00388384
0.00847703
0.02424
0.0510421
0.353142
0.463216
0.156759
0.0258305
0.0161366
0.000295916
0.000583544
0.0568927
0.0904895
0.137703
0.136635
0.144208
0.0925495
0
0.0247969
0.0595735
0.0451147
0.103929
0.334665
0.399332
0.235933
0.128502
0.0144081
0.00326789
0.0221745
0.0616454
0.0318196
0.142476
0.246608
0.123948
0.0183287
0.0311789
0
0.013211
0.030855
0.165511
0.0905073
0.230526
0.157377
0.0799529
0.0196203
0.0366062
0.0220183
0.065134
0.094188
0.245666
0.419065
0.194438
0.056707
0.0102415
0
0.0154671
0.0297677
0.346009
0.282273
0.306747
0.279702
0.209554
0.0438318
0.0324609
0.0175534
0.109565
0.123084
0.100907
0.104758
0.196591
0.110107
0.00398046
0.0404993
0.0032269
0.0565667
0.0434609
0.245755
0.14455
0.255251
0.135342
0.0391392
0.0336679
0.0008946
0.0246915
0.171106
0.193067
0.0837523
0.293044
0.362971
0.0565796
0.0591718
0.0162758
0.0780582
0.0468547
0.356933
0.242086
0.309424
0.291267
0.0372004
0.0754991
0.0252299
0.0153355
0.0452661
0.138374
0.0731964
0.146262
0.218253
0.0881538
0.0146338
0.00262296
0.0185402
0.119982
0.344094
0.274629
0.104536
0.211459
0.0781025
0.00340657
0.0164326
0.0622839
0.143356
0.29483
0.125719
0.175825
0.114148
0.0217301
0.0183959
0.00314793
0.0204281
0.219214
0.536089
0.217837
0.0838716
0.0955126
0.012955
0.000805753
0
0.0372036
0.0805823
0.345222
0.248871
0.0313203
0.0158943
0.00888371
0.00502156
0.00541155
0.0163819
0.101609
0.414606
0.177064
0.0278997
0
0.0035186
0.00452291
0.00143184
0.0131982
0.0555141
0.500105
0.156993
0.00254616
0.00700585
0.000790857
0
0
0.00536967
0.112633
0.500105
0.0652196
0.000873358
0.0278356
0.0159456
0.0105698
0.0187851
0.018715
0.136971
0.263977
0.078326
0.0115582
0.0243259
0.024311
0.00972494
0.0137919
0.0638122
0.110644
0.0552223
0.0243113
0.0343142
0.326252
0.202528
0.0436569
0.0326191
0.0690643
0.134441
0.292578
0.0146304
0.00102853
0.237089
0.110045
0.0460984
0.032401
0.0704576
0.0297161
0.0191487
0.000607466
0.0492783
0.648796
0.23343
0.0485186
0.0115516
0.0414489
0.0138653
0.00123703
0.0696472
0.136413
0.283418
0.205445
0.0889414
0.0142135
0.0502423
0.0180583
0.0732999
0.159097
0.272325
0.136688
0.111185
0.087634
0.103293
0.0955217
0.00100631
0.00343587
0.038696
0.212046
0.51579
0.161344
0.0864543
0.0159367
0.00728272
0.0626461
0.102575
0.246905
0.35928
0.229415
0.0927502
0.10663
0.0497405
0.0224746
0.0802233
0.21623
0.232293
0.0552637
0.0618477
0.018912
0.00429971
0.000519864
0.0135932
0.188171
0.266324
0.154667
0.0657296
0.0771323
0.0277803
0
0.00701715
0.0949957
0.141514
0.488088
0.281238
0.0919513
0.120791
0.00728622
0.00766381
0.000785037
0.0175831
0.154635
0.379889
0.270572
0.200061
0.184319
0.0209308
0.00423921
0.0208191
0.0858974
0.116606
0.2739
0.157839
0.0750879
0.0551188
0.0262003
0.00496195
0.024344
0.159775
0.061272
0.159436
0.139089
0.262861
0.117815
0.0420182
0.0441996
0.08448
0.143035
0.0902174
0.277292
0.169364
0.129864
0.156214
0.145365
0.0286102
0.126035
0.183536
0.189813
0.123537
0.0542646
0.234535
0.238713
0.348006
0.104981
0.184172
0.239922
0.0912302
0.0888873
0.0742413
0.20351
0.10839
0.0119279
0.0391895
0.0845475
0.0709208
0.122776
0.216022
0.213472
0.230256
0.168553
0.0208173
0.0162769
0.0667744
0.0418915
0.212664
0.148083
0.0335213
0.204751
0.104993
0.193215
0.190694
0.127838
0.172509
0.140574
0.498486
0.216082
0.14845
0.0639805
0.0844942
0.176245
0.114661
0.0558878
0.0813009
0.184806
0.228001
0.111832
0.0802962
0.0115653
0.000515586
0.0572688
0.0286878
0.226228
0.337237
0.170874
0.131104
0.100257
0.0465849
0.0298374
0.0330677
0.0857814
0.0427801
0.359657
0.195428
0.035948
0.0319884
0.00400915
0.0102873
0.0726195
0.0181719
0.118884
0.605115
0.169479
0.0357832
0.0262935
0.00662275
0.00426249
0.040414
0.0387865
0.0882267
0.288371
0.066053
0.0703504
0.105047
0.0407793
0.0438954
0.0124713
0.0508725
0.0409223
0.412469
0.150361
0.0500182
0.0750996
0.0108568
0.0380008
0.0209199
0.00817435
0.0827208
0.516139
0.0977966
0.0102213
0.00681422
0.00530307
0.00620241
0.00177802
0.0257166
0.0494118
0.561638
0.144008
0
0
0.000757581
0.0049501
0.00296336
0.00644464
0.0732365
0.325756
0.0821457
0.0299322
0.00655508
0.000644049
0.00493566
0.00260427
0.00310746
0.095341
0.517013
0.0796153
0.010754
0.000455181
0
0
0
0.00423559
0.0441523
0.517013
0.0647981
0.000237177
0
0
0.000545454
0.000469259
0.00340151
0.0509765
0.517013
0.0587933
0.00251513
0
0
0
0.000739359
0.00815027
0.0540541
0.648445
0.0765065
0.000492963
0.000300752
0.000672206
0
0
0.00263844
0.0847553
0.523069
0.0406326
0.00508832
0.126252
0.0227856
0.00610619
0.0294992
0.0110307
0.0578114
0.355778
0.0335284
0.0043577
0.00106359
0.00158044
0
0.000403897
0.00732624
0.0477625
0.127169
0.0141973
0.00702419
0.237598
0.0257088
0
0.00421417
0.00615221
0.0325734
0.0832678
0.00327566
0.00395179
0.292749
0.066178
0.0121528
0.0222576
0.0100538
0.00387075
0.00249768
0
0.0166153
0.52132
0.133782
0.00729167
0.0076999
0.00592091
0.00523801
0.0101164
0.00211451
0.00458815
0.466505
0.0734028
0
0.003481
0.00123182
0
0
0
0.0429283
0.549421
0.173049
0.000605205
0.00320943
0.00126435
0.0038909
0.0010614
0.0236376
0.128196
0.389457
0.0985217
0.0145869
0.00512065
0.00405208
0.0669451
0.0615395
0.145213
0.212354
0.194382
0.0516631
0.0268895
0.00607786
0.0291387
0.00498091
0.00775695
0.0193979
0.142036
0.48795
0.171066
0.0275354
0.000884358
0.00257053
0.0478692
0.124223
0.305144
0.30886
0.376987
0.131106
0.044737
0
0.0184582
0.101045
0.428106
0.139987
0.0926093
0.108972
0.0307761
0.0265751
0.0396762
0.0978775
0.128196
0.227657
0.14156
0.190787
0.194597
0.062379
0.0225011
0.0627328
0.163149
0.070408
0.144611
0.136075
0.193235
0.17629
0.0414183
0.0173068
0.128556
0.176209
0.119472
0.326619
0.186001
0.150827
0.182534
0.0507698
0.0235987
0.205257
0.273236
0.0513659
0.0857273
0.0506071
0.0377165
0.131724
0.0695648
0.0299137
0.0668122
0.104259
0.13881
0.151904
0.0675496
0.0577727
0.172439
0.140986
0.048914
0.0777203
0.0838561
0.106657
0.280463
0.22425
0.0210171
0.118457
0.0316822
0.0317574
0.0718726
0.14605
0.121824
0.542967
0.508349
0.031734
0.144016
0.0482417
0.0216637
0.0311972
0.0428075
0.10199
0.182825
0.0928781
0.117637
0.0386688
0.0850277
0.0587632
0.0286794
0.0328055
0.0498727
0.304903
0.172631
0.0777234
0.000952919
0.0354111
0.0630159
0.0210992
0.00654546
0.0772251
0.548509
0.252595
0.0688675
0.0293719
0.0203143
0.00475728
0.00199256
0.00588813
0.0606168
0.548509
0.212191
0.046634
0.0031013
0.00473593
0.00628002
0.00145085
0.00192991
0.026765
0.308658
0.115039
0.00336781
0
0.000709965
0.00642148
0.00754498
0.00160491
0.0430705
0.489031
0.109569
0.000889226
0
0
0
0.00348948
0.000606062
0.0412014
0.523768
0.0928256
0.0272964
0.00894877
0.00118223
0.00076522
0.000191305
0.00188031
0.108847
0.513193
0.143681
0.0640572
0.0197659
0.00106486
0.00675493
0.000877048
0.00851368
0.0499858
0.455987
0.105997
0.00281579
0
0
0
0
0.0133616
0.0869753
0.547282
0.113216
0.00168947
0
0
0
0
0.0509423
0.222259
0.262598
0.11257
0.0218287
0.00674802
0.000414154
0.00786889
0.00277722
0.0843041
0.397922
0.145486
0.0441934
0.00281579
0
5.91648e-005
0.00112413
0.00238121
0.280873
0.137213
0.414557
0.0569881
0.000424163
0
0
0
0.00171543
0.0827556
0.116754
0.210699
0.0172086
0.00353158
0
0.000702701
0.00722794
0.0381478
0.129647
0.415726
0.0586934
0.00913712
6.05947e-005
0
0
0.00415466
0.0239486
0.399778
0.225106
0.0115254
0.00111537
0.00709626
0.0384444
0.0311311
0.139485
0.237524
0.429045
0.0785697
0.109718
0.0226671
0.00680456
0.00131198
0.00535872
0.024881
0.0800695
0.0959242
0.0324498
0.0366321
0.0391522
0.0196265
0.410993
0.0536016
0.00956156
0.0182511
0.0164226
0.0484828
0.0138392
0.0180628
0.0475573
0.200766
0.109564
0.336151
0.329662
0.221301
0.00336314
0.0171818
0.0400366
0.106691
0.538037
0.0882693
0.0886611
0.0499038
0.0217156
0.000780654
0.00130539
0.00279701
0.00506094
0.331719
0.0617172
0
0.000114877
0.00112658
0
0
0
0.0187304
0.551872
0.160102
0.00164913
0
0
7.04369e-005
0.000647484
0.00234295
0.0308418
0.413679
0.0526769
0.000209035
0.0010276
0.00172686
0
0
0
0.0262197
0.551872
0.144999
0.000989479
0
0
0.00859373
0.0189759
0.0233991
0.0398261
0.378341
0.190023
0.033157
0.0104797
0.000919947
0.0178008
0.142868
0.250766
0.231922
0.349535
0.122004
0.0508434
0.0174661
0.00170082
0.0559773
0.01524
0.0166301
0.0112758
0.423306
0.155272
0.00840458
0.0195796
0.0252413
0.0932954
0.10668
0.138561
0.157966
0.45671
0.0777285
0.0113567
0.0326327
0.0420689
0.0251328
0.113638
0.198931
0.124263
0.0707247
0.00506262
0.00694038
0.030249
0.0315243
0.0604034
0.340884
0.336116
0.0720895
0.0409497
0.0052901
0.00230876
0.0434741
0.0722646
0.0783242
0.314106
0.439942
0.0905012
0.0516068
0.0258142
0.0349046
0.0336855
0.0401326
0.109855
0.264504
0.464753
0.0396787
0.0240838
0.0444325
0.0131663
0.0886808
0.0822058
0.184166
0.44529
0.23413
0.0157478
0.0184499
0.00348337
0.00760858
0.0304824
0.0866692
0.143442
0.447059
0.394385
0.0482378
0.0214331
0.00762729
0.00439762
0.0118295
0.0200092
0.212136
0.217785
0.143031
0.0198357
0.00570936
0.0165855
0.025478
0.100314
0.127991
0.170304
0.108073
0.200817
0.172506
0.0316224
0.0283208
0.0633032
0.0525122
0.0863626
0.0449742
0.375252
0.271784
0.0447217
0.00840083
0.00810814
0.000328317
0.00579523
0.00410363
0.0384045
0.614194
0.190069
0.0176098
0.0239582
0.00525561
0.00103447
0.018517
0.0043345
0.0214228
0.0948889
0.23799
0.137468
0.0308454
0.049059
0.0377074
0.134941
0.0334802
0.00998172
0.21035
0.13894
0.0351777
0.0339244
0.0271073
0.0115131
0.349747
0.0786418
0.0393086
0.549596
0.0872758
0.100306
0.0777012
0.00603515
0.0251232
0.0270924
0.00487221
0.132225
0.254674
0.112517
0.192873
0.112927
0.005436
0.0727914
0.0975967
0.0775556
0.00972054
0.11741
0.0246427
0.0655898
0.080774
0.00362109
0.0777833
0.348397
0.0726567
0.0833702
0.0157109
0.0122155
0.089554
0.0805824
0.0032616
0.122871
0.3799
0.295512
0.262068
0.0557391
0.0399738
0.034478
0.0262868
0.00161333
0.0350205
0.0472981
0.17719
0.410375
0.0111573
0.00405464
0.032189
0.0117717
0.000230475
0.0196521
0.0526374
0.354679
0.232616
0.00314958
0.00603067
0.0196087
0.0212104
0.010361
0.0288266
0.126528
0.346551
0.279557
0.0040542
0.0228082
0.301846
0.160261
0.0663648
0.0323604
0.154374
0.319507
0.195298
0.0142761
0
0.0680622
0.0201438
0.00779022
0.0231831
0.0481734
0.237887
0.0859096
0.00856569
0.0110313
0.157737
0.104072
0.10533
0.138977
0.139896
0.197997
0.0581236
0.00856569
0.0259452
0.385752
0.200219
0.0352609
0.0383197
0.0762446
0.0873516
0.0307113
0.00513941
0.0847061
0.619596
0.236067
0.174381
0.0680065
0.0418505
0.071652
0.0101786
0.00162374
0.0202763
0.20326
0.24803
0.126634
0.153967
0.102147
0.05863
0.0118378
0.015355
0.0175005
0.111396
0.27628
0.0434544
0.0266086
0.0159308
0.0224708
0.124434
0.0024577
0.0646078
0.534769
0.232671
0.181328
0.0493708
0.069048
0.186313
0.246366
0.0506927
0.012384
0.120659
0.200789
0.0564805
0.00675523
0.0589227
0.318957
0.00288313
0.00433371
0.00243065
0.0408181
0.332174
0.0264623
0.000227129
0.00102968
0.0023088
0.000229198
0.000343797
0
0.0339269
0.57964
0.0738205
0
0
0
0.0368752
0.0200297
0.00155667
0.0360204
0.350493
0.0647792
0.00167472
0.0102152
0.0502416
0.00160439
0.00240658
0
0.0213058
0.57964
0.135494
0.000399332
0.00123992
0.00289315
0.033325
0.00218403
0.00218403
0.0231424
0.434346
0.104853
0.00318559
0.00724549
0.034485
0.0555416
0.0152882
0.0199835
0.13056
0.455417
0.0811711
0.00714438
0.0120758
0.0574751
0
0
0
0.0106975
0.509286
0.13102
0.0152929
0.000488607
0.00439747
0
0
0
0.0525837
0.406773
0.205005
0.0635849
0.00392244
0.00732911
0.118878
0.17466
0.442222
0.0690618
0.0706796
0.0570728
0.0157831
0.0715561
0.0701178
0.164983
0.164963
0.208708
0.0367208
0.0967112
0.0989279
0.0131073
0.125223
0.122892
0.126693
0.188176
0.392556
0.194665
0.117734
0.0358169
0.000236118
0.0443166
0.0643504
0.150423
0.235724
0.310235
0.167052
0.210809
0.0876069
0.00165283
0.0799073
0.0969355
0.270119
0.121595
0.115658
0.0747949
0.0607471
0.0464929
0.0647021
0.117721
0.172125
0.186089
0.0236786
0.110294
0.107556
0.0606297
0.0840912
0.221216
0.129807
0.145586
0.191127
0.196256
0.319872
0.195922
0.220542
0.0793989
0.0642126
0.0902044
0.0694018
0.205235
0.143218
0.239705
0.101345
0.103441
0.0875956
0.292483
0.214153
0.218494
0.0519474
0.00269237
0.0438063
0.0386063
0.0153749
0.0396458
0.0962399
0.1694
0.0826023
0.0302126
0.00388353
0.0130676
0.00651227
0.00483261
0.0105417
0.0381231
0.436163
0.111372
0.19341
0.0878919
0.051302
0.00302605
0.00756855
0.0252633
0.172646
0.28652
0.213354
0.116286
0.041918
0.00878275
0
0
0.00390246
0.204874
0.617551
0.191096
0.00224074
0.00135138
0.00102569
0.00270131
0.00530702
0
0.0338681
0.376057
0.0743881
0.0264679
0
0
0.00162079
0.00199303
0
0.0261897
0.358378
0.179283
0.0114009
0.00432129
0
0
0
0.0107967
0.122678
0.474654
0.177694
0.00585517
0
0
0
0
0.0238146
0.0648023
0.545141
0.228971
0.102466
0.0133898
0.00879345
0.0375938
0.00818982
0.0103666
0.00304472
0.209876
0.186879
0.100683
0.0223163
0.0423086
0.441871
0.193417
0.133928
0.0287478
0.108477
0.0999079
0.0673334
0.0223163
0.00668817
0.0403183
0.0142379
0.0141302
0.0097642
0.510218
0.174671
0.115765
0.0371938
0.0258562
0.306891
0.154977
0.142511
0.0992268
0.266173
0.112747
0.0367851
0.00549137
0.0367247
0.355127
0.261278
0.0922982
0.0603237
0.06485
0.0235497
0.116143
0.00418644
0.085691
0.34924
0.232489
0.102404
0.0727346
0.0370421
0.128115
0.150023
0.0137694
0.0111311
0.139494
0.125849
0.120632
0.126729
0.153498
0.11402
0.43474
0.0252082
0.0117989
0.0482577
0.086735
0.0358584
0.0891377
0.0773603
0.37215
0.213849
0.00285428
0.0334433
0.153118
0.0578043
0.0812256
0.024177
0.0218461
0.24221
0.245802
0.0260922
0.0154287
0.0741266
0.0640097
0.0976198
0.00808715
0.0393021
0.328403
0.454531
0.0391909
0.0142219
0.0154506
0.0223261
0.0196732
0.0215163
0.00352109
0.336784
0.358405
0.201261
0.128531
0.156457
0.0659101
0.103423
0.00469039
0.0113079
0.212846
0.0310243
0.0108058
0.00602589
0.0469705
0.23427
0.097884
0.00508481
0.0132815
0.0644528
0.00064781
0.000971714
0.000517059
0.0127494
0.581089
0.120145
0.00130246
0.00136091
0.00317544
0.026787
0.0508337
0.0568898
0.106048
0.287857
0.123838
0.00423541
0.00360018
0.0228537
0
0.000432468
0.00561386
0.0198207
0.608303
0.169354
0.00149219
0.000194415
0.000453635
0.00260647
0
0.000316918
0.012232
0.486539
0.126956
0.01379
0
0.000137183
0.0182453
0
0.000528196
0.0213197
0.235612
0.192595
0.0943091
0.0541304
0.0162628
0.00434411
0
0.00768594
0.0794978
0.578047
0.198039
0.00281593
0
0.000228638
0.0630169
0.015832
0.04197
0.15551
0.294329
0.157117
0.0433128
0.105386
0.152568
0.0740865
0.213507
0.244818
0.104739
0.0326156
0.00112614
0
0.00427308
0.0220726
0.061161
0.136868
0.324425
0.119568
0.106938
0.0199972
0
0.0260035
0.0333424
0.0287567
0.33816
0.473229
0.143301
0.0298824
0.00369791
0.0130329
0.00506464
0.0108576
0.0435888
0.217293
0.473229
0.18533
0.0718174
0.0212242
0.00968436
0.00380421
0.00597588
0.0573753
0.0961742
0.238973
0.122137
0.204437
0.0783657
0.0244413
0.0556078
0.0416918
0.0867266
0.0938069
0.19564
0.160973
0.108945
0.0724386
0.109481
0.14803
0.124831
0.10038
0.173135
0.394702
0.176329
0.212736
0.108244
0.0110805
0.0170334
0.0260168
0.0687328
0.144146
0.17232
0.354309
0.369503
0.176577
0.0181926
0.0853465
0.114347
0.110858
0.114014
0.08078
0.0768888
0.0460256
0.0221694
0.0674511
0.201122
0.0860479
0.0971752
0.117414
0.04781
0.0351708
0.0124822
0.0302342
0.151441
0.480586
0.11189
0.121925
0.128329
0.164503
0.270043
0.174559
0.0843904
0.0198518
0.0746212
0.0833268
0.203993
0.239499
0.319823
0.335758
0.0500605
0.0575766
0.121169
0.197316
0.055611
0.0163278
0.0490128
0.0163133
0.00973582
0
0.0379787
0.17865
0.36777
0.142643
0.0040565
0.0416774
0.00823091
0.012102
0.0154544
0.0633313
0.150835
0.343024
0.167688
0.0445519
0.131257
0.213892
0.215381
0.0149945
0.0481577
0.241902
0.343053
0.0491383
0.0482088
0.132216
0.136449
0.189868
0.105732
0.104692
0.283789
0.299933
0.113952
0.0286862
0.0128304
0.00416121
0.0202101
0.0495402
0.0765754
0.0872039
0.376343
0.172038
0.063266
0.0058488
0.00242873
0.0402438
0.0691043
0.0659943
0.0887703
0.350676
0.134603
0.105975
0.0623061
0.058248
0.125223
0.166564
0.140854
0.275848
0.218801
0.224184
0.14209
0.0180144
0
0.0129353
0.0451527
0.048799
0.128226
0.401217
0.319775
0.126732
0.0143573
0.000789843
0.0124867
0.0165782
0.0263338
0.0640633
0.207841
0.0796279
0.311121
0.052581
0
0
0
0.0036722
0.0234734
0.22844
0.212851
0.100789
0.0114712
0
0
0.00325653
0.0357325
0.064221
0.342749
0.125671
0.0848647
0.0327398
0.00217698
0
0.00385844
0.0347105
0.0510444
0.694316
0.0947178
0.27329
0.0410739
0.00400559
0
0.000669941
0.00127846
0.0138956
0.12812
0.167916
0.235645
0.152641
0.0655538
0.053275
0.0269019
0.0208535
0.0104755
0.0890489
0.0858489
0.0688274
0.0157425
0.00210375
0
0.000483291
0.00351239
0.0225045
0.547864
0.115571
0.084233
0.03938
0.0124957
0.00961397
0.0137408
0.00333686
0.0170391
0.582992
0.182012
0.0253499
0.0498947
0.0376342
0.048631
0.237023
0.076254
0.0010799
0.0175325
0.00809819
0
0.00325393
0.00505686
0.0153396
0.595882
0.174817
0.000313822
0.00120986
0.000395237
0.0428078
0.033919
0.0449015
0.0772478
0.200269
0.0363655
0.000928098
0.163509
0.0558175
0.0198989
0.014521
0.0606509
0.194437
0.584076
0.130451
0
0.0139374
0.0123001
0.00300147
0.0010275
0.0165761
0.0527626
0.422525
0.233006
0
0
0.0073295
0.103482
0.110668
0.109057
0.132428
0.240685
0.171983
0.0114784
0.0254375
0.136836
0.0167825
0.0071925
0.0269044
0.127765
0.487891
0.23054
0
0
0.0121629
0.206975
0.187992
0.0789961
0.10414
0.261578
0.183767
0.0621169
0.0094436
0.0948217
0
0.12001
0.415293
0.150745
0.0515492
0.0161399
0.052364
0.0126344
0.00613057
0.0217504
0.115847
0.449268
0.214225
0.0595039
0.0351374
0.0422038
0.00156215
0.00464001
0
0.0603166
0.258454
0.135847
0.110589
0.135339
0.107882
0.0183327
0.04776
0.0075871
0.195192
0.412125
0.302853
0.10572
0.118583
0.0685423
0.00605173
0.0745743
0.0761817
0.180546
0.159984
0.1165
0.0732455
0.0292501
0.018449
0
0.0136797
0.0750253
0.218038
0.0909515
0.181491
0.178903
0.093889
0.00985602
0.00956196
0.0480947
0.0401883
0.359054
0.378179
0.262596
0.0488538
0.0381843
0.0209844
0.000525786
0.0298705
0.0967569
0.362912
0.24474
0.366216
0.117843
0.0756633
0.0157064
0.0123961
0.163882
0.0449878
0.118686
0.211312
0.200797
0.0923977
0.0708152
0.00268729
0.00966036
0.0365684
0.0861505
0.180548
0.423747
0.312757
0.0504452
0.0250788
0.0236788
0.0201438
0.0134214
0.0898341
0.157951
0.241886
0.206414
0.155652
0.0573127
0.0021475
0.0125237
0.104183
0.122726
0.25134
0.399833
0.249813
0.194683
0.0451982
0.00817823
0.00706486
0.0185525
0.0703137
0.115986
0.299568
0.251959
0.0475474
0.0440769
0.0783799
0.066423
0.0152665
0.140098
0.213575
0.163545
0.213216
0.0979664
0.0746215
0.10499
0.0644064
0.0930329
0.177676
0.183369
0.235826
0.170012
0.120965
0.0926316
0.040795
0.0213843
0.0713413
0.204057
0.417731
0.273234
0.190664
0.167157
0.0639415
0.05582
0.0458324
0.189585
0.165977
0.115867
0.0441993
0.121877
0.068301
0.0385343
0.0773834
0.0911909
0.177579
0.166328
0.0599603
0.0103957
0.0774676
0.0128583
0.0232745
0.0372504
0.251462
0.251691
0.118411
0.284044
0.315847
0.269607
0.14732
0.0102364
0.0524643
0.0931931
0.156507
0.129478
0.20406
0.208694
0.206064
0.0374769
0.0472984
0.0319653
0.361389
0.236036
0.0902603
0.0136679
0.00173547
0.0386071
0.00627813
0.0927368
0.0863852
0.249953
0.151162
0.00758395
0.00441608
0.00539743
0.00545332
0.00740203
0.0998896
0.136192
0.340893
0.0843576
0.0833424
0.0544136
0.0353933
0.0834825
0.0623474
0.291968
0.0806474
0.398147
0.219152
0.0367286
0.0268115
0.00323846
0.0192856
0.0856334
0.361507
0.211136
0.271384
0.289172
0.00244155
0.0102524
0.00698876
0
0.00124681
0.0203353
0.0453181
0.39822
0.124094
0.047111
0.0157318
0.00378872
0.00121125
0.00121125
0.0057789
0.0106441
0.624675
0.209759
0.0273814
0.0224973
0.0113591
0.0361889
0.0436646
0.14208
0.156553
0.175431
0.228024
0.118921
0.0283153
0.01445
0.037587
0.0578598
0.064352
0.0738048
0.303225
0.207913
0.130828
0.0359523
0.157491
0.11915
0.0759434
0.00645491
0.00113339
0.328897
0.138631
0.0769665
0.0364784
0.286906
0.434043
0.332206
0.0540909
0.00161096
0.0375923
0.0447191
0.142428
0.0691935
0.125937
0.0921096
0.0668343
0.00618922
0.0207317
0.227847
0.140075
0.0599755
0.0826076
0.231677
0.2601
0.137241
0.0150869
0.0589011
0.176161
0.0587116
0.00728058
0.00860879
0.05137
0.161107
0.359458
0.107311
0.000570301
0.00228121
0.00194111
0.145678
0.0722479
0.0148906
0.0637167
0.373532
0.115189
0.0269475
0.00824646
0.0209849
0
0.0247817
0.0710806
0.177427
0.34091
0.0649825
0.0181406
0.0577599
0.0245518
0.0828846
0.0494123
0.0537996
0.156802
0.572654
0.142916
0.0143014
0.0369898
0.0100024
0.0111815
0.0684386
0.283516
0.157274
0.119064
0.158244
0.0927347
0.00695678
0.0714808
0.0249468
0.150199
0.37069
0.356367
0.163661
0.157009
0.068817
0.0100427
0.120861
0.0493283
0.128251
0.277214
0.22328
0.0637248
0.0483556
0.0280677
0.0298579
0.190577
0.045597
0.143026
0.226745
0.226867
0.235513
0.135883
0.0374326
0.0497831
0.144116
0.056529
0.196503
0.339952
0.291022
0.0624431
0.0266251
0.00802361
0.0120825
0.0252629
0.132864
0.237791
0.305269
0.380995
0.0982326
0.0152591
0.0136152
0.020251
0.0719247
0.0893614
0.108131
0.222225
0.152832
0.137684
0.030999
0.0195463
0.0945133
0.027175
0.14799
0.130574
0.314756
0.201597
0.24424
0.00630217
0.0280886
0.100044
0.0220719
0.153961
0.12399
0.166637
0.24253
0.220857
0.0120046
0.0342895
0.0242195
0.0559444
0.163853
0.206354
0.290924
0.241529
0.218441
0.045139
0.0295904
0.0231364
0.0090406
0.11618
0.0679086
0.195206
0.137775
0.278714
0.0105517
0.0598146
0.0728818
0.0426538
0.182818
0.156474
0.464625
0.150903
0.143286
0.0223654
0.0515688
0.076344
0.0728696
0.111689
0.11853
0.143839
0.0915037
0.108887
0.0797106
0.0633782
0.0303962
0.0304626
0.0775646
0.34887
0.389932
0.106979
0.0889862
0.0430235
0.0952502
0.0369906
0.0632693
0.154322
0.105232
0.252175
0.159623
0.0941848
0.0837547
0.0590584
0.0166391
0.0275182
0.197458
0.445751
0.310885
0.206716
0.0434187
0.0962416
0.077933
0.0319707
0.0568807
0.0306345
0.276065
0.368702
0.080091
0.0419899
0.00677564
0.0398598
0.0208851
0.0179621
0.0406901
0.248497
0.265756
0.0649845
0.0281032
0.0817925
0.0432592
0.0799845
0.0723289
0.110984
0.427513
0.303101
0.0731821
0.0371541
0.0480689
0.0260405
0.0178624
0.0161821
0.0672674
0.369159
0.267714
0.0464703
0.119824
0.163932
0.0802007
0.0170476
0.0690224
0.0342633
0.140542
0.0680916
0.0461523
0.0827567
0.267906
0.0684472
0.111858
0.102864
0.0398694
0.106249
0.0217788
0.0420641
0.114992
0.31375
0.12538
0.114304
0.136305
0.0441002
0.360004
0.195422
0.073546
0.115962
0.215019
0.0864679
0.041178
0.0983063
0.0222987
0.280563
0.323146
0.315301
0.15317
0.22967
0.0722659
0.0869247
0.0316218
0.0410604
0.0399294
0.032284
0.162492
0.11471
0.233077
0.124286
0.0879141
0.116455
0.15974
0.0183119
0.0466496
0.150418
0.157674
0.0748875
0.0696423
0.0863483
0.173285
0.0321154
0.10061
0.276366
0.436181
0.198601
0.269794
0.078473
0.0836195
0.0361989
0.239929
0.100469
0.196126
0.210087
0.199676
0.10801
0.0821649
0.084908
0.16648
0.144134
0.0375476
0.0455808
0.101537
0.196451
0.0387153
0.0853632
0.164075
0.153593
0.111616
0.0432327
0.0520198
0.140185
0.103385
0.0382646
0.140136
0.241085
0.1353
0.286594
0.0718098
0.0876386
0.139607
0.27997
0.111804
0.120379
0.117474
0.241254
0.378906
0.120989
0.0452397
0.127435
0.185552
0.103737
0.0984564
0.0910921
0.227184
0.0449195
0.0160882
0.0791418
0.194762
0.176425
0.0301289
0.0323202
0.0696414
0.0733471
0.0416062
0.0183903
0.14191
0.293556
0.420285
0.0777457
0.0306115
0.039518
0.0112012
0.220576
0.065304
0.0642397
0.121075
0.193318
0.058976
0.017426
0.0210986
0.0705825
0.216297
0.151485
0.272557
0.328217
0.351409
0.0708491
0.03542
0.0100604
0.0103492