0.0912326
0.066681
0.0787536
0.0837812
0.0211635
0.0402371
0.0313494
0.0947011
0.0994322
0.0733911
0.117335
0.221979
0.281352
0.0792684
0.109762
0.0651933
0.0385681
0.0571648
0.186014
0.134937
0.137566
0.140114
0.0290346
0.0254675
0.00999293
0.038408
0.110047
0.0900554
0.131857
0.249605
0.278815
0.121206
0.15478
0.0678315
0.0154518
0.0746722
0.0812607
0.0901537
0.113128
0.0925822
0.0739668
0.0731805
0.0220056
0.014549
0.0328884
0.178737
0.307946
0.158949
0.237825
0.170511
0.147091
0.0118523
0.0185231
0.0194789
0.0397833
0.0411914
0.0822938
0.108584
0.124692
0.150735
0.0830538
0.069383
0.0187642
0.250253
0.120676
0.0833597
0.173812
0.340113
0.373104
0.0664862
0.11482
0.0995196
0.158392
0.238782
0.0931893
0.248823
0.101866
0.059325
0.00186218
0.0408535
0.0173938
0.094131
0.120944
0.15141
0.339486
0.111664
0.0139612
0.0156654
0.148678
0.0469145
0.26839
0.114498
0.0859535
0.250354
0.190177
0.148103
0.00549858
0.0154642
0.0698667
0.150801
0.111931
0.170481
0.401641
0.125895
0.0251925
0.0169514
0.116053
0.0666291
0.0341194
0.0608067
0.0945761
0.133859
0.0930434
0.021408
0.0231674
0.182812
0.136378
0.16369
0.0964051
0.0767349
0.066443
0.0628992
0.0293523
0.0433288
0.267572
0.422073
0.0591303
0.0657629
0.0676916
0.16378
0.0682729
0.00412865
0.0302077
0.27642
0.129831
0.205823
0.102853
0.0780736
0.204996
0.0977437
0.014053
0.0190545
0.27853
0.244549
0.185582
0.11889
0.016335
0.0357854
0.0475279
0.0288762
0.0634397
0.281877
0.270785
0.194991
0.184385
0.0242181
0.133922
0.197885
0.112893
0.0847103
0.176592
0.14242
0.238113
0.135858
0.0412011
0.0916215
0.0511937
0.00695365
0.0205063
0.183628
0.195023
0.285939
0.236637
0.136043
0.190065
0.0850933
0.0167862
0.032162
0.0794495
0.147419
0.0319749
0.036573
0.019064
0.0288767
0.0478957
0.024215
0.0201356
0.00702522
0.0111336
0.0275213
0.0927344
0.0907911
0.122686
0.0972747
0.0956652
0.0138538
0.0069686
0.0274856
0.0727394
0.0554968
0.0522048
0.0921125
0.0763164
0.0128678
0.0103018
0.00142991
0.0220737
0.0465795
0.170819
0.502592
0.631498
0.322346
0.176454
0.0542682
0.000798028
0.0278477
0.0661475
0.174178
0.0945417
0.118919
0.0489649
0.0323858
0.00204875
0.00828559
0.0176358
0.199211
0.331548
0.130228
0.184926
0.0817569
0.0701395
0.00939408
0.0818093
0.0754991
0.0688958
0.283382
0.251363
0.210833
0.185792
0.0590779
0.0178301
0.0125719
0.0789165
0.217995
0.473535
0.233151
0.145057
0.193773
0.102384
0.0169714
0.105795
0.150548
0.113255
0.13322
0.0529901
0.159532
0.165976
0.130309
0.0371509
0.135091
0.0955495
0.0713924
0.351333
0.205905
0.0842024
0.116208
0.0667741
0.042506
0.0832753
0.0546068
0.151245
0.242323
0.134068
0.171338
0.164268
0.14428
0.0544476
0.134256
0.0634897
0.113016
0.41942
0.268661
0.264896
0.137872
0.0525966
0.0728699
0.198606
0.0337115
0.0668623
0.331585
0.186323
0.0445393
0.0611612
0.0455373
0.0196268
0.0598115
0.035543
0.0895766
0.117508
0.115373
0.0338807
0.0753131
0.0450945
0.0828435
0.133472
0.0607517
0.0789479
0.36354
0.355932
0.196157
0.155279
0.0516297
0.0295523
0.124417
0.00663287
0.212009
0.232645
0.38169
0.132124
0.176661
0.192692
0.0989732
0.140113
0.0332777
0.0848128
0.151904
0.136323
0.0894276
0.0632207
0.0238414
0.0295164
0.0116868
0.0380935
0.0723044
0.0999642
0.220069
0.147905
0.136903
0.108039
0.0372585
0.00308136
0.0649428
0.0436207
0.116271
0.143357
0.106118
0.0705205
0.0859022
0.0980105
0.0273202
0.037429
0.105502
0.139933
0.293554
0.199426
0.253771
0.0981854
0.0950169
0.0276532
0.0500414
0.0201853
0.0189243
0.119735
0.13445
0.111379
0.0786657
0.0315612
0.0263131
0.0186596
0.137832
0.10411
0.156676
0.207889
0.172646
0.223382
0.0384525
0.0471955
0.104801
0.087732
0.077736
0.187702
0.143096
0.205374
0.122637
0.0465642
0.0249418
0.00999909
0.358461
0.228538
0.225362
0.264768
0.171679
0.231085
0.058539
0.0555912
0.0601442
0.171573
0.0925699
0.0545559
0.148988
0.178256
0.214478
0.0202527
0.0244407
0.119351
0.108326
0.135887
0.0894121
0.237535
0.161362
0.0884135
0.0342165
0.0579927
0.0828165
0.291507
0.101579
0.0611641
0.137275
0.166031
0.164192
0.0343491
0.194075
0.137237
0.199695
0.0811464
0.136662
0.136877
0.225269
0.0884789
0.132694
0.258506
0.116509
0.100143
0.112942
0.0622699
0.12798
0.0454336
0.0140383
0.0741447
0.105796
0.136551
0.176345
0.0563868
0.0450177
0.166934
0.122105
0.0555002
0.0997951
0.138022
0.182369
0.173782
0.131097
0.176398
0.15279
0.113789
0.0231319
0.202761
0.0687624
0.0659392
0.159294
0.275629
0.122595
0.16976
0.197253
0.0906432
0.275116
0.134755
0.0918032
0.0555617
0.0296273
0.0350071
0.0405613
0.0569249
0.00729739
0.0143832
0.0457244
0.0306553
0.0510941
0.101758
0.15
0.132167
0.0813078
0.00424547
0.00504106
0.0226354
0.0472159
0.122778
0.265692
0.0775385
0.0278906
0.0610696
0.0119002
0.0214014
0.0420173
0.0291861
0.14595
0.673886
0.399694
0.160592
0.105012
0.00254728
0.000694786
0.00805546
0.116869
0.0349435
0.0627249
0.0588904
0.0962743
0.0470699
0.00668772
0
0.000614227
0.029808
0.0626783
0.148268
0.269168
0.481122
0.134592
0.0478346
0.082894
0
0.0425335
0.0676617
0.308953
0.177979
0.0976558
0.0264481
0.00307683
0
8.77467e-005
0.0516733
0.159512
0.474611
0.245987
0.287492
0.0309594
0.0182693
0.0492695
0
0.0638783
0.0583943
0.274245
0.237399
0.156281
0.0980925
0.0275543
0.0537304
0.00223062
0.0521637
0.162137
0.475615
0.203146
0.0351142
0.0890047
0.0228424
0.0102619
0.0183376
0.0713417
0.0742652
0.377413
0.19302
0.0771181
0.0121931
0.0106452
0.0319356
0
0.0264087
0.171619
0.450053
0.161202
0.00752221
0.0192419
0.0302738
0.0193744
0.026043
0.0848298
0.111688
0.253203
0.0929691
0.0581299
0.0806853
0.03644
0.022886
0.0252111
0.0287302
0.0595383
0.18234
0.0692382
0.181335
0.278818
0.100293
0.06558
0.100528
0.0116098
0.135081
0.164291
0.038356
0.00508432
0.119618
0.0919612
0.0474445
0.0549525
0.131643
0.0252681
0.0464592
0.0414521
0.165481
0.710535
0.15182
0.0358479
0.0269313
0.0323805
0.0693211
0.17438
0.143887
0.133912
0.163931
0.0971071
0.041877
0.052065
0.00127936
0.130966
0.264632
0.296875
0.104119
0.0676514
0.218439
0.183542
0.110146
0.0102995
0.0298598
0.112033
0.105359
0.177859
0.38217
0.15088
0.0457245
0.0140694
0.018954
0.0975839
0.244987
0.232586
0.152676
0.136006
0.165093
0.254977
0.206427
0.132742
0.0218367
0.0662523
0.0650802
0.0818089
0.0346649
0.0322142
0.0411491
0.0123082
0.0188494
0.0660237
0.195934
0.238254
0.122674
0.0760381
0.059771
0.0496236
0.0108433
0.00438074
0.0260391
0.0610505
0.0459291
0.256845
0.118188
0.119079
0.0833276
0.0407674
0.0194141
0.122573
0.28604
0.344193
0.406663
0.231399
0.0621622
0.191311
0.0340903
0.0603611
0.10599
0.122839
0.174556
0.0709146
0.0822703
0.036644
0.0326726
0.0246359
0.00108875
0.291422
0.253706
0.149084
0.081442
0.070185
0.0402341
0.0337742
0.0405531
0.0193592
0.129325
0.213013
0.25869
0.158924
0.104449
0.0172964
0.051925
0.0641358
0.0419481
0.236932
0.512985
0.223939
0.0945568
0.118223
0.0174472
0.0119036
0.100376
0.0251573
0.218172
0.133271
0.0857692
0.0761593
0.0685348
0.0100737
0.0166547
0.0756305
0.0502649
0.114044
0.0373906
0.105292
0.106777
0.143085
0.0049545
0.0878398
0.12849
0.073147
0.199061
0.361365
0.170201
0.104512
0.0692955
0.00563007
0.0197658
0.0542445
0.0121527
0.125921
0.482163
0.322098
0.140178
0.101219
0
0.0831481
0.220512
0.100405
0.0248342
0.0282674
0.0420037
0.0297651
0.0290194
0.000982777
0.024053
0.01746
0.033773
0.0412862
0.190771
0.158032
0.0424227
0.0294505
0.00477228
0.0173412
0.00903266
0.017978
0.112552
0.328109
0.161421
0.0241575
0.0123397
0
0.0135863
0.0667555
0.104446
0.181147
0.57115
0.539973
0.146235
0.0104425
0.00210383
0
0.00733902
0.0558344
0.0681409
0.192444
0.0881996
0.0102232
0.00530052
0.00102668
0.00220287
0.0036491
0.00318544
0.0735767
0.379016
0.204294
0.0127555
0.0042762
0
0
0.000494226
0.0130984
0.0991486
0.328618
0.247387
0.0637984
0.00440728
0.00128059
0
0
0.000125042
0.129325
0.632094
0.312378
0.00737948
0.000548826
0.000182942
0
0
0.000208403
0.0355577
0.255656
0.127947
0.0138623
0.00134968
0
0
0
0.00626059
0.0644838
0.406129
0.151039
0.0393076
5.97855e-005
0
0
0
0.00530763
0.0415246
0.52223
0.193929
0.00141282
0
0
0
0
0.000649998
0.0485771
0.557165
0.208299
0.00998254
0
0
0.000484176
0.00176298
0.00189454
0.0581119
0.496258
0.14578
0.0206985
0.0035737
0
0
0.000821692
0.00657353
0.110403
0.449816
0.0825426
0.00918568
0.0967449
0.0543697
0.0292751
0.0302874
0.075863
0.0478717
0.490193
0.129098
0.00786195
0.00786594
0.000151886
0.000582858
0.00563623
0.00981901
0.0585723
0.224835
0.0334169
0.0228216
0.33059
0.0435384
0.0132225
0.0148229
0.0292248
0.034578
0.0610603
0.00716057
0.00511722
0.202134
0.0808549
0.0352147
0.0244002
0.0566403
0.00252149
2.44459e-005
0.0276211
0.0854203
0.540115
0.0882075
0.0158222
0.00905996
0.0135772
0.00833077
0.0186693
0.00151169
0.0117582
0.495364
0.0708518
0.011901
0.00506449
0.00971103
0
0.00489013
0.00863051
0.0520857
0.540115
0.18402
0.00562464
0.0234389
0.0313724
0.00770566
0.0593794
0.0869386
0.160472
0.348033
0.0884565
0.0320509
0.0341106
0.0293686
0.0690713
0.159015
0.184844
0.146831
0.184217
0.0638194
0.112991
0.133011
0.136615
0.0280846
0.106001
0.0400522
0.0911375
0.368321
0.196482
0.0214869
0.104239
0.111981
0.103921
0.360915
0.40015
0.17204
0.159277
0.0692886
0.0357722
0.107133
0.101255
0.016251
0.0284924
0.00676103
0.0852255
0.0318747
0.0690102
0.0359902
0.0167425
0.00539347
0.0384372
0.0740748
0.0881923
0.141909
0.0556358
0.0436475
0.128848
0.0345353
0.0286576
0.145109
0.100664
0.0287771
0.0774072
0.0180338
0.0914808
0.135403
0.0190409
0.0355303
0.580116
0.417808
0.35775
0.212221
0.0256598
0.0623138
0.162838
0.0556786
0.0260675
0.0251257
0.0488718
0.0895115
0.0574523
0.0242375
0.012325
0.0364776
0.0280433
0.0339544
0.0614292
0.149518
0.147112
0.0328915
0.0324315
0.00843497
0.00411836
0.0528878
0.0498025
0.331035
0.214063
0.218343
0.0887928
0.0209976
0.00814997
0.0460331
0.0897515
0.0925876
0.330361
0.464625
0.485747
0.114865
0.0273018
0.00186278
0.0172297
0.12857
0.146795
0.0389564
0.137411
0.108839
0.0310409
0.00775893
0.00189947
0.00359148
0.0193161
0.00934116
0.0327815
0.318394
0.22265
0.0291665
0.00298832
0
0.00880192
0.0348427
0.00935737
0.0851061
0.331209
0.357435
0.113889
0.00966973
0.000271353
0.00151635
0.0189418
0.0212735
0.0785324
0.509913
0.461196
0.0893625
0.0012651
0
0.000705128
0.00211538
0.00194588
0.0571807
0.261349
0.126441
0.00625665
0.000315493
0
0.0016306
0.0136047
0.0162744
0.0921425
0.344697
0.195756
0.0531935
0.00903539
0.0030118
0
0.00142189
0.00896313
0.0803926
0.41158
0.214402
0.00943111
0.00212158
0.00259304
7.44443e-005
0.000223333
0
0.143623
0.570464
0.341812
0.0367672
0.0202723
0.0199584
0
0
0
0.0517657
0.289666
0.148543
0.0358508
0.00849323
0.00283108
0
0.000771733
0.0026041
0.0786109
0.522436
0.185134
0.00625813
0.00121332
0.000404439
0
0.00128622
0.0139014
0.170581
0.371624
0.204426
0.0536956
0.0102315
0.00797546
0
0.00540213
0.0300641
0.360508
0.3673
0.105579
0.0254262
0.000727991
0.000242664
0
0.00900355
0.180169
0.0586723
0.501246
0.164279
0
0
0
0
0.00179135
0.0274229
0.0557287
0.3837
0.0879571
0.000998644
3.43788e-005
2.5096e-005
0.00227969
0.00878267
0.0471398
0.325134
0.182102
0.0460946
0
0
0
0.00132559
0.0205403
0.338137
0.156738
0.0427001
0.010099
0.00129593
0.00605214
0.0422299
0.0603379
0.154263
0.424764
0.0439059
0.218059
0.0475012
0.0102821
0.00895
0.000998574
0.00575175
0.0164471
0.041225
0.0290928
0.0363848
0.0092038
0.0372973
0.544842
0.0556686
0.0019214
0.00858893
0.0220229
0.0427201
0.00688739
0.00334599
0.0129081
0.0390308
0.111698
0.120106
0.146611
0.20095
0.00974282
0.00113387
0.00305915
0.0625479
0.658215
0.0859932
0.0319914
0.0132716
0.0176494
0.00137692
7.21776e-005
0.000117024
0.0057825
0.375804
0.053462
0
0.000382119
0.00110022
0.00512841
0.0162679
0.00555794
0.0663739
0.484441
0.11729
0.000344113
0.0098299
0.0171315
0.000436939
4.33065e-005
0.00019504
0.0107854
0.489613
0.0498684
0.000199038
0.000174728
0.000477269
0.0300701
0.0176476
0.00333477
0.0572784
0.524842
0.168015
0
0.000347694
0.00172354
0.0300079
0.0880826
0.0386832
0.151145
0.223773
0.0926267
0.00110442
0.0362428
0.0684971
0.0431403
0.188388
0.240974
0.290212
0.0919181
0.0222991
0.00515967
0.0267527
0.0555135
0.0977463
0.0577103
0.0276039
0.299042
0.368556
0.145278
0
0.00111591
0.00738775
0.0645112
0.0482967
0.0964608
0.567021
0.236512
0.0257214
0.00269821
0.000669545
0.0064125
0.0403558
0.0567932
0.0738484
0.0446644
0.010246
0.024821
0.0547525
0.0207737
0.0301472
0.189477
0.366423
0.334423
0.108722
0.03283
0.0115957
0.0274636
0.0391661
0.0125557
0.02568
0.0549995
0.127558
0.128624
0.0745249
0.0439537
0.0808145
0.0508273
0.0666615
0.0740231
0.501881
0.366353
0.259078
0.0941398
0.0245183
0.106324
0.219778
0.208404
0.205553
0.257518
0.249809
0.0814079
0.0252006
0.000270578
0.0142283
0.049832
0.025973
0.146992
0.308236
0.3388
0.0949677
0.0183783
0.000911308
0.0166269
0.0598259
0.0304
0.0852582
0.395531
0.280018
0.192435
0.0568729
0.00624031
0.0272066
0.118507
0.081552
0.0582882
0.324158
0.265296
0.132778
0.0646753
0.0140109
0.0139944
0.111205
0.047238
0.0674236
0.242742
0.326083
0.0955553
0.0379932
0.0016514
0.00283812
0.010839
0.0124577
0.0900297
0.470788
0.336499
0.046148
0.0328041
0.0092198
0.0011868
0
0.00495432
0.0479394
0.150908
0.186627
0.0813687
0.189874
0.0287725
0.0476892
0.0855805
0.0240776
0.0675739
0.3188
0.216256
0.0406719
0.210493
0.0748662
0.115879
0.277101
0.0163746
0.113395
0.490264
0.203985
0.00420745
0.0134313
0.0303616
0.00317895
0.00103257
0.000995593
0.178389
0.414172
0.258233
0.0441735
0.0647124
0.127308
0.00357475
0.0894721
0.0250813
0.0818552
0.271536
0.088005
0.00101077
0.036536
0.0631489
0.0475339
0.233653
0.0591004
0.0768053
0.0984492
0.0630498
0.0212016
0.0506039
0.142863
0.0165779
0.334104
0.161288
0.210318
0.166311
0.135509
0.0503506
0.021192
0.0380436
0.000473827
0.0943516
0.118754
0.468011
0.0758821
0.0278823
0.015597
0.00403904
0.00173102
0.0128984
0.0615945
0.321603
0.126783
0.0343064
0.0403308
0.0196891
0.0184754
0.0431055
0.00429198
0.22033
0.296374
0.281373
0.020657
0.0430764
0.0941378
0.0888183
0.030416
0.0647419
0.157504
0.447336
0.271921
0.00836605
0.00112546
0.00259904
0.0338994
0.00960728
0.0275676
0.0693287
0.323992
0.091098
0.000677861
0.00321059
0.0954678
0.113414
0.1129
0.0832466
0.203275
0.31935
0.100236
0.000914249
0.0682213
0.15831
0.220899
0.068164
0.087002
0.12997
0.179789
0.0210203
0
0.0544012
0.414323
0.398953
0.20916
0.0659792
0.130122
0.0836653
0.0102647
0.000228643
0.00169774
0.133338
0.159195
0.186771
0.0893084
0.122917
0.0885967
0.00208749
0.0016005
0.000152822
0.051937
0.425923
0.0892415
0.0191067
0.00729849
0.00458772
0.081619
0.00279824
0.0117313
0.429689
0.29585
0.222583
0.0461975
0.125946
0.0912983
0.177493
0.0195877
0.0130275
0.119837
0.428898
0.110571
0.0204146
0.0543001
0.120088
0.000330074
0.000300854
2.87266e-005
0.0076933
0.397311
0.0357882
0.000216613
0.000128923
0.000186792
0.0378138
0.00510556
0
0.00452954
0.497543
0.160971
0
0
0.00225948
0.021643
0.00368199
0.00665666
0.0192333
0.448319
0.0713198
0.00261515
0.00270393
0.011453
0.0231603
0.0148091
0.00521045
0.0182327
0.534446
0.138473
0.000369172
0
0.00951601
0.14813
0.0200004
0.0035417
0.15402
0.326571
0.189616
0.00561698
0
0.00885121
0.0896951
0.0132254
0.0202114
0.365209
0.400924
0.0791714
0.0112209
0
0.00531072
0.0907274
0.0580128
0.016686
0.0566928
0.327889
0.156302
0.0962045
0.0435612
0.0372777
0.0544365
0.0348077
0.0108351
0.0775613
0.355392
0.291964
0.212812
0.088557
0.0284542
0.0612622
0.0129873
0.0836043
0.10419
0.0936496
0.0626098
0.130027
0.0853339
0.152898
0.0609308
0.264739
0.0927218
0.184637
0.109411
0.0463695
0.253969
0.247876
0.522384
0.0736769
0.00450036
0.0312234
0.119678
0.124597
0.0883068
0.106054
0.10538
0.195886
0.0315792
0.017433
0.0499731
0.269596
0.213804
0.0481184
0.0944535
0.106821
0.212135
0.0392307
0.276831
0.0985589
0.138329
0.0950311
0.0315773
0.102266
0.222785
0.223162
0.0441606
0.139688
0.0748165
0.079218
0.0813759
0.0425379
0.0324821
0.436122
0.161477
0.0271272
0.0174116
0.0582628
0.159793
0.19783
0.0263426
0.0615121
0.148842
0.103193
0.10097
0.206178
0.103938
0.122595
0.119608
0.0831647
0.0246641
0.437462
0.148369
0.0214388
0.0169066
0.0132477
0.0175073
0.0716877
0.024484
0.0551814
0.201575
0.0430783
0.00927124
0.0222631
0.0212153
0.00997824
0.0748141
0.0315925
0.11911
0.512
0.0369526
0.143238
0.158351
0.033852
0.0182676
0.0136504
0.0379177
0.0205496
0.224817
0.10139
0.163616
0.0605705
0.00369661
0
0.00259509
0.00636952
0.0755478
0.613321
0.281736
0.00629413
0.0116673
0.0035695
0.000246699
0.007389
0.00972995
0.0341475
0.373321
0.0533963
0.00920174
0.00326683
0
0
0.00165218
0.00942599
0.0179511
0.386094
0.107574
0.0176918
0.000761965
0
0
0
0
0.0783582
0.535031
0.124501
0.00195792
0.000569068
0
0
0
0
0.0849736
0.548113
0.158749
0.0505323
0.00825644
0
0.00533287
0.0107102
0.00646224
0.0137386
0.215047
0.160276
0.0748662
0.0141026
0.0590415
0.177561
0.182859
0.0379257
0.0619412
0.0886215
0.135555
0.0137484
0.00805651
0
0.00648056
0.0108494
0.000380069
0.122343
0.613689
0.158785
0.0351375
0.0398538
0.0272719
0.103711
0.173333
0.0420326
0.241044
0.458559
0.154433
0.0188891
0.00290653
0.0918968
0.237626
0.212166
0.0620298
0.0880308
0.0533513
0.0461614
0.0824092
0
0.0435675
0.202773
0.22038
0.162117
0.0722262
0.118074
0.0875111
0.0520886
0.0141376
0.0320171
0.106127
0.141891
0.054776
0.222613
0.262026
0.21984
0.450507
0
0.00777662
0.0381431
0.049082
0.0576977
0.115665
0.222423
0.423648
0.184978
0.00470691
0.00574935
0.0885757
0.0734026
0.101021
0.0285247
0.129485
0.15549
0.206915
0.0152422
0.0282967
0.0433623
0.136444
0.107702
0.0334831
0.081635
0.197235
0.559866
0.0243709
0.0192373
0.00119314
0.00831635
0.0362575
0.0143664
0.0984533
0.301383
0.415935
0.0466526
0.135956
0.0454727
0.15116
0.149828
0.0358354
0.0912106
0.215985
0.0263399
0.00340021
0.0129624
0.0252892
0.319761
0.0821009
0.0118267
0.00964221
0.0297019
0.00300624
0.015259
0.015263
0.0575196
0.542259
0.0658164
0.0010748
0
0.00351671
0.044736
0.00641827
0.0410815
0.0405589
0.372548
0.128175
0.0148601
0.0267729
0.0255874
0.000242206
0.00217986
0.0151233
0.0627044
0.587142
0.131381
0.00109833
0.00256955
0
0.00647757
0.0346146
0.0324656
0.0570116
0.240909
0.0384741
0.087231
0.0617979
0.0075775
0.00388654
0.0226203
0.0247114
0.0337786
0.0993781
0.16819
0.266724
0.182088
0.0142951
0.00922572
0.0381231
0.0705211
0.0556553
0.490653
0.0682718
0.0922598
0.0721619
0
0.0148195
0.123203
0.195993
0.0488861
0.353533
0.249585
0.395078
0.248422
0.00584915
0.0284004
0.0289243
0.0446092
0.203326
0.201476
0.140427
0.103803
0.0426203
0.0864792
0.0787717
0.0768053
0.0768763
0.364568
0.181345
0.0565623
0.0490586
0.0759317
0.0564662
0.105447
0.0405746
0.0267655
0.0957674
0.226811
0.275583
0.182338
0.0485354
0.0822264
0.250372
0.164883
0.078669
0.320175
0.24899
0.180449
0.227578
0.120037
0.0572148
0.0197795
0.0342656
0.0591844
0.111094
0.0518175
0.00386101
0.00344927
0.021978
0.00778587
0.0428107
0.191738
0.214338
0.251365
0.0513712
0.0144561
0.000524617
0.0447495
0.0215953
0.0401367
0.126068
0.183789
0.23501
0.0548048
0.0395883
0.019747
0.0176384
0.00282124
0.0178666
0.298788
0.564175
0.478604
0.114575
0.0773737
0.0146186
0.0449361
0.0242161
0.206483
0.24731
0.142516
0.109329
0.0161862
0.019756
0.00840049
0.0697013
0.0934511
0.283516
0.0987474
0.0168284
0.0135454
0.00434158
0.0126221
0.105295
0.305177
0.323067
0.113201
0.164058
0.262231
0.225586
0.103534
0.151576
0.0539877
0.148325
0.102613
0.290296
0.128264
0.0302957
0.081993
0.0809347
0.1957
0.144664
0.234286
0.18116
0.107633
0.0341478
0.00399154
0.00321598
0.00375351
0.0012331
0.107103
0.351249
0.165941
0.0799724
0.0176011
0.00239493
0.00216584
0.0194926
0
0.144712
0.508067
0.209547
0.230211
0.147961
0.0551514
0.0450145
0.0322166
0.045338
0.0696563
0.201192
0.105689
0.167087
0.116907
0.162581
0.107923
0.136448
0.00741567
0.172077
0.379059
0.172827
0.0141162
0.00129136
0
0.00112864
0.00676114
0
0.108507
0.311355
0.125904
0.0105542
0.00903955
0
0.0031702
0.0126343
0.00661222
0.109245
0.38322
0.180435
0.0649583
0.0776408
0.133115
0.0411103
0.0477942
0
0.131212
0.27782
0.216378
0.0351816
0.0985177
0.0557279
0.0102114
0.00870248
0.0256581
0.252631
0.498474
0.365862
0.0195617
0.003536
0
0.00124009
0.0102379
0.00806994
0.108803
0.271588
0.145024
0.167054
0
0
0
0.00119683
0.00190432
0.066992
0.275856
0.209362
0.00578678
0.0187085
0.00229394
0.00102462
0.00125232
0.0297454
0.245926
0.487548
0.185126
0.0459679
0
0
0
0
0.00603044
0.149142
0.521719
0.242215
0.250311
0.00805945
0.00639301
0
0
0.00173055
0.0110814
0.172764
0.18482
0.215733
0.0152269
0.044751
0.0143127
0.0789742
0.0504046
0.00842389
0.0996443
0.126329
0.0424263
0
0
0
0.00713206
0.00237735
0.0977184
0.569958
0.224247
0.0598223
0
0.00870148
0.0101338
0.0824521
0.0275193
0.0460078
0.542802
0.186918
0.038296
0.00236368
0.0152721
0.0144922
0.274622
0.100521
0.00439246
0.0270435
0.017329
0.000483627
0
0.00247841
0.0122738
0.577364
0.17164
0.0156286
0.00267272
5.37363e-005
0.0498212
0
0.0299278
0.0587453
0.296711
0.0633204
0.0107057
0.144146
0.0410807
0.0160756
0
0.0270174
0.117911
0.577364
0.144743
0.025329
0.00952084
0.00342299
0.0367482
0.0942906
0.0451974
0.00692747
0.438716
0.141963
0.0718442
0.0181011
0.00171499
0.0730412
0.31659
0.273045
0.0185476
0.277705
0.163798
0.15066
0.0559167
0.0239908
0.0338194
0.141237
0.042724
0.0639993
0.339261
0.137807
0.0643922
0.0127722
0.0152681
0.140957
0.343302
0.186897
0.0294348
0.112454
0.0708013
0.0491786
0.159682
0.147597
0.0770287
0.0648101
0.0125887
0.0135431
0.17576
0.149531
0.135993
0.0299242
0.0581438
0.180643
0.175412
0.240435
0.171818
0.203666
0.133064
0.138748
0.0286961
0.0106576
0.106224
0.154317
0.105361
0.00259855
0.115231
0.134186
0.0977718
0.0239922
0.0432913
0.141895
0.204968
0.540797
0.176547
0.174331
0.17449
0.18239
0.00870591
0.00865873
0.0327521
0.0832064
0.226373
0.197402
0.0735615
0.0396544
0.0100573
0.00333812
0.000312647
0.00358115
0.243249
0.323739
0.249873
0.160658
0.119464
0.0142127
0.0338219
0.0216579
0.0261146
0.0708841
0.278044
0.254379
0.103616
0.0794908
0.0478097
0.00224433
0.000564452
0.0422389
0.32235
0.334586
0.395464
0.14055
0.0898575
0.0127791
0.0579168
0.0153304
0.0146879
0.145254
0.147074
0.0988903
0.148906
0.214707
0.0401601
0.160239
0.123977
0.205753
0.0600513
0.0204574
0.0418412
0.104829
0.229755
0.0813239
0.171332
0.142131
0.0501944
0.230368
0.245157
0.252162
0.118755
0.0667673
0.0193025
0.198546
0.163377
0.101486
0.019726
0.0688249
0.0825537
0.0765576
0.0675206
0.155786
0.472986
0.226017
0.21885
0.117174
0.0670607
0.0498789
0.031005
0.129543
0.0758181
0.0762786
0.062002
0.132427
0.362127
0.366025
0.157178
0.0790284
0.0494522
0.0954664
0.117835
0.0818498
0.116425
0.0500134
0.0496535
0.0605051
0.0527943
0.129509
0.177726
0.295777
0.0767341
0.175377
0.358814
0.275208
0.0933404
0.0612526
0.139731
0.121582
0.113312
0.134165
0.0651362
0.209642
0.264258
0.0629222
0.0795441
0
0.0459682
0.084342
0.0877946
0.0364136
0.201805
0.204275
0.0595845
0.114289
0.0473776
0.285076
0.329023
0.14923
0.0825036
0.159506
0.249524
0.0619632
0.129758
0.0378862
0.0198203
0.0262122
0.0653159
0.041097
0.127791
0.416515
0.281172
0.281124
0.0476783
0.0741638
0.0665815
0.0197877
0.00435307
0.0402449
0.0787184
0.0160379
0.0167943
0.0341898
0.169792
0.318577
0.125647
0.0271347
0.0067731
0.0308532
0.00336598
0.000690284
0.0054346
0.171475
0.480589
0.240692
0.0150219
0.0609057
0.222366
0.153214
0.0520853
0.0218927
0.0504962
0.166947
0.0845188
0.0344258
0.0778479
0.108048
0.051525
0.0053853
0.00312753
0.178455
0.480589
0.273407
0.0118768
0
0
0
0.0117378
0.00391261
0.126222
0.377213
0.13968
0.0271306
0
0.00526831
0.00558735
0.028098
0.00729602
0.0658418
0.390565
0.0967724
0.0429307
0.0438759
0.00673161
0.00256342
0.00749507
0.0114789
0.22877
0.477759
0.157408
0.0433877
0.0140232
0.000877531
0.000752616
0.0117378
0.0191316
0.231028
0.477759
0.115341
0.0982752
0
0.0488443
0.0682582
0.0912487
0.00659175
0.0285511
0.227246
0.0603073
0.0597684
0
0.0577658
0.157463
0.387158
0.0265493
0.00503584
0.0215038
0.022237
0.0838242
0
0.0201876
0.0164816
0.00763303
0.00422976
0.12053
0.604669
0.175014
0.0769883
0.0471538
0.0412234
0.150687
0.36713
0.0257707
0.0267271
0.256776
0.150939
0.0101996
0.085784
0.0626428
0.118955
0.341777
0.0278935
0.00829923
0.0109564
0.0117196
0.164258
0.231581
0.104283
0.0729113
0.128931
0.0117608
0.00762693
0.148502
0.156441
0.0149978
0.0834842
0.0674621
0.248635
0.529577
0.0750056
0.00161737
0.0275133
0.0256639
0.208648
0.283171
0.103741
0.208795
0.267329
0.0849779
0
0.0456619
0.155673
0.0387724
0.0359624
0.0445745
0.0365546
0.0486505
0.0488981
0.0270634
0.00181204
0.00857664
0.0550937
0.0406616
0.291431
0.123459
0.0436747
0.0796537
0.0705014
0.00308806
0.00660056
0.0118621
0.0174299
0.133249
0.211135
0.0940619
0.035306
0.0187395
0
0.00123273
0.0585182
0.0421648
0.653051
0.541807
0.0776041
0.0216736
0.0297062
0.00655987
0.00775529
0.0272759
0.0269603
0.2651
0.180853
0.0497948
0.0600907
0.0441237
0.00873622
0.00168078
0.130931
0.122017
0.218092
0.311381
0.0844163
0.0325032
0.0169598
0.0284308
0.00370089
0.0653793
0.0271306
0.456316
0.24151
0.143895
0.019428
0.0420144
0.0227618
0.00882274
0.172999
0.106488
0.175327
0.242732
0.468522
0.0723943
0.0348204
0.0346114
0.0212995
0.162824
0.171394
0.117908
0.244335
0.0779101
0.000115241
0.0157779
0.0822107
0.0602511
0.069157
0.0720544
0.0526007
0.178774
0.058091
0.0408505
0.121834
0.2685
0.0891384
0.222037
0.226553
0.0818109
0.224656
0.344029
0.138803
0.0181966
0.0563692
0.0831532
0.18487
0.110863
0.170868
0.375513
0.241476
0.17508
0.07902
0.154355
0.0653021
0.0383682
0.0232311
0.0489343
0.170803
0.101653
0.126451
0.109699
0.204229
0.0218633
0.0435384
0.104978
0.170068
0.16681
0.127443
0.168188
0.105333
0.107523
0.0403018
0.0929401
0.0334305
0.142032
0.309629
0.312628
0.297057
0.0656679
0.0985422
0.00536373
0.0367585
0.172923
0.263744
0.17348
0.309765
0.312983
0.094907
0.107409
0.0752647
0.0212139
0.135821
0.234927
0.0633392
0.0667425
0.0605865
0.0322946
0.0439296
0.027683
0.0457135
0.266088
0.333417
0.264539
0.112492
0.0272523
0.00580087
0.0169672
0.00665216
0.0157663
0.269835
0.242217
0.0610337
0.070638
0.0554918
0.0291967
0.0923368
0.0675634
0.0559714
0.556635
0.260738
0.148382
0.0601079
0.0108326
0.00972513
0.111515
0.0753386
0.0661221
0.158566
0.18861
0.281734
0.133404
0.015013
0.00555171
0.0416857
0.0362426
0.0785133
0.261991
0.159552
0.149918
0.133217
0.0200819
0.0649034
0.217577
0.251238
0.0692814
0.285619
0.0753299
0.168354
0.210662
0.117198
0.0568804
0.12888
0.0644676
0.110065
0.29862
0.153351
0.120701
0.271591
0.209447
0.128177
0.17127
0.0884889
0.0720011
0.126687
0.0446664
0.0151828
0.0171774
0.0445244
0.138515
0.256477
0.171527
0.0431972
0.0297111
0.0348221
0.000746504
0.0112525
0.0898877
0.240422
0.561154
0.155654
0.0834289
0.127843
0.0873301
0.0146836
0.070269
0.102956
0.0839929
0.117426
0.147299
0.0429909
0.0208669
0.0660184
0.00124417
0.11082
0.400195
0.198747
0.237364
0.176934
0.0195537
0.00356206
0.030027
0.000419055
0.00576548
0.0279392
0.126949
0.490862
0.172685
0.121217
0.160083
0.0277528
0.100905
0.087076
0.0205614
0.106241
0.332724
0.201392
0.0601225
0.00865006
0.0600446
0
0.0510405
0.225794
0.19863
0.197594
0.129706
0.342698
0.160657
0.0529112
0.0485335
0.0512854
0.0676645
0.181139
0.172706
0.250755
0.0833433
0.203938
0.0928452
0.258397
0.216557
0.0691011
0.0155911
0.0611966
0.0572324
0.0904446
0.208652
0.109684
0.205638
0.145402
0.122171
0.010333
0.0488208
0.0604027
0.26854
0.274778
0.237322
0.13857
0.102705
0.022658
0.0230477
0.0372673
0.121639
0.206418
0.407916
0.299512
0.117803
0.0810525
0.0747995
0.0808788
0.157532
0.0747681