0.12144
0.00998668
0.00237162
0.000719648
0.000863999
0.00557385
0.00207089
0.0283182
0.299269
0.17826
0.00935214
0
0
0.000120981
0.00268514
0.00533583
0.119089
0.336097
0.248255
0.0901958
0.0152115
0
0
0
0
0.0153357
0.32798
0.396068
0.153998
0.0100672
0.000488892
0
0
0.000184324
0.0287849
0.375708
0.178089
0.0195993
0
0
0
0.00146383
0.00371847
0.0590143
0.194419
0.246396
0.0326116
0
0
0
0.000209119
0.00363302
0.0264748
0.369428
0.314698
0.116315
0.0109322
0.0010299
0
0
0.000142846
0.0109541
0.202379
0.471149
0.0723271
0.00422967
0.000617941
0
0
0.00519009
0.0304583
0.395765
0.125971
0.00718549
0
0
0
0
0.00807516
0.0302017
0.302302
0.183948
0.0126593
0
0
0.00104925
0.00194861
0.0138592
0.0685815
0.31323
0.316744
0.0177152
0
0
0
0
0.0134586
0.0444232
0.321742
0.510077
0.0529486
0
0
0
0
0.0176058
0.023305
0.319893
0.181018
0.0402557
0
0
0.00336001
0.00726112
0.026436
0.0644218
0.218259
0.0883646
0.0621973
0.121657
0.0261561
0.0223263
0.0187004
0.0353982
0.0475371
0.29149
0.451542
0.043679
0
0
0
0
0.0354576
0.0188524
0.273635
0.230851
0.0333481
0.0720467
0.0191576
0.00169375
0.00508125
0.0963093
0.106772
0.473286
0.0061732
0.0774827
0.228647
0.0639557
0.0497837
0.0574076
0.109424
0.0692816
0.101398
0.0224531
0.0376414
0.0995573
0.0979533
0.0422119
0.154994
0.324594
0.183132
0.140823
0.0714559
0.081281
0.18204
0.0473824
0.00611564
0.0330959
0.150856
0.223405
0.233876
0.186345
0.131887
0.24988
0.156072
0.0182613
0.113258
0.209504
0.200942
0.139061
0.0451687
0.00642186
0.00772844
0.0274912
0.00571783
0.0437923
0.0924846
0.101031
0.253542
0.179743
0.0257154
0.0125947
0.028106
0.000461916
0.00502267
0.0149382
0.0443413
0.370766
0.234256
0.0441438
0.0531807
0.0692452
0.0120211
0.0421102
0.0616418
0.0582549
0.252064
0.416025
0.0388085
0.0285237
0.0467057
0.0017173
0.00285515
0.00828007
0.0157612
0.443887
0.179227
0.0286725
0.00984515
0.0286944
0.000160212
0.000384635
0.00720048
0.00934942
0.181519
0.234749
0.0232032
0.00770604
0.0134759
0.00112148
0.00208275
0.0180345
0.0162484
0.290477
0.337934
0.0230665
0.0249197
0.0465462
0
0
0.00746127
0.0109429
0.231764
0.602806
0.0121588
0.00624136
0.0182509
0
0
0.0274599
0.0291638
0.281922
0.153702
0.00504198
0.00229861
0.000985117
0.000400857
0.000744449
0.00730313
0.0295561
0.217617
0.223797
0.000966861
0
0
0
0.000410424
0.0148703
0.077471
0.229812
0.454779
0.00742924
0.00132094
0
0
0
0.00835586
0.019567
0.197931
0.552133
0.0162402
0.00220157
0
0
0.00068404
0.00615637
0.034142
0.307485
0.192978
0.00251994
0.00551962
0.00125959
0
0.00118366
0.0171134
0.0360981
0.196596
0.239626
0.0041999
0.0136779
0.00881714
0.000281262
0.0103161
0.0223745
0.0374734
0.278788
0.417104
0.0121229
0.00951548
0.00209932
0
0.00197277
0.0177549
0.0209045
0.266214
0.452026
0.0291181
0.0227965
0.0146952
0.00046877
0.0188374
0.0350157
0.00608794
0.388928
0.363069
0.156132
0.0347057
0
0
0.000594277
0.00719203
0.0260203
0.220043
0.452469
0.252342
0.0519
0.00219768
0
0
0.00566978
0.0296027
0.237665
0.120467
0.0918778
0.0649925
0.0504479
0.0335763
0.0189038
0.0503442
0.0523688
0.0732393
0.148511
0.102201
0.0990578
0.0393441
0.0231486
0.0119232
0.0447984
0.0859427
0.0866042
0.302519
0.183809
0.0574356
0.00522741
0.00057391
0
0.00364982
0.0130778
0.16411
0.461663
0.0659202
0.022357
0.00897069
0.0122238
0.00470247
0.0100689
0.0511623
0.410424
0.104793
0.0735858
0.0815467
0.0247211
0.0141737
0.0104333
0.0300201
0.0376057
0.0949189
0.130292
0.0636687
0.0541688
0.0578381
0.0595568
0.00932791
0.0176171
0.0778012
0.243561
0.273487
0.0210864
0.00208166
0.0231312
0.022556
0.0106617
0.00989926
0.0316466
0.282668
0.457426
0.147613
0.0145716
0.0293667
0.0173339
0.00639702
0.00486566
0.0110591
0.213896
0.0592785
0.0836715
0.0287333
0.0911445
0.083887
0.0177695
0.0115623
0.0375102
0.114214
0.23826
0.413717
0.0521462
0.0715627
0.0721271
0.0106617
0.00165175
0.011839
0.0703355
0.236193
0.0486292
0.00325483
0.00219868
0.000652927
0
0.00402189
0.0142819
0.11982
0.188249
0.0338244
0.0143471
0.00202132
0.0038588
0.0115764
0.024522
0.0790848
0.267157
0.25516
0.257542
0.00872702
0.00366446
0.00395332
0
0
0.021625
0.0744268
0.561248
0.361911
0.0213879
0
0.00231528
0.00694584
0
0.037059
0.215438
0.0777459
0.0805848
0.0428173
0.00679564
0.00910197
0.0281711
0.0224057
0.0934767
0.120044
0.100596
0.12363
0.0793846
0.0583351
0.0191565
0.0573596
0.0233869
0.127725
0.105225
0.32306
0.409135
0.056983
0.000372771
0.00546118
0.0163835
0
0.036206
0.134962
0.207435
0.336833
0.0448518
0.00638876
0.00935968
0.0314942
0.0263266
0.400519
0.344891
0.0823946
0.0279079
0.0189573
0.0343928
0.0124277
0.034312
0.0186206
0.084513
0.110184
0.132594
0.0079167
0.0185805
0.00964561
0.00177538
0.00468068
0.016901
0.0567705
0.157582
0.0597436
0.0314627
0.00281346
0.00430064
0.00551993
0.0196589
0.028349
0.44005
0.37633
0.0286037
0.000718036
0.0102624
0.00230094
0.000788561
0.00280841
0.0484574
0.543939
0.368671
0.219598
0.021331
0.0417742
0.014595
0
0.00102543
0.0301719
0.0451465
0.102127
0.389173
0.0252122
0.0190653
0.00562084
0
0.007178
0.0297138
0.0370998
0.0938208
0.0280993
0.00529895
0.0236812
0.00417904
0
0.00170905
0.109019
0.600802
0.141099
0.0833047
0.0234757
0.0193452
0.00157427
0
0.0119633
0.0939201
0.363763
0.118276
0.462327
0.0400102
0.0197003
0.00503477
0
0.00586792
0.00872141
0.0339752
0.118973
0.545316
0.0877373
0.0287731
0.0132735
0.00143403
0.00285353
0.00702313
0.0267493
0.209123
0.131109
0.0541416
0.0422539
0.00839128
0.00281168
0.0435916
0.028934
0.104386
0.117875
0.109007
0.122981
0.0712404
0.0592078
0.0147243
0.0607833
0.0275256
0.0321775
0.0492649
0.423579
0.0405297
0.0129016
0.00867973
0.00407162
0.00101973
0.0279877
0.0439319
0.246677
0.457835
0.0652402
0.00955095
0.00631438
0.00682503
0.0370419
0.0560551
0.0453803
0.330331
0.0649865
0.0545892
0.0629407
0.0693421
0.0292276
0.00942041
0.060959
0.0532905
0.0377146
0.0763703
0.0290505
0.0242595
0.0207239
0.0371516
0.0420585
0.114754
0.0888534
0.0629551
0.0248957
0.0604014
0.0842133
0.18476
0.139794
0.0387055
0.0482789
0.0235014
0.0132345
0.0485361
0.123565
0.132477
0.166226
0.0703815
0.044707
0.0418292
0.0486495
0.0257906
0.0382269
0.11978
0.0570665
0.115213
0.145413
0.13086
0.152306
0.00646576
0.0123065
0.0775722
0.21472
0.0799171
0.195001
0.104906
0.0960048
0.0947456
0.0224747
0.0341136
0.0468448
0.032383
0.0656202
0.091238
0.0347014
0.0425721
0.0191827
0.025557
0.0562326
0.0971173
0.0958743
0.0780433
0.0662654
0.0393978
0.0209202
0.00605919
0.0803788
0.206528
0.0163527
0.0303683
0.0362108
0.143415
0.0902373
0.0813199
0.0280337
0.0637503
0.0602398
0.0554417
0.373012
0.450043
0.151164
0.208336
0.0626831
0.00996504
0.146426
0.157523
0.0198412
0.0827444
0.0395031
0.0121722
0.00812773
0.000767036
0.000515323
0.00744326
0.019151
0.123356
0.28424
0.0789451
0.00684315
0.00732257
0.000460222
7.12993e-005
0.000757661
0.0029874
0.0181533
0.244348
0.258937
0.0225953
0.0140385
0.000719016
0.000113594
0.00826359
0.014364
0.132124
0.511144
0.611229
0.0417207
0
0.0152891
0.000804691
0.000162376
0.00252417
0.137416
0.177018
0.0147499
0.00016546
0.000470257
0
0
0.000976427
0.00496206
0.218881
0.260424
0.00590082
0
0
0
0
0.000974329
0.0363277
0.220493
0.331699
0.192094
0.00921961
0
0.00971044
0.000511078
0
0.00198476
0.32555
0.668729
0.0735553
0
0
0.00138721
7.30111e-005
0
0.0571528
0.15778
0.187986
0.0101295
0
0
0
0
0.00318517
0.0592847
0.159363
0.0976527
0.00682967
0
0
0
0.00194548
0.090682
0.183346
0.271794
0.504701
0.0292559
0
0
0
0
0.000271241
0.105241
0.335733
0.230448
0.00489895
0
0
0
0
0.119515
0.513376
0.0477571
0.00673498
0.000465122
0
0
0
0.0108795
0.14755
0.179036
0.00748968
0
0
0
0
0
0.0414486
0.295528
0.149582
0.0720329
0.0146491
6.64461e-005
0
0
0
0.0131483
0.228566
0.507608
0.0118371
0
0
0
0
0
0.0648384
0.469219
0.471001
0.00138374
0
0
0
0
0.000209529
0.0307269
0.296435
0.107301
0.00962524
0.00152243
0.000787446
0
0
0.00189137
0.0619186
0.259591
0.106496
0.00680214
0
0
0
0
0.00220936
0.0782228
0.507554
0.318598
0.00468773
4.80673e-005
0
0
0
0.051484
0.32842
0.482001
0.168133
0.0250529
0.00685086
0.00434207
0.000472139
0.0020354
0.0306404
0.110576
0.161615
0.0845861
0.0271249
0.0274469
0.0126714
0.0106066
0.00492763
0.0462894
0.057728
0.0309146
0.0408363
0.00299331
0.000403366
0
0
0.000917379
0.124602
0.650608
0.390114
0.0765227
0.051321
0.0254891
0.00113023
0.000656109
0.00152896
0.0541517
0.279921
0.283291
0.166564
0.0471333
0.0329106
0.0251438
0.0252595
0.00787711
0.0111803
0.0334905
0.0272792
0.0547004
0.0543889
0.0265621
0.00876412
0.00859155
0.00988386
0.00326222
0.0426838
0.0660238
0.0782517
0.266369
0.0775212
0.00246857
0.00191997
0.000382115
0.00817043
0.0494589
0.148153
0.281095
0.474044
0.054581
0.000628495
0.000786561
0.000303732
0
0.0121888
0.163093
0.52924
0.0193144
0.0129067
0.0024729
0.00233057
0.0331427
0.0465884
0.058242
0.00587019
0.0341372
0.0587137
0.036484
0.00799373
0.0118256
0.0268967
0.0251932
0.0489101
0.0108506
0.0388247
0.171825
0.00541499
0
0
0.0182111
0.0236036
0.0503846
0.0162142
0.491511
0.286605
0.0414053
0.00899046
0
0.00910407
0.0140964
0.0383181
0.044255
0.62604
0.0312684
0.0219979
0.013397
0.0236499
0.0310499
0.0124292
0.012138
0.0127978
0.0116888
0.0194384
0.103317
0.212161
0.239872
0.159864
0.0120449
0.00250221
0.0140689
0.00830623
0.180172
0.0508749
0.0277322
0.0361133
0.0172653
0.00354099
0.0139227
0.0314838
0.176501
0.11817
0.0949941
0.524705
0.56022
0.149849
0.00401974
0.0147534
0.0123831
0.0435066
0.00165382
0.105154
0.18802
0.0911183
0.0268895
0.000400796
2.32942e-005
0.000755438
0.00279246
0.023662
0.202171
0.398656
0.0745069
0.00662259
0.0231665
0.0012193
0
0.0148664
0.0043314
0.0619967
0.318815
0.279927
0.0408609
0.00886643
0.0011511
0
0.00350302
0.011754
0.172903
0.465799
0.481157
0.063918
0.0283778
0.00149357
0
0.0245211
0.0671664
0.256125
0.149587
0.0167293
0.00148114
0.0172389
0.000907316
0
0.00420303
0.125243
0.567815
0.0804546
0.000741805
0
0.0024627
0.000129617
0
0.0112751
0.0337849
0.297621
0.259348
0.186836
0.0164938
0.0118014
0.000621128
0
0.00671268
0.0834924
0.53321
0.146812
0.032338
0.000729478
0.00180263
0.000397093
4.50082e-005
0
0.261088
0.555556
0.0474374
0.000409518
0.000136506
0
0.000148172
0.0022276
0.0508423
0.314778
0.191666
0.00395178
0.000682529
0.00022751
0
0.0010372
0.0894018
0.43835
0.152728
0.34414
0.0398843
0.010536
0.00385442
0.000733218
0.00316882
0.0050696
0.0159864
0.157054
0.0725411
0.00200881
0.00702421
0.00606266
0.00445938
0.0145522
0.0467674
0.164624
0.0592315
0.0102956
0
7.38001e-005
2.46e-005
0
0.00182891
0.172787
0.425204
0.0127952
0.000699368
0
0
0
0
0.0652024
0.534102
0.376671
0.04843
0.0103394
0
0.00109224
0.00139304
0.00410993
0.00949233
0.0824445
0.174071
0.0176497
0.00496476
0
0.000959392
0.000426556
0.0048821
0.0956318
0.460618
0.159849
0.00270105
0
0
0
0
0.00218096
0.128418
0.358456
0.0994639
0.0015231
0
0
0
0.00224513
0.0495187
0.291647
0.243141
0.0307408
0.00133478
5.23762e-005
0
9.83034e-005
5.17386e-006
0.0117615
0.310173
0.364811
0.0258835
0.000345941
7.48231e-006
0
0
0.0196349
0.115442
0.581459
0.241458
0.00437642
0
0
0
0
0.00533008
0.0878176
0.325154
0.204321
0.0226501
0.016507
0.0174092
0.019932
0.00183447
0.00502399
0.0504372
0.146052
0.215531
0.0643179
0
0
0
0.00186558
0.0644299
0.30936
0.55393
0.225591
0.0184264
0.0052821
0.0186809
0.0501224
0.034807
0.1127
0.378018
0.197688
0.160592
0.0216686
0.185281
0.0681028
0.0668782
0.00456713
0.0143485
0.0305871
0.0487485
0.120168
0.118518
0.46663
0.0675222
0.0739886
0.0052647
0.0215602
0.0171422
0.00718371
0.0864715
0.243142
0.0979268
0.073301
0.158126
0.0635523
0.223919
0.258508
0.0744173
0.0633337
0.0428846
0.272431
0.112752
0.21734
0.0710575
0.310767
0.219225
0.0271421
0.0942636
0.0783001
0.195657
0.00753053
0
0
0
0.000752031
0.00356988
0.00413324
0.279828
0.156808
0.00626368
0.000678948
0
0.00330472
0.00578
0.00223407
0.0492958
0.450903
0.434339
0.0229112
0.00705275
0
0
0.000180577
0.00072231
0.00387364
0.181107
0.340996
0.0259881
0.00306915
0
0.00550787
0.00952584
0.00505617
0.0556709
0.415145
0.066924
0.0108388
0.0100633
0.0420428
0.0218265
0.012446
0.0151611
0.051045
0.165355
0.0412177
0.0202241
0.294688
0.402648
0.0709871
0.0102676
0.0250928
0.0224437
0.0355908
0.0647397
0.0372349
0.0102403
0.110019
0.0478449
0.0697394
0.0148664
0.071055
0.163569
0.0071217
0.022759
0.12393
0.636259
0.169509
0.280928
0.101647
0.0408994
0.0243633
0.0018317
0.00771334
0.159709
0.218393
0.0469377
0.0068085
0.00176895
0
0.000357864
0.000484259
0.0199643
0.148879
0.499182
0.141165
0.0125492
0.000575198
0
0.00250505
0.000173046
5.76819e-005
0.0615491
0.2398
0.168221
0.0774864
0.0410151
0.00408113
0
0
0
0.033928
0.389048
0.561893
0.102414
0.0138956
0.00244868
0
0.00568162
0.100251
0.271802
0.554682
0.114893
0.0115302
0.000502514
8.74919e-005
0.00180591
0.0250941
0.160993
0.169803
0.104952
0.0123216
0.00693535
0.00468494
0.00297051
0.00191071
0
0.000260169
0.0412235
0.388628
0.509703
0.114414
0.00161713
0.00014582
0
0.00343568
0.00634621
0.0334612
0.0781547
0.0617855
0.0228817
0.00802154
0.00572807
0.0070262
0.148195
0.386813
0.162521
0.098524
0.0327663
0.0191818
0.078547
0.0720123
0.0331904
0.129807
0.0753387
0.00493679
0.0385362
0.0633259
0.0689764
0.163714
0.143584
0.095882
0.0414612
0.0561111
0.0474545
0.0495559
0.0169915
0.0215057
0.0980189
0.150718
0.0950316
0.078567
0.146367
0.00789472
0.00308867
0.0433746
0.0558174
0.153281
0.249765
0.0685424
0.0753418
0.0414557
0.000210372
0.0188755
0.0372595
0.0469559
0.0916826
0.0726578
0.0918692
0.0722035
0.0254714
0.00625226
0.0322678
0.0200378
0.0633168
0.334844
0.598335
0.116508
0.050889
0.0887947
0.00594304
0.0329268
0.0823776
0.0646188
0.0644163
0.0548361
0.00835616
0.100808
0.0447768
0.035827
0.0921992
0.0736639
0.0704746
0.0700005
0.035567
0.0127342
0.00395254
0.000437047
0.000601332
0.00101971
0.00138418
0.0366954
0.204058
0.0830066
0.00326021
0.000526343
5.28588e-005
7.71592e-005
0.000286904
0.0579973
0.358447
0.584625
0.0649373
0.000551144
0.00931885
0.00281826
0.0020584
0.00922098
0.0196126
0.0430403
0.0414238
0.0021065
0.00263253
0.00213058
0.000363267
0.000128599
0.0491908
0.345399
0.507336
0.145657
0.00116499
0.00123923
0
0
0
0.00121126
0.099338
0.356687
0.256716
0.0382021
0.00109409
0
0.00144255
0.0110466
0.0321047
0.109116
0.291242
0.161183
0.0219924
0.000656456
0
0.005558
0.000292526
0.048404
0.404087
0.468969
0.103662
0.00314719
0
0
0.00926334
0.00284544
0.118514
0.282683
0.300973
0.165123
0.00627365
0
0.00324694
0.0220425
0.0404225
0.0721029
0.212032
0.233073
0.106898
0.00390017
0.00216463
0.00643301
0.0440508
0.0780849
0.0546905
0.355123
0.185481
0.0201146
0.00937332
0.00360771
0
0.0163784
0.00853609
0.195635
0.407123
0.276811
0.133763
0.00779961
0.00386245
0.0052864
0.0411978
0.0158057
0.0531471
0.462909
0.250236
0.0508979
0.0274363
0.0287993
0.495637
0.0885767
0.0521103
0.000912769
0.023445
0.0267956
0.0137347
0.01874
0.148511
0.383044
0.111458
0.024715
0.0101539
0.0172811
0.021659
0.0401202
0.0628175
0.416992
0.0749648
0.0793271
0.057301
0.0269692
0.099735
0.0501366
0.048479
0.0234187
0.0181623
0.0902442
0.0835968
0.0442724
0.0596924
0.0974388
0.0426395
0.0556175
0.0334348
0.0797565
0.0364896
0.051013
0.0138389
0.0422939
0.045219
0.103753
0.0208915
0.0230776
0.0734655
0.00290994
0.0290085
0.0170852
0.174862
0.108091
0.477778
0.331217
0.0393721
0.00857958
0.0124457
0.0201506
0.0115667
0.0185978
0.0648903
0.0833559
0.0349838
0.00961999
0.0176856
0.000717094
0.0148128
0.00838755
0.00694054
0.1682
0.538644
0.372236
0.038439
0.00227668
0
0
0.00371644
0.0541538
0.118346
0.15399
0.145229
0.0171397
0
0
0
0.00296615
0.0665723
0.387932
0.37538
0.0781254
0.00789402
0
0
0.000426503
0.000220226
0.00631595
0.0913192
0.282047
0.172892
0.0206619
0.00129911
0
0
0.000970743
0.0263195
0.135312
0.618881
0.228072
0.0514203
0.00909374
0
0
0.00661976
0.052947
0.250767
0.321458
0.0699045
1.60821e-005
0
0.0018698
0.00471579
0.00554269
0.0245218
0.0387627
0.0497448
0.044963
0.00113608
0.00205139
0
0
0.00383602
0.0214658
0.065041
0.587462
0.448719
0.146907
0.00483751
0.00175077
0.00281374
0.00264432
0.0234136
0.0365335
0.10662
0.364241
0.150371
0.00656368
0.0458123
0.0795444
0.0113359
0.0512114
0.048207
0.0412002
0.0600002
0.0420671
0.0385148
0.078833
0.160074
0.0278318
0.0205709
0.0499768
0.0414106
0.063798
0.104208
0.0496447
0.0980825
0.0875747
0.00863539
0.134677
0.208961
0.0906836
0.365108
0.276607
0.16163
0.180188
0.159576
0.032661
0.043637
0.140511
0.0482763
0.0840993
0.0816156
0.210743
0.0289099
0.0950344
0.0352583
0.0352679
0.135103
0.076268
0.0587528
0.0454066
0.0130406
0.0785226
0.0941256
0.075294
0.132834
0.174883
0.0684906
0.0423477
0.0135763
0.0295784
0.0739198
0.129619
0.0557214
0.0415522
0.157912
0.0603853
0.0597144
0.0463739
0.0782384
0.225605
0.339055
0.225122
0.208968
0.174493
0.0747033
0.0453641
0.0525843
0.162961
0.00798896
0.00677249
0.0146669
0.032459
0.0189225
0.0109926
0.00476157
0.000534605
0.00398291
0.00202475
0.000930272
0.0364986
0.321433
0.28
0.132947
0.0035301
7.63721e-005
0.00146139
0.014747
0.0507236
0.153109
0.0751683
0.00858958
0.0032861
0.0031275
0.00227365
0.00992518
0.00278325
0.0582651
0.419934
0.713019
0.0839669
0.00697647
0.00136601
0.000271384
0.00137038
0
0.0147382
0.0192524
0.27063
0.315035
0.124103
0.00615533
0.000211757
0
0
0.0245637
0.0368794
0.192022
0.264276
0.0836138
0.0239182
0.000793137
0
0.0022342
0.0248439
0.159086
0.631721
0.116535
0.0202885
0
0
0
0.00256508
0.0187598
0.120742
0.383953
0.173971
0.0366083
0.0105895
0
0.000659376
0
0.0110052
0.0332263
0.177867
0.430037
0.170972
0.060725
0.0056237
0.00435347
0.0251539
0.0132558
0.0114526
0.0404434
0.26429
0.202723
0.0845934
0.0412178
0.0443235
0.0129938
0.00841813
0.104151
0.242939
0.440028
0.183136
0.102218
0.00636849
0.00575575
0.057287
0.0540853
0.093688
0.125144
0.300187
0.213523
0.108117
0.0217291
0.024757
0.0763843
0.0543126
0.0709389
0.059072
0.104358
0.0607453
0.0895214
0.0289601
0.0151553
0.0472812
0.069623
0.0810904
0.0662518
0.132734
0.0707757
0.0877077
0.0472642
0.0356553
0.314499
0.137836
0.0699257
0.0241902
0.0240127
0.0824028
0.0379729
0.0262229
0.127087
0.250131
0.168209
0.10508
0.0121534
0.0371731
0.0549511
0.0475103
0.0592635
0.262412
0.00519732
0.0170557
0.0212189
0.0313102
0.0676704
0.0579184
0.0332623
0.0246992
0.00796674
0.000222469
0.0165888
0.0209523
0.0533558
0.27529
0.684681
0.185756
0.0701476
0.00786349
0.0456494
0.0430298
0.0490471
0.0408363
0.0429184
0.0143782
0.00992819
0.0156712
0.0441895
0.0613368
0.0742191
0.0424786
0.0955531
0.13733
0.258292
0.115722
0.209741
0.0610595
0
0.000732013
0.000835496
0.00944102
0.0855147
0.309752
0.150124
0.0761092
0.0112754
0.000860897
0
0
0.0383171
0.0952506
0.428221
0.354791
0.231285
0.0494627
0.00900006
0.0133447
0.00149136
0.00807033
0.0202571
0.129031
0.14711
0.191029
0.0515267
0.0103935
0.00161349
5.64494e-005
0.0153475
0.051097
0.21618
0.407709
0.304818
0.129376
0.00139142
0
0.00159186
0.0117269
0.0254219
0.135499
0.291281
0.230141
0.014918
0.00182035
0.000985499
0.0026734
0.0090146
0.00957906
0.02625
0.374568
0.331048
0.0319985
0.0158371
0
0.011143
0.0135008
0.0275473
0.0546392
0.232187
0.205527
0.099195
0.0201534
0.000140786
0.0185717
0.0117121
0.00451797
0.0340066
0.374853
0.495783
0.17695
0.0113317
0.00339503
0.000472242
0.00721258
0.00703338
0.00260157
0.0864524
0.165962
0.0961968
0.107619
0.0102344
0.000946574
0.00126061
0.00525046
0.00206442
0.00589915
0.0467903
0.110521
0.0390519
0.000415805
0.00546478
0.00322434
0.00024211
0.00892056
0.123892
0.413678
0.399947
0.486868
0.00834305
0.00495185
0.00163921
0.00255318
0.00449248
0.00659926
0.177328
0.498004
0.126815
0.0137833
0.00133204
0.0009162
0.00368556
0.00194441
0.00206605
0.00395973
0.0379424
0.155665
0.127311
0.0308385
0.00664925
0.00200869
0.00171981
0.00118697
0.00360565
0.0433733
0.613566
0.0153639
0.000932707
0.000275554
0.00236696
0.00409709
0.000864932
0.0140609
0.1626
0.629473
0.222184
0.0454755
0.00224781
0.000379987
0.000585298
0.00128484
0.0073605
0.160819
0.0493848
0.181843
0.206533
0.0218971
0.000798639
0.000514604
0.000286406
0.00125917
0.011791
0.00708608
0.171816
0.509573
0.230406
0.00524895
0
0
0.000362407
0.00516763
0.232193
0.314473
0.215868
0.0182181
0
0
0.00313921
0.0129531
0.0558686
0.0653754
0.353756
0.428542
0.0524384
0
0
0.00187788
0.00918134
0.0353304
0.010596
0.0973671
0.345956
0.372164
0.0139295
0.00645362
0
0.000115697
0.00219824
0.010238
0.0603681
0.248748
0.326991
0.0522292
0.0158483
0.00571108
0.000284723
0.00426968
0.0617093
0.317337
0.377331
0.0978344
0
0
0
0.000809881
0.0153877
0.0291022
0.285673
0.355049
0.140362
0.00577382
0.00065874
0.00065874
0.00220843
0.00796232
0.0570765
0.0420582
0.22074
0.31004
0.194829
0.11072
0.128098
0.0368367
0.0438776
0.174651
0.115842
0.131761
0.138046
0.142663
0.131974
0.161373
0.0587959
0.0721013
0.0813451
0.242168
0.297622
0.158313
0.0199997
0.0129374
0.0785069
0.0870534
0.110229
0.380611
0.133967
0.0652322
0.0505409
0.00806044
0.0155502
0.124833
0.124933
0.208056
0.100513
0.042545
0.0039376
0.00135603
0.0135553
0.0101025
0.0028633
0.0191387
0.0759157
0.102549
0.0333865
0.00732307
0.00070588
0.00141133
0.0040194
0.00540387
0.0480712
0.147795
0.336772
0.0171734
0.000227485
9.74937e-005
0.0195468
0.00473584
0.00303256
0.031967
0.344096
0.223655
0.00615989
0.000117758
0
0
0
0.00781139
0.127892
0.651174
0.0632089
0.0380937
0.0264615
0.00889777
0.00683231
0.0013283
0.00798293
0.0235108
0.0973954
0.103683
0.107645
0.0337651
0.0174795
0.0152684
0.0216956
0.0204778
0.0950098
0.0937695
0.149794
0.0110434
0.00823723
0
0
0
0.0121346
0.0715408
0.506792
0.38084
0.0512606
0.0153131
0
0
0.00317361
0.00836864
0.0440309
0.537108
0.034614
0.0400829
0.00447669
0.00249402
0.00270883
0.0723672
0.120101
0.145337
0.0918798
0.0372254
0.00416171
0.000319063
0.00310245
0.0124098
0.202053
0.42343
0.30367
0.232114
0.183716
0.0169962
0.00258833
0
0
0.0232328
0.0353399
0.0456012
0.317297
0.152035
0.00252948
0.000191438
0
0
0.0382071
0.157142
0.232219
0.42188
0.0459303
0
0.00904649
0.00682897
0.0101179
0.091988
0.173913
0.18533
0.247774
0.0889614
0
0.0150775
0.00839833
0.00492993
0.150816
0.319972
0.360513
0.382201
0.119081
0.00231836
0
0
0.00137203
0.0360217
0.0548745
0.106398
0.251699
0.234069
0.00156235
0
0
0.00228672
0.0844689
0.104859
0.0937946
0.411293
0.0927052
0
0.0109059
0.00390172
0.000328288
0.0243731
0.0933305
0.222172
0.34653
0.414489
0.00482837
0.016012
0.00533733
0.00798666
0.0148324
0.0129763
0.155531
0.477901
0.185941
0.000296433
0.00576432
0.00192144
0.000196973
0.0133475
0.0436081
0.0551212
0.223846
0.289235
0.00281921
0.0096072
0.0032024
0.004792
0.00889943
0.0175807
0.0998974
0.354784
0.479843
0.0209371
0.00215306
0.00119294
0.00705951
0.0131105
0.00213414
0.0340285
0.182428
0.593795
0.113202
0.058467
0.00922702
0.0010085
0.00187293
0.00151818
0.0139894
0.18472
0.248346
0.042031
0.0122088
0.00577547
0.00423571
0.00786632
0.00348226
0.0556931
0.203798
0.314085
0.0905452
0.062951
0.0409542
0.000605101
0.00112376
0.000216883
0.0196156
0.198209
0.360038
0.267714
0.239497
0.0384137
0
0.000103257
0.00905932
0.0296369
0.144615
0.208194
0.461249
0.303563
0.0436874
0
0.000172094
0.00752825
0.0216258
0.0483365
0.221362
0.110646
0.130487
0.0388769
0
0.000722796
0.014747
0.0317034
0.217271
0.201992
0.166672
0.13033
0.0104848
0
0.00120466
0.0234968
0.0340579
0.206117
0.202067
0.372522
0.369726
0.0692135
0
3.0988e-005
0.00058877
0.0134142
0.0290468
0.110347
0.299316
0.335882
0.0734105
0
0
0
0.0203503
0.0339378
0.226038
0.0761133
0.140986
0.0185995
0
0.000216916
0.00412139
0.0350715
0.239149
0.319694
0.034084
0.093724
0.0252594
0
0
0
0.0436784
0.266991
0.114015
0.150557
0.0880243
0.0164983
0
0
0.00753711
0.0463986
0.1166
0.235524
0.0408553
0.0345433
0.00746978
0.00345626
0
0.0191296
0.0858826
0.174797
0.313333
0.0191644
0.00725923
0.0048745
0
0
0.00205242
0.0996454
0.356284
0.213889
0.0030154
0.0162436
0.00396083
0.00207376
0
0.0143669
0.168682
0.573972
0.244807
0.000667227
0
0
0.00102094
0.000219835
0.000107283
0.00312493
0.238591
0.247881
3.04679e-005
0
0
0
0
0.000407993
0.0195634
0.380157
0.317203
6.48502e-005
0
0
0
0
0
0.00384907
0.351301
0.382006
0
0
0
0
0
0
0.0103904
0.454182
0.179339
0.000132863
0
0
0
0
0.000635332
0.0111546
0.308357
0.279722
0.00093004
0
0
0
0
0.000366946
0.00281495
0.388274
0.283117
0
0
0
0
0
0
0.00486734
0.341222
0.313162
0
0
0
0
0
0
0.0137551
0.499773
0.194437
0.000351948
0
0
0
0
0.00024557
0.00512167
0.326823
0.208322
0.000770095
0
0
0
0
0.0112981
0.0326957
0.428746
0.188809
0
0
0
0
0
0
0.0250817
0.421098
0.284412
0.000110014
0
0
0
0
0.00113449
0.0298343
0.479955
0.182789
0.00213818
0
0
0
0
0.0107477
0.0197919
0.315867
0.263839
0.00144093
0
0
0
0
0.0019505
0.0153587
0.415654
0.217616
0.000305455
0.000452284
0.000839955
0
0.000274664
0.0014945
0.00863796
0.380449
0.265088
0.00215357
0.00959613
0.00628214
0
0.00192265
0.00258283
0.00523667
0.508092
0.225697
0.000431815
0
0
0
0
0.00596371
0.0182723
0.297934
0.319111
0.00310197
0
0
0
0
0.0146428
0.0601932
0.370966
0.207391
0.00440818
0.00787785
0.00257903
0
0.000711042
0.00172101
0.00485347
0.383379
0.305374
0.0236383
0.00294191
5.77971e-005
0
0
0.00209183
0.00916359
0.478834
0.256263
0.0303013
0.0169308
0.00497192
0
0
0.00372477
0.0399893
0.295925
0.290068
0.0434682
0.0410807
0.0348034
0
0
0
0.0183919
0.373876
0.238892
0.0358705
0.00323968
0.000365209
0
0
0.000532109
0.00529475
0.369257
0.278098
0.025189
0.00488018
0.00255647
0.00102635
0.00140097
0.0017123
0.00726675
0.486372
0.186937
0.0130149
0.0112124
0.0133134
0
0.000271972
0.00516745
0.023527
0.308457
0.216472
0.0120634
0.00342795
0
0
0.000453287
0.00861241
0.017808
0.454488
0.206216
0.00758551
0.00401849
0.00290723
0.00290104
0.00145677
0.0017805
0.00546645
0.371158
0.253067
0.0164531
0.00899955
0.0032155
0.00174062
0.000208111
0.000254358
0.00519215
0.511084
0.163635
0.00291183
0.00338453
0
0
5.91395e-005
0.00112365
0.00852025
0.356765
0.289038
0.000997165
0.00185472
0
0
0
0
0.0131398
0.396833
0.176042
0.0197975
0.00519876
0.000419521
0
0
0
0.0160725
0.402082
0.318791
0.0446714
0.0097375
0
0
0
0
0.0216658
0.4488
0.22331
0.000553357
0
0
0
0
0.000130602
0.0302582
0.28976
0.259507
7.9051e-005
0
0
0
0
0.000914216
0.0371423
0.406263
0.290669
0.0169119
0.00349566
0
0
0
0
0.00620033
0.333167
0.315033
0.0145644
0.0176774
0.00408355
0
0
0
0.00342442
0.476472