0.00305098
0.00792345
0.0276719
0.0099068
0.181027
0.428364
0.0907924
0.0177979
0.0138635
0.00454816
0.00689083
0.058893
0.024871
0.168343
0.345293
0.0622259
0
0
0.0235494
0.0209148
0.0392859
0.0958219
0.216544
0.359803
0.13986
0.00711921
0.00292018
0.00049778
0.00176156
0.0595434
0.0604499
0.203003
0.453129
0.284513
0.00260205
0
0.0329846
0.0859717
0.181287
0.158167
0.041242
0.0630335
0.0315012
0.0133427
0.00317302
0.110135
0.332627
0.243945
0.314162
0.0794931
0.049606
0.0605609
0.0843891
0.0201293
0.0422951
0.0312635
0.186654
0.231058
0.148703
0.135319
0.111778
0.0185511
0.0267681
0.239721
0.187072
0.147644
0.367975
0.254423
0.135995
0.0905755
0.134504
0.122712
0.082534
0.1568
0.096659
0.144355
0.0788868
0.0759947
0.0547929
0.0454569
0.0193007
0.185574
0.195051
0.0657296
0.0564372
0.0844461
0.0728575
0.0460984
0.11144
0.0652467
0.109215
0.193958
0.0992048
0.26583
0.215576
0.0980358
0.0790661
0.0522962
0.0939996
0.214547
0.518153
0.349883
0.1846
0.122415
0.0530029
0.0491949
0.0666239
0.138088
0.0705103
0.0753418
0.0428287
0.0881395
0.115555
0.0714571
0.0777929
0.0396373
0.0361262
0.0553549
0.0267552
0.132111
0.136334
0.0952434
0.0567668
0.109009
0.0284095
0.0712839
0.209626
0.316111
0.266746
0.0325916
0.119194
0.0795072
0.098849
0.0201338
0.0673683
0.471932
0.317907
0.29984
0.0631658
0.129209
0.0837606
0.10997
0.106497
0.295515
0.0577236
0.0298117
0.0570182
0.0564747
0.00498111
0.0300627
0.061171
0.0572236
0.0538606
0.132789
0.0794255
0.0481176
0.0599067
0.00101932
0.04977
0.102125
0.100869
0.111147
0.317197
0.123668
0.0754183
0.0194084
0.0102921
0.022286
0.0299323
0.157036
0.343241
0.512882
0.0735464
0.0259329
0.00797173
0
0.0266263
0.0677502
0.162318
0.533101
0.114566
0.0436788
0.0200345
0.00909104
0.00275596
0.0186723
0.0660352
0.0697852
0.135784
0.0880038
0.0225055
0.0110264
0.008477
0.00308413
0.0397593
0.0821487
0.130055
0.155568
0.471295
0.0528455
0.0240312
0.00107307
0
0.00468181
0.0478225
0.0758286
0.411836
0.266814
0.0630789
0.031121
0
0
0.0197437
0.216918
0.393015
0.394152
0.0303377
0.00443153
0.00587645
0.0349258
0.0156871
0.0684227
0.162626
0.165789
0.0756812
0
0
0.00231308
0.0406132
0.0459134
0.107971
0.21072
0.272603
0.0217701
0.0591596
0.00976094
0.00525589
0.0143826
0.0175787
0.0393608
0.228573
0.485239
0.311773
0.0595482
0
0.00549753
0.048412
0.0628568
0.256755
0.258561
0.38158
0.209345
0.00419928
0.0234445
0.040228
0.0295279
0.0402585
0.0810022
0.0639344
0.0999138
0.00556332
0.029395
0.0407604
0.098257
0.163179
0.435318
0.112322
0.0167225
0.041083
0.0223878
0.0125767
0.0351819
0.0399385
0.0833103
0.0672906
0.164383
0.157434
0.109008
0.0268235
0
0.0588774
0.0581393
0.290347
0.674685
0.0590432
0.168615
0.0778891
0.00228558
0.00926846
0.00636956
0.0263731
0.127861
0.548034
0.0911418
0.00250744
0.00466044
0.00690628
0.00869882
0.0226051
0.037344
0.0555983
0.235597
0.040004
0.00269199
0.00126574
0.00741701
0.0013623
0.00969832
0.0203166
0.195518
0.639832
0.0433507
0.0421464
0.0152009
0.00110894
0.0241861
0.0187248
0.0319711
0.0560145
0.30002
0.036396
0.0133648
0.00886019
0.0143485
0.0180728
0.00783325
0.00931198
0.0955259
0.188308
0.193925
0.121722
0.02911
0.0250925
0.0087514
0.000717389
0.0287063
0.0592722
0.360386
0.341714
0.205217
0.024158
0.0215342
0.0184811
0.00659574
0.000428651
0.0189232
0.152975
0.243462
0.137116
0.125728
0.0880475
0.117404
0.0291323
0.0672562
0.0363205
0.335067
0.413486
0.192377
0.175324
0.137595
0.0290312
0.0123452
0.0660668
0.111264
0.157932
0.0701642
0.041869
0.00806304
0.0245565
0.165522
0.0483004
0.0778014
0.233639
0.165781
0.0585423
0.0258352
0.0119058
0.117383
0.0967988
0.0746978
0.219655
0.152333
0.13608
0.107326
0.077582
0.0401359
0.0808766
0.172819
0.364908
0.508948
0.397237
0.121442
0.0608599
0.083805
0.00155953
0.0748494
0.0614298
0.06439
0.063253
0.10925
0.0728148
0.0198645
0.00571611
0.00241364
0.0658559
0.122312
0.297882
0.260754
0.0803962
0.029782
0.00577346
0.00165299
0.00218548
0.047538
0.0761346
0.274607
0.326024
0.176985
0.0398759
0.00917463
0.00713307
0
0.0456453
0.118932
0.49055
0.49055
0.132469
0.00822274
0.000481304
0
0
0.0247526
0.119816
0.245468
0.186876
0.0140367
0.0113548
0.00525043
0.00447014
0.00073422
0.0215522
0.257395
0.251601
0.0939439
0.00417055
0.0155195
0.00668388
0.00437691
0.0201951
0.138387
0.123263
0.447452
0.284544
0.0343505
0.000157849
0
0
0
0.00498371
0.447452
0.424688
0.075618
0.0115647
0
0
0
0.00148968
0.0558329
0.233278
0.091716
0.0149507
0.000922845
0.00207232
0.000810156
0.00144729
0.0370944
0.238352
0.355058
0.0251871
0.00436599
0
0
0
0.00875843
0.0430719
0.340334
0.446125
0.150093
0.00151185
0
0
0
0
0.00403346
0.121555
0.437378
0.027663
0
0
0
0
0.00187719
0.062986
0.397205
0.282243
0.012509
0.00431282
0
0
0.000242437
0.013226
0.0719095
0.250135
0.159433
0.0145345
0.00756619
0.000200741
0
0.00169706
0.141327
0.302375
0.23519
0.141866
0.000907295
0
0
0
0
0.00775862
0.191981
0.420683
0.042326
0.000370789
0.00796272
0.00140519
0
0
0.145659
0.459885
0.381834
0.025794
0.00158305
0.00388195
0.00286722
0.00285096
0.00318447
0.137775
0.280986
0.13927
0.0262523
0
0.00270933
0.0129695
0.0174827
0.0602058
0.152444
0.299551
0.105435
0.00453635
0
0.0212068
0.00374238
0
0.000802536
0.21588
0.439998
0.115427
0.00375033
0
0.0127241
0.00578909
0.00244591
0.0475199
0.472621
0.472621
0.0561179
0.00790828
0.0104432
0.0177002
0.0455445
0.0561451
0.0766337
0.137149
0.127381
0.0238983
0
0.0327412
0.0496467
0.13604
0.378559
0.0657057
0.11024
0.0329045
0.00379744
0.00112975
0.00479243
0.00907166
0.0234312
0.0262405
0.110001
0.512361
0.424399
0.0294247
0.0101933
0.0369511
0.0594342
0.163349
0.223136
0.191387
0.320933
0.19951
0.0382991
0.00548606
0.0127399
0.0210945
0.106913
0.524293
0.088123
0.0442801
0.016296
0.013537
0.036143
0.0124633
0.0167029
0.0282487
0.18216
0.0559243
0.0214845
0.0166896
0.0640471
0.0733241
0.0288514
0.030259
0.137871
0.273827
0.178871
0.11032
0.120179
0.190973
0.127675
0.0138724
0.0081087
0.022188
0.0723765
0.0741751
0.0445898
0.211956
0.575355
0.0447635
0.0541247
0.0149937
0.0106342
0.07062
0.157043
0.109532
0.0638616
0.154066
0.133141
0.0674125
0.0888534
0.0492753
0.0750685
0.22792
0.26046
0.1481
0.15702
0.074897
0.108383
0.0336614
0.0732567
0.114545
0.167629
0.197786
0.0243282
0.143291
0.0636371
0.0696971
0.204414
0.465501
0.287557
0.303043
0.222144
0.036445
0.0913307
0.0332692
0.0747054
0.139821
0.0402981
0.0198586
0.0356935
0.0336976
0.0170373
0.0283126
0.0209312
0.315849
0.415453
0.133601
0.0176489
0.0130083
0.0132241
0.000603722
0.00464687
0.00767081
0.0825961
0.219273
0.274162
0.0799314
0.073172
0.024079
0.00779397
0.0084011
0.0134563
0.340159
0.441428
0.408407
0.106963
0.0410837
0.00198793
0.000851971
0.00120016
0.0101335
0.254326
0.347642
0.0992411
0.00610298
0.0010414
0.00160509
0
0.00144785
0.0117195
0.332666
0.42262
0.0530189
0.00116603
0
0
0
0.000868707
0.0109858
0.179742
0.406626
0.209181
0.0289719
0.00897948
0
0
0
0.00248763
0.154477
0.42262
0.159655
0.00347615
0
0
0
0.000229556
0.0593553
0.495044
0.314282
0.017479
0
0
0
0
0.000489395
0.363048
0.457722
0.061311
0.00599562
0.000307787
0.00123115
0
0
0.00371666
0.0164834
0.266835
0.349614
0.0374245
0.000259053
0.00031662
0
0.000418197
0.0015435
0.0850915
0.220987
0.0463902
0.000199016
0.00573159
0.00544204
0
0.000845017
0.00483979
0.631308
0.218123
0.00111225
0.000137328
0.00140522
0.00562088
0.000290123
0.00544978
0.0596394
0.45678
0.0342622
0.0198624
0.00501085
0.000843132
0.00337253
0.00108724
0.0788812
0.455885
0.126369
0.0826524
0.0058012
0.00285147
0.0112116
0.0138466
0.00203086
0.0161065
0.0252672
0.0789475
0.0246567
0.0708164
0.0456486
0.0211314
0.032144
0.00778349
0.0441069
0.0886193
0.0592822
0.00819205
0.0125727
0.00336253
0
0
0.00558048
0.208596
0.390838
0.0054905
0.0201344
0.00772198
0.00132962
0.00289904
0.00072476
0.146932
0.64492
0.31708
0.0321596
0.0305413
0.0411133
0.0388353
0.00803402
0.0161956
0.0124683
0.077043
0.103038
0.0344332
0.0479461
0.00897605
0.0161466
0.0211982
0.0070674
0.0962596
0.379591
0.134395
0
0.00397231
0.00824645
0.00141836
0.00170377
0.00267341
0.195448
0.340736
0.0364943
0
0
0.00482243
0.000851017
0.000243396
0.0365694
0.481708
0.378228
0.00633444
0.00337575
0.0071419
0.000470781
0.00069322
0.0119264
0.0069869
0.213093
0.253149
0.0278854
0
0
0
0
0.00239362
0.109902
0.481708
0.255914
0.00609129
0
0.000468769
0.000810186
0.00203364
0
0.0789222
0.407677
0.225425
0.0100614
0.0234321
0.00996926
0.00843826
0.042169
0.0216178
0.177988
0.394369
0.149065
0.0487076
0
0
0
0
0.00763984
0.166982
0.432408
0.100928
0.00121954
0.0378289
0.00644391
0.00543459
0.0574882
0.0952122
0.288964
0.432408
0.0867709
0.0461208
0.169435
0.035409
0.00697172
0.047649
0.0316647
0.11587
0.147875
0.0913777
0.169543
0.261529
0.0436245
0.000567814
0.00573231
0.00496549
0.015397
0.0153064
0.175369
0.476296
0.263681
0.0569366
0.0149226
0.086138
0.0995762
0.165099
0.201773
0.0989495
0.118649
0.453199
0.207949
0.0228404
0.0202743
0.0148777
0.0119703
0.0137298
0.0825113
0.27456
0.0319927
0.0166628
0.0116788
0.0671427
0.0488016
0.110356
0.144665
0.0391903
0.0325411
0.00758899
0.0132168
0.19438
0.401749
0.156324
0.137969
0.0851936
0.0123157
0.00614146
0.0238127
0.0131055
0.0308389
0.14341
0.177374
0.144583
0.111802
0.0728412
0.0467873
0.00760732
0.00942887
0.383548
0.399047
0.432484
0.200541
0.0697961
0.0427806
0.0200425
0
0.0184463
0.195949
0.316907
0.119454
0.0445519
0.00778097
0.00214591
0
0.013364
0.0623559
0.283218
0.344941
0.208726
0.0522397
0.000289458
0.000124053
0
0
0.0126746
0.299883
0.275298
0.212338
0.0312611
0.00720282
0.00212923
0
0.00190914
0.00951392
0.226607
0.280601
0.455194
0.0238783
0
0
0
0.0173287
0.0474191
0.403234
0.277417
0.0908192
0.019607
0
0
0
0.00402073
0.0274342
0.446737
0.259953
0.00908999
0.00195851
8.26756e-005
0
0.000362097
0.00247553
0.00247553
0.23886
0.339468
0.38685
0.00743079
0
0
0
0.00258463
0.0068612
0.193547
0.243902
0.100002
0.00534518
0.000578729
0
0.000289335
0.039592
0.169707
0.66662
0.259558
0.0181616
0.0237595
0.00136291
0.00657283
0.0178822
0.0798837
0.119305
0.0817863
0.00467771
0.038012
0.0455019
0.00974218
0.0211093
0.063476
0.0448234
0.0455799
0.166156
0.186927
0.116107
0.0925015
0.0136855
0.0039437
0.0162758
0.263938
0.0355571
0.0816922
0.0595032
0.10381
0.0926386
0.049614
0.0693032
0.125997
0.0535682
0.0487255
0.031691
0.0231679
0.0432902
0.0466119
0.0143273
0.0341742
0.0788708
0.0375748
0.0706064
0.142931
0.314874
0.149762
0.16484
0.0258026
0.0513039
0.0422058
0.225706
0.0824234
0.0648483
0.0734587
0.0372636
0.0313488
0.0323234
0.102948
0.185085
0.133082
0.164188
0.100327
0.486915
0.320741
0.138172
0.00873145
0.0757185
0.117943
0.0366217
0.0582682
0.0579509
0.169101
0.0620699
0.0653075
0.0239367
0.0503732
0.032705
0.12918
0.0579028
0.0267667
0.175307
0.0551886
0.0369163
0.0919773
0.300699
0.268297
0.0596535
0.0624083
0.0516988
0.182495
0.150546
0.106258
0.0160263
0.0900968
0.0494996
0.232695
0.0770391
0.0355533
0.203128
0.0772022
0.0882998
0.103576
0.3614
0.509169
0.0265097
0.0102353
0.00295365
0.0257062
0.0107517
0.0304691
0.152475
0.190356
0.11305
0.00190079
0.00455643
0.00171843
0.0145996
0.00955656
0.356954
0.595145
0.164465
0.0261251
0.0900989
0.070198
0.0160946
0.079526
0.0096621
0.0418997
0.063899
0.131516
0.2065
0.0224191
0.0581964
0.0135449
0.125535
0.0801316
0.402771
0.260464
0.069396
0.0386957
0
0
4.50168e-005
0.00414212
0.0342313
0.284572
0.275586
0.0222659
0
0.0200079
0.00886263
0.0171334
0.104218
0.288768
0.283836
0.189804
0.0165944
0.00881816
0.000104132
0.00197851
0.00118549
0.0235267
0.158975
0.397309
0.190054
0.00348484
0
0.00238298
0.00598701
0.0149436
0.0973972
0.503582
0.296992
0.091275
0
0.000264775
0.144067
0.0609766
0.075745
0.18601
0.283914
0.128418
0.0741347
0.0439661
0.0484621
0.248373
0.182919
0.122476
0.137491
0.0546998
0.00475683
0.0129718
0.0311281
0.0750244
0.0361101
0.0309769
0.0854813
0.238622
0.616506
0.0621487
0.0123727
0.018289
0.0518817
0.0592093
0.0630241
0.247134
0.283183
0.110382
0.00818576
0.0170112
0.0304817
0.0851616
0.00721579
0.0140959
0.0205374
0.0540848
0.159106
0.11926
0.0218536
0.0496903
0.0265001
0.00432947
0.00329074
0.101563
0.299297
0.443758
0.154178
0.0115442
0.0240185
0.0156695
0.0111708
0.0298823
0.0371455
0.0736422
0.127781
0.16306
0.0252282
0.0629485
0.0185688
0.00117699
0.0160289
0.0260993
0.426579
0.481746
0.307678
0.0815842
0.0151481
0.00557246
0
0.00171165
0.101131
0.206474
0.283187
0.0514224
0.00475409
0.00159071
0
0
0.00102699
0.065241
0.149968
0.466099
0.0321396
0.00651584
0.00217195
0
0
0
0.00659774
0.155064
0.337778
0.268224
0.129677
0.00912217
0
0
0
0.0059732
0.0471981
0.466099
0.328247
0.136439
0.0152036
0
0
0
0.0288733
0.152051
0.569921
0.0266417
0.00142551
0.000427454
0
0.00495491
0.00139617
0.0254288
0.0927475
0.191323
0.0163205
0.00124033
0
0.00123279
0
0
0.00167601
0.029039
0.569921
0.35391
0.0962065
0.00299218
0
0.0120073
0.000467133
0.00421597
0.0204266
0.228138
0.177294
0.0627439
0
0.00503823
0.0639592
0.0165218
0.0434554
0.0904797
0.175139
0.112326
0.031823
0
0.0332808
0.266804
0.0311024
0.0780585
0.0907065
0.163469
0.163363
0.129195
0.048869
0.239938
0.179518
0.00889852
0.0104937
0.0483664
0.225374
0.161211
0.146969
0.00836708
0.102576
0.147704
0.00870542
0.0354043
0.0607638
0.140599
0.257766
0.315407
0.0772464
0.338703
0.167612
0.0385105
0.0634736
0.078707
0.0389462
0.0221726
0.0440767
0.0655186
0.184224
0.20761
0.101562
0.0525504
0.178078
0.129378
0.0315479
0.00777609
0.0646059
0.115617
0.108659
0.036596
0.0565033
0.14658
0.113659
0.128685
0.141708
0.0824684
0.175552
0.462185
0.12573
0.148749
0.290244
0.0953762
0.110837
0.137278
0.217167
0.180947
0.146229
0.0500069
0.0319933
0.0823719
0.0927285
0.0684592
0.0172805
0.0752081
0.0975823
0.269517
0.0481119
0.0132715
0.0394466
0.0361556
0.0650565
0.0697628
0.240096
0.488852
0.223106
0.046757
0.0476558
0.0720425
0.0485062
0.11252
0.131967
0.236402
0.175256
0.224209
0.0152837
0.00193815
0.00465679
0.048197
0.130517
0.112909
0.222919
0.264743
0.135787
0.0926925
0.0139333
0.0560157
0.0136898
0.0608697
0.0377761
0.0829829
0.241804
0.0453943
0.0949929
0.0229057
0.248032
0.215414
0.42975
0.0884111
0.0160734
0.0453989
0.106719
0.0334613
0.00960444
0.00548972
0.0231489
0.0795307
0.0327737
0.0428437
0.101153
0.0384889
0.0514768
0.130646
0.554179
0.23311
0.203143
0.0150971
0.00435573
0.0209353
0.000103787
0.00212142
0.00351268
0.075434
0.233256
0.186321
0.0370644
0.000285603
0
0
0.00014109
0.00207841
0.0885765
0.529387
0.136655
0.0204254
0
0
0.000291537
0.00395991
0.0636783
0.329805
0.240824
0.0405414
0.0010921
0
0
0
0.00353856
0.0412584
0.29504
0.529387
0.0534062
0.00393861
0
0
0.015326
0.00304453
0.0199042
0.159736
0.541201
0.0468695
0.00635484
0.014617
0.0287439
0.0255434
0.0224586
0.115115
0.131183
0.120157
0.0494695
0.0188476
0.0289646
0.0479065
0.011061
0.00209004
0.0219226
0.128614
0.683852
0.133789
0.0192548
0.0108428
0.00611105
0.0432136
0.0188671
0.0560719
0.0662063
0.160059
0.123838
0.0435335
0.0502923
0.0101851
0.0333263
0.0179418
0.035796
0.0913957
0.117191
0.139092
0.0231138
0.024518
0.0424485
0.0032784
0.0263987
0.033475
0.240839
0.333723
0.368093
0.264012
0.00279492
0.00198284
0.0237314
0.00355834
0.010716
0.103578
0.151459
0.172085
0.0939727
0.0262985
0.0975802
0.00945457
0.0553067
0.0464305
0.11265
0.167794
0.376523
0.480186
0.0196497
0.00103507
0.00139808
0.0077804
0.00212222
0.0435782
0.116363
0.312198
0.196354
0.00325694
0
0.00263766
0.00345007
0
0.0274935
0.189317
0.449345
0.176004
0.00542823
0
0.00978659
0.0457737
0.00906282
0.0128263
0.0926371
0.388817
0.219612
0.0130782
0
0.0184636
0.0291181
0.00331173
0.0357184
0.19122
0.460203
0.23713
0.125619
0
0.00217521
0.000114485
0.000145964
0.0123455
0.147009
0.348992
0.217396
0.000888354
0
0.0061151
6.73754e-005
0.00102175
0.00718024
0.0790454
0.220412
0.19376
0.00303867
0.00368181
0.0152265
0.00161436
0.000562832
0.0222659
0.123865
0.367221
0.392695
0.106345
0
0.00285117
0.000114485
0.000145964
0.00664637
0.0568541
0.266621
0.509367
0.126854
0.00625152
0.05234
0.00740336
0.00821756
0.0184662
0.096163
0.122719
0.144749
0.0309687
0.0356961
0.034249
0.0118311
0.0115455
0.0313579
0.0600892
0.0908531
0.111892
0.0395197
0.0386346
0.00926748
0.0145555
0.0117298
0.0113743
0.0601901
0.15098
0.68517
0.465318
0.073189
0.0530895
0.0687468
0.0228575
0.0379127
0.0444339
0.0492455
0.126209
0.21242
0.0863981
0.0251196
0.0100584
0.0187617
0.0976991
0.120128
0.155865
0.0884052
0.072007
0.0294227
0.11025
0.0213673
0.0946513
0.17461
0.094813
0.26356
0.184053
0.318592
0.104988
0.152053
0.0891963
0.0120852
0.0354829
0.0608826
0.102269
0.0697554
0.112588
0.125726
0.116715
0.0720704
0.018299
0.0410025
0.112662
0.395716
0.227722
0.335616
0.228627
0.0614882
0.00479559
0.0230365
0.0278744
0.0733795
0.203388
0.139848
0.220459
0.0658436
0.116983
0.000694987
0.00162743
0.0133008
0.0785522
0.216067
0.175896
0.170495
0.0928235
0.0514968
0.0119448
0.00604839
0.0146583
0.174252
0.398837
0.166971
0.180047
0.0603614
0.165157
0.0389699
0.0259723
0.118971
0.239284
0.415373
0.219348
0.174837
0.0705146
0.0408848
0.0070076
0.0156958
0.0215468
0.0304411
0.0462339
0.0235968
0.0114428
0.0263682
0.0117593
0.024455
0.199602
0.319396
0.0658232
0.0184882
0.000826634
0.000110795
0.00527325
0.0315292
0.0670654
0.180006
0.104484
0.0939373
0.0797044
0.0275937
0.0130133
0.0127259
0.0027726
0.180384
0.736583
0.350012
0.103316
0.0126496
0.000203057
0
0.001158
0.00652508
0.00858359
0.137816
0.280096
0.0803424
0.00821056
0
0
0.00628064
0.0104677
0.00849695
0.0755626
0.231169
0.422576
0.0742502
0.017853
0.00226793
0.0134559
0.0170499
0.079642
0.348068
0.25752
0.109638
0.0119564
0
0
0.0104677
0.0315776
0.105163
0.277656
0.339606
0.429594
0.0981092
0.0379713
0.00659229
0.0383635
0.0272133
0.00692454
0.00938336
0.0878504
0.35832
0.117454
0.0778871
0.0167448
0.0431275
0.0940885
0.0199648
0.0127925
0.0151924
0.0475973
0.0772503
0.0755964
0.0270961
0.164957
0.0903954
0.0748128
0.124052
0.223911
0.386954
0.117742
0.143635
0.0325055
0.144766
0.307111
0.0610118
0.102914
0.0477254
0.0543744
0.0897176
0.112677
0.0340025
0.557035
0.0115487
0.00156336
0.00302107
0.0838217
0.0778238
0.282203
0.0948965
0.0688111
0.106356
0.0437419
0.0180626
0.0134654
0.0535117
0.0535099
0.257589
0.341995
0.0777584
0.0155404
0.0110171
0.0124302
0.048791
0.11593
0.0872128
0.457147
0.233963
0.134359
0.0611889
0.0675368
0.00320319
0.00449153
0.0330621
0.037623
0.253084
0.382358
0.276011
0.0571074
0.0265165
0.0335714
0.00993164
0.00235629
0.0379695
0.235805
0.167333
0.0659436
0.00615016
0.0188232
0.0316109
0.0120187
0.00812875
0.0603448
0.301892
0.401146
0.321398
0.0117673
0.0361831
0.0112719
0.00432672
0
0.0130459
0.144535
0.128912
0.173535
0.025582
0.0162582
0.0136859
0.00721119
0.000422272
0.0103821
0.229202
0.4404
0.417821
0.0651373
0.00414817
0.00185484
0.00109101
0.00666593
0.0278367
0.0978745
0.308742
0.1527
0.00209321
0.000592596
3.11892e-005
0
0.0032337
0.0133767
0.0637496
0.414561
0.209018
0.0032595
0
0.000981912
0.000654608
0.000769928
0.00314109
0.100956
0.426549
0.238451
0.0239956
0
0
0
0.000461957
0.000692935
0.0664334
0.426549
0.415569
0.0168151
0.00280346
0.00141943
0.000485048
0.000340781
0.00144708
0.0106357
0.300665
0.291355
0.0241034
0.0622627
0.0689537
0.00385889
0.00238547
0.00166517
0.000736675
0.111696
0.1452
0.0931755
0.0098165
0.000133482
0
0
0
0.0108607
0.333833
0.518072
0.0786311
0.198855
0.0808734
0.00183029
0
0
0
0.149121
0.339417
0.390136
0.128174
0.141935
0.00479905
0.00133279
0.00106985
0.00206042
0.0263328
0.0718129
0.106537
0.130699
0.0771607
0.00392505
0.0130528
0.012605
0.040537
0.0806006
0.148414
0.104246
0.301869
0.181896
0.00277973
0
0
0
0.0565321
0.229205
0.412053
0.39381
0.216559
0.00235503
0.0078317
0.00108022
0.00667311
0.131566
0.288524
0.402938
0.110852
0.0174067
0.00280874
0.011235
0.0298263
0.0654228
0.0456338
0.0664073
0.0666682
0.142723
0.113237
0.0590313
0.0343226
0.0441258
0.0554012
0.0221138
0.0588591
0.094562
0.451471
0.18088
0.00168524
0.00674098
0.0025274
0.013325
0.0367633
0.0738798
0.253986
0.533649
0.357604
0.101151
0.00814114
0.00357301
0.00738629
0.00397008
0.0404675
0.34945
0.0275179
0.145723
0.165734
0.0306887
0.025559
0.00995298
0.00205682
0.00523583
0.0112363
0.00482437
0.202008
0.474651
0.0473586
0.0260218
0.000978285
1.42652e-005
0
0.000244919
0.121207
0.341982
0.205461
0.00853733
0.00258708
0
3.8659e-005
0.00320945
0.0500828
0.0701627
0.474651
0.474651
0.0276579
0.00250853
0
0
0
0.00217143
0.00937186
0.143812
0.318574
0.079896
0.041607
0.00141529
0
0
0.00127571
0.0330633
0.193599
0.379274
0.162398
0.123547
0.0217308
0.0324129
0.00154277
0.00886248
0.0275047
0.312719
0.418476
0.0880842
0.00270731
0
0
0
0.000190455
0.101574
0.31155
0.418476
0.193061
0.0326835
0.00452772
0.0157047
0
0
0.0854532
0.193296
0.259855
0.182662
0.180254
0.0967998
0.132766
0.0118558
0.0513381
0.179712
0.0845528
0.13716
0.0920392
0.0485509
0.161913
0.18242
0.113879
0.245759
0.110632
0.39786
0.296728
0.262555
0.0799375
0.0467732
0.0774556
0.00740552
0.00107082
0.0742501
0.179817
0.0756082
0.126276
0.0292675
0.107785
0.236799
0.195056
0.130719
0.00127512
0.0337866
0.162254
0.121802
0.0389607
0.150705
0.165295
0.0707531
0.0064714
0.0128484
0.000398657
0.0186079
0.048695
0.0374264
0.159804
0.364385
0.235707
0.0498589
0
0.0570999
0.252124
0.142817
0.0764942
0.117495
0.242328
0.091004
0.0291972
0.046525
0.0556594
0.0251528
0.0674817
0.0344388
0.18563
0.455417
0.271367
0.323889
0.0442148
0.00245281
0.0022254
0.0121195
0.017992
0.162886
0.197446
0.182877
0.0601525
0.0656002
0.0109198
0.0155778
0.0623112
0.0142717
0.267807
0.351879
0.307304
0.145045
0.199758
0.0604916
0.003709
0.0341216
0.0106385
0.0630037
0.176879
0.186594
0.25351
0.297292
0.0795025
0.025963
0.112205
0.0178002
0.0859022
0.251682
0.304595
0.236286
0.00896221
0.00239989
0.00361772
0.0144709
0.0028208
0.0927645
0.343542
0.212478
0.0928791
0.00649217
0
0
0
0.00988807
0.067032
0.401279
0.452375
0.0750256
0.04141
0.0229704
0.00602953
0.0241181
0.0213061
0.0609248
0.267935
0.204168
0.123282
0.0137052
0.0102853
0
0
0.029022
0.0591635
0.282489
0.358907
0.209311
0.0102564
0.00168279
0.00252419
0
0.0102296
0.0174101
0.195669
0.39093
0.0900615
0.136407
0.0179373
0.00420698
0
0.00146137
0.00211852
0.0755008
0.257877
0.411598
0.0230137
0.0132196
0.0176693
0
0.0170493
0.0274503
0.217679
0.310036
0.147855
0.244489
0.0234134
0.0294488
0
0.00243561
0.0084528
0.142115
0.282266
0.399335
0.14159
0.0255933
0.000478919
0
0
0
0.00899352
0.08616
0.288143
0.269319
0.0693978
0
0
0
0
0.0166681
0.0643644
0.316727
0.254658
0.0240237
0.00335243
0
0
0
0.00795788
0.103327
0.381467
0.458503
0.04268
0
0
0
0
0
0.0341665
0.474244
0.315453
0.102597
0
0
0
0
0.00380031
0.0193618
0.210269
0.366628
0.187532
0.0593026
0.00932213
0
0.00136807
0.00547229
0.012796
0.188506
0.423659
0.052716
0.013774
0
0
0
0
0.0149368
0.376346
0.354479
0.158239
0.129366
0.0487774
0
0.00957649
0.038306
0.052506
0.298763
0.135009
0.266217
0.226692
0.0283307
0.0103297
0.017024
0.00741178
0.00257993
0.0476154
0.0961728
0.475288
0.41477
0.067745
0.0374208
0.0260427
0.00992986
0.0041381
0.0219682
0.134326
0.164581
0.289088
0.108864
0.0172161
0.0365308
0.0518825
0.0221825
0.059894
0.125451
0.215855
0.38171
0.126273
0.062368
0.0445698
0.069509
0.0289667
0.0700974
0.0542223
0.371192
0.396171
0.121569
0.0268949
0.00814639
0.00899586
0.00810347
0.0198503
0.0838989
0.282132
0.391047
0.22661
0.064546
0.0537649
0.040999
0.00795109
0.00795958
0.0751817
0.193066
0.228086
0.0854645
0.0448248
0.020426
0.105412
0.0769376
0.140092
0.0613377
0.124279
0.154825
0.0811417
0.0417968
0.154507
0.275742
0.179956
0.0792355
0.0648281
0.229292
0.259277
0.356783
0.147768
0.102124
0.0949247
0.0070069
0.00178756
0.11071
0.106704
0.092378
0.12311
0.0669856
0.0497657
0.126474
0.128707
0.0904837
0.0276921
0.0371558
0.130403
0.149242
0.0889289
0.324012
0.427498
0.214191
0.0215031
0.0683495
0.0259668
0.11718
0.0991846
0.117028
0.149601
0.177993
0.189395
0.0427846
0
0.0144929
0.0883365
0.130893
0.205044
0.0775184
0.186612
0.108206
0.0337068
0.0338255
0.068176
0.00690185
0.0596781
0.0590429
0.110456
0.396667
0.314737
0.273149
0
0
0.0253488
0.106757
0.371303
0.17446
0.0591815
0.0524674
0.016474
0.00622395
0.00973943
0.013855
0.0867412
0.165018
0.21557
0.332895
0.224692
0.0877652
0.15146
0.0838939
0.000853763
0.0881799
0.0501043
0.0394951
0.115497
0.17949
0.188753
0.234072
0.06691
0.00456225
0.0704424
0.0677699
0.176346
0.189296
0.236552
0.127139
0.0503181
0.0323575
0.00508015
0.12438
0.14716
0.159808
0.211389
0.194385
0.11057
0.0900711
0.0397521
0.0230228
0.104678
0.223333
0.437298
0.263129
0.282074
0.11974
0.05614
0.0423717
0.00247438
0.0117718
0.102129
0.162883
0.172569
0.14614
0.0794652
0.0161134
0.048408
0.00743063
0.0121151
0.110022
0.148795
0.234289
0.335162
0.212833
0.0267448
0.030997
0.0318098
0.0918133
0.209528
0.353701
0.115835
0.133889
0.0982269
0.0108505
0.044366
0.0907194
0.217615
0.305778
0.362631
0.21424
0.140026
0.0935467
0.0352188
0.0123495
0.0128317
0.00192415
0.0136953
0.0665043
0.251245
0.282901
0.1321
0.335798
0.0141917
0.027448
0
0.00357742
0.0214939
0.171192
0.296861
0.241022
0.0569009
0.0402459
0.0431905
0.0705033
0.0779103
0.286714
0.249876
0.161712
0.0553789
0.324528
0.0760401
0.103386
0.0245288
0.0476371
0.130094
0.12503
0.205498
0.299386
0.370837
0.035045
0.0170572
0.0189264
0.0163082
0.0115663
0.0141482
0.126831
0.262882
0.430267
0.11051
0.0169354
0.031544
0.0199941
0.00980536
0.00689331
0.0441854
0.322198
0.270564
0.0324433
0.0547017
0.0640225
0.175728
0.127302
0.0461267
0.0963157
0.266343
0.197931
0.0879502
0.0282256
0.0894297
0.186638
0.14665
0.175062
0.181626
0.138914
0.321967
0.100999
0.0305801
0.005568
0.00621192
0.00969864
0.0304135
0.0569165
0.396084
0.185354
0.169907
0.167964
0.0761182
0.00412503
0.0253506
0.0766751
0.192483
0.448218
0.0981221
0.0538108
0.0376034
0.0263503
0.0780062
0.0954377
0.169502
0.133863
0.166796
0.0456173
0.0884673
0.112236
0.0531711
0.0596509
0.229444
0.155657
0.177336
0.251658
0.114074
0.197534
0.344599
0.17448
0.0142472
0.0235609
0.0513713
0.0839048
0.133184
0.116449
0.233569
0.519943
0.153167
0.0282529
0.0135634
0.0518817
0.0241906
0.0731344
0.040161
0.124934
0.16944
0.159224
0.136531
0.229081
0.0725383
0.0824962
0.120431
0.0415418
0.144654
0.211661
0.185271
0.186748
0.0885707
0.00722742
0.00502772
0.0397041
0.088768
0.0938949
0.180704
0.0372602
0.0134758
0.0175217
0.141654
0.119628
0.166561
0.0476347
0.0183265
0.0475122
0.024129
0.0111268
0.119146
0.533554
0.464136
0.117249
0.0546147
0.0456938
0.0516631
0.0305124
0.0321388
0.0143781
0.0344074
0.0492494
0.0552209
0.0226515
0.00529693
0.00880418
0.0098098
0.00176836
0.0385588
0.357914
0.337026
0.0681545
0.00617251
0.00261449
0.031291
0.0221151
0.0133376
0.144743
0.325749
0.281584
0.0522091
0.0120342
0.00408882
0.0368122
0.0515315
0.0411253
0.145705
0.134821
0.219345
0.0839454
0.00453487
5.58907e-005
0.00314767
0.00478186
0.00371909
0.130207
0.344376
0.337816
0.0917296
0.0279299
0.0016927
0.033302
0.0181713
0.101915
0.297982
0.253932
0.395714
0.17282