0
0
0
0
0.0709938
0.00726561
0
0
0
0
0
0
0.00183366
0.513211
0.242217
0.3485
0.130339
0
0
0
0
0
0.0247075
0.000661588
0
0
0
0
0
0
0.0055785
0.46398
0.410049
0.168576
0.022502
0
0.000440812
0.00102856
0
0.00529583
0.273922
0.252629
0.235869
0.0799072
0
0.0185155
0.01601
0.00343631
0.0177708
0.215662
0.225439
0.0516891
0.0133229
0.00434993
0.00330268
0.00613355
0
0.00961661
0.398331
0.434772
0.14024
0.0137954
0
0.0292778
0.0358658
0.0057257
0.00824664
0.263671
0.412494
0.07479
0.00197077
0.00579627
0.03236
0.0230157
0.0145398
0.0112357
0.0452914
0.0464577
0.0152625
0.0168034
0.00995231
0.0702431
0.0511724
0.0210087
0.00501407
0.00425854
0.00739097
0.0347778
0.0438996
0.0145262
0.054099
0.208559
0.0444099
0.00423817
0.0420803
0.106035
0.0178752
0.00113676
0.0118294
0.291012
0.8541
0.0543493
0.00360067
0.000608362
0.000777557
0.00424504
0.00436858
0.00901078
0.0705342
0.0307731
0.00376101
0.00032294
0
0.0101381
0.0125618
0.0106779
0.00473897
0.171515
0.0259545
0.000679185
0
0.0048028
0.0144269
0.0127343
0.00740623
0.0245901
0.410081
0.389139
0.00348982
0.000193764
0
0.00123326
0.00133533
0.000931138
0.00111161
0.713159
0.243403
5.33003e-005
0
0.000686115
0.00176592
0.0010418
5.37866e-005
0.0708526
0.107728
0.014309
0.00148834
0.000643088
0.00387279
0.0033879
0.00212204
0.00342432
0.0438992
0.106287
0.0082607
0.00185928
0.00107181
0.00210138
0.00279166
0
0.00285526
0.125543
0.569441
0.0365408
0
0
0.000521003
0.000381302
0.000131663
2.82268e-005
0.201549
0.460631
0.00361496
0
0
7.4429e-005
2.48097e-005
0
0.0159488
0.569441
0.0518335
0.000425289
0.000240735
0.000170898
0.000684971
0.0011347
0
0.00888331
0.138432
0.0246439
0.00255688
0.000645218
0.000113862
0.00132866
0.00256852
0.00169628
0.0247615
0.116974
0.132533
9.66408e-005
0
0
0
0
0
0.0993648
0.622925
0.0284839
0.00420283
0.00107536
0.00018977
0.000797193
0.00131123
0.000625642
0.369294
0.590881
0.0254615
0.00661961
0.00418805
0.000739068
0.00935597
0.0286699
0.0184681
0.0533258
0.0900521
0.0374987
0.00296218
0.00257123
0.000969019
0.0211782
0.0722854
0.0943048
0.0860339
0.206514
0.0453568
0.0117827
0.00698008
0.00123178
0.00295229
0.0045133
0.00716853
0.617191
0.501288
0.0808919
0.00627282
0.00459683
0.00441812
0.0193856
0.00272043
0.0280297
0.326538
0.240474
0.254207
0.0339144
0.000250307
0.00225277
0.0156981
0.0322563
0.0902877
0.105815
0.409902
0.510493
0.187566
0.0768471
0.00305923
0.00179761
0.00185792
0.00912456
0.0596917
0.427192
0.0971811
0.0193159
0.00175215
0.0157694
0.0230284
0.0107621
0.0333477
0.118439
0.14232
0.135144
0.0295036
0.0183493
0.0140009
0.004097
0.0364208
0.00952323
0.0440476
0.148163
0.402903
0.223417
0.171518
0.0030783
0.000136906
0.00123215
0
0.117113
0.362197
0.2793
0.214418
0.0845405
0.0110396
0.000728128
0
0.0573535
0.126238
0.172617
0.197728
0.0480996
0.0425969
0.0202024
0.000958341
0.0285004
0.0010111
0.0802388
0.149659
0.223035
0.0833492
0.0597912
0.0509567
0.0024522
0.00352764
0.00928031
0.0841203
0.117851
0
0
0
0
0.00322283
0
0
0
0
0
0
0
0.00265458
0.557219
0.389405
0.064274
0
0
0
0
0
0
0
0
0
0
0
0
0
0
0.00169893
0.504419
0.292045
0.0281501
0
0
0.00713356
0.013248
0
0.00201918
0.206743
0.26991
0.0608266
0.000958365
0.000958365
0.0371441
0.116056
0.0406705
0.00125761
0.104978
0.28671
0.0709419
0.00670856
0.00976422
0.00428013
0.01508
0.0227384
0.00129228
0.298148
0.30788
0.0413455
0.00670856
0.00670856
0.0185389
0.382159
0.435758
0.0029039
0.226167
0.336887
0.0632113
0.0469599
0.0473964
0.0195943
0.199447
0.0722637
6.82653e-005
0.00777546
0.0284256
0.0064988
0.00134453
0.00318511
0.111296
0.510366
0.0730707
4.09592e-005
0
1.78853e-005
0.000160968
0
0.00053089
0.0154282
0.427274
0.334231
0.00315218
0.0114538
0.0251057
0.00656374
0.00941174
0.00964956
0.10053
0.510366
0.24293
0.00189131
0
0
0
0
3.3974e-005
0.218857
0.340579
0.007579
0
0
0
0
0
6.24704e-005
0.449213
0.202178
5.90761e-005
0
0
0
0
0
0.0303264
0.173861
0.449213
0.0383136
0
0
0
0
0
0
0.368508
0.420571
0.00738451
0
0
0
0
0
0.0427253
0.407559
0.0387922
0
0
0
0
0
0
0.13793
0.264273
0.00069744
0
0
0
0
0
0.0212567
0.466424
0.360896
0.118472
0.00163928
0
0
0
0
0
0.185499
0.279296
0.00440728
0
0
0
0
0
0.0360302
0.47015
0.0469581
0
0
0
0
0
0
0.0901973
0.398741
0.00462648
0.00034546
8.83916e-005
1.55985e-005
0
0
0.00185528
0.33456
0.382212
0.0542497
0
0
0
0
0
0.00455235
0.177895
0.40035
0.00348508
0
0
0
0
0
0.0265855
0.452961
0.356451
0.00314501
0.000503773
0.000258742
4.56603e-005
3.88736e-005
0
0.0257907
0.365752
0.165982
0.00800597
0.0003442
0.000196435
0.000398108
0.000708515
0.000801163
0.106108
0.320953
0.0567803
0
0
0
0
0
0.0010313
0.107539
0.487403
0.14283
0.000286122
0
0
0
0
0.011212
0.404595
0.487403
0.0371884
0.00916423
0.0013383
0.000792945
0.00184018
0.00100381
0.00789443
0.116932
0.162292
0.0204728
0.0113414
0.00757026
0.00834905
0.0017634
0.00143766
0.0231195
0.0339475
0.0336152
0.0131106
0.00196481
0.000802475
0.000980803
0
0
0.01587
0.677511
0.517667
0.0133885
0.0923276
0.0102334
0.00773079
7.67322e-005
0.00192532
0.0153834
0.343764
0.160248
0.0913725
0.0367155
0.0341422
0.0280996
0.00735529
0.00302803
0.0285497
0.010059
0.00750287
0.0130227
0.0867618
0.0467196
0.0435562
0.028954
0.00332826
0.00469909
0.00250146
0.00189076
0.0242815
0.377848
0.170891
0.0319811
0.00169931
0.00478951
0.020043
0.071136
0.0449172
0.234585
0.639053
0.408525
0.0453782
0.0102753
0.00311427
0.0303739
0.0303742
0.0013897
0.175932
0
0
0
0
0
0
0
0
0
0
0
0.0114126
0.0553348
0.347659
0.0660798
0.000864277
0
0
0.00505279
0
0
0
0.00241478
0
0
0
0.00230358
0.0353696
0
0.192745
0.562068
0.572011
0.00240191
0
0
0.016125
0
0.00745901
0.0380298
0.0940543
0.181426
0.0529616
0.00356337
0.00140555
0.00140555
0
0.168688
0.340855
0.180953
0.172706
0.0601676
0.00685233
0.00983887
0.00983887
0.0021178
0.00352268
0.14878
0.477582
0.166948
0.00403367
0
0
0.000965507
0
0.0701265
0.336394
0.516302
0.170523
0.00558927
0
0
0
0.011741
0.224794
0.31929
0.0476657
0.0158112
0.00633038
0.00122609
0.00341486
0.00341486
0.0429241
0.376355
0.331728
0.00800351
5.40959e-005
0
0
0
0
0.00531542
0.105979
0.365684
0.236562
0.0438152
0.000632244
0
0
0
0.0156695
0.289995
0.488565
0.13031
0.00766915
0
0
0
0
0.122553
0.514084
0.182184
0
0
6.67226e-005
8.15499e-005
0
0.00381204
0.304754
0.519984
0.025496
0
0
0.000467058
0.000570849
0.000103066
0.0554599
0.0655406
0.332487
0.303168
0.0341938
0.00528365
0.000467058
0.000670196
0.000390461
0.00865969
0.143255
0.176603
0.0251768
0.0044745
0.00180881
0.00362757
0.00681061
0.00537588
0.0535026
0.449912
0.2035
0.00414805
0
0
0.00028168
0.000344276
0.00168659
0.237398
0.413051
0.0267825
0.00778436
0.000343284
0
9.75676e-005
0.000181197
0.0495431
0.612499
0.130157
0.0400054
0.00305196
0
0
0.00321187
0.00922493
0.0103877
0.1112
0.136848
0.0443967
0.0313115
0.00240299
0
0.00371146
0.0148955
0.0151291
0.129579
0.0906647
0.0171995
0.00466694
0.000244478
0
0.000265115
0.00893498
0.234885
0.363899
0.0138735
0.00570982
0.000593802
3.49255e-005
0
0.00130016
0.0996126
0.661482
0.330035
0.0459973
0.0312344
0.0157758
0.00171135
0
0.00305014
0.015056
0.060158
0.0981644
0.01034
0.00951637
0.00173475
0.000244478
0.00308571
0.0118935
0.149806
0.331988
0.179608
1.67069e-005
0
0
0
0
0.00380595
0.19381
0.365824
0.0684714
0
0
0
0
0
0.0362849
0.420584
0.334277
0.0210712
0.000276297
0
0
0
0.00278695
0.0136183
0.333374
0.242838
0.0344267
1.9017e-005
0
0
0
0.00102178
0.0932248
0.504453
0.221455
0.00336104
0.000811977
6.33629e-005
7.74435e-005
0
0
0.0240958
0.443504
0.192064
0.00693347
0.0603461
0.00752848
0.000542105
0
0.0174116
0.014397
0.33163
0.151723
0.0807837
0.000115997
0
0
0
0.000703606
0.102138
0.504072
0.103185
0.00167344
0.0196348
0.0104594
0
0
0.030108
0.135028
0.504072
0.147515
0.0403368
0.230405
0.138025
0.00319747
4.91094e-005
0.0355945
0.0487325
0.0983729
0.0793434
0.185575
0.28922
0.246228
0.00464963
8.18489e-005
0.0293586
0.123822
0.121096
0.0183935
0.15756
0.0986007
0.108549
0.00905571
0
0.074528
0.192305
0.507273
0.204999
0.120929
0.112151
0.125645
0.0150929
0
0.138347
0.239538
0.27957
0.15068
0.11278
0.00439422
0.00483086
0.00256147
0.00361132
0.0156237
0
0
0
0.00136127
0.0307596
0.033816
0.206664
0.278007
0.141066
0
0
0
0.00952889
0.00342196
0.00805143
0.0201864
0.0541863
0.10754
0.00392452
0
0
0.000692855
0.0239538
0.05636
0.513327
0.580035
0.409162
0.0220924
0
0
0.00484999
0.00519602
0.00571233
0.151556
0.407911
0.074126
0.00026271
0
0
0.00160966
0
0.00267251
0.129263
0.445381
0.0961434
0.00183897
0
0
0
0.00404636
0.00952055
0.214625
0.40164
0.192449
0.00706208
0
0
0.000819278
0
0
0.0691915
0.445381
0.298198
0.0081846
0
0
0
0
0.0219838
0.283235
0.387717
0.0701194
0.00101928
0
0
0
0.000194264
0.0824173
0.356633
0.291645
0.0284015
0.001191
0.00114196
5.91107e-005
0.000806977
0
0
0.125093
0.530028
0.27054
0.00286809
0
0
0
0
0.000152161
0.10238
0.318546
0.0841463
0.0046039
0.00270816
0.000648387
0.00564884
0.0429698
0.356007
0.548982
0.363299
0.0913952
0.0105524
0.0265161
0.00445625
0.036139
0.105023
0.103695
0.038989
0.0429727
0.0182635
0.0268177
0.0772844
0.0382549
0.0991429
0.0205635
0.00744892
0.0867845
0.225198
0.0810091
0.0362736
0.0529144
0.0151542
0.106521
0.0698007
0.0154743
0.0222593
0.0319028
0.0188075
0.0873083
0.129566
0.0239242
0.104001
0.091343
0.0382918
0.0230282
0.0130552
0.00208171
0.0703151
0.174851
0.065436
0.177381
0.10056
0.111538
0.116276
0.0720768
0.0225586
0.0945465
0.249554
0.0553629
0.143014
0.0569994
0.047144
0.0383443
0.0265795
0.0311534
0.167035
0.276209
0.0351935
0.0454011
0.0946293
0.062408
0.102281
0.136749
0.103399
0.11797
0.269517
0.078962
0.111074
0.0398909
0.0553182
0.0513662
0.0524869
0.0214587
0.0634684
0.157026
0.0709845
0.0835644
0.0372131
0.0136952
0.00471293
0.0231731
0.0781152
0.110379
0.480621
0.242085
0.240337
0.0915896
0.0171867
0.0263377
0.100579
0.123502
0.0840358
0.0732799
0.0343079
0.0841031
0.0753881
0.0108498
0.0198581
0.0404934
0.147088
0.202549
0.0803259
0.0244048
0.172439
0.00231321
0
0
0.00405344
0.0117757
0.0259383
0.20115
0.0716663
0.0127349
0.000294884
0
0
0.00790675
0.0103155
0.243104
0.733949
0.0960391
0.00105314
0.00310404
0.00154714
0.00168272
0.00834961
0.0118801
0.0356938
0.0280641
0.00238769
0.00939795
0.000390372
0.00662948
0.000901971
0.024335
0.0742635
0.37133
0.357437
0.00177701
0.000845328
0
0
0
0.000872296
0.0154524
0.17794
0.395003
0.0143722
0
0.00060685
0.00141598
0
0
0.0305365
0.257582
0.403275
0.0203706
0.00645407
0
0.00131676
6.93031e-005
0.00375401
0.104169
0.380025
0.264129
7.06783e-005
0
0
0
0
0
0.166421
0.481418
0.221695
0.00576645
0.00092201
0.00596365
0.0210223
0.0321236
0.0162112
0.037827
0.291016
0.365513
0.0635556
0.032062
0.0230624
0.0277715
0.0584073
0.0333643
0.0843217
0.20828
0.134763
0.0770399
0.0261271
0.000434915
0.00852643
0.031356
0.0286803
0.147356
0.453328
0.335376
0.0568255
0.00458028
0.00304441
0.0142107
0.0633271
0.0837722
0.161049
0.326935
0.343081
0.128782
0.00391307
0.000157846
0.00089446
0.00726666
0.0313629
0.118996
0.0205461
0.00840387
0.00047734
0
0.00110492
0.00626122
0.1238
0.250777
0.504425
0.190065
0.0782767
0.00334138
0
0
0
0.000264574
0.00338986
0.094538
0.0249027
0.0267467
0.00740789
0
0
0
0.00185202
0.0363145
0.373536
0.533085
0.330728
0.0518552
0
0.000247594
0.00140303
0.0573241
0.143754
0.293963
0.101959
0.0250293
0.000748747
0
0
0
0.00999941
0.145253
0.423061
0.0608884
0.00169245
0
0
0
0
0.000415006
0.0240604
0.268788
0.449728
0.13706
0.0116199
0
0
0
0
0.0383788
0.463252
0.343991
0.02289
0
0
5.67536e-005
3.42633e-005
0.0117442
0.216742
0.511683
0.0449509
0
0
5.67536e-005
0.001084
0.00041768
0.0138174
0.115715
0.168052
0.017058
0.00139463
0.00125714
0.00357167
0.000737021
5.71054e-005
0.000220638
0.0469072
0.625819
0.328806
0.0183885
0
0.000737021
0.00630369
0.000957871
0.00286372
0.0354882
0.252004
0.133666
0.0168408
0.00173672
0.00640189
0.0213706
0.0159065
0.0858652
0.166432
0.079241
0.0888235
0.0579754
0.0637342
0.114316
0.0304498
0.0719988
0.076728
0.081378
0.0996127
0.19977
0.157598
0.0526626
0.0863067
0.0510063
0.0307809
0.0491141
0.132947
0.203312
0.133232
0.107841
0.0928616
0.0554814
0.00822812
0.174588
0.104683
0.141092
0.174987
0.0903543
0.0896767
0.118393
0.00824684
0.0219496
0.07951
0.060336
0.0335018
0.124858
0.121806
0.128363
0.0286332
0.0215927
0.140877
0.0590841
0.0698322
0.057099
0.12357
0.0608031
0.102474
0.130076
0.128168
0.0108428
0.13755
0.0996403
0.0981154
0.241189
0.0471887
0.0371542
0.0639043
0.0107651
0.135007
0.102494
0.0623703
0.0638162
0.272454
0.070862
0.0552083
0.174273
0.0660524
0.145389
0.0270223
0.0270109
0.0634374
0.160815
0.0451452
0.0158648
0.0563862
0.135156
0.0779902
0.0731367
0.0868369
0.030856
0.166007
0.223791
0.0224253
0.0131817
0.150602
0.138538
0.0619804
0.0241904
0.0563602
0.217628
0.061064
0.0391727
0.0794922
0.094697
0.0761216
0.10577
0.105512
0.0847844
0.263137
0.126363
0.0484029
0.0833637
0.154309
0.00744024
0.015671
0.0181092
0.00680635
0.0133822
0.0645505
0.0121963
0.000567201
0.0141717
0.00511255
0.0241756
0.00735908
0.0220337
0.38928
0.48131
0.125514
0.00032422
0.00803053
0.00997272
0.0193901
0.0341195
0.0225572
0.0210206
0.0299882
0.00824408
0.0146352
0.0452186
0.00827596
0.00858566
0.0198829
0.106197
0.596614
0.19059
0.0275035
0.0115134
0.0800629
8.69074e-005
0.00151507
7.97404e-005
0.00158672
0.244085
0.254645
0.0455436
8.68857e-006
0.000165105
0
0
0
0.002017
0.366621
0.317032
0.061687
0.00592765
0
0.000144846
0.000216438
0.000979108
0.0669764
0.480581
0.0976672
0.00196418
0.000631254
0.00355183
0
0
0.000138245
0.113247
0.554394
0.121472
0.011324
0.000846807
0
0.00371233
0.0181698
0.0182283
0.0191981
0.216075
0.170059
0.181534
0.0715711
0.00642503
0.0259863
0.0387918
0.0412032
0.059104
0.147503
0.159254
0.215988
0.139496
0.0449752
0.00618721
0.030283
0.0388551
0.202093
0.611101
0.0827008
0.0590412
0.0406551
0.0152766
0.0433105
0.0736873
0.0860297
0.246883
0.367184
0.115185
0.116872
0.142604
0.106936
0
0
0
0
0.0332835
0.00550108
0.0188206
0.0122692
0
0
0
0
0
0.248551
0.719694
0.284742
0.0858844
0
0
0
0
0
0.00128116
0
0.00104011
0.00233949
0
0
0
0
0
0.254845
0.396096
0.0454786
0.0163764
0
0
0
0
0.00162089
0.11561
0.408174
0.0767487
0.0081274
0
0
0
0
0.0113463
0.215231
0.405877
0.0575181
0
0
0
0
0
0.000297547
0.121071
0.417417
0.126865
0.00154973
0
0
0
0
0.00208283
0.132482
0.443628
0.369251
0
0
0.00034831
5.54003e-006
1.66201e-005
0.00976508
0.195212
0.314618
0.112021
0
0.00034831
0.00254921
0.00107684
0.00253848
0.00760286
0.0699004
0.203286
0.103393
0.000754999
0.00255874
3.4792e-005
0
0
0.00131098
0.0790798
0.417913
0.434148
0.0164417
3.4792e-005
0.000243544
0.000622837
0.00145329
0.000570268
0.0208024
0.336684
0.505041
0.0699771
0.000243544
0.00491203
0.00613104
0.0124514
0.0173843
0.0297697
0.123814
0.0813004
0.0113408
0.00503822
0.00110684
0.0153091
0.00944202
0.0287481
0.0274986
0.0208121
0.0152003
0.0284439
0.00175065
0.00163606
0.00333501
0.00751954
0.00954493
0.0105844
0.323196
0.802179
0.197492
0.00190348
0.012253
0.00627767
0.00506349
0.0408341
0.0537198
0.070008
0.0914845
0.0823773
0.00711313
0.0146768
0.0882208
0.0443217
0.0816785
0.136583
0.0306913
0.0128913
0.0916131
0.0127404
0.106889
0.132716
0.0334006
0.0354017
0.181703
0.0519899
0.0373033
0.0880248
0.0431554
0.0768141
0.0936555
0.0615591
0.106345
0.241936
0.0900585
0.00661746
0.0705536
0.0549913
0.225148
0.268213
0.112281
0.0188224
0.166743
0.135534
0.0261275
0.070075
0.0846689
0.0629043
0.0840893
0.0174588
0.0068565
0.100731
0.0484497
0.0439332
0.0728969
0.0648682
0.0222873
0.0369686
0.0307678
0.0321482
0.135735
0.0615202
0.0972008
0.174784
0.146653
0.123714
0.114233
0.0283781
0.0155203
0.181775
0.0646368
0.0569248
0.127023
0.126442
0.117508
0.0359093
0.0118976
0.106602
0.205911
0.0657614
0.153455
0.313837
0.264259
0.00464817
0.00213098
0.0070849
0.00859525
0.0127291
0.0145526
0.0143445
0.0189198
0.0233741
0.0174337
0.00311784
0.035314
0.164668
0.215692
0.0301686
0.0141087
0.011345
0.0429304
0.0258265
0.00578079
0.0485849
0.0261356
0.00917565
0.0188561
0.0301599
0.035898
0.0336725
0.0685141
0.0120983
0.750566
0.468436
0.124523
0.0213136
0.0271206
0.0159343
0.0223766
0.00205693
0.000519607
0.0171165
0.174469
0.277094
0.0125631
0.000672941
0.000675426
0.00383936
0.000174331
0.00156898
0.0115403
0.263101
0.452878
0.0168874
0
0
0
0.00796944
0.00275915
0.302462
0.332758
0.148334
0.00215486
0.000954036
0.000295051
0.00125475
0.00122032
0.0109829
0.167305
0.507961
0.238533
0.00941157
0
0
0
0.000613166
0.00326325
0.0177874
0.263938
0.321757
0.0161837
0.00524286
0.00337631
0.00227097
0.00384523
0.00835108
0.025261
0.225052
0.304707
0.0648578
0.0408142
0.0236342
0.0158968
0.000446938
0.00402244
0.0928261
0.509393
0.185584
0.0139659
0.00074898
0
0
0
0
0.0529895
0.374754
0.408197
0.111048
0.00524286
0
0
0
0
0
0
0.000210722
0
0
0
0
0
0
0
0
0.444198
0.575777
0.0104391
0
0
0
0
0
0
0
0
0
0
0
0
0
0
0
0.0273542
0.089426
0
0
0
0
0
0
0
0.0500133
0.202847
0.172475
0
0
0
0
0
0
0.0385552
0.40901
0.569999
0.000402873
0
0
0
0
0
0.00503374
0.0574928
0.0883505
0
0
0
0
0
0
0.0137816
0.200818
0.569999
0.0137138
0
0.000103141
0
0
0
0.0164711
0.151751
0.412583
0.0284313
0.000630671
0.000721989
0
0
0
0.0082088
0.106499
0.467288
0.120603
0.00270138
0.000721989
0
0
0
0.00490586
0.108547
0.467288
0.0659365
0.00270138
0.00505392
0
0.00424537
0.00788427
0.00114369
0.0895776
0.467288
0.232134
0.0163453
0.0011253
0.000184246
1.33846e-005
0.000527469
0.000588751
0.0398515
0.342721
0.173129
0.00513775
0.0065035
0.00238097
0.000110734
0.0075809
0.00583774
0.00867317
0.077954
0.122067
0.0350349
0.00692082
0.000110548
0.0062068
0.0115738
6.39768e-005
0.0267947
0.463367
0.41997
0.0490033
0.0101198
0.00243164
0.000886686
0.00414884
0.000516666
0.00117519
0.200194
0.544461
0.209191
0.0124591
0.00880804
0.00366092
0.012271
0.0167935
0.00376143
0.00497995
0.0393007
0.0512037
0.0244057
0.0209228
0.018039
0.00762554
0.0164025
0.00906951
0.00622616
0.0101292
0.0219152
0.0293085
0.00915649
0.000980663
0.00681924
0.00715516
0.00131232
0.020383
0.560708
0.44796
0.277256
0.0419386
0.0182816
0.0106526
0.0108447
0.00791318
0.00618156
0.123985
0.548905
0.0188782
0.0147685
0.0174301
0.00541848
0.0101933
0.00518263
0.012687
0.0170485
0.0255555
0.0599074
0.0446384
0.0142892
0.011566
0.00996435
0.00435843
0.0219359
0.0405917
0.0451826
0.387981
0.123653
0.0347405
0.00643162
0.00185029
0.00315796
0.00995612
0.0161768
0.198664
0.52458
0.640924
0.0410306
0.0023754
0.000677233
0.000622633
0.0226318
0.043091
0.104706
0.0239908
0.0640267
0.0806727
0.00848002
0.000678035
0.00193399
0.00582647
0.0106409
0.00671006
0.011956
0.109159
0.471553
0.125107
0.00690149
0.00196588
0.00234209
0.00254071
0.00134045
0.14195
0.419407
0.163975
0.00212899
6.81319e-005
0.000115046
0.00393317
0.00776817
0.0114919
0.0547875
0.441845
0.513535
0.050883
0.00529387
1.21112e-005
0.000143401
0.000483636
0
0.00288604
0.0287253
0.353949
0.165646
0.0245005
0.00037628
0.000171242
2.58959e-005
0
0.000495244
0.00834534
0.333369
0.367748
0.0379767
0.00110591
0
0
0
0.00749097
0.174261
0.463192
0.0659322
0.0126801
0
0
0
0
0.000738218
0.088438
0.497918
0.208537
0.00893984
0
0
0
0
0.000192843
0.00250578
0.238848
0.534587
0.0546538
0.00925886
0.000589299
0
0
0
0.000254722
0.0752258
0.273532
0.264035
0.143573
0.0306905
0.00539951
0
0.000808849
0.013827
0.500141
0.301606
0.021527
0.00816202
0.00553194
0.00317394
0.000230805
0.00320056
0.000728182
0.0788964
0.131183
0.158236
0.122202
0.13574
0.0512971
0.0416199
0
0
0
0
0
0
0
0
0
0
0
0
0
0
0
0
0
0
0
0
0
0
0
0
0
0
0
0
0
0
0
0
0
0
0
0
0
0
0
0
0.00531592
0.013027
0.0242476
0
0
0
0
0
0.0210865
0.10967
0.139401
0.815973
0.0357615
0
0
0
0
0
0.00285947
7.2541e-005
0
0
0
0
0
0
0.125471
0.406929
0.0396151
0.0929966
0.00466455
0
0.000345875
0
0
0.0215351
0.049779
0.119192
0.472114
0.0677657
0.00113199
0.00242113
0
0.0055284
0.0271817
0.0221651
0.142194
0.460869
0.356448
0.012767
0
0
0
0.147465
0.230655
0.0858575
0.109397
0.0287692
0
0.00600127
0
0.000789771
0.138783
0.138099
0.189395
0.197506
0.367798
0.0398299
0.00849579
0
0.00469904
0.00949662
4.05178e-005
0.0156075
0.16249
0.304622
0.0498522
0.0129403
0.000169858
0.000671291
0.00124668
0
0
0.0646608
0.451666
0.172386
0.0185091
0
0.000671291
0.0106006
0.0194576
0.0561298
0.0818621
0.42594
0.148978
0.0160583
0
9.58987e-005
0.000178098
0.00474566
0.00468167
0.0222236
0.466797
0.400854
0.0196282
0.000476102
0
0.000143994
0.000175992
6.44417e-005
0.00456984
0.270842
0.233708
0.181628
0.0057646
0.00119607
0.000558215
0.000293321
0.000451092
0.000508635
0.0751577
0.409229
0.0273034
0
0
0
0
0
0.0013243
0.333557
0.442584
0.253968
0
0
0
0
0
0.000189186
0.101052
0.484757
0.281931
0.0485919
0.00321985
0.000353932
4.0062e-005
0.000167475
0.000219671
0.00242326
0.177459
0.310913
0.324691
0.00827468
4.58791e-005
0
0
0.00103527
0.00217776
0.0430087
0.447721
0.022021
0
0
0
0
0
0.00381181
0.34022
0.481174
0.278288
0.00252827
0
0
0
0
0
0.0970036
0.138126
0.342403
0.0441482
0.000768925
0
0
0.000368852
0.000635176
0.00496408
0.0734998
0.411238
0.223767
0.00611103
0.000596092
0
0
0
0.000174927
0.327043
0.431719
0.0095343
0.000109846
0
0
0
0
0.00746705
0.227375
0.476976
0.131371
0.000768925
0
0
0
2.63943e-005
0.000709372
0.010782
0.343435
0.382175
0.00757183
0.00198271
0
0
0
0
0.00311226
0.17853
0.520159
0.0547729
0.00421076
0.000755282
0
0.00033947
0.000558048
0.0675856
0.496658
0.216073
0.0014188
0
0
0
8.77923e-005
0.00136894
0.0234474
0.201978
0.198598
0.0141922
0.00622385
0.00219539
0.00280976
0.00242896
0.00615954
0.02301
0.0691361
0.817788
0.200361
0.0228346
0.00854299
0.0101195
0.0145991
0.00594798
0.0309261
0.0174549
0.0913351
0.0707153
0.0847557
0.0594647
0.175501
0.102583
0.15851
0.0526975
0.0616181
0.180752
0.0407648
0.0330264
0.0144487
0.0157398
0.0298033
0.023293
0.0372072
0.0296262
0.0178726
0.0199811
0.0163534
0.0131159
0.0398411
0.0665875
0.0562273
0
0
0
0
0
0
0
0
0
0
0
0
0
0
0
0
0
0
0
0
0
0
0
0
0
0
0
0
0
0
0
0
0
0
0
0
0
0
0
0
0.0028504
0
0
0
0
0
0
0
0.1663
0.474166
0.0103789
0
0
0
0
0
0
0
0.0130575
0
0
0
0
0
0
0
0.3792
0.696683
0.00622734
0
0
0
0
0
0.00392536
0.222171
0.383783
0.042697
0.0056953
0.00312432
0
0.00943878
0
0.0163483
0.201121
0.282599
0.228881
0.0367157
0.0890739
0.0316374
0
0.000699088
0.0299903
0.300794
0.513511
0.0278124
0
0
0
0.0013484
0.00116515
0.102123
0.219339
0.327711
0.17369
0.0232112
0
0.0020226
0.0261176
0
0.00529883
0.0255806
0.0896518
0.170288
0.0365779
0.225131
0.170528
0.0161991
0
0
0.00622128
0.0285901
0.042237
0.0157498
0.595813
0.527158
0.00373109
0.000160515
0.0323477
0.0450861
0.138841
0.250852
0.06609
0.0146033
0.0313375
0.00619321
0.000161775
0.000531067
0.0113551
0.095119
0.158844
0.0516912
0.122772
0.186958
0.0247451
0
0
0.000616973
0.000691579
0.00104048
7.43967e-005
0.282712
0.480417
0.253028
0
0
0
0.000144603
0.000176737
0
0.0913415
0.575538
0.0183856
0.000380387
0.000610961
0.002542
0.0119959
0.0152923
0.00373711
0.0696719
0.229118
0.125151
0.00339662
0.00568147
0.00252286
0.00770316
0.00461014
0.000547725
0.0387533
0.391077
0.446532
0.00648347
0
0
0
0
0
0.00627603
0.403706
0.56665
0.174987
0
0
0.000319969
0
0
0.00194221
0.175008
0.188008
0.00359385
0.00431113
0.000342325
0.000869041
0.000384862
0.00168169
0.0193991
0.230167
0.29548
0.0294108
0.00251412
0.0015739
0.00689465
0.00324724
0.00452701
0.0148032
0.148751
0.498024
0.454753
0.00180754
0
0.00124257
0
0
0.00177471
0.048662
0.305438
0.558087
0.0359258
0.00021334
0.00107222
0.000399278
0
0.00147263
0.0151544
0.197816
0.0857897
0.0025289
0.00454898
0.0154677
0.00408501
0.00232782
0.0134719
0.0672291
0.0836422
0.0878034
0.0054243
0.00681436
0.0157539
0.0114129
0.00213891
0.00705978
0.0328598
0.298428
0.774686
0.135605
0.00444618
0.00503973
0.00457034
0.000432236
0.00387152
0.0300415
0.0836414
0.254158
0.0821096
0.0298425
0.0196302
0.0132942
0.0251912
0.00677368
0.0334175
0.0656781
0.0664594
0.036956
0.0392846
0.0408654
0.0252169
0.00568991
0.00974973
0.0381496
0.0272914
0.0416231
0.0611352
0.0598836
0.0420514
0.0161944
0.0397519
0.00905923
0.0125141
0.0931208
0.0833871
0.0874201
0.116248
0.101427
0.0554833
0.108962
0.0893227
0.0521854
0.0626867
0.060882
0.0500655
0.108546
0.0723559
0.0527835
0.128782
0.277783
0.108428
0.0902398
0.209407
0.102411
0.11147
0.121136
0.0406421
0.138813
0.0730333
0.00977828
0.145319
0.215457
0.0728359
0.133773
0.10787
0.0424529
0.12085
0.21033
0.118556