0
0
0
0
0
0
0
0
0
0
0
0
0
0
0
0
0
0
0
0
0
0
0
0
0
0
0
0
0
0
0
0
0
0
0
0
0
0
0
0
0
0
0
0
0
0
0
0
0
0
0
0
0
0
0
0
0
0
0
0
0
0
0
0
0
0
0.0102573
0.00439599
0
0
0
0
0
0
0
0
0
0
0
0
0
0
0
0
0
0
0
0
0
0
0.0731496
0.0188087
0
0.00654664
0.0028057
0
0
0
0.0199168
0.59991
0.428956
0.0351291
0.00392798
0.00168342
0
0
0
0.163331
0.00353237
0.00115593
0.000622426
0
0
0
0
0
0.00353237
0.0418081
0.00809154
0.00435698
0
0
0
0
0
0.0289003
0.243836
0.177447
0.0221344
0
0
0
0
0
0.072031
0.736735
0.429076
0.0411653
0
0
0
0
0
0.263622
0.0311497
0.00152895
0.000823282
0
0
0
0
0
0.0288668
0.0490035
0
0
0
0
0
0
0
0.0443188
0.421001
0.139094
0.00576297
0
0
0
0
0
0.261333
0.506682
0.0177828
0
0
0
0
0
0.00307627
0.639479
0.0461536
0
0
0
0
0
0
0.000687956
0.0420823
0.0301138
0
0
0
0
0.000573948
0.00088851
0.00824891
0.0398898
0.287804
0
0
0
0
0
0
0.0855858
0.691276
0.0998536
0
0
0
0
0.0110317
0.0293602
0.345966
0.469023
0.0277585
0
0
0
0.000844069
0.0063969
0.00385587
0.0213407
0.0390214
0.00272802
0
0
0
0.00140678
0.00383814
0.00070475
0.00201097
0.00272802
0.0601919
0
0
0
0.00590849
0.124987
0.130007
0.740498
0.367362
0.0426887
0
0
0
0.0102671
0.0771613
0.035545
0.120712
0.134818
0
0
0
0
0.00125206
0
0
0
0
0
0
0
0
0
0
0
0
0
0.0929777
0
0
0
0.016266
0.00301673
0.0350795
0.00767087
0.204113
0.00134851
0
0
0
0.00450093
0
0.00328752
0.00109584
0.00134851
0
0
0
0
0
0
0
0
0
0
0
0
0
0
0
0
0
0
0
0
0
0
0
0
0
0
0
0.00620546
0.00632888
0
0
0.00924648
0
0
0
0.00462324
0.0110598
0
0
0
0.00189837
0.0056951
0.00386646
0.0123122
0.0246027
0
0
0
0
0.000271195
0.000813585
0
0
0
0.0184329
0
0
0
0.0132886
0.213946
0.469647
0.628452
0.254303
0
0
0.0144317
0.000759561
0.00189837
0.0056951
0.053661
0.103569
0.0410061
0
0.00179118
0
0
0
0
0
0
0
0.0204406
0.047461
0.0028745
0.00124524
0.000533673
0
0
0
0.00819806
0
0.0389774
0.107725
0.000704358
0
0
0.00109522
0.000469379
0
0.0515736
0.79895
0.488454
0.00116976
0.000320204
0
0
0
0.0136634
0.0243937
0.0531875
0.0331926
0.00119206
0.000510881
0
0
0
0.00496721
0.160704
0.261586
0.0654578
0.000715234
0.000306529
0
0
0
0.0168966
0.0338518
0.509697
0.261338
0.000715234
0.000306529
0
0
0
0.00564847
0.322089
0.540976
0.3427
0.00042914
0.000183917
0
0
0
0.0123118
0.183624
0.234465
0.0207356
0
0
0
0
0
0.0175138
0.331109
0.339301
0.02076
0
0
0
0
0.000528426
0.0598271
0.356154
0.406693
0.0666061
0
0
0
0
0
0.0142428
0.391993
0.429704
0.0499628
0
0
0
0
0.000880709
0.0401063
0.331979
0.172054
0.00523653
0
0
0
0
0.00160425
0.173432
0.311482
0.0187157
0.000169389
0
0
0
0
0.0115262
0.469652
0.322304
0.177514
0.0197649
0
0
0
0
0.00267375
0.181268
0.272664
0.0123703
0.00118572
0
0
0
0
0.0432224
0.469652
0.0726452
0
0
0
0
0
0
0.083395
0.418361
0.0122188
0
0
0
0
0.00312455
0.00935617
0.318176
0.348094
0.0558034
0.000202584
0
0
0
0
0
0.141841
0.418361
0.0190368
0.00141809
0
0
0
0.000368676
0.0038396
0.418361
0.418361
0.00298423
0
0
0
0.000245829
0.0109344
0.0172886
0.309387
0.138142
0.0102967
0
0
0
0.000538723
0.0101967
0.041882
0.148524
0.0839663
0.0106479
0.000657491
0
0
0
0.00129591
0.0918276
0.481119
0.30653
0.00625519
0
0
0
7.74045e-005
0.00646377
0.474002
0.481119
0.126265
0.00893945
0
0
0
0.00102661
0.00813934
0.0625553
0.0560761
0.0424172
0.000694214
0
0
0
0.000962224
0.00114524
0.00846511
0.00865617
0.000694214
0.00531512
0
0
0
0.000962224
0.0283065
0.782697
0.45784
0.0480091
0.00145729
0
0
0
0.00366398
0.0273352
0.271348
0.104723
0.00145729
0.000480434
0
0
0
0.000949273
0
0.000751728
0.000250576
0.000480434
0.0476836
0.00303175
0
0.00804844
0.0170433
0
0
0
0.00346991
0.00293171
0.000941452
0.00594988
0.00104184
0.0117993
0.0200321
0.122473
0.0144303
0.00293171
0.432665
0.197523
0.178715
0.299597
0.550236
0
0.000990527
0.000330175
0.0048461
0.000339784
0
0.00106215
5.59028e-005
0.00281396
0.0608706
0.342854
0.183731
0.0364512
0
0
0.0175567
0.0119919
0.0230492
0.0175881
0.119297
0.039058
0.0070595
7.4916e-005
0
0.00787903
0.000414686
0.0184911
0.246232
0.579254
0.187044
0.0293645
0
0
0.0655736
0.145336
0.157658
0.337104
0.414859
0.0318934
0.00207463
0
0.0262369
0.145517
0.0224127
0.0104343
0.00157372
0.00501841
0.000395233
0
0.00381718
0.289199
0.496813
0.0395879
0.000877516
0
0
0
0.000572803
0
0.0716802
0.329409
0.260037
0.0673744
0.042388
0.0169777
0.00023714
0
0
0.277198
0.506964
0.271169
0.0112009
0
0
0
0
0.00410651
0.358922
0.293714
0.0158378
0
0
0
0
0.000480739
0.100926
0.427068
0.199929
0.00349935
0
0
0
0
0.00310741
0
0.190617
0.427068
0.0903429
0.00494611
0
0
0
0
0.0462593
0.322068
0.419324
0.0348241
0.000817229
0
0
0
0.000346776
0.233233
0.392675
0.0633555
0.000391392
0
0
0
0
0.0116041
0.318982
0.448135
0.0328886
0
0
0
0
0.00016771
0.0278055
0.14859
0.437319
0.147455
0.00875023
0.000155433
0
1.20449e-005
0.00091308
0.00450992
0.234111
0.375596
0.0118666
0.000648555
3.41344e-005
0
8.43143e-005
0.00396661
0.0236281
0.428563
0.177903
0.01496
0
0
0
0
0.000672598
0.185345
0.323235
0.00688142
0.000810798
0
0
0
0
0.135156
0.572859
0.267158
0.122411
0.00184046
0.000909036
0.000348401
0.000579722
4.57625e-005
0.00239254
0.100842
0.175589
0.00450612
0.000571767
0.00569133
0.00192885
0.00129236
0.000502614
0.105724
0.307798
0.0421032
0.000307544
0
0
0
0
0
0.267719
0.293628
0.0251748
0.00215281
0
0
0
0
0.0132764
0.518552
0.332323
0.0161453
0.000286656
0.000383234
0.00344911
0.000672005
0.00122681
0.00418841
0.234482
0.166071
0.0034926
0.000712079
5.47477e-005
0.00049273
0.000152806
0.0054518
0.0844459
0.519492
0.221388
0.00871908
0.00060084
0
0
0
0.00315686
0.106664
0.324303
0.1216
0.000473073
0
0
0
0
0.0270469
0.456232
0.396311
0.0334488
0.00125597
0.000127369
0
0
0
0.0311338
0.271135
0.299446
0.0703053
6.75819e-005
0
0
0
0.000164679
0.1294
0.456232
0.249216
0.0178417
3.22365e-005
0
0
0
6.3695e-005
0.0373919
0.472608
0.18044
0.00432312
0.000196714
0
0
0
0.000953178
0.0379028
0.341496
0.05025
0.000196714
0
0
0
0
0.000431463
0.145459
0.478587
0.159247
0.00418319
2.04266e-005
0
0
0
0.00258109
0.247572
0.478587
0.0942004
2.04266e-005
0.000286431
0.000120419
0.00144797
0.00194797
0.00917656
0.0308687
0.0939642
0.00751898
0.000286431
0.034913
0.0325634
0.0577924
0.165875
0.228373
0.00422895
0.000615699
0.000114799
0.000115542
3.89386e-005
1.72028e-005
0.000703637
0.00324763
0.0491455
0.284992
0.387327
0.0161007
3.89386e-005
0.0034638
0.0100984
0.0335194
0.428832
0.644726
0.0801387
0.0132087
6.88794e-005
5.56266e-006
0.0177206
0.00841814
0.0364502
0.00587576
0.018217
0.306127
0.340464
0.0511722
0.0423735
0.0192256
0.0897433
0.134624
0.163602
0.100544
0.488533
0.235186
0.0998457
0.0347219
0.104336
0.103579
0.0931893
0.0483755
0.00667804
0.155737
0.0796993
0.0293293
0.114205
0.186971
0.252628
0.180171
0.18551
0.0693513
0.250591
0.113425
0.165153
0.106935
0.00957029
0.103125
0.265643
0.32365
0.0443926
0.0719577
0.0144642
0.0292417
0.0098673
0.00121695
0.109129
0.382478
0.375224
0.0278447
0.00495134
0
0
0
0.0796485
0.200364
0.173456
0.231593
0.0822134
0.0376636
0.0140515
0.0500298
0.0300822
0.00851862
0.0718231
0.251811
0.480102
0.131223
0.00825223
0
0
0
0.000132175
0.079243
0.418449
0.223398
0.0160065
0.00224717
0
0
0
0.0141296
0.156501
0.50111
0.0965397
0.0028306
0.000337766
0
6.40176e-005
7.82438e-005
0.000984007
0.0203161
0.306138
0.499074
0.0533645
0.00685506
0.00133276
0.000628361
0.000269298
0.00648985
0.0405327
0.201104
0.202685
0.00861264
0.00754732
0.00222127
0.00500235
0.00321223
0.195535
0.540994
0.518862
0.077361
0.00493119
0.00154792
0.000662984
0.0144843
0.0196624
0.275127
0.270289
0.0155018
0.0123484
0.00167101
0.00131516
0.00627768
0.0708563
0.0741283
0.0275755
0.0757182
0.14952
0.0630082
0.0105044
0.01511
0.00770904
0.0461124
0.0274018
0.0256392
0.0248302
0.00713442
0.0111959
0.00389611
0.00801406
0.0314765
0.147751
0.0442808
0.375642
0.110034
0.0200335
0.0251109
0.0088715
0.0229973
0.0137773
0.0919711
0.202041
0.198316
0.0591419
0.0643408
0.0937374
0.0491152
0.0378493
0.00787158
0.12338
0.373349
0.0842437
0.0682126
0.0404759
0.0227094
0.0299391
0.0410277
0.0536841
0.204789
0.0592708
0.178204
0.164118
0.158837
0.111126
0.0684838
0.05177
0.00912335
0.0316732
0.0621371
0.0160537
0.0165406
0.0140018
0.0338553
0.0116688
0.0155102
0.0274501
0.168909
0.168204
0.00443953
0.00758879
0.00869509
0.0104032
0.0103862
0.0390316
0.356999
0.679863
0.350962
0.0679873
0.0358601
0.0413189
0.0332818
0.0111438
0.0185954
0.0112638
0.00985066
0.0320555
0.0263802
0.028827
0.0338418
0.013171
0.0241509
0.0391028
0.100896
0.0529255
0.0400726
4.08619e-005
0.000163448
0.000473971
0.00064975
0.0027763
0.0401182
0.27539
0.14779
0.0270499
0
0
4.46619e-005
8.29436e-005
0.00873299
0.214309
0.562726
0.135355
0.00503096
0.000878386
0.0018815
0.00210367
0.00365972
0.0183921
0.0432151
0.0799046
0.0319411
0.00749999
0.000512321
0.000104601
0.00087715
0.00443291
0.0419426
0.427174
0.517673
0.0390984
0.00400206
0
0
0
0
0.0113548
0.16149
0.333673
0.053938
0.000551051
0
0
0
0
0.0198273
0.321048
0.436014
0.0366727
0
0
0
6.64704e-005
0.00235448
0.0444587
0.288285
0.304334
0.00600983
0
0
0
0
0.0138447
0.17415
0.436014
0.350887
0.00240305
0
0
0
0.000308222
0.00319035
0.0584144
0.250915
0.245639
0.00346976
0
0
0
0.00215756
0.177099
0.413569
0.0911907
0.021096
0.00163186
0
0.00319905
0.0052621
0.00858901
0.0197951
0.173139
0.449796
0.241306
0.0477285
0.0307063
0.0223933
0.0368347
0.0655891
0.269041
0.435387
0.194638
0.0859591
0.07801
0.0625516
0.112808
0.180271
0.131235
0.028062
0
0.00901993
0.0227047
0.0170414
0.0782482
0.160311
0.139612
0.0763336
0.129973
0.13022
0.0458019
0.109203
0.0325703
0.0883999
0.100343
0.30325
0.46846
0.0915231
0.00930269
0.0388159
0.0618567
0.0192677
0.109318
0.0889121
0.153275
0.0718422
0.0568391
0.371985
0.384902
0.252941
0.010697
0.177443
0.0488432
0.0563625
0.0245939
0.170043
0.187606
0.0196384
0.0353768
0.0112936
0.0167403
0.00349994
0.0234563
0.119031
0.381892
0.27938
0.00660344
0
0
0
0.0112907
0.000764013
0.00284656
0.0850337
0.473359
0.230417
0.0800104
0.00285405
0.0225741
0
0
0.0254078
0.187096
0.541523
0.123469
0
0
0
0.00188493
0.00438668
0.210156
0.501438
0.210125
0.0085945
0.00228063
0.00137859
0.000436584
0.0096303
0.0189935
0.0593801
0.146083
0.0203251
0.0113731
0.00380105
0.00934641
0.00737484
0.00194555
0.003942
0.0490527
0.20189
0.701484
0.116976
0.00137198
0.00327295
0.000467825
0.0109973
0.0134319
0.0176878
0.0432985
0.0819438
0.0293512
0.0091422
0.0141133
0.00887599
0.0960867
0.137043
0.0760911
0.0396842
0.0213
0.0440541
0.0464641
0.127277
0.119452
0.0990822
0.0748774
0.0073716
0.00301387
0.0279174
0.0657433
0.149685
0.273336
0.18574
0.137102
0.0943631
0.0160245
0.0395426
0.0671134
0.0603771
0.101554
0.131181
0.13385
0.13276
0.0990191
0.00077645
0.0346611
0.101762
0.134699
0.138544
0.199567
0.233369
0.102232
0.0696387
0.0120663
0.0198217
0.0825701
0.0508592
0.0647828
0.13223
0.0823819
0.28201
0.157928
0.0733943
0.0884526
0.133174
0.0640515
0.00993794
0.0347306
0.11296
0.0846941
0.0596985
0.00455534
0.0272294
0.14329
0.131943
0.0720335
0.153774
0.140611
0.238285
0.181461
0.0700755
0.133628
0.24376
0.0875492
0.0196002
0.0908958
0.160087
0.211192
0.0826078
0.0680775
0.043527
0.0475048
0.0822506
0.00801099
0.0510299
0.119069
0.0617762
0.103977
0.150628
0.00979982
0.0453917
0.139004
0.0460764
0.0809601
0.0890196
0.139375
0.109549
0.12246
0.127198
0.0853597
0.109097
0.00273131
0.0603859
0.101597
0.0908516
0.108311
0.450005
0.118143
0.0770148
0.150048
0.00451479
0.0646237
0.0572331
0.00182608
0.00859999
0.0129955
0.00594346
0.0211577
0.03805
0.0131612
0.00487286
0.0115581
0.00109565
0.000898875
0.00298456
0.00997766
0.220328
0.536056
0.250616
0.00213811
0.00681641
0.00892762
0.00947426
0.036024
0.00975572
0.0206179
0.0216761
0.00745904
0.00650113
0.0104743
0.00237973
0.00121409
0.00443355
0.065366
0.679562
0.192735
0.0282215
0.00396015
0.0110625
0
0
8.71547e-005
0.00435922
0.194841
0.264306
0.129917
0
0
0.00250464
0.000278293
0
0.021928
0.367668
0.328295
0.134782
0.00170001
0
5.79372e-005
0
1.24507e-005
0.0554668
0.509933
0.0988838
0.0134791
3.88298e-005
0.000407406
0.0175325
0.00194805
0.0150044
0.0808491
0.509933
0.144748
0.0468853
0.00102
0
0.0293345
0.0082487
0.0100953
0.0159927
0.207644
0.336445
0.215799
0.108348
0.0941453
0.147235
0.0520049
0.0926871
0.205269
0.186442
0.167447
0.134511
0.190443
0.213546
0.127
0.0165917
0.060933
0.0945374
0.22334
0.134305
0.140459
0.0839951
0.145401
0.260564
0.0265626
0.071413
0.103931
0.0442835
0.158826
0.184201
0.314908
0.306112
0.0585546
0.152217
0.26686
0.0700398
0.0254326
0.0435242
0.0311665
0.00561677
0.0312834
0.0193138
0.0494311
0.0266558
0.00716113
0.333969
0.539138
0.0854273
0.00379759
0.0479862
0.0446202
0.0514079
0.0397264
0.011872
0.0410272
0.0260265
0.00292958
0.000325508
0.00618148
0.006307
0.00340313
0.00394848
0.00135733
0.348298
0.539138
0.0579765
0.000542513
0.00138226
0.00071177
0
0
0.00152685
0.27282
0.325952
0.0171636
0.000375707
0.00461044
0
0
0
0.00699726
0.409931
0.214672
0.0418281
0
0
0.0011056
0
0
0
0.197965
0.452149
0.095885
5.36725e-005
0.00328502
0.00773921
0
0
0
0.198459
0.452149
0.247239
0
0.0229951
0.00019681
0.00233865
0.00257987
0.0105609
0.375732
0.225514
0.113999
0.00124695
0.00032938
0.00204349
0.00421255
0.00686918
0.00406485
0.0454751
0.0519156
0.0574708
0.0112525
0.00312604
0.00548641
0.00125886
0.0020618
8.92152e-005
0.15133
0.494313
0.540943
0.00738301
0.0163486
0
0.00209811
0.00814731
0.00142055
0.0141073
0.239099
0.321927
0.0270468
0.00032938
0.0317082
0.0123836
0.0181949
0.0200784
0.0238041
0.05077
0.1498
0.141221
0.0342934
0.0371447
0.0260247
0.00966458
0.0567472
0.0550326
0.0584113
0.0884504
0.161648
0.0524034
0.00887858
0.017316
0.0599566
0.033141
0.00499427
0.306507
0.511849
0.195881
0.0144198
0.0286357
0.0331327
0.124666
0.105529
0.105414
0.118232
0.096767
0.130401
0.0341837
0.0613971
0.0314367
0.0077265
0.0436212
0.089444
0.0718638
0.0455137
0.147835
0.0943637
0.202392
0.0805431
0.0213726
0.102818
0.130197
0.0403708
0.0144963
0.118806
0.128795
0.0632672
0.0277768
0.0598039
0.101444
0.242366
0.0984221
0.0382404
0.0977647
0.0683794
0.21046
0.0351075
0.0219172
0.108647
0.305557
0.0857823
0.019008
0.140465
0.160466
0.145132
0.0746934
0.0828359
0.153198
0.044969
0.0208947
0.00422803
0.0688786
0.0514357
0.140352
0.0793265
0.261415
0.252541
0.0746971
0.0317181
0.00282723
0.0342368
0.0393728
0.224051
0.0626472
0.0532374
0.105843
0.0954269
0.0228283
0.0146452
0.0967989
0.116453
0.181845
0.153004
0.19667
0.194442
0.0457382
0.00611157
0.0180942
0.0533978
0.137722
0.0101656
0.00348996
0.014067
0.0199667
0.014137
0.00745482
0.00130978
0.00150927
0.00721067
0.0036032
0.000525812
0.0127559
0.261117
0.363848
0.0190717
0.00212274
0.00101285
0.00800139
0.00929304
0.0130755
0.0712184
0.0465573
0.00827137
0.00395112
0.000252996
0.00113601
0.0105032
0.00255467
0.00718165
0.437124
0.70354
0.161721
0.00525129
0
0.000217514
0.00345884
0.00014721
6.78718e-006
0.00407546
0.204579
0.319652
0.00825569
0.000132825
3.62953e-005
0.000473869
0.00602886
0.000669872
0.0233848
0.278233
0.362673
0.0371606
0.00246764
0
0
8.83261e-005
0.000131055
0.159902
0.46611
0.139435
0.00455483
0
5.18505e-006
0.000134992
0
0
0.122302
0.50831
0.241438
0.0294179
0
0
0
0.0497314
0.0203356
0.0909722
0.266465
0.139009
0.0344275
0.015734
0.0153746
0.0324806
0.0735311
0.0320721
0.0898098
0.152257
0.136619
0.165863
0.115329
0.106182
0.061413
0.00439123
0.0111773
0.0904411
0.482059
0.226978
0.0225879
0.00277355
0.00135683
0.00109781
0.00731871
0.0186289
0.0712904
0.431225
0.482059
0.132012
0.0432496
0.00949782
0.00182968
0.00998592
0.00332635
0.000702699
0
0.0378693
0.00936303
0.000302548
0.000100849
0.00342031
0.000462943
0.000234233
0.000100386
0
0.273072
0.787774
0.235815
0.000705944
0.000462943
0.000146698
0
0
0
0.00608655
0.00126054
0.000504246
0.000168082
0.000146698
0.00159808
0
0
0
0.0633424
0.352779
0.152707
0.00511575
0.00159808
0.0021932
0
0
0
0.0422666
0.37887
0.227938
0.00453132
0.00479966
0.0152455
0
0
0
0.0398332
0.327636
0.373803
0.0254351
0.0334907
0.00168666
0
0
0
0.012042
0.240383
0.311843
0.0455646
0.00247358
0.00824554
0
0
0
0.0147897
0.293399
0.469616
0.202931
0.0156359
0.00651375
0
6.10987e-005
6.78874e-006
0.0310604
0.215197
0.30465
0.052225
0.0143092
0
0
0.000668699
0.000495107
0.00373527
0.11507
0.32451
0.0819502
0
0.00341031
0
0
0
0.0364035
0.154091
0.476511
0.231785
0.0118931
0
0
3.44296e-005
6.39408e-005
0.0367667
0.0600477
0.476511
0.38275
0.00710613
0.00218113
0.00379682
0.00392943
0.00285672
0.000116529
0.0320421
0.177899
0.0813792
0.00682385
0.00821611
0.00700139
0.0101733
0.00466602
0.00603334
0.00988085
0.0185916
0.0311577
0.0218885
0.00259697
0.00216615
0.000474774
0.000369332
0.00945948
0.0163249
0.389788
0.666401
0.0672055
0.0290567
0.00444154
0.00115481
0.000341229
0.000708081
0.00377599
0.0717908
0.418066
0.325961
0.0169699
0.00890138
0.00921408
0.00816853
0.022244
0.0104257
0.00800088
0.0217147
0.0279317
0.0228904
0.017215
0.0203592
0.0206106
0.0342711
0.0101114
0.00368409
0.0169684
0.0219874
0.165419
0.00674753
0.0030056
0.00119129
0.00189331
0.00291202
0.00511751
0.171683
0.584264
0.525607
0.0316682
0.0226849
0.00929071
0.00523698
0.00203819
0.00391661
0.024008
0.434952
0.0130908
0.0150166
0.00853201
0.00842493
0.00866531
0.00241566
0.0035068
0.00714821
0.00868568
0.0343047
0.108685
0.0324584
0.00527924
0.00100488
0.000452016
0.00253678
0.00665856
0.0110045
0.294088
0.172938
0.0159795
0.00476894
0.00216771
0.00147436
0.00502241
0.00446705
0.0708571
0.216784
0.848559
0.113743
0.00226825
0.000322024
0.00075336
0.00301344
0.00567119
0.0127473
0.00968924
0.068124
0.106261
0.0152545
0.000327505
0.00014571
4.48403e-005
0.000339076
0.00241277
0.00106013
0.0445335
0.477549
0.194344
0.00796828
0.00024285
0
8.77941e-006
0.000310943
0.0283552
0.459524
0.211684
0.00878627
0
0
0
0.000331573
0.000478635
0.0122623
0.381482
0.505445
0.0891672
0
0
0
0
3.17782e-005
0
0.00411541
0.275866
0.191852
0.0139002
0.000448409
0
0
0
0
0.000668384
0.324669
0.44268
0.0476405
0.00296694
0
0
0
0.00265665
0.10436
0.453831
0.103468
0
0
0
0
0
0
0.0292595
0.453831
0.322413
0.00485231
0
0
0
0
0
0
0.143046
0.422444
0.139485
0.00281991
0
0
0
0
0
0.0159846
0.302666
0.441544
0.0170874
0
0
0
0
0.000821825
0.273277
0.270813
0.132938
0
0
0
0
0
0
0.0156546
0.284646
0.449858
0.0261466
0.00142349
0
0
0.000605898
0
0
0
0.0012266
0
0.000766166
0.000255389
0.000605898
0.0216732
0
0
0
0.188441
0.468361
0.210656
0.0460134
0.0216732
0
0
0
0
0
0
0
0
0
0.0104592
0
0
0
0.0125345
0
0.0117333
0.00631795
0.0104592
0.00255889
0
0
0
0.0124808
0.0884946
0.197944
0.051461
0.00255889
0.00239159
0
0
0
0.00674747
0.249018
0.679356
0.419608
0.0124152
0.00239159
0
0
0
0.00605126
0.0113632
0.0265127
0.00571355
0.00239159
0.00798961
0
0
0
0.0123862
0.0657674
0.300871
0.295639
0.0140037
0.000184513
0
0
0
0.0181318
0.0592182
0.379008
0.31039
0.0146213
0
0
0
0
0.0295971
0.0134706
0.24235
0.449038
0.025617
0.00218085
0
0
0
0.0048079
0.0136025
0.242116
0.349993
0.0307269
0.00113276
0
0
0
0.00446365
0.00086199
0.207661
0.456037
0.124135
0.00012681
7.55256e-006
0
0
0.00420247
0.00143391
0.0981976
0.355872
0.0573779
0.0316692
5.2868e-005
0
0
0
0
0.0334649
0.26393
0.27204
0.000132939
0
0
0
0.000600353
6.67058e-005
0.0573162
0.453603
0.211755
0.0625382
0
0
0
0
0
0.0215487
0.453603
0.453603
0.104251
7.03437e-005
3.29411e-005
0
0
0
0.000951876
0.0542462
0.288867
0.299918
0.00277378
0.000491421
0
0
2.46823e-005
9.87291e-005
0.0023272
0.251449
0.187161
0
0
0
0
0
0.00148336
0.115105
0.467286
0.467286
0.00029695
0
0
0
0
0
0.0045867
0.467286
0.279413
0.0731772
0.00316113
0
0
6.5449e-005
0.000261796
0.000244464
0.0908664
0.194161
0.376461
0.06076
0
0.00970037
0.00111709
0.000157078
0.0002273
0.0214803
0.459477
0.0988545
0.0010673
0
0
0
0
0
0.182164
0.459477
0.459477
0.0294823
0
0.0161673
0.00179636
0
0
0.042042
0.0442591
0.331443
0.113397
0.000975696
0.00844535
0.000938371
0
2.67818e-005
0.00047261
0.0218506
0.441056
0.299232
0.00855917
0.00120648
0.000134053
0
0
0
0.23549
0.441199
0.0711048
0
0.0140756
0.00156395
0
0
0.000834683
0.160347
0.441199
0.266941
0
0.0020108
0.000223422
0
0
0.000877857
0.00442598
0.341228
0.48375
0.0327655
0
0
0
0
2.97971e-005
0.00020858
0.114578
0.48375
0.135789
0.00216384
0
0
0
0.00020858
0.0383502
0.443083
0.295532
0.00306655
0.000486365
0
0
0
0.00100087
0.00294615
0.131698
0.179208
0.0212438
0.00397084
0
0
0
0.00159872
0.000102423
0.00644101
0.161226
0.13025
0.171771
0
0
0
0.000102423
0.000258452
0.00170034
0.0062244
0.284332
0.53228
0.0395727
0.00771967
0.00782398
0
0.000716964
0.00806873
0.0286294
0.0627127
0.270505
0.00295924
0
0
0.000716964
0.00204096
0.0119024
0.00187794
0.282791
0.586363
0.0403808
0.00769844
0.01304
0.00440409
0
0
0
0
0
0
0
0
0
0
0
0
0
0
0
0
0
0
0
0
0
0
0
0
0
0
0
0
0
0
0
0
0
0
0
0
0.00533459
0
0
0
0.0107995
0
0.00801671
0.00343574
0.00533459
0.0468108
0
0
0
0.0656586
0
0.437274
0.499839
0.0468108
0
0
0
0
0
0
0
0
0
0.0056812
0
0
0
0.00680849
0
0.00292895
0.00878685
0.0056812
0.00832687
0
0
0
0.00556848
0
0.128424
0.206771
0.0666665
0.00981539
0
0
0
0.00473972
0.00456913
0.144614
0.857678
0.259888
0.00417538
0
0
0
0.00164504
0
0.000792785
0.00949599
0.0143665
0.0119748
0
0
0
0.00686646
0.00761522
0.022491
0.153484
0.0586923
0.00553875
0
0
0
0.000681833
0.00208493
0.0259104
0.496293
0.174976
0.110199
0
0
0
0
0.000297847
0.0133667
0.472893
0.496293
0.0186777
0
0
0
0.00113639
0.00347488
0.0144105
0.14306
0.0755405
0.155899
0
0
0
0
0.000496412
0.00770216
0.16061
0.33793
0.194793
0
0
0
0
0
0.00102446
0.090331
0.437498
0.437498
0
0
0
0
0
0
0.00339478
0.437498
0.192127
0
0
0
0
0
0.000551583
0.0254321
0.27476
0.332647
0
0
0
0
0
0
0.00042996
0.335695
0.463239
0.0817487
0
0
0
0
0
0
0.236552
0.451884
0.463239
0.00347133
0
0.00232307
0.000258119
0
0
0.0770318
0.307801
0.0231228
0
0
0
0
0
0
0.222742
0.261165
0.159254
0.0027864
0
0
0
0
0
0.117372
0.298429
0.643591
0.0210134
0.00156441
0.00435702
0.000431926
0
0
0.0118458
0.225542
0.550402
0.0982585
0.00260735
0.00175722
6.17037e-005
0
0
0.00530825
0.109902
0.218149
0.0078237
0.00260735
0.000782802
0
0
0
0.0317808
0.036813
0.0844179
0.0035906
0.00434559
0.00200314
0
0
0
0.00599234
0.271108
0.752195
0.325799
0.00169514
0.00503152
0
0
0
0.0167151
0.016905
0.153727
0.103059
0
0.0230511
0
0
0
0.00683278
0.0512947
0.0327304
0.00244043
0.00282523
0.0028458
0
0
0
0.0099574
0.0031295
0.00166536
0.00146426
0
0.0294248
0
0
0
0.0016906
0.000315912
0.00132633
0.00104698
0.029171
0.250053
0.0260447
0.00560113
0.000963259
0.000315912
0.00155184
0.00524448
0.000727216
0.104142
0.633603
0.189961
0.0714846
0.0549153
0.0160406
0.00298826
0
0
0.0120474
0.17776
0.0370207
0.0351774
0.00674282
0.0116987
0.0802087
0
0
0.0215775
0.339286
0.2377
0.268969
0.296404
0.20662