0.0136113
0.0348456
0.0630066
0.0387214
0.191693
0.00328564
0.00391358
0.000835149
0.00880736
0.0126975
0.0552938
0.0359671
0.117944
0.301369
0.0229995
0.00985694
0
0.0010899
0.0960555
0.0896897
0.0777077
0.0988727
0.147492
0.0223671
0.00781802
0.035692
0.0310357
0.106368
0.121279
0.149175
0.251996
0.324004
0
0.0124335
0.049734
0.0251905
0.0135579
0.0734455
0.0647843
0.156922
0.108327
0.00709257
0.00303968
0
0
0.0708192
0.0949854
0.12731
0.194483
0.123418
0.00503805
0.00215917
0
0.0293274
0.0399003
0.202395
0.218223
0.192763
0.0999178
0
0.00141054
0.00564215
0.00367961
0.297315
0.281781
0.234111
0.101565
0.0583917
0.00839675
0.00359861
0.00242938
0.0284906
0.100219
0.0685075
0.0465019
0.0491297
0.0745357
0.0193399
0.017342
0.0477969
0.0623472
0.0981072
0.0583299
0.0320251
0.0268127
0.0248819
0.0232775
0.103461
0.263932
0.0975311
0.344356
0.107618
0.0449264
0.0233356
0.0362554
0.0247152
0.0144391
0.0639391
0.143064
0.189344
0.146059
0.0832804
0.0416807
0.011502
0.0189464
0.049104
0.144354
0.293393
0.0473064
0.0359579
0.0409632
0.114245
0.0274425
0.0216793
0.110956
0.148497
0.0511065
0.0882512
0.105746
0.0849808
0.21638
0.0749685
0.023359
0.0511742
0.0579558
0.0217113
0.0889836
0.183843
0.142607
0.135227
0.0206973
0.0115069
0.0490032
0.0630044
0.0944735
0.273437
0.232895
0.125295
0.209763
0.11228
0.0185769
0.0233674
0.0503228
0.133984
0.0776808
0.116558
0.0743254
0.0915816
0.0305734
0.00728631
0.0137133
0.0254864
0.00387462
0.0438629
0.0806501
0.109388
0.139947
0.18989
0.0418317
0.0171733
0.0127591
0.0195015
0.235374
0.122145
0.0765145
0.084255
0.035123
0.0258066
0.0125729
0.0266815
0.233782
0.291607
0.106101
0.163068
0.106501
0.0644877
0.0614588
0.00871716
0.0207607
0.381906
0.0607144
0.0487226
0.0586143
0.074099
0.161988
0.06694
0.00292336
0.0292421
0.0944746
0.062083
0.078379
0.102947
0.0569969
0.18264
0.119333
0.0332703
0.0289121
0.107568
0.214808
0.0840509
0.0617975
0.0400783
0.0709103
0.066971
0.000318988
0.0803561
0.299195
0.245899
0.119157
0.0878243
0.0380833
0.174393
0.133346
0.0199622
0.0997782
0.218965
0.0187272
0.0182363
0.0240437
0.0561961
0.104421
0.0416582
0.0117011
0.000878572
0.00426794
0.0263356
0.0178956
0.0574831
0.424127
0.296681
0.0126683
0.00167159
0
0
0.0899256
0.063107
0.0826272
0.0412421
0.0850927
0.0736732
0.00702069
0.00542246
0.0147424
0.0644745
0.0789807
0.290702
0.591775
0.146135
0.0350628
0.00100296
0
0.00192196
0.00284538
0.0019335
0.0156517
0.3517
0.303555
0
0
0
0
0
0
0
0.155159
0.337378
0.0259718
0
0
0
0.00383379
0.00994928
0.0861087
0.522698
0.173222
0
0
0
0
0
0.00201762
0.00688475
0.226256
0.332575
0.0124014
0
0
0
0.00327731
0.00196891
0.00449927
0.0475069
0.386407
0.118686
0.00707107
0
0.000914927
0.0392426
0.0568396
0.0668022
0.0933841
0.111949
0.119481
0.0204399
0.00478646
0.0122546
0.00448626
0.00598486
0.0246517
0.144362
0.468298
0.0675955
0.00846402
0
0.000548956
0.0691565
0.197266
0.30886
0.205606
0.133065
0.067138
0.0152003
0.00287188
0.00735277
0.183159
0.154338
0.0292395
0.0321893
0.0334268
0.0205992
0.0102516
0.0429591
0.047544
0.260862
0.2107
0.108942
0.115463
0.0721839
0.00871799
0.0273314
0.0498512
0.0599204
0.164441
0.195169
0.0373472
0.00545636
0.00986943
0.0778759
0.0817918
0.0829853
0.0595932
0.210224
0.248144
0.0425202
0.012418
0.059177
0.0701832
0.180429
0.10415
0.0488269
0.089259
0.224358
0.191129
0.0762076
0.0330362
0.00800215
0.00993483
0.014638
0.0327784
0.180921
0.238803
0.247502
0.046354
0.0127982
0.00918984
0.0132363
0.0353186
0.0640822
0.0952768
0.178037
0.059288
0.0160992
0.104841
0.0586127
0.166554
0.0833408
0.0438715
0.0698735
0.123013
0.16723
0.139174
0.142418
0.0739254
0.182238
0.0927306
0.094932
0.0987893
0.0419492
0.0421421
0.0195212
0.00377115
0.00883429
0.0145039
0.0372509
0.0433999
0.0604133
0.0730841
0.0627043
0.0372663
0.00684711
0.00771351
0.0270146
0.0592319
0.0811703
0.0175268
0.0687266
0.17826
0.107153
0.0394314
0.0377673
0.0341708
0.025586
0.0188112
0.0370872
0.573389
0.504954
0.186988
0.0156165
0.014903
0.0283804
0.0215158
0.0135801
0.0468979
0.044294
0.019563
0.00581802
0.00144967
0.000280213
0.0019328
0.00712297
0.0231001
0.178777
0.0614491
0.00768591
0.00349929
0.00416198
0.000650982
0.000278992
0.00301363
0.0775981
0.158212
0.321368
0.105757
0.0171662
0.0012916
0.000467022
0.00171477
0.001602
0.0339699
0.774938
0.268093
0.0353361
0
0
0
0.00123618
0.00184707
0.165785
0.14842
0.0163573
0.00204511
0.00146817
0.00107117
0.00126032
0.000540139
0.000470305
0.0693927
0.16468
0.0074262
0.00483928
0.00172973
7.64905e-005
0.00144461
0.000324083
0.000639906
0.139022
0.575937
0.0453673
0.0039155
0
0
0
0.00239328
0.00376402
0.146153
0.488618
0.0139086
0.00162371
0.000272613
0
0
0.00143597
0.00315323
0.497126
0.113015
0.0125367
0.00209637
0.000758508
0.000100538
0.000904844
0
0.00404396
0.129493
0.141046
0.0441783
0.00401778
0.00574283
0.00535745
0.00363379
0
0.00900216
0.0752855
0.284303
0.00837194
0.00551939
0.000974011
0
0
0.00859001
0.00513243
0.607731
0.321778
0.0442301
0.00375339
0.00140481
0
0
0.0372708
0.0989834
0.519935
0.177774
0.103226
0.0472664
0.0181767
0.0173202
0.0213609
0.0152765
0.0104458
0.0320814
0.0755354
0.0855643
0.197774
0.237454
0.0886737
0.0315976
0.0423488
0.0042847
0.00568298
0.248457
0.0875829
0.00983131
0.002184
0.00836576
0.0214481
0.121756
0.3588
0.330496
0.051878
0.0484957
0.0572967
0.0509624
0.121407
0.14065
0.384679
0.369786
0.076447
0.00475737
0.0171952
0.112161
0.38038
0.146325
0.0212647
0.0276214
0.00807373
0.000983394
0
0.00289342
0.0105941
0.145038
0.255831
0.100835
0.0202363
0.0134562
0.00163899
0.00267113
0.0071894
0.0338425
0.0879905
0.158496
0.207135
0.440165
0.162448
0.00884989
0
0.000413346
0.00203477
0.0807933
0.150985
0.285706
0.272441
0.0712023
0.00273165
0.000889926
0.00534181
0.0265859
0.0523896
0.177372
0.136762
0.0199072
0.0018648
0.00236734
0.0210367
0.0567868
0.245636
0.154253
0.0875221
0.159031
0.0321266
0.00938595
0.0447832
0.00374534
0.0338101
0.0351216
0.121323
0.159053
0.262079
0.0933841
0.0107719
0.01536
0.275186
0.309649
0.237152
0.167647
0.147624
0.286201
0.0631236
0.0156433
0.313483
0.0461635
0.0882947
0.0383672
0.00340525
0.020914
0.126238
0.129676
0.110364
0.085788
0.117553
0.172055
0.0584814
0.00115594
0.0541131
0.0463456
0.107919
0.101815
0.0639561
0.0602521
0.147712
0.201461
0.123972
0.0253279
0.0602155
0.112531
0.111425
0.140778
0.287012
0.242326
0.112465
0.118854
0.0392783
0.109902
0.0434481
0.120216
0.162141
0.0246634
0.0402522
0.00923255
0.00582572
0.0489045
0.0268994
0.0852851
0.0373052
0.0127707
0.00775361
0.038506
0.0711361
0.0987549
0.0903559
0.0401782
0.100305
0.0280544
0.0311704
0.051098
0.088412
0.0319874
0.0268779
0.0466818
0.0819399
0.054908
0.052303
0.0720986
0.00447414
0.176946
0.711338
0.267164
0.0722779
0.0482567
0.0681831
0.0457698
0.178975
0.000201811
0.0583972
0.0765022
0.0258363
0.0120018
0.00595218
0.00358523
0.000984094
0.00203015
0.00620787
0.314995
0.213979
0.0230896
0.00179147
0.00109229
0.000539635
0
9.37981e-005
0.000866878
0.139118
0.350332
0.0806326
0.00901271
0.00235644
0.00175251
0.0016382
0.0121955
0.0171696
0.593404
0.506281
0.0987639
0.00152356
0.000322419
0
0
0
0.0569067
0.2681
0.0969613
0.00403649
8.37119e-005
3.02689e-005
5.62138e-005
0
0.00409412
0.287762
0.25539
0.0437559
0
0
0
0.00160925
0.00196686
0.0241119
0.0501452
0.428556
0.24733
0.0157791
4.06457e-005
0
0
0
0.00013651
0.228501
0.610255
0.169606
0
0
0
0.00096555
0.00118012
0.000955567
0.295249
0.0960085
0.00754736
0
0
0
0.00423327
0.00665785
0.0814781
0.236021
0.0242121
0.00287205
0.000482201
0
0
0.00253996
0.00583438
0.373134
0.296097
0.340058
0.0233581
0
0
0
0.00253996
0.00399471
0.0990184
0.271975
0.0870245
0.00172323
0.000289321
0
0
0.0026757
0.0182449
0.585828
0.0855017
0.00599724
0.00762274
0.00134519
0
0
0.0118635
0.013641
0.356242
0.0634397
0.00307047
0.00457364
0.000807114
0
0
0.0524544
0.119312
0.307298
0.0644543
0.00392498
0.00457364
0.000807114
0
0
0.0103311
0.129132
0.557249
0.0116021
0.00049944
0.00274419
0.000484268
0
0
0.112541
0.440947
0.384077
0.0220338
0.00247362
0
0
0.000395999
0.00213533
0.0704891
0.249304
0.133147
0.00122457
0.000693855
0
0
0.00825124
0.0350474
0.169183
0.315482
0.0354965
0.000936374
0
0
0
0
0.00314236
0.253635
0.457518
0.138377
0
0
0
0
0.00428362
0.0824519
0.350017
0.532634
0.0506606
0.00247636
0
0
0.00196752
0.02539
0.159867
0.27133
0.203286
0.0105834
0.0185849
0.00500167
0.0208876
0.0559378
0.0569875
0.159842
0.136675
0.0369758
0.0247671
0.00923929
0
0
0.00118051
0.0244375
0.237842
0.482255
0.466926
0.04413
0.0764102
0.0350117
0.0448855
0.0404763
0.0385609
0.150068
0.279096
0.133906
0.183311
0.0118063
0.0297169
0.065637
0.159478
0.192697
0.0661674
0.0370487
0.00611465
0.0158843
0.158788
0.266008
0.256323
0.224084
0.225719
0.0526665
0.0356719
0.0124954
0.10577
0.0577911
0.055132
0.124592
0.131055
0.225472
0.0662336
0.0675578
0.0326711
0.135754
0.0717191
0.0875876
0.208932
0.272756
0.348752
0.0789349
0.180559
0.155629
0.193567
0.0373136
0.12528
0.130167
0.134059
0.0056198
0.00315059
0.0556524
0.0613125
0.0413892
0.0834596
0.0654209
0.0493067
0.139911
0.117393
0.0936071
0.114654
0.137899
0.108821
0.12554
0.125985
0.0323942
0.0556159
0.00761779
0.00189036
0.0398925
0.10592
0.116629
0.066778
0.0443889
0.0319223
0.318968
0.353176
0.122614
0.141552
0.118824
0.114845
0.00516815
0.0216068
0.0294284
0.038603
0.0468884
0.0245784
0.0121318
0.0162861
0.0131719
0.00117329
0.0493246
0.356604
0.259751
0.0330188
0.0104236
0.00430212
0.00583859
0.0220399
0.00128838
0.00655823
0.0456728
0.167226
0.126204
0.0511599
0.0120722
0.00893654
0.00389108
0.000162339
0.0183595
0.266735
0.732836
0.181941
0.0300783
0.00127166
0.00100602
0.000116157
0.00178488
0.052398
0.289929
0.138945
0.0026414
0
0.00012495
0.000434112
0.00367801
0.0141276
0.278792
0.389686
0.140632
0.00106953
0
0
0
0
0.00103184
0.0213044
0.174321
0.358512
0.0546935
0
0
0
0
0.00713742
0.129339
0.387743
0.496907
0.0336926
0
0
0
0
0.0163295
0.386494
0.32338
0.0382249
0.000129877
0
0
0
0
0.083701
0.548853
0.215801
0.00280445
0.00106523
0.000710155
0
0
2.38643e-005
0.00329275
0.218472
0.333369
0.239831
0.00736251
0
0
0
0
0.0149695
0.269067
0.16098
0.0533371
0.00896688
0.00174096
0.000238871
0
0.000303678
0.27805
0.588426
0.0728467
0
0.00598822
0.00399215
0
0
0.0674534
0.312455
0.157542
0.00712345
0
0.00359293
0.00239529
0.00881466
0.045865
0.496835
0.0661561
0.214508
0.0574346
0.00890165
0.0222903
0.00978681
0.00424014
0.00173215
0.00580237
0.0906906
0.0535212
0.0134287
0
0.00864994
0.00634564
0.0129807
0.0268823
0.0535534
0.0590694
0.00346191
0.000692079
0
0
0
0.0219557
0.235836
0.353858
0.0042598
0.000444462
0
0
0
0.00142204
0.232051
0.692177
0.214504
0.0236653
0.00919442
0.00130537
0.000569303
0.000322615
0.000978693
0.0262112
0.0898133
0.0323342
0.00441522
0.00375326
0.000442791
0.00398512
0.00516903
0.0163852
0.187845
0.298298
0.0222871
0
0
0
0
0
0.0111493
0.29697
0.300261
0.0308128
0.000274267
0
0.00055019
0.000183397
0.00167187
0.116965
0.36192
0.289841
0.0171841
2.91137e-005
0
9.87376e-005
0.00088864
0.0031332
0.0857379
0.277931
0.158688
0.00352662
0.000457112
0
0.00385133
0.00128378
0.0294453
0.460294
0.425529
0.136825
0.0086851
0.00382596
0
0.00234983
0.000783276
0.0115459
0.173186
0.292462
0.206963
0.0352159
0.023529
0.00881374
0.00767048
0.0118291
0.0622314
0.106605
0.208958
0.0997093
0.0988688
0.00213903
0
0.0164488
0.00548293
0.139346
0.557305
0.209838
0.0824059
0.0376537
0.00277002
0
0.0131025
0.0551211
0.38871
0.336336
0.1018
0.0471784
0.0368645
0.0315055
0.0190366
0.0287084
0.0934694
0.179009
0.0705102
0.0765895
0.0460685
0.123875
0.0249395
0.00271952
0.0589452
0.189356
0.244555
0.0453133
0.0692185
0.126573
0.114205
0.00275024
0
0.0192774
0.199628
0.512675
0.204657
0.0607942
0.020589
0.0275217
0.00102698
0
0.0379617
0.204737
0.442723
0.142395
0.0171139
0.0271985
0.0128476
0.137227
0.0451167
0.00411839
0.0133049
0.00919626
0.0191912
0.0183336
0.0318172
0.0984449
0.0569173
0.0181367
0.0163956
0.192671
0.2711
0.1447
0.0392305
0.0148863
0.0518763
0.152726
0.0573892
0.0144905
0.0296534
0.0378311
0.0689019
0.050749
0.0277912
0.0701373
0.0453274
0.0175928
0.0107415
0.100623
0.367505
0.541667
0.172354
0.0120859
0.04481
0.00104865
0.000291017
0.0377754
0.159948
0.124064
0.0600687
0.00272337
0.000453359
0.000975892
0
0.00161917
0.102024
0.538602
0.211719
0.0452756
0.000138279
4.60929e-005
0
0.000519531
0
0.019565
0.103045
0.152345
0.248422
0.0537813
0.000833737
0.00246491
0
0
0.049024
0.335129
0.417933
0.340253
0.0281957
0
0
0
0.00270394
0.0426213
0.291699
0.125558
0.00228872
0
0
0
8.96442e-005
0.00642797
0.145993
0.501432
0.114089
0
0.000344512
0.00195223
0
0
0
0.0159641
0.204578
0.373696
0.0720755
0.000529002
0
0
0.00062751
0.00251004
0.063529
0.315646
0.498742
0.0736425
0.000574187
0.00325372
0
0.00192054
0.0388396
0.317514
0.655827
0.0528139
0
0.00270527
0.0153299
0.000112966
0.0139533
0.0696973
0.142527
0.158594
0.0251399
0.00187551
0.00301007
0.0119145
0.00592368
0.00692501
0.0205853
0.115781
0.346139
0.32995
0.0730776
0.00871815
0.0276394
0.000973803
0.0236971
0.018379
0.0604664
0.0716538
0.0299163
0.00739597
0.0151479
0.0302276
0.0185906
0.146118
0.168409
0.135741
0.0932457
0.146928
0.0318976
0.0429237
0.0322351
0.069281
0.169165
0.0457277
0.0336462
0
0.0801821
0.0312752
0.0958065
0.0876722
0.101771
0.137556
0.0242062
0.0841046
0.0369358
0.0524701
0.00623956
0.0764858
0.0677494
0.152599
0.143082
0.0106089
0.021257
0
0.0746715
0.0254593
0.137697
0.0519906
0.14826
0.053255
0.0441001
0.0119797
0.0132124
0.0212254
0.0243263
0.08191
0.0990758
0.0458216
0.0247478
0.0433376
0.0796914
0.0924868
0.0704762
0.104212
0.406776
0.299567
0.0396413
0.0401848
0.0214605
0.0145928
0.00936097
0.0593492
0.0539917
0.108334
0.0346787
0.0360173
0.038554
0.0639066
0.146705
0.0702018
0.197397
0.114651
0.150555
0.0634976
0.0103421
0.000159832
0.000971481
0.00398748
0.00337838
0.0125837
0.100961
0.115772
0.0216595
0.000947419
7.77204e-005
0.000104264
0.00202327
0.000593329
0.145947
0.587448
0.196237
0.00681296
0.00147668
0.00234019
0.00359359
0.0105037
0.0144592
0.0610575
0.0569526
0.0248917
0.00491229
0.000114063
0.000306159
0.000455839
0.00235391
0.0899563
0.589161
0.352882
0.0380457
0.00114726
0
0.0001808
0
0.00414076
0.0016187
0.203376
0.380524
0.0401837
0.000162788
0.00343518
0.00010848
0
0.00849858
0.0306053
0.271994
0.235962
0.0231283
0
0.00206111
0
0
0
0.0739562
0.534921
0.250342
0.0132398
0
0
0
0
0.00360848
0.100691
0.453792
0.192673
0.0219877
0
0
0
0
0.0409911
0.105587
0.308601
0.2428
0.0523606
0
0
0
0.00118125
0.041287
0.0842827
0.206332
0.159842
0.0210327
0.0195392
0.00311425
0
0
0.0460294
0.329241
0.485961
0.244519
0.034138
0
0
0
0.064305
0.268574
0.26834
0.190522
0.113687
0.00896883
0.0108587
0.00186855
0.0519476
0.0482146
0.0113577
0.0242962
0.0475459
0.0468559
0.0605538
0.0580711
0.0508951
0.0313758
0.0528014
0.00917348
0.0171791
0.154222
0.407246
0.293966
0.0368102
0.146402
0.0540425
0.0843827
0.0106986
0.0392469
0.11951
0.0524751
0.0862714
0.0731993
0.0525115
0.0622115
0.0880633
0.0447396
0.05563
0.297947
0.222896
0.240438
0.0731617
0.197412
0.000529241
0.000978352
0.000148314
0.00725083
0.052142
0.188878
0.0662771
0.00167042
0.00780117
0.000533337
0
0.000252891
0.0372969
0.240568
0.41767
0.048693
0
0.000533337
0.00240594
0.00196959
0.00511153
0.00756477
0.0876734
0.209367
0.0419168
0.00219036
0.0108638
0.00373336
0
0.000581905
0.00282515
0.140682
0.742041
0.128387
0
0.00373336
0.00108157
0
0.000700904
0.0353118
0.268324
0.205476
0.0174775
0
0.00108157
0.000872844
0.00218115
0.00641825
0.039448
0.351174
0.27723
0.0383982
0.00141805
0.000648944
0.0090725
0
0
0.00130144
0.107122
0.426768
0.127341
0
0.0090725
0.00704509
0.00214258
0.00321387
0.000846024
0.117733
0.534762
0.3241
0.0261803
0.00704509
0.0019053
0.015095
0.0235351
0.0374352
0.220104
0.24523
0.0543971
0.0114054
0.000398337
0.0109856
0.0127523
0.0215534
0.0156134
0.0332006
0.0326706
0.019743
0.0143829
0.0103726
0.00084779
0.0146764
0.0221601
0.0100034
0.0717063
0.465743
0.632948
0.177764
0.000869767
0.00609059
0.021494
0.0209947
0.015679
0.0323945
0.0915219
0.240381
0.162027
0.026887
0.105282
0.0286267
0.0499918
0.0221305
0.0124955
0.0279904
0.0418794
0.0266114
0.105894
0.135307
0.0198309
0.0313927
0.00216881
0.0244711
0.0130906
0.053315
0.0163459
0.131898
0.0879924
0.12325
0.0909441
0.0335852
0.0355423
0.131553
0.157262
0.195473
0.251963
0.180029
0.0846739
0.0820784
0.00927114
0.0472386
0.0142419
0.0121989
0.0928593
0.237369
0.0300008
0.00891755
0.00608245
0.000200697
0.0358146
0.0241901
0.0412621
0.0103054
0.0264097
0.028635
0.0511636
0.0572629
0.0045
0.0937907
0.0508314
0.0736827
0.0153479
0.0118278
0.0731158
0.076611
0.0550994
0.0213122
0.0552598
0.00831606
0.0115817
0.0147498
0.05969
0.108772
0.504233
0.524983
0.0270158
0.0863272
0.0112999
0.0456294
0.00932054
0.0470755
0.00238754
0.00849709
0.0207671
0.0437066
0.0373176
0.00806685
0.0126589
0.00204029
0.000380859
0.000284857
0.00318532
0.0517803
0.330306
0.357765
0.035329
0.00649258
0.000901646
0
0.00485761
0.110256
0.230295
0.0696811
0.011635
0.00098147
0.0127646
0.00245501
0.00207124
0.00388288
0.081877
0.422709
0.640994
0.103632
0.00422601
0.00738736
0.00140516
0
0
0
0.0141152
0.265709
0.325487
0.0338789
0.00537598
0
0
0
0
0.00418905
0.205674
0.328222
0.0456712
0.00895996
0
0
0.00915895
0.0243561
0.0914139
0.54685
0.128396
0.00550068
0.000767997
0
0
0.00549537
0.0122001
0.00893883
0.478831
0.209838
0.0359754
0.00231897
0
0
0
0
0.0261389
0.306352
0.374487
0.0537148
0.0024714
0
0
0.00194668
0.0684903
0.2473
0.24579
0.127266
0.0197323
0
0
0
0
0
0.017719
0.427973
0.385199
0.0815654
0.0121005
0.00704032
0
0.0136267
0.0587246
0.140206
0.231117
0.250821
0.0854782
0.060349
0.092437
0.00785444
0.07046
0.0578211
0.0169729
0.074472
0.104316
0.0512619
0.104818
0.0951347
0.0421788
0.0579068
0.0228633
0.0724872
0.138246
0.325286
0.104808
0.153187
0.121052
0.11315
0.0268179
0.0132601
0.0484342
0.239722
0.143153
0.0502326
0.0482048
0.042662
0.011231
0.0342588
0.0410029
0.104671
0.184815
0.204554
0.0414428
0.156384
0.0957744
0.0415021
0.00330534
0.000726682
0.0103885
0.0175593
0.125204
0.129867
0.0312854
0.00748849
0.00691421
0.00235127
0
0.00134196
0.00249221
0.108887
0.654982
0.307304
0.0206779
0.00235127
0.00501286
0.00685988
0.00945436
0.00893188
0.0507096
0.0351032
0.0845162
0.0465918
0.0071822
0.000650144
0.00206669
0.00103589
0.000951507
0.0388744
0.215389
0.469723
0.159689
0.00320209
0.00862535
0
0
0
0.0191261
0.271675
0.246463
0.0338212
0.00862535
0.0108305
0.00391222
0.000546348
0
0.0214827
0.28903
0.404747
0.123547
0.020948
0.00307608
0
0
0
0.00476307
0.121876
0.404239
0.111482
0.00307608
0.00643395
0.0248359
0
0
0.0163967
0.190614
0.497413
0.215883
0.036118
0.00108997
0.00368273
0.00120521
0.000303747
0.00387757
0.0763068
0.269258
0.215047
0.0156293
0.00329527
0.00269347
0.00138581
0.000715551
0.00301746
0.0119149
0.157411
0.293725
0.0272502
0.00162384
0.0201548
0
0
0.00454712
0.0536577
0.19533
0.370046
0.0648888
0.00857853
0.0038014
0
0
0.000454789
0.00545793
0.147868
0.692613
0.104043
0.0251092
0.00345526
0.00209971
0.000356101
0.00303292
0.00625553
0.0304467
0.11867
0.0551106
0.0780384
0.00226808
0.0024774
0.000481485
0.00401794
0.00193671
0
0.0192192
0.0959327
0.10373
0.00118197
0
0
0.00158458
0.00193671
0.0440976
0.551652
0.263758
0.43405
0.0120939
0.00014772
6.33084e-005
0.00222081
0.00116203
0
0.118739
0.5452
0.0562512
0.0374506
0.0134914
0.00556543
0.0058233
0
0
0.00189534
0.0402824
0.0348572
0.259957
0.137156
0.00813162
0.0044058
0
0.00042742
0.000184015
0.0078681
0.340646
0.204293
0.020317
0.00284893
0.0035835
0.000339676
0
0.00129839
0.212921
0.180256
0.746279
0.197071
0.00458477
0.00541099
0.00449593
0.000706066
4.62962e-005
0.0263539
0.0174458
0.307559
0.260811
0.0219781
0.00124553
0.000415134
0.00119871
0.000299677
0.00320337
0.0312221
0.209321
0.352881
0.232802
0.0216145
0.0126324
0.000719226
0.000179806
0.00417053
0.0735741
0.583519
0.186672
0.00692208
0.00425965
0.00974895
0.00198018
0
0.0179409
0.0762174
0.300053
0.221454
0.097368
0.0278421
0.0297418
0.00118811
0
0.0291937
0.0466707
0.166967
0.176255
0.470905
0.061969
0.0200941
0
0
0.00126162
0.0499951
0.0813947
0.0511679
0.48163
0.175101
0.0740428
0.00208511
0
0.00147726
0.062122
0.255802
0.249963
0.217189
0.0402925
0.0247915
0
0
0.0095561
0.136581
0.139069
0.125006
0.190269
0.19604
0.056251
0.000297873
0
0.0154143
0.0176636
0.00117386
0.0121243
0.201357
0.317423
0.126743
0.0265581
0.0142855
0.000739701
0.00671873
0.03241
0.0487575
0.106719
0.227507
0.0846748
0.130928
0.168723
0.010527
0.0645207
0.0128862
0.0459214
0.169868
0.437044
0.099316
0.0116141
0.00554797
0.00771832
0.00759403
0.125252
0.379065
0.268595
0.301361
0.0418031
0.0548953
0.0565261
0.00150386
0.0134316
0.00328476
0.0467205
0.192958
0.184102
0.0474358
0.00434639
0.00188287
0.013556
0.0295159
0.0500315
0.0971722
0.223991
0.168078
0.0477845
0.0392451
0.0315515
0.0127504
0.154508
0.0545353
0.0664022
0.121829
0.121313
0.107808
0
0.00449076
0.0521515
0.0806859
0.0680379
0.109353
0.316847
0.13788
0.196896
0.00147221
0.00263854
0.00481942
0.0158242
0.0406233
0.0351463
0.0668944
0.0201782
0.0117457
0.10776
0.110117
0.0170929
0.00336836
0.0207519
0.0101917
0.0227917
0.026536
0.175186
0.595526
0.36115
0.0102558
0.0129705
0.0572524
0.0461349
0.137021
0.0191011
0.0267077
0.0155854
0.0324966
0.00415249
0.00978578
0.0512756
0.0296797
0.097212
0.0428791
0.129372
0.213308
0.128283
0.0176407
3.19154e-005
0.000127662
0.000190848
0.000354431
0.00662008
0.113265
0.332669
0.0992995
0.000130746
0.000790544
0.0150204
0
0
0.0136809
0.178479
0.592584
0.315445
0.058684
0.00204942
0.00426995
0.00299352
0.00825104
0.00918133
0.0674217
0.119663
0.090055
0.0243223
0.00380664
0.00606147
0.000959235
0.000433594
0.00813264
0.0611292
0.209596
0.397242
0.184955
0.000416617
0.00791573
0
0
0.00205436
0.0299874
0.130007
0.288895
0.0853685
0.0114484
0.0038069
0
0
0
0.00523344
0.0760385
0.581287
0.159767
0.000783799
0.000787862
0.000117992
0
0.000580034
0.00574227
0.0422587
0.272794
0.182592
0.00785139
0.00160565
0
0
0
0.000747634
0.0234354
0.490845
0.318762
0.0567864
0.00255134
0
0
0
0
0.0202993
0.321323
0.243063
0.293696
0.0121334
0
0
0
0
0
0.0890795
0.416142
0.0515122
0.0015733
0
0
0
0
0.0070548
0.237909
0.360102
0.283892
0.00965707
0
0
0
0
0
0.0556149
0.47619
0.35829
0.143353
0.00743989
0
0.00141588
0.000943919
0
0.00216951
0.184043
0.300142
0.425254
0.0789283
0
0.00991114
0.00877285
0.000721805
0
0.0267583
0.37965
0.0748458
0.00133347
0
0.000849527
0.000566351
0
0.00165147
0.214978
0.452144
0.246814
0.0285451
0
0.00594669
0.0042738
0.000103115
0
0.0556877
0.229684
0.430687
0.116524
0.00417557
0.00751769
0.0149802
0.00313477
0
0.0287219
0.104303
0.297933
0.229007
0.1003
0.0118465
0.0174891
0.00188086
0
0.0345629
0.35838
0.317674
0.1231
0.00417237
0.0040935
0.00417484
0.000447824
0
0.0327475
0.117627
0.393472
0.248031
0.0304537
0.00318438
0.00431473
0.000268695
0.00245836
0.0325096
0.0367462
0.251096
0.345806
0.243346
0.0174153
0.0104754
0
0
0.0123849
0.108934
0.106529
0.151244
0.184883
0.242812
0.0624709
0
0
0.0327862
0.0492199
0.381059
0.277837
0.102511
0.0424519
0.0155845
0
0.00485879
0.0142027
0.0381217
0.0929565
0.112344
0.292373
0.271044
0.0849206
0.00448996
0.000694113
0.0137747
0.0315488
0.00772592
0.0305165
0.13628
0.379341
0.0865819
0.0419208
0.0178388
0.0170651
0.0769771
0.0870679
0.242523
0.162012
0.338281
0.0424608
0.069868
0.0755542
0.0938113
0.00686986
0.00105632
0.00931175
0.152052
0.288037
0.1217
0.112461
0.0683608
0.0215328
0.197797
0.0243253
0.0237632
0.0369872
0.216052
0.0764042
0.18112
0.307692
0.274666
0.170347
0.0946978
0.0656902
0.111914
0.0550749
0.0813348
0.0204219
0.00694953
0.0210275
0.111076
0.0751668
0.108013
0.191385
0.0266627
0.163429
0.0366873
0.034938
0.0153744
0.0644716
0.0667344
0.0826132
0.0948336
0.163879
0.131913
0.0565344
0.0111961
0.0243633
0.128532
0.0542179
0.0945713
0.0802629
0.0421619
0.184797
0.0791987
0.113781
0.1204
0.0323828
0.0713681
0.0805805
0.122351
0.00829776
0.0644251
0.0260976
0.055165
0.0256598
0.036574
0.100523
0.0854408
0.197458
0.0203194
0.0698073
0.123172
0.0852207
0.0580146
0.132635
0.0582935
0.0438977
0.0335261
0.00744569
0.0504323
0.0288046
0.135887
0.156798
0.208034
0.123498
0.0734396
0.0800269
0.00294372
0.0457548
0.0699446
0.196176
0.231186
0.0218426
0.0760635
0.0483247
0.0554761
0.00716083
0.0324398
0.0753005
0.123909
0.111039
0.0383835
0.122694
0.0380551
0.00888661
0.00502409
0.0186936
0.0570378
0.493128
0.438497
0.0932596
0.102135
0.0916103
0.0427313
0.00216811
0.00737431
0.022799
0.0341971
0.0710469
0.0516543
0.144969
0.142791
0.0276464
0.0108641
0
0.0379683
0.0513362
0.0715925
0.0120622
0.0140517
0.00932641
0.000976449
0.000290337
0.000871011
0.00650624
0.239195
0.288214
0.0221384
0.00141745
0.00561938
0.00155749
0.000971618
0
0.000430379
0.499429
0.596121
0.0137376
0.0260171
0.0636026
0.00856333
0.00170661
0
0.00981654
0.0455747
0.0495446
0.0376457
0.0100763
0.0403742
0.0111493
0.00883342
0.0290385
0.0209487
0.101775
0.180767
0.0966579
0.0114697
0.000546861
0.00187875
0.00187875
0
0
0.190171
0.475799
0.371307
0.0993964
0.00641308
0.00112725
0.00112725
0
0
0.047014
0.585375
0.0716362
0.0279327
0.00421388
0.0157868
0.0310767
0.0430707
0.00859214
0.0318321
0.111879
0.148288
0.169396
0.0621433
0.0427937
0.0500244
0.0286378
0.000745293
0.0122862
0.0739677
0.376526
0.210793
0.0144032
0
0
0
0
0.00264051
0.320823
0.380713
0.430893
0.0939394
0.00492355
0.00118119
0
0
0
0.11032
0.107394
0.226576
0.113188
0.0313053
0.0161302
0.00203946
0
0.0015843
0.0365218
0.090013
0.292388
0.134602
0.0316558
0.0403302
0
0
0
0.0147962
0.25685
0.450695
0.274771
0.0501877
0.0141592
0.0155414
0.00067287
0.00320849
0.0219718
0.0828335
0.399788
0.338754
0.0599851
0.0350519
0.0468388
0.00524752
0.0418919
0.0602413
0.051008
0.189947
0.117108
0.0798073
0.084277
0.0384099
0.0152802
0.0124231
0.00221469
0.0390617
0.0394799
0.0553699
0.053801
0.0632108
0.0915614
0.0508536
0.0798111
0.0624449
0.110561
0.314048
0.224999
0.0313118
0.102759
0.0301038
0.00487565
0.0454771
0.108904
0.0561192
0.115752
0.104696
0.26401
0.437075
0.0921472
0.0720075
0.0336374
0.0403236
0.09319
0.046298
0.0473387
0.00752048
0.0422006
0.0329597
0.0438122
0.0799664
0.157683
0.0729384
0.0644524
0.0691407
0.0219415
0.187668
0.0512962
0.128976
0.100324
0.107434
0.0144031
0.00505948
0.00896315
0.14785
0.220076
0.102139
0.146789
0.123126
0.0631906
0.337106
0.0132415
0
0.0260278
0.058739
0.0712803
0.148884
0.331896
0.297554
0.0340587
0.00764847
0.010877
0.0130053
0.0685768
0.0502005
0.123875
0.192564
0.115311
0.199351
0.0251366
0.00266337
0.00286976
0.0304875
0.118186
0.111331
0.234968
0.210079