0.0222385
0.00792545
0.00592924
0.0116238
0.0303384
0.0132883
0.00598561
0.00357584
0.021092
0.0696058
0.0138969
0.00339384
0.0067508
0.0179816
0
0
0.00484599
0.0807602
0.121272
0.0582877
0.141767
0.124368
0.214081
0.00797296
0.00359137
0.000510834
0.0770049
0.448855
0.114363
0.212511
0.19292
0.243708
0.105612
0.0704079
0.0339219
0.573687
0.0168415
0.021283
0.0763547
0.0562163
0.0804575
0
0
0.00387544
0.0267119
0.0105101
0.152331
0.39197
0.239055
0.160047
0.000149391
0.0433768
0.0495394
0.00799797
0.106938
0.0724643
0.182064
0.162304
0.157221
0.0666336
0.0444224
0.0271281
0.181353
0.0422955
0.212268
0.473222
0.378717
0.186653
0.0105648
0.0194536
0.062711
0.0605447
0.00372952
0.11161
0.220783
0.146504
0.116949
0.000302506
0.0334088
0.0341558
0.00171067
0.0308754
0.0791083
0.0834796
0.0717337
0.137137
0.000181504
0.00644293
0.00507281
0.00119089
0.0515811
0.210363
0.172091
0.209347
0.0873579
0.00211754
0.011591
0.0267151
0.0319033
0.343518
0.716161
0.0481517
0.047903
0.0446584
0.00127053
0.00443959
0.00344508
0.013144
0.0596671
0.0194516
0.00219723
0.0039925
0.0138257
0.000236908
0.000145646
3.64116e-005
0.00279343
0.172227
0.0228314
0.00262563
0.00647294
0.00190743
0.00309953
0.000908658
9.70044e-005
0.0066954
0.475817
0.330973
0.00108044
0.000538329
0.000940151
0
0.000242744
6.0686e-005
0.00357841
0.727303
0.144464
0.000318247
0.000880421
0.000119608
0
0
0
0.0913408
0.118228
0.0267444
0.00836322
0.015382
0.00258971
0.00162778
0.00072107
7.69783e-005
0.00996645
0.109197
0.0407108
0.03205
0.0462804
0.0200306
0.000163378
0.00010301
1.09969e-005
0.0257523
0.572899
0.0256599
0.00179999
0.00144417
0.000203961
0
0
0
0.209971
0.496452
0.0333591
0.0155289
0.00526869
0.00116103
0
0
0.00442511
0.538307
0.0703577
0.022726
0.0384279
0.0635538
0.0307197
0.000206059
0
0
0.032005
0.0387281
0.00639357
0.028126
0.0447959
0.0390424
0.0109522
0.00124373
0
0.0292792
0.270982
0.0244496
0.0217282
0.0115551
0.00156916
0
0
0.0591848
0.665456
0.120206
0.012609
0.0201224
0.0113324
0.00585357
0.00435442
0.000713376
0.200327
0.574564
0.0297241
0.0130542
0.031954
0.0814435
0.107769
0.0471511
0.00437004
0
0.0253452
0.01903
0.0258082
0.0172104
0.089281
0.106563
0.0332697
0.000846597
0.00056633
0.00144701
0.115226
0.0440675
0.0423969
0.040361
0.0584187
0.0182791
0.00233025
0.461204
0.650261
0.0589689
0.0430464
0.0568436
0.0546904
0.104063
0.0446278
0.000332892
0.200195
0.204819
0.073811
0.079478
0.0591025
0.162708
0.147622
0.034392
0
0.0110411
0.00405467
0.0478285
0.0831631
0.0937694
0.228089
0.134635
0.0478464
0.0272623
0.0621753
0.012254
0.0913589
0.0980891
0.19627
0.218164
0.158571
0.111371
0
0.0631456
0.122997
0.0398286
0.0930182
0.155505
0.268028
0.126125
0.0656364
0.0300541
0.0683916
0.0982781
0.00763097
0.0107492
0.00785001
0.0317375
0.025557
0.0121689
0.0175307
0.0192145
0.00428039
0.0160294
0.0780186
0.0900484
0.0249357
0.22735
0.0705975
0.0351175
0.00976831
0.0073357
0.0245678
0.0150514
0.00986932
0.0285044
0.0418923
0.0176394
0.0216664
0.0183604
0.0118564
0.0275824
0.134922
0.249316
0.445822
0.681804
0.0455379
0.0237107
0.00622392
0.00444132
0.0685414
0.0402371
0.0784675
0.0621206
0.173658
0.0169011
0
0
0.0174295
0.164063
0.112684
0.112472
0.139775
0.271726
0.0726013
0.0282103
0.00500003
0.128992
0.331969
0.16589
0.117412
0.194329
0.21037
0.0998522
0.0114299
0
0.07594
0.388077
0.260359
0.156286
0.217623
0.378076
0.117618
0.00566289
0
0.059838
0.0575366
0.0817522
0.0619572
0.077716
0.0967952
0.0365033
0.0209535
0.0207869
0.0413265
0.0363927
0.229745
0.133383
0.085614
0.0516457
0.0337509
0.0141215
0.0493893
0.0148485
0.214527
0.21522
0.12254
0.0825997
0.128267
0.0291379
0.00613147
0.053556
0.0222188
0.182147
0.679827
0.412319
0.0172059
0.0252747
0.0508898
0.0109002
0.0981961
0.0247022
0.0376319
0.24777
0.0369103
0.0293517
0.0104361
0.00600136
0.00459078
0.0115035
0.00773892
0.204804
0.492964
0.00733692
0.00456369
0.0036091
0.000142528
0.000735267
0.0013644
0.0060954
0.0469825
0.492964
0.222326
0.00251779
0.00155409
0.00960635
0.00297386
0.0112545
0.00230785
0.236965
0.492964
0.0806625
0.000338396
3.75996e-005
0
0.000365769
0.000707978
0.0165008
0.345565
0.295961
0.000447235
0
0
0
1.76294e-005
4.40734e-006
0.0085558
0.468165
0.0925753
0.000745392
0
0
0
0
0
0.0740927
0.293802
0.40213
0.0142253
0
0
0
0
0
0.0378131
0.468165
0.196762
0.00812554
0
0
0
0
0
0.0760984
0.442283
0.00594932
0.000110061
0
0
0
0
0.000117681
0.202123
0.269401
0.00140669
0
0
0
0
0
0.0144206
0.47335
0.357356
0.0311695
0.000770428
0
0.000513337
0.000513337
0
0.00486666
0.192655
0.162335
0.000167935
0
0.000755969
0.00661723
0.00359336
0.000605593
0.0792205
0.470503
0.0692106
0.00112145
0
0
0
0
0
0.0797648
0.447532
0.0184105
0.00120496
0.000484526
0.000141778
0.000141778
0
0.000482324
0.288202
0.416248
0.0244178
0
0
0.0007615
0.00437759
0.00133159
0.0205214
0.170925
0.337446
0.00856915
0
0
0.000108786
0.000435143
0
0.0721913
0.447938
0.367997
0.00654902
0.00251882
0.00125125
0.000558964
0.00107002
0.000170206
0.00949027
0.310521
0.180827
0.00729333
0.00448579
0.00375881
0.00169746
0.00390102
0.00359681
0.0294054
0.24066
0.0675532
0.00217169
5.01807e-005
0
0
0
0
0.120909
0.529588
0.176002
0.0019459
0.000761817
0.000286881
0.000118614
0.000147267
0.000343624
0.38279
0.529588
0.0442134
0.0111387
0.010055
0.0185989
0.0136541
0.00748645
0.00859217
0.0353866
0.147234
0.0398295
0.0237173
0.0164847
0.0207081
0.016882
0.00613206
0.00419415
0.00883481
0.024714
0.0200323
0.00667616
0.00724145
0.00986963
0.00230398
0.000620086
0.00292509
0.691063
0.557
0.0280551
0.0368325
0.0273045
0.0146621
0.00341639
0.00340824
0.0162166
0.254199
0.136424
0.0245533
0.0146337
0.00847373
0.00315078
0.00851268
0.0180546
0.00723677
0.00530917
0.00700623
0.00563037
0.00525749
0.0149246
0.0911482
0.360119
0.221284
0.0106308
0.00521602
0.00322267
0.000809271
0.0168714
0.010368
0.0126494
0.0639758
0.0335058
0.00881596
0.0273542
0.0166427
0.0109179
0.00232486
0.00203986
0.195548
0.760235
0.337292
0.00708726
0.012597
0.00546208
0.00191423
0.16701
0.0463741
0.0523218
0.142913
0.0652524
0.0904582
0.0261778
0.0269675
0.115562
0.169075
0.116109
0.151504
0.218296
0.118308
0.0429705
0.00510155
0.00140045
0.0554237
0.102764
0.0554757
0.0632947
0.131999
0.148768
0.0656527
0.0685561
0.145826
0.140333
0.0971738
0.099891
0.582897
0.497385
0.114876
0.0206703
0.0193269
0.00980317
0.0518288
0.0931599
0.156323
0.1248
0.0956704
0.0455284
0.00504953
0.000257888
0.00842715
0.00549226
0.0894488
0.453467
0.266271
0.0726793
0.00621521
0.00396323
0.000429813
0.0140453
0.00672406
0.0380386
0.143532
0.453467
0.250851
0.0225004
0.000311086
0
0
0.000961944
0.0287104
0.229271
0.453467
0.234234
0.00307837
0
0
0
0.000408318
0.0164194
0.385912
0.275858
0.0163319
0.00015918
0.00143262
6.16628e-005
0.00201499
0.000826446
0.0525658
0.463197
0.186839
0.00239776
0
0
0
0
0.00646818
0.00233453
0.140757
0.447214
0.0985144
6.50488e-005
0
0
0
5.85791e-005
0.00459844
0.276426
0.410862
0.0401536
0
0
0.000507588
0.00118437
0
0.158403
0.586424
0.078333
0.000779339
0.00332995
0.00282073
0
0
0.0248314
0.385717
0.352816
0.0114251
0.0034715
0.0155598
0.0205288
0
0
0.0500605
0.0631311
0.374198
0.169473
0.0170064
0.032986
0.00609817
0.00325574
0.0126354
0
0.168549
0.215267
0.0201469
0.042597
0.164299
0.0517706
0.00815515
0.0152321
0.0119783
0.394964
0.0997184
0.0151328
0.0126542
0.036045
0.0248173
0
0.0241062
0.236987
0.146623
0.0041057
0.097703
0.0292968
0.0779768
0.0394254
0.00987665
0.18172
0.454032
0.13896
0.124511
0.0886589
0.175159
0.151517
0.075832
0.0249883
0.0167946
0.0649987
0.0622485
0.0149638
0.344774
0.354319
0.0931049
0.056812
0.0642334
0.116075
0.138502
0.0253352
0
0.0259464
0.00799133
0.0265621
0.00821519
0.0700653
0.249044
0.154268
0.00952502
0
0
0.00300785
0.00961
0
0.253714
0.573323
0.153907
0.0292113
0.00187613
0.0987442
0.0681777
0.0523981
0.0295634
0.0884994
0.185923
0.107604
0.0235776
0.00312688
0.0281419
0.0726646
0.16646
0.039214
0.264824
0.484799
0.0628046
0.00135213
0
0
0.000490422
0.00147126
0
0.192669
0.309521
0.0418698
0.00013681
0
0
0
0
0.00417975
0.515571
0.326976
0.00490601
0.0106946
0.00023298
0.00209682
0.0158645
0.0313008
0.0119726
0.310398
0.231493
0.00636772
0.00152779
0
0
0.000275397
0.0117539
0.0559396
0.515571
0.145266
0.00087409
0.000226701
0.000353972
0.000260584
0
0
0.0260321
0.451817
0.126967
0.000504773
0.00308513
0.00227994
0.000814767
0.00112585
0.0028083
0.078224
0.237878
0.0427129
0.00259606
0
0
0
0
0.0113864
0.160498
0.501028
0.0410042
0
0.000157161
0
0.00309735
0.00625987
0.00353578
0.408132
0.468592
0.014703
0.000157161
0.00245151
0.00114549
0.00802254
0.0780821
0.0367891
0.0338057
0.0340302
0.00517219
0.00275313
0.000252017
4.46425e-005
0.0630316
0.584403
0.211042
0.00245559
0.00374314
0.000896762
0.000441813
0.000185053
0
0.0338756
0.19242
0.0738385
0.186868
0.0952825
0.00081954
0.000185053
2.64361e-005
0
0.064193
0.584403
0.33024
0.0128037
0.00190448
6.08208e-005
2.64361e-005
0.0647266
0.0903309
0.0783227
0.109402
0.109584
0.0106681
0.0171714
0.0461895
0.0244458
0.0283304
0.0380694
0.337355
0.501875
0.142505
0.00533273
0.00520774
0.00286959
0.00518733
0.235388
0.180606
0.0687678
0.0972841
0.0687885
0.00975318
0.0187396
0.0580959
0.0480944
0.0909264
0.119641
0.116974
0.519232
0.305725
0.000480082
0.00346331
0.0478458
0.00962306
0.00460043
0.0437754
0.327369
0.316079
0.0545297
0
0
0
0.000110614
0.00249478
0.0442777
0.379951
0.254647
0.016354
0
0
0
0
0
0.0124197
0.0597854
0.455386
0.219784
0
0.000432922
0.00555534
0
0
0.00502156
0.127603
0.463386
0.196491
0.00221753
0
0
0
0
0.0317111
0.598926
0.236679
0.00463852
0
0
0
0
0.000591293
0.0733631
0.431574
0.106069
0.00437662
0.000588632
0.000954773
0.0022278
0
0.00272281
0.00478816
0.265897
0.429756
0.139363
0.0105433
0
0
0
0.00590369
0.00707157
0.151619
0.108149
0.0585855
0.011979
0.000641325
0.000318257
0
0.00704328
0.0921523
0.176727
0.0696084
0.0478859
0.00455973
0.00570931
0.0221577
0
0.054288
0.126872
0.188094
0.176929
0.222109
0.0349473
0.014301
0.0279019
0.0182832
0.00205367
0.039281
0.198474
0.200211
0.175149
0.0109273
0.00166852
0.00316538
0
0.102855
0.29891
0.560944
0.396014
0.172343
0.00560574
0.00216484
0.004847
0.0363267
0.0906243
0.10097
0.183668
0.288282
0.113107
0.0454846
0.039305
0.0129313
0.0705197
0.0451208
0.0150164
0.240668
0.435631
0.0256323
0.0282118
0.120243
0.0880324
0.127845
0.233468
0.217566
0.254479
0.229018
0.0301943
0.00984683
0.0309862
0.0340278
0.197792
0.112328
0.0238965
0.074001
0.174382
0.101028
0.0875978
0.193274
0.0968988
0.247429
0.00586415
0.00760258
0.166653
0.154091
0.0612426
0.0416309
0.0717842
0.0992599
0.107109
0.0294254
0.012671
0.2341
0.287412
0.219518
0.0629078
0.118138
0.151313
0.0634182
0
0.00456155
0.137347
0.268633
0.257924
0.0680667
0.0666273
0.0316229
0.0498384
0.00408396
0.00760258
0.280346
0.513147
0.270517
0.033735
0.0249879
0.00842139
0.0151426
0.015714
0.000942601
0.0231444
0.0562635
0.043717
0.0506685
0.256235
0.0877032
0.00528817
0.00224486
0
7.78743e-005
0.00165999
0.020092
0.201409
0.625494
0.0508215
0.000748285
0.00224486
0.00056556
0.0339198
0.0722338
0.0335713
0.0975991
0.0954381
0.00537222
0.000748285
0.000320694
0
0.000582762
0.00263425
0.0904982
0.518764
0.342018
0.00322333
0.000106898
0
0
0
0
0.0164993
0.197668
0.29957
0.00294865
0
0
0
0.00737586
0.011745
0.0122688
0.509758
0.289081
0.000680816
0
0
0
0
0.00256786
0.105508
0.336176
0.148697
0
0
0
0
0.00482438
0.0266365
0.209059
0.52044
0.119197
0.00229
0
0
0
0.0654559
0.17246
0.0342913
0.25755
0.0824371
0.00237958
0.00177202
0.0198017
0
0.0961382
0.489089
0.140098
0.0608114
0.0172018
0.0121238
0.035909
0.0121689
0.00354166
0.0381633
0.145948
0.180173
0.41531
0.113035
0.0268116
0.0690207
0.23593
0.00590277
0.0536918
0.237777
0.0808356
0.131414
0.113845
0.107377
0.396917
0.153517
0.115344
0.0103307
0.045666
0.170408
0.0408378
0.055706
0.111167
0.0864993
0.056574
0.0866522
0.0172179
0.368017
0.29682
0.0414861
0.0277117
0.0988832
0.0494291
0.0802962
0.0765092
0.0223656
0.0358685
0.292528
0.15676
0.110487
0.119801
0.193124
0.0499431
0.0595704
0.00752756
0.108402
0.304225
0.500175
0.111963
0.112194
0.169927
0.00117789
0.00541285
0.00274227
0.247109
0.272835
0.0295714
0.00499553
0.00860075
0.00168222
0
0
0.00797739
0.245926
0.409381
0.0209584
0.000499142
0
0
0.00243535
0.00337179
0
0.0674291
0.319021
0.341541
0.0297046
0.00924909
0.0117756
0
0
0
0.0567575
0.533607
0.264888
0.0063937
0
0
0.00532381
0.00634269
0.0326458
0.287918
0.464743
0.0430252
0.000761774
0.000131698
2.32408e-005
0.0155599
0.0162632
0.0283462
0.0564781
0.150694
0.0308158
0.00384143
0.000921884
0.000162686
0.00169961
0.00353579
0.00219456
0.0506062
0.612406
0.360683
0.0179935
0.000921884
0.000416224
0.00879631
0.0108306
0.00576929
0.0435595
0.225866
0.0981143
0.0178256
0.00645319
0.00291356
0.00238334
0.00921324
0.0406692
0.0958265
0.228442
0.0103931
0.0015769
0.000194922
3.4398e-005
0.0388763
0.0828869
0.143113
0.21097
0.276825
0.00346441
0.000211164
0
0.0149619
0.00173036
0.00195386
0.00319405
0.0865088
0.473101
0.0132688
0.00196611
0.00136445
0.00061604
0.0075344
0.013412
0.0172136
0.174172
0.67644
0.00838118
0.000153602
0
0.0044557
0.119773
0.111023
0.0912536
0.113467
0.0992091
0.0141472
0.0214036
0.0450587
0.125746
0.0494224
0.0147904
0.00482338
0.0703532
0.253407
0.112706
0.10901
0.0867748
0.129692
0.0279434
0.0301465
0.0235833
0.152309
0.399386
0.022755
0.00657365
0.0285481
0.0409335
0.0136755
0.00871475
0.0069599
0.273326
0.645708
0.100899
0.0251365
0.0553322
0.0432679
6.55195e-005
0
0.0109164
0.16621
0.363537
0.0778644
0.0301381
0.0118502
0.0106988
0.000458637
0.000684847
0.0317573
0.212533
0.328181
0.0617134
0.0014807
3.78135e-005
0.00871406
0.000109199
0
0
0.189926
0.516732
0.186722
0.0830453
0.0226081
0.00581734
0.001494
0.00114141
0.00566465
0.0901366
0.388616
0.259558
0.118843
0.0376781
0.024192
0.000167081
0.000891784
0.0142763
0.0414338
0.0674992
0.0703671
0.0121289
0
0.00317452
0
0.000452889
0.00334706
0.0219933
0.373406
0.454308
0.0668952
0
0
0.00224243
0.00262552
0.0127611
0.0389096
0.0960738
0.0599424
0.0151597
0.0116715
0.012959
0.00117838
0.00265351
0.0128151
0.377835
0.617001
0.11206
0.00139613
0.000184393
0.00173156
0
2.33771e-005
7.01312e-005
0.0217505
0.244559
0.198169
0.0196986
0
0
0
0
0.000105281
0.0332473
0.4272
0.388322
0.0263787
0.00560916
0
0
0.000163639
0.00646782
0.186767
0.386673
0.0517715
0.000415818
0
0
0.00442157
0.000780277
0.0427031
0.0885889
0.495313
0.260006
0.0310972
0.0424433
0.00791982
0.0232643
0.00930671
0.000262393
0.0375172
0.291596
0.248261
0.0639424
0.0531311
0.0807989
0.203585
0.061186
0.00244815
0.0286767
0.0713385
0.0701145
0.0664636
0.1363
0.377429
0.0536435
0.00752873
0.0191508
0.0140656
0.2341
0.231992
0.0687331
0.155405
0.163549
0.371003
0.122863
0.00490245
0.00217805
0.038528
0.0578227
0.0439125
0.181166
0.454579
0.0392766
0.105093
0.0729317
0.033628
0.0922706
0.13003
0.0679414
0.0412394
0.0897889
0.0216923
0.0433588
0.0256398
0.00356206
0.143012
0.615458
0.0939406
0.0555872
0.0595522
0.0310019
0.121882
0.0817622
0.0893807
0.0427584
0.138098
0.030851
0.0264325
0.0413344
0.00184533
0.0228002
0.0247726
0.00982733
0.074607
0.615458
0.148856
0.0165012
0.00859209
0.000385757
0.000371596
0
0.00166436
0.127747
0.413966
0.0296719
0.00532543
0.00352765
0
0
0
0.00158728
0.166635
0.340558
0.0536941
0
0
0
0
0
0
0.0411478
0.491438
0.193518
0.000760775
0
0
0
0
0
0.0275263
0.487689
0.311389
0
0
0.000442361
5.89706e-005
0.000211059
0.00122666
0.120927
0.34046
0.125085
0.00076375
0.000464752
0.00309652
0.000412794
0.00115317
0.0148695
0.0954493
0.0958287
0.0692839
0.00534625
0.00325326
0.000256571
0
2.14661e-005
3.98657e-005
0.0137065
0.391722
0.59257
0.00322717
0.000256571
0.001796
0
0.000150263
0.00615041
0.116836
0.127167
0.474468
0.038968
0.001796
0.000919552
0.000122584
0.000323427
0.0472599
0.336978
0.0154487
0.00480938
0.00158764
0.000966098
0.00101595
0.000225154
0.00237421
0.0726302
0.538684
0.00961419
0.000745715
0
0.00074076
0.000533343
0
4.46224e-005
0.0343817
0.423558
0.0543392
0.0596156
0.0241135
0.000533343
0.0126077
0
0.000955114
0.0565813
0.566525
0.114942
0.03429
0.0152323
0.0453841
0.00615578
0.00136424
0.0143857
0.0924322
0.359023
0.0307146
0.00165118
0.00195974
0.00644812
0.0111686
0.00281776
0.00863144
0.202894
0.498508
0.0846912
0.00724137
0.0205416
0.0094344
0.0791617
0.0395365
0.00864051
0.10638
0.292201
0.104848
0.0354246
0.0138889
0.150174
0.0983011
0.122525
0.039557
0.347814
0.40207
0.0562207
0.00352944
0.0111606
0.0644979
0.0153591
0.00376937
0.0103245
0.117324
0.297133
0.155585
0.147524
0.0452147
0.00960137
0.0095933
0.0048687
0.0221634
0.0516377
0.299219
0.245677
0.230463
0.0600572
0.0179742
0.0688903
0.113032
0.186706
0.242894
0.227785
0.0550676
0.063394
0.0248035
0.0140457
0.0399848
0.109049
0.359176
0.282907
0.352116
0.117563
0.10497
0.0354811
0.00965326
0.00140023
0.00494989
0.0322809
0.0527313
0.0647874
0.0372487
0.0194116
0.00958599
0.00586502
0.000824318
0.00333146
0.149358
0.39803
0.162424
0.00320916
0.00106366
0.000430726
0.00121129
0.00137074
0.0690189
0.294737
0.106955
0.0723118
0.0250113
0.0106254
0.0111157
0.000766304
0.000440433
0.0732187
0.685957
0.359852
0.0298939
0.00155626
0.00656682
0.00213058
0.000173041
0
0.00421828
0.11774
0.372158
0.244577
0.00481347
0.00266805
0.00029645
0
0.0471386
0.0514999
0.189573
0.178827
0.232904
0.109202
0.0122963
0.0348032
0.0126181
0.000356578
0.037538
0.411448
0.365501
0.0695093
0.00566475
0.0186764
0.00207515
0
0.0581895
0.114022
0.354074
0.340319
0.0823104
0.0428264
0.0112058
0.00344825
0.00180258
0.186773
0.061737
0.0845608
0.0331349
0.0674568
0.100726
0.0223695
0.101417
0.161046
0.618446
0.103198
0.00745119
0.00149468
0.00592338
0.0181563
0.0135265
0.0807462
0.426503
0.17547
0.135753
0.154515
0.108094
0.0281057
0.0201536
0
0.00567014
0.026172
0.364407
0.0976514
0.0217796
0.0224369
0.0320065
0.0219959
0.0107981
0.0219585
0.138446
0.0207162
0.0654774
0.0568144
0.134497
0.0738722
0.111187
0.0151405
0.0267665
0.0156261
6.4827e-005
0.00513578
0.00930019
0.0189297
0.0528471
0.759782
0.249093
0.0105116
0.00333985
0.0148789
0.0530861
0.0929496
0.0957106
0.068536
0.0540435
0.00514343
0.00490076
0.00266517
0.000453789
0.0124348
0.0425286
0.0310691
0.0912835
0.405718
0.182557
0.003048
0
0
4.88709e-005
0.000146613
0.00045611
0.00580204
0.370693
0.284954
0.00131558
0
0
0
0
0
7.7226e-005
0.238597
0.455668
0.0206606
0
0
0.000404215
0.00158536
0.0026173
0.0125293
0.240341
0.357136
0.00844147
0
0
0
0
0
0
0.133313
0.488445
0.161916
0
0
0
0
0
1.30205e-005
0.0986373
0.393071
0.0316295
0
0.00389747
0.00259832
0
0.00251696
0.0350706
0.0339082
0.365786
0.107215
0.00171538
0.00135115
0
0
0
0
0.0379414
0.512899
0.288009
0.00360431
0.0160477
0.00433053
0
0.00138153
0.00745755
0.0215913
0.373353
0.384559
0.029669
0.0195759
0.0130039
0
0.0190307
0.261556
0.101258
0.156905
0.155829
0.0105305
0.0690612
0.00780236
0
0.0201092
0.281709
0.20169
0.0980046
0.0980343
0.189003
0.0398758
0.0216732
0
0.00691424
0.0473967
0.0600893
0.226245
0.479052
0.0828555
0.137228
0.0130039
0
0.00414854
0.039183
0.0985959
0.0888257
0.345914
0.402873
0.153621
0.0281398
0.0046963
0.0223026
0.0402161
0.0429889
0.029506
0.0277638
0.234508
0.216343
0.13168
0.0609103
0.158492
0.0544678
0.00283328
0.000367798
0.000481618
0.102407
0.325246
0.0122179
0.00281778
0.00118469
0.00239717
0.013849
0.0161682
0.0731379
0.410842
0.60656
0.202127
0.0471937
0.0395902
0.00436389
0
0
0.00187095
0.204691
0.0696282
0.121792
0.135398
0.142897
0.0293668
0.00224472
0
0
0.0148734
0.0407484
0.258821
0.267792
0.140054
0.0393571
0.00476331
0.000425835
0.00344208
0.0185766
0.268644
0.314797
0.0914121
0.0560351
0.00292805
0
0
0
0.029609
0.151469
0.668065
0.238642
0.0461921
0.0011476
0
0
0
0.0299058
0.00456203
0.158061
0.251119
0.0304514
0.00879318
0.00124855
0.000288408
0.00233124
0.00164469
0.000558656
0.131606
0.420802
0.061713
0.00636595
0.000134147
0.001498
0.0004949
0
0.0156865
0.440182
0.223999
0.0058228
0.00102742
0
0
0
0.00274115
0.0127074
0.405496
0.503828
0.0142823
0.00696246
0.00442794
0
0
0.00053338
0.0117349
0.162077
0.316903
0.134525
0.0237013
0.00699215
0.0124704
0.000722672
0.0162261
0.0241364
0.111742
0.176045
0.297343
0.0569478
0.044431
0.0138463
0.000433603
0.0270434
0.0667687
0.416961
0.497522
0.0887757
0.0584304
0.0351231
0.0417642
0
0.0294248
0.0576946
0.174008
0.119348
0.309869
0.223696
0.0692415
0.0696071
0
0.0465012
0.0710647
0.126512
0.201914
0.489492
0.123545
0.08092
0.00444907
0.000560575
0.0216172
0.125775
0.0970934
0.0424637
0.0952493
0.183366
0.115887
0.0178091
0.0262518
0.0794071
0.0211028
0.046808
0.0492819
0.445962
0.3388
0.0839311
0.0359174
0.000620379
0.0231933
0.0127644
0.0653716
0.0171514
0.0551202
0.203142
0.170664
0.050575
0.00434266
0.0211898
0.0247472
0.123808
0.182448
0.154178
0.117009
0.132076
0.00612285
0.0382572
0.035288
0.000826214
0.0291695
0.121461
0.0735273
0.184395
0.560985
0.258124
0.0449531
0.00540133
0
0.0604336
0.0922556
0.131837
0.0941748
0.183273
0.00619153
0.0406995
0.0307751
0.00453354
0.0393806
0.0733716
0.124827
0.113551
0.249067
0.0928946
0.0508881
0.00900222
0
0.000335666
0.00167257
0.00216506
0.0108701
0.132897
0.283615
0.0172243
0
0
0
0
0
7.38561e-005
0.0646595
0.666979
0.344497
0
0.000740248
0.00162798
0.00419979
0.00518319
0.00879632
0.0511488
0.112193
0.0210162
0
0.00010575
2.64374e-005
0.00240657
0.00166162
0.000620244
0.0247165
0.386043
0.320553
0
0.00118093
0
0
0
0
0.00482509
0.282875
0.370822
0.00617635
0.00925787
0.000512238
0
0
0
0.00415328
0.121112
0.490354
0.0786879
0.000168704
0
0.000116626
0.000116626
0
0.000579388
0.153528
0.412044
0.0110371
0.00131474
0
0
0
0
0
0.0477538
0.499281
0.163272
0.0067533
0.00161528
0
0
0
0.00197534
0.0409709
0.290285
0.120921
0.0264376
0.000969165
0
0
0
0.0024013
0.00834563
0.193894
0.242988
0.000925947
0
0
0
0
0
0.00385426
0.522948
0.316301
0.0175821
0
0
0
0
0
0.000453724
0.309569
0.529216
0.108658
0.00360294
0
0
0
0.000348994
0.00059294
0.0496632
0.21413
0.280002
0.0898696
0.00388963
0
0
0
0
0.00711557
0.130531
0.13236
0.0011189
0
0
0
0
0
0.0658366
0.538925
0.534636
0.0302761
0.0014173
0
0
0
0
0.0106227
0.428896
0.175501
0.148311
0.02077
0
0
0
0
0.000379456
0.0362592
0.175276
0.38901
0.0547272
0
0
0
0
0
0.015456
0.489595
0.0814182
0.00903371
0
0
0
0
0.000632426
0.124431
0.489595
0.457251
0.0134513
0
0
0
0
0
0.0308633
0.0511524
0.406019
0.0713886
0.000177333
9.5487e-005
0
0
0
0.000925422
0.0277967
0.458594
0.24772
0.0187923
0.0093395
0.0102822
0
0
0.00542765
0.179476
0.469266
0.0254332
0.000389525
0.000723403
0
0
0
0.00236911
0.0580515
0.469266
0.0933027
0.133071
0.0678969
0.00616934
0
0
0.0178362
0.0580667
0.244542
0.196071
0.170324
0.0921582
0.0470754
0.0121029
0
0.0122892
0.0274864
0.0406392
0.0218871
0.261058
0.231339
0.0464323
0.0203826
0
0.00700634
0.0377034
0.153323
0.0520594
0.54392
0.225891
0.0268896
0
0
0.0181028
0.00692497
0.00561623
0.00379006
0.461601
0.288122
0.0317437
0.000351822
0
0.00195371
0.0113533
0.0215999
0.00552262
0.302451
0.48194
0.0603357
0.0317382
0.002215
0.00385022
0.0146441
0.035436
0.006959
0.0721951
0.235856
0.123915
0.0807236
0.00950084
0
0.00620682
0.0128481
0.0268185
0.290399
0.422391
0.0671515
0.0140422
0.00252983
0.00274609
0.0401498
0.023436
0.0252801
0.140006
0.20001
0.0978952
0.0782072
0.0293782
0.0408126
0.00599571
0.137908
0.140586
0.140142
0.160389
0.14517
0.0234171
0.00912513
0.00347928
0.0248871
0.0969183
0.136047
0.197267
0.0893064
0.169715
0.0418281
0.0236444
0.00830536
0.00999285
0.0891705
0.0470124
0.0976859
0.156857
0.214532
0.265084
0.133052
0.00783401
0.0198809
0.0487787
0.0427718
0.137195
0.0832366
0.189232
0.299923
0.144096
0.0639613
0.0125525
0.0117772
0.0528975
0.0738931
0.0401303
0.0809636
0.123128
0.0501009
0.00691177
0.00191868
0.000438501
0.0406138
0.0536694
0.0352983
0.0720325
0.520169
0.52343
0.00337131
0.00928807
0.00308565
0.0288392
0.0974995
0.0540253
0.0462114
0.12686
0.0747513
0.0587197
0.00326887
0.000263101
0.0251123
0.134349
0.134331
0.102744
0.199559
0.103145
0.0346058
0
0
0.000823151
0.0029691
0.00309009
0.00852631
0.0995052
0.342352
0.0202197
0
0
0
0.000292523
0.000319278
0.0022573
0.0314249
0.79935
0.242762
0.00151538
0
0.000493891
0.0127931
0.0172572
0.023155
0.0380097
0.0742544
0.00810212
0.00172537
0
0
0.00105964
0.00182593
0.00588085
0.0314118
0.263752
0.0810558
0.000329093
0
0
0
0
0
0.000703019
0.378168
0.308348
0.0436665
0
0
0
0
0
0
0.237904
0.664167
0.00130049
0
0
0
0
0
0.00803681
0.142607
0.139583
0.0589036
0.00427087
0
0
0
0
0.00303992
0.0816066
0.383315
0.153548
0
0
0
0
0
0
0.0318815
0.519149
0.508462
0.00199937
0
0
0
0
0
0.00175165
0.427611
0.119061
0.00375507
0.000420772
0.00235132
0.00219913
0
0.00203099
0.00882883
0.256063
0.243115
0.0027817
0.0029454
0.00743921
0.00366522
0.00204259
0.00494143
0.000887112
0.261336
0.586401
0.0490623
0.000232082
0
0
0
0
0.000127328
0.146346
0.601028
0.288553
0.00244225
0
0
0
0
0
0.0283633
0.23278
0.0164125
0.00281955
0.00472208
0.00329349
0.00404459
0.00667796
0.000844137
0.12451
0.224755
0.0564747
0.0208865
0.0116297
0.00839704
0.00223302
0.00275798
0.000120591
0.0405362
0.216287
0.339022
0.00434783
0.0128796
0.00742059
0
0
0
0.00815135
0.0597173
0.232897
0.0358717
0.418592
0.105094
0
0
0
0.0190465
0.0776639
0.0589661
0.0148379
0.0713204
0.0441897
0.000109648
0
0
0.0104594
0.0172725
0.0304023
0.0328928
0.690405
0.168986
0
0
0
0.00321325
0.00831799
0.0254078
0.0362638
0.564587
0.136396
0.000398592
0
0
0.00689518
0.000444963
0
0.0146189
0.327399
0.139079
0.00466202
4.70156e-005
0
0.000239596
0.00116483
0.00114651
0.0442328
0.610542
0.114968
0.00400314
0.00124464
0
0.00074543
0
0.00015795
0.0240911
0.278322
0.0871414
0.00845176
0.0020744
0
0
0.0122446
0.0286262
0.0442051
0.334847
0.307562
0.0315328
0.00249565
0.000414712
0.00591401
0.119248
0.0616583
0.0864653
0.119376
0.116745
0.0549403
0.0579866
0.0360925
0.0832714
0.00845031
0.037151
0.0694823
0.264559
0.300683
0.0653537
0.0116397
0.00296349
0.00350042
0.0644813
0.10234
0.187507
0.160937
0.321392
0.0923571
0.0210147
0.00999648
0.0266165