0.066511
0.0204416
0.0124339
0.0700776
0.218017
0.233448
0.121346
0.048183
0.0860448
0.00711215
0.00274699
0.0444134
0.147979
0.292423
0.131658
0.0578201
0.0345106
0.0154588
0.00756736
0.0437585
0.0743792
0.161421
0.341119
0.216942
0.187404
0.024491
0.00372595
0.00932812
0.00457832
0.0193197
0.129401
0.549479
0.214308
0.0881431
0.0297684
0.0192821
0.0305641
0.0013811
0.0530802
0.120501
0.148494
0.148782
0.146032
0.147345
0.0296378
0.0708216
0.0192131
0.00774516
0.0169179
0.0224776
0.158468
0.246454
0.106553
0.0458439
0.0436489
0.0117108
0.0456539
0.0705383
0.461016
0.200877
0.129813
0.196477
0.0631506
0.0501662
0.0321285
0.0564104
0.00599302
0.0942887
0.146843
0.185611
0.217952
0.0672631
0.0506034
0.0559647
0.0543704
0.0685067
0.0607465
0.036717
0.0841651
0.0430397
0.0486319
0.0248306
0.117661
0.273833
0.230572
0.118004
0.0106513
0.024092
0.037572
0.0074973
0.0508427
0.088716
0.111343
0.0674163
0.0298102
0.0716506
0.0641718
0.0871276
0.072315
0.0284241
0.26363
0.426802
0.312172
0.0721401
0.0414322
0.0242982
0.0276567
0.0304899
0.00248667
0.110371
0.199381
0.160605
0.183199
0.0313863
0.00807065
0.0067973
0.00210982
0.0801185
0.211101
0.213649
0.0705844
0.204247
0.0837288
0.0231797
0.0229012
0.0238512
0.0369751
0.144274
0.183365
0.18053
0.164322
0.0580246
0.0440605
0.066815
0.035952
0.338038
0.0615029
0.0638589
0.0946043
0.181486
0.124904
0.0695993
0.236088
0.144521
0.114414
0.0983114
0.0663328
0.0175466
0.0680737
0.0624771
0.0347464
0.0362024
0.0525609
0.115021
0.0865828
0.0507919
0.049674
0.107185
0.12537
0.0648496
0.0503652
0.0752187
0.357001
0.0285701
0.0227807
0.0151492
0.0639294
0.0823022
0.0429054
0.142226
0.231978
0.403753
0.108564
0.0209779
0.0460153
0.140767
0.0844032
0.0934105
0.112518
0.429189
0.184067
0.0979738
0.0610777
0.046737
0.0790888
0.0819658
0.0285685
0.0487087
0.0512107
0.217386
0.192542
0.116992
0.0127311
0.0573501
0.0802759
0.0433493
0.0680512
0.0674426
0.266231
0.125534
0.0143538
0.0331508
0.0964952
0.0779109
0.0858347
0.116425
0.3384
0.364134
0.224059
0.0157671
0.00567717
0.0496
0.145672
0.075192
0.138244
0.218498
0.0764994
0.0901914
0.0420661
0.00331513
0.0204592
0.0547637
0.0555364
0.0872296
0.0980499
0.110278
0.075468
0.0687699
0.229524
0.142544
0.0813733
0.0753172
0.106943
0.0954543
0.11331
0.110688
0.0252198
0.0288584
0.0761354
0.177339
0.0680185
0.0805006
0.0847175
0.0801301
0.132468
0.137168
0.573164
0.277838
0.114407
0.104039
0.0168759
0.052162
0.0197846
0.0255786
0.111073
0.286338
0.216643
0.0766831
0.017279
0.0205543
0.00952279
0.0143275
0.0524908
0.111126
0.199294
0.167608
0.0580555
0.0229559
0.0362977
0.0130806
0.0121614
0.0227102
0.0550191
0.502556
0.350136
0.0567043
0.0293603
0.00465701
0.00428347
0.00185562
0.0325313
0.0823739
0.278815
0.273955
0.0854844
0.0562411
0.0325991
0
0.00240417
0.0111562
0.0176854
0.0449303
0.126886
0.0175361
0.00493875
0.00541605
0.00434777
0.000384913
0.00310809
0.00762433
0.110999
0.668741
0.109026
0.0116994
0.00107359
0.000621109
0.0002269
0.0132315
0.0803981
0.100174
0.112175
0.0189015
0.00718154
0.00398612
0
0.00761752
0.0109134
0.0846316
0.296856
0.528117
0.140317
0.0369546
0.00596852
0
0.000535323
0.00747082
0.0313383
0.0354264
0.184847
0.181701
0.16121
0.00795146
0
0.00226868
0.000433357
0.000643829
0.0217986
0.333766
0.190266
0.0831616
0.00397525
0.00340263
0
0.000321894
0.00289704
0.0070808
0.32299
0.364653
0.0970947
0.0240711
0
0.00232961
0.00155307
0.00752352
0.0335288
0.57963
0.262259
0.0444716
0.00453698
0.00134232
0.00774909
0.0117813
0.0198836
0.0162128
0.407195
0.19018
0.0487938
0.0478768
0.0166586
0.0149497
0.0631122
0.0913702
0.0106861
0.137236
0.0829999
0.0455354
0.0760613
0.0171609
0.0273017
0.0391548
0.0340243
0.0661862
0.533085
0.245928
0.0655008
0.0464915
0.0189301
0.0466725
0.211771
0.226257
0.0423221
0.0910923
0.0704626
0.0715398
0.0671031
0.0182772
0.0188207
0.0486723
0.0473503
0.0224569
0.0135957
0.0133869
0.00422979
0.0118549
0.00457406
0.0665474
0.0988741
0.0665307
0.0714562
0.00683743
0.00405776
0.00709566
0.00775949
0.0233908
0.018676
0.173821
0.22672
0.0316521
0.00776566
0.00393645
0.00339284
0.00435975
0.000769368
0.21844
0.701247
0.459877
0.0378975
0.000636204
0.000140585
0.00217536
0.00258555
0.0225627
0.0627778
0.0446843
0.0089938
0.0109848
0.0034951
0.00192458
0.00718526
0.0103225
0.0157353
0.255155
0.0468959
0.000767849
0.00308526
0.00265472
0.00274367
0.00534555
0.0189387
0.0377356
0.250253
0.392343
0.077275
0.00339777
3.37389e-005
0
0.00237545
0.00308325
0.0130368
0.684109
0.40673
0.0124209
0
0
0
0.00142527
0.00260372
0.0271018
0.21399
0.00774546
3.7751e-005
0.000414887
0.000769946
0.00155465
0.000928401
0.00795638
0.0818007
0.158514
0.00509781
0
0.000890462
0.00268428
0.00130281
0.00381577
0.0195879
0.243679
0.554518
0.0762961
0.00126884
0
0
0
0
0.00080758
0.149788
0.309884
0.00428589
0
0
0
0
0
0.0837893
0.603486
0.0481604
0.00771777
0
0.000597656
0.00180975
0.00161611
0.00567849
0.0642549
0.182021
0.0281708
0.011889
0
0.00101726
0.0101871
0.0117457
0.0195783
0.121588
0.0867627
0.0548095
0.000591394
0
0
0
0
0.00212132
0.234586
0.541485
0.0101287
0.000985656
0
0.000576886
0.0055187
0.00133857
0.0594211
0.59705
0.4039
0.0162343
0.011114
0.00794016
0.00868637
0.0276536
0.034181
0.0355467
0.0935111
0.0272537
0.00797508
0.0214072
0.045843
0.102134
0.0749065
0.030598
0.0257482
0.0211344
0.00891463
0.00199476
0.00269801
0.0031497
0.00534558
0.0165745
0.00844675
0.231249
0.761536
0.168141
0.00109926
0.0054922
0.0133406
0.0478382
0.151798
0.0421562
0.194633
0.377373
0.0478005
0.00570973
0.0148131
0.0561686
0.351925
0.261579
0.0311348
0.014247
0.00228085
0.00260103
0.0210977
0.0490464
0.0791509
0.259453
0.164829
0.0660108
0.0347082
0.00275718
0
0.00539483
0.00318063
0.0129366
0.167598
0.500631
0.16906
0.0544883
0.14192
0.0400293
0.0351628
0.0380207
0.0338421
0.192665
0.270085
0.208441
0.0626301
0.0214839
0.0128117
0.00359984
0.0251269
0.0955671
0.152535
0.0961065
0.0372378
0.00592217
0.00047045
0
0.0276766
0.0280518
0.115737
0.400243
0.30314
0.131549
0.0538106
0.0184533
0
0.00599974
0.0173813
0.02309
0.0997892
0.138989
0.15863
0.0277506
0.00854668
0.00557152
0.0166059
0.0154261
0.0596812
0.219573
0.473477
0.468692
0.100499
0.0275789
0.000795931
0
0.0158081
0.0454459
0.0417341
0.290895
0.331948
0.063755
0.0409576
0.0108904
0.0117879
0.0177482
0.0453102
0.0817706
0.511447
0.293166
0.0155355
0.0164477
0.0181316
0.0629712
0.188631
0.135486
0.0500629
0.142704
0.11103
0.0630856
0.104007
0.122719
0.0269724
0.195655
0.158165
0.0745038
0.252593
0.233303
0.0454655
0.0429895
0.0395235
0.0445154
0.0461016
0.0184371
0.0418904
0.126565
0.0807136
0.0141386
0.0153471
0.0198455
0.0616056
0.215577
0.158285
0.021531
0.00971564
0.0159528
0.0119934
0.00619172
0.00432515
0.048905
0.0847251
0.0439327
0.0767462
0.0983886
0.135427
0.0567808
0.0308662
0.0291066
0.0677316
0.248501
0.709199
0.349551
0.126799
0.0742741
0.0267924
0.00440946
0.00415809
0.00415259
0.127169
0.134838
0.00594558
0.000376473
0.000513746
0.000350179
0.00014533
2.56465e-005
0.024862
0.353117
0.29007
0.00316094
0
0
0
0
0.000558509
0.00438186
0.155078
0.455898
0.0648368
0.0108815
0.00251009
0.000403565
0
0
0.00381443
0.385067
0.561213
0.0361728
0
0
0
0
0
0.0814219
0.312
0.136117
0.000302412
0
0
0
0
0.000482353
0.31136
0.316962
0.0509032
0
0
0
0
0
0.0173668
0.0196599
0.367186
0.390657
0.0130515
0
0
0
0
0
0.207829
0.497805
0.218377
0.00158162
0
0
0
0
0.0366968
0.360626
0.0980007
0.00813672
0
0
0
4.5717e-005
0.00813195
0.169331
0.186298
0.00676818
0.00131146
0
0
0
0.000320019
0.0830681
0.505054
0.265249
0.234969
0.0489101
0.0280371
0
0
0.000320019
0.0401272
0.222014
0.167906
0.0875332
0.0418987
0.0580208
0
0.00260158
0.0275024
0.151187
0.482557
0.0648769
0.00168002
0.00112001
0
0
0
0.00897077
0.131693
0.321124
0.0269807
0.000240003
0.000160002
0
0
0.00290013
0.131793
0.392017
0.245946
0.10073
0.0254743
0.013161
0.00977765
0
0.0113597
0.117068
0.196111
0.262528
0.0449536
0.00176076
0.00112001
0
0
0.0202207
0.509177
0.421967
0.136889
0.000253551
0
0
0.000215608
0.000503085
0.00504106
0.182026
0.338164
0.0448932
0
0
0
0.00307412
0.0228205
0.0149874
0.185395
0.303039
0.0181453
0.00339952
0
0
0
0
0.0305886
0.434144
0.331437
0.0133273
0.00338717
0
0
0.000443417
0.0023156
0.100259
0.502961
0.333178
0.0039243
0.000260925
1.37329e-005
0
0.0156565
0.0929343
0.057706
0.14493
0.183752
0.0189109
0.00182647
0.00154087
0.000932619
0.0222513
0.0749246
0.0599679
0.0507372
0.023359
0.00730207
0.0030666
0
0
0.011063
0.0247038
0.199084
0.80662
0.219378
0.00571066
0
0
0
0.0152742
0.0651255
0.105552
0.268671
0.0422854
0.00276781
0.000774151
0.0017053
0.00107451
0.010968
0.0879132
0.146903
0.0306552
0.0105623
0.00745231
0
0.000237794
0.0547871
0.0867858
0.325625
0.450912
0.104949
0.00915169
0.00106462
0
0
0
0.00210412
0.12028
0.159655
0.0263023
0.00731898
0.00261248
0
0
0.0460691
0.0372369
0.37727
0.560978
0.188548
0.00699917
0.000373211
0.121518
0.137131
0.0468964
0.0110245
0.0293559
0.0225861
0.0647748
0.0777792
0.239513
0.0204629
0.161307
0.11101
0.0665111
0.102364
0.0738555
0.100235
0.0333321
0.0609429
0.116421
0.0128707
0.00147963
0.0141865
0.192632
0.196614
0.150118
0.123802
0.372978
0.0163666
0.0321628
0.062739
0.140362
0.525636
0.284459
0.156554
0.0477538
0.0935042
0.00248631
0.0175055
0.0254939
0.092429
0.0438164
0.0227783
0.0141511
0.00315984
0.00161432
0.00291916
0.0149944
0.237233
0.443526
0.0905945
0.0212791
0.00659578
0.000451405
0.000230617
0.00376119
0.00764096
0.0331872
0.260649
0.137106
0.0203091
0.00602564
0.00104085
0.00104085
0.000537313
0.00315251
0.173234
0.706482
0.1975
0.00231105
0.000577761
0.000148693
0.000148693
0.000379516
0.0210415
0.319524
0.162587
0.0152123
0.00161745
0.000338319
0
0
0.000306013
0.0819728
0.497962
0.103125
0
0
0
0
0
0
0.00379063
0.253291
0.374306
0.0697305
0.000193325
4.83313e-005
0
0
0
0.00917964
0.497962
0.312029
0.0417651
0.000426118
0
0
0
0.00537278
0.233314
0.516581
0.0871033
0.000853839
0
0
0
0
0.054831
0.384935
0.251801
0.0474061
0.00597687
0
0
0
0.0132964
0.00638585
0.0646215
0.391734
0.217928
0.024065
0.0018055
0
0
0
0.0266834
0.333876
0.236273
0.123613
0.0322178
0.0010833
0
0
0
0.0777118
0.286599
0.145387
0.141253
0.00857162
0
0.000193953
0.0230176
0.0682488
0.130688
0.169877
0.159931
0.274967
0.0521608
0.004286
0.048208
0.111114
0.18041
0.0962829
0.417739
0.287741
0.154673
0.0226733
0
0.000506877
0.0028723
0.0093289
0.153587
0.191812
0.250932
0.359491
0.200415
0.0055833
0.0140245
0.0406045
0.0276212
0.0748162
0.0389862
0.0307039
0.093323
0.0837822
0.0304579
0.164984
0.158262
0.103432
0.045725
0.00278185
0.00207909
0.0437164
0.120218
0.0632866
0.49086
0.32771
0.0408462
0.0433569
0.0282261
0.0505031
0.370088
0.277645
0.0233506
0.044244
0.048842
0.0115452
0.0266735
0.00328828
0.024546
0.338757
0.307772
0.084999
0.137866
0.104018
0.0169379
0.00936121
0
0
0.00234143
0.0145516
0.0901573
0.325012
0.172459
0.00424217
0.00961089
0
0
0.00157785
0.000278445
0.189485
0.474976
0.105973
0.00120301
0.00738998
0.000228546
0.00416355
0.024996
0.0386079
0.240033
0.208843
0.0544898
0.00801844
0.00601985
2.44125e-005
0
0.011045
0.031992
0.511836
0.403544
0.0187581
0.00160395
0.00459338
0
0
0.00265889
0.00514312
0.184934
0.441893
0.0291889
0.000510374
0
0
0.000188939
0.00186469
0.0239859
0.191643
0.194722
0.00635892
0
0.00275603
0
0
0.0143856
0.132607
0.470438
0.313461
0.00568832
0.000306225
0.000646745
3.40392e-005
0.00118574
0.00451032
0.247074
0.467883
0.132846
0.000500481
0
0
0
0.00103801
0.021637
0.0926918
0.13083
0.0234447
0.00164938
0
0
0
0.0489607
0.166524
0.292882
0.239863
0.0724096
0.000856722
0
0.00355314
0.000187007
0.00651432
0.0741443
0.259132
0.241468
0.0130669
0
0
0.00213188
0.000112204
0.0885625
0.466764
0.573489
0.0989722
0.00760396
0
0
0.0301279
0.014975
0.00496056
0.0135579
0.187454
0.256724
0.0801823
0.041649
0.0957877
0.00868203
0.0154802
0.016311
0.0561336
0.355563
0.400999
0.0568572
0.0210973
0.0208754
0.0544538
0.176917
0.0836717
0.0624963
0.246915
0.240701
0.0450522
0.00362337
0.0656445
0.00858999
0.104241
0.116432
0.143633
0.405029
0.317498
0.0507382
0.0120229
0.0123883
0.00312773
0.00304077
0.00694035
0.118634
0.207371
0.0401728
0.00713413
0.00476438
0.0023947
0.000446818
0.000684513
0.0318268
0.388739
0.425361
0.00169593
0.000938867
0.000680625
0.000342099
0.000446818
0.00105134
0.00668059
0.0540334
0.348459
0.0755946
0.0165152
0.00538629
0.00143682
6.38312e-005
4.25541e-005
0
0.0934199
0.62235
0.14266
0.00473891
0.000769469
0.00020526
0
0.000598803
0.0644604
0.266558
0.276301
0.002673
0
0
0
0
0.000430592
0.14694
0.296926
0.236479
0.00495505
0
0
0
0
0
0.000492983
0.0736359
0.549096
0.124442
0.00284621
0
0
0
0
0.00396718
0.109194
0.521158
0.150253
0.00632671
0
0
0.00170951
0.0159424
0.0965627
0.173593
0.136456
0.00644764
0
0
0
0.0386743
0.243481
0.184927
0.18557
0.17218
0.0038557
0
0
0.00235988
0
0.00101521
0.0100649
0.10858
0.378867
0.0686873
0.00360788
0
0
0.0257993
0.0718759
0.117949
0.26101
0.681266
0.0583535
0.000147452
0
0.00393313
0.158223
0.3067
0.159389
0.0814169
0.0539083
0.00690383
0.00564129
0.0287686
0.031289
0.156559
0.109311
0.062997
0.0849561
0.240602
0.0723132
0.021858
0.0861109
0.0435633
0.096655
0.119629
0.117547
0.171916
0.412126
0.0345096
0.00920728
0.0622044
0.0273585
0.0734625
0.0444461
0.0204671
0.115141
0.583927
0.155289
0.0289216
0.126572
0.031289
0.0137906
0.00745594
0.0149195
0.176946
0.357463
0.0562168
0.00546008
0.0183796
0.00410387
0.0039742
0.00219128
0.0268966
0.200315
0.267993
0.0492951
0.0134461
0.00533819
0.00425174
0.00322079
0.000730705
0.00127498
0.0654634
0.642143
0.176348
0.0075842
0.0198437
0.00246232
0.00574292
0.00549715
0.0170579
0.0457928
0.423813
0.162761
0.0133401
0.00767136
0.00409784
0.00337863
0.00204865
0.00885377
0.0341907
0.0707461
0.161202
0.0694679
0.00402115
0.00361457
0.000482661
0.000844828
0.000761581
0.0317466
0.246259
0.523846
0.156112
0.000988122
0.000516368
0.00488229
0.0100871
0.0184103
0.10466
0.150351
0.0549185
0.0134536
0.00290226
0.00348374
0.00069747
0.00548593
0.0122674
0.376483
0.573611
0.190193
0.0142555
0.000113686
0.000497677
0
0
0
0.0135682
0.259723
0.305404
0.0503883
0.00039257
0
0.00145562
7.66115e-005
0.000845884
0.0095792
0.359539
0.210099
0.0119984
5.60814e-005
0
0
0
0.00135007
0.183103
0.497713
0.129807
0.00257733
0
0
0.000873371
0.00019173
0.0011672
0.132229
0.538277
0.0668093
0.000434921
0.000940826
0.000627218
0.00766513
0.000403427
0.00445433
0.0310717
0.284223
0.110669
0.00199743
0
0
0.00459908
0.000242056
0.0243649
0.154988
0.526115
0.0906852
0.000824489
0
0
0.00459908
0.00100963
0.00614632
0.103799
0.370131
0.0762142
0.00611097
0.00495429
0.00330286
0.00275945
0.000605778
0.0143627
0.0752505
0.491128
0.335006
0.0190259
0.00297257
0.00198172
0.0467221
0.16153
0.0953418
0.0700795
0.213927
0.164469
0.053147
0.0274011
0.0329279
0.00667459
0.0932013
0.12
0.105346
0.34725
0.164035
0.0633639
0.0277875
0.00600812
0.023926
0.0308187
0.0172508
0.121319
0.363359
0.207885
0.0981013
0.11438
0.04474
0.0196435
0.0478326
0.0627629
0.276001
0.449419
0.202648
0.0843674
0.0742168
0.0155204
0
0.000825857
0.00599113
0.0216378
0.180539
0.127593
0.00746755
0.00468366
0
0
0
0.000172741
0.0103358
0.39219
0.469235
0.011631
0.000669094
0
0.00650672
0.0149313
0.0197546
0.0404179
0.0928847
0.176925
0.00727251
0.00682967
0
0.00151033
0.0034006
0.0063407
0.0035713
0.127803
0.660467
0.128112
0.000975667
0
0
0
0
0.00295036
0.225332
0.301966
0.0285467
0
0
0
0
0
0.00951979
0.199016
0.310389
0.084274
0.0010201
0.000994614
0
0
0
0
0.0502006
0.464081
0.216105
0.00326826
0
0
0
0
0.000862427
0.0300005
0.386578
0.496545
0.0150653
0.00469924
0
0
0
0.0202601
0.191138
0.114972
0.0347777
0.0030492
0.00297301
0.00125098
0.0031379
0.00960724
0.0579522
0.58621
0.101332
0.00148488
0.00182952
0.0022008
0.00332231
0.0040606
0
0.0135922
0.164036
0.167917
0.270125
0.0295606
0.0140465
0.00636443
0.00676767
0.00036256
0.0356043
0.58621
0.231507
0.0689511
0.0226241
0.0158731
0.00459326
0.0115215
0.0196767
0.105122
0.448662
0.0535412
0.00437838
0.0122445
0.00153109
0.00275595
0.00691292
0.0076561
0.183694
0.356597
0.104573
0.0476719
0.0368913
0.000918651
0.0220586
0.0233239
0.0107805
0.0907028
0.553131
0.167094
0.0638185
0.0197324
0.0452024
0.0318373
0.0971094
0.101149
0.202614
0.304633
0.150962
0.0988833
0.0393125
0.046178
0
0
0
0.0862672
0.357745
0.25493
0.0365936
0.0197617
0
0.00550985
0.00540517
0.0108047
0.033155
0.286537
0.274485
0.0130935
0.00781868
0.00163519
0.00408995
0.0549311
0.0846068
0.231835
0.313671
0.25447
0.05876
0.0276616
0.00405739
0.00645776
0.050133
0.194438
0.284384
0.413718
0.216109
0.012921
0.00560769
0
0.00361596
0.00527736
0.0219877
0.140591
0.0959569
0.0223385
0.00230469
0.00246021
0.00107313
0.000516565
0.00222528
0.0686341
0.477259
0.212605
0.00464912
0.000189743
0.000258763
0.000153304
0.00423804
0.0357835
0.26025
0.256803
0.0972233
0.0148424
0.000750741
0.00108681
0
0.000605435
0.0230457
0.455705
0.530045
0.0785893
0
0.000103505
0.000155258
0
0
0.000234195
0.0395431
0.331146
0.258857
0.00756202
0
0
0
0.000107482
0.000515603
0.0139923
0.286307
0.330557
0.003997
6.09793e-005
0.000974699
0.0006498
0
0.0088582
0.338008
0.435394
0.0896412
0
0
0
0
0.00136987
0.00554881
0.165328
0.472269
0.119087
0.000813885
0
0.000139243
0.000710322
0.000697812
0.00313027
0.0190594
0.196879
0.231304
0.0546451
0.00890972
0.00632811
0.00421874
0.000418687
0.00187816
0.0113418
0.037801
0.362545
0.323841
0.0288401
0.00379687
0.00253125
0.00635951
0.0108009
0.0615066
0.267203
0.144978
0.0410767
0.00384404
0.000904016
0.00207751
0.0031415
0.00376264
0.0140051
0.0880903
0.651381
0.187336
0.00846572
0.00054241
0.000572296
0.0117128
0.00958319
0.00151965
0.0590835
0.295894
0.133255
0.0243397
0.02213
0.0099924
0.0219011
0.0336445
0.0314918
0.129171
0.352429
0.106769
0.00897061
0.0117833
0.00346637
0.00327123
0.00616295
0.000217093
0.0366552
0.389836
0.324281
0.0438405
0
0
0.0124166
0.0167819
0.0202926
0.0577871
0.519244
0.32783
0.0138102
0
0
0.0249134
0.0417846
0.0334228
0.0433158
0.10511
0.107996
0.0162395
0.00447343
0
0.00743265
0.0144805
0.0111327
0.00117938
0.0710645
0.567346
0.464352
0.0255269
0
0.0159783
0.0299421
0.0303539
0.0294452
0.139666
0.10069
0.0266777
0.00550891
0
0.0065625
0.0246444
0.0187998
0.00823322
0.0176213
0.100459
0.537388
0.0639226
0
0
0.000104668
5.50886e-006
0
0.00756659
0.157955
0.336589
0.0313439
0.000553062
0
0
0
0
0.00156829
0.122776
0.494682
0.0749252
0.00534948
0.000103115
0.00114514
0.000742726
0
0.000817568
0.0319273
0.449856
0.0728786
0.000921771
0
0
0
0
0
0.0418044
0.522076
0.246272
0.00989283
0.0105114
0.0126926
0.00544896
0.0129523
0.0619503
0.0901323
0.361827
0.138233
0.0254846
0.0274387
0.0211543
0.0381427
0.0267593
0.272933
0.224208
0.174416
0.122359
0.0738406
0.00711657
0.00761555
0.0090816
0.00228734
0.00413932
0.0416203
0.36029
0.418861
0.0634958
0.0373357
0.0139222
0.0635712
0.00636145
0.0178127
0.0800359
0.19877
0.426987
0.227166
0.0794674
0.0434989
0.0335348
0.0264656
0.216381
0.180037
0.159642
0.063584
0.211746
0.130916
0.201111
0.143928
0.162933
0.146746
0.0632951
0.0605025
0.0453163
0.229581
0.110969
0.0271366
0.0371596
0.00275328
0.0113809
0.054319
0.158045
0.226145
0.341411
0.355475
0.161329
0.0463623
0.0670041
0.0759919
0.0260524
0.0443191
0.1276
0.415434
0.0422476
0.0755999
0.0866313
0.197433
0.130304
0.0521281
0.0111394
0.00679613
0.0441587
0.0405751
0.164493
0.324651
0.201028
0.149162
0.0298617
0.00418001
0.000745094
0.0331628
0.303
0.135403
0.038844
0.0761377
0.0645437
0.0350651
0.0117936
0.0239493
0.152898
0.298658
0.559534
0.326276
0.0525663
0.0364129
0.0199155
0.00707615
0.00345001
0.0849915
0.00638948
0.0982664
0.34873
0.0808738
0.0200883
0.00100702
0
0
0.00258749
0.00311215
0.092458
0.465594
0.172755
0.00600663
0
0
0
0
0.0322422
0.312665
0.373553
0.00622153
0.00278925
0
0
0
0.00431248
0.00523497
0.307835
0.474959
0.0282762
0.000412221
0.000618332
0.00104194
0.00276337
0
0.00162335
0.0541459
0.605191
0.242492
0.0127818
0
0
0
9.68322e-005
0.0148478
0.0105669
0.284457
0.24235
0.0286126
0.00115892
0
0.000466168
0.00793587
0.00270558
0.195367
0.528237
0.0607062
0.0201507
0.00369335
0.00360635
0.00941761
0.000331351
0.0332102
0.0236024
0.190154
0.0440422
0.0387892
0.00304921
0.0017481
0.0102048
0.0137956
0.0224553
0.00770213
0.0464359
0.0945785
0.0709971
0.021444
0
0.00215832
0.0159521
0.00536214
0.00159237
0.0101989
0.126924
0.564732
0.0858263
0
0.00129499
0.0045072
0.0530854
0.0118601
0.0465816
0.0310088
0.0532154
0.0178737
0.000607644
0.0168477
0.0382822
0.0137571
0.00466362
0.0139446
0.165498
0.672542
0.215694
0.0218016
0.00906494
0.0248757
0.00455129
0.0136539
0.030061
0.135129
0.262702
0.151396
0.0203517
0
0
0.00297416
0.00888485
0.0169276
0.194943
0.354797
0.173635
0.00933493
0.000875982
0.000671931
0.00273078
0.00819233
0.0501017
0.172479
0.404556
0.144832
0.00738963
0
0
0.00163847
0.0049154
0.0232882
0.239708
0.551367
0.13607
0.00500466
0.00319981
0.00111989
0.00254976
0.0157253
0.0402793
0.227377
0.332715
0.137045
0.0404225
0.0178673
0.00498193
0.00830936
0.0370877
0.04114
0.0440286
0.0318644
0.0384141
0.45999
0.085363
0.00607125
0.000447133
0.00221721
0.0167211
0.267354
0.478671
0.102543
0.0484469
0.0440056
0.0187303
0.0172005
0.0132342
0.00900127
0.0340047
0.0511731
0.0575336
0.179841
0.0956823
0.0484796
0.00124334
0.00301533
0.00183006
0
0.00149142
0.0184904
0.331482
0.0866645
0.00387233
0.00368475
0.00105009
0.0024502
0
0
0.0216516
0.571127
0.555881
0.050858
0.00516407
0.00320435
0.00287519
0
0.00357521
0.0150752
0.0614357
0.0593732
0.0264569
0.0269493
0.0146535
0.0231399
0.00809648
0.000231107
0.0044669
0.0946413
0.364514
0.0979773
0.00219869
0.0002117
0.00153091
5.45757e-005
0
0.00634431
0.12642
0.408551
0.0757294
0.0239824
0.00281989
0.00725857
0.00038203
0
0.000906329
0.0597513
0.451449
0.189688
0.0163423
0.00623247
0.00806325
0.00477356
1.77149e-005
6.02442e-005
0.018443
0.336249
0.120966
0.0413176
0.00490638
0.00181767
0.00298994
0.000124004
0
0.00661153
0.52589
0.325677
0.0740687
0.0114004
0.00294482
0.00015499
0
0
0.0251734
0.172348
0.204456
0.26172
0.074435
0.0241264
0
0.006326
0.00195792
0.00970662
0.0519642
0.235451
0.200193
0.00832234
0
0.000955871
5.03089e-005
0
0.0019355
0.202958
0.380605
0.519909
0.0554663
0.0144759
0
0
0
0.00228445
0.0209192
0.480706
0.243575
0.172014
0.0231586
0
0.00535729
0.00402269
0.00932662
0.0125319
0.0802594
0.192839
0.542748
0.0700047
0
0.000765327
0.00228471
0.00559597
0.00342004
0.0206639
0.299427
0.217314
0.0262658
0
0
0
0.00503486
0.00324095
0.184139
0.212454
0.542748
0.0331133
0
0
0.00031175
0.00405701
0.00337583
0.0280552
0.0562001
0.581194
0.200042
0
0
0
0
0
0.00268596
0.022346
0.388593
0.316136
0.00351805
0.00234973
0.00663669
0.0102188
0.0090066
0.0125222
0.114538
0.487122
0.0362065
0
0
0.00200821
0.00327671
0.00219787
0.00472342
0.0645029
0.207158
0.0726896
0.0324869
0.0134452
0.0105167
0.0157573
0.00569195
0.0313111
0.0133794
0.442419
0.503236
0.0250191
0.0974526
0.113599
0.0552381
0.0635841
0.0238912
0.0732427
0.121426
0.144473
0.0293049
0.13013
0.0981278
0.0128127
0.0597646
0.0221773
0.0362131
0.111214
0.124763
0.245151
0.157965
0.166267
0.0667294
0.0353397
0.0565829
0.0403618
0.139789
0.05103
0.121346
0.147875
0.162845
0.018154
0.0631769
0.0169208
0.0531104
0.0729054
0.0410286
0.0132171
0.0249224
0.0316874
0.00217224
0.0145599
0.0265228
0.0272803
0.0413592
0.0356256
0.0608453
0.327394
0.508631
0.0731195
0.00438565
0.030403
0.0325646
0.107245
0.0880003
0.0861472
0.0331336
0.0266216
0.00298498
0.0134801
0.0103419
0.0216703
0.0824359
0.33797
0.378266
0.239174
0.357988
0.0425899
0.000360562
0.0098824
0
0
0.0258619
0.0806512
0.315876
0.19095
0.0128624
0
0
0
0
0.0139712
0.0801826
0.448568
0.224138
0.00475039
0.000997003
0.000156737
0
0
0.0584155
0.166684
0.255885
0.177626
0.0484447
0.000353631
0
0
0
0.0278244
0.200259
0.543377
0.181199
0.00730578
5.05188e-005
0
0.00207746
0.00120162
0.00751965
0.0695829
0.426188
0.209107
0.0172258
0.0181085
0.0211158
0.0109155
0.0020027
0.0182081
0.0180868
0.0570041
0.0954204
0.0738497
0.048392
0.0489429
0.0154146
0.00178725
0.0083638
0.104712
0.627986
0.260193
0.00449603
0.00771288
0.027957
0.0451513
0.00866559
0.0235268
0.0156865
0.131243
0.12958
0.0409709
0.0425125
0.0620719
0.0218642
0.01477
0.0272532
0.00456873
0.0638543
0.217783
0.085619
0.106282
0.1206
0.119976
0.114904
0.139105
0.101527
0.0119869
0.0895393
0.0287028
0.275567
0.256487
0.0324803
0.0167518
0.0376057
0.0266678
0.170581
0.271118
0.088401
0.0614266
0.0407259
0.110087
0.138852
0.172767
0.0990581
0.076427
0.148823
0.0702161
0.0406915
0.0378944
0.0665969
0.0485954
0.0468566
0.0356594
0.000225572
0.00458036
0.00218978
0.202378
0.175515
0.159355
0.0753506
0.0205926
0.0344831
0.00504026
0.0100559
0.00750683
0.554625
0.555066
0.0868082
0.0865018
0.0567514
0.020722
0.00168448
0.00747687
0.00890693
0.0432673
0.0368643
0.144363
0.158278
0.0306462
0.0330087
0.0251762
0.0298122
0.0151891
0.0959179
0.10609
0.276203
0.0276902
0.00035444
0.0073089
0.0150748
0.0180419
0.00609764
0.135783
0.342742
0.617645
0.0402268
0
0.00552725
0.0284458
0.0184655
0.00452201
0.0137995
0.486999
0.0664512
0.0399255
0.0245635
0.0396325
0.057497
0.0529806
0.0101627
0.0224372
0.0346179
0.113872
0.02854
0.0503831
0.0593335
0.0810245
0.0717567
0.00753668
0.00924896
0.0502684
0.492098
0.188299
0.0274643
0.00303506
0.00753081
0.00353635
0.00308574
0.00529735
0.366126
0.374269
0.46422
0.0474699
0.000947473
0
0.00708748
0.0249381
0.0307991
0.0974327
0.121174
0.0649645
0.0567225
0.0267247
0.0178847
0.0212877
0.00676073
0.0166871
0.083762
0.111406
0.0744153
0.05344
0.00933354
0.00391713
0.0360069
0.0656186
0.126849
0.104931
0.227031
0.378622
0.0197511
0.00193479
0.00403058
0.0477867
0.112806
0.0515633
0.0240798
0.128008
0.136669
0.0974218
0.177434
0.0852944
0.0838372
0.11092
0.0118435
0.0631053
0.0419461
0.0326269
0.0148558
0.00433075
0.0239396
0.132027
0.28682
0.162594
0.0788843
0.0117177
0.023388
0.0401249
0.118235
0.0784894
0.267231
0.485709
0.107633
0.037026
0.0256517
0.0259477
0.115951
0.384194
0.173408
0.0993119
0.0365599
0.00469
0.0328976
0.00468732
0.0519946
0.0874514
0.211988
0.145512
0.0765316
0.0366815
0.0353831
0.0146199
0.00564898
0.0171745
0.0563916
0.202902
0.101574
0.342963
0.374626
0.0733884
0.0177634
0.0184904
0.0514317
0.0868733
0.127728
0.102078
0.21103
0.177613
0.0553589
0.0253501
0.00215025
0.0197659
0.0550209
0.110314
0.083128
0.0237345
0.00522877
0.00890646
0.00471852
0.00138299
0.0180822
0.21803
0.379873
0.300196
0.196085
0.0180846
0.000917065
0.000611377
0.00254626
0.00676171
0.0301924
0.0566187
0.112063
0.0935178
0.0187353
0.0074001
0.00511405
0
0.0319737
0.055431
0.194172
0.388106
0.555378
0.0972421
0.000550239
0.000366826