0.00518845
0.0298611
0.0708647
0.0226278
0.269275
0.291935
0.0783429
0.0717633
0.0427582
0.0379638
0.108768
0.122437
0.0960843
0.104692
0.0843825
0.0367507
0.106115
0.048562
0.017095
0.0353499
0.120271
0.105339
0.511474
0.219728
0.0509508
0.0723467
0.0281298
0.0482499
0.081835
0.0951773
0.0853534
0.11884
0.105644
0.0697773
0.246209
0.0505396
0.0638756
0.0900577
0.0482808
0.0793858
0.100327
0.0823499
0.0437268
0.0895124
0.0399448
0.0814048
0.0414437
0.0224829
0.13879
0.113691
0.169972
0.112887
0.164002
0.0372477
0.0686243
0.067478
0.0816702
0.115941
0.143909
0.147974
0.0425216
0.200742
0.0257707
0.138392
0.0558633
0.121495
0.149379
0.151276
0.237153
0.0911261
0.442332
0.0181508
0.0232932
0.021833
0.023552
0.0880419
0.0465452
0.0766142
0.0380092
0.0337693
0.00596753
0.0290345
0.0476863
0.0271171
0.0430861
0.0410769
0.0794859
0.0880666
0.0946542
0.00688745
0.0649112
0.118881
0.0594425
0.067904
0.0421974
0.0972138
0.0740311
0.108279
0.00128732
0.507888
0.64065
0.0442325
0.0321889
0.0252324
0.064383
0.0959087
0.0476197
0.0037092
0.0222073
0.00520627
0.00102158
0.00106738
0.00660884
0.0218533
0.0246778
0.0365196
0.0131603
0.0856814
0.0113849
0.00455276
0.00943583
0.0236705
0.0285811
0.0139468
0.0215934
0.0361014
0.350048
0.211873
0.000804083
0
0.00172071
0.00832004
0.0103247
0.0250746
0.0190098
0.833503
0.181342
0.00244006
0.000576641
0.00849503
0.00724604
0.00266254
0.0176265
0.0874632
0.062615
0.0152903
0.00938077
0.00481769
0.00869036
0.00905124
0.00744073
0.0162885
0.0487806
0.0569451
0.00939524
0.00761831
0.00181413
0.000690584
0.000970838
0.0040951
0.0428959
0.13233
0.53521
0.0451085
0.00518829
0.000451061
0.0036849
0.00185857
0
0.00557731
0.217725
0.319265
0.0122857
0.00311297
6.44372e-005
0.00030243
0.000224847
0
0.036392
0.681024
0.0557153
0.0117273
0.0182576
0.00240688
1.83786e-005
0
0.000494179
0.0233097
0.111485
0.0493903
0.0316967
0.0518949
0.00642159
0.0027513
0.000734425
0.00653014
0.00883896
0.0567871
0.112125
0.0055438
0.00213545
0.000471311
0
0
0
0.126728
0.709924
0.0346086
0.0135303
0.0126235
0.00329917
0.0045855
0.00134498
0.0410528
0.321916
0.504737
0.0512931
0.0543898
0.060717
0.00597883
0.0110578
0.0105019
0.053502
0.0359463
0.0643188
0.122292
0.131068
0.0273196
0
0.00905014
0.0141758
0.0529372
0.033987
0.118218
0.0300721
0.0329257
0.034759
0.00340273
0.0128559
0.01025
0.139728
0.665567
0.293635
0.114243
0.113614
0.0447186
0
0.00183656
0.0282245
0.0712458
0.368348
0.162722
0.158238
0.36068
0.120511
0.0298749
0.0257869
0.0206839
0.0256303
0.0107467
0.094393
0.0628383
0.237499
0.126127
0.0817364
0.111457
0.065546
0.106769
0.0434419
0.0720256
0.172124
0.201991
0.0491997
0.0269547
0.0679709
0.163609
0.0767736
0.13129
0.195981
0.251061
0.122024
0.0391517
0.132094
0.209353
0.171557
0.106809
0.0444981
0.058649
0.00848806
0.0310943
0.0294056
0.0361797
0.0629689
0.0951573
0.107061
0.0344092
0.0325251
0.024034
0.195701
0.17507
0.348212
0.0902366
0.109779
0.130915
0.0521619
0.0607894
0.0634634
0.0574109
0.0408151
0.0567962
0.0663311
0.0677017
0.133808
0.0406219
0.0165433
0.0778662
0.280204
0.220933
0.464367
0.220585
0.0593961
0.229252
0.0745399
0.0906155
0.0349947
0.0414836
0.0449795
0.104691
0.334775
0.131769
0.057571
0.0239575
0.00929453
0.0160619
0.051022
0.0377685
0.0809983
0.0543887
0.0944836
0.0999896
0.0805809
0.0165407
0.0506671
0.102688
0.0872598
0.0928321
0.501879
0.282665
0.161523
0.0711038
0.0908298
0.0597803
0.24943
0.241031
0.0712619
0.0648678
0.0396033
0.102858
0.0149775
0.0762631
0.00350214
0.00905335
0.0104532
0.0266987
0.0251419
0.0406723
0.0205388
0.0187831
0.00336899
0.0130683
0.0482686
0.101175
0.0200818
0.0397813
0.0514373
0.0173828
0.0447577
0.011522
0.0123167
0.0878614
0.0986282
0.0152788
0.0377202
0.0204102
0.0352285
0.014315
0.0122915
0.00313748
0.549662
0.733792
0.00704399
0.038749
0.023029
0.0188167
0.031798
0.0218026
0.00688848
0.0983918
0.0889712
0.00637116
0.00829647
0.00835903
0.00597701
0.0080857
0.00156075
0.0928183
0.423402
0.0689547
0.00339981
0.00111088
0.00233317
0.00409649
0.00127458
7.67002e-005
0.00106807
0.345085
0.40592
0.00183096
0.0051533
0.00164748
0.000785901
0.00279787
0.00267894
0.0375017
0.586945
0.31898
0.000621885
0.000634822
8.9919e-005
3.85368e-005
0
0
0.184851
0.288958
0.00436623
0
0
8.65807e-005
0.000471948
0.00138934
0.00152169
0.470808
0.1752
0
0
0
0
5.40053e-005
0.000914298
0.0293682
0.152653
0.465299
0.0586591
0
0
0
0
0
0.00257764
0.499016
0.287074
0.0130562
0
0
0
0
0
0.0704254
0.339518
0.0351012
0
0
0
0
0
8.26539e-005
0.142542
0.195457
0.00753348
0
0
0
0
0
0.0120146
0.440108
0.437996
0.0587775
0
0
0
0
0
0.00226443
0.206681
0.27132
0.0155736
0
0
0
0
0
0.0185868
0.517474
0.0476312
0.000557633
0
0
0
0
0.000183866
0.0848126
0.387522
0.00576882
0.000164642
9.39769e-005
0
0.000319649
0.000187423
0.028721
0.363113
0.297853
0.073206
0.00253935
0
0
0
0
0.00226096
0.132228
0.446081
0.0156201
0
0
0
0
0
0.0483681
0.521553
0.266494
0.00166525
0.00107641
0.000666092
0
0.000329523
0.000525203
0.0484793
0.35362
0.0669524
0.00843835
0.00565623
0.00231306
0
4.70747e-005
0.00360774
0.077372
0.252565
0.0247414
0.000852142
2.71583e-005
0
0
0
0.000964633
0.143979
0.529911
0.050041
0.00128259
0.000190108
0
0
0
0.00200425
0.400088
0.529911
0.0198546
0.0158939
0.00828391
0.00305512
0.00212762
0.0124513
0.0311009
0.0804257
0.147335
0.0512256
0.0427413
0.0273205
0.00309154
0.0119579
0.0251057
0.0434447
0.0300385
0.0186076
0.0212532
0.00616456
0.00302506
0
0
0.00548161
0.0212268
0.639379
0.563297
0.0592209
0.0242444
0.0394007
0.00518813
0.0166146
0.0229565
0.069479
0.329731
0.110094
0.0346446
0.116384
0.108186
0.0522278
0.0484121
0.0636839
0.153398
0.140212
0.0230631
0.0124839
0.210187
0.150819
0.169536
0.135322
0.162853
0.106049
0.180483
0.091046
0.172456
0.0877575
0.13516
0.0559848
0.150685
0.0785349
0.202163
0.28067
0.0614276
0.0298159
0.172686
0.0711824
0.0651883
0.0889559
0.0444862
0.225712
0.146381
0.119883
0.165702
0.0327494
0.0628302
0.0550684
0.0776193
0.251698
0.163371
0.0733515
0.0484013
0.0560691
0.0823635
0.0929586
0.118368
0.0738122
0.0729683
0.0231073
0.0550214
0.00930747
0.0795173
0.0923623
0.0824117
0.0591397
0.160405
0.199689
0.101807
0.0469943
0.0230517
0.036462
0.109343
0.0225928
0.2458
0.646125
0.178694
0.0860711
0.113737
0.00812502
0.0582277
0.00948568
0.0242819
0.104893
0.0551843
0.0202571
0.00405536
0.00698539
0.00176709
0.00657599
0.00115731
0.181398
0.501552
0.0642452
0.0106289
0.00192344
0.00208176
0.00304608
0.00195739
0.00676453
0.0040476
0.268901
0.30971
0.0283999
0.0060299
0.0102431
0.000198801
0.00485576
0.000524832
0.0506427
0.578223
0.363518
0.0269397
0.00105926
0.000637683
0
0.000170947
0
0.193827
0.325632
0.00878468
5.75248e-005
4.70657e-005
0
0.000400518
0.000325375
0.00361751
0.354317
0.323613
0.00191414
0
0
0
0
0
0
0.0890088
0.454529
0.101274
0.0135488
0
0
0
0
0.000211556
0.296452
0.510508
0.0465755
0.00180887
0.000552299
0.0012887
0
0.000211556
0.0818971
0.460609
0.203063
0.000804656
0.00206029
0
0
0.000460773
0.00309475
0.407965
0.389682
0.0497276
0.00897548
0.00413764
0
0.000979241
0.00333421
0.0652322
0.0256508
0.340114
0.359838
0.0249849
0.0295667
0.00198298
0.00462696
0.000767954
0.00383139
0.130626
0.234884
0.119003
0.0762077
0.0978725
0.00118979
0.00963086
0.0212784
0.083398
0.417724
0.119938
0.0177758
0.0458129
0.0105305
0
0.00343801
0.0117621
0.212988
0.271203
0.0734683
0.0271009
0.0508449
0.0139147
0
0.0211256
0.0992945
0.497929
0.142006
0.10469
0.090499
0.205811
0.0942104
0.000402436
0.0240661
0.0306927
0.138213
0.140047
0.161713
0.137264
0.306066
0.112048
0.00281705
0.051265
0.215995
0.148013
0.0513861
0.0177277
0.00395188
0.00372794
0.00138821
0.00964202
0.0531797
0.20519
0.268903
0.00674379
0
0
0
0.00106653
0.0233834
0.13325
0.571794
0.137375
0.0284454
0.0501159
0.045597
0.0421345
0.0725361
0.0315367
0.131526
0.30148
0.0823813
6.05971e-005
0.0111952
0.0285881
0.0180823
0.160057
0.125133
0.286031
0.451506
0.0502601
0.000243276
0
0
0
0.000326187
0.0077147
0.193411
0.341508
0.0156773
2.63147e-005
0
0
0.000933682
0.000502751
0.00989993
0.424092
0.27369
0.00241481
0
0.000884738
0.00265422
0.00545977
0.0374781
0.0500767
0.415854
0.230216
0.00852837
0
0
0
0.00653577
0.00409538
0.118263
0.53098
0.111615
0.000855881
0.00025503
0.000149106
0
0.000978904
0.000672405
0.02898
0.393455
0.12872
0.00399001
0.00162182
0.00609329
0.00194328
0.00250626
0.0101252
0.0839402
0.27931
0.0268428
0.00308409
0
0
0
0.00685232
0.00368971
0.166377
0.523863
0.0276812
0
0.000846337
0.000721364
0.000277611
0.000978904
0.0096618
0.335559
0.523863
0.00744608
0.000846337
0.0109111
0.0269511
0.0182159
0.0277517
0.0407647
0.123501
0.179607
0.0206493
0.00839877
0.022001
0.0267856
0.0315089
0.0309576
0.012346
0.0275976
0.0365507
0.0439265
0.0228792
0.0101059
0.00362634
0.00350651
0.0057381
0.076897
0.602017
0.627378
0.0276823
0.0132326
0.0152279
0.00901763
0.0183537
0.0193595
0.0800709
0.0799571
0.112178
0.0521507
0.0460192
0.0143892
0.00761658
0.00828716
0.0470023
0.0691781
0.0210979
0.0147832
0.00946273
0.0125114
0.00782309
0.00190628
0.0818484
0.427267
0.0606769
0.0200661
0.0167193
0.00497615
0.00281207
0.0112439
0.00679913
0.00899347
0.0824346
0.150889
0.0675072
0.0144999
0.0100352
0.0141588
0.0055286
0.00382
0.0405857
0.744813
0.363115
0.00711643
0.00513057
0.00378229
0.00247744
0.00058079
0.000100132
0.168545
0.349016
0.0259807
0.00188251
0.00282688
0.000374
0.000431235
0
0.00344713
0.252639
0.372611
0.0453451
4.04665e-005
7.51521e-005
0
0
0
0
0.0612996
0.471285
0.196629
0.0032218
0.000340351
0.0002244
0
0
0.000349584
0.140509
0.522014
0.18988
0.00182192
0
0
0
0
0.0206195
0.353558
0.304819
0.0420429
0
0
0
0
0.00146707
0.089985
0.480755
0.163313
0.00875249
0.000728066
0.00169882
0
0.00075808
0
0.00140975
0.192345
0.557687
0.130744
0.00355047
0.000973501
0
0
0.00541778
0.0112918
0.138756
0.258819
0.0656793
0.00602146
0.00186519
0
0.000454848
0.00662171
0.103509
0.262772
0.0825586
0.0523241
0.00342802
0.0079987
0.000179668
0.00428801
0.0425751
0.0706083
0.178831
0.248369
0.239431
0.00205681
0.00915853
0.0293216
0.0620426
0.010738
0.0689141
0.188909
0.188777
0.138083
0.00187687
0.00152301
0
0.0021416
0.105142
0.276455
0.509299
0.402085
0.234149
0.00029383
0.000685603
0.0135739
0.0592897
0.0963238
0.0801613
0.168761
0.288753
0.141079
0.00157847
0.0127748
0.0342533
0.0923012
0.0843146
0.102039
0.191303
0.385677
0.177602
0.0192023
0.0336139
0.0992484
0.10338
0.182518
0.169659
0.264413
0.227746
0.105743
0.00452941
0
0.0442998
0.207012
0.144034
0.0707081
0.0992341
0.206485
0.301142
0.0861854
0.0275533
0.0401466
0.277392
0.0102412
0.0592675
0.154864
0.120378
0.192402
0.0301212
0.0620298
0.147652
0.0456429
0.00174014
0.0496847
0.18238
0.152031
0.296528
0.11023
0.12878
0.133883
0.0141223
0.0219406
0.0313888
0.124651
0.214037
0.490746
0.0850588
0.0216969
0.00871735
0.0460063
0.012181
0.0466809
0.180949
0.299555
0.422998
0.0696774
0.0240416
0.00726885
0.00633373
0.000450829
0.00382764
0.0156018
0.0295663
0.055731
0.0790065
0.249855
0.0541216
0.0064544
0
0
0
0.00315062
0.00725537
0.327524
0.60498
0.0316678
0.00407065
0.00344165
0.00693999
0.0249554
0.0427457
0.039143
0.0754466
0.0671247
0.00581362
0.00994085
0.000476407
0.000189271
0.0120965
0.00419275
0.118987
0.502716
0.329556
0.00465969
0.0116831
0
0
0
0.00254015
0.01037
0.243184
0.307572
0.00235259
0.000111518
0.000115417
0
0
0.000362878
0.0480886
0.364652
0.328861
0.000874216
0.000115417
5.1982e-005
0
0.00222614
0.00401558
0.180041
0.389205
0.192544
0.000233141
0.00107519
0
0
0
0.00553638
0.385946
0.40937
0.115688
0
0
0.00138612
0
6.17407e-005
0.000114661
0.117072
0.413742
0.219849
0.00366262
0.00296289
0.00932756
0.000541883
0.00141854
0.000802629
0.0778525
0.111493
0.0322267
0.00683519
0.0206778
0.00113586
0.000410676
0
0.00942795
0.572537
0.504534
0.0659591
0.00307009
0.00125845
0.0113571
0.00441339
0.00236351
0.0147171
0.21826
0.175581
0.0339356
0.0243061
0.010964
0.00531417
0.00274311
0.00543299
0.039031
0.13268
0.0611365
0.0159604
0.020816
0.0118825
0.0031885
0.00159596
0.003731
0.251668
0.52936
0.0415678
0.00181153
0.00599289
0.00360289
0.00596817
0.0208319
0.0197554
0.0421153
0.171237
0.0680324
0.0165234
0.0422596
0.0129737
0.00159609
0.00245438
0.000525227
0.0745391
0.69357
0.192784
0.00207936
0.011069
0.00356493
0
0
0.00253161
0.158364
0.328871
0.0278037
0
0
0
0
0
0.0462869
0.256605
0.370798
0.0219962
0
0
0
0
0
0
0.0289877
0.508487
0.130464
0
0
0
0
0
0.00397183
0.0794054
0.515898
0.245231
0.00818252
0
0
0.00095929
0.000150349
0.0914361
0.406669
0.374058
0.0220361
0.00441089
0.000106517
0
0.00434812
0.0032751
0.0242095
0.170972
0.157552
0.0135249
0.00962384
0.000745616
0
0.00793297
0.00195723
0.0113137
0.131112
0.580292
0.371016
0.0211742
0.00155747
0.00121794
0.0132216
0.0123776
0.0204743
0.0767873
0.213902
0.0930276
0.0208916
0.00495781
0.00202989
0.00222442
0.02163
0.0587068
0.120644
0.221474
0.0149869
0.00149711
0.000205738
0
0.0860274
0.115144
0.213676
0.164898
0.296183
0.0282673
0
0.00281986
0.0420873
0.00134211
0.00515327
0.0170275
0.0613701
0.45791
0.0780459
0.00405667
0.00104399
0.000206052
0.0375289
0.0201597
0.0548716
0.0719148
0.661694
0.124095
0
0.000767848
0.0158261
0.211048
0.0894051
0.135817
0.0742241
0.111076
0.0384796
0.00170872
0.047753
0.237485
0.117862
0.0157977
0.00881753
0.11105
0.283796
0.156095
0.00691397
0.0648483
0.262491
0.0845082
0.0308406
0.0428539
0.0572836
0.397272
0.101324
0.00284786
0.0241234
0.0768774
0.0303327
0.0179225
0.0666122
0.186222
0.531641
0.181864
0.00474644
0.036192
0.0650412
0.0103542
0.00156428
0.00762333
0.0911897
0.409705
0.0948542
0.0035075
0.00492516
0.0233432
0.00347967
0.00534746
0.0167718
0.0786173
0.390746
0.0699979
0.0128392
0.00443081
0.00798339
0.00126833
0.00526018
0.034296
0.112824
0.520928
0.126126
0.00795288
0.00322476
0.0042746
0
0.000769734
0.013921
0.0492182
0.504365
0.165704
0.0221151
0.00520113
0.00740999
0.003391
0.004984
0.0376936
0.0257766
0.0742279
0.0448203
0.0210156
0.00289369
0.0151282
0.00226598
0.00263938
0.0687542
0.0678464
0.421246
0.315324
0.0817143
0.000511697
0.0174458
0.000815751
0.00238705
0.0463227
0.0200925
0.139941
0.0612112
0.0121768
0.00369342
0.0115766
0.00135959
0.0038943
0.0701296
0.261444
0.711771
0.0412064
0.00415043
0.000148487
0.00829829
0.000130103
0.000132527
0.00750256
0.0266426
0.320914
0.152775
0.0256797
2.93794e-005
0.00100167
0
0
0
0.0193754
0.497796
0.126934
0.00638945
0
0
7.80616e-005
0.000220878
0.00656116
0.132856
0.502577
0.0233672
0.000232158
0
0.00044235
0
0
0
0.0968458
0.524178
0.0349561
0
0
0
0.000316783
0.000851929
0
0.0179801
0.546244
0.116176
0.00347904
0.00166564
0.000103801
0.00288053
0.00627044
0.000718937
0.0192168
0.200507
0.0471721
0.0234651
0.0151514
0.00103839
0.000265463
0.00060294
0
0.0882613
0.682384
0.031297
0.00340355
0.00108473
0
0.0123964
0.00450411
7.84501e-005
0.0429793
0.314548
0.0226311
0.0321452
0.0118423
0.00147618
0.014587
0.0326363
0.0221701
0.0400224
0.101746
0.0534261
0.00570448
0.0194931
0.00362992
0.00180357
0.00479807
0.00412178
0.0340313
0.516486
0.374405
0.00935487
0.00515107
0.00144253
0.00999347
0.0107525
0.0088438
0.0473464
0.139672
0.0688439
0.00457107
0.0236288
0.00883185
0.00315095
0.00435622
0.00640349
0.0119459
0.175049
0.65889
0.0462739
0.0106395
0.00529911
0
8.97625e-005
0.000269288
0.00543531
0.266138
0.241497
0.0149675
0
0
0
0
0
0.00842042
0.285551
0.376223
0.0447024
0
0
0.000145997
0.000246935
0.000448812
0.000802987
0.089775
0.508651
0.0847211
0
0
0
0
0
0.000557835
0.115592
0.526023
0.171777
0
0
0.00272194
0.00134296
0.00251243
0.00708401
0.157162
0.454195
0.0634932
0.00233999
0.000898838
0.00453657
0.0100162
0.0225921
0.0145011
0.0650523
0.156757
0.0343913
0.00678425
0.00190917
0.000128405
0.000223991
0.00119791
0.00082143
0.0605239
0.567123
0.36444
0.00134159
0.000128405
0.000214009
0.00224427
0.0115466
0.0151178
0.0481432
0.283888
0.360942
0.00972332
0.000899182
0.000511818
0.00363474
0.0101249
0.0100817
0.274106
0.0643409
0.00329269
0.00258574
0.000511723
0.00112683
0.00284155
0.00353607
0.0248763
0.590703
0.0866022
0
0.000362669
0.000531967
2.41446e-005
0.00104466
0.00520692
0.0180222
0.368438
0.0751262
0.0437236
0.00649398
0.00059533
0.00114981
0.000766709
0.00221123
0.0392674
0.593613
0.0852287
0.00112275
0.00656469
0.00292387
0.00211065
0.0113667
0.00999699
0.0505151
0.366655
0.0566957
0.000328462
0.00043399
0.00245927
0.00911177
0.0141709
0.0961417
0.141216
0.411003
0.100796
0.0029235
0.00105241
0.00525139
0.00585436
0.00826191
0.0135035
0.0803854
0.512049
0.0566035
0
0.0146997
0.00974337
0.0388844
0.0122742
0.112749
0.238847
0.444339
0.148771
0.0316637
0.0256215
0.0108811
0.0205115
0.00684682
0.0781732
0.14542
0.320142
0.141683
0.0902768
0.00191816
0.00879065
0.0123069
0.000978117
0.0177642
0.0780477
0.311824
0.280324
0.146065
0.00553966
0.0152284
0.0823506
0.0466686
0.145238
0.152796
0.202987
0.16399
0.206273
0.0257815
0.0146511
0.0494103
0.0727406
0.127897
0.156818
0.431732
0.283826
0.283051
0.0136346
0.0154928
0
0.0002167
0.009594
0.0159909
0.0857745
0.0685836
0.027768
0.00650124
0.00941279
0
0.000361167
0.0658892
0.274711
0.297072
0.0147581
0.0183084
0.0036649
0.00206366
0
0.0252089
0.095641
0.100616
0.200387
0.0812202
0.0433219
0.0084753
0.00732527
0
0.0458156
0.445892
0.667266
0.185191
0.0249568
0.0225742
0.0058095
0.00224475
0
3.11681e-005
0.0390637
0.243299
0.251926
0.00353651
0.00157686
0.000102096
0
0
0
0.00968333
0.219702
0.438348
0.0169171
0
0
0
0
0.00755393
0.218704
0.436252
0.0954476
0.00205067
0.00192624
0.000170159
0
0
0
0.214479
0.503325
0.19453
0.00235024
0
0
0
0.00043206
0.000367162
0.00511107
0.220085
0.580112
0.0218255
0.00196598
0.0006254
0
0.0193123
0.00358527
0.0099807
0.0814869
0.225963
0.0186288
0.015385
0.00590506
0.00616945
0.000732351
0.000726677
0.186446
0.559593
0.283795
0.00702845
0.000159282
5.30939e-005
0.000473115
0.0119791
0.00649786
0.0790868
0.185886
0.116889
0.0146504
0.00111497
0.00144296
0.0114881
0.0117506
0.0102939
0.00105304
0.0561206
0.306987
0.0951552
0.00297123
0.0425542
0.0118605
0.0189939
0.0141033
0.00175507
0.00594937
0.0919814
0.630885
0.11561
0.0308928
0.0121248
0.0156374
0.0152115
0.00012429
0.0444999
0.454213
0.194332
0.0124576
0.0289019
0.00870828
0.050314
0.0523749
0.000870029
0.0113174
0.0577921
0.229831
0.136398
0.0330935
0.0161985
0.00122096
0.00106583
6.8962e-005
0
0.0192012
0.338347
0.177945
0.00177755
0.000307498
5.55681e-005
0.000103198
0
0
0.018736
0.35989
0.410648
0.00636597
0
0.00616493
0.00791169
9.29274e-005
0
0.00366549
0.130219
0.288005
0.0131237
0.0020935
0.000388977
0.000722385
0
0
0.000420312
0.126208
0.60751
0.0995806
0.00092372
0
0
0
6.63945e-005
0.0066147
0.169434
0.331143
0.00987192
0
0.00387673
0
0.000186631
0.00574012
0.0147493
0.119063
0.409713
0.0637715
0.00103238
0
0
0
0
0
0.0672896
0.502643
0.114531
0
0.00646121
0
0
0.00180278
0.00268934
0.0573571
0.502643
0.314922
0.00494694
0.0126248
0
0.000223589
0.0176065
0.239927
0.051503
0.138573
0.0596265
0.00323193
0.0312167
0.000149614
0.000480784
0.0198596
0.515972
0.0795804
0.0845859
0.0399731
0.0565901
0.0210414
0
0
0.0232116
0.137539
0.02129
0.287764
0.382857
0.0364587
0.0947993
0
0
0.0324237
0.258558
0.038676
0.187404
0.401481
0.224438
0.0904796
0.0172973
0.0127304
0.0339542
0.165173
0.0309084
0.0349093
0.0255596
0.103694
0.131924
0.0720842
0.0900663
0.184416
0.102497
0.0236636
0.0300021
0.0319137
0.0487995
0.312307
0.0191716
0.00990445
0.0144398
0.057998
0.0130504
0.0676658
0.151368
0.387432
0.634732
0.140509
0.0996366
0.0920237
0.0245209
0.000114305
0.0156566
0.0238231
0.291562
0.0622407
0.0638772
0.128806
0.179059
0.0764288
0.0251436
0.0539801
0.0269637
0.00320188
0.0232096
0.125302
0.181728
0.225759
0.16222
0.0339355
0.0435253
0.00556893
0.000911823
0.359552
0.200058
0.109258
0.195281
0.0612978
0
0.0142453
0.0142453
0.0542682
0.168987
0.597579
0.232737
0.272293
0.0653004
0.000258313
0.00203504
0.00203504
0.0076105
0.000489348
0.0911497
0.208981
0.0668178
0.0567925
0.0094554
0.00436462
0.000584126
0.000372882
0.00342544
0.096525
0.461911
0.23422
0.0248791
0.00400399
0.00147526
0.000451461
0.00126767
0.024332
0.400655
0.35528
0.0439601
0.0074017
0.000190409
0
0
0.00114181
0.0288689
0.23858
0.509416
0.0713135
0.00105733
2.72013e-005
0
0
0.00799269
0.00127441
0.0248268
0.289838
0.238924
0.0176116
0.000378534
0.000194366
2.15962e-005
0.000424805
0
0.00396534
0.40723
0.283776
0.0213404
0
0
0
0
0.00913665
0.0643065
0.509033
0.112282
0.00150791
0
0
0
0.00297363
0.00170529
0.0207874
0.509033
0.15924
0.00527367
0
0
0
0.00170529
0.00569493
0.00814562
0.544946
0.523417
0.0544344
0
0
0
0.000822999
0.0147229
0.0200324
0.13283
0.180965
0.03687
0.00467875
0
0.00159524
0.0106308
0.0235794
0.0465476
0.441155
0.204363
0.0357671
0
0
0
0.00553976
0.0316637
0.0864905
0.0801061
0.0741756
0.0366761
0.00633678
0
0.0211151
0.0281044
0.00350503
0.00693215
0.00891633
0.0658016
0.477618
0.200522
0.0134386
0.00637826
0.00199818
0.0211768
0.0470068
0.00962963
0.0188068
0.0754632
0.0807481
0.0485312
0.0119597
0.0121259
0.00866717
0.0278061
0.0301053
0.234808
0.675487
0.113677
0.00544261
0.000605223
0.00716893
0.0206116
0.0343404
0.0252841
0.0624303
0.0924184
0.0725569
0.0219807
0.00715904
0.0255634
0.00442993
0.00953615
0.00166773
0.00256744
0.0113173
0.0305468
0.18443
0.0128071
0.0106745
0.000255015
0.000473599
0.000876281
0.000647815
0.00524547
0.0215414
0.859997
0.172111
0.00628621
0.0025793
0.00492596
0.00675619
0.0120988
0.0183518
0.00905764
0.0356444
0.00683495
0.012832
0.000258641
0.00258282
0.0178366
0.00616553
0.0125407
0.0137011
0.314171
0.0944152
0.0132842
0
0
5.29534e-005
2.26943e-005
0.000257219
0.0102983
0.429191
0.178417
0.000692023
0.000981898
0
0
0
0
0.0115418
0.334827
0.438177
0.0151968
0.00116156
0.001245
0.00386074
0.00111275
0.000567876
0.00695647
0.214774
0.209665
0.0157901
0.00169442
0.00062543
0.000278562
0.000119384
0
0.00205712
0.146613
0.554743
0.0709212
0.00235727
0
0
0.00528075
0.0152581
0.0011705
0.10696
0.335523
0.0644556
0.0359137
0
0
0.00880126
0.0254301
0
0.04612
0.347716
0.242215
0.000186288
9.80464e-006
0
0
0
0.000140715
0.0224108
0.49498
0.161118
0.0237407
0
0
0
0
0
0.00913412
0.371567
0.478315
0.141809
0.00136065
0.000472981
0.00124373
0.00359361
0
0.00911507
0.115339
0.28522
0.43337
0.026238
0.00938878
0.00244077
0.00143195
0
0
0.00733037
0.263728
0.130224
0
0
0
0
0
0.000974752
0.0959847
0.438522
0.451616
0.00694093
0
0
0
0
0
0.00552646
0.393176
0.329235
0.111881
0.0124874
0.0209597
0.00667376
0
0
0
0.075431
0.212432
0.432665
0.069737
0.0324399
0.0072998
0
0
0
0.0100357
0.418886
0.0915881
0.00315932
0
0
0
0
0
0.124949
0.404019
0.47271
0.0239035
0
0
0
0
0
0.0125794
0.0487215
0.382942
0.12855
0.00551821
0.000703374
0
0
0
0.000411983
0.0226399
0.335704
0.365839
0.0110803
0
0
0
0
0.00288388
0.130303
0.496245
0.038343
0
0
0
0
0
1.32812e-005
0.0432575
0.496245
0.159286
0.0033093
0
0
0
0.0005292
0.00387504
0.00756915
0.183152
0.71901
0.0496233
0.00310068
0.000230194
0.000427503
0
0.00200234
0.00395571
0.0252845
0.4389
0.0863384
0.0135768
0.00171571
0.00128338
0
0.00312137
0.0190016
0.286164
0.276441
0.0239144
0.00662727
0.00248112
0.00299252
0.0027348
0.0137493
0.00358002
0.0262618
0.105499
0.0370497
0.0290732
0.00635528
0.005939
0.0043368
0.0104238
0.0536759
0.104521
0.348703
0.250557
0.105793
0.0567494
0.0212542
0.00245237
0.0245745
0.0516461
0.153863
0.181061
0.130892
0.130623
0.13289
0.0228576
0.0776051
0.0753986
0.0272976
0.065923
0.0803502
0.14196
0.12167
0.097856
0.0915095
0.0181565
0.0388014
0.161014
0.161369
0.322014
0.142069
0.0778076
0.151475
0.125641
0.0370319
0.145497
0.00959903
0.0312997
0.0145136
0.12607
0.431556
0.120381
0.00289677
0
0.00609766
0.0184403
0.0240271
0.0276484
0.0520773
0.0483417
0.0329208
0.00960292
0.0113654
0.0155212
0.00312792
0.0108739
0.00835382
0.0432173
0.655707
0.40923
0.0232938
0.000305947
0.00227514
0.00468674
0.00773011
0.0300453
0.0728668
0.0976288
0.101918
0.0597833
0.0282726
0.0136207
0.0222503
0.0262393
0.0733235
0.110521
0.0836098
0.043678
0.065718
0.077891
0.0340799
0.0593802
0.0511134
0.178591
0.0815785
0.08474
0.0514002
0.245537
0.182833
0.116198
0.0141198
0.0272984
0.091825
0.139822
0.066981
0.151797
0.204178
0.18471
0.0268119
0.174687
0.157339
0.162676
0.0714012
0.0597816
0.109674
0.139287
0.160612
0.157607
0.0198192
0.0158478
0.0172417
0.00644791
0.00173138
0.0072187
0.0589618
0.180671
0.0528202
0.0273691
0.0186205
0.00889138
0.00334608
0
0.00103124
0.0367773
0.86669
0.227243
0.0316879
0.03202
0.0167531
0.00528702
0.00342449
0.00574402
0.0121235
0.0438214
0.0358637
0.0356933
0.0419392
0.0338561
0.00940822
0.0055769
0.00681895
0.00504157
0.113774
0.0992365
0.00618327
0.0018499
0.00119894
0.000192629
0
0.000764102
0.00339447
0.437045
0.233968
0.0237739
0.000464686
0
0
0
0.0012735
0.00495402
0.410593
0.628476
0.0173642
0.0133234
0.00730616
0.00243805
0.000658487
0.00579161
0.00755002
0.0937864
0.0992991
0.0377441
0.0169622
0.000429355
0.00349431
0.00197317
0.0100984
0.029154
0.15784
0.271551
0.144235
0.00121614
0
0
0
0.000151228
0.00105674
0.0907925
0.482936
0.518448
0.0055081
0
0
0
0
0
0.00651943
0.421517
0.123287
0.0115423
0.00365715
0.0126491
0.00450799
0.00214888
0.00928387
0.0396423
0.230299
0.319637
0.00889114
0.00629571
0.0129612
0.00265203
0.00128048
0.0141851
0.0213133
0.23334
0.536913
0.0896998
0.000847047
0
0
0
0
0.00333807
0.140017
0.521013
0.425358
0.00638002
0.000669581
0.000669581
9.91932e-005
0.000184216
0.00106014
0.0164278
0.272778
0.0506599
0.00261009
0.00119715
0
0.00095295
0.0086014
0.0253737
0.0899049
0.228005
0.164559
0.00850963
0.00468707
0.00468707
0.000810522
0.00199048
0.0122527
0.0229022
0.329277
0.66859
0.0202173
0.0045959
0.0081182
0.000462769
0.00114539
9.53217e-005
0.012912
0.118698
0.526179
0.042049
0.0125435
0.0117988
0.000277661
0.00251741
0.00748338
0.0303898
0.134322
0.132853
0.00809336
0.0137888
0.0326037
0.0040539
0.0221599
0.0184995
0.0349228
0.0423609
0.0513864
0.0131087
0.0222286
0.0468353
0.00438668
0.0564348
0.0323123
0.0356666
0.147651
0.589255
0.129189
0.0446904
0.0206156
0.0217762
0.0117217
0.068211
0.179588
0.0608261
0.0913996
0.0622885
0.0952905
0.0998082
0.0385063
0.0144601
0.0579284
0.108423
0.0851426
0.0837926
0.0400791
0.065748
0.0531143
0.0136957
0.0784649
0.1088
0.149308
0.121545
0.088716
0.057515
0.0784934
0.0783207
0.0174108
0.00116031
0.152812
0.156232
0.0479243
0.0818517
0.105201
0.131446
0.0976304
0.0208532
0.0357033
0.0233139
0.0338955
0.170208
0.259417
0.268363
0.160345
0.0943978
0.0182498
0.0540849
0.0254112
0.0775045
0.0612405
0.078408
0.0787626
0.136227
0.117884
0.00487081
0.0179073
0.158273
0.151984
0.0424293
0.164943
0.234346
0.207298
0.14663
0.0154511
0.0660762
0.24033
0.126828