0.00375319
0.0124421
0.0834193
0.128555
0.328868
0.186273
0.126881
0.00490003
0.0191411
0.00888042
0.022144
0.0587061
0.0489338
0.0932359
0.097249
0.0387462
0.0197915
0.0661615
0
0.00485414
0.0242708
0.082309
0.524331
0.474226
0.225462
0.00482348
0.00237053
0.00705143
0.0302249
0.0757107
0.0761828
0.213617
0.183735
0.0519741
0.0321853
0.00805683
0.0200494
0.122258
0.246244
0.140398
0.035851
0.080223
0.072333
0.0595232
0.139689
0.0275854
0.134311
0.17663
0.082298
0.0847513
0.110131
0.0323303
0.0575296
0.0865038
0.0832182
0.0894623
0.27158
0.206783
0.0932455
0.127771
0.121433
0.185464
0.0524806
0.0836772
0.0781711
0.0898441
0.101388
0.134602
0.193015
0.0597014
0.204889
0.152952
0.022128
0.0964427
0.0647618
0.0735824
0.08706
0.0609889
0.00397518
0.0104746
0.0192122
0.0412524
0.168626
0.184294
0.186861
0.145909
0.0391393
0.00089775
0.000747313
0.0209748
0.0497497
0.101075
0.0642615
0.0520655
0.11331
0.109707
0.00280782
0.0783176
0.0938591
0.194738
0.586036
0.180073
0.0588087
0.13684
0.0862852
0
0.0152488
0.100878
0.0293569
0.0348483
0.0443787
0.0460701
0.033677
0.00157066
0.00206604
0.000688681
0.0286497
0.0595992
0.024154
0.0430775
0.0162302
0.0145101
0.00297109
0.0377097
0.00820441
0.0544984
0.20182
0.23829
0.0270419
0.0101346
0.011655
0.00372582
0.0010297
0.000343232
0.0799489
0.809487
0.195981
0.00860243
0.00289462
0.00217665
0.000230169
0.0226123
0.00592765
0.225181
0.0403805
0.00318857
0.0115452
0.00253609
0.00157595
0.00407256
0.0264168
0.0117378
0.0340966
0.0458231
0.0039649
0.00302704
0.00233532
0.00227503
0.0189833
0.0293692
0.0239303
0.0544416
0.467148
0.0251648
0.00299292
0.00104432
0
0.0001462
0.0131522
0.0141116
0.264989
0.334715
0.00111334
0.000336983
0.000144421
0
0.00421633
0.0106254
0.0352629
0.703735
0.0509036
0.0243694
0.00313141
0.0128716
0.00260961
0.020906
0.0237949
0.0159827
0.052976
0.0768277
0.0640275
0.00761818
0.0194638
0.00223438
0.00501789
0.0177039
0.0101357
0.0666466
0.250866
0.018255
0.00127536
0
0
0.00612244
0.00747066
0.10121
0.705408
0.119742
0.050957
0.00673633
0
0
0.00488748
0.014477
0.324801
0.400255
0.102241
0.06024
0.0293281
0.0180363
0.00205306
0.0407223
0.11938
0.0523999
0.123418
0.0327215
0.139111
0.0809181
0.0539475
0.0344173
0.0527798
0.111409
0.104373
0.121793
0.0858014
0.0376804
0.00855797
0
0
0.0444496
0.123968
0.491191
0.308445
0.132189
0.0984022
0.0332429
0.0156486
0.0048021
0.0586434
0.139492
0.240788
0.343883
0.100942
0.190156
0.0954534
0.120977
0.0586889
0.0520565
0.0230621
0.0500413
0.0599582
0.17363
0.124479
0.0436592
0.103747
0.183084
0.286309
0.0442887
0.0193366
0.0992322
0.162647
0.129458
0.0506815
0.0610232
0.0480362
0.0807786
0.0530994
0.0909878
0.204832
0.117388
0.040386
0.0255019
0.0856202
0.237157
0.390429
0.161981
0.0584647
0.103451
0.0232652
0.0234971
0.00705576
0.047468
0.0906092
0.122541
0.0137962
0.00470609
0.0176559
0.01658
0.159473
0.120863
0.272505
0.170758
0.216611
0.0250825
0.0213909
0.00995635
0.0484634
0.038817
0.0358552
0.0564882
0.0983833
0.172352
0.0470996
0.00486732
0.0223794
0.0673415
0.280791
0.298026
0.566512
0.247762
0.174449
0.0848173
0.0367789
0.0205263
0
0.00186252
0.0292733
0.152112
0.532625
0.171266
0.0428804
0.00297945
0.00109767
0.00224467
0.0145687
0.0208508
0.0569866
0.170073
0.0807171
0.0463523
0.0426168
0.00768369
0
0.0305544
0.0911173
0.275211
0.59214
0.0831192
0.0166973
0.0192682
0.000773054
0.00167122
0.0386302
0.063342
0.0998705
0.182939
0.0549936
0.046925
0.0525285
0.00541138
0.0183081
0.0184476
0.0292738
0.0284875
0.0380323
0.0802508
0.0926274
0.100153
0.0121233
0.0256046
0.0328393
0.0425537
0.0263023
0.0894434
0.108309
0.0464304
0.0751165
0.0400943
0.0214133
0.126834
0.133303
0.0292187
0.0364389
0.0859855
0.057177
0.0468958
0.0291651
0.0458724
0.594032
0.526675
0.0134628
0.0809884
0.117239
0.0288485
0.0212361
0.0453135
0.00583073
0.042122
0.037174
0.00372736
0.0102256
0.00727278
0.000568408
0.00959822
0.00949193
0.0424981
0.297407
0.0532289
0.000750691
0.00354292
0.00258897
0
0.00321405
0.00668561
0.00655344
0.259427
0.286481
0.00161597
0.00863303
0.00507872
0.000494631
0.00324584
0.00258223
0.0691753
0.680536
0.46791
0.000230853
0.000868687
0
0
0.00157993
0.000621669
0.0828233
0.256657
0.0061954
6.64128e-005
0.00028281
0.000236483
0
0
0.00715794
0.347338
0.238437
8.26434e-005
0
0
0
0.000505551
0.000126388
0.0445531
0.119906
0.523566
0.104343
0
0
0
0
0
0.000107113
0.464276
0.422113
0.0165248
0
0
0
0
0
0.0513297
0.316573
0.0509964
0
0
0
0
0.000487861
0.000746591
0.149595
0.214573
0.00211541
0
0
0
0
6.96944e-005
0.0101145
0.466902
0.41568
0.0790682
0
0
0
0
0
0.00301214
0.204586
0.260004
0.00259193
0
0
0
0
0
0.0210519
0.519976
0.0701113
0.000336487
3.65812e-005
0
0
0
0
0.109584
0.362969
0.0162475
0.00092314
0.000256068
0
0
0.000169801
0.000635996
0.38328
0.187937
0.0710081
0
0
0
0
0
0.00153145
0.167695
0.46611
0.0158484
0
0
0
0
0
0.0333453
0.54984
0.245965
0.00527616
0.00027237
0.000108941
0
0
0.000873883
0.0159595
0.28771
0.0559006
0.0106742
0.00103682
0.000402581
0
0.00172777
0.00676818
0.041715
0.143746
0.0334685
0.00062908
0
0
0
0
0.00020406
0.140154
0.597024
0.0659597
0.00115706
0
0
0
0.00103666
0.00637721
0.333361
0.582535
0.0190833
0.0240577
0.00516602
0.0037719
0.00311766
0.0210959
0.026482
0.0512859
0.0985517
0.0630889
0.020966
0.00410766
0.00756094
0.0168467
0.0522231
0.0610063
0.033638
0.0271313
0.0293417
0.010748
0.00218826
0.000630422
0.00044538
0.010123
0.0746708
0.552836
0.653866
0.03588
0.0210064
0.0043415
0.00313391
0.0117704
0.0233554
0.159436
0.192586
0.11406
0.0494247
0.0963787
0.0257284
0.0208937
0.0393419
0.0932892
0.101276
0.0534096
0.00749861
0.0273531
0.133806
0.0861114
0.112937
0.316662
0.396985
0.22878
0.168074
0.139811
0.0197281
0.046129
0.00411955
0.009946
0.0316455
0.0642087
0.160184
0.0784649
0.0143509
0.035266
0.0569417
0.00508517
0.016909
0.250815
0.415447
0.266509
0.121749
0.090136
0.0154282
0.0947759
0.148403
0.106953
0.256975
0.393033
0.181169
0.0282046
0.0455192
0.0427779
0.0227621
0.058394
0.116955
0.130511
0.133877
0.108112
0.072068
0.110882
0.00483449
0.38551
0.188596
0.0436542
0.156572
0.0895531
0.113352
0.0701361
0.0891371
0.251912
0.118358
0.124102
0.0947422
0.184339
0.104295
0.134252
0.0993813
0.103965
0.0136865
0.00751993
0.029143
0.0444242
0.0308775
0.00624515
0.014676
0.00996065
0.00864446
0.00571652
0.0109252
0.166801
0.340398
0.0483629
0.00841893
0.0109109
0.00240327
0.000357136
0.00886809
0.0063465
0.0171174
0.0774483
0.218293
0.0497184
0.0400152
0.0187546
0.0153821
0.000997521
0.00423932
0.0911158
0.69983
0.469917
0.0490419
0.0233578
0.00408774
0.00162082
0.00126687
0.00169724
0.165251
0.289467
0.00925057
0.00108117
0.000361846
2.84212e-005
0
0.000698436
0.0100645
0.329054
0.389078
0.00121529
7.31412e-005
0
0
0
0
0.000318736
0.086199
0.473742
0.12282
0.00270004
0
0
0
9.97766e-005
0
0.271957
0.500849
0.0884379
0.00230801
0
0
0
0
0.0757374
0.393732
0.232287
7.42342e-005
0
0
0.000122464
0.000227434
0
0.423287
0.331773
0.058024
0
0
0
0.00215677
0.00462424
0.0353268
0.0354522
0.360228
0.384028
0.0276763
0.00568277
0.00312205
0.00219527
0.00159204
0
0.234407
0.292877
0.117359
0.0299033
0.013284
0.00520341
0.0103966
0.0161979
0.00867791
0.444398
0.0772491
0.00320021
0.00673972
0.00600394
0.00900591
0.00497941
0.0239354
0.215123
0.212297
0.0270758
0.0022985
0.0112329
0.0100066
0.0150099
0.00581017
0.0771812
0.577613
0.238402
0.149457
0.0639451
0.106454
0.0168203
0.0159212
0.0108662
0.0305894
0.0659894
0.134161
0.168382
0.09573
0.232813
0.0256754
0.0299444
0.0190067
0.140758
0.254995
0.0654545
0.00765326
6.62711e-005
0.00125915
0.00112169
0.00168254
0.0149081
0.145999
0.361993
0.0243497
0
0
0
0
0
0.128603
0.515227
0.20895
0.038492
0.0476109
0.0541123
0.0642078
0.0399024
0.0296552
0.0638187
0.235706
0.221456
0.00934788
0.00685601
0.0291525
0.054077
0.0986167
0.0385318
0.247847
0.481942
0.165646
0
0
0
0
0
0.00521609
0.201875
0.3151
0.0223276
0
0
0
0
0
0.0349248
0.399757
0.324055
0.00205974
0
0
0.00264817
0.0141362
0.0194661
0.018901
0.405542
0.246177
0.0212957
0
0
9.2598e-005
0.000370392
0.00538461
0.102579
0.523147
0.176247
0
0.000382106
8.04464e-005
0
0
0
0.0961014
0.337993
0.162912
0.00228861
0.000958553
0.000134077
0
0.000614605
0.00280218
0.100956
0.160749
0.0214348
0.00867946
8.61723e-006
0
0
0
0.00739978
0.241804
0.606427
0.0706157
0.000163727
6.03206e-005
0
0
0.00128473
0.00673235
0.356105
0.442184
0.00552194
0.00114609
0.00141207
8.761e-005
0.00980592
0.0168999
0.0370298
0.130984
0.143587
0.0158597
0.0341605
0.00218145
0
0.0247267
0.115771
0.268501
0.203947
0.0892047
0.0327788
0.0337273
0.00258251
0.00853422
0.00418919
0.0194362
0.0482597
0.570225
0.364774
0.0200896
0.0258066
0.00689571
0.0142237
0.0167753
0.0998503
0.309594
0.190769
0.102158
0.042452
0.0423882
0.122997
0.0227361
0.00728649
0.0267176
0.141441
0.0740227
0.0739828
0.0646158
0.100425
0.022382
0.0316599
0.0496263
0.146524
0.130846
0.0588582
0.0359186
0.0352917
0.00427522
0.0677639
0.013544
0.0194566
0.145967
0.500506
0.201426
0.0524656
0.0327604
0.0285678
0
0.0242309
0.0642056
0.271016
0.60416
0.100472
0.0177868
0.0497188
0.00449833
0.000918516
0.0029801
0.0635523
0.253128
0.0382031
0.00944992
0.00363507
0.00520998
8.02964e-005
0
0.0075288
0.260509
0.492919
0.024693
0.00461319
0.000528742
0.000369461
0
0
0.00167968
0.0493318
0.355413
0.23714
0.00495821
0.000694336
0.00619933
0.000562075
0
0.000579016
0.124578
0.55605
0.232718
0.00316291
0
0
0
0
0.0121949
0.348267
0.259276
0.00510128
0
0
0
0
0
0.0741484
0.483404
0.209599
0.0129805
0.000256329
0.000476039
0
0
0
0.000594013
0.225916
0.452599
0.134687
0.00043914
0
0
0
0.00149964
0.00444423
0.295001
0.33029
0.0560566
0.000427215
0.000793399
0
0
0.00592959
0.124068
0.297253
0.106458
0.0293858
0.00598275
0.00466216
0.000911243
0
0.0587796
0.148949
0.22946
0.164421
0.0297193
0.00877101
0.00861422
0.00744283
0
0.00242177
0.0164922
0.185259
0.237774
0.0960471
0.0025693
0.00378023
0
0
0.0437766
0.278112
0.568138
0.424823
0.13669
0.00228177
0.00258536
0
0.000551027
0.111045
0.222192
0.206397
0.148671
0.0106876
0.00359385
0.00301976
0.00532195
0
0.0937452
0.258556
0.237956
0.283346
0.0436186
0.0211751
0.013531
0.0539455
0.0370955
0.141374
0.399853
0.399924
0.149402
0.0318321
0.00259541
0.007378
0.0136694
0.032428
0.107707
0.270221
0.222178
0.12657
0.233886
0.0617005
0.0296745
0.0257191
0.0524238
0.0128105
0.106196
0.221244
0.203791
0.112493
0.0551252
0.0520094
0.131524
0.062086
0
0.0564464
0.187168
0.201561
0.232691
0.0630364
0.14412
0.18802
0.0535777
0.0050961
0.086514
0.19214
0.245069
0.462164
0.0803149
0.0139498
0.0116547
0.00734191
0.00131056
0.0664641
0.212177
0.281909
0.354704
0.0458264
0.0269632
0.0170332
0.000896389
0
0.00262192
0.0171871
0.0380509
0.0420548
0.062049
0.286644
0.0895525
0.00715825
0
4.63416e-005
0.00043011
0.00209016
0.0246891
0.33892
0.526388
0.0570157
0
0.00127197
0.00696548
0.0300349
0.0454349
0.0511762
0.12091
0.0854458
0.0131782
0.000563823
0.000505435
0.000843699
0.00599046
0.0131226
0.120334
0.608252
0.185038
0.00709842
8.05461e-005
0
0
0
0
0.0246634
0.255531
0.261977
0.00907183
0
0
0
0
0.000363232
0.042677
0.395947
0.192679
0.000537987
0
0
0
0.000542876
0.00200237
0.107927
0.509826
0.0933966
0.000508619
0
0
0
0
0
0.271493
0.512672
0.0470275
5.03695e-005
0
0.00231686
0.00367029
0.000917572
0.0026677
0.0634226
0.450603
0.0876802
0.00239479
0.00322074
0.00402266
0.00611715
0.00235354
0.0356501
0.139139
0.102728
0.0202465
0.00422444
0.00552912
0.00306523
0.000738244
0.000131082
0
0.419264
0.639231
0.04277
0.00148934
0.00220956
0.0141394
0.00237129
0.0127235
0.0871319
0.192282
0.138231
0.051037
0.00248223
0.00814973
0.0086905
0.0108218
0.0179049
0.0893259
0.334646
0.169733
0.0175199
0.00530587
0.000177135
0
0.0172955
0.0336118
0.102972
0.524191
0.109635
0.0247257
0.0173456
0.00123994
0.0419788
0.0427416
0.0777216
0.103813
0.21699
0.151464
0.0405284
0.010735
0.0139461
0.0141633
0.0134959
0.0349737
0.06496
0.557949
0.21066
0.0487497
0.0117118
0
0
0.00218321
0.00760774
0.120952
0.346549
0.022045
0.00155796
0.00212521
0.000196136
0
0
0.0141675
0.219915
0.436053
0.0339779
0
0
0
0.00224037
0.00210598
0.00399434
0.0266168
0.44368
0.134097
0.00389154
0.000721367
0
0
0
0
0.0270814
0.534501
0.26472
0.00624964
0
0
0
0.000368822
0.0471409
0.296454
0.414303
0.0347178
0
9.66659e-005
0.000179522
0.00194257
0.00842554
0.0724357
0.239907
0.174949
0.0192251
0.000139089
0.000676661
0.00125666
0
0.000614703
0.000153676
0.0524191
0.537268
0.386015
0.0299862
0.000789078
0.00125666
0.00590908
0.00896583
0.00632661
0.0676949
0.245712
0.265345
0.0359813
0.00552355
0.0087966
0.00184881
0.00895242
0.0526908
0.167806
0.142147
0.00549811
0.000359834
0.000236915
0.000439985
0.028018
0.112326
0.222406
0.304957
0.349317
0.00475941
0.0002159
0
0.00252656
0.00562387
0.0059444
0.0101743
0.0871995
0.31014
0.0840314
0.00610421
0.00193392
0.00307989
0.0126558
0.0149599
0.0404676
0.178602
0.672502
0.0862445
0
0
0.00419355
0.106475
0.169832
0.186907
0.12482
0.143809
0.0154264
0.0277068
0.02837
0.0408873
0.0681298
0.0585791
0.0420956
0.0482415
0.289213
0.0989057
0.0889018
0.0472834
0.0581928
0.0437713
0.020026
0.0415367
0.112218
0.521055
0.0467511
0.0245372
0.0144763
0.019995
0.0262628
0.00326795
0.00522836
0.135824
0.595
0.123638
0.0825147
0.0301306
0.0168057
0.000798715
0.00666411
0.0166183
0.0856097
0.477878
0.0860508
0.0232771
0.00569442
0.00633404
0.00502518
0.00807383
0.0249333
0.0869064
0.339603
0.0699752
0.01281
0.00361897
0.00405389
0
0
0
0.144232
0.537619
0.219957
0.0681715
0.0199274
0.000904863
0.00509696
0.00152691
0.00244388
0.0580889
0.305527
0.293461
0.0949687
0.018393
0.0106283
0.00682915
0.0065415
0.0240736
0.0368248
0.0644811
0.0632381
0.0161669
0.00376504
0.00413565
0.0022069
0.00295547
0.0235659
0.085886
0.369923
0.452683
0.0371176
0.000590717
0.000590807
0.00622133
0.00423428
0.0152439
0.0507172
0.103052
0.070917
0.0338031
0.00619992
0.0108427
0.00162755
0.00254057
0.0463177
0.454165
0.575327
0.0802242
0.00795798
0.00080353
0.00154896
0
0
0.00170056
0.0261208
0.256745
0.260508
0.0201133
0
0
0
0
0
0.0105293
0.450248
0.247235
0.00477168
0
0
0
0
0.0182091
0.23782
0.383104
0.0504733
0.00100508
0
0
0
0
0.00243598
0.225386
0.536135
0.0616322
0.000143583
0
0
0.00438197
0.00472631
0
0.0134578
0.509875
0.210047
0.0178879
0.000369631
0.00207837
0.0244464
0.0104659
0.0171873
0.0745734
0.124464
0.0541689
0.0338649
0.00262126
0.0145486
0.00796797
0.016338
0.00556904
0.266298
0.67518
0.0659379
0.00457194
0.00317839
0.00787393
0.0251249
0.0293675
0.0183708
0.112422
0.1495
0.0883625
0.0388397
0.0287668
0.0551175
0.0506796
0.0473025
0.0828337
0.0760483
0.189648
0.0654297
0.1338
0.0302346
0.0228026
0.0249409
0.0180365
0.0238421
0.0472952
0.460082
0.260004
0.0468776
0.00974651
0.00332492
0.0272855
0.0998203
0.0306068
0.173857
0.500734
0.0798734
0.134073
0.0265439
0.00379223
0.0433891
0.117192
0.0297358
0.0956256
0.307214
0.240967
0.034985
0.00579682
0.0241657
0.00263702
0.00148147
0.00151754
0.00427244
0.190142
0.258839
0.00772543
0.000447457
0.000951495
7.15412e-006
0
0
0.000542295
0.253429
0.468591
0.0361497
0
0.000135928
0.00377899
0.00915796
0.00506273
0.00156224
0.0562324
0.380926
0.0428482
0.0012858
0.00669498
5.00789e-005
0.000195398
0.000701524
0.00477605
0.101358
0.570701
0.262535
0.0139294
0.000951495
0
6.34352e-005
1.58588e-005
0
0.125754
0.371111
0.107558
0.000275536
0.000352514
0.00429422
0.00187545
0.000111012
0.00203772
0.0538072
0.304804
0.118511
0.00192875
0.0024676
0
0
0.000655387
0.0124524
0.0421288
0.388623
0.339007
0.0104785
0
0.0037532
0.000204487
0.000393232
0.00747142
0.0141803
0.38738
0.501903
0.0214025
0.00437413
0.00452567
0.00168072
4.30401e-005
0.00512347
0.205351
0.105674
0.0211934
0.000747793
0.000956708
0.00240352
0.000215508
0
0.0164917
0.606262
0.108855
0.00119106
0
0.00175699
0.00964122
0.000215508
0
0.00926239
0.231773
0.143895
0.186453
0.0248002
0.012531
0.0253331
3.07869e-005
0
0.023728
0.606262
0.162626
0.0284103
0.0206264
0.0138941
0.00728168
0
0
0.0290277
0.486012
0.0550393
0.00274884
0
0.00728168
0.00457564
0.00392609
0
0.0657496
0.42651
0.105072
0.0550543
0.0201063
0.00436901
0.105913
0.0291029
0.0196168
0.0563464
0.568104
0.0916362
0.0265877
0.0184451
0.0264228
0.100133
0.127634
0.166713
0.0932417
0.207708
0.127022
0.106003
0.0444115
0.0158537
0.000573469
0.0108959
0.00757197
0.0631186
0.25949
0.262192
0.15326
0.055043
0
0.000822686
0.00718158
0.0156625
0.0619168
0.157978
0.361402
0.210379
0.0441772
0.00712567
0.0159955
0.155194
0.281506
0.123259
0.108695
0.190673
0.130011
0.0633613
0.000693934
0.0169812
0.131798
0.366528
0.309702
0.18888
0.252791
0.122252
0.0283538
0.00580712
0.000315658
0.00160582
0.0170149
0.0632829
0.0867307
0.0584294
0.0336082
0.00468586
0.00469965
4.50939e-005
0.00144478
0.0723239
0.429588
0.220955
0.0131658
0.00474562
0.000512414
0.000671378
0.00353576
0.0622724
0.302631
0.133054
0.0950463
0.0414706
0.0162795
0.00117179
0.00180487
0
0.0465446
0.531436
0.513699
0.122422
0.00438415
0.00136856
7.3202e-005
8.94692e-005
0
8.44619e-005
0.0515191
0.317619
0.149305
0.000938908
0
0
0
0
0
0.0236236
0.426309
0.228401
0.0033753
0
0
0
0
0.00387777
0.306443
0.382881
0.0577387
0.000190868
0
0
0
0.0014849
0.000484811
0.263344
0.521929
0.0506656
0
0
0
0.000578951
0.00226704
0.00566033
0.0237622
0.531791
0.2882
0.00718674
0
0.00250829
0.00370978
0.00453522
0.0111755
0.03228
0.138585
0.115243
0.0581375
0.0145753
0.0201876
0.0259685
0.0118005
0.00944606
0.114083
0.663794
0.0709385
0
0
0.000277084
0.00397988
0.00928467
0.0133985
0.0437749
0.130648
0.14105
0.0564344
0.00457409
0.00193959
0.00357015
0.0226974
0.0348615
0.0050512
0.122651
0.436642
0.153983
0.013731
0.00267449
0.00513537
0.0461148
0.0659116
0.0132061
0.0621657
0.168213
0.0923596
0.00819293
0.00778928
0.015557
0.0138316
0.00261874
0.0086332
0.0964496
0.586639
0.369009
0.0344655
0.00180036
0.00729177
0.0256416
0.019353
0.0273219
0.0666083
0.290429
0.141107
0.0189627
0.0128043
0.0121529
0.00451785
0.011567
0.0052979
0.00594297
0.0160235
0.178077
0.0945522
0.0067303
0.00353673
2.28156e-005
0.00223347
0.00109605
0.00710292
0.020142
0.332558
0.579156
0.05677
0.000433494
0.00225756
0.009167
0.0110921
0.0189108
0.00901646
0.0350835
0.0855896
0.00880628
0.00331956
0.00234817
0.00438821
0.00182097
0.00637649
0.00264467
0.121592
0.644378
0.0794814
0.00434397
0
0
0.00054579
0.01037
0.0038673
0.116312
0.349967
0.0331052
0
0.0026147
0
0.000327474
0.00622201
0.000768082
0.102645
0.425862
0.11678
0.0074826
0.000545166
8.63508e-005
7.797e-005
0.00148143
0
0.0681125
0.475976
0.130942
0.000388096
0.000373528
0
4.6782e-005
0.000888859
0
0.0208677
0.447736
0.399132
0.00562962
0.00862711
0
0
0.00888386
0.102287
0.0582604
0.217394
0.186539
0.0315437
0.0382328
0
0
0.0177317
0.349961
0.150833
0.0868674
0.170858
0.0834151
0.00123244
0
0
0.00126912
0.0237601
0.0132753
0.240919
0.494175
0.0334848
0.0259737
0
0
0.0021152
0.0568623
0.0705026
0.208553
0.507105
0.209573
0.173077
0.0283548
0.0136657
0.0158141
0.155884
0.059692
0.0494742
0.0734361
0.130259
0.292404
0.157061
0.148878
0.039665
0.0187051
0.0170121
0.0252407
0.0177225
0.0947351
0.201856
0.00989463
0.00195224
0.000568484
0.0180977
0.027832
0.071983
0.198773
0.385543
0.602006
0.103019
0.0471994
0.00845168
0.000955442
0
0.0036326
0.0263912
0.317879
0.0963003
0.154756
0.212212
0.0864512
0.00692991
0.0160238
0.0101507
0.00773748
0.010473
0.0429093
0.254533
0.292775
0.144624
0.0231171
0.0179119
0.000736903
0.00110535
0.00837018
0.440186
0.202332
0.0891558
0.0379246
0
0
0
0
0.0470883
0.196071
0.565921
0.275615
0.0464422
0
0
0
0
0.0239652
0.00794266
0.161592
0.300045
0.0374222
0.0121872
0.00305292
0
0
0.0024006
0
0.0874839
0.481183
0.134318
0.0153777
3.36904e-005
0
0
0
0.0181253
0.382606
0.279142
0.00536343
0
0
0
0
0.0140564
0.000664862
0.331202
0.489378
0.0487269
0.00132191
0
0
0
0.0018023
0
0.018931
0.466356
0.229037
0.0154376
0
0
0
0
0.00300732
0.00393186
0.366396
0.305289
0.0121995
0.00165368
0
0
0.00194472
0
0.137193
0.5495
0.14724
0.00328148
0.00116624
5.27219e-005
0
0
0.00495827
0.0262283
0.284242
0.13864
0.0234806
0.00557735
0.000904532
0.000998143
0.00116683
0.0784618
0.0615139
0.297392
0.623928
0.0627757
0.00998691
0.000854247
0.00341699
0.0300108
0.0840394
0.0710852
0.0649412
0.0982893
0.127723
0.149955
0.0308002
0.0239189
0.0193129
0.13261
0.170009
0.199703
0.141279
0.0971748
0.0254192
0.00593557
0.0111303
0.0196472
0.147997
0.186361
0.0667419
0.0932032
0.117317
0.133213
0.0362124
0.0406414
0.0143223
0.000805603
0.000250444
0.00888757
0.182189
0.379553
0.194972
0.0315746
0.00200274
0.000805603
0.00134267
0.00604134
0.0280442
0.119256
0.208346
0.0799574
0.0078177
0.00172571
0.00134267
0
0.00336412
0.0226011
0.344352
0.601279
0.0722497
0.00777814
0.00410308
0.000609869
0
0.0169819
0.0461119
0.201598
0.280421
0.0409166
0.000695508
2.60733e-005
0
0.00834641
0.0279749
0.0572098
0.0676912
0.0289225
0.0155154
0.0587689
0.00937149
0.011807
0.0495186
0.0408664
0.0269074
0.0102916
0.00448304
0.121306
0.818137
0.147334
0.0190421
0.0176741
0.0637928
0.116662
0.0854407
0.0274504
0.0157008
0.00164826
0.00207027
0.00306609
0.090447
0.118414
0.093642
0.0115292
0.00470675
0.0207076
0.113949
0.0329083
0.0162718
0.0044715
0.00383363
0.00181007
0
6.95813e-005
0.0314898
0.34305
0.177308
0.00429473
0
0.000399857
0.000225794
0
4.17488e-005
0.00737361
0.385369
0.636917
0.0605162
0.0121052
0.0148668
0.00779648
0.000246451
0.000487069
0.0101485
0.0856481
0.0672928
0.0201514
0.0137625
0.00436008
0.00251999
0.00172516
0.000292241
0.00521389
0.112622
0.410773
0.172582
0
0
0
0
0
0.000182304
0.097183
0.414664
0.0696674
0.0110883
0
0
0
0
0.00127613
0.0702289
0.395054
0.21538
0.00515922
0.000957332
0.000640261
0.000427098
0
0.000109382
0.0187869
0.391775
0.163332
0.0233006
0.000136762
5.86121e-005
0
0
0.000765675
0.00879774
0.501328
0.348735
0.0973885
0
0
0
0
0.000471007
0.0171049
0.113154
0.290761
0.438777
0.0167199
0.00053317
0
0
0
0.000197292
0.0100819
0.243649
0.162835
0
0
0
0
0.000282604
0.00271881
0.153989
0.372395
0.534239
0.0207486
0
0
0
0
0
0.0101165
0.336209
0.370699
0.0924668
0.00665995
0
0
0
0
0
0.0404494
0.264345
0.369981
0.0579401
0
0
0
0
0
0.0162184
0.483392
0.110455
6.11544e-005
0
0
0
0
0.000607514
0.0784507
0.439846
0.381829
0.00110695
0
0
0.000441723
2.32487e-005
0.00123261
0.0120692
0.0977957
0.491128
0.122247
0
0
0
0
0
0.0177645
0.0217969
0.473511
0.338049
0.00764801
0
5.90964e-005
0.000380088
0.000574808
0.00373189
0.203386
0.430897
0.0175668
0
0.000473975
0.00210868
8.04936e-005
0.00201436
0.0104248
0.061965
0.314574
0.0741295
0.000873915
0.000789958
0.0022968
0.00388174
0.00833445
0.0139386
0.0105786
0.402836
0.724279
0.07781
0.0069135
0.0117101
0.00372733
0.00493696
0.00356838
0.01172
0.0507947
0.264232
0.0789006
0.065615
0.0330306
0.00989874
0.0124915
0.00733133
0.057156
0.197765
0.139601
0.0118317
0.00617894
0.0133488
0.0239852
0.0371729
0.0329441
0.0392044
0.0208435
0.0777335
0.0506594
0.0437159
0.0406148
0.0165362
0.027251
0.032578
0.128986
0.129082
0.125143
0.0488092
0.090754
0.0272687
0.0184943
0.0250009
0.0315
0.165842
0.188992
0.158526
0.13007
0.146394
0.131296
0.0468949
0.0390361
0.0192338
0.163909
0.0696718
0.202644
0.102377
0.0567858
0.0425415
0.0109249
0.0266118
0.0682698
0.273283
0.206476
0.450154
0.180552
0.132521
0.11681
0.0278381
0.0498321
0.0323686
0
0.00220555
0.0261482
0.13864
0.505493
0.137073
0.00048157
0.010271
0.00162077
0
0.00590847
0.0163113
0.0768135
0.271816
0.091709
0.00971416
0.00113992
0
0.0115234
0.0582203
0.155073
0.248673
0.464552
0.186061
0
0.0132527
0.00177369
0.000517067
0.00533055
0.0173192
0.113486
0.369455
0.13782
0.0272833
0.0082992
0.00848656
0.0289055
0.0733374
0.13794
0.12988
0.132861
0.136499
0.0914837
0.0306733
0.00538145
0.116482
0.191806
0.144391
0.0452769
0.0359301
0.0215129
0.0527902
0.0793457
0.0638918
0.0200982
0.0261773
0.0215507
0.0885254
0.255889
0.235036
0.248414
0.173024
0.0677299
0.0825653
0.078296
0.057801
0.0413139
0.0460346
0.130861
0.130337
0.253444
0.130503
0.0673834
0.0864448
0.0512095
0.011529
0.0119089
0.0324451
0.0301546
0.0675556
0.144523
0.12208
0.0556803
0.0400382
0.0687205
0.0146383
0.0566729
0.0329425
0.401317
0.529099
0.0620314
0.0352828
0.0289022
0.0134763
0.0192085
0.0625001
0.0296451
0.0777603
0.134696
0.0768231
0.0634798
0.0322114
0.114068
0.0782302
0.17953
0.0787824
0.0300137
0.108898
0.0260203
0.0162004
0.00701796
0.0145268
0.010073
0.00668043
0.00343947
0.305415
0.227392
0.068192
0.0137926
0.00361529
0.0184112
0.0257217
0.000709081
0.00671764
0.639254
0.519655
0.0247002
0.05114
0.0206558
0.0413976
0.0331176
0.0270855
0.00859865
0.0268126
0.0197608
0.036258
0.0724948
0.0372096
0.057959
0.0540973
0.00244964
0.00403059
0.0775168
0.0632532
0.241956
0.00560247
0.00159528
0.0098001
0.0170496
0
0.00120005
0.160815
0.386738
0.637556
0.0185701
0.00180835
0.0109192
0.0107644
0.00178846
0.00590026
0.0222521
0.464854
0.0578748
0.0203449
0.00964414
0.0314358
0.0683477
0.00620032
0.000804992
0.0211981
0.0518525
0.100252
0.016473
0.00977019
0.027759
0.06709
0.0351197
0.0145164
0.0247852
0.10455
0.590805
0.120938
0.00110286
0.00186515
0.000654318
0.00209377
0.00873387
0.0216419
0.230458
0.520905
0.361386
0.0036201
0
0
0.00403458
0.00322004
0.0205702
0.0605527
0.104308
0.0412217
0.00827001
0.0071309
0.00898098
0.0241232
0.0195984
0.0411004
0.0945865
0.14966
0.109169
0.0143717
0.00832351
0.0123273
0.0124405
0.00826699
0.0294491
0.0486296
0.413135
0.503322
0.00995361
0
0.00784911
0.0393415
0.0222129
0.0745211
0.0814661
0.129514
0.264156
0.0185599
0.00102771
0.0256685
0.0518095
0.107547
0.135207
0.0724089
0.137987
0.0769182
0.0238493
0.0497094
0.0255152
0.0781174
0.0857659
0.114411
0.0818171
0.0230807
0.00924427
0.0419888
0.061146
0.0648663
0.199937
0.214152
0.163492
0.109243
0.110388
0.111989
0.0449424
0.0149898
0.0431893
0.0266511
0.140422
0.165297
0.111781
0.104489
0.0694241
0.180371
0.119885
0.134849
0.057882
0.133359
0.0923601
0.123038
0.0786853
0.0574118
0.186963
0.0329091
0.0698747
0.10953
0.148558
0.1228
0.197203
0.153326
0.150493
0.201029
0.0522098
0.0666472
0.0194753
0.254943
0.179321
0.221238
0.0789489
0.0346555
0.112173
0.0730927
0.0553825
0.0280517
0.0316568
0.0198843
0.0340629
0.114951
0.0862769
0.281814
0.273179
0.284036
0.0741398
0.0394459
0.011228
0.0210152
0.069497
0.0712574
0.0724357
0.0427171
0.0375639
0.0177298
0.105389
0.0762456
0.0988884
0.0654971
0.0469138
0.126426
0.270052
0.372531
0.198795
0.351384
0.0808346
0.112551