0.136621
0.0882153
0.0741341
0.111225
0.120988
0.0285113
0.0726894
0.0463889
0.211129
0.262533
0.117431
0.00491228
0.0550499
0.123095
0.0883744
0.147094
0.101754
0.14344
0.331658
0.112499
0.0120251
0.0395354
0.031027
0.0112773
0.0496218
0.0487277
0.433983
0.483484
0.157338
0.0006515
0.0306837
0.0416302
0.0196801
0.0177377
0.0788967
0.304009
0.238153
0.0915354
0.0839206
0.038922
0.0803032
0.129058
0.103222
0.121178
0.0789673
0.243975
0.0847981
0.139868
0.140492
0.202636
0.149813
0.0415529
0.123469
0.154525
0.509477
0.105052
0.0859394
0.037419
0.0219493
0.0374427
0.0205521
0.117681
0.177076
0.316098
0.130757
0.189099
0.08783
0.0217556
0.0953395
0.0564184
0.256049
0.200115
0.178326
0.0816155
0.0201547
0.115429
0.126856
0.0886086
0.0763327
0.127977
0.201731
0.154052
0.078011
0
0.0149832
0.0209129
0.13171
0.361522
0.191266
0.202041
0.105567
0.118624
0.158769
0.0770661
0.0132715
0.111802
0.124744
0.227947
0.3015
0.206445
0.171165
0.251304
0.0427745
0.00107345
0.137269
0.335403
0.100522
0.203408
0.0685293
0.00795645
0.00478683
0.0122481
0.0138897
0.125957
0.344832
0.170473
0.177486
0.165797
0.0124651
0.042522
0.100037
0.0180963
0.0718055
0.177823
0.203394
0.251515
0.290162
0.0706461
0.105221
0.0113351
0
0.0964483
0.246502
0.0433909
0.174603
0.395645
0.0147013
0.0218882
0.0430388
0.00245229
0.0462299
0.0791481
0.0299554
0.430608
0.209779
0.0181397
0.0418756
0.0839177
0.0456354
0.0745495
0.0702551
0.100304
0.0935883
0.264928
0.0178505
0.0297606
0.0658362
0.0479947
0.0917437
0.0551276
0.0755779
0.203286
0.345368
0.00263967
0.00593536
0.0198068
0.00787598
0.0434719
0.0144671
0.0367083
0.351768
0.524545
0.00756527
0.00319518
0.00472693
0.00715457
0.0289875
0.0165463
0.0413033
0.431835
0.188868
0.0489025
0.0117553
0.0462008
0.0282914
0.076702
0.0244821
0.0124836
0.172309
0.238712
0.0740635
0.00167932
0.108949
0.0506725
0.0648832
0.0427729
0.0462965
0.236137
0.388943
0.00941981
0.00287935
0.00274913
0.00247718
0.00956528
0.0102679
0.00775375
0.365848
0.365301
0.0107176
0.000411336
0.010293
0.00421011
0.00373326
0.11036
0.126542
0.521121
0.212953
0.016487
0.00960171
0.0389372
0.0168696
0.0616077
0.102031
0.102055
0.220753
0.343539
0.111573
0.0708076
0.0139796
0.0096205
0.0283394
0.0763851
0.076832
0.223632
0.0882987
0.00253106
0.000321135
0.00414555
0.00138185
0
0.34355
0.292893
0.238842
0.0451838
0.0106318
0.00829644
0.0149059
0.000619552
0
0.487895
0.317167
0.0654398
0.4389
0.261889
0.110949
0.0971216
0.11448
0.0113593
0.0242693
0.0450595
0.229226
0.132706
0.0842405
0.0856521
0.0766226
0.149361
0.0445832
0.0313214
0.0802596
0.0988313
0.117321
0.0698784
0.0731876
0.0561294
0.0034004
0.0342918
0.452327
0.228297
0.0624694
0.174565
0.205869
0.126694
0.0535858
0.0959373
0.0801799
0.106144
0.113534
0.0406254
0.0747867
0.081593
0.129288
0.0988098
0.196306
0.0768701
0.0286853
0.0596496
0.0611648
0.129308
0.0965075
0.099705
0.0695512
0.261102
0.0588354
0.0872827
0.0296337
0.0556514
0.204626
0.245535
0.175016
0.0936375
0.306005
0.0868015
0.0398263
0.0900398
0.0792
0.159536
0.239457
0.120585
0.0303171
0.264588
0.0688438
0.0818571
0.105184
0.0961811
0.272425
0.0333157
0.00494112
0.00814741
0.0182166
0.00507474
0.011735
0.0265409
0.395693
0.460705
0.0481851
0.00823519
0.00116392
0.0281151
0.0155359
0.00668859
0.0318208
0.362831
0.101138
0.0128137
0.0478439
0.109873
0.127517
0.0835195
0.0592552
0.0246401
0.243235
0.255235
0.0381457
0.134472
0.079227
0.217695
0.135618
0.0348561
0.0143513
0.277225
0.231847
0.0757384
0.019472
0.00370452
0.00553674
0.00731092
0.00634019
0.0238001
0.11559
0.130057
0.250478
0.21815
0.00741917
0
0.0128447
0.013723
0.0874144
0.0771982
0.12418
0.17023
0.147021
0.0627947
0.0550903
0.0511765
0.0166822
0.00767977
0.0520774
0.0650152
0.508333
0.618141
0.0208394
0.00233331
0.00493803
0.00238317
0.00316564
0.00923785
0.0174066
0.166533
0.332674
0.0229134
0.000121587
0.0168775
0.0265829
0.0622823
0.0790719
0.0582013
0.180981
0.442009
0.040325
0.013916
0.0232232
0.0584731
0.0118859
0.0530041
0.00448492
0.268042
0.528117
0.0120226
0.00220823
0
0
0.00179933
0.00375599
0.00333807
0.16804
0.388744
0.0414401
0.150657
0.00548402
0.000967769
0.000257047
0.00169665
0.216802
0.203267
0.227926
0.0157362
0.0196019
0.0165759
0.0352702
0
0.0881572
0.411052
0.125004
0.0434164
0.00133518
0.00273473
0.00382039
0.0146193
0.0475093
0.377071
0.0641866
0.216202
0.26032
0.0716412
0.254032
0.0339121
0.00931949
0.00333499
0.00883914
0.301906
0.184479
0.203225
0.0587604
0.0880073
0.0449797
0.126718
0.13404
0.211258
0.234856
0.0135125
0.00153069
0
0
0.00108008
0.053549
0.10043
0.316451
0.31441
0.0211413
0.0253168
0.0188701
0.0302821
0.00901873
0.0772912
0.0788345
0.22664
0.117425
0.0183168
0.0350289
0.00855984
0.00509188
0.06186
0.369922
0.204956
0.19921
0.0484887
0.0174502
0.0325036
0.0314501
0.0945383
0.20193
0.52193
0.169402
0.0617384
0.269635
0.0100239
0.0550302
0.0210349
0.0313198
0.0043848
0.0354077
0.0522344
0.241146
0.190873
0.000447467
0.0287224
0.00410293
0.00471107
0.0233527
0.236001
0.215754
0.361692
0.0759513
0.0210838
0.0898279
0.0455876
0.115952
0.133256
0.28605
0.142527
0.0720706
0.0488053
0.0200103
0.0765141
0.0454273
0.119178
0.209627
0.475995
0.237429
0.108371
0.0167372
0
0
0
0.000449491
0.0187127
0.309117
0.17579
0.0698509
0.000514226
0.000162607
0.0011849
0.00419883
0.000444216
0.00452257
0.519698
0.234143
0.00373664
0.00141184
0.00300622
0.0104928
0.0180329
0.0787292
0.127334
0.260242
0.115812
0.0142845
0
0
0.00105472
0.00355664
0.0291636
0.0424666
0.572006
0.229412
0
0.011145
0.00621629
0.00654607
0.00663965
0.00167695
0.0126987
0.336104
0.116264
0.000906455
0.0496767
0.0387507
0.0261528
0.00607128
0.0112722
0.0227102
0.154727
0.0393862
0.00850637
0.0084334
0.000726527
0.00186132
0.00443377
0.00150245
0.00910889
0.634155
0.19536
0.00468012
0.245681
0.026938
0.0143838
0.0310364
0.0187279
0.0274278
0.490709
0.154437
0.106163
0.099385
0.0717973
0.0282092
0.00647397
0.0201757
0.00715623
0.035197
0.0153013
0.0250453
0.151742
0.148659
0.0101056
0.00130392
0.0122119
0.00198358
0.00301057
0.0224331
0.0488978
0.54337
0.182879
0.0108207
0.0192078
0.0336494
0.0848894
0.205174
0.174349
0.196613
0.422734
0.328778
0.103745
0.0123826
0.0489776
0.0923121
0.137815
0.129875
0.224554
0.0373184
0.0260865
0.053047
0.0682133
0.0469671
0.0958772
0.129212
0.0617084
0.117973
0.106911
0.0824061
0.368041
0.089614
0.0862024
0.0726652
0.0467016
0.0114964
0.159088
0.0138448
0.119547
0.11321
0.0137302
0.0407321
0.0725615
0.197333
0.139732
0.0393951
0.023505
0.266109
0.696702
0.114466
0.0531178
0.0168596
0.0661857
0.0345463
0.0342354
0.0459349
0.112406
0.337486
0.0871175
0.0277366
0.0169443
0.0049049
0.00087828
0.0195753
0.0258068
0.255331
0.499954
0.0329288
0.00372207
0.00163497
0.00140122
0.00024909
0.000153351
0.00555187
0.121318
0.551335
0.0834005
0.0332872
0
0.000443868
0.000190229
0.00375606
0.00384099
0.116276
0.383835
0.0219312
0.0204535
0
0.00783559
0.00256912
0.00119973
0.0114884
0.290751
0.598229
0.0237946
0.00687561
0
0.00456073
0.000804836
0.0037932
0.00806395
0.091903
0.208983
0.0827373
0.413007
0.0378875
0.0509531
0.000482901
0.00632201
0.00586951
0.08931
0.224524
0.0192644
0.0189092
0
0.0188677
0.00498514
0.003333
0.0200205
0.0921831
0.196088
0.228427
0.223662
0.0227325
0.0790085
0.00115776
0.0037932
0.0140716
0.0429357
0.0943115
0.0673423
0.340976
0.124362
0.129591
0.0287589
0.000613508
0.114884
0.0373887
0.156001
0.0780615
0.163558
0.211695
0.317033
0.162068
0.0513352
0.0473062
0.111347
0.110608
0.144271
0.162876
0.139354
0.25044
0.0422781
0.000368105
0.202388
0.0632656
0.0888665
0.156419
0.143099
0.301369
0.369537
0.146174
0.0397426
0.0433677
0.00236347
0.0334491
0.0155348
0.0464589
0.0954141
0.394035
0.109293
0.0398091
0.0380076
0.0141709
0.0038644
0.00521129
0.0336238
0.164558
0.508185
0.170877
0.0566377
0.107142
0
0.0230742
0.0696458
0.104093
0.0777455
0.253438
0.126464
0.0592685
0.190232
0.0174249
0.00177296
0.00709183
0.0274951
0.0258139
0.346127
0.318578
0.224733
0.104971
0.0790844
0.0648103
0.0385494
0.0523568
0.131877
0.232926
0.131409
0.068323
0.0619715
0.164561
0.203364
0.162417
0.140329
0.154937
0.198482
0.0536257
0.0163271
0.319589
0.198125
0.0649635
0.0198407
0.00299953
0.0172213
0.0928538
0.149941
0.255264
0.239419
0.474454
0.232991
0.141164
0.0414728
0.0158229
0.00920121
0.024097
0.121821
0.00294837
0.0767694
0.135713
0.210689
0.284576
0.197262
0.150928
0.0487018
0.000877138
0.00032024
0.000735868
0.0113625
0.0402645
0.131012
0.0952948
0.631559
0.222985
0
0.0645568
0.225651
0.146404
0.218434
0.141109
0.028702
0.00864398
0.0259109
0.0446656
0.00771345
0.00679145
0.0430725
0.081873
0.110176
0.0330814
0.122058
0.0592207
0.00694318
0.00746125
0.000203854
0.00314319
0.0132162
0.00315022
0.00452585
0.428962
0.145473
0.00497417
0.198698
0.00806079
0.0159108
0.0896661
0.0478487
0.0434855
0.430942
0.220724
0.0879898
0.00115475
0.00142698
0.0117092
0.0169139
0.00797484
0.0119973
0.196117
0.076048
0.00180512
0.0238261
0.000203854
0.0116253
0.0567646
0.0721427
0.0653781
0.576575
0.210845
0.030612
0.259762
0.0474859
0.0394172
0.0552081
0.0694646
0.179145
0.199046
0.215579
0.153022
0.118356
0.0768182
0.136459
0.0356668
0.18511
0.20279
0.136544
0.107629
0.114021
0.024816
0.00321274
0.108557
0.0760212
0.1513
0.148198
0.401874
0.193914
0.0888747
0.00575643
0.00605777
0.18537
0.126802
0.434556
0.146501
0.0929553
0.0470445
0.0518795
0
0.0856582
0.0779917
0.0431177
0.135959
0.0915551
0.141081
0.0461797
0.00412863
0
0.142108
0.290144
0.223354
0.256351
0.0260419
0.0483453
0.0130293
0.000461013
0.000340678
0.0102329
0.0168636
0.0994166
0.243175
0.208105
0.111898
0.00544044
0.000396547
0
0.0106623
0.0271829
0.39747
0.575305
0.120909
0.0578906
0.000237356
0
0.00148934
0.0748804
0.367923
0.17669
0.323015
0
0.00128601
0.000485812
0.00148934
0.0104254
0.0448151
0.178456
0.0241176
0.114512
0
0.0215465
0.00654687
0.0104254
0.00372598
0.00401945
0.0264324
0.235374
0.671756
0.0368241
0.00298726
0.000383021
0.00372598
0.0133172
0.0140988
0.0313401
0.0322969
0.241227
0.026494
0.0244575
0.00362433
0.0133172
0.00562686
0.0338789
0.111781
0.0465193
0.0346301
0.000684859
0.0231028
0.00631812
0.00537522
0.017936
0.0855896
0.275579
0.393196
0.268546
0.0550866
0.0159551
0.000764453
0
0.00556615
0.0327637
0.0674056
0.0680524
0.122867
0.0364826
0.0357221
0.0067758
0.00556615
0.00737906
0.0253924
0.125294
0.201813
0.544775
0.375752
0.0381826
0.0816589
0.0152052
0.0371929
0.0965904
0.113261
0.182924
0.165182
0.119127
0.106031
0.0270445
0.00418607
0.181958
0.0695242
0.0766976
0.119945
0.0798
0.159727
0.177229
0.149418
0.162084
0.0327326
0.0546371
0.133689
0.0992286
0.321826
0.255523
0.0429578
0.105747
0.0370444
0.41238
0.150287
0.241894
0.0763255
0.0994205
0.10692
0.0731775
0.147963
0.334178
0.155738
0.00254902
0.00955491
0.0302406
0.0259439
0.0160831
0.0349563
0.0523599
0.160574
0.271283
0.00292953
0.000532226
0.0021289
0.00752684
0.000493019
0.03949
0.0705385
0.281808
0.355529
0.024288
0.0307294
0.00685103
0.00212359
0.00299751
0.00775326
0.0203264
0.314282
0.516115
0
0
0
0.000218199
0
0
0
0.480502
0.258382
0.0472049
0.00627283
0
0
0.000818834
0.0181176
0.0274084
0.283295
0.202252
0.12023
0.0204579
0.018954
0.0530265
0.0183359
0.0515866
0.0316083
0.243025
0.384457
0.00637731
0
0
0
0.00136472
0.0122825
0
0.475267
0.326003
0.0479396
0.00130449
0.0636774
0.0888125
0.0338139
0.0859777
0.0183805
0.39694
0.157318
0.136262
0.0316929
0.1107
0.263587
0.0909869
0.0805891
0.11997
0.217347
0.0420824
0.0062027
0.0425726
0.0869912
0.102275
0.06107
0.0493792
0.0643409
0.0482025
0.330436
0.0771234
0.0119883
0.263959
0.403024
0.182372
0.148103
0.097258
0.266645
0.0693766
0.00370905
0.0125256
0.0559848
0.106522
0.152597
0.153181
0.114372
0.0778183
0.00578629
0.00105414
0.0129461
0.014917
0.0245019
0.0275941
0.0681266
0.043095
0.0112756
0.00149837
0.000150591
0.00350333
0.00906668
0.369205
0.0896187
0.389044
0.0809959
0.0116473
0.0237942
0.00167304
0.00621648
0.00312027
0.0269828
0.0514811
0.052766
0.0321764
0.0280543
0.0138847
0.00257811
0.00817026
0.0210507
0.74271
0.13009
0.0521443
0.0142276
0.0163294
5.38534e-005
0.000935144
0.0272757
0.0317088
0.301034
0.0438358
0.137215
0.02606
0.00888219
0
0.00155857
0.0454594
0.0724575
0.378365
0.0385984
0.0354954
0.0162697
0.00709501
0.000376974
0.000183204
0.00128002
0.0341807
0.616292
0.0534549
0.013583
0.000600761
0.000471871
0
0.00199584
0.0325871
0.0640316
0.519873
0.0438253
0.0295414
0.0594104
0.0132503
0.000412023
0.0032376
0.00508004
0.0457174
0.200455
0.111909
0.0251127
0.00334644
0.000123981
0
6.85728e-005
0.000205718
0.232931
0.439276
0.088456
0.0110968
0.000205783
0
0.0026469
0.00953732
0.0240252
0.0791482
0.324529
0.052092
0.00468317
0.00201815
0.00179283
0
0.000480009
0.00765706
0.18868
0.677071
0.0977407
0.000288096
0.00012347
0
0.0027477
0.00116637
0.00349911
0.202598
0.510917
0.0615262
0.00759783
0.00138911
0.0027477
0.00512668
0.00516922
0.0179422
0.0299737
0.167175
0.0515594
0.0281659
0.00360995
0.00512668
0.000377872
5.90952e-005
0.000177286
0.129087
0.688479
0.115334
0.0186449
0.00559827
0.000377872
0.00273795
0.00260356
0.0114047
0.0203201
0.192548
0.0529752
0.0572163
0.0156504
0.00273795
0.00190904
0.0092148
0.0225882
0.0333758
0.0850956
0.0978396
0.0688312
0.0116404
0.00417354
0.0222489
0.018514
0.0904539
0.0226687
0.313356
0.390675
0.119352
0.135236
0.0649902
0.0112274
0.00740045
0.0214858
0.0139937
0.0386955
0.0745029
0.0850022
0.0556949
0.0319929
0.022114
0.0393812
0.263052
0.0631454
0.521097
0.269909
0.14119
0.161962
0.0834452
0.0334606
0.0342264
0.169751
0.0423351
0.109253
0.108239
0.0160564
0.0777247
0.0699559
0.311506
0.114092
0.262151
0.0688956
0.0383907
0.0244469
0.00293089
0.0439623
0.2812
0.0325222
0.0519556
0.319039
0.0998964
0.21153
0.084933
0.0457339
0.0306387
0.0437195
0.432057
0.164497
0.324394
0.149163
0.0942571
0.0330965
0.037978
0.0348413
0.250359
0.256212
0.0204682
0.0281297
0.00558203
0.00138042
0
0.000155591
0.000390336
0.218465
0.345107
0
0
0
0
0
0
0.00106589
0.343973
0.355068
0.0306039
0.0222713
0.0165775
0.0056781
0.00139323
0.00441489
0.00625353
0.256787
0.431644
0.00259539
0
0
0
0
0.000653905
0.0198854
0.461959
0.280528
0.0024356
0
0
0
0.000191743
0.028689
0.0368874
0.388808
0.192268
0.0196981
0.00368128
0.0283464
0.0163597
0.0287865
0.150151
0.0729222
0.27195
0.255448
0.01338
0.0161763
0.00167003
0.00883202
0.0353281
0.0636538
0.16593
0.441634
0.0575754
0.0119245
0.0569246
0.0340046
0.0971239
0.17775
0.362598
0.225129
0.183294
0.160677
0.0314034
0.0258667
0.0992237
0.073376
0.107507
0.203286
0.0691862
0.127085
0.0322446
0.00675301
0.0231611
0.0202551
0.0350027
0.0574102
0.0969102
0.0843237
0.0381564
0.0305564
0.00727367
0.0935648
0.0971211
0.383321
0.447043
0.496169
0.125999
0.0572548
0.0527728
0.012158
0.0484372
0.0251856
0.151375
0.119051
0.0791953
0.0557701
0.058729
0.0158947
0.00321386
0.00964159
0.00419863
0.00951423
0.0271162
0.0567957
0.0198954
0.0173531
0.00793737
0.00440069
0.0132021
0.0388555
0.562274
0.0902529
0.0300898
0.00496995
0.00793737
0.0233076
0.003988
0.0137547
0.00963486
0.0124896
0.05183
0.0457664
0.0143629
0.024117
0.00683814
0.00340513
0.0104712
0.0751342
0.731627
0.104911
0.0312077
0.00802621
0.00683814
0.000137289
0.000363555
0.0011447
0.0258134
0.479621
0.0529743
0.00246838
0.000209366
0.000137289
0
0.00235407
0.0553741
0.0589162
0.378682
0.0532667
0.0173121
0.0206061
0.00719627
0.000256489
0.000617758
0.00223154
0.046981
0.59793
0.0806673
0.00178288
0.00065233
0.000256489
0.00917022
0.00527395
0.0402479
0.0722185
0.39663
0.124606
0.0200847
0.00292849
0.018213
0.00411507
0.0530197
0.0623142
0.114132
0.241211
0.088571
0.00499685
0.00321535
0.00586233
0.00168687
0.0293856
0.0344233
0.109673
0.572703
0.231222
0.00917631
0
0.0050606
0.00852374
0.0846597
0.147624
0.156662
0.196732
0.078565
0.0719346
0.100091
0.054424
0.0236566
0.0490889
0.0524208
0.0951161
0.316213
0.32553
0.272843
0.11009
0.0495395
0.000316539
0.000180367
0.0057631
0.0354218
0.489727
0.19285
0.0264566
0.00307434
0.000949617
0.00449445
0.012556
0.0259097
0.0218359
0.152428
0.0541741
0.0351471
0.00962122
0.00225728
0.0186443
0.00126257
0.0243563
0.0282975
0.28517
0.331754
0.5034
0.0664751
0.0161538
0.0104091
0.0437888
0.0715183
0.0366935
0.0935529
0.107652
0.29415
0.078323
0.0015862
0.0145223
0.0207103
0.0286138
0.0234579
0.0547112
0.0138109
0.0423789
0.0388279
0.0205877
0.00742528
0.0120707
0.0837796
0.0683934
0.579085
0.219423
0.201477
0.125819
0.0256635
0.0288014
0.0708733
0.0423104
0.0236474
0.0945144
0.013802
0.0628984
0.0415499
0.0156194
0.0895055
0.0620187
0.0467305
0.0758989
0.454941
0.167559
0.241222
0.114348
0.0281679
0.00584921
0.0150477
0.0987429
0.0873039
0.246732
0.124224
0.193506
0.076489
0.00455042
0.20678
0.0491709
0.117753
0.125944
0.096887
0.0830229
0.20261
0.15612
0.19418
0.10661
0.0288067
0.0416323
0.0356793
0.146511
0.0852462
0.260095
0.190862
0.0461876
0.336203
0.0150351
0.0310768
0.0208391
0.0291235
0.0510622
0.247678
0.328287
0.38359
0.259858
0.0103074
0.0134156
0.0166805
0.00597831
0.00466838
0.0191091
0.0272289
0.226111
0.37305
0.00869657
0
0
0
0
0.000806056
0.0186985
0.357194
0.296457
0
0.00160397
0.00224509
0.000854045
0.00280103
0.0169899
0.0438501
0.295151
0.466865
0.00521794
0
0
0
0
0.000115151
0.00218786
0.394067
0.237439
0.0732385
0.0717647
0.00254465
0.0107364
0.0429457
0.0191433
0.098874
0.264924
0.0609893
0.107627
0.297114
0.117944
0.119117
0.125662
0.110081
0.0951656
0.0552247
0.428192
0.135434
0.0638732
0.000735618
0.00153377
0.0061351
0.00382686
0.00983218
0.300897
0.19712
0.301719
0.311306
0.105062
0.0555688
0.0239324
0.0256278
0.0547061
0.242012
0.0172738
0.0516515
0.321499
0.292455
0.379586
0.19047
0.128762
0.0292993
0.025666
0.0470928
0.00974138
0.0542142
0.0751122
0.139868
0.0593953
0.0470836
0.0170457
0.049292
0.0569576
0.191271
0.336452
0.276246
0.2373
0.0704367
0.0360473
0.111671
0.230578
0.0660328
0.0426143
0.0784888
0.0855696
0.128366
0.0357399
0.0219504
0.0262927
0.0793366
0.0174061
0.00276424
0.0159539
0.0166841
0.0147513
0.0468701
0.0187016
0.00453537
0.0174624
0.00586638
0.00899445
0.0393325
0.0371051
0.580419
0.0968971
0.0179567
0.00590582
0.00586638
0.0231544
0.0688093
0.075205
0.0222697
0.0266958
0.0252353
0.0097833
0.00681554
0.0230849
0.00850329
0.229871
0.550373
0.0896102
0.383505
0.0655667
0.0134358
0.00339624
0.00464877
0.000299997
0.00191795
0.0154246
0.0575257
0.498539
0.0521449
0.00259061
0.000984632
0.000299997
0.0107257
0.00859132
0.0235952
0.0990248
0.369459
0.0569963
0.0045452
0.00126007
0.00903319
0.00035943
0.0690581
0.232448
0.134591
0.361089
0.046028
0.00171507
0.000518853
4.28567e-005
0.00153225
0.0288442
0.0794902
0.177537
0.521073
0.0353173
0.000225679
0
0.000270397
0.00588818
0.0925903
0.07289
0.071615
0.0569982
0.0165297
0.0977133
0.166817
0.0490572
0.0204093
0.0154758
0.0461288
0.0835238
0.0829134
0.0737441
0.229132
0.15492
0.0245695
0.0426786
0.254691
0.0533589
0.142489
0.136959
0.143924
0.292274
0.357013
0.0612588
0.0252265
0.0835424
0.0618307
0.119784
0.166355
0.224978
0.446125
0.357547
0.0476479
0.019799
0.000202235
0.0184122
0.0262865
0.0329778
0.0603094
0.314428
0.10979
0.0118222
0.00425124
0.00915843
0.0105594
0.00291813
0.00977171
0.0311991
0.3147
0.165705
0.0014957
0.0148497
0.0256825
0.0250277
0.0402113
0.06009
0.0957177
0.335677
0.264696
0.0776255
0.0103452
0.0363772
0.0007302
0
0.00768703
0.0658683
0.612421
0.313479
0.0860028
0.0108355
0.016205
0.00927354
0.00228131
0.0272704
0.00711746
0.131943
0.0664695
0.00813846
0.0404744
0.0243585
0.0474126
0.0382746
0.249609
0.0181838
0.0265735
0.0149055
0.0141306
0.0117476
0.0223608
0.00323118
0.00217491
0.0143909
0.0279335
0.676031
0.237075
0.0235059
0.0171785
0.00389141
0.0284476
0.0239561
0.439767
0.0681595
0.293237
0.121931
0.0133291
0.138768
0.0331924
0.102445
0.057477
0.225027
0.0296794
0.0373946
0.0500929
0.0392835
0.397324
0.0553802
0.061467
0.0519952
0.0641478
0.036063
0.0318789
0.0932997
0.263817
0.0533547
0.0136935
0.061467
0.0581797
0.456063
0.181826
0.151547
0.0366299
0.0201338
0.287065
0.0797045
0.0368802
0.101501
0.183413
0.27053
0.102642
0.123737
0.258875
0.293433
0.0142264
0.000598345
0.0226046
0.0121223
0.0254488
0.00655202
0.036634
0.295607
0.362553
0.0420724
0.0250988
0.0340306
0.0300434
0.029808
0.0074805
0.0115821
0.368306
0.245052
0.0614975
0.0461803
0.142822
0.0715227
0.0846793
0.0136983
0.0798803
0.258564
0.192189
0.121001
0.324292
0.306985
0.136586
0.0496801
0.0126195
0.0221918
0.170545
0.346081
0.0880558
0.0298793
0.0150756
0.00917872
0.00449779
0.0110568
0.00425674
0.29903
0.269777
0.130648
0.0736971
0.0138905
0.093291
0.0226201
0.070187
0.0724476
0.345943
0.275587
0.111286
0.191904
0.161791
0.0510033
0.00749632
0.00960378
0.00314413
0.212575
0.364234
0.0736478
0.0864783
0.0226734
0.0651744
0.0110795
0.0476829
0.0259602
0.333037
0.0713411
0.0592512
0.0883128
0.0360488
0.214387
0.0469133
0.0409863
0.0802775
0.136588
0.0315294
0.0907431
0.116009
0.0284755
0.0995362
0.0161342
0.0016124
0.0147023
0.0305054
0.130438
0.0615354
0.192981
0.0654999
0.144644
0.0180028
0.0255671
0.0198343
0.123841
0.0183586
0.298279
0.74649
0.0844722
0.0647772
0.00359336
0
0.00210032
0.0130213
0.0117572
0.129048
0.132003
0.0031944
0.00624487
0.00210818
0.000702727
0.00287929
0.00779603
0.0368127
0.256513
0.379516
0.0306489
0.0257321
0.00986555
0.00175318
0.00273921
0.0015793
0.00852708
0.260408
0.468662
0.0109709
0.00129429
0
0
0.000411327
0.00198386
0.117703
0.2964
0.538725
0.0515343
0.000645878
0.00180053
0.0245122
0.0238099
0.0105912
0.0707075
0.18016
0.327751
0.130933
0.118725
0.0465271
0.0198517
0.0102341
0.000864191
0.0246187
0.0428766
0.093684
0.159938
0.517557
0.0755707
0.0498618
0.00671737
0.000123456
0.232138
0.143463
0.220762
0.0761621
0.0342164
0.0233422
0.133579
0.0966233
0.0745768
0.0845713
0.0174091
0.0419394
0.0988205
0.309764
0.0928144
0.272118
0.165541
0.143795
0.0863445
0.160703
0.0203801
0.0791531
0.129678
0.200568
0.200863
0.274537
0.224107
0.0908709
0.202393
0.0226466
0.150035
0.1528
0.227882
0.233947
0.205819
0.166939
0.0892164
0.0606766
0.0261783
0.0333813
0.0261302
0.0648522
0.0553818
0.207598
0.340915
0.213703
0.139911
0.0310167
0.127333
0.0298666
0.108021
0.0410234
0.162704
0.301602
0.0517893
0.0888042
0.00851118
0.0593643
0.0578384
0.0750765
0.162017
0.196074
0.178113
0.0443259
0.0583706
0
0
0.00413095
0.0362966
0.5039
0.226729
0.192131
0.296359
0.104465
0.0119375
0.0554769
0.0114145
0.0946593
0.0509704
0.148702
0.22815
0.29122
0.0758468
0.0442099
0.0939911
0.0371646
0.0419613
0.2831
0.204482
0.204024
0.00510491
0.0112643
0
0.000158806
0.00219155
0.0104222
0.393609
0.126096
0.0171216
0.00276173
0
0
0.00139163
0.0867555
0.0191746
0.375635
0.141586
0.00593428
0.0445942
0.012613
0.0178247
0.0375149
0.0256634
0.0225574
0.347924
0.148564
0.0216002
0.0151109
0.00399937
0.00279862
0.00308215
0.016296
0.0079464
0.593641
0.306679
0.0732139
0.0112391
0.0010939
0
0.00580493
0.133829
0.0737642
0.279216
0.113243
0.0354097
0.14769
0.0214453
0
0.0168317
0.051407
0.0983337
0.153
0.17659
0.222677
0.100908
0
0
0
0.0186603
0.0116543
0.329694
0.235995
0.252814
0.388951
0.00703817
0
0
0.00452464
0.00813329
0.0824618
0.137326
0.509113
0.217613
0.0835405
0.0645985
0.0503896
0.0225863
0.0223529
0.0129225
0.05093
0.15231
0.150825
0.124445
0.313165
0.137447
0.0647153
0.00590853
0.00154164
0.00341404
0.0593094
0.408718
0.0543434
0.0296962
0.00132807
8.04912e-005
0.000241474
0.00695081
0.0222159
0.337995
0.440939
0.0838562
0.122425
0.0086336
0.0146444
0
0
0
0.42002
0.106085
0.0450546
0.160927
0.0978515
0.0513073
0.00104404
0.00421305
0.00185994
0.0977601
0.108143
0.0536401
0.0710184
0.0119539
0.0118631
0
0.00969094
0.00702845
0.159392
0.332163
0.0191738
0.0534629
0.00827137
0.0191205
0
0.00210515
0.00160603
0.508852
0.313191
0.170755
0.152156
0.00106925
0.00508317
0
0.00395204
0.00764757
0.533645
0.0197092
0.0869232
0.179936
0.0172456
0.00632765
0
0.00169005
0.0016087
0.0315773
0.00104487
0.178343
0.543831
0.0341936
0.00284493
0
9.20777e-005
0.00174947
0.00104487
0.103287
0.269594
0.305526
0.0186656
0.0026128
0.00443347
0.00073475
0.00190939
0.0877825
0.0687402
0.296933
0.514034
0.12706
0.00622512
0.0324385
0.014916
0.0122463
0.0321273
0.00210877
0.218596
0.58053
0.0212899
0.000107959
0
0.000328631
0.00624396
0
0.0542237
0.158604
0.44704
0.0875879
0.0064502
0.00845192
0.0339142
0.0228625
0.0106675
0.0435433
0.205107
0.397492
0.0829577
0.0117646
0.0408052
0.0545113
0.0437077
0.042098
0.0158808
0.119043
0.217403
0.0632716
0.0416623
0.064256
0.054775
0.0321606
0.0078737
0.171675
0.0685369
0.205048
0.0776123
0.0211066
0.0356007
0.203527
0.101056
0.190402
0.0844239
0.0164913
0.0660849
0.0529917
0.0675396
0.0555931
0.327572
0.365428
0.435101
0.0542945
0.0608781
0.12966
0.0433656
0.0587422
0.098022
0.118861
0.0293454
0.0842158
0.0773215
0.0349974
0.042889
0.00693516
0.0150931
0.106443
0.190984
0.209483
0.238972
0.0505426
0.00564335
0.0110714
0.00885545
0.00189603
0.0229413
0.0483436
0.148951
0.202641
0.1883
0.0190586
0.00962081
0.0166979
5.54861e-005
0.109535
0.0473774
0.168217
0.363286
0.0686153
0.0458577
0.0860181
0.033919
0.00802146
0.0920014
0.0589342
0.121892
0.154016
0.234088
0.0743726
0.134142
0.0788999
0.000388403
0.0670782
0.0718569
0.133601
0.677101
0.244852
0.0351342
0.0055252
0.0115178
0
0.0871324
0.0318518
0.101759
0.232456
0.335412
0.0483327
0.0594325
0.103399
0.0265022
0.0221889
0.0324184
0.083419
0.183676
0.200208
0.0384091
0.0234431
0.0195185
0.0190919
0.0578785
0.0803184
0.103885
0.598516
0.262987
0.0840529
0.0240245
0.0323289
0.0390249
0.0466579
0.0513762
0.0640297
0.33301
0.135894
0.0328844
0.0601621
0.0830858
0.0334884
0.012875
0.160839
0.129271
0.0427999
0.048671
0.0135069
0.0141868
0.00791445
0.00497473
0.00282043
0.396067
0.473808
0.168979
0.16731
0.125779
0.0763263
0.0725363
0.0185064
0.0171894
0.0375119
0.0859658
0.0801511
0.344175
0.113868
0.0813819
0.0572826
0.0369969
0.0754861
0.108482
0.359006
0.25517
0.104529
0
0
0
0.00192231
0.00362951
0.123142
0.227119
0.333313
0.295188
0.00172977
0.0180855
0.00176638
0.0105631
0.0167273
0.0817603
0.0614615
0.467442
0.192137
0.0340346
0.0203589
0.00808334
0.0426942
0.0715214
0.0603208
0.20666
0.279261
0.24627
0.0476451
0.0587489
0.0508161
0.0797535
0.059243
0.13431
0.113255
0.369784
0.252993
0.0146204
0.0489764
0.00821166
0.00349645
0.00540633
0.0328039
0.0218589
0.240756
0.400213
0.0358984
0.0357921
0.00895639
0
0
0.00151598
0.00331964
0.346858
0.242778
0.0634182
0.145922
0.0842165
0.0244751
0.0196402
0.0610814
0.0785116
0.276104
0.406884
0.111647
0.10973
0.0734277
0.00393491
0.0184645
0.0456104
0.0692654
0.368427
0.302996
0.023082
0.00185503
0.000811268
0
0
0
0.000575654
0.292288
0.314832
0.119568
0.0472054
0
0
0
0.000435199
0.00320357
0.353064
0.340888
0.114293
0.0476546
0.0387306
0.00374652
0.0064675
0.0150908
0.0112265
0.170478
0.404197
0.335421
0.103584
0.0379592
0.0283105
0.0207702
0.0719918
0.0617407
0.223497
0.242722
0.347248
0.168159
0.018015
0.00137979
0.019485
0.00431048
0.0288204
0.141564
0.222495
0.276283
0.182819
0.147207
0.0102996
0.138665
0.0315154
0.0787949
0.106255
0.248272
0.334576
0.0754867
0.00939664
0.16984
0.0869826
0.13043
0.178404
0.151951
0.153681
0.152683
0.0472945
0.0482817
0.185423
0.144312
0.0471253
0.193026
0.138304
0.12827
0.0681495
0.100631
0.116861
0.0363271
0.0940033
0.071933
0.0522561
0.118473
0.0292099
0.0320151
0.0722781
0.0789055
0.0666078
0.0780716
0.059282
0.0386651
0.0912216
0.142106
0.221107
0.139067
0.0885726
0.0653106
0.0568099
0.0138063
0.0900544
0.170551
0.295056
0.325894
0.181317
0.0805711
0.0423636
0.0421898
0.125335
0.134436
0.608729
0.0298091
0.0191477
0.0401136
0.0195665
0.0232591
0.0384045
0.0579403
0.0406836
0.0726749
0.055569
0.0152243
0.0125149
0
0.00385311
0.0509143
0.0918835
0.0745916
0.0587338
0.234518
0.0986308
0.0427335
0.0181632
0.00576336
0.0456424
0.278307
0.206853
0.513931
0.193109
0.250061
0.315137
0.00982251
0
0.0334822
0.166757
0.310393
0.239537