0.0912656
0.0389736
0.14
0.139043
0.083799
0.0791452
0.113916
0.0428528
0.120719
0.144281
0.0355884
0.0907553
0.0914897
0.0907684
0.193778
0.136554
0.0722614
0.334819
0.104438
0.0568502
0.0910278
0.200002
0.1698
0.214808
0.125759
0.0965063
0.303862
0.0887076
0.0411728
0.146289
0.307534
0.196168
0.2667
0.175919
0.0470001
0.308201
0.0708048
0.0057207
0.0982793
0.190634
0.175148
0.0972892
0.116389
0.0404775
0.28036
0.00876451
0.0180045
0.135742
0.389521
0.19422
0.0665007
0.186283
0.041711
0.0421303
0.0423948
0.0138563
0.0616298
0.161214
0.17956
0.247698
0.173033
0.016771
0.15366
0.0169878
0.0353376
0.0674068
0.222669
0.259864
0.242268
0.292
0.184782
0.0662632
0.0316768
0.0546228
0.0398166
0.144381
0.0933113
0.0724416
0.149777
0.0639513
0.0164265
0.0922801
0.148977
0.074782
0.0665936
0.100783
0.0864158
0.104941
0.0580814
0.0782788
0.0132938
0.105396
0.180708
0.109617
0.194726
0.092144
0.165352
0.109544
0.0838252
0.038231
0.523964
0.547505
0.0932784
0.204312
0.0809812
0.0556898
0.0311751
0.0501031
0.107826
0.111087
0.0679068
0.0273202
0.0242173
0.0120923
0.0188202
0.0404432
0.0618382
0.207675
0.106425
0.0305547
0.00859868
0.0183146
0.00561722
0.0145118
0.0542274
0.132121
0.201009
0.388721
0.288628
0.0377124
0.0271905
0.00870586
0.00958771
0.015486
0.0819206
0.496609
0.181875
0.0776908
0.00941645
0.000839685
0
0.00517361
0.0132063
0.511698
0.130671
0.0597427
0.00332523
0.0117507
0.0246552
0.00310748
0.00371738
0.0233278
0.128367
0.107743
0.0383324
0.0103061
0.0159521
0.0212636
0.000257306
0.00887467
0.0646104
0.248609
0.314533
0.0325054
0
0
0
0
0.000373646
0.00522996
0.526858
0.330082
0.0134719
0
0
0
0
0.0037735
0.039048
0.579821
0.0707262
0.00842693
0.0125355
0.0093919
0.0121776
0.011027
0.0158614
0.0426021
0.211737
0.109805
0.0307626
0.00641779
0.0484617
0.0501251
0.0241363
0.0188074
0.0435198
0.212476
0.244742
0.00150804
0
0
0
0.00661622
0.00692786
0.026729
0.569835
0.314995
0.00659155
0
0.0181128
0.00472075
0.0144818
0.0147022
0.123634
0.569835
0.0379941
0.0139712
0
0.0641713
0.055193
0.0244792
0.0191165
0.0692505
0.141123
0.00870029
0.00375456
7.68904e-005
0.0294654
0.0328949
0.0444823
0.0624477
0.0631333
0.0940701
0.0823763
0.00262134
0
0.0229877
0.00576545
0.0118077
0.177989
0.388991
0.430698
0.0108933
0.00471962
0.000538233
0.00888004
0.00524575
0.0460111
0.563432
0.415106
0.145245
0.0242052
0.0180524
0.0131847
0.0213516
0.0352783
0.109016
0.130697
0.0491939
0.0447103
0.0365854
0.0193646
0.0244283
0.0258321
0.10304
0.099853
0.0736942
0.118254
0.069089
0.0310407
0.0247577
0.00572906
0.00531648
0.0292673
0.163684
0.790806
0.23816
0.036267
0.114493
0.0230761
0.0232772
0.00684057
0.122809
0.121731
0.148428
0.142181
0.0279006
0.116164
0.0193077
0.0145839
0.067037
0.181366
0.136686
0.126735
0.187012
0.15546
0.0876134
0.015834
0.0412743
0.175042
0.20088
0.170288
0.235509
0.196191
0.0906229
0.287881
0.0244086
0.0486277
0.0608796
0.142873
0.125914
0.120059
0.185116
0.101889
0.115533
0.0338342
0.0711255
0.14282
0.148341
0.319169
0.2443
0.168842
0.0936405
0.123305
0.090032
0.0306762
0.173594
0.158542
0.191374
0.0448034
0.158659
0.274376
0.0741969
0.0904748
0.168666
0.350037
0.197732
0.132652
0.063052
0.0445494
0.121773
0.0810958
0.0722659
0.0370432
0.0745937
0.27364
0.178336
0.066276
0.287282
0.149219
0.0782417
0.104941
0.200042
0.16581
0.235172
0.159002
0.0540366
0.153626
0.199865
0.0159447
0.0371404
0.0791338
0.087371
0.132768
0.0880968
0.0621408
0.0103871
0.0173435
0.0273898
0.100372
0.136413
0.06569
0.156247
0.159202
0.0689869
0.0784658
0.039641
0.0641092
0.121643
0.228285
0.0519512
0.105736
0.0723768
0.0486219
0.0519881
0.109025
0.0671127
0.483728
0.650319
0.0257263
0.0933223
0.124719
0.0268664
0.0136328
0.0224998
0.0107415
0.111303
0.199801
0.0238433
0.0320856
0.0253943
0.0217812
0.0316269
0.0430081
0.00595485
0.295212
0.45159
0.0278363
0.024247
0.00481075
0.00305593
0.0037615
0.022931
0.00743183
0.280748
0.45159
0.00971984
0.0101035
0.0177763
0
0.0037615
0.00768042
0.00620774
0.339916
0.45159
0.0270569
0.0253486
0.00230056
0.00223823
0.000537357
0.00349535
0.088334
0.305005
0.321529
0.0146983
0.00482246
0.000545409
0
0
0.0258543
0.318225
0.198614
0.107236
0.00464315
0.000681692
0
0
0.000782487
0.250519
0.0364948
0.218395
0.392305
0.0658251
0.0865096
0.0209333
0.00463641
0
0.00329047
0.223373
0.265948
0.417695
0.0588203
0.0980404
0.0403657
0.0192206
0.0191911
0.0822911
0.234204
0.0360838
0.00957979
0
0
0
0.00504662
0.0307892
0.336116
0.238507
0.0113711
0
0.00514995
0.000572216
0
0.0253856
0.0963813
0.482868
0.177655
0.107198
0.107145
0.00530781
0.0192619
0.0259082
0.101974
0.148602
0.206975
0.0965028
0.0237407
0.00420541
0.0360496
0.00696262
0.0484468
0.399129
0.343762
0.244902
0.219671
0.0345211
0
0.0147926
0.00164362
0
0.010846
0.0385467
0.395875
0.247684
0.0267156
0
0.00887555
0.00224248
0.00363375
0.054574
0.134219
0.501073
0.112217
0.0875498
0.00528029
0.115869
0.0202364
0.0522819
0.236166
0.15209
0.150609
0.13033
0.0945503
0.00880048
0.11609
0.0513908
0.143428
0.295925
0.237263
0.251605
0.0457697
0.00105735
0
0
0.00284456
0.00449794
0.232622
0.223457
0.188931
0.00140464
0.00079384
0.000137955
0
0.00172452
0.0114944
0.516924
0.265257
0.0279252
0.018153
0.00740145
0.00121069
0.0325071
0.083999
0.105456
0.325595
0.151872
0.0741046
6.23664e-005
0
0.000364372
0.00633722
0.0499566
0.0342391
0.516924
0.208505
0.00626009
0.00132753
0.00206999
0.00161662
0.000646333
0.00128736
0.0357058
0.469867
0.104008
0.00131172
0.0136955
0.00908295
0.0154577
0.00666401
0.019073
0.0522286
0.15135
0.0355279
0.00139643
0
0
0.0020553
0.00117889
0.000382785
0.0486291
0.55586
0.180672
0.000809263
0.00432497
0.0151831
0.018647
0.0131798
0.0115754
0.0717696
0.55586
0.159562
4.58924e-005
0.0753875
0.0436992
0.0500092
0.0222649
0.0925928
0.0733338
0.0474015
0.0203813
0.0213356
0.032034
0.0487231
0.0486907
0.0274264
0.148089
0.167332
0.0575822
0.0408784
0.0272096
0.0209422
0.153848
0.0614491
0.0661107
0.0873834
0.0918289
0.755002
0.17183
0.0017982
0.0102683
0.186827
0.0488618
0.0456338
0.182578
0.220537
0.126352
0.0813607
0.017295
0.00883979
0.0649238
0.07466
0.0618509
0.223095
0.133441
0.104619
0.102966
0.0287247
0.0306551
0.107284
0.210592
0.0465749
0.109331
0.0844187
0.0728286
0.105369
0.147857
0.189376
0.246574
0.109299
0.1334
0.0858981
0.0349749
0.212102
0.250234
0.150638
0.02781
0.139611
0.420066
0.327784
0.0919594
0.0170108
0.17875
0.263011
0.176205
0.0183878
0.102882
0.245078
0.00955578
0.0220619
0.024839
0.005472
0.0158627
0.0490457
0.0125989
0.283529
0.47756
0.00192859
0.0114889
0.0185069
0.00212535
0.00137744
0.00584371
0.00244168
0.151522
0.47756
0.0958008
0.0202223
0.00533185
0.0071943
0.0121589
0.0137379
0.000899479
0.281471
0.47756
0.0205403
0.00714368
0.00400477
0.00127828
0.000216128
0.00142492
0.00238413
0.369132
0.649103
0.00137744
0.00176024
0.00372306
0.00030658
0.000245395
0.00220856
0.00515163
0.22035
0.380927
0.0266807
0.0867694
0.0206263
0.0046404
0.000408991
0.00368093
0.000927957
0.185249
0.353611
0.00473594
0.0061863
0.00527076
0.00518286
0.00116819
0.00418331
0.00297904
0.0371231
0.075163
0.0482823
0.0777409
0.0339691
0.00591649
0.00137543
0.00613488
0.00531876
0.0515981
0.174354
0.0752864
0.214702
0.112673
0.0879698
0.00900131
0.00134749
0.0551096
0.115367
0.308188
0.0850121
0.291855
0.186745
0.235239
0.0886771
0.0367501
0.0587823
0.0482069
0.0360547
0.10218
0.160354
0.153141
0.144533
0.0293504
0.00700213
0.221545
0.129791
0.11885
0.0800212
0.233253
0.283387
0.401459
0.240837
0.0566896
0.0398151
0.0587332
0.0841519
0.028488
0.0991755
0.0774457
0.215307
0.128151
0.0744321
0.0148641
0.0089842
0.0110079
0.0281723
0.0264071
0.0887784
0.526285
0.258921
0.0862292
0.130281
0.0561333
0.120322
0.0377243
0.121914
0.0792068
0.210969
0.155833
0.063474
0.113255
0.0100389
0.0507074
0.0217663
0.0360784
0.0394937
0.372407
0.370895
0.254302
0.0457866
0.04343
0.0254282
0.0831928
0.0155393
0.0705512
0.321288
0.135236
0.0937606
0.0528921
0.124436
0.175119
0.198323
0.0775703
0.167225
0.190582
0.100042
0.0833087
0.256439
0.0871704
0.0245874
0.0233533
0.00185961
0.0196439
0.159395
0.200485
0.328749
0.287377
0.40033
0.281971
0.105062
0.03873
0.0365937
0.0223495
0.0245873
0.193615
0.00834014
0.0560299
0.168577
0.188085
0.248408
0.187434
0.184826
0.0636369
0.0200038
0.000130607
0.00250006
0.0231898
0.0387791
0.148062
0.0540365
0.683361
0.127478
0.0111478
0.0635385
0.228408
0.305091
0.122071
0.139547
0.0316502
0.00663589
0.00744514
0.0401724
0.00437744
0.013316
0.0459309
0.0360681
0.0944687
0.0167849
0.130024
0.0267623
0.0119757
0
0.000147766
0.000794498
0.000363144
0.000632635
0.0127231
0.506636
0.112765
0.00189239
0.00123801
0.00289143
0.00321391
0.00434216
0.000818102
0.0120967
0.506636
0.209061
0
0.000994247
0.000324026
0.00138407
0.00149223
0.00523221
0.00631068
0.2613
0.0608298
0.00247369
0.000137793
0
0.000200143
0.000466999
0.0122949
0.0294465
0.506636
0.2238
0.000186938
0.00257882
0.0254041
0.0130505
0.0144964
0.00645481
0.0155603
0.527359
0.130476
0
0.00898219
0.0431003
0.0142027
0.0135002
0.0300039
0.0465093
0.135356
0.0475393
0.00852497
0.000118411
0.0022498
0.00470596
0.0074797
0.0602751
0.100267
0.575214
0.202483
0
0.044355
0.0856288
0.108527
0.0770671
0.129091
0.163878
0.400617
0.0623967
0.0159005
0.237979
0.133291
0.0114326
0.0449279
0.0402288
0.0019726
0.0999248
0.202769
0.201656
0.0347843
0.0272244
0.137599
0.224413
0.186745
0.0169734
0.154594
0.178804
0.160478
0.214317
0.0644611
0.0276059
0.0875868
0.182614
0.00512461
0.0852695
0.098666
0.185136
0.0415006
0.0127198
0.0621269
0.293966
0.552374
0.0811692
0.153839
0.0897225
0.0938014
0.000546331
0.0620438
0.402354
0.286
0.151828
0.0171809
0.0343149
0.0180449
0.022885
0.00382432
0.105914
0.329414
0.0927825
0.0520421
0.0119654
0.00898105
0.00966054
0.00387841
0.000327799
0.00558101
0.0865199
0.266576
0.629128
0.0901703
0.0342281
0.0112394
0.0131993
0.00229459
0.0148229
0.0398985
0.0778629
0.19548
0.027368
0.0100331
0.0193116
0.00372459
0.00592108
0.0678585
0.125408
0.0139528
0.0261924
0.0112278
0.0327432
0.0159853
0.00520777
0.0101101
0.0144317
0.0387728
0.192642
0.333022
0.0312399
0.0176658
0.00895979
0.00237718
0.0126241
0.0167292
0.0224096
0.00988071
0.0359049
0.0225798
0.0378866
0.0401442
0.00676542
0.0208668
0.0193433
0.0140832
0.175712
0.803402
0.0880339
0.0508863
0.046759
0.00179803
0.0581412
0.066923
0.0194093
0.143086
0.211986
0.0486271
0.0337905
0.0121959
0.00209461
0.179759
0.138965
0.0659332
0.085133
0.152453
0.165611
0.183385
0.154601
0.0925158
0.0630097
0.0489626
0.0212901
0.120715
0.521919
0.0798438
0.0293492
0.0139658
0.0247575
0.338504
0.208285
0.136886
0.0722332
0.355591
0.123669
0.0962051
0.0969615
0.210072
0.139148
0.0309797
0.0548647
0.00396371
0.0174558
0.0388712
0.0676272
0.090757
0.171443
0.218688
0.00406448
0.0181809
0.00237823
0.00388939
0.00057608
0.0354334
0.0957642
0.393433
0.322849
0.0605826
0.039867
0.00140441
0.0179717
0.0202732
0.030179
0.0464111
0.356442
0.446732
0.00282242
0.000751189
0
0
0
0.00154453
0.00480249
0.481374
0.234968
0.0233232
0.00253365
0.00173081
0
0.000568193
0.0120629
0.0570845
0.364766
0.207401
0.105253
0.0405655
0.0229585
0.0174429
0.0373124
0.00794208
0.0801342
0.269454
0.322513
0
0.00652382
0.0121157
0
0
0.00183299
0.0170061
0.490468
0.248601
0.0222102
0.0510184
0.144931
0.070153
0.0642972
0.0128309
0.120707
0.409305
0.147703
0.17463
0.129834
0.0883923
0.143563
0.159728
0.0127445
0.139857
0.21637
0.0169927
0.0121167
0.0282048
0.0555003
0.0909712
0.0328393
0.0141782
0.0144535
0.0277005
0.207815
0.0954991
0.0983057
0.406774
0.442442
0.292938
0.0314375
0.202662
0.245755
0.0192717
0.0158848
0.0113796
0.0668216
0.190803
0.0718642
0.0282537
0.0266841
0.0277412
0.00579047
0.000269123
0.00175646
0.00792584
0.0148915
0.0137377
0.103692
0.0226497
0.00813718
0.000973208
0
0
0.0138955
0.192377
0.191406
0.609277
0.143746
0.00130845
0.0088068
0.000165871
0.000921912
0.00649434
0.0209291
0.0139556
0.0151994
0.0142891
0.011046
0.0024653
0
0.000466234
0.0856344
0.642594
0.137231
0.0604725
0.011786
0.00278519
0.00398317
0.00325896
0.000675411
0.0208271
0.222647
0.165723
0.296915
0.0585781
0
0.0431067
0.0850042
0.126303
0.145791
0.247428
0.211404
0.179276
0.0917422
0.0117821
0.00663862
0.0054316
0.00476164
0.118983
0.522311
0.0990951
0.0324412
0.00444415
0
0.0844315
0.0946831
0.0827991
0.202376
0.391215
0.184557
0.120324
0.151244
0.0119483
0.0644139
0.0217411
0.0406999
0.111646
0.12872
0.0202319
0.0121115
0.00629649
0.0619637
0.0141392
0.0141985
0.0333347
0.198416
0.518208
0.181963
0.0290094
0.00360685
0.00509479
0.142455
0.0751671
0.0606324
0.083251
0.0455824
0.0426328
0.0294041
0.120182
0.375814
0.0439712
0.0587812
0.0868403
0.164754
0.487729
0.262295
0.075096
0.1114
0.062442
0
0.00577709
0.00636641
0.064093
0.58167
0.132934
0.00905296
0.00159185
0.000137932
0.00213237
0.0133039
0.00959418
0.0137333
0.192278
0.0185578
0.000953621
0.00937182
0.00494363
0.000111707
0.00560824
0.0153531
0.104965
0.645323
0.148193
0.0275156
0.0135233
0.000194466
0.00475442
0.00651207
0.00937265
0.0468427
0.291952
0.00860789
0
0.00412473
0.00620215
0.0224237
0.0302963
0.0321383
0.00878176
0.0217985
0.0167212
0.0111661
0.0262501
0.0205411
0.029966
0.0367841
0.034971
0.102089
0.538504
0.114923
0.106308
0.0383413
0.00881202
0.0291879
0.0426793
0.0526209
0.0354748
0.0221221
0.00294538
0.00910443
0.0105546
0.0274544
0.0248909
0.0450999
0.22457
0.300234
0.569562
0.104877
0.0794993
0.0164194
0.0139534
0.098497
0.0525791
0.0576436
0.0424627
0.23248
0.0644971
0.0538613
0.0114428
0.0264828
0.417463
0.201493
0.18618
0.0328206
0.166443
0.0458282
0.034044
0.0126269
0.174472
0.0601362
0.104514
0.251568
0.183171
0.153441
0.0608686
0.0381251
0.00572939
0.00422295
0.378258
0.250277
0.388907
0.125281
0.0612736
0.0487847
0.0427193
0.00517713
0.176316
0.271673
0.0551879
0.039941
0.00390125
0.0149807
0.00150724
0.000826954
0.00192956
0.264592
0.324993
0.00258723
0
0
0
0
0
0.000863768
0.475841
0.25884
0.0429518
0.0514091
0.00454701
0.00721703
0.00405957
0.00608935
0.00143316
0.310411
0.278038
0.000369605
0.00285966
0.00428948
0
0
0.0051794
0.0217893
0.475841
0.2532
0
0.00275497
0.00511638
0
0
0.00668067
0.0422851
0.438775
0.201088
0.0270804
0.0255117
0.0605679
0.0396169
0.0162516
0.0344096
0.121309
0.290195
0.157558
0
0.00981172
0.0301978
0.0264087
0.0151029
0.0656841
0.184646
0.440953
0.0527563
0.0050148
0.00959009
0.088754
0.202131
0.135662
0.263626
0.319066
0.203574
0.167062
0.101311
0.0528144
0.145876
0.197648
0.0802281
0.0553782
0.124823
0.131739
0.004308
0.0153614
0.0200845
0.020399
0.0717163
0.0462851
0.0398408
0.0250408
0.00575561
0.0307531
0.0191969
0.0187638
0.166153
0.639419
0.267118
0.336127
0.242125
0.0725877
0.00205655
0.00818752
0.0559644
0.0516925
0.11155
0.0440974
0.049521
0.0142127
0.00215546
0.00195402
0.000293057
0.00393019
0.00237992
0.0117395
0.0135308
0.018134
0.011836
0.00274138
0.000705885
3.88274e-005
0.00131703
0.0967968
0.542426
0.0291284
0.0180599
0.00360552
0.000818365
0.0017773
0.00278621
0.0154896
0.00510706
0.0221222
0.0101923
0.0233624
0.00706599
0.00188978
0.00159753
0.000772044
0.0031742
0.152696
0.770346
0.0161472
0.0182739
0.00330801
0.0016136
0.000872934
0.000714219
0.00177908
0.132838
0.436136
0.0216614
0.0158635
0.00344006
0.000682596
0.0479446
0.0525055
0.0255773
0.132688
0.339568
0.0782002
0.190917
0.0635328
0.00660985
0.00319792
0.008525
0.0032831
0.179767
0.514222
0.0367207
0.0323148
0.011505
0.00488733
0.0731971
0.074871
0.0599824
0.207702
0.334372
0.0884124
0.262051
0.093555
0.0352711
0.103159
0.0641942
0.0272833
0.0214654
0.0459736
0.0594453
0.0834906
0.184177
0.323775
0.0221283
0.0363186
0.0585041
0.126682
0.460575
0.165257
0.116455
0.158385
0.069813
0.0391539
0.0619185
0.0307768
0.0653665
0.130108
0.069933
0.0712975
0.125329
0.123809
0.00154555
0.0439069
0.0433568
0.155871
0.486528
0.285619
0.223409
0.0470971
0.0392868
0.000334401
0.0019781
0.0147682
0.140932
0.605171
0.088195
0.0208787
0.0143763
0.000334401
0.00445359
0.00517695
0.00355929
0.0438438
0.221283
0.0175139
0.00144039
0.00048013
0.00404642
0.000200641
0.00461856
0.0155777
0.0913545
0.421159
0.325299
0.334418
0.0225026
0.000200641
0.0051039
0.00313536
0.00322262
0.02116
0.130612
0.107771
0.233259
0.0200333
0.00494345
0.0159817
0.0300085
0.0280369
0.0168495
0.0248015
0.00171656
0.00762483
0.00254161
0.0126016
0.0090194
0.0230519
0.11722
0.178058
0.661316
0.181189
0.0926113
0.00972223
0.006829
0.0214509
0.0231081
0.0283988
0.00666324
0.0324402
0.00732479
0.0706128
0.0119013
0.0189329
0.0821153
0.0826999
0.0732707
0.0735132
0.464077
0.184792
0.187812
0.0430128
0.0374754
0.0037312
0.0344433
0.120397
0.146331
0.220302
0.129035
0.1078
0.0435142
0.00681309
0.122167
0.0732456
0.215765
0.107658
0.0566586
0.113914
0.162199
0.0938988
0.170493
0.0956471
0.0469161
0.0224275
0.0374525
0.145096
0.116655
0.202385
0.162254
0.0958579
0.255377
0.0280731
0.0234491
0.0255559
0.035496
0.0875161
0.219491
0.301019
0.57226
0.142011
0.0112272
0.0367677
0.00388577
0.000580352
0.0120959
0.0239759
0.0175263
0.254977
0.166415
0.00115502
0.00852066
0.012781
0
0
0.00567733
0.0200802
0.43466
0.218077
0.000269201
0.0042603
0.00161633
0.000348211
0.00725756
0.0206063
0.044059
0.465222
0.359675
0.00192503
0.00511239
0.00766859
0
0
0.000811047
0.00279916
0.499759
0.100501
0.0520919
0.0525601
0.0840974
0.0429642
0.0166471
0.0412053
0.0994644
0.249772
0.0324032
0.108322
0.159117
0.241392
0.289944
0.12917
0.133392
0.116846
0.0465147
0.36228
0.177053
0.0562424
0.0487607
0.0161579
0.00237815
0.00609541
0.0151991
0.334846
0.202288
0.412455
0.239198
0.139107
0.168229
0.0244873
0.0269213
0.0394972
0.126571
0.00535762
0.0608783
0.141244
0.27525
0.636748
0.15211
0.128344
0.0492533
0.00861975
0.00792085
0.00353883
0.0195193
0.0460339
0.106747
0.0165048
0.0396921
0.00910422
0.0109732
0.0641684
0.265311
0.223116
0.153095
0.398082
0.0380722
0.0387521
0.0419892
0.0610489
0.0190755
0.0162863
0.0139343
0.0340352
0.0641223
0.00680686
0.0400377
0.0239214
0.0265313
0.0034634
0.00230346
0.00880336
0.00590551
0.0296293
0.00290389
0.0112212
0.00356384
0.0050397
0.00176096
0.00153791
0.00417976
0.156262
0.606512
0.000797134
0.00406404
0.00188468
0.00207232
0.0029225
0.0240846
0.0618858
0.0125374
0.0276598
0.00249692
0.0125255
0.00805498
0.00605054
0.000405609
0.0650063
0.440834
0.378401
0.430839
0.00118394
0.00278689
0.0049518
0.00145569
0.00880035
0.0133813
0.00380038
0.203322
0.424428
0.00900235
0.00936253
0.00432704
0.00193961
0.111301
0.117334
0.0666962
0.269254
0.204755
0.0234504
0.0590885
0.0298526
0.0258161
0.00522858
0.0202883
0.195746
0.382898
0.377606
0.0130406
0
0.00111373
0.000414458
0.0643374
0.0569245
0.0639794
0.356858
0.315295
0.0940942
0.00670475
0.0139948
0.0240043
0.0695177
0.105213
0.085687
0.0526333
0.160528
0.0396823
0.0389723
0.089849
0.106067
0.0622919
0.180639
0.03658
0.0702771
0.294933
0.194232
0.299631
0.0315712
0.101378
0.195489
0.137592
0.0931588
0.0312079
0.18344
0.126376
0.0538648
0.112807
0.130717
0.365341
0.209054
0.022964
0.0590882
0.280876
0.177978
0.322447
0.0542455
0.201953
0.0149644
0.024296
0.00308492
0.00718804
0.0577646
0.107232
0.388932
0.0363062
0.0273718
0.00189711
0.000614396
0.00146546
0.00098729
0.0105757
0.0338523
0.443118
0.0547546
0.00474592
0.0586307
0.032378
0.00114122
0.0236337
0.0602881
0.0735651
0.484441
0.0729617
0.0611746
0.00205894
5.76123e-005
0.000172837
0.0033435
0.00670818
0.0453235
0.54156
0.153644
0.00642255
0.00257107
0.00230851
0.00365779
0.00134474
0.0118977
0.00453981
0.157557
0.0214549
0.00298409
0.0254365
0.0559116
0.0363665
0.104215
0.18071
0.0122935
0.0249717
0.00783821
0.0103531
0.00134273
0.00371218
0.000289211
0.00452708
0.0158271
0.0255888
0.691786
0.116124
0.000849993
0.0054265
0.0366751
0.0339972
0.149445
0.52307
0.0973992
0.232298
0.0454378
0.00185293
0.12915
0.108274
0.0614787
0.108441
0.130897
0.0160454
0.0352745
0.0482799
0.0910529
0.333249
0.0677866
0.0436306
0.0504448
0.0358418
0.0112915
0.0378122
0.0835796
0.448215
0.052495
0.0646992
0.0800985
0.18615
0.442286
0.126466
0.129803
0.0451111
0.0445886
0.225089
0.116348
0.131265
0.174207
0.189288
0.0905274
0.163358
0.117894
0.251776
0.227521
0.0063463
0.00695279
0.00741314
0.0138586
0.00341636
0.00939631
0.0126199
0.371843
0.317638
0.0248971
0.0197727
0.0061523
0.00764088
0.0011349
0.00114365
0
0.45689
0.161282
0.107424
0.167436
0.0746209
0.0976354
0.0255702
0.0600013
0.0275034
0.192829
0.319504
0.18006
0.320101
0.129392
0.059253
0.00794429
0.00800556
0
0.261216
0.280121
0.0650812
0.0132504
0.0116271
0.0217348
0
0.00762872
0.0166677
0.362437
0.155768
0.152852
0.031175
0.0670613
0.174354
0.00423298
0.0536075
0.0888609
0.233883
0.434115
0.0906694
0.0876904
0.0576401
0.0397041
0
0.00457723
0.0102858
0.343149
0.289417
0.174343
0.00310304
0.115763
0.247685
0.00119194
0.0324212
0.0548393
0.246472
0.0355171
0.0812652
0.0228744
0.0503269
0.210748
0.00721974
0.0355665
0.0569035
0.0519687
0.00722902
0.0591039
0.0602425
0.00962306
0.0269965
0.00183914
0.0104215
0.00992234
0.00847799
0.060902
0.172117
0.0746129
0.0875995
0.277654
0.00463562
0.0225805
0.0363912
0.0387712
0.00590036
0.444469
0.723746
0.00743154
0.0324833
0.00265984
0.00609183
0.00795316
0.0061564
0.000522424
0.083226
0.12295
0.00346455
0.00278497
0.000937345
0.0024909
0.00152
0.000835926
0
0.156995
0.466243
0.0859022
0.030301
0.000562407
0.000450207
0.00077039
0.000144518
0.00189401
0.284489
0.476003
0.00182354
0.000442978
0.000133906
0.000840056
0.000603409
0.000382024
0.0168208
0.372725
0.48135
0.0387386
0.00646152
0.00860807
3.44331e-005
0
0
0
0.0775841
0.535498
0.266311
0.118296
0.0125732
0.0035267
0.011724
0.00498703
0.00168624
0.013444
0.159487
0.252519
0.159099
0.0963434
0.0264376
0.0532404
0.0191938
0.0231856
0.163891
0.543139
0.127068
0.0633517
0.0521195
0.0246869
0.0180142
0.00839083
0.00389137
0.0117817
0.179439
0.136288
0.123732
0.0893162
0.0663238
0.0821389
0.0434675
0.127184
0.110667
0.0342554
0.0264115
0.0891775
0.0901251
0.0492794
0.125842
0.231648
0.135188
0.0811557
0.0216
0.0789266
0.20656
0.127112
0.166299
0.0766533
0.159338
0.205669
0.146337
0.0260707
0.125337
0.241277
0.124761
0.0786928
0.140324
0.44925
0.142915
0.110015
0.0614413
0.13877
0.315219
0.042899
0.140009
0.120109
0.308632
0.028165
0.0236405
0.0107194
0.0519084
0.0923457
0.0735608
0.284314
0.0967898
0.0473862
0.00504437
0.00773978
0.00283769
0.00733824
0.0188633
0.0888036
0.599612
0.200941
0.00332081
0.0899625
0.0588028
0.0343883
0.0514739
0.0600018
0.0556352
0.157992
0.0936673
0.134111
0.057261
0.0394939
0.00708987
0.00722467
0.0176565
0.112554
0.517317
0.237478
0.0796536
0.000531104
0.00113692
0
0.001077
0.00328028
0.0159625
0.474078
0.0944658
0
0.00197014
0.00117071
0.00195197
0.0151466
0.13191
0.0528796
0.355175
0.0852657
0.00414121
0.00445212
0.00304148
0
8.83055e-005
0.00144814
0.0302166
0.475872
0.147597
0.00888695
0.0238391
0
0
0.000618138
0.0203617
0.0305311
0.475872
0.288064
0.0674671
0.0137231
0.000302942
0.010057
0.0314462
0.176562
0.0985668
0.229228
0.13283
0.0647888
0.150027
0.0831278
0.0459368
0.0465031
0.0648174
0.0526433
0.150766
0.184715
0.217502
0.130051
0
0
0.000282473
0.0243916
0.0261732
0.250354
0.270861
0.287968
0.394957
0.0325273
0.00723216
0.00045539
0.00340957
0.00707383
0.0558439
0.131063
0.522
0.161493
0.17803
0.200433
0.0463003
0.0384326
0.0107456
0.0268331
0.0361344
0.0899254
0.160497
0.169946
0.34022
0.128211
0.0372786
0.00300426
0.00302743
0.000499442
0.0516753
0.371708
0.110794
0.0675438
0.00620618
0.00104792
0.000243131
0.00193975
0.013058
0.389188
0.354306
0.101759
0.101588
0.032756
0.0112315
0
0
0.000832404
0.43841
0.247968
0.0608615
0.0925529
0.0596797
0.0193214
0
0
0.00530992
0.133189
0.195565
0.127135
0.0615078
0.0214221
0.048503
0.0011129
0.000476956
0.010477
0.1183
0.336822
0.0357983
0.0229602
0.0163679
0.00932045
0
0
0.00523268
0.456826
0.336431
0.369215
0.318559
0.00352208
0.00120645
0.000158985
6.81366e-005
0.00751422
0.300427
0.0163537
0.113441
0.152237
0.00576092
0.0184619
0.00168378
0.000740957
0.00154898
0.00792796
0.000700387
0.263349
0.470744
0.0075014
0.00218253
0.00101027
0.00203744
0.00160705
0.000714558
0.0419734
0.29293
0.443935
0.0053288
0.000233667
0.00573485
0.000713567
0.000795947
0.0208516
0.00379983
0.343107
0.470744
0.0167424
0.00381845
0.0123601
0.0198542
0.0147808
0.0126606
0.00563272
0.284092
0.536816
0.0286095
0.00475624
0.00780569
0.0155954
0.00609181
0.00101175
0.045624
0.272811
0.385726
0.0410075
0.0152788
0.0358323
0.0637008
0.014438
0.00617394
0.00759189
0.173397
0.403227
0.0471741
0.016241
0.0549448
0.11054
0.0611185
0.0267972
0.0473961
0.0853499
0.109735
0.0369754
0.0303025
0.110815
0.233184
0.175564
0.0889743
0.0689489
0.134218
0.184357
0.0551948
0.0806207
0.124869
0.0831708
0.0448638
0.0411326
0.0121731
0.0134381
0.054109
0.0508021
0.132298
0.132369
0.059311
0.214829
0.244966
0.0628534
0.06577
0.0464398
0.0145283
0.111327
0.170683
0.20831
0.244356
0.156322
0.0868736
0.0457649
0.0751791
0.0168249
0.130535
0.123003
0.142481
0.510469
0.410987
0.112663
0.048904
0.0479997
0.0771723
0.0848848
0.0394884
0.0463946
0.0743376
0.260635
0.177296
0.088633
0.0601718
0.0934525
0.176624
0.0331752
0.094017
0.112996
0.237626
0.0867206
0.15674
0.0497545
0.246735
0.113107
0.0576369
0.0590773
0.277039
0.142954
0.231316
0.254459
0.155661
0.218698
0.350794
0.119042
0.0726611
0.284985
0.214215
0.15489
0.0870596
0.0532684
0.0420822
0.0719422
0.105706
0.14282
0.122069
0.143648
0.0561069
0.0340404
0.0286822
0.0232874
0.0418101
0.11625
0.29288
0.186435
0.114121
0.14839
0.141291
0.366531
0.199017
0.259881
0.235527
0.117399
0.0988802
0.0742311
0.285742
0.0370487
0.266759
0.201
0.140667
0.219238
0.126033
0.126622
0.113555
0.0178353
0.0105828
0.00473915
0.0052087
0.00701307
0.0906447
0.426622
0.142191
0.0423261
0.101039
0.00264775
0.00052921
0.000284959
0
0.0755386
0.510713
0.333398
0.211545
0.176476
0.0158358
0.033174
0.0400031
0.0410153
0.152039
0.131801
0.118062
0.0970826
0.213258
0.0498486
0.013505
0.00199471
0.0166585
0.0789758
0.148511
0.204746
0.270637
0.174562
0.00118809
0
0
0
0.00493982
0.0891569
0.159966
0.342056
0.375342
0.0115597
0.00280721
0
0
2.15366e-005
0.00154748
0.0342351
0.557258
0.182993
0.0414668
0.00822144
0
0.00166591
0.035406
0.031034
0.0993155
0.261386
0.250425
0.0780929
0.020825
0.00834702
0.0170921
0.0797869
0.0751735
0.0942311
0.322331
0.279632
0.0194344
0.00237278
0
0
0
0
0.00138999
0.343165
0.371412
0.0155918
0.000863744
0
0.000201758
0.0018151
0.00313029
0.00785261
0.492562
0.251007
0.095755
0.0168946
0.0218385
0.0338094
0.018908
0.0433837
0.0235689
0.175885
0.420173
0.0823534
0.0239538
0.0340876
0.0269046
0.0184338
0.0347233
0.0631194
0.272183
0.326148
0.0211122
0.00455309
0
0.000241385
0.00590304
0.00934227
0.00961583
0.431623
0.356549
0.266295
0.200209
0.00647518
0.00455369
0.00354183
0.00538241
0.00153344
0.262542
0.265734
0.0512809
0.0511525
0.0101019
0.0201699
0.0631813
0.0874528
0.0676918
0.239036
0.326409
0.175849
0.136812
0.0317053
0.0753009
0.0571772
0.0516693
0.0202402
0.158666
0.128384
0.310055
0.469587
0.0184478
0.00555141
0.0268126
0.00388008
0.0192266
0.0484801
0.025394
0.216299
0.424105
0.020753
0.0199369
0.0814649
0.051019
0.109257
0.0760396
0.189586
0.170285
0.263538
0.0950169
0.0551806
0.0519669
0.0037705
0.0381279
0.0801984
0.0323731
0.0923163
0.243293
0.123238
0.0337414
0.222629
0.119346
0.177616
0.0937974
0.0206755
0.065387
0.12141
0.0183397
0.028863
0.106495
0.134798
0.159525
0.114439
0.127739
0.0417971
0.0135108
0.0068008
0.0242701
0.120091
0.170629
0.293844
0.303283
0.0462078
0.0711759
0.0493
0.0416731
0.0601946
0.219486
0.252521
0.201596
0.11954
0.328939
0.292867
0.0284602
0.0016895
0.0550459
0.064038
0.165482
0.233305
0.366365
0.143468
0.0949519
0.0209003
0.0068687
0.0754841
0.0931037
0.0768398
0.225825
0.250858
0.206635
0.0641315
0.0843495
0.0238268
0.109211
0.0802149
0.11382
0.209324
0.197729
0.309366
0.281926
0.0364485
0.00204229
0.0157692
0.0225863
0.0747943
0.186445
0.401306
0.239674
0.0955461
0.0623086
0.0135648
0.0381584
0.155509
0.138223
0.181756
0.243169