0.0491297
0.43535
0.720342
0.04808
0.0272451
0.00568221
0
0.000767762
0.0106757
0.0398028
0.159469
0.206381
0.0803223
0.0618199
0.0167079
0
0.00566848
0.0351758
0.0777073
0.122897
0.179837
0.0634041
0.00310591
0.000814225
0
0.0012796
0.0168884
0.123456
0.0874583
0.160784
0.0587027
0.012521
0.00569958
0
0.0122169
0.0444909
0.0589588
0.131132
0.211376
0.146172
0.0429364
0.00797353
0
0.00495282
0.092788
0.0699855
0.103266
0.185338
0.292778
0.10503
0.0595139
0.0128271
0.000855731
0.0989401
0.125404
0.101669
0.364182
0.178312
0.012212
0.00374002
0
0.0216828
0.0952469
0.0619906
0.0279893
0.411683
0.397704
0.23607
0.0524699
0.00769624
0.0109994
0.065832
0.0128593
0.0493068
0.115043
0.176042
0.076974
0.0564115
0.0102855
0
0.00994256
0.0267622
0.0641682
0.202773
0.159004
0.0555795
0.0154331
0.00146936
0.0138007
0.00320421
0.00448804
0.0329178
0.145285
0.235679
0.23289
0.0560006
0.0061713
0.0033051
0.00904024
0.097929
0.592657
0.443036
0.195081
0.124175
0.0257021
0.000881614
0.00198306
0.00368283
0.0332064
0.0464405
0.0553558
0.0354661
0.0231647
0.00497927
0.00317906
0.00609235
0.00404594
0.15578
0.0787026
0.0623642
0.0224355
0.0241286
0.0309159
0.00855563
0.000870336
0.0409935
0.152507
0.432392
0.214319
0.0156913
0.0163261
0.00385518
0.00190744
0
0.00438572
0.65463
0.400561
0.101358
0.00259585
0.0067237
0.0165447
0.00513338
0.000748841
0.177501
0.109844
0.0309751
0.0426241
0.0162865
0.040645
0.0192834
0.0158457
0.0211467
0.0644392
0.0460264
0.00375578
0.035767
0.0461467
0.0563539
0.0167293
0.0338568
0.054458
0.150773
0.418961
0.063059
0.0175998
0.00145431
0.00364171
0.00805778
0.00950744
0.0377121
0.417678
0.241643
0.0016082
0.0101808
0.0126859
0.00629243
0.00445195
0.0203141
0.0849095
0.673608
0.0267977
0.00117579
0.0116849
0.0474716
0.019961
0.00715579
0.0161198
0.0268404
0.106015
0.0512884
0.0129934
0.00552721
0.0428037
0.0343479
0.00891844
0.0186712
0.0273361
0.0772529
0.12207
0.00045437
0.000774025
0.0161818
0.00635675
0.000781454
0.0156911
0.0738467
0.645441
0.203555
0.0185941
0.00252643
0.0100053
0.0114476
0.001843
0.0230048
0.105313
0.645441
0.0380827
0.0146692
0.00514333
0.0684216
0.0455837
0.0130971
0.0131042
0.0259169
0.0785012
0.0211001
0.00340722
0.0284914
0.131758
0.0413936
0.00983645
0.0100231
0.0139769
0.0734104
0.174112
0.023232
0.004603
0.010599
0.0127066
0.00701826
0.0335854
0.186052
0.681447
0.109863
0.00308469
0.0295796
0.0503756
0.0127601
0.0263006
0.253132
0.278657
0.435513
0.022373
0.00398396
0.126354
0.200343
0.0506437
0.01284
0.0297037
0.00752747
0.0348758
0.0275976
0.0144238
0.303034
0.253962
0.0996314
0.0156281
0.0237094
0.00107535
0.0265417
0.0924036
0.00780394
0.0955121
0.136077
0.0355603
0.141593
0.514505
0.188464
0.143138
0.0328477
0.0556825
0.14692
0.293718
0.265812
0.128266
0.151453
0.00835296
0.0328477
0.0106276
0.0242729
0.226489
0.163166
0.189425
0.0546332
0.0138362
0
0.00939489
0.000832525
0.0385295
0.0832926
0.167654
0.330207
0.105087
0.0279253
0.0101785
0
0.0075243
0.0257092
0.0949978
0.292118
0.368605
0.0894947
0.0310278
0
0.0075243
0.00459501
0.0353846
0.074092
0.351175
0.380474
0.130438
0.0302323
0.00760823
0
0.106626
0.0991469
0.164985
0.137543
0.0474099
0.00769904
0
0.000446016
0.0203061
0.18434
0.0953304
0.293086
0.282516
0.0245109
0.0029442
0
0.0197261
0.0361415
0.0867964
0.0932734
0.136353
0.183967
0.201118
0.0644771
0
0
0.0365168
0.0515242
0.0893559
0.288823
0.540861
0.124635
0.0206094
0
0.0154556
0.0250338
0.0446029
0.012357
0.0946399
0.11277
0.0180685
0.00480405
0
0.0183796
0.021868
0.0285681
0.0525292
0.119996
0.153232
0.150602
0.0198032
0.0287032
0.0131175
0.0162641
0.0099457
0.0443096
0.189896
0.147893
0.0581548
0.0128066
0
0.0166838
0.0105737
0.0237802
0.515251
0.665489
0.139966
0.138042
0.0376179
0.0478386
0.0114283
0.00701265
0.0131145
0.0647003
0.0989035
0.0365323
0.0503149
0.00488668
0.0109939
0.00246067
0.00456982
0.0171929
0.286712
0.305454
0.0302672
0.013962
0.00198876
0.00157055
0.0014764
0.00274189
0.02222
0.376706
0.331647
0.0168061
0.021702
0.00566136
0.0183231
0.0014764
0.00274189
0.015652
0.500648
0.500648
0.0194243
0.00213738
0.000461927
0.00261758
0.000885842
0.00164514
0.0715005
0.377608
0.247888
0.00911495
0.00132073
0.000255487
0
0
0.000434382
0.305239
0.330813
0.118111
0.0076136
0
0
0
0.00148972
0.0707115
0.0291585
0.374216
0.366521
0.0437353
0.0184727
0
0
0
0
0.131057
0.334657
0.292613
0.143656
0.0492505
0
0
0.000893829
0.0157926
0.278883
0.108063
0.0201965
0.00244332
0
0
0
0.0146328
0.289329
0.208287
0.0121837
0.00171551
0.000891668
0.000594446
0.00648062
0.00648062
0.0441731
0.630134
0.198561
0.217075
0.154358
0.0850122
0.0275273
0.00165347
0.00803645
0.0223784
0.129599
0.193146
0.0459047
0.0167983
0.0226949
0.011444
0.111398
0.134776
0.158415
0.295392
0.116781
0.000620786
0.00153112
0.00509511
0.00150108
0.00602022
0.00748729
0.0357716
0.506222
0.122226
0.00236871
0.00255186
0.00609014
0.000900645
0.000860031
0.00578203
0.0698017
0.632403
0.0969625
0.00929623
0.0151828
0.0370548
0.0439499
0.100887
0.108197
0.0925411
0.203754
0.124071
0.0328481
0.04088
0.0523537
0.0793267
0.0395724
0.0710253
0.150514
0.324343
0.0461855
0.00193006
0.000589358
0.000807327
0
0
0.0413482
0.141456
0.40277
0.0245492
0.000264048
0.00273176
0.00255701
0.00229564
0.035456
0.353248
0.262781
0.191732
0.0361781
0.00927574
0.00932058
0.0137826
0.0165093
0.0499506
0.13734
0.18893
0.204629
0.00507604
0
0
0.0107892
0.00495188
0.0940009
0.571224
0.282594
0.0886932
0.0128263
0.00214464
0.00572328
0.00648767
0.00872025
0.068105
0.346805
0.107592
0.0286934
0.0097044
0.015146
0.0171637
0.0261838
0.0540277
0.0519852
0.108326
0.0406119
0.0267419
0.00332961
0.000306378
0.000889265
0.00209409
0.00194172
0.0909241
0.636086
0.202615
0.0185091
0.0061729
0.00307904
0.0146219
0.0300539
0.052948
0.108771
0.536618
0.139661
0.0345688
0.00464474
0.0196898
0.043203
0.164235
0.229055
0.0559519
0.0154424
0.013836
0.0192346
0.00146715
0.00801304
0.0337537
0.316307
0.272161
0.0305754
0.00303396
0.000249994
0.00258165
0.00343146
0.0111366
0.0847475
0.208282
0.303149
0.15699
0.321692
0.0459578
0.0277479
0.0125831
0.0280568
0.0743912
0.320462
0.444505
0.0234769
0.00976595
0
0.0180715
0.0229837
0.0373335
0.101409
0.10989
0.0933061
0.0403529
0
0
0.0133282
0.00341741
0.0809147
0.176763
0.231138
0.155958
0.0306084
0
0.000849492
0.00302582
0.0805621
0.054443
0.117332
0.0533078
0.0774814
0.0630578
0.0614739
0.130259
0.205159
0.0477552
0.0744869
0.404594
0.465535
0.458854
0.0737104
0.0368844
0.0450489
0.105351
0.000568966
0.0593012
0.183252
0.0510306
0.0256535
0.00268393
0
0.000618788
0.000723663
0.00123294
0.261106
0.535028
0.0452148
0.0116319
0.00306433
0.00263375
0.000371273
0.000169963
0.00414069
0.0836611
0.341831
0.193475
0.0981291
0.0039272
0
0.000667191
0.00346444
0
0.217185
0.535028
0.213208
0.0194432
0
0
0
0
0.00488164
0.381646
0.446639
0.0099615
0.00178392
0.00106607
0.00296119
0
0
0.0144206
0.377257
0.386061
0.00727458
0.00193561
7.46519e-005
0.000423027
0
0.000432488
0.00417454
0.201701
0.450315
0.0727427
0.000573769
0
0
0
0.00213658
0.027616
0.144642
0.196146
0.00888188
0.00380759
0
0
0
0.00922153
0.0173865
0.288047
0.268215
0.0903975
0.115037
0.0162863
0.0024418
0
0.000822667
0.0284831
0.175947
0.279959
0.334967
0.293977
0.121013
0.0198942
0.0356937
0.0201526
0.0284702
0.0705813
0.0862548
0.07392
0.183013
0.0402076
0.00406967
0
0.00993085
0.00239195
0.0457766
0.238085
0.18554
0.386764
0.300239
0.0784136
0.132782
0.0510143
0.0997044
0.118573
0.172267
0.176818
0.145455
0.0648396
0.0419914
0.0472277
0.0685885
0.129365
0.049197
0.0507257
0.0563273
0.0515431
0.167244
0.351761
0.149656
0.112741
0.028212
0.0826537
0.240613
0.150903
0.15611
0.158553
0.122913
0.144492
0.0655233
0.0657406
0.0706053
0.163631
0.120119
0.0520015
0.130029
0.542606
0.172092
0.103573
0.0752197
0.0302886
0.0305527
0.0284629
0.0674613
0.148635
0.283462
0.151661
0.0466132
0.12239
0.0886687
0.159885
0.115817
0.186656
0.0936045
0.155571
0.198545
0.0425912
0.114475
0.0418469
0.0340074
0.0168111
0.019206
0.0878168
0.357851
0.19967
0.174161
0.239161
0.287602
0.415901
0.117733
0.0882804
0.067418
0.0913947
0.11127
0.147786
0.0281747
0.0261549
0.0877653
0.142357
0.104759
0.150465
0.140653
0.159304
0.041544
0.00294278
0.000737643
0.0182422
0.10849
0.0845699
0.132466
0.543269
0.172285
0.0342481
0.0512583
0.158535
0.428701
0.212388
0.134214
0.0764497
0.0333665
0.0412234
0.0237019
0
0.0149114
0.142674
0.145585
0.160242
0.0840015
0.294737
0.0521579
0.0161469
1.20855e-005
0
0
0.00451858
0.00536452
0.0391112
0.415301
0.0705751
0.00289569
8.45983e-005
0.000262554
0.00329303
0.0106249
0.0246871
0.112334
0.541084
0.0706309
0.00301986
0
0
0
0.00393451
0.0128726
0.0550327
0.350079
0.0290671
0.00101573
0
0
0.000245275
0.00134564
0.00485342
0.130598
0.541084
0.141402
0
0.0034647
0.00539881
0.0154234
0.0362699
0.087802
0.0938752
0.348256
0.0608025
0.00134822
0.0103987
0.017253
0.0195762
0.0653962
0.143845
0.0103461
0.0595195
0.0258066
0.00261531
0.00568513
0.00694849
0.00114878
0.012087
0.0425227
0.203625
0.71356
0.230811
0
0.0127019
0.0364155
0.0161718
0.0614874
0.172259
0.182936
0.263005
0.0905678
0
0.0374887
0.00935859
0.0138164
0.00230741
0.0089168
0.00830246
0.0420418
0.219746
0.225607
0.126465
0.0237587
0.0942154
0.26503
0.227733
0.010164
0.0200731
0.0623678
0.162116
0.0523656
0.00536039
0.00083072
9.23021e-005
0
0
0.17139
0.403488
0.345021
0.223391
0.0375227
0.0397026
0.298515
0.207557
0.0120198
0.030666
0.131908
0.351741
0.0271331
0.0235107
0.14942
0.282043
0.22948
0.00373891
0
0.000805659
0.0114399
0
0.0431294
0.280436
0.316288
0.17674
0.0116804
0
0
0
0.0462147
0.00870329
0.0377418
0.26584
0.385296
0.0189391
0
0.00607658
0.0315617
0
0
0.0336383
0.204151
0.55321
0.0511981
0.00104309
0.000168495
0
0.0131495
0.111126
0.467806
0.389984
0.126237
0.0184711
0.000196594
6.55312e-005
0.00876248
0.0639135
0.0933202
0.133628
0.0447208
0.0211977
0.0172339
0.00218944
0.00619426
0.0309829
0.00565523
0.0174958
0.0335689
0.219434
0.56287
0.10152
0.0184251
0.00754926
0.00125178
0.035048
0.0541546
0.0197867
0.071415
0.128514
0.0691319
0.0278543
0.0227223
0.00531595
0.0134358
0.013573
0.0452581
0.0790815
0.143799
0.0272124
0.00162849
0.00246257
0.00607902
0.003138
0.0404875
0.272906
0.183275
0.249096
0.104267
0.113068
0.0615132
0.0215135
0.00765028
0.00851857
0.0279874
0.138315
0.352495
0.0441685
0.0234446
0.0159702
0.00566225
0.0267541
0.139755
0.184027
0.271708
0.610241
0.101063
0.149141
0.105028
0.0365677
0.0159356
0.0396004
0.170058
0.0852001
0.0450756
0.077986
0.151399
0.122993
0.0984545
0.0761841
0.0265828
0.0690319
0.056183
0.00418611
0.045559
0.187656
0.188423
0.314309
0.131579
0.198798
0.106757
0.0659979
0.112654
0.0601021
0.122306
0.133098
0.152744
0.297805
0.0891011
0.0135795
0.00580765
0.00375839
0.0175784
0.0353109
0.149542
0.614883
0.0993499
0.0240964
0.0065042
0.00614951
0.00135914
0.01508
0.0834652
0.139338
0.299441
0.172821
0.191259
0.146993
0.0194847
0.00702644
0.0210821
0.0217639
0.122578
0.250877
0.187587
0.0200136
0.00048248
0.000507431
0
0.000140653
0.00267239
0.109447
0.541765
0.189495
0.101146
0.0918905
0.0514924
0.0348249
0.0733443
0.0592521
0.234601
0.407621
0.0954798
0.267783
0.409585
0.117824
0.0742227
0.0321707
0.0624903
0.148765
0.124198
0.00644178
0.0282225
0.138419
0.0886923
0.1089
0.0494036
0.14656
0.0539732
0.0421809
0.0933015
0.123562
0.20163
0.284821
0.25461
0.174627
0.178459
0.266411
0.172685
0.0393207
0.0250607
0.0339713
0.204605
0.216744
0.0628948
0.0865896
0.0429818
0.0387668
0.0012254
0.000409763
0.000402768
0.00354258
0.014282
0.0529193
0.244187
0.0162446
0.00262536
0
0
0.000241661
0.0017815
0.00747839
0.134881
0.764868
0.122338
0
0.0118753
0.00317248
0.0063644
0.0157681
0.0204311
0.0246335
0.0780277
0.00315113
0.00559421
0.000993359
4.34484e-005
0.0076
0.0322305
0.148239
0.188572
0.41144
0.013111
0.000167839
0.00060481
0.000739212
0
0.00776354
0.0436357
0.225196
0.362296
0.0682389
0
0.00303056
0.0165283
0.00484544
0.035529
0.191575
0.305338
0.128502
0.0231273
0
0
0
0.000544923
0.0793396
0.292546
0.230948
0.186687
0.00640358
0
0.0335439
0.0236415
0.00222294
0.117944
0.571767
0.268605
0.0685524
0.00175012
0.0142521
0.0349009
0.0013545
0
0
0
0.00475053
0.162425
0.335086
0.212758
0.0834602
0.0094815
0.0272898
0.108628
0.149677
0.0721727
0.0614417
0.159343
0.307895
0.0379646
0
0.00188156
0.00551951
0.0323137
0.0666048
0.0847274
0.270451
0.200153
0.038635
0
0.00358082
0.161384
0.50004
0.261887
0.0836528
0.174954
0.237874
0.015218
0.00259942
0.0203374
0.163409
0.289942
0.0493942
0.0102577
0.0181304
0.0422962
0
0
0.00290534
0.158667
0.452207
0.036869
0.00300576
0.000524554
0
0.00279556
0
0.00266856
0.225471
0.485935
0.101811
0.0210743
0.0231667
0.0255128
0
0.0027752
0.000381223
0.227444
0.488411
0.0427397
0.00239281
0.000314732
0
0.0023313
0.0032625
0.000603586
0.127921
0.547983
0.0979934
0.0541293
0.0128005
0
0.0163191
0.0137266
0.0353618
0.0857004
0.129331
0.09674
0.0623338
0.0196483
0.000284705
0.00899698
0.0465455
0.00130952
0.199323
0.567572
0.0818819
0.0431996
0.00450886
0
0.0452455
0.0541385
0.0292153
0.094602
0.216004
0.0672217
0.0536213
0.0311644
0.0120904
0.00665325
0.00495479
0.0547735
0.124725
0.233613
0.0323931
0.0699779
0.0189085
0.0160809
0.0851339
0.145844
0.218507
0.158945
0.364136
0.0447315
0.145417
0.105043
0.151358
0.00920899
0.0309153
0.10037
0.215279
0.24152
0.0431969
0.0491327
0.0176277
0.014939
0.107812
0.206018
0.350573
0.332764
0.278446
0.0554068
0.0885897
0.0348628
0.185552
0.130177
0.150696
0.0990329
0.0211238
0.0588337
0.0163024
0.0257746
0.0371479
0.172678
0.216117
0.0659735
0.011044
0.000826838
0.00998056
0.0044951
0.000870854
0.0169713
0.511274
0.10767
0.069027
0.0931436
0.0378771
0.0699116
0.0186148
0.01675
0.0230754
0.289501
0.187683
0.0105548
0.0040606
0.00409568
0.0147906
0.00721541
0.0101026
0.042465
0.610386
0.127153
0.00986645
0
0
0
0
0.00350622
0.0450129
0.478272
0.155737
0.0915206
0.0835607
0.0410235
0.0227273
0.0527349
0.0487169
0.127235
0.310469
0.186627
0.00242949
0.00091639
0.0102573
0.0121683
0.00116969
0.0388415
0.136082
0.431732
0.12292
0.0380728
0.0205036
0.0249857
0.0783777
0.193603
0.284445
0.274395
0.244985
0.114137
0.150687
0.210067
0.222815
0.178784
0.155459
0.104069
0.109697
0.0836225
0.042221
0.0300257
0.0336307
0.132302
0.141817
0.0550068
0.0462554
0.0108027
0.0268121
0.0523564
0.0762797
0.0746879
0.103309
0.25268
0.544304
0.337367
0.165081
0.0570702
0.0184498
0.0275226
0.0554652
0.0760487
0.136774
0.149259
0.055245
0.00719815
0.0129916
0.0213319
0.00467934
0.0146161
0.0204447
0.0280682
0.0127391
0.0224242
0.00305065
0.0107648
0.00212113
7.19012e-005
0.0216234
0.14089
0.407046
0.146034
0.0822407
0.00198542
0.000755005
0.00869934
0.00779623
0.0151595
0.0307132
0.054292
0.0259504
0.0234352
0.00388193
0.0056804
0.00107215
0.00170623
0.0141435
0.323028
0.734331
0.101161
0.009557
0.000857359
0.000453003
0
0
0.00164503
0.113938
0.319223
0.0795136
0.017355
0.000395593
0
0.0305713
0.0481816
0.00817172
0.150381
0.426853
0.0793641
0.0129045
5.65133e-005
0.013102
0
0
0.00170784
0.200132
0.484972
0.076
0.00180577
0.000344952
0.000517428
0.00436732
0.0289089
0.0230841
0.283997
0.483209
0.0853071
0.0111688
0.00241466
0.00549371
0.0154482
0
0.00505761
0.0297275
0.0787086
0.0511647
0.0197992
0.0555565
0.0435447
0.00610989
0
0.000557195
0.243519
0.548989
0.14565
0.0241003
0.0351239
0.0331224
0.0161589
0.00250118
0.00580648
0.0648397
0.141723
0.0397967
0.0128501
0.0156748
0.00853712
0.00230841
0.000357311
0.00112491
0.20457
0.60352
0.286474
0.108245
0.0271236
0.00272798
0
0
0.00129614
0.260494
0.417086
0.111285
0.0189236
0.00464629
0.00193967
0
0.00320223
0.000777682
0.191757
0.288301
0.114769
0.0387988
0.000413771
0
0
0
0.00216023
0.154295
0.278031
0.322843
0.213566
0.0495797
0
0
0.000457461
0.00129614
0.0932931
0.0784137
0.300392
0.427859
0.0332817
0
0.00817575
0.0457701
0.000615238
0.120571
0.291993
0.10248
0.070529
0.00643296
0
0.0405874
0.0658642
0.00534588
0.0216282
0.220561
0.0370138
0.0406963
0.0415033
0.016995
0.00116796
0.00817714
0.00888424
0.076998
0.111478
0.369441
0.621669
0.0132491
0
0.00579821
0.023933
0.0226853
0.108112
0.210644
0.173417
0.116731
0.0337098
0.00742626
0.00656435
0.0218847
0.0272232
0.113379
0.30584
0.108393
0.0429472
0.040743
0.0090417
0.0459988
0.115094
0.0942656
0.189906
0.378004
0.181386
0.11466
0.179412
0.0830589
0.0111398
0.0866329
0.0235095
0.115766
0.246991
0.134697
0.0661429
0.0559371
0.0112067
0.140638
0.153966
0.0328116
0.080252
0.263153
0.185544
0.164997
0.366133
0.25858
0.0635299
0.0474662
0.0238001
0.0254256
0.11009
0.0520204
0.0393626
0.0882047
0.173794
0.145432
0.010717
0.00110237
0.0105525
0.0186965
0.0150295
0.0310457
0.0931508
0.339183
0.116974
0.0409294
0.00387001
0.0026908
0.0526879
0.0387308
0.0436537
0.183522
0.413614
0.177455
0.0278992
0.000661423
0.00604297
0.0086213
0.00901768
0.0181979
0.123253
0.657137
0.152487
0.0220139
0.0203119
0.0360453
0.042761
0.00411042
0.0357511
0.115647
0.209888
0.0664345
0.0469439
0.163678
0.133602
0.227933
0.179269
0.203138
0.150671
0.0871752
0.192438
0.124725
0.0493383
0.0301768
0.0256566
0.00246625
0.0078437
0.0737802
0.389266
0.120811
0.26157
0.44104
0.278316
0.152444
0.048848
0.0331015
0.0717658
0.128115
0.00874425
0.0212057
0.159287
0.260084
0.362502
0.289693
0.140525
0.0511067
0.0127324
0.00943012
0.0118826
0.0495095
0.11642
0.148283
0.0872067
0.0132109
0.00699017
0.0075708
0.0242708
0.110896
0.386132
0.461316
0.251895
0.06751
0.0353773
0.0310758
0.00757918
0.0138789
0.0308374
0.063306
0.162827
0.106363
0.0335276
0.0124749
0.0189361
0.0138609
0.00283114
0.0076342
0.00591271
0.00874136
0.0526862
0.0306831
0.0107599
0.00624793
0.00415444
0.000891991
0.00356796
0.000736889
0.157164
0.575189
0.0622146
0.00544652
0.00182103
0.000491897
0.00224568
0.0135537
0.0306092
0.0331684
0.058542
0.0447188
0.0101551
0.0151316
0.00784606
0.000535195
0.0448557
0.142834
0.35471
0.608604
0.0956351
0.00609304
0.00367121
0.000954813
0.00121486
0.000993973
0.000325816
0.105652
0.438562
0.0285208
0.00145342
0.000854151
0.00128123
0.00850399
0.00695781
0.014539
0.137591
0.371894
0.0324382
0.0351073
0.0173006
0.00896859
0.00202476
0.0086584
0.046801
0.231421
0.513725
0.0127848
0.000207632
0.000512491
0.000768736
0.0141733
0.0115964
0.0237173
0.204447
0.453527
0.0113624
0.0966043
0.0386436
0.00538115
0.0122402
0.0119592
0.0108153
0.062847
0.136063
0.0810752
0.0273068
0.0247077
0.0103407
0.0017486
0.00170845
0.00293954
0.0522003
0.349645
0.44345
0.420795
0.0935488
0.00276105
0.0030661
0.0131267
0.0368336
0.0587195
0.141624
0.0627931
0.0306087
0.00922187
0.00145663
0.0064719
0.00755453
0.0331941
0.0233303
0.0943419
0.229392
0.489187
0.129287
0.0259841
0
0
0.000229157
0.0100194
0.047435
0.144932
0.298868
0.0774998
0
0
0
0.000137494
0.00513485
0.00576437
0.14744
0.429425
0.067083
0.000999243
0.00232471
0.00190204
0.0021407
0.000956433
0.00586239
0.0558477
0.440947
0.0967801
0.0104495
0.000332102
0.00027172
0
0.00036035
0.00383992
0.12473
0.595319
0.186649
0.00848749
0
0
0.00294673
0.0112018
0.0125353
0.146886
0.318167
0.0364158
0.0039372
0
0.000385319
0.00581029
0.114088
0.0442441
0.0630647
0.133871
0.0229116
0.0024488
0
0
0.000420961
0.00160026
0.00635948
0.173275
0.598323
0.196487
0.0275604
0
0.0171386
0.00372606
0.171535
0.0614449
0.0969102
0.51977
0.150657
0.0165362
0.0136217
0.086946
0.0468723
0.333088
0.0912894
0.0292561
0.0355555
0.0113665
0.0103367
0.148833
0.164884
0.0787003
0.235636
0.0717122
0.0443822
0.0700799
0.0899622
0.179669
0.00531395
0.0448522
0.0308525
0.449233
0.176067
0.114438
0.221182
0.108363
0.00774978
0.0946971
0.0751613
0.0756049
0.354
0.162428
0.125625
0.188163
0.270369
0.103914
0.0981599
0.0438773
0.0366687
0.0238996
0.0175762
0.00940231
0.019882
0.0874311
0.284766
0.0848503
0.0542046
0.0385138
0.0142096
0.0139999
0.000779218
0
0.0839201
0.514695
0.0881028
0.0736438
0.218257
0.0837824
0.0401724
0.0175806
0.035484
0.128055
0.119755
0.123901
0.365135
0.472079
0.0614076
0.0233332
0.0012987
0.00156347
0.0349415
0.228038
0.112712
0.0958058
0.0198179
0.0155194
0.035646
0.00648022
0.00304365
0.0813922
0.360484
0.0789357
0.142188
0.125236
0.13778
0.199065
0.0599542
0.0450183
0.159231
0.160062
0.298415
0.32358
0.152714
0.0196692
0.05941
0.0108004
0.00673047
0.0408617
0.240688
0.274772
0.261491
0.0821969
0.137036
0.308015
0.0553743
0.0289985
0.0950243
0.180696
0.0153062
0.0575481
0.0931732
0.15337
0.232306
0.0714437
0.0500685
0.066599
0.0174392
0.0181992
0.0579875
0.0589736
0.0561608
0.076365
0.0187423
0.011793
0.00654443
0.0151153
0.0596702
0.197775
0.0975157
0.194652
0.340315
0.0605482
0.0278157
0.0399594
0.0270211
0.0480307
0.488182
0.544085
0.0499981
0.09708
0.0279951
0.00683705
0.00144736
0.0124521
0.00351245
0.0432653
0.0922313
0.0229728
0.00929496
0.00597652
0.000748348
0.00202853
0.00244843
0.00129567
0.103438
0.34195
0.147989
0.0689937
0.0132282
0.000383035
0.000339233
7.9161e-005
0.00755859
0.239379
0.394381
0.0113807
0.0011253
0.00116702
0.00018326
0.000200909
0.00172848
0.00215945
0.427751
0.612083
0.0595807
0.00267742
0
0
0.000662213
0.000283806
0.000333298
0.0436369
0.263528
0.313389
0.240352
0.00400533
0
0
0
0.00233309
0.00539613
0.0739308
0.281963
0.302032
0.0156442
0.0535024
0.0168055
0
0
0.248656
0.550221
0.208348
0.0806699
0.000943943
0
0.00210025
0.000900107
0
0.0484346
0.154822
0.231691
0.181673
0.0386936
0.0069594
0.00386483
0.000540064
0.00721431
0.0488076
0.129204
0.13118
0.238498
0.0288739
0.0225201
0.0111869
0.00835664
0.0548961
0.0651679
0.14178
0.126715
0.194197
0.117879
0.336036
0.130151
0.0899598
0.0114278
0.0462127
0.184464
0.175013
0.257593
0.038471
0.0339333
0.0266513
0.0198437
0.0646314
0.122987
0.238597
0.245799
0.328044
0.0584794
0.0463825
0.0281646
0.0358212
0.0096432
0.00950116
0.00753156
0.0102824
0.0160957
0.0239473
0.261842
0.0546108
0.0150366
0.0013776
0.00135731
0.000765126
0.00396051
0.00545474
0.0883449
0.710568
0.169937
0.00572957
0.0110176
0.0175296
0.0201751
0.0441072
0.0474264
0.0216312
0.0713559
0.0193996
0.00262312
0.00157395
0.00229796
0.00709925
0.0361331
0.0459542
0.0623866
0.534579
0.0900149
0.000300508
0
0
0
0
0.000432398
0.066679
0.381414
0.0869093
0.00635213
0
0.0107375
0.00189486
0.023006
0.0108391
0.0590884
0.365233
0.107908
0.0102485
0
0
0.000141296
0.00312012
0.00691831
0.0515373
0.525261
0.064691
0
0.00249554
0.00153393
0.000270694
0
0
0.0402803
0.558445
0.200711
0.0379808
0
0.0314605
0.00761224
0.0673585
0.0490965
0.0955404
0.245063
0.180921
0.035682
0.0548796
0.0514013
0.0196077
0.0580301
0.0470379
0.0613801
0.119958
0.354958
0.0908836
0.0223472
0.0245095
0.00775919
0
0
0.0305926
0.332033
0.342016
0.238524
0.0947416
0.0740457
0.0127637
0.000535712
0
0.0109146
0.0542345
0.396036
0.430846
0.101227
0.0985693
0.162132
0.0316829
0.0088865
0.00649058
0.0184985
0.133017
0.0615423
0.0951936
0.267172
0.44591
0.0319784
0.00276989
0.021678
0.00910882
0.015958
0.0673247
0.121696
0.106563
0.0553904
0.00254607
0
0.00512471
0.00883782
0.186134
0.320246
0.14431
0.126511
0.150822
0.00372531
0
0.035873
0.011205
0.0759632
0.580699
0.15932
0.198666
0.166837
0.00775264
0.00741082
0.0109486
0.0146879
0.00352215
0.106857
0.169725
0.22182
0.0914305
0.056629
0.045345
0.00388176
0.00737254
0.00184313
0.0904017
0.16554
0.0704969
0.0579014
0.000990587
0
0.0160023
0.0113731
0.015862
0.541926
0.21907
0.43975
0.216301
0.0077349
0.00293267
0
0.00442352
0.00323257
0.301929
0.0230375
0.158454
0.079651
0.0332278
0.0226069
0.00205823
0.00010262
0
0.00478301
0.0157695
0.322495
0.275111
0.0141434
0.00749589
0.00241486
0.000171033
0
0.000317533
0.0390787
0.356182
0.251723
0.0128912
0.00177316
0
0
0
0.0135803
0.0150234
0.539356
0.494771
0.0541843
0.000500257
0.000506376
0
0
0.000769751
0.00268383
0.284728
0.344492
0.00389188
0.00053071
0.000329233
2.3318e-005
0
0.000117677
0.000274768
0.324584
0.498827
0.0100446
0.00628634
0.000911336
0.00207986
0.00555501
0.000725318
0.0111694
0.386461
0.333122
0.0232401
0.00422551
0.00138665
0
0
0.00210787
0.00694517
0.212108
0.285871
0.0281179
0.0421263
0.00235088
0.00346644
0.00745311
0.00169991
0
0.439758
0.579016
0.101422
0.0596958
0.0192231
0.00616579
0.0258273
0.00695261
0
0.100228
0.125468
0.195604
0.194954
0.0683121
0.001172
0.014988
0.0112609
0.000735649
0.118802
0.229025
0.114365
0.147253
0.0286024
0.0120561
0.0318035
0.00535312
0
0.0513974
0.0513922
0.241093
0.232815
0.0620314
0.00671358
0.0217603
0.0150274
0.0238399
0.0407425
0.145396
0.124958
0.232448
0.0788918
0.0371992
0.0111931
0.013185
0.0395188
0.141354
0.244664
0.169334
0.208424
0.0835088
0.037151
0.00405828
0.00986898
0.220883
0.0826237
0.0635185
0.224273
0.217474
0.0885802
0.031355
0.00733165
0.0180846
0.109757
0.138866
0.200181
0.26632
0.287682
0.176379
0.03768
0.00104738
0.0108508
0.0149382
0.0511973
0.0875083
0.103169
0.104457
0.0554525
0.0517309
0.022589
0.00479931
0.00213403
0.0103289
0.0472302
0.129316
0.235101
0.112945
0.506674
0.081645
0.00761914
0.00596059
0.0897051
0.177798
0.0757448
0.172909
0.129527
0.0496365
0.017778
0.00761914
0.00686884
0.0723338
0.124275
0.128416
0.478732
0.208627
0.130902
0.037113
0.0166009
0.00192401
0.00274514
0.00184167
0.0100941
0.0378247
0.0437161
0.424678
0.0593569
0.00107176
0.0274513
0.00164708
0.000705893
0.000191902
0.00736856
0.0237615
0.62188
0.352954
0.0980675
0.0179595
0.0267089
0.0124519
0.0416289
0.0887084
0.0379877
0.120287
0.035641
0.00926199
0.0774182
0.0263352
0.00548659
0.0242376
0.0201517
0.016122
0.197428
0.346616
0.126242
0.0819285
0.00257741
0.000859138
0
0
0.00151173
0.152713
0.238848
0.279984
0.134932
0.00858351
0.0014319
0
0
0
0.0111734
0.212397
0.515281
0.149033
0.0223492
0
0.00241208
0.000659288
0.00297288
0.0481723
0.235821
0.25265
0.22551
0.0404388
0.0144669
0
0
0.0150951
0.0552133
0.229465
0.426004
0.105203
0.00800868
0.00137416
0
0
0.00049156
0.000999593
0.0760464
0.31195
0.128795
0.00640959
0.00206513
0
0
0.00344092
0.00086023
0.042113
0.525389
0.18086
0.0360756
0.0145507
0
0
0.00422725
0.0151817
0.0588118
0.306197
0.2644
0.0288487
0.00463731
0
0
0
0
0.0164458
0.57429
0.119475
0.00931235
0.000591341
0
0
0.00131186
0.000327964
0.0119908
0.415699
0.214894
0.236378
0.0673599
0
0
0
0
0.00128824
0.255523
0.233627
0.0172328
0
0
0
0
0
0.0239926
0.469356
0.371766
0.24365
0.0215787
0
0.000748613
0.00437554
0
0.029435
0.325469
0.0884848
0.418381
0.237502
0.00602515
0
0
0
0
0.0305048
0.0125368
0.434543
0.445892
0.0381335
0.0028148
0.00715503
0.00340841
0
0.000984804
0.189813
0.38295
0.12278
0.00567317
0.00227927
0.013322
0
0.00432834
0.0424178
0.0292758
0.218427
0.232533
0.0375326
0.0131724
0.0345391
0.014909
0
0.000346099
0.0368961
0.50554
0.459621
0.0680547
0.0458997
0.0359784
0.00922833
0
0.00724795
0.0241923
0.222552
0.256288
0.129667
0.116313
0.0178559
0.00293145
0.00299579
0.00434877
0.00767282
0.0906245
0.162129
0.112189
0.129757
0.134029
0.0403664
0
0.00103542
0.00757899
0.0584997
0.11244
0.291416
0.214421
0.0815749
0.00576662
0
0.000621253
0.00126488
0.0541255
0.195652
0.221885
0.154122
0.00739858
0.0107095
0.0201754
0.000429599
0
0.020425
0.091475
0.336057
0.22965
0.0573292
0.0368083
0.028386
0.00300719
0.0158873
0.0650474
0.154427
0.393716
0.159757
0.0205929
0.00499092
0.00926885
0
0.00942394
0.0259945
0.123396
0.462545
0.244629
0.0983374
0.0346266
0.0154481
0