0.144806
0.0430327
0.0802318
0.0247251
0.0289458
0.0186869
0.0518723
0.0783942
0.0404266
0.113352
0.055526
0.115732
0.289689
0.282063
0.0628622
0.0652845
0.0620733
0.0308792
0.152257
0.0888176
0.159631
0.0647522
0.0657228
0.118951
0.123706
0.0467454
0.0646442
0.162282
0.136844
0.512397
0.388449
0.281721
0.128868
0.0311934
0.0450423
0.0233541
0.0258367
0.0585258
0.0683261
0.25067
0.226057
0.0986536
0.0379359
0.0568029
0.0154216
0.0161064
0.112833
0.190922
0.156662
0.131954
0.254646
0.0525327
0.0776744
0.0233027
0.131895
0.0641655
0.170301
0.19988
0.186206
0.124603
0.0378511
0.135498
0.018438
0.0855359
0.385577
0.385657
0.238125
0.0916736
0.235037
0.0651912
0.142887
0.0206417
0.0460975
0.110076
0.081366
0.0486364
0.0276907
0.0397433
0.0079242
0.0204219
0.0339302
0.19386
0.212031
0.0537881
0.0224155
0.00303452
0.00241546
0.00625351
0.0656171
0.203583
0.0297733
0.261256
0.35927
0.150163
0.0110407
0.029221
0.00476151
0.00604052
0.00441334
0.262143
0.50431
0.479923
0.0796559
0.00033008
0.000147301
1.63667e-005
0.00622988
0.0984021
0.153354
0.0470306
0.00455712
0
0
0.00290617
0.00976469
0.0382265
0.246565
0.175434
0.00128025
0
0
0
0.00342914
0.0349429
0.0489586
0.442917
0.329839
0.233802
0.0816242
0.000734473
0
0
0
0.00665913
0.255329
0.446244
0.0440777
0.000314774
0.000104925
0
0
0
0.0401589
0.446244
0.188277
0.00128423
0.00132331
0.0078561
0.000731811
0.00185736
0.0174686
0.0255599
0.284081
0.345849
0.0358444
0.00608343
0.023475
0.0135673
0.00238544
0.00159001
0.00426875
0.220826
0.349173
0.00210811
0
0.000428135
0.000795109
0
0.00201681
0.037392
0.426732
0.426732
0.0137949
0.00867426
0.00299695
0.00556576
0
0.00336136
0.0140703
0.426732
0.227055
0.0489451
0.0156128
0.0344831
0.0246859
0.000947413
0
0.00622623
0.172415
0.120394
0.0361603
0.0925732
0.245345
0.0590081
0.00888272
0.00337185
0.033088
0.133933
0.405498
0.0202727
0.0182213
0.00269435
0.00243642
0
0.00117824
0.035679
0.451547
0.243136
0.0273517
0.0567712
0.0419875
0.00716736
0.00359313
0.115688
0.33148
0.451547
0.0341603
0.0125236
0.0592639
0.303007
0.134547
0.0577419
0.0218108
0.0830382
0.041032
0.0342451
0.0134151
0.0118277
0.0655096
0.103181
0.0878704
0.0919107
0.0779298
0.0185876
0.0580965
0.0145051
0.0343577
0.0617574
0.0291818
0.0390161
0.412968
0.55511
0.170824
0.0267335
0.0076124
0.00721029
0.0302874
0.0623036
0.088338
0.40685
0.268985
0.0540765
0.0297911
0.0296605
0.0256994
0.0439028
0.111637
0.191013
0.148162
0.0472838
0.00790093
0.0113133
0.037528
0.0777816
0.142699
0.321531
0.40963
0.122974
0.0326527
0.00173369
0.0185959
0.0387682
0.0433349
0.0746452
0.168241
0.100515
0.153739
0.069025
0.0581316
0.00124763
0.0361421
0.0516693
0.138438
0.501088
0.400343
0.114657
0.0484188
0.012307
0.000653981
0.0146608
0.0292886
0.0714592
0.205027
0.161483
0.0405397
0.0337616
0.00526577
0
0.00823081
0.00649797
0.260348
0.4765
0.0954808
0.0300197
0.0461305
0.00858394
0
0.00928835
0.00612637
0.066861
0.316806
0.213133
0.0407706
0.0253262
0.0234006
0
0.011684
0.00176325
0.104179
0.509976
0.37084
0.0396319
0.0215968
0.039001
0.126376
0.125637
0.16824
0.0574746
0.0139821
0.0818476
0.0746584
0.0202486
0.0785148
0.118582
0.229647
0.320779
0.13117
0.0457675
0.0373252
0.0315905
0.0129848
0.0268888
0.0721851
0.215906
0.373282
0.211676
0.0193258
0.114503
0.0937012
0.0342658
0.0421655
0.0819278
0.321767
0.449595
0.259974
0.0303326
0.0982639
0.0699903
0.00967252
0.0156317
0.0561089
0.0753946
0.12387
0.0442814
0.0169261
0.00801196
0.0145784
0.0209503
0.00323066
0.0368125
0.293659
0.365835
0.0564042
0.00534993
0.0114674
0.00676007
0.0182211
0.00387319
0.0180262
0.150938
0.397166
0.0878128
0.00565294
0.0175081
0.0230898
0.00338495
0.000259124
0.00567909
0.394054
0.585512
0.0490921
0.000158163
0
0.0027402
0.000483564
0.000431874
0.00494188
0.192818
0.410331
0.0476823
0.00254791
0.00211745
0.000476748
0.000958011
0.00028172
0.051361
0.278705
0.436142
0.0683714
0.0118877
0.000651168
0
0
0.0135372
0.000511891
0.174295
0.436142
0.0187888
0.0178909
0.000651168
0.00134866
0.000449554
4.02457e-005
0.00227869
0.121102
0.411416
0.20424
0.159179
0.034661
0.00224777
0.000749256
0.000817755
0.174724
0.273293
0.167979
0.0507756
0.00494658
0.000270957
0
0.0003529
0.0938368
0.324161
0.162835
0.0346765
0.00881348
0
0
0.0194971
0.11456
0.365418
0.0928716
0.195825
0.251015
0.281774
0.0999212
0.0405823
0.0197831
0.00518027
0.0316463
0.316833
0.196494
0.109524
0.129912
0.01364
0.0381933
0.212783
0.185952
0.282803
0.189371
0.0131902
0
0.00137096
0.00731412
0.00391618
0.105954
0.170706
0.278091
0.239274
0.0399516
0.0277763
0.0395859
0.0757355
0.0148803
0.130874
0.0713357
0.254334
0.10334
0.0193119
0.0020385
0.0123741
0.0094744
0.122729
0.46683
0.224703
0.170489
0.0265276
0.0472668
0.018485
0.0557401
0.107215
0.238772
0.46683
0.160079
0.0609025
0.182306
0.0608147
0.0274474
0.0331227
0.042858
0.00948634
0.045586
0.110117
0.224681
0.105093
0.0269342
0.00392106
0.00423344
0.00950307
0.0414417
0.267368
0.35907
0.226197
0.0482894
0.100311
0.021355
0.0715421
0.0835585
0.14178
0.283584
0.245955
0.0617816
0.0379872
0.0544127
0.00528458
0.0721159
0.140635
0.335953
0.415094
0.282452
0.0378862
0.00827076
0.00110302
0
0
0.00576096
0.041328
0.417924
0.228617
0.0437522
0.0109244
0.000574688
0.00126967
0.00669874
0.00718902
0.0224862
0.466743
0.158577
0.0257544
0.00234129
0.000697581
0.00137446
0.0324469
0.109861
0.196707
0.370551
0.103453
0.00399754
0.00562372
0.000572691
0.00241741
0.00925643
0.0234589
0.030126
0.466743
0.243845
0.0097999
0.0181426
0.0216102
0.0248573
0.0393778
0.0372456
0.0172874
0.212684
0.0966851
0.0597338
0.00245383
0.0329632
0.0683847
0.0947742
0.155452
0.122563
0.0868078
0.0532678
0.0203124
0.0103061
0.0142847
0.0334929
0.027812
0.00413223
0.00279699
0.651016
0.378327
0.0265721
0.0014723
0.0390074
0.153277
0.123327
0.0355538
0.0827253
0.361365
0.24384
0.0128638
0
0.00401771
0.0249178
0.0516582
0.164568
0.154833
0.0993758
0.0168466
0.00924964
0
0.00164112
0.00303222
0.0283747
0.512753
0.374337
0.117913
0.011895
0.0150701
0
0.00716578
0.05355
0.0479857
0.157187
0.1534
0.14216
0.0496129
0.000345953
0
0
0.00434574
0.0283626
0.549221
0.263704
0.121861
0.0101884
0
0.0387188
0.108546
0.226231
0.176321
0.0224368
0.0818356
0.0804944
0.0103692
0.00529162
0.0561741
0.176154
0.287198
0.175336
0.0136296
0.0978088
0.10077
0.00232598
0.00317497
0.0942161
0.0854917
0.187423
0.381024
0.0753395
0.0882418
0.0876419
0.00950127
0.0383991
0.0990112
0.127113
0.536298
0.318979
0.127046
0.0488753
0.12714
0.00555619
0.0222248
0.013215
0.118583
0.40812
0.0712163
0.00123737
0.0166711
0.011945
0.000353989
0
0.000167971
0.154999
0.485084
0.0236506
0.000541157
0
0.000286562
5.05699e-005
0
0.0197402
0.105862
0.485084
0.117304
0.0367888
0.00871396
0.0120749
0
0
0.00130572
0.0881984
0.485084
0.0233357
0.00445204
0.00207089
0
0
0.00120494
0.000817179
0.0936151
0.56541
0.0331687
0.0440355
0.00493177
0.00297543
0.00099181
0
0.000490307
0.0258979
0.156472
0.215046
0.368094
0.278841
0.08248
0.00369563
0
0.00264682
0.0220353
0.164256
0.0164654
0.0407417
0.00844815
0.00225391
0.000751304
0.00215651
0.0469989
0.0033613
0.0546393
0.119893
0.29469
0.402103
0.132958
0.00465653
0.00182295
0.0253899
0.024554
0.0713189
0.170692
0.122162
0.18172
0.166787
0.0283781
0.010027
0.116139
0.0343922
0.0591356
0.114249
0.0433686
0.14706
0.44641
0.148307
0.0901568
0.0844306
0.0198235
0.0726781
0.0705745
0.0959601
0.326396
0.241055
0.0683337
0.00328832
0.124826
0.0888888
0.197081
0.0461662
0.114092
0.234171
0.451605
0.161582
0.0199547
0.0317871
0.00419434
0.00730094
0.0121483
0.0214143
0.16094
0.412728
0.0841124
0.0403943
0.0261408
0.0270736
0.00419233
0.00607105
0.0140032
0.17856
0.412728
0.163056
0.0975241
0.0417155
0.0242294
0.0593185
0.0216155
0.0846386
0.0965424
0.346507
0.137604
0.0537011
0.125649
0.021176
0.0046466
0.00288807
0.0120595
0.0479239
0.319798
0.332519
0.341012
0.073403
0.11134
0.038111
0.066286
0.0334901
0.110088
0.218037
0.164303
0.108594
0.042681
0.108913
0.13233
0.243442
0.181736
0.240505
0.135
0.060296
0.0155565
0.326284
0.163836
0.0986192
0.0354285
0.00639726
0.0133987
0.0688006
0.140287
0.323476
0.234129
0.31849
0.361787
0.23491
0.0733633
0.0263156
0.0069293
0.00589374
0.0742127
0.00170939
0.0284264
0.0869795
0.279852
0.292785
0.225953
0.132274
0.0259551
0.00124906
0.00103654
0.00521891
0.0132844
0.0562148
0.0862013
0.0349326
0.620618
0.213879
0.00874344
0.0339773
0.146607
0.218553
0.345821
0.152254
0.0276844
0.0101455
0.000830761
0.0213898
0.00803882
0.0175722
0.0148515
0.0879493
0.0953764
0.0222283
0.112492
0.0460492
0.00670026
0.000218926
0.00258107
0.00928785
0.00636871
0.00691653
0.00113206
0.478695
0.20707
0.00203852
0
0.0134299
0.0375701
0.0211168
0.0103683
0.044615
0.463591
0.237018
0.00324643
0.00974392
0.0188308
0.0229981
0.0244235
0.0318009
0.00759459
0.264495
0.0974837
0.00110801
0.05748
0.10922
0.0389583
0.0480968
0.0728063
0.0890483
0.500369
0.194326
0.0245545
0
0.00600358
0.0169452
0.0104347
0.139653
0.122377
0.125234
0.0765631
0.00304482
0
0.00656943
0.0158568
0.00815419
0.515711
0.209146
0.026878
0.00677626
0.000428637
0.0235374
0.0644912
0.0218078
0.0394841
0.162033
0.230047
0.261152
0.0802814
0.0362016
0.0130118
0.163093
0.107301
0.0128155
0.515711
0.335807
0.0399317
0.0259159
0.0219769
0.0448249
0.030528
0.0497124
0.174308
0.142792
0.1227
0.041372
0.0133914
0.0165269
0.0304335
0.0206663
0.226387
0.237795
0.447164
0.0573996
0.027262
0.00279381
0.00780279
0.041842
0.0184917
0.0111869
0.0674943
0.196389
0.250068
0.194815
0.029811
0.00935358
0.00417802
0.00159949
0.0250777
0.0769179
0.586805
0.234007
0.0552045
0.00670954
6.35543e-005
0.00623747
0.0339499
0.435735
0.202078
0.349156
0.0439454
0.00396511
2.30746e-005
6.61198e-005
0.00535129
0.0310159
0.198937
0.0365802
0.0385432
0.0167492
0.000646091
0.000957137
0.00361195
0.00962352
0.0069347
0.0299433
0.0854469
0.694414
0.159623
0.0132468
0.00696077
0.00696556
0.0175306
0.0130246
0.0136761
0.0225739
0.109106
0.0380975
0.016657
0.0263428
0.0229653
0.00387118
0.00713325
0.0255937
0.00659974
0.038984
0.00369919
0.00320857
0.0019143
0.00361448
0.0733547
0.0048305
0.0627939
0.162095
0.50312
0.121404
0.0256957
0.00231004
0.00538344
0.00532497
0.00876633
0.00951051
0.00313675
0.0570319
0.00512931
0.0131191
0.0168919
0.0118147
0.0260237
0.00889866
0.0149357
0.0712773
0.767952
0.133869
0.0151329
0.00996226
0.0052081
0.119882
0.0190562
0.0670243
0.0883464
0.225428
0.157376
0.0620559
0.0454984
0.0243488
0.203518
0.0766926
0.127474
0.0276046
0.0826483
0.161546
0.151951
0.0811906
0.204467
0.0577911
0.0324318
0.0336746
0.0604609
0.494273
0.107729
0.0401611
0.0487787
0.053603
0.348024
0.0845406
0.0612315
0.0438177
0.164776
0.0831545
0.0843019
0.0778376
0.469252
0.135621
0.0183885
0.0350299
0.00997037
0.027854
0.0187207
0.0775415
0.052944
0.204032
0.233074
0.00259214
0.0021694
0.00142434
0.00389142
0.00113158
0.0553618
0.117011
0.396763
0.343801
0.0159618
0.0102032
0.00404797
0.000368402
0.00811554
0.0144588
0.010696
0.412456
0.429119
0
0.000309915
7.74787e-005
0
0
0
0.00446197
0.429119
0.301831
0.0426548
0.0248889
0
0
0.00226226
0.0067045
0.0376708
0.302785
0.246264
0.118418
0.086693
0.0280563
0.0196186
0.0255717
0.0295145
0.0207346
0.203147
0.411278
0.00890601
0
0
0
0.0158358
0.00175953
0.0109288
0.437869
0.315961
0.0578204
0.0296209
0.0370799
0.112356
0.130326
0.058575
0.0410673
0.376747
0.123534
0.129672
0.107441
0.126596
0.129819
0.0801434
0.10975
0.0303714
0.195258
0.0114328
0.0286673
0.0338823
0.0722748
0.128712
0.0473541
0.0327487
0.00828709
0.00817092
0.231269
0.0844811
0.125343
0.156926
0.544775
0.270948
0.186288
0.0538494
0.288948
0.0327375
0.0616975
0.174632
0.149265
0.28199
0.0598957
0.0252285
0.00956377
0.0106156
0.0122356
0.0426224
0.0378206
0.0763507
0.161922
0.022884
0.0482392
0.0112339
6.92623e-005
0.0789992
0.276436
0.0625956
0.136409
0.336437
0.122294
0.222772
0.0316092
0.074418
0.0129547
0.111863
0.206686
0.218736
0.216273
0.0260595
0.0153995
0.000575151
0.00487345
0.0922992
0.322269
0.225996
0.29907
0.388778
0.161912
0.125369
0.0296551
0.127583
0.0355169
0.151311
0.0231281
0.0668233
0.208015
0.217805
0.149991
0.0303843
0.100405
0.0196343
0.204041
0.0600153
0.0187022
0.272312
0.275803
0.197504
0.0649453
0.0397019
0.0664046
0.16028
0.04418
0.132198
0.213966
0.162782
0.137936
0.0418213
0.123107
0.110086
0.0433727
0.00315884
0.0578987
0.179793
0.17197
0.4824
0.2317
0.139634
0.0673142
0.0166436
0.00155228
0.0412361
0.128024
0.163542
0.0793522
0.00783917
0.0200292
0.00411896
0
0.00123226
0.0297221
0.56256
0.290058
0.0320525
0.00425697
0.000279632
0.0948095
0.0178366
0.0067003
0.0305156
0.193694
0.117624
0.0650259
0.00945978
0.037904
0.00967352
0
0.00637295
0.16675
0.56256
0.267174
0.0482593
0.00668795
0.00380659
0.00619088
0.00559183
0.000733603
0.0197697
0.567238
0.225433
0.0458348
0.0193812
0.0278385
0.0103957
0.0127425
0.00726817
0.00827609
0.0653724
0.0478816
0.0486966
0.0557642
0.0703631
0.00375067
0.0450539
0.0329713
0.192069
0.650733
0.180026
0.0405369
0.0143189
0.0269964
0.0144562
0.139195
0.0709847
0.0617303
0.0737067
0.0399385
0.0502627
0.044425
0.0594031
0.00323437
0.00787358
0.01103
0.00342549
0.0382636
0.01565
0.0322832
0.029575
0.0325529
0.00220817
0.00605985
0.0076247
0.0150151
0.756185
0.256043
0.0438575
0.0369254
0.0378209
0.0126885
0.0827804
0.0515632
0.0117199
0.0230238
0.0236047
0.0369707
0.0208689
0.0229456
0.00529925
0.0249687
0.119144
0.135315
0.37957
0.267221
0.0829615
0.0374809
0.0587964
0.0221257
0.039572
0.0484717
0.0855135
0.338687
0.114806
0.0327986
0.0528517
0.0600095
0.319326
0.133495
0.104549
0.137673
0.0889602
0.0190687
0.0206765
0.0751695
0.280018
0.0233381
0.0622855
0.219414
0.162928
0.187121
0.119681
0.0411625
0.0540663
0.0830186
0.408054
0.215653
0.251139
0.170842
0.0615879
0.0217716
0.012298
0.0940347
0.323752
0.2745
0.0252125
0.0140208
0.0120316
0.000208724
0
0.000505792
0.0106693
0.24691
0.392261
0
0
0
0
0
0
0
0.354229
0.369193
0.0413841
0.0187985
0.0130139
0.000624014
0
0
0.0160902
0.301834
0.396298
0
0
0
0
0
0
0.00195517
0.396298
0.330527
0.00692681
0
0
0
0.00560466
0.00226355
0.0171038
0.351022
0.256588
0.0490014
0.028138
0.0298851
0.0420843
0.0427222
0.0231093
0.0528367
0.267246
0.329175
0.000989544
0
0
0
0
0.0496097
0.111369
0.431894
0.133558
0.00723504
0.0044001
0.00838
0.0127531
0.0498485
0.294518
0.30207
0.260387
0.172604
0.0562863
0.0910336
0.0941854
0.175884
0.062441
0.0435514
0.0439298
0.125191
0.0171747
0.0283457
0.140424
0.133961
0.346314
0.0410818
0.0150554
0.00161873
0.00462509
0.0695136
0.0130649
0.0190483
0.0427187
0.110017
0.14959
0.438795
0.233541
0.080083
0.00640422
0.0106459
0.0627235
0.101334
0.541295
0.171636
0.139139
0.00788583
0.00263283
0.0163788
0.0836031
0.238158
0.165765
0.207807
0.0435843
0.0336576
0.000895407
0.00496516
0.128616
0.153853
0.252698
0.165701
0.115686
0.0718704
0.083573
0.0704561
0.091611
0.0143615
0.0185675
0.0951129
0.103059
0.323788
0.18624
0.286591
0.0874712
0.044333
0.25463
0.0997167
0.100056
0.0919984
0.134496
0.145124
0.352296
0.214714
0.291915
0.0885747
0.0651582
0.0339444
0.0732788
0.129166
0.112535
0.0800485
0.0934909
0.0827389
0.108565
0.021733
0.00104603
0.0388568
0.298666
0.166878
0.193403
0.121184
0.118004
0.252545
0.122778
0.0114817
0.0347194
0.231195
0.125667
0.133141
0.135632
0.165816
0.273273
0.125915
0
0.0395485
0.484683
0.186499
0.232483
0.0452555
0.209222
0.0670589
0.023429
0.0123759
0.00981611
0.138173
0.132014
0.131351
0.00843278
0.0366819
0.0080055
0
0.00585867
0.120243
0.542315
0.152022
0.0761368
0.00496762
0.00521835
0.0253192
0.0878645
0.0606068
0.0595898
0.242308
0.232138
0.100609
0.0130671
0.0185326
0.00286473
0.0347859
0.0294773
0.110395
0.542315
0.303936
0.0938532
0.00177569
0.00220017
0.0081813
0.0392095
0.0301397
0.185458
0.580216
0.0440377
0.00271868
0.000651163
0.00211794
0.0346557
0.120434
0.040343
0.063834
0.0811236
0.00760547
0.00633885
0.00343942
0.00443227
0.00722101
0.0136484
0.00580093
0.0888911
0.655591
0.240917
0.0841269
0.0107344
0
0.027644
0.041564
0.0119099
0.0281624
0.144425
0.0555015
0.0333542
0.0141286
0.00156778
0.0359529
0.0900778
0.0266128
0.00795633
0.0163887
0.00738601
0.00940935
0.00254668
0.00475423
0.0135573
0.0307542
0.137979
0.277793
0.499919
0.103912
0.0464103
0.00663529
0.0114367
0.0269115
0.0355043
0.0156481
0.00991795
0.0269345
0.0057475
0.00673104
0.00440501
0.00658914
0.01427
0.030579
0.0351851
0.178347
0.618261
0.267497
0.216625
0.0347513
0.00386719
0.010882
0.0532978
0.181785
0.196807
0.242258
0.0924597
0.0324684
0.0103047
0.0179856
0.247955
0.211664
0.158121
0.121266
0.103222
0.131927
0.0153718
0.0278171
0.206184
0.00639662
0.026186
0.027326
0.108135
0.287991
0.207302
0.304869
0.0842616
0.0198124
0.172426
0.0963658
0.0190427
0.0643638
0.127667
0.246883
0.249477
0.200724
0.356127
0.278381
0.0466524
0.00749632
0.00598805
0.00570154
0.0229507
4.8393e-005
0.00609093
0.235144
0.385976
0.00536324
0.00342471
0
0
0
0
0.00618188
0.381813
0.274864
0.0224329
0.000509281
0.00296855
0.00847999
0.040574
0.00986032
0.0384885
0.328203
0.415019
0.0105642
0.00570785
0
0
0
0
0.00370913
0.41105
0.225126
0.0273991
0.0140216
0.0366052
0.00907894
0.00141034
0.0827833
0.0853397
0.346963
0.03747
0.0315181
0.0307807
0.0995344
0.106352
0.111279
0.374703
0.187589
0.122716
0.393402
0.139074
0.0498818
0.0610086
0.0151316
0.00235057
0.032973
0.0242071
0.260682
0.1205
0.26478
0.340606
0.195669
0.161947
0.0612512
0.10455
0.0480543
0.0685173
0.00273935
0.0125553
0.0367247
0.101986
0.320231
0.214686
0.358658
0.0895006
0.00536695
0.0153261
0.0142293
0.015109
0.0351278
0.259357
0.0958509
0.0851601
0.0114636
0.00612034
0.0115757
0.125344
0.426549
0.223635
0.450298
0.111958
0.0961149
0.0335858
0.028825
0.0436181
0.0970581
0.0736477
0.0434792
0.22145
0.0299395
0.0232361
0.0115038
0.0123749
0.0234934
0.011764
0.00634893
0.0168252
0.100663
0.11722
0.229066
0.160173
0.107143
0.234502
0.0440566
0.000764721
0.0144952
0.105851
0.164209
0.271465
0.354397
0.549864
0.0425235
0.0712853
0.0350566
0.00521128
0.00678318
0.00732361
0.0220994
0.052142
0.05828
0.0689727
0.0894595
0.19993
0.0963554
0.216739
0.133125
0.0227015
0.133437
0.24829
0.139848
0.0346585
0
0.0158758
0.248304
0.115399
0.0502834
0.103854
0.145912
0.224696
0.109367
0.0061994
0.0256822
0.335713
0.0803663
0.0643808
0.0218998
0.150652
0.0275053
0.0264515
0.0949357
0.154639
0.48653
0.142073
0.00479213
0.0464298
0.0591855
0.0776119
0.0609977
0.028059
0.147698
0.51581
0.11249
0.00625258
0.00724123
0.0274805
0.0470459
0.153215
0.0913284
0.125085
0.155059
0.0967589
0.0258414
0.0192412
0.0318527
0.0313846
0.0841847
0.0521409
0.13441
0.371379
0.210656
0.276315
0.0713972
0.0405512
0.134811
0.254666
0.129963
0.0931968
0.123827
0.0821304
0.0730229
0.0191496
0.0494975
0.0930416
0.124846
0.0866689
0.0555631
0.0611206
0.0808555
0.553323
0.266426
0.0703913
0.00233697
0.00125722
0.00103185
0.0267246
0.150629
0.132519
0.298681
0.0919457
0.00448105
0.00226777
0.00516486
0.00452009
0.00140887
0.0313936
0.03061
0.17792
0.0943766
0.00141599
0.00606662
0.00298738
0.0030328
0.0115721
0.0122496
0.0371837
0.528826
0.281091
0.00831127
0.00215327
0.000957288
0.00141169
0.000193726
0.00187995
0.0177808
0.528826
0.355206
0.00177424
0.00553376
0.00780477
0.0103035
0.0053318
0.00950621
0.0045016
0.04838
0.0354994
0.00516182
0.0131857
0.0316682
0.0496309
0.0645219
0.187622
0.118215
0.111166
0.0214247
0.00220114
0.0123968
0.00174553
0.00508471
0.00668676
0.00690879
0.0140523
0.603924
0.363751
0.00677727
0.0136675
0.0246989
0.073675
0.139557
0.532085
0.108763
0.112692
0.127947
0.00375342
0.0644852
0.0537488
0.064071
0.0364541
0.113726
0.0811506
0.247292
0.0851243
0.0202636
0.269877
0.0453729
0.0378575
0.00978301
0.0338315
0.0529229
0.235566
0.195478
0.288481
0.108931
0.0840792
0.105643
0.135322
0.387436
0.118716
0.0593796
0.0348209
0.0106459
0.473438
0.149037
0.0630958
0.150869
0.168449
0.0646082
0.0859906
0.101776
0.217364
0.290043
0.0024831
0
0
0.00149722
0.0086212
0.0156347
0.0453945
0.286123
0.455209
0.00601894
0.00678839
0
0
0
0
0.00446435
0.346678
0.343395
0.0584315
0.00929729
0.0396278
0.0441338
0.02124
0.0152113
0.082845
0.257575
0.357016
0.0551578
0.144454
0.070624
0.0524354
0.0349569
0.00992717
0.0625669
0.304019
0.360526
0.0904217
0.0333523
0.00886106
0.00219775
0.000341403
0
0.0058235
0.163384
0.185535
0.185038
0.26094
0.0414417
0.0461541
0.0432286
0.016994
0.0548974
0.144828
0.432889
0.0980971
0.13286
0.0652787
0.0074271
0.0049514
0.00382222
0.010592
0.171394
0.508393
0.104385
0.154037
0.01591
0.0465034
0.0662735
0.0283817
0.0398877
0.257252
0.0364251
0.115148
0.364211
0.0705797
0.205146
0.0970856
0.0385292
0.0794756
0.141955
0.0216851
0.114265
0.0900695
0.0259764
0.11751
0.0192229
0.0095835
0.0157847
0.0125155
0.298115
0.069935
0.297866
0.0261431
0.271529
0.14775
0.0631975
0.0531767
0.200293
0.0221461
0.277688
0.463106
0.037461
0.165492
0.0250081
0.0109235
0.00917193
0.00977436
0.00780422
0.0654728
0.0865293
0.00845339
0.0019187
2.74079e-005
0.00246594
0.00082442
0.00126035
0.0149006
0.214655
0.316355
0.064597
0.045594
0.0211703
0.00265316
0.000685678
0.0172077
0.006611
0.283223
0.415822
0.00907462
0.00115122
0
0.000340531
0.00011351
0.000987308
0.0730091
0.498416
0.498416
0.0226922
0.0450311
0.162729
0.00876481
6.81062e-005
0.0309679
0.0173945
0.105082
0.165164
0.154851
0.196882
0.0773376
0.00646085
7.41616e-005
0.034426
0.00807269
0.0104759
0.0247096
0.159761
0.350944
0.11162
0.0121604
0
0.020443
0.0879605
0.169216
0.122061
0.0433631
0.161328
0.406821
0.0170612
0
0.0655481
0.0410891
0.00879078
0.00822932
0.0507318
0.438895
0.482861
0.0183452
0
0.037857
0.127986
0.21438
0.187149
0.0776321
0.0936202
0.0744968
0.0826676
0.0645193
0.0160161
0.0960955
0.0785081
0.107628
0.0127874
0.0110334
0.0575817
0.525499
0.247292
0.0284083
0.0574105
0.118645
0.117772
0.127056
0.0484122
0.0310948
0.272009
0.225179
0.0202021
0.048403
0.0176496
0.0670201
0.0208571
0.0531297
0.0822974
0.455956
0.188086
0.0156974
0.00803227
0.00103675
0.00542629
0.00371077
0.0068984
0.0199092
0.447394
0.162739
0.00361639
0.000621822
2.91695e-005
0.00185945
0.00557834
0.00413904
0.0486739
0.486287
0.296174
0.000876795
0.0119537
0
0.0223513
0.0270637
0.0567126
0.0442019
0.268895
0.0764715
0.00382115
0.00443374
0
0.0375024
0.0472105
0.0301767
0.0638184
0.461129
0.302664
0.0232278
0.00142152
6.66833e-005
0.000487201
0.00177289
0.00130095
0.0146783
0.335045
0.237224
0.00117359
0.00106394
0.00064236
0.00387259
0.0263795
0.132564
0.0468718
0.206054
0.186336
0.00138723
0
0
0.00880505
0.006975
0.00010934
0.0175091
0.402293
0.358755
0.0186507
0.00147719
0
0
0.0147825
0.0319986
0.021219
0.44491
0.44491
0.0259842
0.0166792
0.0143525
0.0119231
0.0560281
0.218255
0.146322
0.155961
0.113712
0.00708517
0.134475
0.0700701
0.00710626
0.0986833
0.10692
0.08492
0.157827
0.194129
0.115381
0.0408403
0
0
0.0200318
0.0461177
0.0688276
0.393139
0.376057
0.142039
0.270104
0.0151384
0
0.0142524
0.0158777
0.0404127
0.171936
0.37307
0.381229
0.175703
0.132029
0.0378725
0.0616328
0.0491546
0.0236563
0.0362977
0.108329
0.144602
0.122922
0.208589
0.286587
0.179469
0.0594893
0.0389337
0.0110565
0.0492059
0.0910469
0.414137
0.135892
0.0373834
0.0214582
0.00702208
0.00337948
0.0258678
0.0937559
0.25893
0.425788
0.316201
0.241189
0.113117
0.0101575
0.00556196
0.0015795
0.0100291
0.219149
0.198188
0.123025
0.217358
0.178565
0.0122802
0.00595647
0.00459807
0.00545268
0.0698265
0.392967
0.0723869
0.0894967
0.0407239
0.0162896
0.0113087
0.00585731
0.00241418
0.137094
0.374457
0.0990658
0.147634
0.117474
0.00685229
0.000850924
0.000656867
0.00521375
0.21737
0.575204
0.104375
0.0611663
0.0282221
0.00334554
0.00034331
0.000801055
0.00435407
0.191874
0.115966
0.0455929
0.148196
0.00591127
0.0326072
0.0105903
0.00684625
0.000715604
0.0398046
0.0100079
0.213722
0.529178
0.0104396
0.0195643
0.00230279
0.00237145
0
0.00189042
0.2405
0.194738
0.279076
0.0335584
0.00717936
0.000783795
0.00182885
0.00766793
0.0519824
0.0347862
0.283281
0.543986
0.154925
0.0165752
0.00643425
0.00228782
0.00453463
0.0196294
0.010176
0.303928
0.482265
0.00491183
0.00310333
0.000657038
0.00262815
0
0.00273922
0.0644338
0.281778
0.275816
0.0316402
0.17436
0.154369
0.0103234
0
0.0234729
0.00766695
0.218293
0.442197
0.0675399
0.0187366
0.0216911
0.0281858
0.0162551
0.0094268
0.0212362
0.120457
0.112555
0.0912275
0.274663
0.197377
0.0935946
0.0279632
0.0212706
0.0306138
0.0348972
0.01732
0.0149943
0.188126
0.292267
0.0164257
0.000208254
0.0129147
0.0102673
0.000534645
0
0.00217201
0.257269
0.421117
0.0395844
0.00145778
0.00483179
0.00404914
0.00586836
0.00281237
0.026925
0.199028
0.323538
0.219074
0.00859788
0.00382798
0
0
0
0.000952162
0.157766
0.430094
0.430094
0.0169777
0
0.0209011
0.0301383
0.0624231
0.0693042
0.102811
0.040285
0.284315
0.173764
0.0519118
0.0327692
0.00161909
0.0522095
0.0162593
0.112004
0.166326
0.479
0.0896181
0.0167088
0.0874277
0.0214796
0.0345667
0.0285533
0.0709132
0.0291877
0.202028
0.292608
0.26362
0.243789
0.0644682
0.0624918
0.0138951
0.101544
0.288971
0.253195
0.0692776
0.238605
0.0408588
0.000278976
0.0266926
0.0221578
0.0955044
0.13893
0.254091
0.0551279
0.0101212
0.022612
0
0.0549246
0.0422651
0.0411744
0.114474
0.43791
0.274888
0.0512879
0.0849611
0.046888
0.0184544
0.00106356
0.109613
0.326783
0.161975
0.0430468
0.0371875
0.0161581
0.0064193
0.00816779
0.00218765
0.0638828
0.205453
0.495828
0.30115
0.0246911
0
0
0.0141878
0.0056666
0.000512353
0.0171173
0.297867
0.24871
0.0319468
0.00460608
0
0.00541506
0.00266336
0.000470005
0.00592299
0.517584
0.472977
0.0823501
0
0
0.0241977
0.000484813
0.00165211
0.022064
0.272622
0.190177
0.0234939
0.0223431
0.0024281
0.0456658
0.00984098
0.000971598
0.0350895
0.25156
0.317537
0.134757
0.091406
0
0.000640488
0.0023277
0.000410771
0.00364356
0.19947
0.253391
0.222703
0.407872
0.0046455
0
0.000332529
5.86815e-005
0.00144446
0.0257047
0.113818
0.363348
0.159841
0.0108126
0.0215723
0.00860073
0.000849148
0.0110028
0.0667113
0.144418
0.25309
0.475668
0.0208214
0.0131496
0.00122868
0.000121307
0.00612249
0.00617206
0.0197495
0.368768
0.4079
0.0258869
0.0034406
0
0
0
0.000857518
0.0150853
0.19318
0.441107
0.0561436
0.0257014
0.00346075
0.000206984
0
0.0018112
0.0133957
0.2821
0.410813
0.0400105
0.0032561
0
0
0.00883759
0.00369454
0.00354536
0.227091
0.357475
0.0509421
0.000465157
0
0
0.0210665
0.0594072
0.103808
0.321362
0.384849
0.0485341
0.0244846
0.00722751
0.00106205
0
0.00234751
0.0214001
0.284504
0.5587
0.127376
0.028847
0.0145837
0.00549413
0.0157732
0.0310371
0.0781976
0.164884
0.180592
0.0620637
0.0662452
0.0206774
0.00232969
0.0135685
0.0933473
0.171442
0.255745
0.254199
0.130255
0.112079
0.136605
0.0353961
0.120234
0.176704
0.188746
0.0899006
0.264339
0.142129
0.0897291
0.066309
0.0231992
0.0301669
0.041102
0.0974864
0.0796558
0.0481004
0.101899
0.249571
0.350176
0.0855816
0.0345326
0.017149
0.0322905
0.0626957
0.102295
0.0433282
0.0167291
0.197064
0.124095
0.15985
0.255972
0.155965
0.0472734
0.0177486
0.00752004
0.00983781
0.494761
0.374178
0.147051
0.130817
0.0454601
0.0435423
0.00619806
0.0796453
0.253178
0.282545
0.112352
0.0693436
0.0466312
0.0510565
0.0502334
0.0023953
0.0427
0.0621411
0.133378
0.26713
0.336827
0.180488
0.096049
0.0652079
0.0101666
0.00926846
0.0443086
0.326519
0.290471
0.154287
0.0164266
0.0381253
0.10413
0.012153
0.014646
0.0471153
0.0759752
0.279858
0.347578
0.10342
0.102973
0.174254
0.000112518
0.000850158
0.00120026
0.0210273
0.0607608
0.184666
0.300917
0.0255633
0.0030631
0
0.00336826
0.00275585
0.00156695
0.0546831
0.295982
0.535331
0.0472665
0
0.000717403
0.000666812
0.00200044
0.0193315
0.0607041
0.152055
0.247987
0.0324645
0.0109291
0
0.0235778
0.0192909
0.0129394
0.0340744
0.210611
0.535331
0.123346
0.00625189