0.0329159
0.111981
0.0903656
0.0437947
0.119773
0.0484149
0.11817
0.0816334
0.0176019
0.046295
0.202659
0.215749
0.107321
0.079208
0.0284874
0.0916029
0.0411987
0.024261
0.0652538
0.405714
0.216702
0.0944762
0.0865033
0.0275266
0.0199883
0.0102076
0.00161893
0.0290099
0.237976
0.327708
0.206012
0.0608386
0.0335026
0.0326904
0.0368595
0.0284385
0.018
0.0992225
0.0682406
0.0658393
0.0851624
0.0586919
0.0567735
0.0318561
0.0139558
0.00305713
0.045563
0.0311096
0.0756206
0.181964
0.159449
0.18638
0.190583
0.116817
0.0107325
0.0782809
0.0450561
0.0610178
0.0527499
0.080296
0.124497
0.132457
0.0642911
0.00160864
0.039083
0.0205537
0.0196748
0.156849
0.263768
0.538494
0.324123
0.113414
0
0.0217187
0.01249
0.00830362
0.0443774
0.0399939
0.140185
0.343119
0.120922
0.0631261
0.0092498
0.0118032
0.00835102
0.0057583
0.00708254
0.146638
0.461954
0.375526
0.0378679
0.0389206
0.0415853
0.0317594
0.0670156
0.121595
0.270969
0.168875
0.0494065
0.185582
0.149105
0.0965156
0.112982
0.0211068
0.0536647
0.172219
0.170656
0.0744385
0.121907
0.00371588
0.0035152
0.0018881
0.000179495
0.000538486
0.0285302
0.0594479
0.261281
0.299185
0.00492702
0.000322352
0
0
0
0.00228653
0.0028309
0.324358
0.226906
0.152009
0.0271368
0.0233382
0.00125647
0.0037694
0.0255209
0.0235274
0.0635897
0.670193
0.200017
0.00225646
0
0
0
0.00137192
0.0014809
0.150354
0.205779
0.00101982
0
0
0
0
0
0.000784927
0.140156
0.275534
0
0
0
0
0
0
0.0103727
0.205308
0.495027
0.0355433
0
0
0
0
0
0.000470956
0.133549
0.447383
0.0010393
0
0
0
0
0
0.0122817
0.513825
0.163013
0
0
0
0
0
0
0.0175673
0.253023
0.245118
0.00282723
0
0
0
0
0.00563937
0.0321189
0.248271
0.116429
0
0
0
0
0
0
0.095083
0.616229
0.0420903
0.00169634
0
0
0
0
0.0493139
0.334986
0.406717
0.4253
0.0546926
0
0
0
0
0.020541
0.064825
0.130641
0.511251
0.216485
0.00284871
0.00558518
0.00488203
0.00281106
0.0184834
0.0503346
0.08534
0.0654877
0.026896
0
0
0
0.0138745
0.217293
0.374173
0.105605
0.0812363
0.0880628
0.00170922
0.00335111
0.00492819
0.0428016
0.224108
0.189099
0.0910768
0.342528
0.27569
0.0120811
0.0197197
0.0230213
0.0192898
0.0114706
0.0482378
0.0856351
0.191541
0.305643
0.088562
0.104563
0.10243
0.058464
0.0508583
0.0557161
0.0777273
0.0682798
0.0884423
0.0121746
0.0556512
0.0509186
0.0538407
0.0753488
0.137859
0.139797
0.0295054
0.0588155
0.0632375
0.423382
0.335517
0.142256
0.097998
0.135661
0.0696848
0.160482
0.121626
0.0493706
0.0986526
0.0858414
0.0219537
0.0147446
0.00774733
0.169819
0.418471
0.0372314
0.0109454
0.041713
0.0439507
0.00203116
0
0.0349957
0.509082
0.0488754
0.0372295
0.0498711
0.34722
0.267849
0.0436069
0.0269192
0.0151718
0.023025
0.137065
0.021093
0.0247125
0.145958
0.174776
0.0012187
0.00307157
0.0787641
0.152086
0.0264898
0.218679
0.100551
0.119637
0.134818
0.13157
0.0210035
0
0
0.0203699
0.174917
0.175112
0.161032
0.078442
0.0924866
0.0114268
0.0191269
0.0110351
0.00595357
0.059783
0.138447
0.12712
0.36549
0.196094
0.0189041
0
0.00315238
0.0384038
0.131456
0.0911036
0.0939843
0.276503
0.181078
0.0439423
0.0403297
0.0256424
0.00340749
0.0409664
0.0257191
0.0393584
0.037256
0.0556667
0.0699276
0.0791209
0.0318696
0.000246635
0.0219729
0.0181037
0.0244579
0.0574865
0.151316
0.567305
0.153641
0.0384031
0.00822235
0.040446
0.0249633
0.0203179
0.0410477
0.0823225
0.109481
0.0853007
0.0158578
0.0112556
0.0397362
0.18705
0.0730275
0.129261
0.245975
0.463004
0.107088
0.0404263
0.036068
0.0134634
0.0221078
0.0391679
0.0248335
0.066652
0.130024
0.0137898
0.00588744
0.154208
0.180775
0.0477881
0.066774
0.0180031
0.0315985
0.0195735
0.00375436
0.026445
0.0239137
0.0232784
0.209298
0.159698
0.1165
0.110877
0.0961294
0.0059085
0.00723705
0.15405
0.596992
0.522127
0.204951
0.0947621
0.047382
0.0100635
0
0.0151677
0.0858183
0.173946
0.00768806
0.00651426
0.000582252
0.000458814
0.000587914
0.000410874
0.00592379
0.304423
0.244112
0.000408534
0
0
0
0
0
0.0109183
0.105523
0.525741
0.0797216
0.0114798
0.0030052
0
0
0
0.00242596
0.370308
0.568046
0.00217695
0
0
0
0
0
0.00311336
0.36049
0.0721807
0
0
0
0
0
0
0.0631716
0.33192
0.00621612
0
0
0
0
0
0.00550602
0.349144
0.436854
0.186215
0
0
0
0
0
0
0.078627
0.385459
0.0234316
0.00175456
0
0
0.00391905
0.00320649
0.0184416
0.439993
0.098954
0
0
0
0
0.000359745
0.00557468
0.0891249
0.462651
0.00588761
0
0
0
0
0.016362
0.092885
0.296044
0.278137
0.111457
0.0133677
0.0162879
0.0181864
0.0237478
0.0160709
0.0501113
0.124963
0.507549
0.00624637
0.00529979
0.0206745
0.0525168
0.123462
0.110934
0.26767
0.273323
0.253432
0.000298357
0
0
0
0
0.0343753
0.24654
0.235212
0.049068
0.00658696
0.00503079
0.0015817
0
0.00203343
0.0263778
0.216665
0.122865
0.020931
0
0
0.00369772
0.0222717
0.0940226
0.155251
0.496572
0.234016
0.0365661
0.00273787
0.00615104
0.00263616
0
0.0200868
0.0973727
0.575554
0.225452
0.0045239
0.0150116
0.0242337
0.0195068
0.0485843
0.0849252
0.0245235
0.106793
0.0687852
0.0527668
0.0045591
0.0147153
0.0921485
0.324186
0.259732
0.0313599
0.0288769
0.0232023
0.0215427
0.00485179
0.02963
0.0183118
0.0721313
0.218141
0.241364
0.398548
0.089589
0.0102673
0.000693113
0.0190039
0.0734445
0.31355
0.472997
0.175766
0.0841029
0.00590806
0.00374497
0.00693115
0.00672662
0.12318
0.52127
0.296001
0.0203343
0.0143926
0.00844217
0.00561054
0.048518
0.0221896
0.0477069
0.152815
0.165835
0.017133
0.0397244
0.053094
0.0624164
0.0103323
0.0164425
0.128292
0.357674
0.300628
0.0770162
0.0517739
0.0332425
0.0103057
0.0723262
0.037787
0.0665355
0.121043
0.0426343
0.100557
0.0923093
0.0766121
0.0554206
0.00466563
0.0267418
0.0807093
0.0417659
0.16107
0.0835818
0.0961829
0.0484239
0.00439182
0.0326594
0.100776
0.071377
0.0350603
0.135508
0.108589
0.0760839
0.0711327
0.0297767
0.00127317
0.00914445
0.0214544
0.0102937
0.0316557
0.0437853
0.309925
0.424598
0.0578792
0.0250165
0.0967737
0.220524
0.136758
0.0280889
0.0465337
0.238555
0.219871
0.0433889
0.00368736
0.0221639
0.025608
0.00929987
0.00746988
0.00984548
0.0228176
0.0167693
0.00507505
0.0109769
0.0498305
0.265083
0.0652113
0.0151474
0.0259356
0.0424739
0.0164758
0.0129457
0.00435976
0.0298507
0.0766262
0.0950438
0.00375784
0.00170652
0.00988986
0.00701608
0.0028168
0.00699194
0.0609491
0.71328
0.54018
0.000534222
0.00131149
0.00916795
0.00181204
0.00184939
0.00195653
0.0140932
0.262551
0.0727484
0.0161941
0.0104287
0.00477649
0.000929495
0.00171599
0.0146957
0.1666
0.453783
0.0971548
0.0133466
0.00382801
0.000337665
0
0
0.000945803
0.0218717
0.531892
0.187307
0
6.92851e-005
0.000484336
9.18589e-005
0.000245142
0.00377466
0.0787482
0.531892
0.146869
0
0.00109741
0.000193661
0
0
0.105843
0.548845
0.260022
0.0336868
0.00180163
0.000162218
0.000132724
0.000784546
0.00593562
0.267398
0.535276
0.0109285
0.000192809
0.00318276
0.00279387
0.000929068
0.00515615
0.0161865
0.0439331
0.195069
0.336127
0.068208
0.00184154
0.00981396
0.00208416
0.00164326
0.0129138
0.085603
0.12217
0.0242862
0.0189992
0.0278354
0.0191617
0.00736716
0.00915304
0.028967
0.371467
0.223225
0.00174076
0.00781644
0.00613061
0.00710541
0.000533523
0.00292287
0.0713262
0.293707
0.0721807
0.0895613
0.0646977
0.0020602
0.0171412
0.00845204
0.0284508
0.33574
0.0692018
0.0501514
0.0859777
0.059185
0.0381127
0.0163903
0.00379098
0.00498964
0.0163434
0.0438113
0.144166
0.623556
0.218803
0.00936088
0.0128273
0.00120743
0.00308216
0.029859
0.0452324
0.0555975
0.153315
0.120135
0.0353517
0.0221367
0.0378026
0.051086
0.168958
0.00299073
0.0257635
0.183148
0.222625
0.218264
0.0975879
0.137019
0.0759017
0.0553023
0.00793322
0.105588
0.544248
0.230326
0.00801566
0.00463313
0.00235347
0.00221007
0.00910687
0.00726148
0.0696672
0.44481
0.313599
0.0821089
0.0382978
0.0113806
0.0109338
0.000473586
0.00338201
0.0129804
0.0355344
0.0559965
0.127825
0.0846388
0.198909
0.129887
0.0101676
0.0168922
0.0214954
0.00231882
0
0.0176334
0.099332
0.430925
0.305028
0.0137881
0.0258362
0.143104
0.213908
0.0735019
0.0583888
0.0350954
0.0437541
0.081182
0.0112601
0.122596
0.280446
0.150534
0.0016078
0.00655928
0.141296
0.31272
0.466438
0.0364628
0.00391893
0.0041107
0.000792043
0.00786895
0.0352738
0.142282
0.207953
0.0879365
0.00265519
0
0.00144023
0.00285767
0.027983
0.090185
0.176632
0.122648
0.0107896
0.000470301
0.0284812
0.0441641
0.0106385
0.00015478
0.00541954
0.408444
0.315919
0.215959
0.0132605
0
0.000690523
0.00161122
0.00108346
0.0623238
0.660838
0.221719
0.0323902
0.00168997
0.00121361
0.00662796
0.0222017
0.0412873
0.132058
0.187321
0.0888841
0.0315702
0.00531869
0.00849525
0.00709505
0.0182518
0.0318547
0.0222084
0.0597039
0.0530972
0.0620977
0.0131584
0.00263601
0.00869873
0.0218581
0.0119882
0.174427
0.813817
0.136235
0.0686095
0.0230991
0.0464867
0.0364131
0.0338975
0.0204468
0.0468355
0.0901907
0.0600591
0.0764831
0.058492
0
0.00226618
0.00602478
0.00136877
0
0.0291252
0.220898
0.362339
0.04355
0.0258648
0.0466836
0.0983888
0.0351813
0.000729696
0.0189846
0.191738
0.227912
0.0549307
0
0.0330981
0.0175982
0.0262697
0.0981248
0.201238
0.345264
0.253083
0.0139702
0.022773
0.0641687
0.153819
0.132912
0.0351368
0.0983858
0.289576
0.251574
0.0718143
0.00420345
0.0132017
0.0387647
0.0857481
0.00149304
0.000307943
0.00387976
0.0101899
0.0039994
0.000600493
0.00995524
0.208502
0.580348
0.0156948
0
0
0.000565992
0.00022678
0.00370099
0.0147711
0.0759438
0.186046
0.0158644
0.0013324
0.00752575
0.0160774
0.00902555
0.000528712
0.00633743
0.099156
0.673076
0.199619
0.000685078
0
0.00112033
0.001086
0
0.00910133
0.329336
0.456854
0.0170745
0
0
0
0
0.000358577
0.021905
0.331466
0.214142
0.0151626
0.00248259
0.00219075
0
0.000358577
0
0.000423536
0.0563855
0.610263
0.177374
0.00560421
0.000657919
0.000166035
0
0.00396434
0.00191307
0.0506301
0.220024
0.087255
0.0111175
0.00716554
0.00116225
0.00533712
0.00370358
0.0563467
0.271012
0.117399
0.0180147
0.0250827
0.0101463
0.000768771
0.00754096
0.00476851
0.0331649
0.104595
0.148772
0.0787635
0.028309
0.00864943
0.00333566
0.0127595
0.0135179
0.0164442
0.164516
0.0891126
0.040405
0.0143804
0.0161165
0.00145795
0.0181989
0.00193113
0.0813081
0.782581
0.236062
0.0393277
0.00370315
0.00186434
0
0.00259985
0.000639868
0.0193078
0.133746
0.0738147
0.018789
0.00225699
0.000767663
0.00038181
0.000824965
0.000265054
0.0900832
0.461313
0.105327
0.0059822
0.00313312
0
0
0
0
0.031737
0.455153
0.135347
0.00808564
8.20573e-005
4.31883e-006
0
0
0.00034367
0.0556197
0.646412
0.166946
0.0235656
0.00384757
0
0
0
0.00181321
0.105123
0.422323
0.0927242
0.00846644
0.00880734
0
0
0
0.0116497
0.141524
0.333428
0.0890368
0.0225688
0.0150119
0.00170748
0.000540866
0
0.00152559
0.066176
0.367497
0.147038
0.0404686
0.0134165
0
0
0
0.00650469
0.149842
0.610407
0.150384
0.016671
0.00867294
0
0
0
0.0137662
0.203552
0.368485
0.0258874
0.00958204
0.00806561
0.00336787
0.00666061
0.00155181
0.048727
0.284291
0.293192
0.00498322
0.019319
0.195861
0.128879
0.11024
0.00921561
0.00697601
0.200248
0.55399
0.0597856
0.00610177
0.000280779
0.0017458
0.000581934
0.000227728
0.00784422
0.180849
0.248916
0.0801848
0.102736
0.18169
0.0374247
0.00633241
0.000379547
0.00759341
0.0290194
0.0147855
0.00146758
0.0160695
0.357946
0.0877582
0.0421507
0.00306121
0
6.3697e-005
0.000148626
0.000209655
0.0406637
0.523719
0.0556376
0.010598
0.000415384
0.00053018
0.0129075
0.00993967
0.0256488
0.154288
0.337788
0.016834
0.00164807
2.25299e-005
0
0
0
0.0120174
0.340805
0.523719
0.0220201
0.00236196
0
0.00171592
0.00453029
0.00334208
0.00209907
0.0653225
0.535436
0.0684076
0.0667588
0.0269191
0.0677209
0.0212318
0.00724474
0.00349845
0.0100142
0.0372605
0.0331169
0.0888499
0.121856
0.00992005
0.025497
0.0118565
0.0306166
0.380278
0.556485
0.0766136
0.047992
0.0303594
0.151978
0.044387
0.0197608
0.0106983
0.0325762
0.0526209
0.0662912
0.119651
0.218642
0
0.0893043
0.0725391
0.100061
0.120897
0.0964089
0.0868104
0.0195366
0
0.00678408
0.0596558
0.227721
0.275939
0.129538
0.088859
0.0861029
0.0319344
0.0146253
0
0.0599688
0.0879331
0.279547
0.213913
0.0446506
0.0119574
0
0
0.000969155
0.0326765
0.199529
0.354981
0.279711
0.363858
0.11648
0.0038945
0
0.00110512
0.00564085
0.0495834
0.147444
0.0685752
0.0154068
0.00279556
0.0024593
0.00238244
0.000157874
0.00123174
0.0339621
0.463263
0.361521
0.0222974
0.000298282
0.000192772
0.000340348
0.000157874
0.000998136
0.017515
0.0766551
0.143546
0.179751
0.0183712
0.000634407
0
2.25534e-005
9.02135e-005
0.00641831
0.171921
0.600999
0.337353
0.0144466
9.06296e-005
0
0
0
0.0046969
0.392143
0.44035
0.059136
0.0113375
0.00205801
0
0.00415604
0.00660915
0.0150812
0.0816332
0.123532
0.0535832
0.0277275
0.0144061
0.0146918
8.30161e-005
0.00360171
0.000915389
0.0976705
0.554025
0.379457
0.0677876
0.00309205
0
0.00133
0.079481
0.130855
0.00891791
0.0763931
0.185412
0.0885049
0.0216444
0.0117599
0.00314932
0.0148442
0.0980742
0.0176031
0.00489607
0.00410714
0.00538095
0.00401596
0.011133
0.000449903
0.0382127
0.484682
0.0676225
0.00063479
4.1892e-005
7.77995e-005
0
0.00159043
0.000729481
0.10406
0.354661
0.015431
0.000233374
0.00758803
0.0107681
0.00603376
0.00891133
0.00153738
0.153006
0.716521
0.0659694
0
0
0
0
0.00127305
0
0.0310407
0.522684
0.0795376
0.00217348
0
0
0
0
0.00106658
0.0477224
0.423618
0.0931099
0.0139768
0.000594504
0
0
0
0.00260927
0.0680953
0.471402
0.0855244
0.00319217
0
0
0
0
0.00173534
0.1594
0.426307
0.113395
0.00729466
0
0
0
0
0.00120109
0.0491891
0.300035
0.117005
0.0159599
0.00181983
0
0
0
0.00059312
0.0468674
0.521424
0.158703
0.00585511
0.0010919
0
0
0
0.000720653
0.183659
0.481565
0.0882891
0.00181395
0
0
0
0
0.00116677
0.0887994
0.470095
0.102488
0.0010869
0.00297982
0.00127707
0
0
0.0113413
0.0926635
0.553228
0.164625
0.0263727
0
0.00130117
0.000433724
0.000461372
0.0161552
0.0643959
0.108643
0.228973
0.269074
0.0842232
0.0091082
0.00303607
0.000768953
0.0077515
0.0601397
0.280456
0.124994
0.0226945
0.0066971
0.00287019
0
6.59103e-005
0.00598668
0.0271088
0.0776097
0.330356
0.369762
0.0478605
0.000410027
0
0.00010985
0.000458828
0.00161087
0.000756929
0.0559801
0.236437
0.0839411
0.000958423
0.000259181
2.41489e-005
0
0
0.00259551
0.0932847
0.523859
0.152279
0.00275026
3.1795e-005
0
6.55468e-005
0.000308005
0.00843282
0.211185
0.281453
0.0138665
0
0
3.44985e-006
0
0
0.0124727
0.402776
0.536724
0.00963583
0
0
0
0.00810473
0.0151558
0.0450704
0.161829
0.477583
0.137568
0.0145429
0.00492496
0.0138264
0.0745518
0.0252596
0.055705
0.0508062
0.037432
0.0199097
0.0339449
0.0419862
0.154166
0.00202927
0.00415685
0.101287
0.43421
0.579886
0.0114892
0.000419324
0.00204668
0.0114135
0.0273397
0.00744903
0.103775
0.10436
0.0505705
0.00955133
0.0159904
0.0249287
0.141422
0
0.00136838
0.0124651
0.136944
0.269691
0.099424
0.0312353
0
0
0
0.00228064
0.0238445
0.0944686
0.186007
0.363829
0.231551
0.010727
0
0
0
0
0.0648978
0.322052
0.284271
0.0651305
0
0
0
0
0
0.092594
0.300456
0.299854
0.176424
0.00643618
0
0
5.04757e-005
0.000780317
0.00664506
0.0530555
0.204537
0.0358856
0.00175425
0
0
0
0
0.0138701
0.227038
0.568163
0.0904323
0.000250607
0
0
0
0
0.00419309
0.0337833
0.157658
0.0489259
0.00105255
0
0
0
0
0.00179245
0.0346967
0.619378
0.311527
0.00396276
0
5.82104e-005
0.00934533
0.00588674
0.00497551
0.125532
0.40714
0.135398
0.0122152
0
0.000446103
0.118941
0.197847
0.00241837
0.010447
0.141671
0.0905966
0.0222163
0.000733983
0.00709764
0.0150497
0.0148869
0.000276085
0.0105141
0.508728
0.406552
0.101831
0.029358
0.0496835
0.170538
0.310389
0.00145102
0.000600174
0.118426
0.193421
0.173032
0.0816004
0.00151208
0.142789
0.45449
0.0157017
0
0.00825432
0.00893957
0.00437086
0.00089772
0.0055999
0.129229
0.504179
0.0510232
0.00110453
0
0
0
0.000128246
0.0313253
0.171261
0.44448
0.0202097
0.00935833
0.00391556
0.00924178
0.0455711
0.0268148
0.016753
0.0739675
0.403366
0.151958
0.0174381
0.00127983
0.000741313
0.00580979
0.000283946
0.00486112
0.051115
0.245665
0.0958933
0.00157656
0
0
0
0
0.00140636
0.0927356
0.428214
0.169811
0.00177071
0
0
0
0
0.00424109
0.0311694
0.455718
0.162619
0.00402781
0.00017654
0
0
0
0.00429871
0.0432076
0.603735
0.168683
0.00539052
0
0
0
0
0.00152721
0.243782
0.630561
0.13027
0.00396364
0
0
0
0
0.00304731
0.143295
0.313251
0.0820983
0.00533161
0.0058834
0.00252146
0
0
0.0217965
0.082924
0.452471
0.109708
0.0297476
0
0
0
0.000575977
0.0551833
0.116203
0.128966
0.0462939
0.0197929
0.000840486
0.000360208
0
0.00577591
0.00104981
0.0208203
0.0512394
0.0466799
0.00507152
0.00361416
0.00154893
0
0
0.00050292
0.00947423
0.105954
0.26719
0.0959678
0.00569595
0.000221275
0
0
0.0159461
0.0595745
0.1426
0.0436302
0.00255398
0.000516309
0.000221275
0
0.00198253
0.00151446
0.0446691
0.752834
0.461558
0.023516
7.37584e-005
3.16108e-005
0
0.000153055
0
0.000295123
0.046226
0.301857
0.102716
0.00213409
0
0
0
0
0
0.0272605
0.461739
0.231897
0.00265752
0.000685622
0.000304743
0
0
0.00212195
0.256218
0.473106
0.0176269
0
0
0
0
0
0
0.0927925
0.521656
0.0801372
0.00244472
0.00236381
0.00367181
0.000948864
0.00118725
0.0004187
0.0591119
0.530111
0.472713
0.0313796
0.00972512
0.00725535
0.00530316
0.00905429
0.00430045
0.0580083
0.0627676
0.0671841
0.0323614
0.0305645
0.0336847
0.0482097
0.00956161
0.00025122
0.0269836
0.464498
0.267241
0.0352629
0.0302994
0.0573932
0.0355657
0.0283587
0.00404113
0.0151128
0.00747322
0.047356
0.0299686
0.0327856
0.124806
0.0976183
0
0
0
0.0563805
0.119881
0.25534
0.0976829
0
0
0
0
0.00361119
0.129503
0.168044
0.147962
0.0218821
0
0
0
0
0
0.0495143
0.153334
0.570064
0.299221
0
0
0
0
0.0154373
0.182778
0.252502
0.32744
0.102761
0.00325887
0
0
0
0.00213837
0.0481082
0.0717141
0.112376
0.0432514
0
0
0
0
0.00044959
0.0292687
0.050024
0.58355
0.545015
0.0326442
0
0
0
0.00968428
0.10672
0.0988464
0.0553563
0.0226271
0.00376774
0.000292708
0
0
0.00239223
0.0498005
0.0750061
0.231395
0.369534
0.0530657
0.00244368
0.00807233
0.00377141
0.00441593
0.00143553
0.00277516
0.221313
0.387405
0.14849
0.0596165
0.0565063
0.049175
0.104119
0
0.00178341
0.0358006
0.195281
0.283229
0.16332
0.00115319
0
0
0.00148104
0.0050539
0.0809658
0.349881
0.200712
0.0285029
0.00807233
0.00175781
0.00470093
0
0.0124839
0.051643
0.411499
0.438303
0.0767553
0.0340291
0.0649301
0.163758
0.0227416
0.0677845
0.015219
0.051399
0.143958
0.0655098
0.00730282
0.031956
0.351441
0.261733
0.115394
0.0213445
0.0263432
0.0289226
0.00256865
0.00423535
0.00344234
0.0258582
0.0123315
0.1744
0.141716
0.387043
0.256287
0.0430254
0.000747556
0.00243552
0.213279
0.182132
0.30294
0.144717
0.278637
0.274417
0.139213
0.0058448
0.0322069
0.443096
0.206919
0.0196151
0.0042089
0.00776134
0.0131853
0.0144486
0.0592985
0.068738
0.338405
0.0669469
0.004179
0
0.00110876
0.0111374
0.0237494
0.0497199
0.0088275
0.170043
0.163837
0.0593953
0.0260656
0.0830542
0.191496
0.306551
0.466401
0.0872462
0.0553239
0.0437547
0.00142556
0
0.00776134
0.0603579
0.318827
0.0607985
0.0461378
0.0486555
0.00718208
0.00658766
0
0
0.000665199
0.0040189
0.112686
0.125654
0.0134464
0.00420148
0.0039526
0
0
0
0.0113122
0.386022
0.177176
0.00364987
0.000500291
0.000391558
0
0
0.00110866
0.0345355
0.361291
0.759031
0.00163093
0.000380449
0.000234935
0
0
0
0.0114047
0.0270093
0.12114
0.0749815
0.00429244
0
0
0
0
0.00300912
0.00230221
0.107138
0.444077
0.0737753
0
0
0
0
0.000164978
0.0560317
0.506548
0.0854437
0.000845152
0
0
0
0
0.00273576
0.00514194
0.436738
0.506548
0.0201597
0
0
0
0
9.8987e-005
0
0.0211564
0.525883
0.313143
0.000668408
0
0
0
0
0
0.000924627
0.172904
0.373264
0.0256743
0.000326049
0.00220968
0.00468488
0.00157877
0.00188312
0.137314
0.562497
0.0908078
0.000140469
0
0
0.000613415
0.00224864
0.00261343
0.016315
0.180028
0.112029
0.0110427
0
0.00112347
0.00743016
0.0116729
0.0256736
0.00215602
0.0906626
0.510553
0.176471
0.0124838
0.0496529
0.14618
0.0921791
0.0743703
0.00148977
0.0123698
0.0235094
0.046981
0.0653504
0.0762575
0.278795
0.19406
0.0197537
0.0169485
0.132075
0.166912
0.0809549
0.004987
0.0436845
0.139406
0.0798358
0.0220023
0.0175168
0.0194663
0.0970989
0.107716
0.156114
0.115827
0.196909
0.0645147
0
0
0.0111852
0.138125
0.252026
0.357943
0.120694
0
0
0
0
0.00589515
0.0708728
0.232343
0.288607
0.148161
0.00893206
0
0
0.0131013
0.158549
0.38262
0.305354
0.0847535
0.0139383
0
0
0
0.0249726
0.166635
0.129723
0.271894
0.128349
0.12763
0.00535923
0
0
0
0.00972461
0.109295
0.172072
0.178575
0.175678
0.0251785
0.000895499
0
0
0.00252457
0.0360727
0.134846
0.33323
0.349185
0.109637
0.0140763
0.00434151
0.0167714
0.142503
0.144571
0.197756
0.158177
0.174205
0.0134696
0.000127928
0.00723585
0.00712922
0.0434833
0.0775377
0.259963
0.33151
0.141182
0.0769787
0.0104071
0
0
0
0.000232166
0.0132451
0.0417196
0.21329
0.196255
0.00864322
0
0
0
0
0.00932096
0.0583317
0.567612
0.495985
0.0066783
0.000325208
0.0004864
0.0013095
0.00243262
0.0334987
0.0500802
0.079208
0.0925459
0.0144995
0
0.00188717
0.00871059
0.00130675
0.023565
0.0248925
0.274972
0.367331
0.0148248
0
0
0.00144635
0.000361587
0.0319848
0.0577925
0.257653
0.238905
0.0331805
0.00418465
0
0.0126598
0.00847087
0.0561347
0.0457081
0.158113
0.379545
0.313867
0.000744618
0.00045463
0.0029612
0.00068456
0.0069763
0.00660393
0.11383
0.309437
0.0638252
0.0473312
0.000636564
0.00512335
0.00135634
0.000718088
0.00269436
0.0414026
0.38797
0.512078
0.0521841
0
0.00439388
0.00630752
0.00802868
0.0044255
0.0218187
0.109922
0.318659
0.362842
0.0260976
0.000254229
0.00188152
7.41779e-005
0
0.00127891
0.0166131
0.27254
0.144697
0.00151203
0.00355743
0.00183805
0
4.37153e-005
0.00191094
0.0712436
0.427107
0.550388
0.0318933
0.00158648
0.000952989
0
0
0
0.00419613
0.33081
0.342641
0.131658
0
0
0
0
0
8.67239e-005
0.038576
0.220855
0.521604
0.00363357
0
0
0
0
0
0.000835591
0.468545
0.134348
0.000116229
0
0
0
6.93155e-005
0.000277262
0.0491117
0.291879
0.40764
0.00804829
0
0
0
0.000485208
0.00260075
0.00144455
0.0505772
0.639161
0.0512839
0.000121286
7.35018e-005
0
0
0
0.000280495
0.01715
0.501102
0.216887
0.00291132
0.000514513
0
0
0
0.00289679
0.0698188
0.403119
0.032904
0
0.000514513
0
0.000241156
0.00185619
0.00296317
0.0311218
0.229617
0.0518584
0.00253159
0.00425642
0
0
0.000127367
0.00737777
0.0678282
0.511085
0.574947
0.0381457
0.000844843
0.00135189
0.00251065
0.00331939
0.0409012
0.0489161
0.0705582
0.16433
0.0435748
0.0242663
0.0201028
0.0325798
0.0354237
0.10526
0.167493
0.226724
0.0898788
0.0198928
0.00910857
0.00304571
0.00461118
0.0159221
0.0786517
0.108328
0.070049
0.0367436
0.0118009
0.0139905
0.0617208
0.0565914
0.0440931
0.159965
0.0497416
0.0180894
0.0566055
0.0229069
0.0919714
0.0497902
0.109973
0.132673
0.156524
0.0546955
0.0617594
0.032273
0.192636
0.137341
0.099242
0.111262
0.134754
0.0719012
0.0560424
0.138103
0.0420605
0.0313349
0.102845
0.185368
0.187024
0.0831231
0.160741
0.0925867
0.128722
0.133061
0.195692
0.1038
0.094674
0.201187
0.0967769
0.0965185
0
0.0426877
0.270918
0.293195
0.137378
0.0258954
0.00944865
0.00140088
0
0
0.0825596
0.301541
0.205319
0.120746
0.0304509
0.0214993
0
0
0
0.0256126
0.113751
0.145499
0.440475
0.171436
0.0848338
0.00980616
0
0
0.0508069
0.12064
0.184266
0.20017
0.28361
0.0954227
0
0
0.0215704
0.0894438
0.352378
0.216687
0.120128
0.0502472
0.0376878
0.00212932
0.000290933
0.0510065
0.054673
0.119369
0.115022
0.194636
0.110027
0.11302
0.0688981
0.0171252
0.0179604
0.0735819
0.161608
0.134973
0.0643648
0.33991
0.171544
0.00757359
0.00203653
0.0920695
0.0896047
0.092817
0.0416573
0.116729
0.106457
0.179297
0.0481969
0.0726306
0.0203622
0.021814
0.0260354
0.0198481
0.149017
0.145772
0.154379
0.105495
0.0290233
0.026219
0.0834413
0.140157
0.0217101
0.182762
0.130122
0.185318
0.321764
0.03418
0.068036
0.0888976
0.0822312
0.0321908
0.207235
0.0514354
0.0562601
0.0519674
0.0886824
0.132729
0.184668
0.240661
0.150573
0.254143
0.0522968
0.0173083
0.0234673
0.0734592
0.0170802
0.0195512
0.0506384
0.00950036
0.0355334
0.00698277
0.0830156
0.290944
0.0989663
0.174236
0.0115376
0.0744276
0.0170328
0.00331742
0.00688674
0.0711887
0.328604
0.643639
0.102942
0.0443549
0.0840115
0.0363581
0.0224699
0.00254996
0.0160958
0.0233325
0.086226
0.0992189
0.0145303
0.0632075
0.011364
0.00418124
0.0145112
0.0762933
0.13665
0.165674
0.258331
0.0145148
0.0342519
0.0174524
0.000627106
0.00932431
0.024847
0.0477391
0.361617
0.718185
0.0874202
0.023439
0.023011
0.00630856
0.0235128
0.0203731
0.015822
0.270699
0.0318121
0.00887735
0.0210565
0.0258708
0.0301503
0.0393483
0.0579588
0.0791667
0.0404252
0.0630321
0.0371961
0.0271013
0.106709
0.128628
0.0887946
0.0457016
0.0421263
0.0144163
0.667101
0.193194
0.0180649
0.0201026
0.00517423
0.00847218
0.00462119
0.00503429
0.0524166
0.439222
0.356286
0.0155145
0.00560135
0.00331957
0
0.00585181
0.0387136
0.0283325
0.0603735
0.0518455
0.037722
0.0943825
0.0724167
0.0267652
0.0146537
0.00736089
0.00629027
0.0626178
0.0505576
0.0261876
0.0204742
0.0386884
0
0.0106029
0.0334293
0.0481248
0.261967
0.538341
0.0727061
0
0.00355804
0
0.00605366
0.0729113
0.0979111
0.12223
0.302747
0.205525
0.0569105
0.025678
0.0143716
0.0161422
0.0317924
0.0655404
0.10316
0.0681632
0.0313416
0.00559956
0.0624555
0
0.0143884
0.0999803
0.152947
0.0880452
0.115546
0.106319
0.0936367
0.043294
0.0239527
0.0702327
0.0970599
0.0872286
0.142226
0.102002
0.0972742
0.0865356
0.0180943
0.0170219
0.0187595
0.0514922
0.0607293
0.205106
0.174998
0.0370607
0.0475108
0.00984023
0.0511686
0.0414791
0.0679716
0.142675
0.115999
0.205675
0.102708
0.0831384
0.0124002
0.0236941
0.0500362
0.0595169
0.0151902
0.39016
0.501226
0.196006
0.0311136
0.00177445
0.0181538
0.0255262
0.0354246
0.0180833
0.152652
0.131547
0.0165377
0.028936
0.0162358
0.034678
0.0471108
0.0189096
0.0456527
0.146823
0.0947684
0.054087
0.0567345
0.0116331
0.0137376
0.0738395
0.0329703
0.103667
0.419594
0.268696
0.0932547
0.0162497
0.000778673
0.00498349
0.0124186
0.0240796
0.0917374
0.352836
0.111897
0.0337551
0.024658
0.00129779
0.00256908
0.023265
0.145985
0.429592