0.0845611
0.039328
0
0.115633
0.31719
0.0298887
0.0285469
0.025675
0.0350125
0.0236478
0
0
0.04932
0.16407
0.062852
0.0197934
0.0214653
0.0577319
0.0526911
0.0235968
0
0.016519
0.0462692
0
0
0
0.0163598
0.0128301
0
0
0.00704572
0.0473569
0.0213352
0.00914368
0
0.0128301
0.140173
0
0.00792554
0.0932451
0.107615
0.0854619
0.0342409
0.0295783
0.143165
0.313894
0.00140133
0.0874826
0.143701
0.0695666
0.164166
0.06489
0.0421023
0.30049
0.0881277
0
0.00475532
0.0169438
0.0289321
0.0383877
0.0158178
0
0.0663131
0.149571
0
0.0378592
0.0458904
0.00942235
0.0643805
0.0360979
0
0.139647
0.102349
0.0399292
0.078753
0.052308
0.0173927
0.0575892
0.0762061
0.0226814
0.234052
0.190943
0.163374
0.17061
0.0182166
0.0183775
0.00951308
0.104544
0.203919
0.359666
0.0483419
0.00534717
0.0168146
0.0132223
0.00189211
0.0265545
0.0457237
0.00854658
0.153947
0.183854
0.0228879
0.0234448
0.00198364
0.000151269
0.00570785
0.0593877
0.115824
0.348667
0.162434
0.0738308
0.0461462
0.000242993
0.00264116
0
0.0247012
0.089379
0.216687
0.391243
0.145048
0.0058705
0
0
0
0.00352875
0.111525
0.515924
0.106943
0.010449
0.00654024
0
0
0
0.0134367
0.050437
0.184501
0.214274
0.0207071
0.000838643
0
0
0
0.00191953
0.0658138
0.39018
0.309998
0.04536
0
0
0
0
0
0.0328441
0.332609
0.447856
0.023789
0
0
0
0
0
0.0202249
0.458943
0.183485
0.00648
0
0
0
0
0
0.0194644
0.216465
0.297686
0.00339843
0
0
0
0
0
0.0104409
0.245771
0.32367
0.068698
0
0
0
0
0.00257501
0.0526878
0.353402
0.430376
0.120261
0
0
0
0
0.0180251
0.0966616
0.403282
0.211039
0.0146012
0
0
0
0
0.000367858
0.0262402
0.210468
0.275116
0.0510408
0.00315518
0
0.00203134
0
0.00257501
0.0250368
0.257374
0.16206
0.0320869
0.0017969
0.0101824
3.73403e-005
0.00409154
0.0127893
0.0152971
0.148837
0.202834
0.0155463
0.155048
0.173333
0.167861
0.320798
0.102746
0.0038795
0.13406
0.129595
0.0272482
0.00707913
0.00145463
0.00125464
0.00245492
0.00619135
0.00218531
0.0956922
0.188554
0.0674224
0.292249
0.197755
0.541574
0.331987
0.0686589
0.000554215
0.0877577
0.149969
0.0435976
0.111548
0.135119
0.186395
0.146879
0.0251779
0.00231876
0.0437851
0.496834
0.111389
0.0522972
0.111269
0.123849
0.0580255
0.00938222
0.0203012
0.13551
0.0341256
0.0146626
0.134917
0.166163
0.496834
0.19577
0.0188623
0.00436121
0.0120813
0.118271
0.0178476
0.0334921
0.124526
0.360022
0.161582
0.0273451
0.0397958
0.0562138
0.419857
0.0621401
4.85002e-005
0.0113492
0.00419095
0.0107052
0.00894212
0.0250324
0.351431
0.546131
0.0278829
0.000339502
0.00527938
0.00573189
0.0131995
0.00200638
0.0198666
0.526397
0.111377
0.0217658
0.000339502
0.0153461
0.0221727
0.0683562
0.0347922
0.0243054
0.0804311
0.137792
0.0365178
0.00571793
0.0132956
0.0234575
0.0518861
0.0113905
0.0149718
0.118663
0.00197202
0
0
0
0
0
0
0
0.00197202
0.002982
0
0
0
0
0
0
0
0.002982
0
0
0
0
0
0
0
0
0
0
0
0
0
0
0
0
0
0
0.0192489
0
0
0
0
0
0
0
0.0192489
0.0330095
0
0
0
0
0
0
0
0.0421247
0
0
0
0
0
0
0
0
0
0
0
0
0
0
0
0
0
0
0.0223144
0
0
0
0
0
0
0
0.0591646
0.096007
0
0
0
0
0
0
0
0.134312
0
0
0
0
0
0
0
0
0
0
0
0
0
0
0
0
0
0
0.0980717
0
0
0
0
0
0
0
0.118756
0.18152
0
0
0
0
0
0
0
0.235232
0
0
0
0
0
0
0
0
0
0.0198951
0
0
0
0
0
0
0
0.0198951
0.0292405
0
0
0
0
0
0
0
0.031228
0.0438504
0
0
0
0
0
0
0
0.0406429
0.049503
0.0580992
0
0
0
0
0
0
0.00769389
0.545582
0.689414
0.0197631
0
0
0
0
0
0.0434663
0.0159535
0.00315349
0
0
0
0
0
0
0.0100215
0.0762658
0.0751104
0.0179933
0
0.00175712
0
0
0
0.0249027
0.167754
0.424578
0.0267987
0
0
0
0
0
0.0206379
0.34273
0.749484
0.15057
0
0.00105427
0
0
0
0.047656
0.0959459
0.117982
0.0200849
0
0.000937306
0
0
0
0.00933748
0.216267
0.257969
0.204392
0.0478796
0.07333
0.0102918
0.000497015
0
0.00957663
0.246462
0.47101
0.116701
0.00172646
0.000543044
0
0
0
0.0142113
0.452197
0.47101
0.205392
0.0264775
0.00439583
0.000263086
0.00236778
0.00198627
0.0347538
0.113274
0.179715
0.429907
0.195047
0.345615
0.0426654
0.00385516
0.0038762
0.0159824
0.0439592
0.0296297
0.133217
0.157457
0.274824
0.0865724
0.041934
0.0408449
0.0589017
0.248407
0.360896
0.354032
0.0963121
0.0474225
0.0129257
0.0181992
0.011408
0.0678428
0.0215506
0.0592459
0.159186
0.156088
0.136369
0.0553992
0.0497879
0.0340443
0.0466277
0.104664
0.0352874
0.00480856
0.101993
0.184918
0.244136
0.126603
0.0877081
0.082909
0.0581419
0.0957497
0.0519039
0.114128
0.142633
0.151107
0.0289777
0.031716
0.0319248
0.0679896
0.0174937
0.102874
0.364812
0.343875
0.156782
0.117172
0.19779
0.0892829
0.0526565
0.0310249
0.122748
0.367256
0.213984
0.0836679
0.106087
0.203993
0.0500077
0
0
0
0
0
0
0
0
0
0
0
0
0
0
0
0
0
0
0
0
0
0
0
0
0
0
0
0
0
0
0
0
0
0
0
0
0
0
0
0
0
0
0
0
0
0
0
0
0
0
0
0
0
0
0
0
0
0
0
0
0
0
0
0.0296937
0
0
0
0.0179037
0
0
0
0.0296937
0
0
0
0
0
0
0
0
0
0.00382558
0
0
0
0
0
0
0
0.00382558
0.0854626
0.038199
0
0
0.00219861
0
0
0
0.0250208
0.680428
0.521386
0.0673492
0
0.000314087
0
0
0
0.123686
0.00564758
0.0033153
0
0
0
0
0
0
0.00481875
0.0470776
0.0619396
0.0260862
0
0
0
0
0
0.025313
0.173648
0.353338
0.0551919
0
0
0
0
0
0.0408895
0.23769
0.726683
0.414698
0
0
0
0
0
0.0703753
0.0613656
0.124944
0.0316503
0
0
0
0
0
0.0113048
0.153983
0.468706
0.0601947
0
0
0
0
0
0.00602807
0.136322
0.503978
0.270105
0.00140662
0.00210993
0
0
0
0.0210399
0.187848
0.503978
0.21659
0.00984637
0.0147695
0
0
0.000930521
0.013546
0.130152
0.467767
0.0519907
0
0
0
0
0
0.00585684
0.151235
0.467767
0.0872784
0
0
0
0
0
0.0204531
0.126161
0.467767
0.0701146
0.00337828
0.00506742
0
0
0.000867841
0.0115287
0.138505
0.450125
0.0569122
0.00435867
0.000902135
0
0
0.000123977
0.0266091
0.245992
0.587255
0.115262
0.0035436
0
0
0
0
0.0235373
0.349989
0.448301
0.0940744
0.0226186
0.0150445
0.00167094
0.0166105
0.0108711
0.0269487
0.135766
0.317642
0.072439
0.0175077
0.00146506
0.00124543
6.55491e-005
0
0.032342
0.1463
0.172778
0.0507001
0.0478742
0.0697325
0.0102795
0.0171325
0.0147735
0.0345872
0.184024
0.183728
0.0602449
0.0411116
0.119473
0.0262852
0.0610425
0.0267082
0.0562293
0.0345005
0.0341627
0.0911058
0.190871
0.294574
0.0681134
0.0435724
0.0213209
0.0323622
0.0761298
0.0528531
0.010715
0.160992
0.361281
0.040331
0.0454939
0.0254185
0.0232454
0.0306906
0.0185982
0.0352113
0.253328
0.587963
0.309407
0.0679983
0.0100072
0.0152365
0.0895562
0.0418092
0.104615
0.214126
0.183044
0.102715
0.0768693
0.100102
0.0461597
0.0650686
0.0239099
0.0393897
0.106132
0.05912
0.155145
0.209128
0.191824
0.0861083
0.103959
0.0664163
0.0503105
0.153366
0.31432
0.440428
0.159783
0.0413519
0.0704798
0.181325
0.0436278
0.00894789
0.0231077
0.113092
0.282617
0.233593
0.141532
0.252707
0
0
0
0
0
0
0
0
0
0.0035154
0
0.00158002
0.00293433
0
0
0
0
0.0035154
0
0
0
0
0.0342191
0
0
0
0
0.26475
0.22625
0.228339
0.416897
0.239534
0
0
0
0.127526
0.00590757
0.00317406
0.000314511
0.000584092
0
0
0
0
0.00419847
0.0828667
0.065378
0.00890888
0.000350455
0.00128459
0
0
0
0.0220455
0.0865333
0.232216
0.0752733
0.0656535
0.00645282
0
0
0
0.027039
0.46279
0.754438
0.227319
0.0347811
0.000770756
0
0
0
0.0762347
0.104447
0.0915879
0.0112815
0
0.000611381
0
0
0
0.0100301
0.256028
0.314427
0.0473743
0
8.73402e-005
0
0
0.000335439
0.0221296
0.285902
0.457191
0.160246
0.0033335
0.001478
0
0
0
0.0266053
0.457191
0.457191
0.163124
0.0285119
0.00783058
0
0
0.00234808
0.0736788
0.165469
0.443565
0.100039
0
0
0
0
0.000978219
0.0190275
0.139142
0.476605
0.202994
0
0
0
0.000201692
0.00119201
0.0148037
0.202313
0.431897
0.123695
0.0147639
0.0030698
0
0.000619388
0.00688013
0.0566214
0.163751
0.389449
0.0710407
0.00109553
0.00209454
0.00865426
0.0108327
0.00857224
0.0204088
0.164471
0.636973
0.271175
0.0050341
0.00474648
0
0.00446259
0.00344285
0.0279796
0.163215
0.476898
0.17636
0.0352387
0.0332253
0
0.00773097
0.0161703
0.0586578
0.153856
0.183097
0.0345137
0.00967319
0.0318982
0.0304167
0.046224
0.0242439
0.027472
0.0965402
0.0691338
0.0672173
0.0674353
0.209479
0.0277602
0.0584177
0.0424049
0.0438335
0.159472
0.452641
0.0987449
0.024417
0.0226667
0
0.00800851
0.0887211
0.126187
0.200889
0.403361
0.0676054
0.0441632
0.0112445
0.00492092
0.00962422
0.103693
0.146235
0.0807032
0.101943
0.188228
0.0989363
0.267871
0.00710278
0.0569801
0.168953
0.114066
0.0667556
0.0495621
0.311331
0.135796
0.127398
0.0134738
0.0750721
0.192447
0.186204
0.215109
0.30478
0.122854
0.132635
0.0280485
0.0367224
0.0108086
0.0274016
0.11402
0.1691
0.168477
0.14323
0.199758
0.178495
0.10551
0.0116608
0.0223622
0.157681
0.171832
0.0490636
0.185755
0.199926
0.0901089
0.0508104
0.0815741
0.0717603
0.213374
0.257457
0.131472
0.205514
0.250564
0.142608
0.112255
0.0196764
0.0613579
0.263154
0.0129851
0.0237993
0.0396808
0.144128
0.260451
0.076506
0.00340143
0.0105744
0.0320468
0.00572255
0.00492196
0.0159452
0.126453
0.471341
0.303688
0.047522
0.00983264
0.0062928
0.0369888
0.0372068
0.0764959
0.199274
0.19205
0.10675
0.00193548
0.0156616
0.0339985
0.00346387
0.00397208
0.036734
0.221622
0.540924
0.204525
0.0111742
0.00912215
0.00148666
0.0633158
0.0100462
0.000447233
0.0339111
0.287991
0.307433
0.121371
0.0347367
0.0540113
0.299568
0.018629
0.000214299
0.00596484
0.0811793
0.10819
0.0830433
0.0593107
0.248589
0.0950536
0.00867516
0.00460264
0.095615
0.450221
0.171279
0.078816
0.0379697
0.0250446
0.365759
0.0256454
0.0203626
0.0549533
0.149415
0.0704822
0.144523
0.104291
0.230152
0
0
0
0
0.0361591
0
0
0
0
0.0679306
0.061676
0.143412
0.295762
0.366686
0.256596
0
0.0296679
0.0436749
0
0
0
0
0.0379796
0
0
0
0
0.021099
0.00881086
0.0804061
0.176221
0.455145
0.427659
0
0.207675
0.107816
0.043066
0.1339
0.0977223
0.0888179
0.0545935
0.0673819
0.0437757
0.0377626
0.00961113
0.197384
0.492983
0.173163
0.0466978
0.0242804
0.0404239
0.0974657
0.12916
0.0424439
0.0147964
0.0323574
0.0564667
0.052816
0.0834091
0.112303
0.096845
0.244526
0.0199961
0.0683245
0.0937277
0.0767665
0.0277339
0.041349
0.0673732
0.435932
0.492983
0.0543025
0.170831
0.384976
0.150449
0.00417542
0.00801923
0.0101178
0.0315666
0.0661167
0.0447439
0.183062
0.262775
0.13831
0.035713
0.0344878
0.0198288
0.0164771
0.0308849
0.0421714
0.0405802
0.0559729
0.0251587
0.000596488
0.0113798
0.0168629
0.261737
0.5055
0.117363
0.0191403
0.0516302
0.033885
0.00510185
0.0426337
0.0330479
0.155492
0.447249
0.199987
0.162087
0.327411
0.149569
0.0404913
0.0276126
0.0128236
0.0399131
0.0600322
0.0746652
0.163168
0.232496
0.0374393
0.00442798
0.0576448
0.0450241
0.0583744
0.0344024
0.0524271
0.0208488
0.0846979
0.048311
0.00578447
0.0331917
0.0266697
0.231477
0.542417
0.278941
0.0438618
0.0596737
0.0434259
0.00166194
0.124093
0.039568
0.145726
0.352721
0.202577
0.0618179
0.042251
0.00793659
0.0174578
0.140435
0.0624077
0.0484828
0.0158269
0.0141865
0.0177054
0.0213009
0.022341
0.0682223
0.578587
0.0447149
0.0374673
0.017868
0.00291567
0.0113514
0.0375662
0.0688637
0.0455115
0.206702
0.0427928
0.0462987
0.0706338
0.0566893
0.0013176
0.0234786
0.0719677
0.129689
0.661689
0.109675
0.0363889
0.00664232
0.0260911
0.00741196
0.0196959
0.0798515
0.0839468
0.506507
0.0106625
0.0264433
0.0276217
0.0121151
0.0123628
0.0242227
0.161824
0.115184
0.282533
0.0190464
0.0519894
0.0361744
0.0555351
0.00289606
0.0464667
0.057926
0.117619
0.570089
0.0905736
0.0787834
0
0.0273427
0.0156664
0.123015
0.123909
0.100779
0.295572
0.0641386
0.134301
0.00601548
0.0359856
0.0968413
0.0291773
0.0943394
0.145504
0.0977616
0.0152148
0.061487
0.0696289
0.145389
0.220975
0.0696035
0.0497543
0.102156
0.1581
0.0868177
0.0374232
0.110255
0.255136
0.101555
0.0831657
0.140787
0.111022
0.144738
0.0185004
0.101388
0.0401816
0.107662
0.211515
0.0372413
0.0249083
0.0859369
0.631525
0.122969
0.0644296
0.0617902
0.152677
0.0349601
0.0120516
0.0154345
0.0839749
0.187334
0.0610588
0.00810035
0.0214268
0.024409
0.00282576
0.000438534
0.0104507
0.138615
0.396826
0.0575837
0.00176314
0.00331956
0
0.0244911
0.0048756
0.000600965
0.0427095
0.479099
0.0584823
0.0101024
0.011948
0.015259
0.00040368
0
0.000929926
0.084157
0.67198
0.0537784
0.0014432
0.00154737
0
0.0345605
0.0101915
0.00294861
0.0970397
0.405103
0.0667333
0.0251115
0.0084438
0.00127605
0.0796867
0.0204459
0.054024
0.103548
0.23225
0.0871891
0.0940808
0.0418005
0.0372321
0.00378063
0.00321119
0.00252575
0.128817
0.605374
0.0719481
0.00132803
0.000332007
0
0.00630105
0.00696749
0.0495158
0.26767
0.333679
0.199834
0.0566685
0.00232405
0
0
0
0
0
0.0191517
0
0
0
0
0.0546666
0
0
0
0.253274
0.269338
0
0.355532
0.212272
0
0
0
0
0
0
0
0
0
0.00780951
0
0
0
0
0
0
0
0.00780951
0.00748144
0
0
0
0.0259828
0.0321533
0.0577453
0.213238
0.0228162
0.0113157
0
0
0
0.0166565
0.0192895
0.477642
0.772521
0.132142
0.00153235
0
0
0
0.00182532
0
0.00449319
0.00805675
0.00225001
0.0135489
0
0
0
0.00304221
0
0.0503675
0.139585
0.0875808
0.00278685
0
0
0
0.00151693
0.00185874
0.172056
0.453856
0.125811
0.000378923
0
0
0
0.00454594
0.00364275
0.250019
0.454684
0.265373
0.00545348
0
0
0
0.000179643
0
0.0563568
0.1681
0.0827783
0.00600513
0
0
0
0
0
0.185702
0.454684
0.290411
0.00031051
0
0
0
0.00141722
0.00566046
0.128501
0.324859
0.181875
0.00217357
0.00492144
0.0100567
0
0.00954638
0.00915088
0.0938532
0.271938
0.0980606
0.00447992
0
0
0
0
0.00282814
0.185112
0.476201
0.261427
0.00197766
0.000589509
0.00137552
0
0
0.00480765
0.365739
0.476201
0.123049
0.00131128
0.0103105
0.0254351
0.0134435
0.0287948
0.0201705
0.0640272
0.186815
0.0470227
0.0250025
0.016417
0.0265171
0.0355929
0.0956804
0.0791878
0.0592264
0.0821537
0.0466242
0.000347436
0.000966734
0.00272314
0.00140228
0.00232686
0.00898136
0.346637
0.602505
0.126474
0.039552
0.00998678
0.004327
0.00308045
0.00703258
0.0276609
0.180038
0.539488
0.203284
0.108464
0.143619
0.0736663
0.0701801
0.144545
0.104858
0.0945704
0.0387138
0.0959528
0.109275
0.210031
0.0955489
0.0657584
0.0750844
0.0439885
0.0892243
0.00761709
0.0770803
0.176759
0.111916
0.0242325
0.00910758
0.00469908
0.0239114
0.174725
0.610141
0.226932
0.18842
0.168954
0.0382544
0.0297082
0.0558434
0.0160483
0.0553696
0.318547
0.192585
0.0620497
0.0560456
0.0565001
0.083263
0.0820512
0.0119352
0.0332974
0.00527991
0.0968682
0.0495012
0.00153227
0.0141706
0.112096
0.533895
0.0433158
0.0159883
0.0108255
0.0433777
0.097362
0.0632884
0.0169935
0.0853029
0.0985282
0.0398466
0.00967244
0.0618518
0.123123
0.0290873
0.0103661
0.0137939
0.202749
0.656716
0.0552017
0.00743196
0.0209921
0.0305808
0.00515151
0.000109042
0.000109697
0.0381021
0.388301
0.0335597
0.00149888
0.00137627
0.00290647
0
0
0
0.0876694
0.444587
0.0462376
0.00014859
0
0
0.000901275
0.000917997
0.00193899
0.0702334
0.497451
0.0351894
0.000932581
0.00229378
0.000901275
0
0
0
0.150983
0.53904
0.0396409
0
0
0
0
0
0.000865384
0.148288
0.434773
0.0456482
0.00867438
0.00348701
0
0.00818572
0
0.0132634
0.205114
0.214809
0.137447
0.0874064
0.0244091
0.0458527
0
0
0.000503614
0.273228
0.548999
0.0164031
0.0288937
0.00629009
0
0.0340971
0
0.00784875
0.207572
0.245654
0.0479015
0.208503
0.0811381
0.156308
0
0
0
0
0
0
0
0
0
0
0
0
0
0
0
0
0
0
0
0
0
0
0
0
0
0
0
0
0
0
0
0
0
0
0
0
0.00210676
0
0
0
0
0
0
0
0.00210676
0.0568457
0
0
0
0
0
0
0.0283253
0.122938
0
0
0
0
0
0
0
0
0
0
0
0
0
0
0
0
0
0
0.0109925
0
0
0
0
0
0.0264674
0.0704662
0.0658625
0.0472163
0
0
0
0
0
0.105399
0.592551
0.636385
0.000584514
0
0
0
0
0
0
0
0.000584514
0.00652193
0
0
0
0
0
0
0.00366929
0.0175298
0.011969
0
0
0
0.000277275
0.000513823
0.091799
0.316126
0.163393
0.0102959
0
0
0
0.000462125
0.00359676
0.465455
0.70011
0.122704
0.00408231
0
0
0
0.000462125
0.000856372
0.00213096
0.0218889
0.0131367
0.0130878
0
0
0
0.000770208
0.0059946
0.106914
0.240217
0.0633808
0.0016228
0
0
0
3.14633e-005
0.000665658
0.206131
0.454624
0.12047
0.00364123
0.000235997
0
0
0
0
0.203445
0.454624
0.207486
0.00877424
0
0
0
5.24388e-005
0.00110943
0.0725584
0.245629
0.127364
0.00727786
0
0
0
0
0.00013502
0.26332
0.454624
0.205568
0.00708606
0.00224086
0.000180504
0.00782394
0.00612713
0
0.149887
0.343157
0.0918969
0.0166376
0.0100782
0.00126353
0.0148277
0.0153949
0.00457154
0.0641265
0.232268
0.0664906
0.00118054
0
0
0.0124812
0.0102119
0.000147817
0.317168
0.518631
0.0882512
0.00351078
0.00101323
0
0.020802
0.0174743
0.00259675
0.283859
0.518631
0.0933426
0.0269845
0.0152986
0.00166815
0.0155347
0.0194912
0.0336828
0.0534117
0.132798
0.0502661
0.00763413
0.014345
0.00947434
0.0688515
0.173663
0.0344913
0.0256114
0.0530497
0.0372629
0.00759999
0.00249667
0.00018156
0.00633731
0.00730493
0.0198857
0.279877
0.685529
0.216105
0.0338347
0.0515028
0.0344071
0.0632377
0.0845616
0.0199792
0.140932
0.314445
0.367127
0
0.00950078
0.00683863
0.0944049
0.342367
0.0188566
0.000685469
0.00710658
0.013061
0.0146025
0.0654639
0.0224682
0.131747
0.386318
0.021077
0
0
0.00706946
0.0362058
0.0635841
0.0464163
0.151761
0.246834
0.0194357
0.00779724
0.0460391
0.128152
0.0738485
0.178847
0.153695
0.340279
0.573528
0.0886343
0.0173665
0.0026502
0.0661956
0.0512736
0.110113
0.0458124
0.127151
0.278818
0.00354274
0.0180442
0.0122276
0.0265541
0.0575304
0.0398311
0.042782
0.0863775
0.13521
0
0.0823368
0.0774159
0.0805071
0.241142
0.256258
0.235081
0.225898
0.345215
0.1702
0.107819
0.0698543
0.220743
0.179761
0.0883678
0.164624
0.122304
0.144719
0.311055
0.223064
0.168974
0.165234
0
0
0
0
0
0
0
0
0
0
0
0
0
0
0
0
0
0
0
0
0
0
0
0
0
0
0
0
0
0
0
0
0
0
0
0
0
0
0
0
0
0
0
0
0
0
0
0
0
0
0
0
0
0
0
0
0
0
0
0
0
0
0
0
0
0
0
0
0
0
0
0
0
0
0
0
0
0
0
0
0
0
0
0
0
0
0
0
0
0
0
0
0
0
0
0
0
0
0
0
0
0
0
0
0
0
0
0
0.000910962
0
0
0
0.00184418
0.00341748
0.00146463
0
0.000910962
0.0863747
0
0
0
0.00307363
0.0239223
0.0102524
0.189005
0.253556
0
0
0
0
0
0
0
0
0
0
0
0
0
0
0
0
0
0
0.0199871
0
0
0
3.76451e-005
0.000796444
0.0140865
0.0980644
0.112704
0.0270878
0
0
0
0
0.00194687
0.238678
0.838698
0.283204
0.00079789
0
0
0
0
0
0
0
0.00134026
0.00377901
0
0
0
0
0.00116812
0.0076419
0.021375
0.0247473
0.00321105
0
0
0.00237005
0.00197625
0.00056378
0.164783
0.485543
0.070152
0.00208583
0
0
0.00395008
0.00349172
8.054e-005
0.336018
0.599604
0.185833
0.00282769
0
0
0
0.000259833
0.000338268
0.015996
0.0593452
0.0277647
0.00473374
0
0
0
0.00181883
4.8324e-005
0.123622
0.358735
0.132423
0.000150622
0
0
0.000330238
0.000329244
0
0.201532
0.443764
0.132045
0.0143979
0.00907538
0.00671344
0.00563355
0.00282216
0
0.142231
0.367165
0.230038
0.00310442
0
0
0
0.000413341
0
0.147115
0.355981
0.132321
0.00725939
0.00028422
0.00028422
0
0
0
0.203511
0.445344
0.294903
0.0192256
0.0166832
0.0141725
0.0283853
0.0486466
0.0116824
0.043925
0.182813
0.11657
0.0217502
0.0265796
0.0422289
0.136501
0.245284
0.129746
0.0615649
0.046319
0.0577313
0.00665795
0.00103164
0.00553403
0.0191981
0.0133485
0.00639985
0.211625
0.51419
0.280247
0.0550959
0.00631069
0.0700541
0.160262
0.0803805
0.115994
0.152242
0.456664
0.338531
0.0879237
0.0397986
0.111121
0.172547
0.197958
0.236981
0.100131
0.0348949
0.157062
0.0569008
0.0130622
0.148797
0.251492
0.110538
0.23425
0.075708
0.0457645
0.0949674
0.0986469
0.00968761
0.118065
0.23318
0.146551
0.227208
0.125694
0.112392
0.215213
0.0193305
0.00138394
0.102107
0.507333
0.263423
0.0991144
0.0195222
0.0159528
0.0570997
0
0
0
0
0
0
0
0
0
0
0
0
0
0
0
0
0
0
0
0
0
0
0
0
0
0
0
0
0
0
0
0
0
0
0
0
0
0
0
0
0
0
0
0
0
0
0
0
0
0
0
0
0
0
0
0
0
0
0
0
0
0
0
0
0
0
0
0
0
0
0
0
0
0
0
0
0
0
0
0
0
0
0
0
0
0
0
0
0
0
0
0
0
0
0
0
0
0
0
0
0
0
0
0
0
0
0
0
0
0
0
0
0
0
0
0
0
0
0
0
0
0
0
0
0
0
0
0
0
0
0
0
0
0
0
0
0
0
0
0
0
0
0
0
0
0
0
0
0
0
0
0
0
0.00223857
0
0
0
0
0
0
0
0.00223857
0
0
0
0
0
0
0
0
0
0
0
0
0
0
0
0
0
0
0.0087075
0
0
0
0.00237359
0
0
0.00118879
0.0312944
0.0429049
0
0
0
0.0166151
0
0.227356
0.404265
0.308316
0
0
0
0
0
0
0
0
0
0.00446032
0
0
0
0
0
0
0
0.00446032
0.010585
0
0
0
0.000533881
0
0.0359387
0.171964
0.126088
0.0330925
0
0
0
0.000503409
0
0.15753
0.819165
0.398091
0.00181874
0
0
0
0
0
0
0.00114404
0.00522581
0.0154498
0
0
0
0.000839015
0
0
0.0415035
0.0547914
0.0113789
0
0.0018752
0.00567387
0.00203041
0.00620331
0.0883582
0.491728
0.218943
0.0610766
0.00644379
0.028919
0.0482208
0.0448961
0.128296
0.146476
0.515014
0.343921
0.00665215
0
0
0
0.0160958
0.0146833
0.00886165
0.0709709
0.0584691
0.0101344
0.000920541
0
0
0.288758
0.294064
0.0978319
0.154065
0.0897956
0.0593845
0.00659828
0.0216297
0.0644187
0.154995
0.185304
0.101341
0.098283
0.0890844
0.00848351
0.000942611
0.00450572
0.197597
0.251359
0.100981
0.0129986
0.00208837
0.00267079
0.00848351
0.000942611
0
0.0349321
0.532084
0.34345
0.068547
0.0427163
0.0203329
0.00121193
0.000134659
0
0.138996
0.532084
0.169068
0.00831184
0.000390151
0