0.0438194
0.0105004
0.0315013
0
0.0394591
0.0178198
0.145357
0.125868
0.0544182
0.0392608
0.0286219
0.0869235
0.0153866
0.0590854
0.0482823
0.13337
0.223977
0.0802072
0.0587874
0.0419443
0.136527
0.0405408
0.0412137
0.0403452
0.187528
0.194583
0.0738236
0.0471683
0.0317539
0.10438
0.0201022
0.0743317
0.0839136
0.458474
0.335594
0.0770154
0.0438454
0.047532
0.0842104
0.0696107
0.0802784
0.0247274
0.0828651
0.145735
0.121443
0.101352
0.135869
0.19623
0.202014
0.113621
0.00993999
0.0406129
0.101779
0.117323
0.0768173
0.0273513
0.0516239
0.00988877
0.0841537
0.0211796
0.294786
0.220158
0.122671
0.171165
0.100667
0.100886
0.122355
0.121062
0.0144946
0.15642
0.210275
0.19726
0.0968092
0.0982265
0.164356
0.0811018
0.0968857
0.0224745
0.0688346
0.0635308
0.0511793
0.0997227
0.0526795
0.108798
0.0315325
0.0672887
0.0134847
0.156378
0.19609
0.112332
0.0588732
0.07884
0.160918
0.0923645
0.135804
0.0170331
0.193956
0.127207
0.0548696
0.0307904
0.0507799
0.182382
0.0593502
0.164794
0.00243331
0.293041
0.227362
0.0458102
0.062
0.0608765
0.0630735
0.0724727
0.0497263
0.0162761
0.0886897
0.129127
0.0972186
0.0379059
0.0673895
0.097994
0.0843311
0.100132
0.0473293
0.225022
0.123273
0.0855104
0.0520783
0.0241679
0.0908147
0.0562532
0.12649
0.00631328
0.147729
0.187441
0.130497
0.0783289
0.00977635
0.0335873
0.0329943
0.216131
0.0441929
0.292375
0.31552
0.29039
0.0270586
0.039505
0.0751205
0.0127442
0.121815
0.0146307
0.216517
0.0809552
0.0340928
0.0695158
0.121819
0.0838234
0
0.165794
0.03364
0.185918
0.0732462
0.0555887
0.0614151
0.0079675
0.0200404
0.00429955
0.183046
0.0280272
0.271009
0.224655
0.151945
0.123012
0.106523
0.0491819
0
0.167785
0.119811
0.243396
0.131323
0.170475
0.0573502
0.0571159
0.0497823
0.00103199
0.116294
0.0489906
0.0874252
0.060773
0.0555134
0.0772693
0.0580701
0.0953609
0.0183931
0.0836729
0.0603578
0.152804
0.066635
0.0672085
0.084474
0.169406
0.0692333
0.0211386
0.120583
0.0941798
0.0799774
0.0969495
0.121158
0.366584
0.444202
0.209108
0.0670777
0.0773978
0.0585292
0.0936439
0.0704274
0.145293
0.0282925
0.0155254
0.0384239
0.015538
0.0152909
0.00832576
0.0734766
0.0253276
0.0218579
0.13128
0.0236499
0.041097
0.00857246
0.0093418
0.00326935
0.0757686
0.0601422
0.0785098
0.238909
0.173948
0.162837
0.0429817
0.00407958
0.00332429
0.0232882
0.0072269
0.0667723
0.554931
0.490606
0.253815
0.0244428
0.000606695
0
0.0190248
0.0153825
0.144357
0.148984
0.0362041
0.0167623
0
0.00819933
0.000314259
0.0277791
0.0398462
0.0494388
0.163441
0.0395169
0.00877148
0.0118205
0.0049196
0.00591784
0.0745512
0.0885946
0.0807902
0.506194
0.348426
0.0556749
0
0.00117133
0
0.00615433
0.0442472
0.105499
0.41646
0.261721
0.00724969
0.00159801
0.00226326
0.0358541
0.156451
0.26602
0.203205
0.0840424
0.055809
0.0269317
0.026108
0.0139837
0.0357469
0.121444
0.17044
0.0749882
0.0274421
0.0482784
0.0238458
0.00532403
0.127614
0.0248798
0.0752384
0.147863
0.0330931
0.12077
0.0809008
0.00973703
0.0493498
0.0348712
0.225546
0.382645
0.485557
0.132697
0.0253672
0.00679929
0.012675
0.0773255
0.13745
0.197368
0.185085
0.200695
0.0389139
0.0465679
0.0308547
0.112236
0.0557067
0.0811917
0.0263333
0.125208
0.123563
0.0586516
0.0628547
0.00622281
0.0283196
0.0212762
0.163799
0.0972467
0.30374
0.192555
0.112908
0.062136
0.0117519
0.0429766
0.0172135
0.188319
0.114971
0.196775
0.165031
0.0739402
0.113183
0.0146992
0.017123
0.00303946
0.298737
0.195667
0.200391
0.0866591
0.141634
0.0497492
0.0102555
0.0264577
0
0.129935
0.0791152
0.161725
0.143694
0.100027
0.100524
0.0366461
0.096794
0.0261624
0.0812824
0.13133
0.121975
0.130048
0.143838
0.0435705
0.0272929
0.0235704
0
0.22868
0.204008
0.172988
0.0875738
0.0689443
0.0416203
0.0391727
0.130655
0.0645859
0.127721
0.376154
0.200694
0.161121
0.104247
0.0334256
0.0291082
0.095954
0.0335949
0.088187
0.0971392
0.135921
0.0849006
0.0659357
0.0588595
0.0270466
0.0653681
0.0190491
0.183903
0.0579212
0.177121
0.141432
0.0588984
0.060847
0.0331188
0.145372
0.107346
0.0739033
0.30867
0.0947982
0.120942
0.109855
0.216132
0.0891637
0.100633
0.0728004
0.185422
0.259181
0.148132
0.0983632
0.124568
0.0350092
0.00783097
0.0282618
0.0259571
0.122094
0.0438735
0.0708044
0.086843
0.0829584
0.0414813
0.0129988
0.0396882
0.0351623
0.151135
0.0587566
0.0634495
0.211323
0.2454
0.0977659
0.0416481
0.0357443
0.0185695
0.272498
0.140892
0.075422
0.0549
0.0601864
0.259676
0.322582
0.116468
0.020724
0.344263
0.126206
0.0591409
0.109242
0.162171
0.0184326
0.0057725
0.0176971
0.00771644
0.0545169
0.0151593
0.0366994
0.0884196
0.0665458
0.0899005
0.0457887
0.0704512
0.0316667
0.0446417
0.0382376
0.0428369
0.0500786
0.0708322
0.266519
0.220617
0.107739
0.0307581
0.0350004
0.018829
0.0333315
0.0622888
0.0504992
0.461597
0.375182
0.484196
0.16596
0.00611164
0.024785
0.0221067
0.0346968
0.0502994
0.093242
0.07998
0.0432107
0.0111577
0.0100718
0.00789322
0.00528565
0.0181022
0.0440763
0.184212
0.245371
0.121163
0.0105271
0.00244772
0.00191343
0.00222248
0.00840913
0.038337
0.292992
0.280946
0.226663
0.0320575
0.00104997
0.00221005
0.00154821
0.00699632
0.0270954
0.38212
0.5378
0.319961
0.00121578
0.000116365
0
0
0.00255414
0.0131857
0.158964
0.185982
0.106712
0.0137899
0
0.000187771
0.000499962
0.000187555
0.0204849
0.171537
0.367842
0.204112
0.0166681
0
0
0
0.00179185
0.0245542
0.233861
0.425057
0.180899
0.0141276
0
0
0
0.000334078
0.011365
0.303433
0.450843
0.204156
0.023323
0.0128206
0.0166381
0.0272602
0.0195219
0.128183
0.225015
0.435611
0.11014
0.00277187
0.00872531
0
0.000381679
0.0506133
0.0461863
0.148047
0.264514
0.014041
0.00531729
0.0904677
0.0546555
0.0599532
0.214824
0.0756904
0.203563
0.293947
0.113387
0.00624921
0.121526
0.066195
0.0401275
0.0816905
0.145077
0.041562
0.136278
0.068845
0.0395386
0.454549
0.121899
0.0162825
0.117216
0.0321584
0.0285132
0.0382227
0.00657214
0.0689271
0.123278
0.167387
0.0854485
0.159743
0.0248408
0.0477718
0
0.008974
0.0962999
0.0806478
0.12508
0.0655906
0.0382407
0.0366053
0.131771
0.0539383
0.06271
0.0977559
0.375115
0.244311
0.015471
0.0434178
0.0299472
0.557816
0.034294
0.0221347
0.0881494
0.148956
0.182329
0.0293205
0.01105
0.327842
0.0713387
0.0118733
0.0352094
0.00117572
0.0856024
0.106695
0.133865
0.192952
0.0929057
0.126926
0.0719453
0.1015
0
0.120084
0.0664233
0.134473
0.0723488
0.124529
0.0755004
0.116828
0.12903
0.0232827
0.0211028
0.0426259
0.0904043
0.312043
0.102623
0.138676
0.237453
0.228763
0.0090316
0.0458291
0.00143728
0.149755
0.226444
0.127655
0.0604353
0.0807768
0.0420573
0
0.0483468
0.0376288
0.0715641
0.0193975
0.0474352
0.100482
0.107285
0.0522768
0.0371426
0.0387065
0.0726067
0.0849555
0.0613588
0.0991941
0.107324
0.251755
0.159818
0
0.0128134
0
0.0695219
0.0464312
0.0750381
0.360127
0.553551
0.206313
0.0147096
0.00808191
0
0.0370493
0.0562364
0.163179
0.0421205
0.0453228
0.0312946
0.0275561
0.018136
0.0487461
0.0306513
0.0413228
0.0456528
0.0766117
0.0468876
0.0761211
0.0224871
0.0593558
0.0626403
0.0638802
0.0636004
0.0457414
0.312108
0.300176
0.147305
0.0110736
0.00751391
0.00570274
0.0160205
0.024369
0.0677027
0.42526
0.378709
0.41729
0.110571
0.129634
0.0252232
0.055636
0.0476285
0.112558
0.112874
0.0385955
0.0355654
0.00800974
0.0557844
0.0148115
0.0178318
0.0221011
0.01642
0.19356
0.249432
0.114242
0.0128902
0.051499
0.0077902
0.00766317
0.0101091
0.0246634
0.233847
0.277067
0.172183
0.0650502
0.0695976
0.00437172
0.0120265
0.0130618
0.101158
0.307971
0.585742
0.342828
0.0917042
0.0134201
0
0.00206733
0.00482377
0.0647958
0.166602
0.240183
0.107981
0.00856959
0.00624413
0.00108053
0.00306181
0.00236178
0.00785313
0.236787
0.285394
0.24655
0.0321896
0.00320381
0.00126802
0.000934259
0.00100019
0.0140565
0.191535
0.408302
0.243802
0.0289222
0.00349446
0.00101395
0.00188306
0
0.00244873
0.245772
0.437464
0.287853
0.0508204
0.0706657
0.00842435
0.0206992
0.00445456
0.0186219
0.125704
0.235665
0.189042
0.0163407
0.000982688
0.00014308
6.13202e-005
0
0.00453238
0.160494
0.425836
0.201168
0.00475206
0
0
0
0.000571126
0.000662996
0.0747414
0.303534
0.252354
0.061464
0.0554968
0.023355
0.0277778
0.00862959
0.0111898
0.135839
0.580905
0.175033
0.0445839
0.0239515
0.0344639
0.0308819
0.012721
0.00450901
0.165467
0.452707
0.141338
0.00188813
0
0
0
0.00199173
0.016375
0.282632
0.29759
0.0607692
0.0151355
0.107917
0.0298941
0.0738768
0.0126797
0.152668
0.141466
0.444286
0.0813385
0.0222474
0.0134571
0.00884065
0.00685665
0.0182448
0.0739392
0.144168
0.198069
0.0421081
0.136347
0.294657
0.0430709
0.0443261
0.0272078
0.185865
0.0758369
0.0380914
0.00921516
0.0309107
0.233554
0.0506638
0.0640941
0.0168976
0.0846189
0.00484003
0.0193342
0.0353117
0.111136
0.346116
0.0475215
0.00984194
0.00909328
0.0100444
0.0281434
0.0178318
0.00688643
0.198018
0.474238
0.032625
0.0395617
0.00619271
0.0471685
0.00449533
0.00839096
0.0108839
0.244878
0.606327
0.0448054
0.0100629
0.000123193
0.00468994
0.112435
0.0892164
0.052731
0.116125
0.18296
0.0728633
0.0023525
0.000501381
0.0216185
0.407441
0.102012
0.0262742
0.038243
0.0498234
0.0516947
0.00264936
0.000412621
0.324961
0.0606638
0.0835063
0.0342823
0.181301
0.438429
0.0892561
0.0475044
0.0189647
0.0185349
0.325082
0.154082
0.0422242
0.062693
0.172786
0.0472018
0.0686691
0.058806
0.327857
0.0294771
0.0933284
0.0837805
0.0334063
0.0754173
0.0141327
0.029745
0.11748
0.0315726
0.0376835
0.167739
0.139118
0.0753138
0.116631
0.00852028
0.0909377
0.107442
0.0275321
0.0161972
0.0437767
0.060353
0.0443466
0.182332
0.0967787
0.114588
0.0793731
0.047874
0.00472667
0.113921
0.340499
0.489665
0.267776
0.0939305
0.12004
0.0373245
0.00295672
0.0499989
0.113298
0.0825088
0.0300559
0.0097498
0.000321141
0.0229752
0.016159
0.0244888
0.232035
0.267967
0.158792
0.0175754
0.000904065
0
0.00953363
0.01715
0.0423147
0.0405353
0.113804
0.333824
0.167978
0.0361012
0.0205515
0.0224689
0.00437559
0.0124427
0.243468
0.341021
0.595725
0.0854388
0.00499799
0.018218
0.0357433
0.024005
0.0297166
0.174196
0.191382
0.120777
0.00305872
0
0.000167638
0.000311328
0.0021871
0.00962465
0.186022
0.322772
0.187111
0.0513723
0.0172573
0.00117347
0.00217929
0.00116013
0.0284921
0.158061
0.276666
0.198371
0.0607922
0.00473281
0.0236519
0.0125929
0.0291453
0.0143402
0.180876
0.631965
0.214145
0.128298
0.00584313
0.0300437
0.038791
0.0492914
0.00946152
0.075221
0.284299
0.0901322
0.0339728
0.0134273
0.000335885
0.000623787
0.000122161
0.0521845
0.140035
0.439676
0.11063
0.0228468
0.00191819
0
0.00383241
0.00164246
0.0321309
0.145192
0.508807
0.0777552
0.0276279
0.00135156
0.00316768
0.0161522
0.0238014
0.00933742
0.274529
0.478491
0.030694
0.0130672
0.0285853
0.0025722
0.030385
0.031695
0.0114176
0.2247
0.384312
0.10807
0.0144606
0.014869
0.0032459
0.0161664
0.0211275
0.00824479
0.222908
0.262522
0.0891047
0.0470268
0.173244
0.0432204
0.0830456
0.0456154
0.0462206
0.234456
0.244494
0.017874
0.0718566
0.0992049
0.00340582
0.0750962
0.0609383
0.0161022
0.105325
0.100594
0.0195524
0.276563
0.497975
0.0588615
0.109848
0.0669234
0.0415427
0.0442235
0.147756
0.122619
0.10749
0.145954
0.107437
0.147714
0.0416701
0.0391001
0.0518704
0.219283
0.117627
0.130432
0.0542715
0.139566
0.152925
0.0397076
0.00720368
0.0110256
0.0415687
0.0591995
0.280428
0.503389
0.170387
0.125095
0.0306282
0.0255465
0.0330732
0.0704375
0.0990772
0.308308
0.266339
0.251898
0.115207
0.0224331
0.00389092
0.0857938
0.195318
0.134632
0.0980289
0.0286058
0.0504573
0.036269
0.0223927
0.0891227
0.0652041
0.108356
0.194935
0.334495
0.29388
0.0973906
0
0.0387909
0.180134
0.107921
0.168579
0.115846
0.147045
0.06374
0.121455
0.0249382
0.0255957
0.0625081
0.14297
0.148189
0.224272
0.289067
0.37548
0.170915
0.0423504
0.0391616
0.106011
0.00710163
0.0082179
0.0556491
0.23508
0.292742
0.0323255
0.00363709
0.00588914
0.0211622
0.00395662
0
0.0124181
0.165079
0.471585
0.077012
0.0139575
0
0.00395662
0.0163937
0.0128495
0.079007
0.223198
0.332012
0.0739969
0.0247603
0.00328413
0.00851036
0.000565232
0
0.0439124
0.356919
0.443842
0.0736907
0.0121163
0
0.000565232
0.0233191
0.0100686
0.0295624
0.0895988
0.364314
0.127107
0.0799221
0.0579538
0.0248743
0.216057
0.0377143
0.0610764
0.0388013
0.15556
0.117449
0.0984099
0.189398
0.180561
0.00718481
0
0.101253
0.344419
0.271436
0.0761572
0.0268562
0.0687648
0.0260533
0.0558909
0
0.134948
0.342079
0.350258
0.158806
0.0237015
0.170293
0.081693
0.00265801
0.0189745
0.0742058
0.0808699
0.131587
0.112083
0.11173
0.0450202
0.0354954
0.00653706
0.0341284
0.212192
0.350206
0.287135
0.17773
0.138227
0.0464237
0.00653706
0.0356977
0.0528194
0.216268
0.168076
0.080619
0.0734073
0.0512572
0.0127158
0.0390462
0.0684306
0.099355
0.264894
0.153147
0.155915
0.148477
0.122743
0.100833
0.0599178
0.00424222
0.0199342
0.207148
0.104331
0.0581291
0.0692931
0.105804
0.0376467
0.000738516
0.0517502
0.0962282
0.372088
0.0505856
0.00963385
0.0678674
0.273637
0.104784
0.0180334
0.00931172
0.0251779
0.0556829
0.0198285
0.0401221
0.0549906
0.21244
0.135869
0.00576754
0.0054089
0.0118414
0.0447915
0.00960971
0.00912613
0.0660913
0.560885
0.38895
0.0141976
0.039529
0.0814906
0.0877712
0.0613444
0.0136916
0.0873433
0.115676
0.0945348
0.0190135
0.0527628
0.227475
0.13207
0.111083
0.0169037
0.110022
0.213859
0.27923
0.0101075
0.002381
0.00194809
0.00818402
0.00908717
0.00821496
0.0969761
0.25622
0.25863
0.0128142
0.00092819
0.0107076
0.0182252
0.0158691
0.0101422
0.140515
0.346903
0.587805
0.0285573
0.0729899
0.223262
0.0526017
0.016912
0.0043593
0.0128602
0.13742
0.202313
0.0147967
0.113643
0.156907
0.0118331
0.0331988
0.0702905
0.0113193
0.0486325
0.125568
0.0333615
0.00585921
0.0181377
0.0095539
0.00241601
0.00261558
0.0219041
0.25493
0.545669
0.0580845
0.0203463
0.036799
0.0161628
0.026796
0.0612843
0.0261386
0.246395
0.52519
0.135345
0.0532119
0.0409221
0.0121916
0.122683
0.144512
0.00881109
0.0265812
0.0398602
0.0156455
0.0112803
0.0122968
0.0173896
0.318861
0.500901
0.0290704
0.0249927
0.0176748
0.00577046
0.043826
0.0171287
0.0506969
0.0993092
0.172816
0.047091
0.124963
0.208383
0.0746339
0.066906
0.0168543
0.0754921
0.191445
0.526139
0.154926
0.0709204
0.0974543
0.135909
0.000793761
0.00681712
0.020129
0.201449
0.507752
0.0940302
0.0382464
0.00609829
0.000389619
0.0246791
0.0547022
0.0406463
0.169662
0.346577
0.141746
0.0530984
0.00138392
0.00169748
0.0980975
0.0501835
0.0232258
0.11624
0.402561
0.179215
0.119033
0.0458799
0.107667
0.120718
0.106073
0.0679646
0.152061
0.230175
0.148465
0.164891
0.013977
0.0333026
0.0738861
0.112868
0.0287495
0.0688325
0.0680941
0.0580748
0.0136917
0.0165834
0.0325051
0.0956808
0.111499
0.0242653
0.104451
0.328518
0.129626
0.0335318
0.0254438
0.0487039
0.0745586
0.107547
0.0630177
0.0611802
0.108243
0.0375494
0.0654744
0.0205637
0.0346128
0.0513824
0.0709447
0.0160388
0.175541
0.771461
0.0829375
0.0301919
0.0126853
0.030968
0.0107623
0.00938914
0.012375
0.092789
0.291313
0.056314
0.0170313
0.00186477
0.0035145
0
0
0.0165281
0.270143
0.275074
0.0220893
0.00251639
0
0
0.00338699
0.00362965
0.00117042
0.138501
0.554217
0.0250722
0.00242523
0.000266395
0.00210839
0
0
0.0019507
0.301899
0.508284
0.0212154
0.000346462
0
0
0
0
0.0297722
0.295714
0.19358
0.0537016
0.000798658
0.0112582
0.0041286
0
0
0.054267
0.360625
0.292411
0.0946406
0.00500435
0.0187637
0.006881
0
0
0.00115486
0.275609
0.374886
0.0961815
0.00555931
0.000464998
0
0
0
0.0314593
0.397814
0.364081
0.140606
0.0389152
0.00325499
0
0.100603
0.0655159
0.141816
0.088829
0.0604631
0.00663981
0.0343066
0.0399781
0.0998921
0.123392
0.207281
0.198086
0.0983438
0.10398
0.0151277
0.0250654
0.100083
0.0895838
0.189136
0.158952
0.0934098
0.0255346
0.0221508
0
0.127656
0.124177
0.164588
0.217527
0.310392
0.0653013
0.180869
0.132542
0
0.0621243
0.126287
0.130337
0.0204084
0.0704844
0.0531256
0.0255456
0.0738052
0.0144977
0.153483
0.165146
0.00966202
0.0110775
0.0215062
0.00882099
0.00319124
0.0255189
0.0608039
0.420058
0.594276
0.044879
0.0619019
0.0987705
0.0253223
0.0985076
0.0799363
0.0420808
0.0549018
0.0972136
0.0210286
0.0631839
0.0424871
0.0453171
0.0419954
0.0403021
0.101465
0.116346
0.247408
0.0717024
0.0094819
0.000938848
0.00281654
0
7.24902e-005
0.0527229
0.162392
0.32515
0.0402091
0.00568914
0.000767071
0.00230121
0
0
0.0915268
0.290325
0.557534
0.0568653
0.0318705
0.0103917
0.0360433
0.00807992
0.00850671
0.0177567
0.0395423
0.151823
0.065296
0.0207298
0.015005
0.0382742
0.0170789
0.00114275
0.0227328
0.240942
0.455824
0.0721244
0
0.000675072
0.000495139
0
0.00371698
0.0130857
0.203669
0.315198
0.0332871
0.0116357
0.00435116
0.00234293
0.00246235
0.0161704
0.00884134
0.383167
0.450913
0.0655487
0.00327977
0.00380245
0.00413424
0.00346519
0.0260189
0.0109249
0.237435
0.256446
0.0202829
0.0168514
0.000435189
0
0
0.0433648
0.0097309
0.426502
0.30888
0.064878
0.0282499
0.00142968
0.0121508
0.00959133
0.0505725
0.0183014
0.21875
0.2578
0.0371685
0.0847684
0.0149345
0.0193337
0.0178624
0.11757
0.0764749
0.165616
0.251423
0.150671
0.00899072
0
0
0
0.0100765
0.0120936
0.320961
0.256212
0.0547021
0.0409606
0.00463526
0
0
0.00805782
0.0189976
0.420139
0.538739
0.103052
0.210749
0.0700896
0.0130802
0.0506181
0.0758603
0.0710776
0.0977864
0.141873
0.183069
0.194334
0.0868573
0.0330129
0.132079
0.0359949
0.0469476
0.0853124
0.0264671
0.0905299
0.12826
0.0348289
0.00312856
0.00627879
0.00159578
0.00870026
0.38554
0.514054
0.18638
0.152062
0.103222
0.016119
0.0284998
0.0617054
0.0347532
0.241097
0.218928
0.255453
0.0364852
0.0370699
0.0183176
0.0530597
0.0834552
0.0153674
0.0257782
0.011385
0.0332019
0.00517187
0.0156719
0.00416587
0.174264
0.534805
0.0121438
0.00780204
0.00356575
0.00613801
0.0331791
0.0384429
0.00593987
0.0536521
0.159409
0.0336641
0.055207
0.0459391
0.0638916
0.00263018
0.00788787
0.000876429
0.282123
0.667532
0.0266082
0.00663467
0.0109954
0.012593
0.000237369
0
0
0.125473
0.379845
0.00323745
0
0
0.000237369
0
0
0
0.178045
0.400378
0.00938277
0
0
0
8.51189e-005
0
0
0.179805
0.453224
0.0272112
0
0
0.000766067
0
0
0
0.193213
0.547745
0.0412949
0.0012881
0
0
0.00660504
0.00355656
0
0.210131
0.392117
0.0413689
0.0251489
0.00720474
0.00247919
0.0462353
0.0248959
0.0386385
0.31354
0.27368
0.0547251
0.0655515
0.0201165
0.00413198
0.0234371
0.0130127
0
0.193964
0.541523
0.0575981
0.0488319
0.0305181
0.0273229
0.176245
0.0910889
0.0962757
0.222306
0.20438
0.0277256
0.0810985
0.0557287
0.0640421
0.18282
0.127469
0.144168
0.0495585
0.0537122
0.0181769
0.0738088
0.0694149
0.0923479
0.135054
0.115118
0.0901103
0.139631
0.122769
0.0159649
0.113849
0.0502685
0.0776714
0.129157
0.0696134
0.183302
0.124888
0.228165
0.0450589
0.121032
0.131577
0.0686896
0.0661034
0.0430716
0.204934
0.160509
0.177967
0.0455514
0.173906
0.108469
0.0617869
0.133349
0.0855167
0.0259477
0.0981628
0.0825214
0.0749155
0.145321
0.0686609
0.0685574
0.147675
0.0516864
0.0935662
0.102887
0.0644612
0.0871508
0.22662
0.108455
0.115589
0.0928144
0.0129303
0.0359431
0.0223397
0.0664881
0.123302
0.198238
0.155152
0.104575
0.0859824
0.0360219
0.128716
0.0495223
0.121116
0.0739815
0.315107
0.188815
0.0994309
0.056309
0.0339423
0.135149
0.0527128
0.05583
0.00941315
0.0965943
0.0623239
0.0694102
0.0466533
0.108801
0.171431
0.063435
0.0272737
0.0761508
0.295866
0.36528
0.080202
0.0376292
0.0397648
0.155733
0.062169
0.0921554
0
0.172446
0.0628291
0.0396026
0.0501756
0.148053
0.138537
0.033796
0.100113
0.112658
0.283512
0.0929331
0.0430787
0.0244822
0.0463348
0.029204
0.00966906
0.0323301
0.0427235
0.265933
0.23498
0.0604037
0.100291
0.0194929
0.0211631
0
0.0476222
0.0335616
0.513958
0.339859
0.228318
0.0273135
0.0770039
0.0365169
0.00138129
0.0413339
0.0522795
0.0994994
0.0881522
0.0433289
0.0789223
0.0566963
0.0359266
0
0.03564
0.0241152
0.213667
0.2714
0.172191
0.0185704
0.000458524
0.00137557
0
0.00289337
0.0234623
0.247537
0.209131
0.0765279
0.0107944
0
0
0
0
0.0326954
0.448067
0.424258
0.0687374
0.0164144
0.0122046
0.00229262
0
0.00245328
0.0176885
0.143975
0.224996
0.0945315
0.0210342
0.00163434
0
0
0
0.0229498
0.311656
0.438212
0.0973455
0.00990893
0.00317874
0.000560954
0
0
0.0058638
0.277851
0.314063
0.0751984
0.0332329
0.0222512
0.00392668
0.0021119
0.0376691
0.0250238
0.315179
0.295353
0.137472
0.00826692
0
0
0
0
0.00378608
0.200399
0.338985
0.0392218
0.00476534
0
0
0
0.0047561
0.0128317
0.377487
0.454485
0.0933403
0.0167231
0.00869422
0.00377799
0.0243928
0.0914448
0.0357691
0.16626
0.202818
0.0497534
0.0222117
0
0.0204595
0.265272
0.376805
0.0211587
0.0384613
0.128655
0.0278163
0.0292779
0
0.00373952
0.0124107
0.0142637
0.0150802
0.350997
0.425472
0.0664136
0.190148
0.0270708
0.0710529
0.254777
0.160153
0.00402108
0.179555
0.323997
0.0817822
0.00687118
0
0.00961523
0.218838
0.420645
0.0396202
0.00149999
0.00733364
0.00332691
0.00747935
0.00155512
0.000619996
0.14136
0.522947
0.109725
0.00505364
0.0295475
0.0192027
0.0647677
0.0247158
0.0497643
0.218523
0.302789
0.0425267
0.0126272
0.0243721
0.0220929
0.0577433
0.0244079
0.0343354
0.116305
0.433705
0.107896
0.00303218
0.0492459
0.0604228
0.0272607
0.00547316
0
0.0451549
0.213166
0.0787779
0.0209339
0.0583008
0.104264
0.159705
0.0277805
0.0181726
0.042686
0.0495435
0.026371
0.0204181
0.0401392
0.250406
0.125359
0.0217645
0.0281297
0.0313698
0.109742
0.0512686
0.00872417
0.0780127
0.302444
0.351069
0.00579188
0.00417576
0.0047255
0.00697328
0.0140852
0.0058573
0.0349732
0.698547
0.0392976
0.0312964
0.119445
0.0729244
0.0813688
0.0827336
0.176293
0.124922
0.074541
0.0402712
0.0370216
0.156856
0.0771633
0.119699
0.116285
0.13371
0.0919351
0.0647306
0.0631907
0.0894397
0.131559
0.0214094
0.0537759
0.174212
0.209902
0.154348
0.11828
0.119492
0.0857233
0.102937
0.0293427
0.19383
0.267127
0.153587
0.0890464
0.187895
0.0687532
0.0124686
0.044033
0.00804462
0.122457
0.0583057
0.108944
0.108744
0.0846333
0.0631541
0.0550999
0.159641
0.02975
0.110037
0.0206685
0.197595
0.110493
0.0554403
0.111944
0.0312538
0.0946083
0.0400305
0.263948
0.0790205
0.090462
0.0372287
0.123552
0.185238
0.0590158
0.224198
0.153696
0.214466
0.0219459
0.125122
0.0418213
0.159198
0.0786769
0.0556689
0.122761
0.0606962
0.0528221
0
0.142363
0.0793001
0.0658754
0.129513
0.155625
0.106765
0.0323835
0.0552252
0.0321725
0.173682
0.1142
0.132185
0.144397
0.0612317
0.13095
0.140154
0.141825
0.00278608
0.0781571
0.11913
0.129631
0.205817
0.117341
0.0759595
0.0512754
0.17421
0
0.138721
0.198609
0.236158
0.0535319
0.12253
0.0482243
0
0.0857858
0.0345449
0.0891324
0.119308
0.0616283
0.0448185
0.133529
0.0360637
0
0.166663
0.0585887
0.125695
0.265628
0.135982
0.086483
0.0845836
0.0247586
0
0.240701
0.0658448
0.118938
0.0652157
0.082367
0.0657911
0.116132
0.0386285
0
0.358374
0.228687
0.134064
0.166286
0.0702767
0.0161496
0.0547736
0.0201691
0
0.0621412
0.0503076
0.103965
0.245167
0.104526
0.0533661
0.0153246
0.0513603
0.0193518
0.031595
0.0373055
0.304586
0.5838
0.157556
0.0410514
0.0397062
0.0419025
0
0.113748
0.0676055
0.0743002
0.130146
0.0538582
0.08217
0.0534552
0.185502
0.032253
0.0602292
0.0223833
0.0632575
0.11577
0.108969
0.0226454
0.00282545
0.0151242
0.00818681
0.00094341
0.00189558
0.147072
0.330841
0.0688791
0.00569633
0.00114862
0.00422556
0.00116954
0
0.0246518
0.430891
0.511637
0.0849331
0.0249514
0.0233196
0.0690385
0.0214452
0.0131518
0.00113735
0.0420681
0.109087
0.0547714
0.0181834
0.0161511
0.0472345
0.0149501
0.0132664
0.0191074
0.232158
0.4093
0.0937642
0.0194836
7.08644e-005
0.00088157
0.00156095
0.00409586
0.0249077
0.384582
0.254555
0.0392828
0.148885
0.041596
0.0386906
0.0684175
0.0447906
0.00752116
0.294484
0.218714
0.0902109
0.0132612
0.00256852
0.00862997
0.00138663
0.00758571
0.0241914
0.281953
0.318742
0.0413036
0.0777316
0.0232631
0.00801196
0.00478654
0.0477864
0.0395439
0.392486
0.366656
0.0569241
0.0874591
0.0664735
0.0753399
0.149416
0.188166
0.036493
0.0763991
0.0494071
0.0432649
0.060595
0.061694
0.116366
0.269637
0.389566
0.0608217
0.00619707
0.0133446
0.0437493
0.147475
0.0968197
0.122079
0.129927
0.087706
0.0403811
0.189864
0.134041
0.0457869
0.0893927
0.181301
0.286614
0.435311
0.269104
0.0118209
0.0185355
0.0075012
0.01791
0.154405
0.0421595
0.0716424
0.120985
0.161311
0.00913338
0
0.0203306
0.260454
0.397702
0.0102537
0.0135901
0.0081421
0.0225735
0
0.000845183
0.00819449
0.624397
0.0416062
0.0726636
0.113175
0.197553
0.223184
0.000994035
0.0071283
0.0023761
0.033829
0.120338
0.0381939
0.063309
0.0137226
0.0598875
0
0.0177968
0.012008
0.127139
0.0713356
0.0807232
0.116952
0.0323336
0.0573155
0.114289
0.0471337
0.143877
0.0959427
0.105735
0.14758
0.14185
0.0538893
0.204984
0.111163
0.0466268
0.0344367
0.108249
0.154028
0.0593856
0.148041
0.0304957
0.0306109
0.1707
0.0772286
0.143538
0.167195
0.188407
0.180865
0.225148
0.0508261
0.145695
0.0940993
0.0987934
0.0375928
0.161114
0.0805636
0.058026
0.11512
0.0433724
0.18803
0.0660752
0.0527923
0.0122473
0.0772594
0.153849
0.0300681
0.13633
0.0919964
0.148166
0.058601
0.111836
0.0318832
0.15036
0.170901
0.16728
0.113216
0.0125596
0.15515
0.0496402
0.0744402
0.0167375
0.137324
0.21322
0.139348
0.126345
0.00843355
0.142074
0.0351606
0.19766
0.0658239
0.188463
0.0769211
0.0236559
0.0837278
0.05854
0.173588
0.00818857
0.0953758
0.0590141
0.0773883
0.0890291
0.0278285
0.0438881
0.0228809
0.266319
0.0135024
0.158673
0.0921279
0.0980032
0.0996041
0.0420782
0.123978
0.0463378
0.148258
0.00491314
0.188844
0.0639458
0.0973368
0.165976
0.0374153
0.145701
0.102838
0.188696
0.0415405
0.231767
0.0726395
0.165976
0.0635115
0.0226363
0.026718
0.00889472
0.242599
0.0673602
0.111747
0.0352873
0.0626931
0.0723734
0.0358985
0.0175063
0.00533683
0.253424
0.177083
0.143145
0.171969
0.0918852
0.0828087
0.109294
0.14377
0.0780991
0.105556
0.069239
0.155614
0.043634
0.0646886
0.0886668
0.234879
0.142904
0.0947605
0.11353
0.0708902
0.194952
0.211717
0.128856
0.0509576
0.0157168
0.0173794
0
0.0610848
0.0695063
0.143816
0.210724
0.0787188
0.110593
0.0531595
0.107721
0.00639106
0.0215195
0.0344431
0.185098
0.122614
0.117158
0.0840849
0.0580721
0.0365374
0.0331125
0.0401286
0.0956527
0.168375
0.265933
0.164647
0.190094
0.0341798
0.072093
0.014131
0.00468023
0.110962
0.262337
0.261069
0.223357
0.0677449
0.0924987
0.11195
0.0352018
0.0610444
0.00491454
0.0643789
0.0723287
0.0711783
0.0690028
0.106485
0.184429
0.048402
0.104906
0.00333058
0.0901888
0.308072
0.152301
0.118985
0.0760036
0.06886
0.0187751
0.0216379
0.0264812
0.131379
0.278726
0.140681
0.0899004
0.204621
0.170195
0.0210618
0.144168
0.06664
0.0782117
0.228267
0.0908182
0.0292756
0.0249519
0.0589859
0.00633743
0.0357941
0.0151576
0.143449
0.307298
0.0662861
0.100335
0.0438049
0.022533
0.00513839
0.0941397
0.0895641
0.388381
0.521066
0.139329
0.0170295
0.104963
0.0984976
0.0295686
0.0670662
0.0300409
0.0559675
0.044685
0.0164572
0.0763952
0.189533
0.0625206
0.0404822
0.0454209
0.0673417
0.182689
0.116455
0.119419
0.179072
0.133062
0.0768964
0.11002
0.0579331
0.0631191
0.159666
0.1664
0.213057
0.144098
0.246496
0.29259
0.408016
0.13436
0.00871672
0.0193706
0.0145038
0.133717
0.125754
0.117258
0.0223656
0.022382
0.0341332
0.0369983
0.122339
0.0732718
0.239849
0.120953
0.158435
0.148761
0.0801162
0.103931
0.00478499
0.0733914
0.0285022
0.175608
0.0287318
0.14283
0.241478
0.285636
0.294021
0.00320711
0.0249538
0.00831793
0.0147183
0.0776997
0.128712
0.128588
0.0155478
0.184448
0.0259968
0.0522124
0.068152
0.119725
0.061158
0.101513
0.154598
0.0527059
0.247566
0.0224497
0.0462728
0.0154243
0.0527499
0.113741
0.0734171
0.0759778
0.00615824
0.277725
0.181977
0.100975
0.0621449
0.138956