0.154538
0.0275784
0.0165571
0.050389
0.029642
0.024275
0.0635542
0.0833073
0.17463
0.34398
0.0666779
0.0137372
0.0045197
0.0303333
0.0327894
0.0309565
0.10254
0.386201
0.18072
0.0514879
0.0345268
0.104828
0.0279832
0.0289702
0.0500694
0.145962
0.201233
0.281174
0.0615659
0.0261281
0.00865741
0.0472527
0.0254437
0.100749
0.39262
0.323378
0.192433
0.040817
0.00739803
0
0.0085144
0.00789107
0.00570327
0.0817965
0.318225
0.224821
0.0593823
0.0154335
0
0
0.0128229
0.0299279
0.173419
0.370977
0.209879
0.0673237
0.0212681
0
0.0141907
0.00764112
0.0310325
0.198109
0.26312
0.363502
0.12823
0.0480512
0.00535908
0.0376914
0
0.0265358
0.154863
0.382925
0.124162
0.137899
0.0225738
0.00391346
0.0101434
0.0184594
0.0410533
0.0929482
0.102692
0.213447
0.414273
0.186174
0.0360055
0.0370531
0.0172299
0.0204998
0.0528199
0.050352
0.163423
0.113231
0.0417437
0.0703588
0.118224
0.0626822
0.0363475
0.10887
0.112143
0.137471
0.289557
0.308098
0.363295
0.338706
0.128592
0.0277276
0.0983413
0.0544698
0.208807
0.189058
0.133997
0.0478942
0.0549472
0.058597
0.0255062
0.070554
0.0718306
0.138948
0.0359843
0.0188326
0.0620518
0.0921693
0.179864
0.10183
0.117762
0.0894289
0.0855561
0.116901
0.265633
0.377419
0.308273
0.0735492
0.0172367
0.059451
0.0458312
0.0725852
0.0174096
0.0672791
0.400208
0.380446
0.145965
0.0573078
0.0545714
0.0347172
0.183871
0.060567
0.0122549
0.0388162
0.0471327
0.12679
0.103728
0.0989077
0.105047
0.249614
0.173813
0.126804
0.14714
0.128311
0.00511947
0.0192532
0.0260573
0.149134
0.181789
0.0854881
0.0230717
0.18993
0.18426
0.150379
0.104132
0.0681958
0.074637
0.267587
0.27984
0.276104
0.200416
0.153926
0.0457453
0.15787
0.142138
0.204657
0.110111
0.0936481
0.0851284
0.0801873
0.104962
0.000180592
0.000421381
0.00314748
0.0279636
0.383107
0.242703
0.0909828
0.0612826
0.0735451
0.00185469
0.00800992
0.0295967
0.056407
0.0610381
0.102351
0.310388
0.280655
0.129766
0.00126415
0.0282486
0.0285657
0.0269233
0.268308
0.354231
0.344162
0.293585
0.0984174
0.0129828
0.0589083
0.0809798
0.0682984
0.196985
0.0792834
0.0126683
0.0127911
0.0240239
0.00277631
0.00767015
0.016156
0.07403
0.294881
0.133818
0.0329092
0.0117481
0.0144144
0.00166578
0.00345276
0.002308
0.186097
0.237836
0.195917
0.0263411
0.0206896
0.0355958
0.0194341
0.053691
0.0433152
0.121521
0.465711
0.613206
0.060208
0.00704888
0.0213575
0.0116605
0.0241693
0.00618789
0.178433
0.156634
0.207264
0.0318394
0.00105237
0
0.00840004
0.00840004
0
0.0683578
0.212025
0.220327
0.0795571
0
0
0.0212906
0.017701
0.0156832
0.0646659
0.259553
0.538524
0.0714127
0.000631423
0
0.00504002
0.00504002
0
0.0346709
0.30203
0.538524
0.10989
0.00827112
0
0.0282348
0.042276
0.0813156
0.0472202
0.185439
0.0641926
0.0576519
0.00160958
0.0149105
0.0461842
0.0722742
0.109377
0.145486
0.0405042
0.0190246
0.0232523
0.0522054
0.164626
0.10588
0.285579
0.152176
0.0875995
0.180808
0.185366
0.0671822
0.0391264
0.0525702
0.156341
0.202616
0.233056
0.0458888
0.014436
0.0181911
0.0192762
0.118004
0.493673
0.30289
0.345645
0.15519
0.00589886
0.12758
0.067266
0.0566369
0.0406892
0.0222591
0.0264874
0.0604869
0.135082
0.137576
0.154645
0.0317502
0.028096
0.0325234
0.0213711
0.0110076
0.204944
0.427891
0.182587
0.263593
0.144631
0.0830227
0.0459376
0.0279381
0.0298398
0.0501525
0.0755367
0.0882877
0.422067
0.214207
0.0709056
0.0647844
0.0364609
0.0431856
0.08704
0.142675
0.175109
0.146587
0.083171
0.0324617
0.00784527
0.006278
0.001702
0.0492989
0.158422
0.0855473
0.208045
0.164783
0.129334
0.031587
0.0810062
0
0.0242603
0.0445159
0.120457
0.201194
0.370782
0.120858
0.0130754
0.0284957
0.00803943
0.0186953
0.0561365
0.0739134
0.228172
0.534625
0.322001
0.0488406
0.0632212
0.0296464
0.0191655
0.0341804
0.0915588
0.0502317
0.0467003
0.0781686
0.0892174
0.22884
0.0615327
0.0261189
0.0331737
0.0293619
0.0558267
0.0320728
0.209621
0.288639
0.446004
0.200661
0.0304442
0.0903898
0.0422921
0.0807177
0.149479
0.191091
0.0474441
0.136733
0.0615186
0.0210213
0.0275485
0.0321267
0.357859
0.248389
0.149673
0.0456784
0.208192
0.200894
0.0506195
0.0883092
0.100745
0.0272733
0.0123829
0.153113
0.164176
0.141337
0.0401216
0.00727798
0.0341861
0.0226002
0.0456958
0.0217598
0.0748308
0.163402
0.153846
0.038497
0.0125649
0.0201123
0.0467387
0.233666
0.240882
0.103913
0.0266484
0.0451308
0.041733
0.0103299
0.0269482
0.0460735
0.478179
0.645426
0.0612003
0.029296
0.0468176
0.0298668
0.00679244
0.0180123
0.0858132
0.0590868
0.0508269
0.00134051
0.0180084
0.0215059
0.0153958
0.00643131
0.00822407
0.0378028
0.108081
0.200056
0.122348
0.0194322
0.00594987
0.00616277
0.0193605
0.0207742
0.0258112
0.321614
0.500097
0.00184913
0.0024932
0.00595215
0.00638164
0.00164958
0.00571245
0.0540711
0.391571
0.580697
0.133784
0.00521771
0.000919618
0.00162126
0.00223272
0.00323412
0.0219161
0.0416636
0.171112
0.234546
0.0679212
0.00744102
0.000182371
0.0103465
0.0104466
0.00309107
0.175429
0.27478
0.182712
0.0671353
0.005638
0.00187295
0.00920206
0.00864733
0.0222449
0.145321
0.526317
0.207146
0.0127209
0
0
0.00141728
0.00147548
0.000374612
0.241178
0.526317
0.18876
0.0161351
0
0
0.000159036
0.00013012
0.00308354
0.223703
0.202894
0.0297703
0.00482136
0.0027565
0.00439989
0.0121557
0.00668597
0.0429884
0.285781
0.427292
0.0533873
0
0.0016539
0.00263993
0.00547194
0.000955139
0.0525717
0.201356
0.47821
0.0963942
0.00275139
0
0
0
0
0.00414247
0.259987
0.47821
0.101976
0
0.00631976
0.00340295
0.0198055
0.00349508
0.0546092
0.189423
0.409478
0.0651177
0
0.00272224
0.013145
0.00344872
0.0161304
0.0475859
0.178222
0.353865
0.0708724
0.0318644
0.0525764
0.0395678
0.0490738
0.0584806
0.03408
0.169424
0.374321
0.0507588
0.0315086
0.124563
0.0950085
0.0733899
0.0382542
0.156833
0.0669401
0.115226
0.0697751
0.099103
0.501953
0.190183
0.0741361
0.0550765
0.0899982
0.059231
0.11154
0.0548
0.116967
0.101753
0.0677674
0.0860771
0.0559438
0.00553738
0.00363382
0.0176289
0.0293687
0.247881
0.356155
0.101789
0.0683795
0.0313231
0.000241434
0.0118794
0.0572125
0.130364
0.334913
0.389035
0.101793
0.0267026
0.00964288
0
0.000467382
0.0232883
0.115531
0.520389
0.318597
0.0600862
0.00940084
0.00115907
0.00157202
0.254165
0.0592971
0.0064925
0.00727597
0.0012876
0.00214574
0.00544128
0.00752211
0.0666499
0.32119
0.0963863
0.0223197
0.00889207
0.00350766
0.00357623
0.00114719
0.0059992
0.0892714
0.52502
0.193061
0.00661171
0.000940483
4.94991e-005
0
0.000640301
0.00326949
0.10975
0.53862
0.308781
0.0863768
0.0256348
0.00838655
0
9.14715e-005
0.0113918
0.130587
0.131226
0.130119
0.0532706
0.00365086
0.0174858
0.00388755
0.000185878
0.00591036
0.0498738
0.103106
0.20923
0.0530072
0.00328667
0.0305217
0.0242633
0.00744828
0.0360056
0.0319378
0.280869
0.317961
0.117568
0.0218265
0.0285198
0.00207971
0.000309797
0.0095249
0.104981
0.398639
0.677097
0.0529579
0.00311807
0.0401438
0.014558
0.00403288
0.0450779
0.0468527
0.077663
0.142892
0.0154071
0.00177629
0.00621504
0.00748946
0.00480012
0.013729
0.00922411
0.206952
0.324694
0.0074132
0.000379606
0.00411242
0.00582654
0.00397846
0.0054723
0.0137919
0.231497
0.529148
0.0173302
0.00121795
0.0041799
0.00348652
0.00173303
0.0123904
0.00280046
0.392673
0.529148
0.0618216
0.00202992
0
0
0.000173382
0.000360382
0.00252226
0.164745
0.297319
0.00763479
8.57899e-005
0.000969519
0.00216748
0.00101786
0.00142417
0.00631629
0.241294
0.468728
0.0218007
0.000600529
0.00086252
0.00129378
0
0.000667427
0.00693336
0.214372
0.468728
0.0524444
0.000823644
0
0
0
0
0.00037297
0.251747
0.468728
0.0897526
0.00420371
0
0
0
0.0020858
0.00112313
0.179646
0.391418
0.032123
0.000216231
0.00011425
0.000171376
0
0.000240318
0.00683074
0.171785
0.46322
0.0876909
0.00467474
0
0
0
0
0.00452937
0.196526
0.46322
0.0697878
0.00151361
0.00875231
0.00218808
0
0.00554939
0.00675554
0.169659
0.46322
0.0961748
0.00280484
0.0145872
0.00364679
0.00214545
0.0518811
0.0455993
0.0956608
0.460532
0.064766
0.00556217
0
0
0
0
0.000364647
0.169379
0.460532
0.0528853
0.00625617
0.00236001
0.000262223
0
0.00211845
0.00173328
0.0952895
0.460532
0.0467887
0.0029732
0.00299719
0.00323554
0.0122504
0.0769451
0.0518283
0.187777
0.460532
0.0230018
0.0305505
0.0325139
0.00813999
0.0177834
0.044002
0.0323875
0.177046
0.534634
0.0542892
0.00277924
0.0061079
0.000945459
0
0.0102048
0.0172021
0.237777
0.534634
0.0357778
0.00817028
0.0687733
0.0161408
0.0256054
0.0132034
0.0529207
0.139462
0.308446
0.0450493
0.072742
0.0742884
0.00855838
0.00414044
0.0453596
0.0403063
0.154511
0.162102
0.0371941
0.0788655
0.259612
0.0368684
0.00365791
0.0436114
0.12129
0.0858522
0.128495
0.00371847
0.0890805
0.219403
0.0464268
0.0498368
0.0116021
0.0454487
0.0123475
0.0103088
0.008534
0.173341
0.466108
0.0788256
0.0316517
0.00963924
0.0223431
0.0726679
0.0188635
0.00348006
0.175611
0.450236
0.0211957
0.00688522
0.00384097
0.0544316
0.00937761
0.000619449
0.00108915
0.388959
0.466108
0.0174166
0.00413113
0.000729024
0.00721975
0
0.00368549
0.0295504
0.21692
0.396227
0.0673669
0.000360651
0.000598417
0
0
0.00221129
0.0558121
0.340218
0.19685
0.038758
0.00139645
0.00478046
0.00357811
0
0
0.00600721
0.35829
0.434713
0.0213179
4.59567e-005
0
0
0
0
0.0235802
0.283977
0.434713
0.0133761
0.00522859
0.0117541
0.00331271
0.155348
0.173639
0.0268493
0.070553
0.00781713
0.00353618
0.00157629
0.000639952
0.0211259
0.245641
0.418591
0.0791447
0.0800677
0.0142343
0.000431349
0.000107837
0.00248616
0.017594
0.0643465
0.12931
0.0795671
0.331452
0.0994267
0.0945138
0.0312378
0.0533322
0.0381255
0.196419
0.369307
0.140275
0.504299
0.118437
0.0585417
0.0357042
0.0953633
0.0531574
0.201241
0.36287
0.0668313
0.0235142
0.0063552
0.000745297
0.000771938
0.00135679
0.016777
0.290065
0.49298
0.0448187
0.0170533
0.00318847
0.00521708
0.00540357
0.00354327
0.00810828
0.194686
0.325151
0.0481732
0.161805
0.0314202
0.0375149
0.0560605
0.0621311
0.0141574
0.22906
0.379394
0.0890175
0.17491
0.115294
0.0689078
0.076992
0.058715
0.010667
0.150252
0.415346
0.0644612
0.0160056
0.000356953
0.00171859
0.00178003
0.00116721
0
0.19764
0.482472
0.0894624
0.00669589
0
0
0
0
0
0.094065
0.310639
0.165487
0.136434
0.128693
0.0440394
0.0347545
0.0349483
0.00129268
0.21918
0.482472
0.109136
0.0366321
0.0539381
0.0104264
0.0192152
0.0564207
0.00430438
0.180481
0.489779
0.0428758
0.000963141
0.00106635
5.61238e-005
0
0
0.00361714
0.274675
0.489779
0.0534323
0.00180014
0.00965385
0.00306882
0
0.00659989
0.0265624
0.225058
0.426946
0.00646173
0.00303874
0.0173223
0.000392867
0.00182063
0.0160703
0.0135005
0.189315
0.263314
0.0578895
0
0.115297
0.0113131
0.022312
0.00575754
0.0454345
0.204643
0.303802
0.0458035
0.000648392
0.0766075
0.0337038
0
0.0175654
0.0193071
0.180844
0.316179
0.083996
0
0.130045
0.0863167
0.0174777
0.136715
0.100106
0.0688562
0.079032
0.0824306
0
0.232931
0.170299
0.0256055
0.013742
0.0199108
0.0532636
0.0969322
0.127921
0
0.481651
0.482918
0.0539188
0.11568
0.0534605
0.0630288
0.188448
0.0363003
0.0401084
0.0507627
0.0989443
0.0671025
0.209822
0.12433
0.0438881
0.111382
0.0207042
0.12094
0.100212
0.0683021
0.0663381
0.0960347
0.0482474
0.0181624
0.0388575
0.0504503
0.122451
0.375596
0.519421
0.0965481
0.153087
0.0605666
0.00453465
0.0234289
0.0247673
0.250749
0.375902
0.300865
0.0663661
0.050089
0.0213052
0.0314065
0.136378
0.069444
0.182423
0.204475
0.0252797
0.0200321
0.089107
0.0315662
0.118204
0.148532
0.152277
0.218311
0.355094
0.0465063
0.00339677
0.0624154
0.176725
0.0355623
0.100869
0.0523241
0.138142
0.307028
0.0688618
0.065047
0.0487819
0.0894752
0.152614
0.373802
0.187655
0.327372
0.211118
0.0526552
0.115079
0.037552
0.150237
0.0382131
0.0249397
0.0164294
0.142431
0.312104
0.00530467
0
0.000951182
0.049966
0.00543551
0.00279682
0.00755023
0.315788
0.441196
0.00335913
0
0
0.00695542
0.02593
0.09289
0.0230155
0.29248
0.309744
0.00760523
0.0236665
0.00063385
0.0204039
0.00198194
0.0117482
0.013607
0.389446
0.441196
0.0157165
0.00322374
0
0.00238986
0.00145312
0
0.0249368
0.400955
0.397931
0.0132029
0.000148663
0
0.000327985
0.0164575
0.000399261
0.0198068
0.216872
0.347778
0.0211193
0.00723375
0.00583279
0.00744907
0.00582963
0.00103624
0.0436589
0.438501
0.378069
0.0549753
8.91977e-005
0
0.000998397
0.076408
0.00796322
0.0291549
0.229389
0.246445
0.0680669
0.00263819
0.00132451
0.0271077
0.00297246
0.0115971
0.0248356
0.153517
0.0855952
0.167359
0.140261
0.131251
0.0498125
0.0208455
0.0366194
0.0469052
0.26126
0.0775675
0.103223
0.220965
0.316667
0.0657168
0
0.000728907
0.00343285
0.0153021
0.070718
0.136278
0.232129
0.130655
0.0372992
0
0
0.000769574
0.0174707
0.0402798
0.109702
0.493864
0.50219
0.0225004
0.0373409
0.0525512
0.0166767
0.0920547
0.0213649
0.0401647
0.140231
0.239919
0.0278296
0.089794
0.0661019
0.0319839
0.117656
0.136806
0.101516
0.129549
0.237835
0.0320122
0.00480542
0.000848015
0.000235575
0.00538913
0.00183506
0.0163178
0.292205
0.523559
0.0284251
0.0336379
0.00593611
0
0.00992642
0.0229368
0.0537934
0.253833
0.534056
0.0931441
0.0356872
0.0664805
0.0575066
0.0894763
0.154449
0.0872039
0.131334
0.200941
0.00580015
0.0621319
0.150339
0.0343925
0.0296975
0.0635511
0.0185505
0.137356
0.419183
0.0117537
0.011284
0.00223034
4.21844e-005
0.0071537
0.0251582
0.0531213
0.236048
0.394458
0.0494037
0.00125206
0.00167331
0.000295291
0.00343841
0.00952074
0.0369051
0.32725
0.535756
0.0199501
0.0656335
0.0751788
0.000920209
0.00341408
0.0224985
0.000188681
0.0421461
0.240615
0.0251556
0.0285759
0.020831
0.0222678
4.02323e-005
0.152461
0.0349443
0.0676959
0.0680858
0.0297105
0.0031967
0.00074493
0.000131458
0.000487726
0.00927234
0.0128796
0.226725
0.601734
0.0326633
0.00167275
0
0.0053509
0.000281626
0.0832524
0.0813169
0.154574
0.601734
0.1388
0.001426
0.00469947
0.0227534
0.00147648
0.159322
0.14698
0.0565568
0.0125761
0.00480378
0
0.00649599
0.0212009
0.00600075
0.430887
0.475516
0.0393289
0.0164533
0.000543105
0
0
0.0175458
0.0176025
0.103713
0.128404
0.0605172
0.119497
0.0620886
0.0408989
0.00275475
0.0183282
0.0541171
0.42517
0.475516
0.133123
0.0887115
0.0299737
0
0.00199427
0.00522371
0.0323714
0.317479
0.426489
0.0249193
0.00986889
0.000473854
0.00242907
0.00152842
0.00828873
0.0672292
0.229444
0.324902
0.0417531
0.00833113
0.00573552
0.0987196
0.0185791
0.00867869
0.0988069
0.298013
0.426489
0.0879523
0.0580772
0.0178889
0.0614143
0.0394085
0.0616278
0.155995
0.1741
0.371896
0.0606639
0.0290813
0.00336525
0.0252422
0.012104
0.0210016
0.0602626
0.144174
0.0913494
0.0703399
0.031327
0.0452359
0.0833858
0.0975146
0.0609941
0.219538
0.280516
0.0693842
0.107118
0.0378394
0.0423219
0.00437216
0.0270809
0.0914403
0.13301
0.13247
0.151254
0.0923184
0.102717
0.00780891
0.0114603
0.0178291
0.0345786
0.323856
0.707323
0.121682
0.0787163
0.0877779
0.00829039
0.0123218
0.0305896
0.0094415
0.259751
0.258754
0.0174651
0.0244005
0.00199768
0.0016631
0.000135046
0.00357133
0.00272747
0.257176
0.44233
0.0338752
0.00306774
0
0
0.00161719
0.00266361
0.00399542
0.307301
0.44233
0.0216665
0.00661369
0.00282107
0.000368204
0
0
0
0.244013
0.44233
0.104606
0.000438248
0
0
0.00419844
0.0013907
0.0128548
0.312325
0.472914
0.0830747
0
0.00045944
0.00455962
0.0578639
0.0100166
0.020021
0.190572
0.188624
0.0560071
0.00189597
0.000813252
0.0246035
0.0192612
0.000198671
0.000893393
0.138714
0.5587
0.295888
0
0.00376983
0.0643713
0.0898931
0.00148722
0.0115803
0.0836023
0.190358
0.145964
0.0132112
0.0390567
0.197991
0.00884816
0.00498168
0.0159089
0.0193085
0.112004
0.0639531
0.159764
0.121504
0.0322451
0.00491736
0.00119309
0.00112397
0.00254656
0.0688136
0.155628
0.462009
0.625132
0.0450997
0.0210406
0.00631903
0.0132908
0.0126639
0.0413019
0.0263432
0.0456678
0.0537567
0.0364372
0.0124686
0.00198849
0.00405972
0.00600898
0.0803529
0.204604
0.283746
0.265877
0.0732052
0.00442677
0
0
0
0.00157809
0.0395056
0.189868
0.396243
0.0373307
0.0147253
0
0
0
0
0.00602848
0.19579
0.585293
0.179
0.0408418
0
0.000287954
0.000431931
0.0110466
0.0670791
0.12017
0.177068
0.0762057
0.133544
0.000976468
0.00525972
0.00131493
0.00220626
0.00834388
0.0650416
0.413151
0.286954
0.00392685
0
0
0
0
0.00530056
0.0881342
0.353684
0.137406
0.00118415
0
0
0
0
0.0279338
0.156585
0.476854
0.0680155
0.0389131
0.00201079
0.00445257
0.0016982
0.00167136
0.000609873
0.0368787
0.425868
0.20718
0.00527891
0.00120647
0.0013493
0.00131242
0.000238766
0.00426911
0.179421
0.519591
0.101031
0.00252158
0
0
0
0.000439684
0.0091396
0.141029
0.386917
0.0206659
0.00151295
0
0.00139688
7.35198e-005
0.00718739
0.0179076
0.157269
0.475885
0.0812154
0.00151295
0
9.45414e-005
0.000141812
0
0.00140642
0.157051
0.475885
0.020734
0.00090777
0
0
0
0.00205691
0.0185122
0.2136
0.475885
0.0262436
0
0
0.00882581
0.011598
0.0206844
0.0390552
0.121224
0.305969
0.0662136
0.082061
0.00494619
0.0105025
0.0288813
0.108839
0.175046
0.22588
0.262448
0.0870881
0
0
0.000466175
0.00108774
0.00273663
0.0212607
0.249147
0.436308
0.0265473
0.056627
0.00219627
0.000776959
0.0018129
0.00450546
0.0169659
0.397515
0.487592
0.0800321
0.287085
0.0764788
0.0134701
0.0933762
0.0983452
0.158714
0.129723
0.164443
0.101765
0.201138
0.178458
0.102357
0.171797
0.0770615
0.110928
0.0242513
0.0386936
0.0199546
0.186375
0.05127
0.00235278
0.00822772
0.00201664
0.00682682
0.219031
0.557354
0.0958062
0.151855
0.123284
0.0254429
0.0195763
0.0368242
0
0.0684181
0.414918
0.0547319
0.0130245
0.0573798
0.0730735
0.0636907
0.0934402
0.0343165
0.03625
0.049174
0.00581299
0.000294241
0.0021498
0.00758669
0.206963
0.604877
0.0420281
0.0627678
0.0462334
0.00570073
0.0198464
0.0385828
0.0200339
0.00685141
0.116276
0.0223197
0.0813395
0.110817
0.0287277
0.000490401
0.00128988
0.00225125
0.226981
0.604877
0.0654098
0.194882
0.038491
0.00570058
0
0
0
0.194195
0.417072
0.00705732
0.0073687
0.00202385
0.000388021
0
0
0
0.163816
0.428918
0.0769014
0
0
0
0
0
0
0.197843
0.428918
0.00926047
0.0270183
0.00311902
0.000134729
0
0
0.0030301
0.346779
0.428918
0.0301169
0
0
0
0.0341337
0
0.000146324
0.0705059
0.48205
0.310463
0.00224938
0.00350343
0.0647352
0.0872401
0
0.00134716
0.0188416
0.134843
0.164859
0.0484482
0.060965
0.209313
0.0211867
0.000441571
0.00762083
0.312266
0.491333
0.141732
0.00374896
0.00150955
0.0148995
0.036727
0.000735952
0.00551974
0.157135
0.313057
0.0884383
0.0453194
0.0228037
0.0504561
0.0454697
0.0233657
0.0372959
0.0567086
0.0438078
0.0433503
0.0725967
0.0417641
0.0514773
0.0236594
0.0176932
0.0358018
0.0531607
0.101855
0.361184
0.477056
0.3
0.0772709
0.118117
0.147966
0.0991868
0.0670421
0.017423
0.00913498
0.0356112
0.0399217
0.0410334
0.0745875
0.201901
0.147792
0.134017
0.00322856
0.135635
0.18056
0.187856
0.0803463
0.0958421
0.00500219
0.00541501
0.00679841
0.0167926
0.169528
0.231917
0.236421
0.125568
0.299721
0.00465521
0.0286845
0.00619367
0.0247819
0.0497615
0.0953828
0.297331
0.337793
0.027605
0.0473316
0.0267962
0.0370415
0.0192494
0.155598
0.154666
0.193947
0.123639
0.0910044
0.0400583
0.101319
0.118078
0.132794
0.304069
0.199202
0.230182
0.13702
0.0506388
0.0050446
0.0124729
0.00583117
0.0133956
0.00135692
0.0347291
0.21327
0.0897127
0.033406
0.0106591
0.0131743
0.0140825
0.0090636
0.00159275
0.230941
0.693824
0.069319
0.157985
0.0590387
0.0367764
0.0509093
0.0436789
0.0309057
0.0201177
0.0313245
0.0187308
0.502108
0.138073
0.0202796
0.0293975
0.0211481
0.00095565
0.0408881
0.116416
0.0503786
0.016658
0.00609364
0.00621409
0.0050568
0.000629406
0.000348459
0.139519
0.489218
0.0322375
0.00974015
0.00946018
0.00989762
0.000652342
0.00512558
0.0209386
0.261749
0.530879
0.0176369
0.26714
0.0836471
0.0170521
0.0079049
0.00104901
0.000209076
0.0616578
0.170574
0.0458912
0.176445
0.121916
0.0801982
0.00352555
0.0291405
0.0705663
0.281635
0.289837
0.0261492
0.000576713
0.00200121
0.00340841
0
0.00513653
0.0314795
0.238524
0.278452
0.0213368
0.00572226
0
0
0
0.00073379
0.0216813
0.304904
0.526329
0.0367421
0.0234108
0.0263586
0.0382836
0.00244352
0.0292027
0.102672
0.292596
0.181753
0.0148134
0
0.000153395
0.00206068
0.000349074
0.00417182
0.0487199
0.261895
0.485092
0.0320351
0.00998983
0.00122598
0
0
0
0.00872817
0.16219
0.449493
0.0112344
0.00945815
0.00269544
0
0
0.0081976
0.00413677
0.156686
0.474653
0.0225413
0
0
0
0
0
0.0129385
0.144675
0.386438
0.0185467
0
0
0
0
0.000574478
0.00689462
0.278331
0.474653
0.0178942
0.00349368
0.00151058
0.00253594
0.00169063
0.0255415
0.0124668
0.0936055
0.327361
0.0190126
0.0112848
0.00605014
0.0278447
0.185172
0.330949
0.0491023
0.0908102
0.133035
0.00403121
0.0272636
0.0069591
0.00422657
0.00281772
0.00178992
0.0093744
0.22644
0.502359
0.0084626
0.190845
0.0520998
0.186115
0.257313
0.179804
0.0318838
0.102962
0.413813
0.0188548
0.00316287
0.00170308
0.0132041
0.185357
0.418622
0.0170493
0.0157872
0.00792499
0
0
0
0.0191476
0.35089
0.324428
0.014452
0
0
0
0.0537218
0.0163037
0.131491
0.256837
0.351153
0.0445458
0.00665866
0.0259618
0.00483576
0
0.000370146
0.0559335
0.417611
0.353732
0.0643154
0
0
0
0.00154843
0.000533875
0.0389728
0.430435
0.297163
0.0393685
0.000613423
6.81581e-005
0.000273252
0.00258071
0.000889792
0.00909875
0.21151
0.332167
0.0513743
0.00966909
0.00580618
0.00045542
0
0.000398504
0.0564626
0.546732
0.287507
0.0337154
0.000944062
0
0
0.00541113
0.00455551
0.00776639
0.157604
0.272899
0.0791088
0.0442343
0.0378538
0.0319156
0.145566
0.197867
0.0989501
0.0195815
0.0694933
0.00596733
0.0633854
0.034555
0.0206983
0.143695
0.282721
0.188387
0.131094
0.0203527
0.0109975
0.114223
0.0686749
0.0575989
0.0635063
0.0697219
0.0703139
0.0177657
0.0719387
0.0417713
0.226667
0.193042
0.0741804
0.118741
0.141509
0.114714
0.249036
0.0792319
0.0250628
0.24962
0.190087
0.0351178
0.038147
0.0377038
0.0211758
0.0314194
0.0525136
0.0807453
0.0390447
0.0403104
0.0545169
0.0656036
0.0373525
0.0676261
0.194029
0.335336
0.454136
0.14921
0.0901283
0.0480222
0.0620294
0.022256
0.0205794
0.0794832
0.0913994
0.0390005
0.0371646
0.0173845
0.0188245
0.0796284
0.0135489
0.0222348
0.136439
0.30138
0.354261
0.313947
0.225315
0.0501917
0.122038
0.0584887
0.0216417
0.0827662
0.0802096
0.0724011
0.0821185
0.0610214
0.0047702
0.453286
0.109921
0.00463757
0.0281417
0.0198078
0.00500999
0.0919911
0.10676
0.0192703
0.02956
0.0168248
0.00364566
0.0458731
0.0588376
0.0804322
0.237943
0.279373
0.0104358
0.129301
0.0263508
0.00032287
0.0159868
0.0136068
0.0130576
0.297035
0.614586
0.112421
0.459624
0.110933
0.00833365
0.00184545
0.000254367
0
0.0309459
0.0573118
0.0364487
0.308191
0.161961
0.0760831
0.00463241
0.0192076
0.0445135
0.0806824
0.0381538
0.0320227
0.141173
0.0193552
0.000657152
0
0.000248969
0.000746908
0.0730603
0.393578
0.307912
0.119769
0.0332365
0.014549
0.00062411
0
0
0.00273714
0.26463
0.440994
0.0590232
0.0497193
0.0595507
0.00552244
0.0242797
0.0764431
0.184127
0.136538
0.0397551
0.00135547
0.00116184
0.00549007
0.00078892
0.00346853
0.0293611
0.285363
0.673766
0.0535081
0.0341998
0.0146317
0.0147153
0.00078892
0
0
0.0145962
0.222432
0.277907
0.0747699
0.0626265
0.00930117
0.000112703
0
0.00960013
0.112434
0.33744
0.185219
0.00188527
0
0
0
0
0.00318212
0.115307
0.359515
0.0278289
0.00113116
0
0
0
0
0.00152136
0.204291
0.543704
0.03606
0.0873132
0.0673217
0.0104379
0
0
0.00491211
0.0716885
0.236287
0.0651101
0.0904187
0.0358951
0.00626271
0
0
0.00070173
0.100584
0.593217
0.102682
0.0265024
0.00522862
0.000636811
0.000424541
0
0.0182747
0.154827
0.400422
0.0081831
0.187793
0.0468477
0.144115
0.0667713
0.0365472
0.0361686
0.14836
0.28816
0.0268024
0.0150521
0.00174977
0
0
0
0.012107
0.066464
0.519265
0.0561656
0.0464908
0.0177015
0.0267479
0.00193043
0.00305151
0.0296963
0.171074
0.519265
0.10788
0.0839121
0.0267313
0.17015
0.210372
0.198857
0.0300785
0.0598102
0.0548696
0.028152
0.00418419
0.00165032
0.0536848
0.457967
0.418504
0.0389959
0.00521267
0.00824687
0.011852
0.0347768
0.050952
0.107692
0.124573
0.0519246
0.00780567
0.113686
0.268322
0.11217
0.0199113
0.0940773
0.19204
0.383202
0.30809
0.00290405
0.011577
0.0688725
0.0535009
0.00525017
0.00248862
0.0234465
0.481687
0.45207
0.0215504
0.00153732
0
0.00262855
0.0297097
0.0248112
0.0092467
0.0891583
0.124089
0.0350075
0.0334849
0.0357105
0.0582871
0.0544688
0.0711607
0.101705
0.331543
0.495902
0.0182951
0.000219617
0.00284869
0.0540258
0.142219
0.0370493
0.0111727
0.038885
0.0745644
0.0112251
0.00184318
0.0366162
0.151153
0.114481
0.0815301
0.0712678
0.0134647
0.0168022
0.0311599
0.120108
0.178603
0.106048
0.0846236
0.0891969
0.0746165
0.140669
0.0441285
0.0345432
0.140693
0.202769
0.0552859
0.153222
0.332148
0.117653
0.0529939
0.0482324
0.151831
0.125954
0.181577
0.119364
0.10611
0.238771
0.10951
0.0660423
0.0871822
0.21775
0.166971
0.131054
0.0783439
0.0667218
0.0325424
0.0538049
0.175765
0.0715963
0.0650423
0.0562245
0.0352564
0.00799257
0.124012
0.100702
0.0633864
0.182825
0.0894991
0.155872
0.257602
0.201737
0.0772146
0.0691773
0.0402872
0.0746652
0.174378
0.0374681
0.156809
0.0624975
0.0189206
0.0259907
0.133494
0.163407
0.250121
0.451917
0.110648
0.178214
0.03657
0.0111638
0.0391557
0.0194957
0.0551961
0.0283254
0.0246407
0.0210729
0.0389007
0.178126
0.269152
0.0230468
0.0323545
0.0465515
0.0180443
0.00781457
0.0153931
0.0305057
0.281324
0.723431
0.248274
0.0415345
0.110059
0.0984125
0.0835344
0.0517482
0.0310576
0.021743
0.0203268
0.00795351
0.0745082
0.0984318
0.0441715
0.0290598
0.0323175
0.0407212
0.123446
0.1233
0.109214
0.0327559
0.0119284
0.000709648
0.000323083
0.00116352
0.00256673
0.045236
0.311904
0.379249
0.0400632
0.00552132
0.00143353
0.00226158
0.00276416
0.00198195
0.0464772
0.462331
0.526352
0.0480784
0.0237359
0.0010144
0.00267778
0.00579086
0.0263726
0.0428457
0.0885699
0.147655
0.0516037
0.013235
0
0.0158311
0.0210634
0.0432813
0.106467
0.2904
0.20076
0.025816
0.000613193
0.000993296
0.000837652
0.0010238
0.00199544
0.0434643
0.392127
0.27549
0.206733
0.166928
0.0157152
0.00111156
0
0.00347982
0.0175101
0.191925
0.260615
0.0557592
0.0010015
0
0.00586357
0.00735217
0.020081
0.0880813
0.312877
0.265354
0.288645
0.155028
0.0110215
0.00778092
0
0.00199544
0.0132792
0.180362
0.432413
0.230602
0.270511
0.0403033
0.00279762
0
0.00295801
0.0149922
0.088414
0.0879054
0.205692
0.125147
0.0252631
0.00167857
0
0.000422572
0.0464535
0.683635
0.162272
0.185684
0.227008
0.0372763
0.0203743
0.00148352
0.002966
0.00415198
0.04919
0.114449
0.144492
0.104791
0.0330073
0.0172871
0.00326303
0.0120579
0.0295856
0.256066
0.135497
0.0246587
0.000441001
0.000125588
0
0
0.000259201
0.0140913
0.4232
0.155333
0.0125327
0
0
0
0
0.00181441
0.0410352
0.516965
0.32699
0.0572051
0.00291969
0.00246364
0.00114203
0.00527623
0.00208921
0.00665235
0.158921
0.191406
0.0573866
0.0101043
0.0129076
0.000475677
0.00816853
0
0.00321791
0.287756
0.463757
0.0708387
0.0880561
0.0477496
0.0207362
0.00487372
0.000771742
0.0364844
0.266607
0.278925
0.177107
0.271794
0.17244
0.11896
0.0652404
0.000711407
0.0044742
0.0476478
0.139227
0.170486
0.080214
0.0195936
0.00160497
0.00127817
0
0.00318008
0.173655
0.453499
0.411998
0.236737
0.0495478
0.0092534
0.00160597
0.000242434
0.0011816
0.0281063
0.316283
0.180779
0.14133
0.0754373
0.0911325
0.079288
0.00281325
0
0.00197234
0.164058
0.325511
0.0244917
0.00179724
0.0103184
0.0117261
0.00168795
2.86595e-005
0.0134366
0.258431
0.353902
0.126958
0.0240288
0.00906575
0.00233632
0.000958701
0.0028761
0.0115364
0.327507
0.49366
0.0399659
0.000147318
0.00655628
0.00139105
0.00142449
0.020846
0.0228137
0.393643