0.0742417
0.0342356
0.0496612
0.217189
0.244264
0.0478164
0.02599
0.0398407
0.0903805
0.0382606
0.0730947
0.124715
0.173007
0.193628
0.0967444
0.049239
0.0578795
0.0315228
0.075359
0.0242708
0.0396591
0.0775555
0.109622
0.241284
0.221707
0.123574
0.0958995
0.0290817
0.0353504
0.208285
0.157896
0.236336
0.157989
0.137722
0.0898146
0.0346718
0.0156838
0.0547058
0.102638
0.124332
0.102524
0.155118
0.0373833
0.0110957
0.00745162
0.0622083
0.109719
0.137177
0.11194
0.198659
0.124141
0.1059
0.114472
0.072759
0.00566864
0.032374
0.123084
0.0940832
0.189658
0.191455
0.045003
0.0430566
0.017229
0.0532472
0.182771
0.151627
0.104154
0.389309
0.227979
0.0746982
0.222168
0.156793
0.0574377
0.10272
0.0494467
0.103727
0.145685
0.0354893
0.06961
0.0990449
0.0685889
0.111362
0.138916
0.0677488
0.127629
0.0691116
0.0267803
0.0558243
0.0780975
0.0921207
0.0906663
0.255104
0.136471
0.157453
0.283995
0.129791
0.0360401
0.108635
0.100627
0.191451
0.218014
0.157449
0.334834
0.136207
0.0974203
0.0916858
0.123773
0.145039
0.108437
0.110219
0.0563041
0.0464346
0.0179527
0.0172015
0.0480267
0.108587
0.107328
0.0747168
0.0997404
0.0528963
0.00223376
0.0744494
0.085406
0.098464
0.0795789
0.0908393
0.127129
0.0861752
0.151407
0.151274
0.0400057
0.091962
0.1724
0.25168
0.209698
0.185384
0.272218
0.0797016
0.0106784
0.20707
0.134047
0.187578
0.241124
0.192073
0.0292537
0.0386601
0.0554682
0.00456767
0.0404603
0.054821
0.0570114
0.0311126
0.047895
0.049768
0.0491008
0.0755931
0.072202
0.0244012
0.0164278
0.0384672
0.066989
0.0875462
0.300687
0.162496
0.0171665
0.000562485
0.0937494
0.021077
0.0571485
0.069653
0.17752
0.357454
0.0847809
0.0559276
0.0195868
0.0209688
0.00234683
0.0340959
0.0590502
0.57887
0.0416325
0.0596457
0.0635166
0.0889571
0.0428824
0
0.033945
0.11433
0.081893
0.0431526
0.0332369
0.0467078
0.0650089
0.16751
0.0340468
0.0838578
0.13284
0.0739724
0.269109
0.102082
0.0696578
0.0480506
0.0284813
0
0.0246971
0.0446096
0.459947
0.217336
0.0540692
0.0343446
0.0515817
0.119086
0.0757836
0.133001
0.101822
0.27544
0.0476498
0.0460046
0.0272365
0.0529667
0.19055
0.0576931
0.0843305
0.134813
0.05365
0.0698935
0.0815217
0.0762837
0.0558277
0.129546
0.0707685
0.230568
0.126961
0.0613902
0.0833032
0.0731607
0.0366397
0.130026
0.209408
0.130517
0.116311
0.0520264
0.105094
0.0530515
0.130715
0.180229
0.24256
0.325982
0.0606019
0.136745
0.0333763
0.0286272
0.0537735
0.0406523
0.0609908
0.0575454
0.127738
0.0715154
0.178913
0.0503638
0.0482412
0.0791549
0.0828684
0.0421875
0.100699
0.215526
0.084484
0.110175
0.0433511
0.0770422
0.076038
0.0394693
0.109324
0.0984395
0.302771
0.0156158
0.0957974
0.0699855
0.0794521
0.0853134
0.0427151
0.0497436
0.116323
0.295661
0.0615664
0.16132
0.172496
0.115763
0.0635491
0.0756811
0.0446667
0.0322408
0.0678174
0.0585471
0.102968
0.0679959
0.081199
0.151765
0.210288
0.103048
0
0.0627448
0.0780279
0.0838613
0.0718747
0.0585075
0.115189
0.0838866
0.0690206
0.0416237
0.129874
0.0448609
0.192066
0.143766
0.0898789
0.264162
0.26487
0.0865288
0.0116708
0.156216
0.0831927
0.157936
0.109209
0.15137
0.0316914
0.01831
0.0123117
0.0556293
0.079619
0.234215
0.183408
0.138709
0.0491926
0.0219826
0.0121227
0.107053
0.116645
0.12064
0.198281
0.132645
0.169114
0.0455361
0.0997662
0.0391211
0.0681729
0.14338
0.159826
0.181783
0.106808
0.10942
0.0617863
0.0913026
0.0462342
0.0938657
0.0955306
0.176173
0.243692
0.193515
0.187833
0.0623248
0.0340484
0.0602954
0.105457
0.0693409
0.071646
0.0500165
0.0196106
0.0714408
0.0491205
0.0782711
0.185451
0.114781
0.0976925
0.203593
0.0589713
0.0360325
0.08866
0.162072
0.10613
0.128149
0.0697851
0.0111698
0.0554313
0.0377888
0.0566971
0.103423
0.075212
0.268689
0.407506
0.291196
0.175855
0.138653
0
0.0342691
0.0366002
0.0752201
0.0305463
0.0702885
0.0319382
0.0608423
0.0581274
0.0150695
0.0273412
0.0285686
0.0285853
0.0842907
0.0922398
0.0530162
0.111187
0.025855
0.020428
0.074041
0.0634035
0.0896342
0.0408073
0.214836
0.162723
0.182765
0.065945
0
0.0408063
0.0280277
0.00589848
0.171646
0.597554
0.298073
0.43084
0.0339788
0.00685271
0.0704869
0.0554831
0.112954
0.115813
0.0301836
0.0278239
0.0286864
0.00473756
0.0179022
0.0602344
0.034278
0.102594
0.237113
0.0972466
0.0115273
0.00237977
0.0231976
0.0172262
0.0375945
0.0633165
0.13029
0.333387
0.334627
0.159742
0.142505
0.000784982
0.00569607
0.0316461
0.0150932
0.156437
0.547398
0.281622
0.171968
0.064808
0.00280081
0.00206324
0.0121266
0.038556
0.258373
0.197052
0.0606983
0.000497195
0
0.00746281
0.00167643
0.00403485
0.0171899
0.107826
0.212937
0.0155383
0.00152733
0.000783053
0.000544917
0
0.0014736
0.0059928
0.278724
0.421775
0.115652
0.0252483
0.00510554
0.000791592
0.000142614
0.000264854
0.0131859
0.229491
0.536403
0.0423966
0
0
0
0
0
0.0250677
0.450078
0.0981274
0.0141323
0.00231923
0.00268644
0.000668364
0
0.000920619
0.0293642
0.261994
0.0489716
0.00990412
0.000949131
0.00353998
0.00460237
0.00640117
0.0111768
0.114668
0.211989
0.237016
0.051491
0
0
0
0
0.0102077
0.119476
0.47728
0.0632987
0.0299893
0
0
0.000220792
0.000515181
0.135876
0.408606
0.516911
0.0222758
0.00775848
0.00268853
0.0137066
0.0150762
0.0226262
0.0347707
0.131549
0.121384
0.0101184
0.0120143
0.0129733
0.0336431
0.0796549
0.0201512
0.043972
0.0608876
0.0325878
0.0170261
0.000974271
0
0.000426155
0.00212217
0.00938226
0.300272
0.551018
0.343588
0.00851248
0.00140215
0
0.00298309
0.0619782
0.0414063
0.340889
0.406418
0.118186
0.0173369
0.00468789
0.0123507
0.0223318
0.145504
0.0176206
0.0561731
0.0472758
0.0229809
0.0260844
0.0212355
0.0818706
0.0707965
0.069896
0.0282535
0.0665262
0.0852339
0.0435668
0.0121482
0.000409008
0.0196568
0.0113075
0.124651
0.090212
0.206984
0.341765
0.0723389
0.016747
0.0281596
0.3218
0.57163
0.152113
0.0407243
0.0624224
0.159546
0.037824
0.0564813
0.0677139
0.07005
0.0313605
0.0171545
0.00390838
0.0119046
0.0272957
0.0339318
0.0966797
0.097029
0.0386651
0.00944436
0.0289175
0.00153792
0.0255808
0.1324
0.158274
0.0612712
0.184049
0.256165
0.324805
0.10452
0.0267575
0.00342683
0.0318469
0.0398262
0.170313
0.318731
0.197189
0.153849
0.0535959
0.0372048
0.0307628
0.47563
0.380626
0.102071
0.0237165
0.0961901
0.0427169
0.142299
0.130392
0.0548804
0.0937475
0.0371134
0.0468539
0.0310592
0.0576962
0.0486702
0.231275
0.12162
0.0643944
0.0873737
0.0164572
0.0537923
0.0410141
0.221043
0.222831
0.198776
0.196271
0.123399
0.207392
0.072065
0.0124127
0.0350461
0.156666
0.330332
0.382418
0.152731
0.0324919
0.0700746
0.015969
0.0207554
0.0318558
0.0232159
0.0261047
0.0352903
0.00538003
0.0110192
0.0208306
0.00979417
0.137749
0.217994
0.177424
0.126246
0.0263348
0
0.00237737
0.00713093
0.0137097
0.0058928
0.0390383
0.11994
0.169774
0.0964808
0.00444746
0.00131064
0.0100054
0.00272252
0.108873
0.368332
0.488894
0.544615
0.128639
0.0396515
0.000187234
0.00198614
0.0040483
0.0665394
0.169283
0.146687
0.096534
0.0098439
0
0.00245536
0.00149608
0.00131133
0.0974274
0.326196
0.239568
0.166293
0.00434605
0
0.00255741
0.00198184
0.00746906
0.0920114
0.241328
0.246094
0.185321
0.0553839
0.0196764
0
0
0.000549803
0.115307
0.427421
0.535375
0.119095
0.0184654
0.00281092
0
0
0
0.114205
0.261929
0.119282
0.0610503
0
0
0.00018701
0.00018701
0.0149928
0.21266
0.257579
0.108403
0.0329887
0
0
0
0.00748996
0.0438834
0.136967
0.421032
0.291602
0.0220719
0.0010747
0
0
0
0.00138384
0.436845
0.472268
0.11105
0.025422
0.0438344
0.016213
0
0.00449397
0.010089
0.28109
0.142341
0.021943
0.0037659
0
0
0
0.0083248
0.107106
0.32155
0.0517348
0
0
0
0
0.0010217
0.027494
0.359007
0.402808
0.214307
0.0487166
0.0382651
0.0549853
0.0351708
0
0.00550741
0.0972041
0.420116
0.111527
0.0544754
0.0532862
0.0424299
0.0245311
0.0423039
0.0620193
0.395716
0.0919344
0.0135383
0
0
0
0
0.0109277
0.116934
0.274435
0.0245607
0.00606991
0
0
0
0
0.101334
0.324932
0.177562
0.131716
0.0328356
0.0412486
0.0513743
0.0609751
0.00193229
0.0576771
0.256312
0.266361
0.015156
0.0285965
0.0414415
0.0252497
0.0359608
0.000707324
0.190409
0.660493
0.210641
0.00356811
0
0
0
0
0.0163438
0.180508
0.252567
0.0768778
0.000462113
0
0
0
0.00390013
0.0364174
0.23956
0.198889
0.0359421
0.00136897
0.00426642
0.00476755
0.00150341
0
0.0270933
0.386027
0.456712
0.081336
0
0
0
0
0
0.0938722
0.513924
0.297657
0.0206061
0.000569013
0
0.0108379
0.00571231
0.0081538
0.0308662
0.183976
0.238735
0.0354501
0.000388133
0.00131981
0.0951063
0.197869
0.144332
0.0183298
0.0511694
0.114571
0.0191568
0
0
0.00704218
0.00889963
0.00672646
0.129798
0.526216
0.367513
0.0395006
0.00562414
0.0104448
0.0492952
0.099989
0.300911
0.099779
0.237145
0.315737
0.0457197
0.00687652
0.0336756
0.0839002
0.175589
0.187562
0.0750198
0.00231302
0.0113484
0.00564374
0.102681
0.108043
0.130035
0.164453
0.133038
0.109745
0.00517299
0.108683
0.104059
0.00414522
0.0075445
0.0177534
0.10213
0.452569
0.136761
0.012645
0.0354678
0.00391818
0.0486666
0.0432068
0.118098
0.394128
0.533898
0.143642
0.00176518
0.00408785
0.0102111
0.0326505
0.0595721
0.108249
0.188641
0.0794496
0.0487489
0.0443998
0.0794064
0.0698439
0.00303816
0.0317617
0.123677
0.38827
0.147799
0.0172887
0.0372036
0.0395121
0.0133551
0.0609812
0.0639798
0.0772212
0.10504
0.07007
0.0471758
0.0739851
0.0325802
0.036715
0.016003
0.0267009
0.0871019
0.60545
0.237619
0.0211962
0.124713
0.0588063
0.0185342
0
0.0181154
0.114591
0.139936
0.0340378
0.000332315
0.0026834
0.00571858
0.000851314
0.0269464
0.164723
0.363197
0.254066
0.0522065
0.021892
0
0.000689158
0.000121616
0.000373171
0.0121887
0.132769
0.360977
0.0659791
0.00196546
0.00919786
0.00594623
0.000931006
0.0183161
0.129601
0.453313
0.529004
0.0676685
0.00312743
0
0.000413495
7.29697e-005
0.0247917
0.100665
0.209107
0.119529
0.0331954
0.0141048
0
0
0
0.0180919
0.145329
0.439379
0.145681
0.0123735
0.00201497
0
0
0
0.0118009
0.0635658
0.34049
0.270673
0.0256729
0.00201497
0
0
0
0.00168584
0.0453107
0.515707
0.417167
0.0103971
0.000287853
0
0
0
0.0790424
0.311948
0.523
0.0688032
0.00795642
0.00409469
0
0
0.000286681
0.247145
0.317472
0.154642
0.107352
0.141774
0.046086
0.0136137
0
0.000952289
0.0177104
0.0737336
0.415826
0.210094
0.0255151
0.0189797
0.000900102
0.00104092
0
0.0307335
0.0440084
0.0986908
0.186383
0.159669
0.12174
0.034574
0.00173487
0
0.150933
0.111613
0.0583653
0.0882692
0.159183
0.122125
0.0613983
0.00178689
0.030494
0.223127
0.0988926
0.0895922
0.213158
0.158462
0.120893
0.11403
0.0542155
0.14115
0.0120698
0.0131754
0.0264024
0.143626
0.262316
0.177269
0.11923
0.00129078
0.00707665
0.0549548
0.023119
0.0292843
0.289897
0.585057
0.222432
0.140706
0.0117987
0.0495365
0.0877213
0.0455222
0.112562
0.299902
0.159751
0.0131572
0.066087
0.141328
0.0863384
0.00297382
0.0500504
0.0987453
0.13901
0.0732535
0.00306365
0.239188
0.408808
0.131746
0.0218747
0.0122098
0.0576133
0.345939
0.48641
0.144125
0.0254496
0.0125934
0.0226774
0.00273647
0.0226102
0.0498094
0.152023
0.169941
0.0783575
0.123359
0.0787697
0.0207161
0
0.00545011
0.00536435
0.00428123
0.000352926
0.0366639
0.322408
0.208275
0.0306115
0
0
0
0.00359085
0.00538628
0.146422
0.433411
0.156174
0.00247902
0.00168434
0.00498913
0.00341662
0.00501982
0.00579629
0.122112
0.242524
0.0606113
0.00469087
0.00024062
0.000160414
0.000122771
0.00603737
0.0237738
0.461959
0.509626
0.0666473
0
0
0
0.000330957
0.00844508
0.013276
0.101088
0.345261
0.201035
0.0054878
0.00937395
0.0174088
0.00250673
0.0255281
0.112884
0.0596634
0.251485
0.238852
0.00782717
0
0
0
0.0164378
0.0522849
0.319481
0.502906
0.154731
0
0.024493
0.0104453
0.00831317
0.0830265
0.130584
0.127672
0.389124
0.189339
0.0188687
0.00703981
0.0130739
0.00102798
0.0410479
0.263321
0.0800666
0.0435122
0.0371563
0.000782956
0.00100569
0.00474267
0.0157601
0.193024
0.448953
0.0565607
0.00428814
0.000142782
0
0.0183942
0.00784436
0.0169707
0.0909147
0.316866
0.0940165
0.0717767
0.0290439
0.0141703
0.00262774
0.0192476
0.0327759
0.162078
0.673953
0.0616163
0.0161451
0.00023797
0.00202433
0.0141436
0.0270736
0.0418447
0.0441219
0.0425044
0.0303466
0.0261681
0.0213018
0.00790605
0.010025
0.00922159
0.0273566
0.333523
0.348781
0.0176994
0.0346713
0.0406978
0.0142983
0.0153216
0.043992
0.0351807
0.0382362
0.0310018
0.0137742
0.0126977
0.0781614
0.0338041
0.00986129
0.0255015
0.0281041
0.295366
0.667343
0.0496864
0.00103556
0.0614312
0.0221377
0.000393228
0.000943147
0.0359232
0.285474
0.185319
0.00359731
0.00332809
0.00331434
0.000834554
0.0105875
0.0124439
0.132811
0.481941
0.196229
0.00613577
0
0
0
0.000277348
0.00104684
0.0202332
0.191301
0.395746
0.0634557
0.00481958
0.0040883
0.000777641
0.00936719
0.000334341
0.0404999
0.285677
0.444603
0.182809
0.0160819
0
0.00301471
0.00845744
0.0069506
0.172276
0.326308
0.16547
0.00330615
0
0
0
0.00192343
0.00400226
0.255425
0.382171
0.14284
0.0027139
0.00169815
0.000840891
0.000241821
0.00748267
0.000267077
0.022948
0.182165
0.460126
0.153085
0.00959936
0
0.0024082
0.00376126
0.00166812
0.0327204
0.176271
0.460505
0.147263
0.0153469
0.00436079
0.0026392
0.0068554
0.0185692
0.28067
0.303117
0.0929685
0.0555352
0.0154072
0.0111482
0.00187268
0.00411324
0.00777398
0.0462033
0.15472
0.198995
0.438104
0.194578
0.0248532
0.00100517
0.0258058
0.00942905
0.0324866
0.112709
0.235042
0.117052
0.0388686
0.0247642
0.018883
0.0154835
0.0142298
0.138731
0.131684
0.170613
0.330421
0.259768
0.0511874
0.0105007
0.020453
0.00492005
0.0126624
0.122989
0.241097
0.160276
0.125593
0.046103
0.00288952
0.143171
0.044297
0.052144
0.246277
0.515726
0.162325
0.0801308
0.0635489
0.0105503
0.0265522
0.0455673
0.159905
0.118355
0.157678
0.105356
0.146924
0.0825121
0.0205743
0.185865
0.117048
0.241174
0.232857
0.244363
0.0851339
0.149726
0.136065
0.127893
0.0665772
0.0289268
0.0551265
0.247536
0.498731
0.264946
0.0141186
0.00982856
0.00401724
0.00428942
0.00786788
0.0158992
0.100061
0.248375
0.17604
0.0326897
0.00553941
0
0.086431
0.0502193
0.12014
0.280262
0.312133
0.195302
0.140939
0.0381049
0.0579913
0.00191751
0.00413571
0.0177176
0.142252
0.242332
0.1975
0.0512881
0.00399797
0.00188347
0.0024413
0.00238974
0.00396224
0.0065646
0.0236277
0.117073
0.0805902
0.00461654
0
0.000348758
0.000292361
0.000663275
0.00525253
0.205052
0.524166
0.276407
0.0079249
0
0.00236731
0.00110687
0.00465466
0.0352167
0.0603549
0.0583826
0.0174743
0.00192308
0.00291392
0.00126095
0.000477357
0.00395157
0.197986
0.630174
0.245405
0.0391331
0.000958835
0.00174835
0
0
0
0.00863937
0.203017
0.278854
0.174498
0.0171802
0
0.0154676
0
0.00612545
0.0602938
0.206266
0.162246
0.123179
0.01722
0.0154676
0
0
0.00972206
0.107073
0.582819
0.170481
0.0198565
0.00051637
0
0.00220966
0
0.0112516
0.0795731
0.525575
0.164354
0.0267678
0.000309822
0.00220966
0.014775
0
0.0159051
0.064421
0.250518
0.0755334
0.0322529
0.00239484
0.014775
0.00211071
0.0589326
0.102439
0.110029
0.487994
0.0250446
0.00948122
3.358e-005
0.00211071
0.00211071
0
0.00305263
0.076273
0.352202
0.0849285
0.0269365
0
0.00211071
0.00030153
0.0522102
0.115694
0.273513
0.600277
0.0561576
0.0119195
0
0.00030153
0.0229412
0.0246192
0.0296369
0.0479733
0.0195795
0.0229806
0.0236198
0.090855
0.0486549
0.0228095
0.0480991
0.0163249
0.201807
0.496379
0.170925
0.00336796
0.0478715
0.025949
0.0319393
0.0167029
0.0366454
0.0674703
0.112058
0.0503472
0.0518843
0.0824015
0.0361693
0.0215884
0.0493428
0.00902829
0.119585
0.433617
0.421655
0.0230953
0.074941
0.0128726
0.00112175
0.00451117
0.0129107
0.0656983
0.25107
0.165282
0.0163527
0.00124177
0.000219136
0.00903244
0
0.0196556
0.0587214
0.235445
0.360071
0.121533
0
0.00903244
0.00173007
0.00635295
0.00183402
0.0136031
0.200346
0.329036
0.059971
0.00986343
2.04171e-005
0.00550051
0.000243139
0.00279004
0.00297627
0.17178
0.507079
0.407259
0.0903302
0.00541946
0.00537382
0
0.00164711
0.0173333
0.158482
0.246626
0.106461
0
0.00537382
0.00171937
6.75077e-005
1.06548e-005
0.0152852
0.177434
0.304274
0.108567
0.00190626
0.00223161
0.00322429
0
0.000224646
0.000249265
0.0275954
0.310753
0.329818
0.0616843
0.00322429
0.000531261
0
0
0.000696507
0.0308091
0.467845
0.516213
0.096982
0.00373853
0.00699953
0.000496515
0
0.0185618
0.111459
0.188165
0.060853
0.00682527
0.0100449
0.00419972
0.00673582
0.0860492
0.115854
0.212817
0.145362
0.0256764
0.00888525
0.00583483
0.000519612
0.00152153
0.00355024
0.015822
0.0631892
0.339327
0.590995
0.185556
0.0241088
0.000311767
0.0115704
0.0371445
0.222144
0.352941
0.19737
0.102194
0.0524518
0.0144653
0.0102415
0.035737
0.119272
0.0988973
0.138998
0.100088
0.0142716
0.011
0.0135383
0.0716907
0.0887873
0.120315
0.172114
0.219578
0.114
0.076204
0.0332139
0.0931383
0.00742326
0.0101331
0.0300398
0.157187
0.373812
0.153093
0.00246742
0.00567156
0.00326285
0.0519628
0.0322823
0.0279502
0.205173
0.638551
0.288149
0.0414485
0.029694
0.02284
0.0382753
0.0340642
0.0304272
0.244494
0.301628
0.12646
0.119725
0.0218549
0.0571012
0.00111847
0.00120727
0.00541442
0.116779
0.168759
0.11503
0.0408491
0.00691575
0.0150454
0.0297861
0.0151123
0.0046393
0.30217
0.567589
0.32448
0.135511
0.0242177
0.0362788
0.0144638
0.0323418
0.0941593
0.153523
0.197423
0.12244
0.121635
0.0196256
0.0530228
0.00162864
0.000593376
0.0200347
0.0598516
0.0358044
0.0163748
0.0055527
0.00289265
0.00450426
0.000977185
0.000179522
0.119818
0.35044
0.252997
0.0172799
0.00538274
0.00112473
0.00215542
0.00305151
0.038691
0.242198
0.11572
0.0177115
0.0107582
0.0138116
0.00494694
0.00713236
0.0110622
0.0287555
0.657019
0.464597
0.0478625
0.00186984
0.00892271
0.000981886
0.000846541
0
0
0.147501
0.322137
0.350144
0.0364648
0.0175431
0.00113236
0
0
0
0.0902908
0.181487
0.35002
0.0872848
0.0485126
0.00792653
0
0.0692296
0.0363698
0.471869
0.339894
0.0526474
0.0529668
0.0329262
0.00792653
0.00898244
0.0724346
0.0417277
0.174736
0.14119
0.17083
0.198375
0.107533
0.0554857
0.0149707
0
0
0.0061675
0.079609
0.200935
0.0366572
0.0266486
0.00194427
0
0
0.00373727
0.0140009
0.156908
0.535842
0.0451929
0.00653189
0
0
0.00435625
0.00388031
0.0118823
0.0944185
0.26486
0.0627965
0.047082
0.0136099
0.0013509
0
0
0
0.21159
0.66338
0.0380369
0.00578179
0
0
0.0317337
0.00676489
0.0568595
0.13536
0.210963
0.0388832
0.0458642
0.0704339
0.0348937
0.0251845
0.0580449
0.0291812
0.173835
0.368092
0.371514
0.0649081
0.0848182
0.0132217
0.0332036
0.00921266
0.101033
0.185736
0.191735
0.046024
0.0656714
0.0648677
0.0413581
0.0808742
0.137744
0.0566604
0.154379
0.239173
0.148988
0.0678676
0.0555416
0.0656604
0.00473152
0.0130235
0
0.00697758
0.0788635
0.235311
0.112276
0.0127947
0.000601539
0.000930219
0.00287766
0
0
0.0665385
0.374575
0.498127
0.112136
0
0.0171354
0.0378709
0
0.0101073
0.0401247
0.132802
0.0831254
0.00622842
0.00445447
0.00430306
0.01297
0.0116314
0.0388542
0.10812
0.47015
0.396371
0.0204502
0
0
0
0
0
0.00561934
0.131889
0.289837
0.0841577
0
0
0
0
0
0.00158637
0.150219
0.573468
0.175642
0.00164375
0.000349577
0
0.00598504
0.0189879
0.0685814
0.126031
0.251967
0.0853583
0.0135821
0.000582628
0
0.000855005
0.00597344
0.0375501
0.0401281
0.528212
0.270514
0.0257317
0.006564
0.00182867
0.0042669
0.00342302
0.00441494
0.057338
0.43283
0.17655
0.0272669
0.0488018
0.0289726
0.0298683
0.0808326
0.067947
0.0406863
0.117211
0.114036
0.0629146
0.0110326
0.0010972
0.00256014
0.000387748
0.00358124
0.0185567
0.419062
0.371218
0.0846791
0.0824569
0.0346336
0.017921
0.0195212
0.0206622
0.0276843
0.126318
0.447667
0.337457
0.0236582
0.0245129
0.0128991
0.123587
0.227592
0.0864813
0.0252528
0.0356211
0.0450038
0.0109403
0.0267973
0.0280624
0.0845583
0.3438
0.265525
0.0737439
0.0608907
0.117008
0.0592326
0.0349581
0.00773944
0.0350631
0.0795178
0.0962052
0.0412344
0.210077
0.38995
0.226978
0.0542809
0.0467707
0.0334656
0.102485
0.159676
0.0733779
0.112979
0.539965
0.0331613
0.0344885
0.0287882
0.0513969
0.163568
0.260096
0.124465
0.0480002
0.0531799
0.114377
0.153613
0.15237
0.0301489
0.0502696
0.0836077
0.114228
0.0478543
0.0257318
0.322092
0.164575
0.0479803
0.0310382
0.0672942
0.107314
0.0613396
0.0633618
0.179931
0.387051
0.574535
0.177863
0.0334446
0.0329609
0.0371969
0.0601408
0.0724777
0.015812
0.0274049
0.142558
0.316824
0.0351994
0.0010109
0.00159707
0.0093876
0.00562036
0.00466357
0.00989134
0.10398
0.546227
0.122413
0.000308403
0.000224273
0.00130497
0.000126648
0
0.0674458
0.330205
0.286289
0.020849
0
0.000309672
0.00441728
0.00713071
0.00145567
0.00286044
0.235924
0.487916
0.0270883
0
0
0
0
0
0.0753692
0.135628
0.422174
0.0767287
0.00153089
0.021495
0.00716513
0.00298708
0.00920138
0.0806612
0.160563
0.196576
0.0490904
0.130574
0.0950079
0.0375736
0.0209096
0.0153356
0.0195034
0.242159
0.553131
0.0186392
0.00828877
0.0028915
0.00588255
0
0.00131448
0.0195055
0.191786
0.359019
0.09519
0.244537
0.0382361
0.0411779
0
0.0021908
0.00564371
0.0230795
0.021938
0.0951177
0.256283
0.036457
0.017029
0.00767761
0.00156299
0
0
0
0.158405
0.619201
0.105396
0.0424613
0.0449903
0.00813076
0.00124269
0.0254484
0.0545732
0.18901
0.323132
0.0272954
0.0147428
0.0031412
0.000223285
0.00799947
0
0.0265439
0.222635
0.430993
0.129303
0.0779722
0.134192
0.0861413
0.0493633
0.0499648
0.103194
0.0829178
0.168685
0.0598744
0.0687061
0.0303156
0.0453094
0.0644859
0.131357
0.0592037
0.089737
0.251327
0.112926
0.059652
0.0265333
0.0439414
0.0499188
0.178603
0.144361
0.10063
0.153916
0.0859585
0.119038
0.02662
0.0168537
0.055367
0.231728
0.187607
0.105624
0.310607
0.0781714
0.0600464
0.0783038
0.097977
0.0119505
0.02753
0.0105537
0.0505246
0.0661857
0.064807
0.0302981
0.00429329
0.00316063
0.00281039
0.00859108
0.0708141
0.369126
0.24974
0.336337
0.13218
0.0012353
0
0.00241028
0.0139935
0.0431967
0.0834283
0.135827
0.0345699
0.0190528
0.0177725
0.0201203
0.0174983
0.00391649
0.0680891
0.456684
0.274684
0.317493
0.260388
0.0587314
0.056303
0.00268954
0.0294816
0.0503222
0.184777
0.201443
0.116087
0.112889
0.062911
0.0490723
0.00448257
0.0538616
0.107794
0.0548249
0.134509
0.0578589
0.35425
0.286189
0.0875967
0.0361422
0.217976
0.0784134
0.202946
0.12668
0.147683
0.137789
0.0266573
0.0969052
0.0504229
0.41223
0.336039
0.0573704
0.0782014
0.0545545
0.0953556
0.19731
0.16032
0.00339617
0.00736437
0.0309721
0.00129386
0.0129225
0.0139382
0.192399
0.365297
0.0654187
0.0255256
0.00514194
0
0.00159183
0.00196555
0.00332523
0.0703676
0.478589
0.295518
0.0234619
0.0596503
0.0992583
0.00215644
0.00791879
0.00924107
0.0713967
0.31064
0.208298
0.0525244
0
0
0.0111428
0.00715695
0.0104129
0.0521213
0.393486
0.306569
0.0452608
0.0051191
0
0.00158476
0.00385292
0.0140379
0.016497
0.198014
0.381695
0.31995
0.0147115
0.00756685
0.00189148
0.00501395
0.0137979
0.010265
0.0684359
0.451303
0.0645691
0
0
0.0110933
0.00639705
0.00381367
0.00897557
0.159427
0.296244
0.269287
0.00306663
0
0.00158476
0.00085333
0
0
0.039048
0.470825
0.371379
0.128194
0.0257726
0.00486095
0.00902749
0.0012207
0.00318131
0.0229525
0.149796
0.245366
0.445346
0.158196
0.0253294
0.00541649
0
0.00281556
0.0285051
0.0238741
0.338527
0.0885524
0.02941
0
0
0
0
0.00814714
0.195267
0.326982
0.387799
0.150595
0.0064132
0
0
0
0.0105468
0.0425347
0.046152
0.34034
0.236205
0.0264628
0
0
0.000379291
0.00383999
0.00170289
0.0152414
0.363715
0.421502
0.0102813
0
0
0
0
0
0.158827
0.39174
0.130076
0.00638368
0
0
0.000775561
0.00412878
0.0121282
0.10365
0.422325
0.192617
0.00446731
6.41104e-005
0
0.00258885
0.004302
0.0261401
0.0229656
0.257705
0.472276
0.0215189
0.0201192
0.0152374
0.00573295
0.000794997
0
0.0120948
0.0736447
0.262629
0.185834
0.354315
0.110912
0.0274107
0.00132499
0
0.0592038
0.204931
0.199832
0.019809
0.0116207
0.0348056
0.0239481
0.00881167
0.0233295
0.0244042
0.0293185
0.0606662
0.112463
0.275831
0.366232
0.138859
0.0293499
0.0189307
0
0.00347711
0.0698401
0.264827
0.291723
0.0731188
0.0273719
0.00114937
0
0.0134464
0
0.0762126
0.263844
0.225553
0.13264
0.131658
0.0976316
0.0988201
0.00116677
0
0.0279133
0.118576
0.248075
0.251863
0.173242
0.0748415
0.0330149
0.0558791
0
0.0387942
0.0787724
0.137083
0.193477
0.347783
0.20926
0.392647
0.125854
0.174977
0.0673795
0.0380343
0.0291167
0.048381
0.0981074
0.0415651
0.0133836
0.0987782
0.185541
0.104924
0.0832177
0.0562719
0.0581507
0.073317
0.101265
0.110432
0.158728
0.239793
0.179221
0.0893283
0.0204334
0.0127574
0.0678681
0.0679966
0.0190878
0.109275
0.183784
0.115116
0.230644
0.0112352
0.101851
0.275542
0.2243
0.0476929
0.00598377
0.0238532
0.0703501
0.0813913
0.0811833
0.0467707
0.0506395
0.0429723
0.0537068
0.0608238
0.00912509
0.0585464
0.199788
0.154145
0.222519
0.496992
0.145704
0.14221
0.0119867
0.0146653
0.0418676
0.107716
0.0404831
0.0633948
0.166699
0.117952
0.0552578
0.0464221
0.024574
0.0803041
0.22133
0.140155
0.118536
0.326427
0.158285
0.151123
0.103489
0.247233
0.0624061
0.0711561
0.03116
0.0924321
0.219333
0.0511263
0.148806
0.185168
0.46314
0.280117
0.0932636
0.0178885
0.0398687
0.0684575
0.079155
0.202524
0.0615642
0.0847326
0.0728281
0.103933
0.0517067
0.0854408
0.178714
0.0426219
0.0752319
0.153291
0.147738
0.149278
0.265708
0.208276
0.128799
0.130248
0.0209892
0.0887275
0.128266
0.0914888
0.112057
0.0580596
0.024863
0.0618417
0.111003
0.191427
0.310206
0.0927692
0.000811361
0.00417359
0.0542573
0.101587
0.0955048
0.101681
0.352019
0.365801
0.12381
0.0466689
0.0675586
0.190108
0.238531
0.170726
0.0955361
0.0406635
0.0876947
0.0453923
0.013793
0.014075
0.108404
0.275897
0.179612
0.0909491
0.208387
0.103696
0.144081
0.000626694
0.000549704
0.0317744
0.0588399
0.0234507
0.00932426
0.143113
0.320028
0.354991
0.00904147
0.00621347
0.014061
0.0122402
0.00263444
0.00301818
0.0510426
0.64508
0.0781853
0.00910686
0.00293105
0.0400281
0.112558
0.0444182
0.0426728
0.13094
0.122909
0.151001
0.0411372
0.0434943
0.0264619
0.033636
0.0259285
0.0530843
0.079754
0.253402
0.401478
0.127465
0.0176853
0.00370112
7.11202e-005
0.000784025
0.000431826
0.0267558
0.300957
0.451588
0.47854
0.0494536
0.0155169
0.00625737
0.00774889
0.00131861
0.0174922
0.0626084
0.146806
0.0864357
0.0592733
0.0153691
0.00432021
0.0134038
0.0109962
0.0502201
0.156804
0.148527
0.179722
0.0454813
0.0286208
0.0145476
0.0741183
0.0183533
0.0642892
0.0957321
0.400127
0.546029
0.0393983
0.00987836
0.0349387
0.00812447
0.0150879
0.0375936
0.0573307
0.20031
0.353689
0.102296
0.0244479
0.0360049
0.000771531
0.0437266
0.0452793
0.0971815
0.102615
0.106371
0.0173115
0.0140142
0.0788567
0.105417
0.0782678
0.0883549
0.0728669
0.0502094
0.0598489
0.0638077
0.032136
0.116875
0.0349652
0.111678
0.0666087
0.0660318
0.0659382
0.111935
0.125629
0.0736363
0.0175194
0.036821
0.0515388
0.0308581
0.0703994
0.0373066
0.0200848
0.0383645
0.0528114
0.154752
0.52328
0.435456
0.167024
0.10162
0.0583392
0.061627
0.103911
0.0815081
0.0635726
0.0217258
0.0540503
0.0381078
0.0392234
0.102709
0.104493
0.114505
0.0662524
0.0760753
0.0989755
0.147517
0.137678
0.0908153
0.00759918
0.00216535
0.00139933
0.00385626
0.0520606
0.138209
0.167588
0.15058
0.130592
0.120473
0.00136717
9.52401e-005
0.00112593
0.0236817
0.0525902
0.149344
0.192875
0.661957
0.0309831
0.0315817
0.0182116
0.0037028
0.00612397
0.0160044
0.0417229
0.079806
0.135087
0.120715
0.0289283
0.0094164
0.000184577
0
0.00125724
0.0108942
0.0623626
0.495992