0.104935
0.0347742
0.0680317
0.146097
0.0986257
0.127527
0.0522333
0.0553862
0.0705609
0.0832565
0.0265191
0.101231
0.222805
0.0654792
0.128729
0.208242
0.14086
0.0501401
0.0733213
0.0212156
0.0487584
0.0510833
0.119628
0.158596
0.103611
0.11072
0.13255
0.153855
0.0284511
0.0262317
0.066441
0.210353
0.10015
0.204536
0.196527
0.1444
0.0315662
0.0122374
0.0738366
0.116663
0.0388916
0.0681444
0.267261
0.166659
0.0716852
0.0723898
0.0462748
0.0534962
0.0670293
0.256816
0.023922
0.190378
0.12457
0.121112
0.134404
0.0374701
0.0681568
0.0763255
0.109463
0.0229766
0.143877
0.132965
0.111828
0.107848
0.0831638
0.142959
0.120572
0.161668
0.0253343
0.119156
0.0484553
0.0991292
0.0479201
0.0416825
0.033561
0.0783267
0.211627
0.025238
0.0729934
0.0333355
0.0470545
0.0242393
0.132092
0.243709
0.144521
0.235386
0.0467397
0.0570318
0.021954
0.00716542
0.0664414
0.0617669
0.086381
0.144612
0.142344
0.0565121
0.0707487
0.059854
0.0552549
0.201478
0.0908955
0.159132
0.204899
0.222156
0.0882835
0.111701
0.0958935
0.133875
0.0199057
0.0951899
0.209419
0.117094
0.0873207
0.0269839
0.0320711
0.00541787
0.0095007
0.058081
0.0516139
0.125937
0.109286
0.0888864
0.133208
0.236732
0.0365794
0.0520489
0.207355
0.110319
0.110928
0.0742866
0.0707403
0.0444567
0.0407539
0.0138196
0.137591
0.408485
0.215366
0.100301
0.0155824
0.0282403
0.0476801
0.0984426
0.0205014
0.231128
0.032124
0.0184925
0.126082
0.0732557
0.0151496
0.0476262
0.123333
0.0263219
0.0312011
0.0468841
0.0265946
0.122901
0.112199
0.0338262
0.031773
0.0838456
0.0408044
0.0454176
0.326401
0.0884933
0.0463321
0.00845399
0.0162859
0.0278278
0.0686708
0.0170905
0.225587
0.482856
0.1168
0.0374888
0.0350571
0.0405186
0.00801045
0.0576788
0.0381624
0.430322
0.0616653
0.0289253
0.0432211
0.0373034
0.0522374
0.0158504
0.11716
0.112253
0.0633662
0.0985785
0.127195
0.11261
0.00756816
0.0298522
0.00544725
0.123375
0.106364
0.084602
0.328231
0.0755129
0.0329028
0.0173136
0.0456672
0.0231884
0.0875865
0.109149
0.41756
0.154429
0.0707327
0.115162
0.0126136
0.0927827
0.0348734
0.13453
0.123277
0.275005
0.0567927
0.0534207
0.0454147
0.0141967
0.0690041
0.0867699
0.0610145
0.034092
0.0493265
0.0368301
0.0118126
0.0235325
0.00851804
0.351144
0.488952
0.336746
0.192542
0.238079
0.033458
0.0396171
0.0801741
0.0236612
0.0930422
0.00677083
0.0556696
0.0439296
0.0532273
0.0489441
0.0326051
0.0712779
0.0141967
0.104537
0.0530689
0.126986
0.0952042
0.156682
0.164039
0.0975445
0.0117948
0.0305644
0.189728
0.16169
0.134042
0.145987
0.282326
0.326201
0.23863
0.0808707
0.0792144
0.167092
0.106446
0.0678275
0.084027
0.413387
0.128303
0.0350322
0.00993272
0
0.0170655
0.0183843
0.0452531
0.0419519
0.210917
0.233359
0.0885074
0.0253593
0.0171466
0.00473669
0.00199293
0.061447
0.0310668
0.291103
0.228683
0.125373
0.115965
0.181247
0.240273
0.153027
0.139893
0.0247452
0.41864
0.0639243
0.0697023
0.0897882
0.124205
0.161245
0.213567
0.0989175
0.0318971
0.0700703
0.15961
0.0757777
0.0821751
0.0988997
0.0636984
0.038204
0.103706
0.0264615
0.184234
0.0672529
0.193102
0.109325
0.0784124
0.0885815
0.101152
0.0654404
0.0197681
0.0306282
0.0376926
0.00135108
0.0037622
0
0.0104457
0.00637395
0.0144389
0.0713226
0.0840783
0.0248347
0.00341953
0.000539516
0.000270647
0.0226659
0.0015578
0.0223206
0.0228747
0.0245943
0.0585033
0.000179152
0.000537457
0
0.00448094
0.019478
0.486179
0.693919
0.144349
0.0341702
0.00340972
0.00617279
0
0.00963757
0.0535827
0.262356
0.277926
0.0604652
0.0603641
0.0181763
0.00645573
0.00635951
0.0967328
0
0.0792255
0.0483253
0.0422605
0.0407235
0.0235461
0.0513579
0.018902
0.108482
0.0046919
0.0773339
0.0430724
0.053871
0.0397578
0.0308184
0.0614321
0.0192189
0.0727787
0.139836
0.321235
0.206285
0.0595325
0.0419886
0.363578
0.494172
0.0320316
0.12555
0.0905303
0.10697
0.10997
0.120214
0.00646434
0.00838826
0.0207562
0.00413752
0.00733698
0.00162879
0.00700636
0.0102984
0.0083536
0.083121
0.0707453
0.0367784
0.0151048
0.00381157
0.0025445
0.00783108
0.0124333
0.0518523
0.00475583
0.194598
0.204425
0.0184615
0.00585924
0.00280238
0.00900355
0.0424379
0.0164699
0.182193
0.619764
0.631123
0.125355
0.00126748
0
0.00720464
0.0555377
0.0627229
0.126904
0.0439321
0.00597027
0.00361477
0.000497876
0.00101372
0.00145603
0.00108842
0.0552872
0.328304
0.0389969
0.00113863
4.00405e-005
0.000235063
0.000473096
0.000248576
2.56951e-005
0.0885251
0.386952
0.40285
0.190295
0.0298286
0
0
0.000645743
0.00462583
0.0772159
0.527864
0.353049
0.0669898
0
0
0
0
0.000794674
0.216203
0.244236
0.0272638
0.000305218
0
0.00042475
0.000288746
0.000280555
6.14353e-005
0.0957553
0.199667
0.0173321
0.000239153
0
0.00066128
4.12495e-005
0.000287229
0.00299592
0.281669
0.474847
0.118189
0.0470746
0
0
0
0
0.00190002
0.273302
0.469041
0.0406956
0.0128315
0
0
0
0.000469599
0.0184282
0.474847
0.0811841
0.0028358
0.000234324
0
0.000234383
0.00128039
0.00145629
0.00912099
0.294349
0.0646775
0.000814454
0.00193863
0.000104459
0.00190767
0.00213399
0.00373749
0.0297714
0.318969
0.254583
0.00113045
0
0
0
0.000182913
0.0249874
0.0551962
0.531423
0.180606
8.43686e-005
0.000177005
0
6.3804e-005
0.000304855
0.0842401
0.272725
0.531423
0.0412294
0.00090852
0.00290575
0.000334645
0.00441738
0.000340365
0.00495799
0.0539555
0.157827
0.022956
0.0016976
0.00221543
0.000200787
0.00627835
0.000348422
0.0186355
0.0442542
0.0499993
0.0746865
6.95357e-005
0.000208607
0
0.000343372
4.86236e-005
0.130513
0.535776
0.440842
0.0415651
0.00281296
2.9801e-005
0
0.000743191
0
0.324394
0.535776
0.118968
0.0504234
0.00910884
0.00591807
0.00115672
0.0108582
0.00123659
0.0283083
0.0243958
0.0539677
0.0449025
0.0217205
0.0141964
0.00825773
0.00176867
0.000176656
0.0202894
0.00687078
0.0456105
0.131416
0.0215405
0.0219593
0.0194363
0.00261157
0.00307782
0.448058
0.764598
0.113669
0.082399
0.0232921
0.0614381
0.0621896
0.0126231
0.0215447
0.0953111
0.119268
0.0429668
0.0844559
0.118544
0.0791093
0.0529285
0.108048
0.00856754
0.0794598
0.0251574
0.0465765
0.0768855
0.254996
0.143871
0.0338666
0.174059
0.0387827
0.0338123
0.0753817
0.0217192
0.0911552
0.103329
0.177699
0.141088
0.211188
0.0423856
0.0450727
0.0346014
0.0311634
0.0912666
0.119242
0.144212
0.014075
0.317694
0.040533
0.0798293
0.0852747
0.0575101
0.00388415
0.000932496
0.00217582
0
0
0.0295825
0.311367
0.272983
0.0117799
0.00346671
0.00139037
0.00333397
0
0.000914889
0.0480025
0.256627
0.246791
0.0086135
0
0.0132827
0.0179613
0
0
0.0658595
0.334364
0.363749
0.01375
0
0.00739615
0.0097188
0
0.0131458
0.139504
0.489772
0.375614
0.00821397
0.000902055
0.0137909
0.0189634
0.00363155
0.00637874
0.0353815
0.101231
0.0709255
0.00191799
0.000800337
0.135235
0.218272
0.0173197
0.0111773
0.0149383
0.0181335
0.00866365
0.00331254
0
0.0524213
0.0439833
0.0721572
0.0646793
0.176079
0.405502
0.14435
0.00132101
0
0.526931
0.526931
0.233221
0.117469
0.0779808
0.0588503
0.0217615
0
0.000178761
0.189555
0.240112
0.0228246
0.00135806
0.00120086
0.00119343
0.00624167
0.00180504
0.0230709
0.34776
0.409624
0.0484982
0
0
0.000952574
0.00852597
0.00305098
0
0.33675
0.409624
0.0672844
0.0310733
0.00143927
0.000214412
2.28128e-005
0
0.000714935
0.343325
0.409624
0.0346466
0.007475
0.000181103
0
0
0
0.133814
0.273581
0.27175
0.0262333
0
0
0.000155396
0.00139857
0.00867728
0.362185
0.277683
0.115388
0.0113201
0
0
0
0.0017884
0.0534114
0.0375985
0.280621
0.432498
0.021043
0
0
0
0
0
0.338319
0.328209
0.27213
0.019089
0.00444084
0
0.00601594
0.00213468
0.0307746
0.321926
0.138277
0.0629773
0.00158404
0
0
0
0.00526002
0.125051
0.353653
0.047277
0.0140825
0
0
0
0.00047826
0.0339948
0.383663
0.406183
0.2134
0.053468
0.01381
0.0152821
0
0.017694
0.00627849
0.0809354
0.407488
0.11908
0.0208474
0.0244106
0.0171693
0.00947729
0.0206473
0.108923
0.350337
0.149436
0.00108409
0
0
0
0
0.030003
0.0954159
0.34421
0.056609
0
0
0
0
0
0.14261
0.277259
0.351051
0.120544
0.0078764
0.00549252
0.0203273
0.0171593
0.0119384
0.0223317
0.222656
0.389389
0.0242272
0
0.00189724
0.010751
0.0119764
0.00337892
0.258527
0.395924
0.37303
0.00890421
0
0
0
0
0
0.156284
0.325811
0.109046
0.00808175
0.00127323
0
0
0
0.0181336
0.306338
0.426099
0.0441419
0.00196358
0
0
0
0.000370568
0
0.351328
0.27804
0.082073
0.000671897
0.000167974
0
0
0
0.0630031
0.392383
0.409064
0.0693152
0.0177077
0.00548561
0.0111213
0.0064722
0.000247289
0.0564947
0.263056
0.308726
0.0169317
0.0108498
0.0145498
0.029365
0.0168709
0.00379808
0.0526817
0.142763
0.093966
0.00244094
0.00211643
0.00331073
0.00769046
0.00322492
0.00232773
0.168137
0.451333
0.378637
0.0250374
0.00126986
0.0198671
0.0246451
0.00686842
0.0896854
0.215104
0.41254
0.389598
0.000259848
0.00688297
0.0282893
0.0573967
0.0311516
0.0515744
0.0468989
0.0591642
0.108252
0.00600558
0.0150897
0.00447029
0.0121117
0.0022981
0.0696417
0.012078
0.0181241
0.0289921
0.0173664
0.00257415
0.0398801
0.0463645
0.0105674
0.521162
0.358277
0.354431
0.502555
0.00483267
0.0173382
0.0118098
0.0249928
0.000805586
0.174147
0.0395304
0.0319186
0.0466875
0.0214506
0.00275942
0.011028
0.0136946
0
0.00454524
0.0808118
0.280241
0.215083
0.0216647
0
0.00724163
0.0101689
0
0.00840344
0.106703
0.46091
0.219035
0.00307267
0.00459903
0.00275525
0.00470928
0
0.0938344
0.238832
0.439929
0.0820297
0.0177313
0
0.00611837
0.0188458
0.0221909
0.0554263
0.205807
0.46091
0.158234
0.0019702
0.00349411
0.0533995
0.0475663
0.0618254
0.0456433
0.0957123
0.383729
0.174304
0.0368419
0.0082976
0.280312
0.301459
0.259584
0.206227
0.0487738
0.0896633
0.0638756
0.0601558
0.0244588
0.066458
0.107007
0.0771317
0.0420985
0.0480328
0.262852
0.184172
0.090383
0.0580832
0.309351
0.320681
0.23417
0.159952
0.019214
0.0814975
0.0734612
0.147101
0.00614159
0.21063
0.284829
0.120132
0.123682
0.00456265
0
0.00142079
0.00664953
0.00329842
0.290824
0.458242
0.052061
0.029627
0.000651807
0
0
0
0.0429911
0.18288
0.230424
0.229393
0.169967
0.00874435
0.00200225
0.00236799
0.0162364
0.0230889
0.184677
0.458242
0.272208
0.110626
0.00124919
0.000286036
0
0
0.00813745
0.377461
0.572901
0.0124137
0
0
0
0
0
0.142079
0.271075
0.328893
0.0052551
0.0330272
0
0.00963116
0.00169962
0.0292562
0
0.189617
0.454269
0.0761353
0.0210938
0
0
0
0
0.00294831
0.0578376
0.114279
0.00741931
0.0606071
0
0.00137588
0.000242803
0.00294831
0.174655
0.127969
0.0482284
0.0480992
0.138661
0.0325219
0.0269381
0.00475379
0.0422658
0.248476
0.131719
0.0378944
0.109118
0.256071
0.0936621
0.0573924
0.091386
0.121338
0.0121258
0.0165563
0.0120248
0.0858204
0.382204
0.0764916
0.0038483
0.000679113
0.00348565
0.0640786
0.0707454
0.0347563
0.281077
0.619874
0.186559
0.0559273
0.00856879
0.00503755
0.102957
0.0304232
0.0139871
0.0736291
0.246906
0.0660343
0.0535083
0.162164
0.172726
0.0318113
0
0.00330529
0.0256911
0.118123
0.0168223
0.284285
0.316507
0.187714
0.0299356
0.0287491
0.0165494
0.15344
0.646955
0.14702
0.129868
0.0106725
0.00575321
0.00757335
0
0.000925762
0.0192474
0.230086
0.0753523
0.132705
0.0574772
0.00781245
0.00356522
0
0
0
0.00234034
0.000805296
0.383426
0.244482
0.0314731
0.00053685
0
0
0
0.00809568
0.0452775
0.49681
0.287848
0.0293525
0.00198205
0
0
0
0.0153555
0.0180477
0.202251
0.107005
0.00198205
0.00317668
0
0
0
0.0880774
0.278654
0.49681
0.158936
0.00806241
0.00104023
0.000384543
0.000256362
0.0138392
0.0357751
0.118579
0.246876
0.175089
0.0120955
0.000624135
0.0026918
0.00179453
0.0230653
0.229898
0.368743
0.238168
0.184839
0.00165773
0.00728158
0
0
0.0230653
0.123342
0.258358
0.275514
0.065278
0.0139528
0.00436895
0
0
0.0384421
0.306883
0.463018
0.299716
0.061971
0.00698634
0.000717186
0.00334275
0.00161906
0.00563003
0.318238
0.318862
0.119184
0.0687459
0.000598266
0.00863661
0.00969037
0.00566793
0.000569643
0.0724979
0.0336045
0.011539
0.00905071
0.00484492
0.0021935
0.00803333
6.11959e-005
0.00938339
0.34204
0.668997
0.31269
0.0491864
0.00449813
0.030263
0.0190034
0.00307812
0.0039875
0.0967315
0.146696
0.0642036
0.0514458
0.0400097
0.00171387
0.00984257
0.010645
0.0248301
0.22143
0.28493
0.200513
0.00835259
0.00183449
0.00248144
0.0060748
0.0205382
0.053104
0.295763
0.308961
0.205359
0.0288057
0.00345329
0.00667876
0.0147163
0.0164948
0.185609
0.295077
0.131113
0.0450525
0.0136419
0.00798116
0.0417244
0.0121204
0.053933
0.284043
0.543016
0.150265
0.0218761
0.00115181
0.0308376
0.0154555
0.0784367
0.154208
0.0991975
0.113708
0.10825
0.0828816
0.0371752
0.032469
0.0299732
0.251429
0.394961
0.269167
0.102743
0.077342
0.0369846
0.011953
0.0477211
0.0615379
0.103461
0.262566
0.0922021
0.180086
0.0963565
0.0298078
0
0.0383057
0.0266453
0.154623
0.386161
0.199498
0.395569
0.213388
0.0339206
0
0.00745604
0.0181726
0.0919661
0.152093
0.295579
0.181724
0.0336706
0.00625384
0.000368235
0.00433231
0.00975984
0.0318065
0.1519
0.375853
0.226994
0.00428265
0.000893406
0
0
0.00179538
0.0195407
0.0678395
0.261745
0.462048
0.148264
0.00946114
0
0.000199486
0
0.000617038
0.0103206
0.263422
0.441486
0.0926911
0.00316505
0
0
0
0.0854732
0.363445
0.409723
0.298303
0
0
0
0
0.000903053
0.0124943
0.0328286
0.047874
0.201655
0.00593678
0.000357771
0.00202737
0
0
0
0
0.216523
0.526532
0.0523677
0
0
0
0.00632137
0.0166714
0.0346978
0.053788
0.18516
0.00989463
0.0025044
0.0141916
0
0.000179046
0.00107541
0.00435504
0.100705
0.26966
0.031548
0.000192819
0.0156541
0.00826099
0.00703936
0.0439891
0.061347
0.366821
0.518753
0.0834516
0.0521125
0.0908053
0.0449803
0.0146198
0.0126041
0.0517191
0.0788432
0.206602
0.00837963
0.00134973
0.0475586
0.0468822
0.142841
0.136377
0.160798
0.229869
0.276494
0.0218346
0.0406449
0.301122
0.295777
0.0208696
0.0661884
0.0809365
0.301014
0.402644
0.158809
0.228576
0.0497155
0.0282136
0.0108159
0.0131398
0.0241189
0.0702831
0.201839
0.133864
0.150092
0.00169227
0.00163749
0.19881
0.181055
0.161352
0.234691
0.197365
0.0851369
0.169496
0.302525
0.242406
0.0716716
0.0501797
0.0753247
0.0979983
0.256973
0.0892327
0.112857
0.0699198
0.0200688
0.000401252
0.000156012
0.000884068
0.00289704
0.0615252
0.039462
0.0457866
0.0120336
0.000401252
0.00207326
0
0
0.00285535
0.288253
0.607824
0.222805
0.0233012
0.00308727
0
0.00109208
0.00618847
0.0106214
0.0952613
0.0169383
0.00300791
0.00195669
0
0
0
0.00289867
0.198905
0.485362
0.363897
0.0294327
0
0
0.0138819
0.00583675
0
0.00457094
0.157037
0.373476
0.150935
0.0272088
0.00915318
0.0289034
0.00972792
0
0.0115455
0.117907
0.359496
0.386013
0.0827714
0.031708
0.0308271
0.0154319
0.00829961
0.177794
0.277614
0.308755
0.0641049
0.00820862
0.00682711
0.0669833
0.042412
0.0475269
0.220895
0.172175
0.270222
0.293894
0.033388
0.0477897
0.0109604
0.00555079
0.00871853
0.0178644
0.0534374
0.272905
0.314085
0.0817285
0.0547043
0.100961
0.0212193
0.0150325
0.0161738
0.0195486
0.0775397
0.107962
0.0960562
0.276551
0.0414569
0.0624339
0.113734
0.208261
0.0643941
0.128903
0.288931
0.0889053
0.146593
0.311853
0.150597
0.126956
0.121001
0.0194041
0.0265181
0.110152
0.116606
0.523614
0.0270258
0.0120332
0.13005
0.197106
0.105843
0.0389633
0.0218189
0.0254146
0.0113376
0.0459025
0.0135782
0.173739
0.345977
0.252637
0.0159508
0.000819458
0.00116134
0.0227985
0.0317225
0.0559508
0.543719
0.15346
0.0355592
0.0807512
0.0159243
0.0198833
0.0103436
0.0243105
0.0764722
0.499039
0.241794
0.113363
0.0123991
0
0.00369288
0.0125741
0.0977312
0.0570512
0.221458
0.109763
0.150598
0.0466001
0.010318
0
0.0363908
0.0717234
0.124517
0.328294
0.129155
0.334193
0.206751
0.0350159
0.0154749
0.0116228
0.0488791
0.087518
0.179223
0.0880627
0.226529
0.107144
0.0342565
0.0939418
0.0408034
0.0431676
0.137401
0.235949
0.0661705
0.219115
0.371347
0.16911
0.332155
0.0243652
0.00492642
0.0192802
0.042416
0.0858845
0.27391
0.285207
0.0217825
0.0089079
0.000547379
0
0
0
0.0426517
0.274106
0.31141
0.0298287
0.00146642
0
0.00295585
0.023294
0.0331467
0.0505412
0.0943632
0.400732
0.125408
0.135135
0.000328428
0
0
0
0.0186461
0.114234
0.489941
0.383091
0.0490794
0
0
0
0
0.0176586
0.202446
0.150952
0.0385626
0.000741831
0
0.00133828
0.008061
0.0199679
0.0334268
0.0757178
0.0225803
0.0138175
0.00583925
0.000275829
0
0
0
0.000656499
0.0997264
0.382058
0.781944
0.0786143
0
0.00166357
0.00253832
0.00409144
0.0162229
0.0459754
0.0391319
0.159067
0.0414752
0.00359437
0.0123304
0.0139882
0.0554982
0.0492339
0.119
0.0587911
0.00454772
0.0129373
0.0147551
0.0995991
0.0918443
0.176095
0.186281
0.229439
0.110551
0.0192767
0.169974
0.124504
0.00274543
0.00555223
0.0188119
0.0485905
0.242774
0.150141
0.0103397
0.00974289
0.00163588
0.0124526
0.0286151
0.0961466
0.418809
0.547921
0.393809
0.00927919
0.0536588
0.00794657
0.0742603
0.057785
0.0836493
0.203191
0.191606
0.0861184
0.0496736
0.204436
0.0988901
0.0183643
0.0108456
0.0241655
0.103108
0.150519
0.0522335
0.0338012
0.0560111
0.0107099
0.00527013
0.0124007
0.055349
0.522505
0.533006
0.271276
0.0166049
0.0644157
0.00880804
0
0.00490835
0.0372224
0.230808
0.204122
0.0995807
0.0154572
0.0144147
0.00125829
0
0.000700225
0.00931028
0.014266
0.060157
0.00347599
0.00222247
0.00162881
0
0
0.000537631
0.0365817
0.344166
0.321766
0.0366721
0.00237332
0
0
0
0.0280715
0.177408
0.0235105
0.0383812
0.00385188
0.0022173
0.000701148
0
0
0.0571178
0.63125
0.467128
0.232337
0.00882049
0
0
0
0.0175795
0.0210061
0.0239433
0.344793
0.201672
0.0551517
0.00708089
0
0.000883936
0.0313197
0.0508942
0.0614395
0.330315
0.221166
0.11725
0.0374735
0.00108191
0.00618755
0.0198684
0.0899485
0.223931
0.401526
0.168551
0.0207403
0
0
0
0.033114
0.129682
0.301943
0.433755
0.231688
0.0746608
0
0
0
0.0319392
0.0615518
0.101179
0.242023
0.215746
0.109879
0.0384134
0.032891
0.101289
0.215034
0.0845319
0.0868164
0.0969424
0.0963396
0.0459279
0.016484
0.0553316
0.546384
0.0159638
0.0536116
0.343987
0.325833
0.245077
0.126605
0.00362757
0.0136178
0.0242783
0.127199
0.0366311
0.143728
0.129855
0.144676
0.0847473
0.025393
0.0293758
0.168245
0.00858043
0.0854474
0.47254
0.0867191
0.023132
0.0257451
0.00191121
0.00492151
0.017212
0.01768
0.135429
0.342371
0.0984926
0.0331241
0.00312837
0
0.00352005
0.00821345
0.0141359
0.202992
0.442336
0.0613184
0.00683989
0.00525048
0
0.00182245
0.0103272
0.0248345
0.241331
0.477982
0.178117
0.00236678
0.000240164
0
0.000502865
0.00117335
0.0128484
0.117228
0.09308
0.0324053
0.0502788
0.0545771
0.0684975
0.100546
0.0215521
0.00465955
0.0499413
0.0336489
0.0105171
0.0397474
0.300659
0.330422
0.268789
0.0129313
0.0117601
0.139733
0.28188
0.126587
0.00215942
0.051861
0.13351
0.0482932
0.00307888
0.00279573
0.0452561
0.0620804
0.0437002
0.000298073
0.332095
0.576616
0.181235
0.00184733
0
0.00222996
0.00180888
0.00754272
0.0137667
0.154082
0.230378
0.131142
0
0
0
0
0.00452563
0.0105044
0.168101
0.47754
0.130597
0
0
0
0
0
0
0.100965
0.47754
0.177147
0
0
0
0
0
0
0.0208927
0.47754
0.294888
0
0
0
0
0
0.00205206
0.0544366
0.408765
0.117671
0.000572136
0.00619085
0.00415803
0.00438168
0.0017528
0.000848052
0.00517708
0.143791
0.0857632
0.00595433
0
0
0
0
0
0.0179308
0.500776
0.351643
0.0160662
0.0595669
0.00654126
0.00633355
0.0017846
0.000274033
0.00781143
0.302921
0.470314
0.216364
0.0121666
0.0119274
0.0114813
0.0564144
0.194073
0.0452477
0.016809
0.0205957
0.00719229
0.0120088
0.0154965
0.0742345
0.31506
0.504832
0.25872
0.0282499
0.0181147
0.0101843
0.122795
0.0187637
0.0343842
0.0696657
0.108277
0.0157989
0.0408044
0.13205
0.324434
0.205532
0.084342
0.14813
0.21255
0.2444
0.168273
0.0456964
0.129173
0.311131
0.00911954
0.0109353
0.0792248
0.257142
0.358964
0.312606
0.030009
0.0116987
0.00546717
0.0139277
0.0659615
0.0839983
0.0614978
0.139349
0.148441
0.0325202
0.0147166
0.0105144
0.246124
0.114379
0.130583
0.104572
0.18124
0.24528
0.0590144
0.075933
0.140477
0.314462
0.447734
0.133048
0.0107493
0.10805
0.134889
0.0663949
0.0475621
0.0949887
0.00377995
0.0914878
0.228963
0.00420968
0.00432072
0.00355058
0.00368439
0.00302922
0.00273875
9.6762e-005
0.145125
0.492277
0.0825901
0.0155141
0.00187399
0
0
0
0.0667386
0.34535
0.367101
0.00432516
0.00408505
0.00310299
0.00670312
0.00676008
0.0101271
0.00197593
0.344837
0.492277
0.00724576
0
0
0
0
0
0.00481014
0.10073
0.294092
0.103545
0.0234257
0.00449091
0
0
0
0.00878174
0.0933782
0.369126
0.315383
0.0509213
0.00684533
0
0
0
0
0.217239
0.464402
0.0366796
0.0012125
0
0
0
0
0.00127471
0.145881
0.464402
0.310456
0.0377309
0.00443227
0.00184663
0
0
0.0230487
0.114959
0.53965
0.375923
0.0715064
0.0239396
0.00175154
0
0.00689017
0.163167
0.087476
0.174201
0.0722092
0.0394238
0.021837
0.0122608
0.00118645
0.0322759
0.0264273
0.113927
0.471205
0.366381
0.087464
0.0243162
0.0101309
0
0.0109778
0.139245
0.0854624
0.0508018
0.032174
0.0296826
0.0145897
0.00607856
0
0.0282436
0.0355193
0.231332
0.30333
0.0557252
0.00192347
0.000807639
0
0
0.0105714
0.0174434
0.344291
0.44583
0.114094
0
0
0.00354466
0.00802938
0.00105799
0.164131
0.387574
0.271414
0.074085
0.000831024
0
0.00112643
0.0057963
0.0331902
0.0465981
0.30779
0.312691
0.0887466
0.0039168
0.00185712
0.00725707
0.0242767
0.02457
0.00769244
0.161916
0.322236
0.103872
0
0.0227084
0.101279
0.0192377
0.00514438
0.00377944
0.0228536
0.0590838
0.0301664
0.00108046
0.118251
0.770268
0.210207
0.0187216
0.0145079
0.110151
0.11269
0.018379
0.00617507
0.00357966
0.0324756
0.0357901
0.0262546
0.0162644
0.00603232
0.0170923
0.000753333
0.00889576
0.0203313
0.253974
0.138273
0.0494874
0.000352031
0
0
0
0.000409881
0.0176389
0.433455
0.154114
0.00238973
0
0
0
0
5.85544e-005
0.0103575
0.433455
0.269703
0.00560429
0.00386253
0
0
0
0.00286916
0.0189662
0.270452
0.128789
0.0174301
0.0129057
0
0
0
0.000409881
0.0322818
0.433455
0.433455
0.130448
0
0
0
0
0
0.027613
0.293179
0.24218
0.0367214
0.03572
0.000805628
0.000608011
0.00105049
0.00279059
0.03434
0.157099
0.291759
0.222841
0.00540846
0
0
0
0
0.0375077
0.203012
0.43668
0.203253
0.0366811
0
0
0.00155033
0.00465099
0.0529293
0.209781
0.43668
0.366943
0.077308
0.00942133
0.00778155
0.0119469
0.0147042
0.0201168
0.0445614
0.0843496
0.342119
0.230623
0.0547685
0.0231301
0.0299025
0.0232086
0.0198186
0.00769464
0.0525352
0.351085
0.13121
0.0118956
0
0.00439523
0.0131857
0.0333064
0.111213
0.115338
0.444296
0.440093
0.0671996
0.000931546
0.0242955
0.0138499
0.00475806
0.0114701
0.0117302
0.444296
0.251432
0.0905368
0.0338087
0.0204337
0.024656
0.0232875
0.00960208
0.0210982
0.12148
0.251681
0.310208
0.076558
0.0165911
0.0162743
0.0126908
0.0128995
0.00968086
0.0586708
0.437722
0.146037
0.0497772
0.0303717
0.0172261
0
0
0.00146814
0.237687
0.434432
0.451462
0.148431
0.0235002
0.0103357
0
0
0
0.0880021
0.0753719
0.247581
0.149726
0.0249989
0.000441733
0.000237856
0.00148139
0.0013251
0.00506482
0.0153275
0.328953
0.417742
0.0149993
0
0
0
0
0
0.233439
0.432855
0.110859
0.0320888
0
0
0
0
0.00997199
0.187038
0.432855
0.324935
0.0214355
0.00302072
0
0
0
0.0167929
0.00115581
0.298898
0.488921
0.00606015
0
0
0
0
0
0.000252224
0.178928
0.488921
0.0656942
0.0137337
0.00275255
0.00225
0
0
0.0400963
0.339876
0.41794
0.00589623
0.0122399
0
0
0
0.00915286
0.000577005
0.108364
0.208631
0.0165162
0.00996241
0.000173077
0.000503021
6.05306e-005
0.000282813
0.0262797
0.222825
0.74335
0.264083
0.128727
0.0475442
0.0382876
0
0.0060803
0.147559
0.126381
0.0702857
0.026784
0.0771402
0.0406884
0.0281848
0.000722536
0.0171721
0.013139
0.122691
0.19372
0.0641318
0.0316472
0.00536642
0.0150105
0.00285766
0.0059351
0.0557364
0.0781351
0.0541787
0.0076487
0.0461867
0.0234896
0.0248332
0.00904923
0.0326462
0.472175
0.587618
0.237964
0.0710962
0.00411683
0.00744454
0.0164311
0.0540115
0.0786806
0.151613
0.223645
0.191839
0.111286
0.041118
0.0290903
0.00748966
0.0505366
0.0969134
0.139974
0.08995
0.0323639
0.0292445
0.0464061
0.0124076
0.025522
0.0380059
0.0282009
0.0872315
0.0848528
0.0298737
0.0531971
0.0635574
0.0311658
0.00789892
0.0148711
0.0467274
0.0850018
0.0993746
0.0912567
0.0578197
0.151783
0.117274
0.0488775
0.118267
0.161083
0.101847
0.00283002
0.00970466
0.00394662
0.0747025
0.145965
0.27195
0.230151
0.208922
0.0917495
0.0798631
0.0303202
0.0933537
0.200651
0.180478
0.0487245
0.0648187
0.0908983
0.0974614
0.0525323
0.0612945
0.0506495
0.0869581
0.187121
0.166284
0.128093
0.111222
0.0222398
0.000819063
0.00300994
0.00102654
0.00973692
0.0619758
0.144703
0.0969812
0.0661611
0.0946781
0.0010032
0.00334125
0.000615922
0.00901116
0.0821467
0.309619
0.698148
0.484927
0.0175868
0.00931249
0.0142608
0.0176632
0.0106632
0.0158286
0.0130065
0.0168084
0.0243278
0.0495144
0.0046203
0.0136759
0.0105979
0.0257306
0.0198668
0.0399035
0.0630166
0.116547
0.0201932
4.95746e-005
0.000148724
0
0.00122975
0.00982325
0.0878441
0.44477
0.214894
0.103404
0
0
0.000300703
0.00122179
0.0107221
0.114314
0.516631
0.518707
0.0166549
0.00109022
0.00355291
0.000524174
0.00669781
0.00379274
0.024852
0.0809383
0.0747662
0.0875246
0.00397731
0.00455901
0.00366922
0.00237518
0.000468202
0.0169231
0.125351
0.316092
0.217273
0.0018407
0
0.000660892
0.00198268
0.00582675
0.037167
0.0909828
0.468869
0.468869
0.0213314
0.000140073
0.00365321
0.00208255
0.000832393
0.00395613
0.00236896
0.468869
0.140084
0.00296999
0.000846731
0.00109138
0
0
0.00185696
0.0326905
0.248046
0.287376
0.00334642
0
0
0
0
0.00296831
0.00739182
0.26805
0.482331
0.0600033
0.0133666
0.00461208
0.00261586
0
0
0
0.32866
0.482331
0.341673
0.0700489
0.003214
0.00156952
0
0.000227695
0.000864136
0.194146
0.264528
0.00961341
0.00391444
0
0
0
0.00150246
0.00124578
0.176696
0.303436
0.0626885
0.0142451
0
0.00170334
0.00073149
0.00241754
0.0108817
0.135064
0.389301
0.604533
0.101704
0.00735068
0.00028711
0.00300587
0.00080784
0.00204802
0.0658242
0.303594
0.478957
0.156289
0.00884922
0.00662292
0.00500978
0.00228882
0.00228556
0.0652712
0.168535
0.108266
0.0192089
0.00130712
0.00316753
0.0103185
0.00766915
0.0172245
0.0653595
0.0766632
0.0505617
0.0163181
0.0035318
0.00239648
0.0156841
0.0100258
0.0137381
0.0429911
0.293871
0.514885
0.555397
0.0278004
0.0826956
0.00291681
0.00324174
0.00266076
0.112174
0.0106982
0.110033
0.234258
0.0591503
0.0653963
0
0.0032955
0.0010985
0.00545871
0.11806
0.0545665
0.0763625
0.0127393
0.0217598
0.01457
0.0283467
0.0204046
0.0663837
0.0225912
0.0616405
0.107786
0.0181587
0.066825
0.0138001
0.0391957
0.0105084
0.0127122
0.0435102
0.113935
0.182752
0.1126
0.0658071
0.0011055
0.0460923
0.0211576
0.0205078
0.153711
0.157074
0.118309
0.0522506
0.116809
0.00973513
0.0621825
0.0662232
0.0749893
0.125202
0.132066
0.155081
0.0424999
0.152698
0.0388041
0.0528471
0.0211622
0.0664869
0.309184
0.212905
0.123101
0.0818982
0.242338
0.00554344
0.0408262
0.0816939
0.149144