0
0
0
0
0
0
0
0
0
0
0
0
0
0
0
0
0
0
0.0385138
0
0
0
0
0
0
0
0.0385138
0.0052982
0
0
0
0
0
0
0
0.0052982
0
0
0
0
0
0
0
0
0
0
0
0
0
0
0
0
0
0
0
0
0
0
0
0
0
0
0
0
0
0
0
0
0
0
0
0
0
0
0
0
0
0
0
0
0
0
0
0
0
0
0
0
0
0
0.00153109
0
0
0
0
0
0
0
0.00153109
0.0886469
0.181079
0
0
0
0
0
0
0.068527
0
0
0
0
0
0
0
0
0
0.00337235
0
0
0
0
0
0
0
0.00337235
0.10947
0.105625
0
0
0
0
0
0
0.0370337
0.832405
0.337112
0
0
0
0
0
0
0.116883
0.00603876
0
0
0
0
0
0
0
0.00565585
0.0204883
0
0
0
0
0
0
0
0.0185356
0.474874
0.135582
0
0
0
0
0
0
0.0595089
0.733845
0.0904992
0
0
0
0
0
0.00272091
0.364657
0.0162156
0.00183646
0.00108797
0.00089016
0.000491989
0
0
0
0.0126445
0.0215725
0.0470976
0.0840609
0.0634474
0.0105145
0
0
0
0.00531313
0.392561
0.04181
0.00181329
0.0014836
0.000295193
0
0
0.0110627
0.466638
0.259772
0.295764
0.410132
0.359893
0.0136571
0
0
0.0115033
0.307164
0.0115415
0.110281
0.171012
0.0377506
0.00433648
0
0
0
0.000633068
0.0204942
0.243012
0.434934
0.0596836
0.00169675
0
0
0
0.000296867
0.0353434
0.191324
0.395818
0.260501
0.00576057
0
0
0.000436209
0.0159437
0.0277961
0.355199
0.434934
0.287609
0.00659494
0
0
0
0.0156044
0.0133032
0.155488
0.431133
0.0622747
0.000153211
0
0.00157336
0
2.92135e-005
0.00189628
0.212822
0.431133
0.0512642
0.00155395
0
0.0110135
0
0
0.0186153
0.240726
0.431133
0.132423
0.00338385
0
0
0
0.0108406
0.00438597
0.243222
0.431133
0.0490918
0.000300683
0
0
0.000864483
0.00432089
0.0154964
0.267264
0.532739
0.0310342
0.00729113
0
0.00699352
0
0.00815525
0.0701057
0.184199
0.446139
0.0229406
0.0173999
0.0237101
0.0157059
0.00218849
0.038722
0.0261597
0.178645
0.532739
0.015058
0
0
0.000353543
0.00276097
0.0175363
0.0620841
0.0646806
0.146571
0.00312377
0.00522622
0.011722
0.0193503
0.023731
0.0470455
0.0293736
0
0
0
0.00024181
0
0.0015134
0.00273461
0.0512028
0.0415561
0
0
0
0.000403018
0
0.000908039
0.000621271
0.0507649
0.369138
0.00173088
0.00161854
0.0014621
0.000403018
0
0.00461049
0.00641391
0.502119
0.433479
0.00103853
0.00812071
0.00823432
0.000671696
0
0.0396657
0.0469264
0.594447
0.05188
0
0
0
0.000107816
0
0
0
0.0530882
0.0178391
0.000567923
0.000305805
0
0
0
0
0
0.0178391
0.411907
0
0.0113889
0.00822942
0.0165291
0.0867473
0.317238
0.191873
0.633976
0.124358
0.00397546
0.0325588
0.0234634
0.12123
0.144579
0.311094
0.100778
0.149761
0.00391306
0.00693056
0.000813962
0
0
0
0
0
0.00199896
0.0346408
0.142247
0.0243649
0
0
0
0
0
0.00984794
0.0121526
0.0811949
0.189488
0.0217808
0.0268302
0.0107387
0.0140138
0
0.00514432
0.0578583
0.663682
0.651388
0.0098067
0.000531908
0
0
0
0.0117659
0.050636
0.203834
0.0299459
0
0
0
0
0
0.00801975
0.343437
0.347143
0.0192045
0
0
0
0
0
0.0177462
0.0571151
0.484001
0.224062
0
0
0
0.000699374
0.000123419
0.00335502
0.373722
0.484001
0.07834
0
0
0
0.00116562
0.000205698
0.0130974
0.422442
0.186175
0.000574402
0
0
0
0
2.47021e-005
0.0180777
0.43297
0.108581
0
0
0
0
0
0.00466054
0.191092
0.43297
0.257772
0.0034997
0
0
0
0.000146447
0.000198758
0.0410462
0.43297
0.102905
0.000141985
0
0
0
0
0.00544862
0.232908
0.274573
0.0304276
0.000126525
0.000103521
0
0
0
0.0199195
0.406737
0.204426
0.167018
0.125004
0.111018
0.00473312
0.00130812
0.00346812
0.021966
0.372261
0.215515
0.0171947
0
0
0
0
0
0.0229301
0.43434
0.193331
0.0605323
0.0235169
0.0117238
0.0065406
0.0021802
0.029804
0.0815691
0.438733
0.131913
0.233398
0.325087
0.300214
0.027115
0.00846506
0.0106756
0.0159646
0.128092
0.0747468
0.264396
0.291952
0.449923
0.0560055
0.016912
0.00884185
0.014185
0.0900645
0.149346
0.0896848
0.0453368
0.0355907
0.0455986
0.0185543
0.102725
0.157277
0.250444
0.103899
0.0766433
0.041801
0.138602
0.0827976
0.138426
0.15364
0.186142
0.167765
0.0728645
0.311555
0.350591
0.273169
0.0210143
0.0185539
0.0144422
0.0023967
0.0710701
0.043431
0.303188
0.584237
0.0648729
0.000705191
0.00948983
0.017312
0.00937029
0.0298261
0.0904473
0.108348
0.0634662
0.105411
0.0239947
0.186022
0.191972
0.0716756
0.0753184
0.0553153
0.123008
0.0924528
0.0155087
0.000100742
0.0788975
0.182449
0.0774451
0.0307044
0.0612182
0.237966
0.650606
0.0477678
0
0.00143283
0.0225982
0.0642788
0.160834
0.113737
0.0536033
0.0680799
0.00985765
0.00978303
0.0109515
0.0782243
0.156768
0.23208
0.05037
0.12569
0.100027
0.0064079
0
0.0355769
0.162798
0.193686
0.144982
0.0743989
0.121411
0.0506757
0.0250637
0.0489655
0.040216
0.110894
0.150545
0.205493
0.349732
0.00836542
0.00588113
0.00531266
7.29083e-005
0
0.00969463
0.0145465
0.407681
0.347334
0.00407018
0.0295074
0.0316408
0.0425028
0.0274907
0.0774946
0.0872377
0.566763
0.148838
0.030154
0.0251036
0.00649205
0.0184394
0.0356971
0.0362338
0.055577
0.126023
0.131545
0.012608
0.0306494
0.0627967
0.267021
0.0580067
0.0935653
0.0494337
0.162766
0.069209
0
0.0114366
0.015712
0.0943771
0.0931208
0.175524
0.0828416
0.149422
0.0168867
0.000540276
0.0629066
0.0759258
0.214777
0.1251
0.172831
0.0427575
0.0262712
0.0126931
0
0.0134848
0.109213
0.426988
0.0953669
0.0789596
0.0232984
0.0245742
0
0.00333699
0.380202
0.392295
0.488961
0.10788
0.0665674
0.0101059
0.00134064
0.00161623
0.0526932
0.266925
0.0747496
0.0429622
0.0111385
0.0101093
0
0.00060875
0.0123772
0.33624
0.444204
0.0397919
0.00269894
0
0
0
0.000616334
0
0.0461758
0.444204
0.303609
0.0742289
0.0247159
0.00657358
0
0
0.0131998
0.148764
0.444204
0.208135
0.0298
0.0250159
0.00441457
0
0
0.0321946
0.429678
0.282975
0.0045342
0.00106245
0
0.00202594
0.000357518
0.000228967
0.112851
0.445296
0.123738
0.00122184
0.000215619
0
0.00337656
0.000595864
0.0066266
0.0271364
0.268948
0.342627
0.0621132
0.0127217
0.00411775
0.00194222
0.000214511
0
0.0326093
0.443606
0.266271
0.0198475
0.012665
0.000190945
0.00202594
0.000357518
0.000539449
0.299954
0.333659
0.0510657
0.00638685
0.000316523
0
0.000670817
0.000225572
0.0407054
0.503608
0.103859
0.0117545
0.0249561
4.52176e-005
0
0
0.00670578
0.286826
0.11938
0.286535
0.13584
0.0750887
0.0427431
0.00448415
0.00644704
7.10278e-005
0.00532035
0.36671
0.0851958
0.0820611
0.210578
0.220296
0.0262435
0.0100742
0.0378327
0.1608
0.199134
0.00710509
0.00170205
0.00781934
0
0
0.00103805
0.0546097
0.40448
0.099536
0.000292992
0
0
0.00123738
0.000412461
0.0895752
0.257988
0.403503
0.214115
0.0214022
0.026368
0.0790281
0.185627
0.0311443
0.00851397
0.185097
0.300461
0.0485261
0.00465396
0.0178791
0.0456545
0.187224
0.048554
0.156383
0.392697
0.245061
0.0474539
0
0
0.000544641
0.01524
0.0137656
0.203513
0.24405
0.129617
0.0261964
0.000460192
0.00148989
0.00977204
0.0276627
0.130215
0.280052
0.234189
0.101601
0.0176886
0
0.0037948
0.0177677
0.0783617
0.0382023
0.363984
0.307123
0.0482688
0.00868676
0.00427483
0.00183207
0.00132242
0.0315459
0.12819
0.556331
0.309757
0.0471657
0.0143531
0.00293348
0.00211751
0.00981592
0.025412
0.15358
0.313174
0.155809
0.0615088
0.00673364
0.0116778
0.00289736
0.00113513
0.0339213
0.0821619
0.300503
0.190743
0.0425273
0
0.0154933
0.010349
0.00158959
0.0827726
0.160386
0.538253
0.19544
0.0490423
0
0.00929597
0.0101657
0.0142285
0.144033
0.275157
0.381791
0.199863
0.0552388
0.0164106
0.0339312
0.0151733
0
0.0506455
0.103121
0.232225
0.211633
0.0484555
0.0624009
0.086223
0.0414287
0.0134268
0.0559714
0.060531
0.0873558
0.0753014
0.0481078
0.00368222
0.0156123
0.0110236
0.0313573
0.222086
0.566639
0.356187
0.230602
0.0470003
0.0741918
0.0375764
0.0280404
0.0452588
0.111618
0.275118
0.224861
0.153835
0.0586371
0.120226
0.0386586
0.0813797
0.0260065
0.158596
0.127288
0.0670974
0.0670611
0.153924
0.152772
0.0318276
0.0251551
0.138507
0.474553
0.0530374
0.115201
0.0120323
0.183759
0.125215
0.110716
0.173543
0.0598886
0.26046
0.0758739
0.0324338
0.0229846
0.117901
0.149562
0.0485723
0.0427803
0.161327
0.496974
0.0389035
0.0976171
0.0282629
0.140895
0.00787052
0.00163314
0.0128378
0.0932242
0.338151
0.025483
0.0123839
0.00702369
0.00734005
0
0.00799317
0.362635
0.392178
0.317062
0.031436
0.00333241
0.00999722
0
0.0192982
0.00328767
0.0174314
0.118316
0.268281
0.0263977
0.0329333
0.0446935
0.0542424
0.019434
0.00776895
0.284649
0.451099
0.224354
0.0542484
0.0299828
0.0699806
0.0825689
0
0.0244901
0.402884
0.314203
0.0503886
0.0205351
0.00335726
0.00127745
0
0.00200499
0.0400819
0.346652
0.253245
0.0377634
0.0276858
0.00488574
0
0.00025139
0.00248329
0.0199393
0.256239
0.423009
0.0870304
0.024326
0.0033995
0.00894215
0.0105507
0.000195526
0.0147224
0.297821
0.39381
0.0894013
0.00650693
0.000697962
0
0.00175973
0.00925235
0.219121
0.545239
0.266748
0.0405856
0.00945444
0.00166843
0
0.00172429
0.0151119
0.286209
0.307388
0.0587815
0.0647719
0.00559549
0.00362898
0.00120966
0.00103457
0.0066525
0.0256726
0.391933
0.369535
0.0876025
0.00135063
0.000238347
0
0.0128371
0.0135801
0.0262068
0.101841
0.0541308
0.0941702
0.0257185
0.00874867
0.0020161
0.0085205
0.0121805
0.0498966
0.0596262
0.065694
0.100452
0.0242342
0.0357701
0.00266906
9.21038e-005
0.0671077
0.0171808
0.0604603
0.139637
0.548941
0.131032
0.0510758
0.0192712
0.0444377
0.00237537
0.00252439
0.023018
0.0613905
0.139936
0.0608193
0.0518479
0.00444844
0.000140446
0.00695757
0.0240752
0.0573305
0.124938
0.663721
0.249402
0.0873124
0.0236522
0.0104105
0.0516161
0.0191739
0.053148
0.0973233
0.407894
0.084611
0.00803716
0.067171
0.0936042
0.0161073
0.00875678
0.0567171
0.147726
0.371491
0.0967784
0.0390607
0.100421
0.0608517
0.0152448
0.0625876
0.0811315
0.146525
0.478871
0.139726
0.0178683
0.0169138
0.013123
0.00985378
0.0480444
0.0678499
0.263188
0.418918
0.141997
0.00132022
0.00241625
0.00533367
0.0164637
0
0.0137845
0.0528239
0.158056
0.0850299
0.167241
0.0842512
0.00782351
0.00987821
0.00571252
0.00244822
0.00573458
0.0539029
0.231851
0.653701
0.126885
0.00848811
0.00235196
0.00271566
0.011019
0.103566
0.181719
0.134178
0.0240915
0.00599886
0.000751962
0.00141117
0.000816074
0.00136047
0.0235548
0.1105
0.461559
0.274526
0.0332181
0.00174463
0
0.0201146
0.0462759
0.00717485
0.0988302
0.22352
0.438947
0.072655
0.00517023
0
0.0153496
0.100154
0.0471268
0.196497
0.190762
0.19674
0.0380799
0.0105852
0
0.0135067
0.0855972
0.0364167
0.107239
0.486948
0.358421
0.0197199
0.000456827
0
0.0199147
0.192911
0.112002
0.214773
0.178631
0.169333
0.0231569
0
0
0.0201749
0.0527994
0.0696385
0.301695
0.358517
0.125661
0.0433335
0.00780776
0.0328261
0.0374244
0.0249365
0.040888
0.141964
0.19657
0.112009
0.0863056
0.0505181
0
0.01623
0.0912801
0.101288
0.523597
0.276156
0.0213852
0.0182404
0
0.0788609
0.0937683
0.0490478
0.0883703
0.342392
0.198676
0.0263477
0.0185987
0.0291953
0.148085
0.11904
0.142039
0.0971357
0.122653
0.0281961
0.0223597
0.0533025
0.0340252
0.145315
0.0375742
0.0590398
0.172692
0.341402
0.0378657
0.105033
0.121987
0.0462216
0.0917005
0.0417066
0.0873285
0.158251
0.32601
0.176895
0.0801072
0.102031
0.0648945
0.116966
0.0479934
0.23276
0.188193
0.401114
0.234367
0.122032
0.189527
0.130734
0.0408147
0.0021347
0.0162427
0.14564
0.179395
0.0258394
0.0408876
0.0435374
0.124262
0.0552846
0.00207085
0.1576
0.438002
0.235963
0.0619762
0.0266326
0.0445662
0.202461
0.140124
0.00818347
0.0905187
0.0934817
0.161564
0.126287
0.0561855
0.0329131
0.127438
0.223403
0.0027774
0.0645123
0.126762
0.46373
0.343967
0.0287812
0.00633746
0.196455
0.00583302
0.00438856
0.0878944
0.265133
0.244434
0.0301628
0.00156738
0.00470214
0.0213615
0.000359564
0.00265098
0.0867251
0.306736
0.326559
0.00756344
0
0
0.00118208
0.023571
0
0.0111599
0.077593
0.507337
0.157297
0
0
0.0207278
0.000427915
0.000124926
0.00225004
0.100847
0.529753
0.14185
0
0.00034646
0.000851366
0.0197889
0.00243553
0.170908
0.372986
0.377017
0.0100952
0.00025602
0
0.0199387
0.0334554
0.0204227
0.0634553
0.0335988
0.0895759
0.0567716
0.0192489
0.000629448
0.0226088
0.0131518
0.00654083
0.0206834
0.106023
0.674817
0.168895
0.00179214
0.00383534
0.0163023
0.0289131
0.0831708
0.0659906
0.0998413
0.0744365
0.0287638
0.0131472
0.0023012
0.0258091
0.00462365
0.0232486
0.0210595
0.0522028
0.107382
0.0938871
0.0702756
0.0106801
0.00254248
0.0641515
0.0728547
0.0754766
0.105136
0.441504
0.292817
0.153181
0.107302
0.0657317
0.00780923
0.155888
0.130024
0.0954507
0.0628649
0.0546095
0.04341
0.0162077
0.0044356
0.248713
0.33743
0.346706
0.230855
0.265328
0.160443
0.116348
0.0813257
0.0965685
0.124245
0.15575
0.087707
0.112381
0.238282
0.131607
0.0409018
0.0765914
0.0696897
0.0954041
0.141363
0.0631762
0.28348
0.265121
0.067781
0.0153486
0.0113796
0.029705
0.344958
0.207597
0.116494
0.132513
0.137841
0.0939307
0.156502
0.0485352
0.188861
0.205641
0.0930557
0.0314568
0.188249
0.351816
0.0850913
0.237294
0.0113782
0.165226
0.0142773
0.0187779
0.0158809
0.215541
0.223911
0.0775919
0.0170605
0.0142291
0.00769103
0.00488245
0.00516906
0.00609816
0.0709534
0.20241
0.438701
0.149077
0.0520744
0.0115295
0.0288602
0.0185374
0.0215236
0.158296
0.40407
0.0636741
0.0944675
0.00829983
0.0295554
0.00813742
0.0361834
0.054484
0.440986
0.311014
0.132029
0.0512595
0.0204677
0.0113325
0.000976661
0.00451582
0.0328828
0.0838957
0.154897
0.30523
0.170167
0.0118077
0.0016852
0
0.00580305
0.0620183
0.129254
0.182535
0.206372
0.134499
0.0220745
0
0.00162777
0.00723795
0.0519148
0.438325
0.339502
0.11735
0.0382802
0.00386707
0.00189423
0
0
0.0463101
0.314174
0.391415
0.251163
0.13163
0.0031535
0
0
0.00553665
0.0238593
0.0631
0.366778
0.199167
0.0326733
0.0140887
0
0.0374563
0.0994136
0.063662
0.128145
0.27918
0.0969893
0.00804533
0
0.00212981
0.00218982
0.0072002
0.0177678
0.161029
0.492792
0.312419
0.0866528
0.0105049
0.000943577
0.105294
0.0968691
0.0668347
0.262697
0.321485
0.116821
0.0500862
0.0594454
0.0466927
0.0195897
0.0180306
0.0520853
0.0875204
0.165354
0.188292
0.0640509
0.0511631
0.0759985
0.0352759
0.0275372
0.356972
0.0938993
0.209916
0.214341
0.107559
0.106066
0.16994
0.0781739
0.0559404
0.0712452
0.0495406
0.0395188
0.126202
0.0532277
0.0674785
0.141144
0.133643
0.0506657
0.257549
0.122755
0.267302
0.396765
0.211665
0.207424
0.222895
0.114068
0.0152852
0.15202
0.0355875
0.0968135
0.107173
0.0374735
0.0186299
0.102653
0.177477
0.0204338
0.0619815
0.0512231
0.299227
0.418317
0.0282615
0.0086207
0.149574
0.198036
0.0396618
0.105083
0.0526772
0.156091
0.174442
0.085771
0.0264545
0.154037
0.249888
0.108091
0.0671617
0.0740602
0.345603
0.377675
0.105534
0.0072938
0.23507
0.0227866
0.00483955
0.00347086
0.0287612
0.252317
0.327302
0.0239577
0.000528762
0.0198798
5.34385e-005
4.24075e-005
0.00205944
0.0176015
0.231407
0.33496
0.0901803
0.000319697
0.000444179
0.0276002
0.0339364
0.0113028
0.0388994
0.222506
0.371276
0.111113
0.00640642
0.031243
0
0
0.00364608
0.0266298
0.104511
0.465056
0.414168
0.0148301
5.58201e-005
0.000716624
0.00215026
0.00747281
0.0138291
0.152883
0.241097
0.0927001
0.00196512
0.00309889
0.00233303
0.0247853
0.0310773
0.104032
0.114915
0.0208274
0.0078194
0.00117907
0.00334496
0.00113328
0.000258772
0.00467078
0.025521
0.079737
0.461132
0.65857
0.0435649
0.000953341
0.00793293
0.00264675
0.0136047
0.101836
0.27781
0.12176
0.199498
0.033153
0.00447745
0.00100198
0.0491542
0.0698566
0.114709
0.115141
0.0283275
0.00317627
0.00127063
0.000468528
0.053023
0.128066
0.126493
0.241369
0.345878
0.0842828
0.020971
0.00211771
0.00954611
0.00184243
0.00409783
0.0232685
0.132438
0.282351
0.105892
0.0458163
0.00448554
0.000992077
0.0170766
0.0149
0.0263522
0.295114
0.626082
0.300048
0.0329711
0.00216226
0.0233681
0.0656126
0.0698877
0.0334098
0.157811
0.238248
0.0781213
0.0775292
0.000397171
0.0319255
0.0310136
0.0100163
0.00278152
0.179544
0.332479
0.083918
0.105325
0.00108579
0.0347205
0.0290817
0.011414
0.00802209
0.212895
0.45479
0.26535
0.0138594
0.00336297
0.0197362
0.0147559
0.00595758
0.00317118
0.282995
0.463223
0.237922
0.0279404
0.0235408
0.00281946
0.00268446
0.00447319
0.0130855
0.0817912
0.200747
0.0414893
0.0266862
0.00192533
0.00489412
0.000542291
0.0120077
0.0867794
0.370735
0.064168
0.0106467
0.0173608
0.00976721
0.000542291
0
0.027481
0.102284
0.170433
0.237644
0.0876883
0.0114363
0.0123283
0
0.000920594
0.133824
0.531315
0.569585
0.0714933
0.0109899
0.00935255
0.00586033
0
0.000163817
0.0122963
0.0952203
0.445213
0.0877388
0.00737378
0.012131
0.00295051
0.000163817
0
0.020891
0.110259
0.279003
0.15326
0.0765839
0.0539436
0
0
0.000755942
0.101331
0.295516
0.49274
0.104644
0.00454525
0.00426252
0.0017703
0
0.000107992
0.122038
0.292158
0.365979
0.134381
0.0218239
0.0112495
0
0
0.00561018
0.0108865
0.110461
0.275608
0.317261
0.122613
0.0450353
0.00837154
0.000889305
0.16087
0.02685
0.0757458
0.209916
0.208267
0.0430157
0.0201757
0.0586008
0.049446
0.00710758
0.0842316
0.341189
0.519594
0.181099
0.0232587
0.0112062
0.0257931
0.00337388
0.121506
0.0193366
0.137615
0.251812
0.171506
0.0305707
0.0226561
0.0628175
0.0608746
0.0812626
0.0392475
0.00824826
0.00502587
0.00744996
0.0115093
0.00688793
0.029126
0.100971
0.131458
0.159658
0.0352524
0.0954306
0.0880575
0.0788019
0.060877
0.0604737
0.0652274
0.195342
0.0721583
0.136485
0.0996232
0.160535
0.124792
0.0545782
0.12613
0.513003
0.160147
0.42127
0.180007
0.300748
0.286361
0.101388
0.0378914
0.0676448
0.10187
0.173435
0.119784
0.0648242
0.173147
0.178937
0.113705
0.130372
0.0190148
0.0919628
0.172974
0.0868154
0.0692812
0.101438
0.349736
0.296055
0.249332
0.00660079
0.147474
0.0631931
0.306228
0.181232
0.238818
0.139621
0.0318447
0.0317223
0.0017208
0.0114049
0.0158895
0.0502737
0.0925312
0.115427
0.184744
0.233842
0.323357
0.0115877
0.0289967
0.0128997
0.0165112
0.0093623
0.0222019
0.156174
0.209025
0.171765
0.0518343
0.0260838
0.00117885
0.000785899
0.00884076
0.0471704
0.063037
0.271499
0.428579
0.116665
0.00801485
0.00226971
0.000442656
0.00317247
0.00730556
0.0410046
0.166793
0.345423
0.0934104
0.024585
0.00825193
0.00550129
0.00530446
0.0188631
0.00580465
0.141042
0.560119
0.265686
0.0133581
0.004338
0.0018586
0.00282956
0.0129933
0.010794
0.121204
0.368991
0.148692
0.000834674
0.0148626
0.00111516
0.000548511
0.00817746
0.0553752
0.060482
0.227533
0.213851
0.0112564
0.0204453
0.0167213
0.0041718
0.00544052
9.81093e-005
0.0590388
0.366991
0.31053
0.0151645
0.031349
0.0165403
0.00412345
0
0.00831078
0.0318762
0.342484
0.544475
0.129234
0.0130252
0
0.00160697
0.0414023
0.0928635
0.123617
0.0759504
0.0916809
0.0395055
0.0770692
0.00931016
0.000964181
0.1171
0.248239
0.217226
0.0375445
0.100905
0.169436
0.0442257
0.00364949
0.000601449
0.00470604
0.0132135
0.0612547
0.11238
0.399989
0.320557
0.241008
0.0228928
0
0.014626
0.0405488
0.0825921
0.0175307
0.246984
0.568903
0.166735
0.0264184
0
0.0829977
0.198999
0.150616
0.00399649
0.0296993
0.113511
0.151382
0.0903937
0.0219845
0.158757
0.22645
0.128111
0.0146931
0.0220397
0.0192291
0.452219
0.0717371
0
0.0203143
0.0359353
0.0242544
0.00143834
0.0478246
0.278753
0.532047
0.342495
0.0681311
0.0632101
0.0722525
0.0127729
0.00209902
0.00314853
0.0645365
0.0193397
0.121881
0.163692
0.119489
0.102202
0.0269563
0.00603557
0.00850017
0.000703413
0.00182699
0.169797
0.466066
0.22992
0.0341197
0.00339557
0.00309786
0.00717946
0.002135
0.119237
0.382633
0.244286
0.0591342
0.03657
0.00166496
0.00612024
0.00252881
0.00711606
0.00779017
0.281842
0.502355
0.143455
0.00993563
0.00100967
0.0253906
0.0170226
0.00355833
0.00229634
0.159095
0.323163
0.19758
0.083915
0.00574938
0.00143241
0.00840853
0.00268347
0.000569941
0.152933
0.297109
0.20649
0.105822
0.00344963
0.00093272
0.00138324
0.000383354
0.00224626
0.238865
0.486334
0.113099
0.0253179
0.00344963
0.0106572
0.0160817
0.00447246
0.00201413
0.19592
0.46275
0.183651
0.052099
0.00206978
0.00155453
0.0023054
0.000638923
0.0128461
0.0964961
0.269991
0.248079
0.0778414
0.000394008
0.00602428
0.0322468
0.00660545
0.0897616
0.0762246
0.113524
0.0783439
0.0673416
0.0224603
0.0129084
0.0621899
0.0686388
0.0192658
0.115582
0.327366
0.206053
0.0493979
0.00275806
0.00986958
0.012008
0.00335278
0.0593355
0.334678
0.63764
0.0749618
0.0140212
0.0250443
0.0154264
0.0255991
0.0610346
0.0457145
0.152727
0.396332
0.154866
0.08906
0.0677934
0.0332523
0.03702
0.167957
0.0151297
0.133393
0.236241
0.272842
0.136896
0.0542547
0.0257431
0.0159598
0.0277084
0.00790677
0.30507
0.550308
0.163676
0.0303207
0.0142002
0.00879885
0.00345884
0.013374
0.00309058
0.108745
0.24679
0.157933
0.0253802
0.0248404
0.0305588
0.0158697
0.0106316
0.04324
0.359053
0.358862
0.334185
0.127838
0.0368693
0.0670301
0.0159478
0.0468425
0.0408292
0.0921817
0.126389
0.0480066
0.123567
0.168596
0.410089
0.061134
0.0634474
0.0287222
0.0747512
0.106145
0.16138
0.0318193
0.044153
0.140406
0.0956601
0.0863416
0.0679313
0.0450239
0.0310128
0.0400906
0.0428119
0.0258066
0.217899
0.148671
0.14777
0.0104627
0.00835558
0.0031515
0.00367699
0.0222197
0.100373
0.310651
0.111091
0.0104543
0.0169457
0.00680368
0.00272693
0.00292319
0.00203945
0.146419
0.589294
0.339899
0.00970148
0.0410412
0.0145761
0.0139787
0.0210698
0.0144273
0.0150748
0.153714
0.0932141
0.0329505
0.0501722
0.00963118
0.0190885
0.0204623
0.00358993
0.0689453
0.393625
0.339319
0.0661384
0.0217962
0.00956687
0.00302477
0.000239281
0
0.0611001
0.231937
0.242198
0.0414036
0.0426956
0.0179982
0.00464248
0
0
0.015328
0.23002
0.425509
0.188876
0.0253611
0.000894133
0.0020729
0.00167497
0.000991286
0.0307982
0.147938
0.363349
0.0629511
0.036077
0.0056756
0.000663212
0
0.000141612
0.00448982
0.233706
0.544117
0.202928
0.0550194
0.0236431
0.0021106
0
0
0
0.0766322
0.239909
0.317806
0.227968
0.0445085
0.0025464
0
0
0
0.00363965
0.0958377
0.530208
0.0706996
0.0304833
0.00262965
0
0
0
0.0911937
0.238825
0.321101
0.289164
0.0848269
0.0120471
0
0
0
0.00446487
0.0672656
0.404578
0.394602
0.0446156
0.000380286
0
0
0
0
0.0105847
0.263425
0.472201
0.238785
0.0509677
0
0
0
0
0
0.110239
0.374223
0.0692515
0.00924452
0
0
0
0
0.00317552
0.210774
0.4103
0.202364
0.0551681
0
0
0
0
0
0.136739
0.170528
0.364048
0.154865
0.00394425
0
0
0.00490193
0.00122548
0.0270356
0.0339372
0.350904
0.446219
0.0298838
0
0
0.0170292
0.0063631
0.00978029
0.202477
0.326652
0.113233
0.00245427
0.000339955
0.00135982
0.000462971
0.000115743
0.0641604
0.113514
0.384765
0.303286
0.0171799
0.000566592
0.00226637
0.000771618
0.000192904
0.047182
0.0100222
0.274337
0.460826
0.0292056
0
0
0.00576712
0.00386645
0.00446132
0.00626651
0.156645
0.389553
0.0942528
0.00646308
0
0.000280922
0.000416612
0.00154748
0.0578592
0.235766
0.289173
0.0212196
8.82915e-005
0.000353166
0.00012024
3.00601e-005
0.0242973
0.0372032
0.161608
0.521277
0.083679
0
0
0
0
0.0104417
0.002102
0.0488565
0.181201
0.0485008
0.00413537
0.000436896
0.000723853
0.00012215
0
0.0021712
0.147502
0.492023
0.0382365
0.000590767
0.00305827
0.00193992
0.000529091
0.00313791
0.00215332
0.0974192
0.507058
0.0408122
0
0
0
0
0
0
0.124768
0.594666
0.0320217
0
0
0
0
0
0.0613863
0.295701
0.803868
0.148992
0.0577587
0.0332645
0.0145454
0.00837304
0.00891104
0.0104032
0.0853782
0.133297
0.0304671
0.0260458
0.0362667
0.0560019
0.0670092
0.0385852
0.0760556
0.0511442
0.130716
0.0515671
0.0826983
0.0322793
0.0446666
0.0666455
0.0159653
0.00798582
0.084347
0.0695606
0.0466583
0.0694056
0.0411364
0.125708
0.0983942
0.0254186
0.0402459
0.0163411
0.018218
0.0262301
0.0129951
0.0191102
0.0966497
0.0838963
0.117988
0.102023
0.0129135
0.0189653
0.0449034
0.0139731
0.0351112
0.136889
0.0811915
0.172702
0.0549869
0.232417
0.151421
0.0776731
0.0818718
0.0422382
0.170137
0.0934233
0.329409
0.103883
0.16554
0.16516
0.237082
0.239947
0.19384
0.118724
0.0563657
0.524953
0.150288
0.0664519
0.0389365
0.0783912
0.0115392
0.0205349
0.147718
0.118147
0.103852
0.161413
0.105746
0.0402362
0.0574863
0.0236086
0.0596901
0.258446
0.38315
0.188215
0.0944493
0.153186
0.176118
0.312856
0.138582
0.114603
0.050553
0.0933271
0.138527
0.221625
0.244001
0.133627
0.123956
0.021013
0.0481834
0.0680297
0.162267
0.0547938
0.0183796
0.00855864
0.00549017
0.0106438
0.0124442
0.0285865
0.0851051
0.370438
0.0754908
0.013425
0.00176594
0.00163676
0.0111639
0.017373
0.0140882
0.131469
0.737217
0.290566
0.0349292
0.039896
0.0304367
0.0237024
0.0136413
0.0403942
0.0520107
0.0913711
0.028812
0.0574145
0.0320061
0.0132655
0.0329701
0.0295615
0.0366277
0.0586284
0.199206
0.152876
0.0556097
0.0112933
0.00353405
0.00342071
0.005241
0.003328
0.0682037
0.444612
0.39912
0.328568
0.159169
0.0222184
0
0
0.00560302
0.0202672
0.19574
0.441834
0.0593721
0.0276041
0.0337534
0.0164768
0.0149004
0.0126721
0.0561196
0.181873
0.148697
0.115252
0.132505
0.0393013
0.00865132
0.0171155
0.0509485
0.0567483
0.167714
0.181506
0.434413
0.204822
0.020283
0
0
0.00461681
0.0036869
0.0192159
0.202663
0.55552
0.22435
0.0331047
0
0
0.00289111
0.00325165
0.0103382
0.237233
0.148665
0.147853
0.00844451
0.00840327
0.00564837
0.0410808
0.0393681
0.071184
0.141887
0.20355
0.0793397
0.0225934
0.00504196
0.00494667
0.0208295
0.0261938
0.0911256
0.27143
0.331932
0.267734
0.0569219
0.0017802
0.00212721
0.00972074
0.000852127
0.010128
0.18517
0.24027
0.304798
0.139516
0.0222938
0.00354535
0.0143546
9.32221e-005
0.010158
0.134001
0.140315
0.120612
0.0920595
0.00710925
0.0268597
0.0145165
0.00668446
0.0410083
0.205656
0.119646
0.237608
0.509455
0.156962
0.070928
0.0162165
0.000652554
0.01693
0.111269
0.0419308
0.0760726
0.118649
0.0119776
0.000162514
0.000650058
0
0.000417108
0.0162608
0.0170899
0.125004
0.518645
0.0199791
0
0
0
0
0.00400501
0.0288624
0.135267
0.404115
0.0587021
0.00738199
0.00119942
0
0.000695181
0.0114656
0.00998813
0.257237
0.615851
0.0196939
0
0
0
0
0.00169334
0.000893573
0.0953806
0.551116
0.0113812
0
0
0
0
0
0
0.0702525
0.494033
0.0132144
0
0
0
0
0
0
0.139849
0.484142
0.00106683
0
0
0
0
0
0
0.0820977
0.341371
0.00398502
0
0
0
0
0