0.070273
0.058571
0.0686519
0.203579
0.199765
0.0487186
0.0117139
0.0182441
0.0705966
0.0157515
0.0355998
0.0177545
0.16848
0.511359
0.0566323
0.000471277
0.0140178
0.0597401
0.146037
0.0215448
0.0663006
0.110913
0.145231
0.0512063
0.00955493
0.0324827
0.150573
0.0287658
0.0161275
0.0371017
0.294903
0.594879
0.0490305
0.0100601
0.0132163
0.0764569
0.000427577
0.00190415
0.00571244
0.09076
0.334766
0.0158751
0
0.00135554
0.00577693
0
0.0152861
0.00946424
0.148229
0.525677
0.0363197
0.00277463
0.0127721
0.00927958
0.000256546
0.00392705
0.0117811
0.180053
0.355618
0.019665
0.000653813
0.000603619
0.00529687
0.0109208
0.00805706
0.0147834
0.220871
0.525677
0.195489
0.0541587
0.0226608
0.0254339
0.0124905
0.0307736
0.00268157
0.0779717
0.406687
0.107577
0.10621
0.0568494
0.0275378
0.0371616
0.0190403
0.00096042
0.00794164
0.0605137
0.181494
0.387257
0.279407
0.0396867
0.131057
0.00915991
0.00203013
0.0782864
0.320477
0.17101
0.0740951
0.0672029
0.10966
0.368178
0.00596314
0.000137203
0.00473
0.0425286
0.0773921
0.173459
0.211511
0.300445
0.023337
0.00237552
0
0.00274971
0.00516003
0.0516192
0.252283
0.339344
0.0438339
0.0357044
0.00195496
0
0.00458284
0.0116586
0.0339075
0.252948
0.382722
0.0858738
0.198898
0.000180075
0
0
0
0.0116013
0.167775
0.292404
0.270422
0.146046
0
0
0.001388
0.0107359
0.0140816
0.133666
0.436876
0.30218
0.088274
0.00139583
0
0.00270059
0.0296403
0.0171263
0.195079
0.384223
0.103214
0.144466
0.000807893
0
0.00307883
0.0281821
0.00365011
0.07711
0.365648
0.504228
0.193008
0.00673068
0.00231831
0.00629921
0.0578685
0.0252529
0.100032
0.297938
0.154639
0.154045
0.018251
0.0230222
0.00984507
0.0691038
0.0470563
0.0554075
0.221464
0.271148
0.146512
0
0
0.00034005
0.00192695
0.000271402
0.00402703
0.113735
0.479609
0.4422
0.00787982
0
0
0
0
0
0.0364823
0.466853
0.0737826
0.0125895
0.0209404
0.0254584
0.0258781
0.00883971
0.0033181
0.126693
0.261533
0.288181
0.041837
0.0160172
0.0385057
0.0274576
0
0.00965744
0.0636922
0.294097
0.445705
0.0986819
0.00897581
0.00368016
0.00151701
0.000650147
0
0.00405388
0.151718
0.315219
0.371911
0.0829604
0.0061336
0.0106191
0.00455103
0.00616135
0.00236681
0.06267
0.387342
0.0766252
0.00320946
0.00676357
0.00361791
0
0.00965656
0.00523694
0.126713
0.390873
0.355729
0.0428242
0
0
0
0.00507632
0.00138555
0.124914
0.106691
0.297248
0.148608
0.0216332
0.00483649
0.0028318
0.00651077
0.00217026
0.0325484
0.161629
0.223716
0.32308
0.0496382
0.00626841
0.0216289
0.00662705
0.000310037
0.0179451
0.262774
0.424492
0.0820663
0.007604
0
0
0.00390646
0.00130215
0.0750593
0.357738
0.465719
0.1495
0.019522
0.00916658
0.0621987
0.010053
0.00429302
0.0820834
0.212229
0.131277
0.345129
0.0338721
0.0142959
0.0638644
0.0541742
0.00606516
0.0644973
0.126218
0.0948997
0.155111
0.0142227
0.0240894
0.0636799
0.074624
0.0382872
0.0939565
0.356792
0.193224
0.0925356
0.00937373
0.0248779
0.224087
0.0770521
0.0174314
0.258141
0.460462
0.024153
0.0276768
0.000980843
0.0111853
0.118786
0.0806079
0.101129
0.342179
0.210772
0.0650442
0.0418033
0.031708
0.0408821
0.0387145
0.0131353
0.0407003
0.142225
0.0471434
0.0318038
0.0464184
0.225155
0.377983
0.0524036
0.0197206
0.023349
0.0713542
0.326303
0.162377
0.05075
0.0524081
0.105796
0.0681029
0.0272385
0.0313525
0.0494958
0.115751
0.080742
0.0580871
0.27613
0.628155
0.0299447
0.0112297
0.0120587
0.0188357
0.000890771
0.00272596
0.00756561
0.173353
0.300509
0.0427029
0.00236092
0.000544608
0.00490148
0.0219435
0.00677258
0.023256
0.178946
0.26211
0.277316
0.0831434
0.0203918
0.0399156
0.00623539
0.0120012
0.00944187
0.214676
0.452666
0.0319174
0.0017505
7.78012e-005
0.000700211
0.00851261
0.00897866
0.190603
0.430237
0.373348
0.112532
0.0232929
0.0221615
0.0634943
0.168678
0.0159539
0.0195795
0.076896
0.10004
0.149689
0.0980814
0.0663135
0.148728
0.432806
0.0280336
0.00501058
0.0105224
0.0178597
0.0175909
0.0824506
0.09621
0.409423
0.0509983
0.0338561
0.280368
0.258358
0.133653
0.0477627
0.0523153
0.085301
0.127702
0.251216
0.309877
0.166143
0.0723631
0.0742014
0.0060062
0.0968932
0.17825
0.180969
0.183823
0.0726289
0.00588724
0.000448283
0.00104599
0.000476821
0.0257159
0.0563683
0.293535
0.226812
0.138924
0.00503067
0.00135979
0.00770547
0
0.0122819
0.106721
0.30898
0.214733
0.403987
0.0235638
0.00313798
0.00732196
0.000794702
0.0187986
0.0472356
0.108623
0.415818
0.482125
0.00984062
0.000194256
0.00110078
0
0
0.00298988
0.125105
0.267169
0.0669028
0.00573124
0.00440951
0.0347032
0.0160042
0.0201747
0.0705712
0.119204
0.227266
0.0639133
0.0432443
0.0139218
0.0451302
0.0393654
0.0165174
0.0465783
0.112217
0.552195
0.21487
0.00384192
0.00062993
0.0049576
0.00228632
0
0
0.109041
0.552195
0.0737644
0.0233082
0.00714363
0.00701993
0.00562363
0
0.00843442
0.313093
0.0940779
0.03228
0.039165
0.0733252
0.0374961
0.0111593
0.00154097
0.0595522
0.18257
0.204522
0.0494244
0.0353482
0.109907
0.0423557
0
0.0516271
0.0794627
0.197746
0.250966
0.0248568
0.014801
0.0404468
0.00990313
0.00159419
0
0.103096
0.512682
0.171242
0.0102701
0.0159901
0.0600301
0.0116143
0
0.150921
0.329479
0.524025
0.269998
0.0538562
0.00784111
0.0164722
0.0044001
0
0.050491
0.0275865
0.139927
0.33445
0.217906
0.0399051
0
0
0
0.0132869
0.0154576
0.274127
0.164161
0.0094699
0.00440159
0.00923079
0.00111745
0
0.190401
0.290407
0.235543
0.262383
0.0235142
0.00570072
0
0
0
0.104505
0.389404
0.42134
0.329279
0.223335
0.0484255
0
0
0
0
0.0019148
0.182423
0.368913
0.242725
0.0264006
0
0.00342765
0.0227898
0.00130613
0.0117517
0.237648
0.363623
0.0537864
0.0353256
0.000951537
0.0126386
0.00765038
0.0191251
0.1366
0.270175
0.362866
0.147021
0.076463
0.00666076
0.0272669
0.028675
0.00173979
0.0679487
0.325778
0.224545
0.0667309
0.00767619
0
0.00568674
0.0496469
0.00585328
0.0136589
0.2452
0.419562
0.0104394
0.00317238
0
0.00222313
0.0250325
0.00562765
0.0219281
0.287739
0.215818
0.0566079
0.0333031
0.0026708
0.00608558
0.0490621
0
0.132886
0.286145
0.36206
0.0234644
0.0222066
0
0
0.0283088
0
0.104964
0.518857
0.0688618
0.0412231
0.0205032
0.0421604
0.184967
0.151206
0.0319692
0.010692
0.00140294
0.030664
0.0214557
0.00825369
0.146873
0.539093
0.0130804
0.000278995
0
0.00020042
0.0324817
0.0172309
0.0197949
0.0677412
0.37304
0.248652
0.0175619
0.00236912
0.0311941
0.000710873
0.00252793
0.00190036
0.188014
0.563922
0.0417112
0.00123799
0
0
0.00213586
0.00411087
0.00172693
0.119547
0.387201
0.0164711
0.00362863
0.00364313
0
0
0.00203935
0.143616
0.250333
0.352452
0.0306284
0.0234103
0.052407
0.121171
0
0.0138042
0.0150576
0.13019
0.5029
0.00967736
0.00615246
0.00838617
0
0
0.102399
0.334951
0.236615
0.281498
0.0180648
0.0427829
0.0928656
0.115916
0.00332402
0.0310335
0.269477
0.171123
0.0845385
0.00639879
0.00960104
0.0382399
0.10247
0.0827687
0.310837
0.261843
0.0750691
0.0204967
0.000301073
0.00953006
0.0375611
0.0295515
0.00321163
0.062348
0.435881
0.241931
0.0498048
0.00392061
0.0119632
0.0424083
0.0881628
0.0487965
0.301966
0.507007
0.178585
0.00676462
0
0
0.00371187
0.0125947
0.106619
0.331781
0.0735852
0.00285724
0.00217123
8.66938e-005
0.00205074
0.00951661
0.00477639
0.314948
0.395358
0.0451206
6.58232e-005
0
0
0.00114412
0.00245095
0.023648
0.0540453
0.423711
0.353332
0.0238428
0.00044661
0
0.000959501
0.000319834
0
0.24645
0.423711
0.153378
0.0224013
0.012797
0
0.0147253
0.0171123
0.0122187
0.492534
0.150587
0.0105431
0.00501742
0.00623838
0
0.00148942
0.0193987
0.0677437
0.492534
0.0272972
0.0138335
0.0336312
0.0103973
0
0.00561253
0.0459657
0.257127
0.311113
0.121467
0.0527634
0.0565099
0.10442
0.012787
0.0136425
0.0481557
0.0467664
0.31909
0.0463412
0.0819594
0.153387
0.282803
0.0250353
0.010489
0.0832577
0.113046
0.160158
0.0300238
0.00590639
0.0151799
0.00476905
0.00601552
0.015959
0.122046
0.35263
0.0515918
0.0241168
0.00239216
0.0124866
0.00539854
0.0100259
0.086883
0.386312
0.406653
0.167173
0.0670732
0.0552278
0.175696
0.154898
0.0492932
0.0265983
0.147376
0.137046
0.0264474
0.0461213
0.120115
0.235621
0.0713997
0.0707595
0.0859052
0.413262
0.249411
0.0178684
0.00247921
0.000377694
0.00397119
0.000544965
0.00101208
0.116571
0.315085
0.118836
0.0305387
0.0004402
0.000953493
0.00381397
0.00220879
0.00183339
0.132831
0.392262
0.0826578
0.00318439
0.00640643
0.0377039
0.0396497
0.00381476
0.00890049
0.202327
0.444893
0.0988288
0.00141153
0.000454389
0.00397515
0.00635662
0.0154616
0.0284867
0.444893
0.444893
0.0251206
0.0858649
0.0239715
0.0255595
0.00453438
0.0368865
0.0330139
0.11803
0.25116
0.0742884
0.105203
0.0784095
0.0578403
0.0368246
0.0732579
0.0849267
0.165794
0.14784
0.110227
0.00515282
0.00282138
0.00415029
0.00484705
0.042217
0.11576
0.485372
0.267004
0.0298519
0.0106377
0.0310473
0.0161098
0.0518173
0.0506165
0.28298
0.539339
0.225311
0.07655
0.0550595
0.045911
0.0340451
0.0363389
0.020848
0.0492645
0.119427
0.268496
0.198409
0.0975185
0.0176428
0.0200591
0.00881917
0.018901
0.0580357
0.082686
0.222363
0.516709
0.0119842
0.0900363
0.0615332
0.0669911
0.0224242
0.140169
0.382671
0.300727
0.136149
0.0596714
0.0572785
0.0782724
0.0255916
0.0775237
0.144957
0.183976
0.180143
0.249039
0.0601066
0.0179193
0.00894318
0.040966
0.237118
0.0781984
0.00283232
0.00335803
0.0522255
0.00267647
0.00872315
0.00902724
0.156788
0.57977
0.021069
0.000491998
0
0.000578182
0.0449083
0.00754318
0.0184614
0.0788959
0.174344
0.00608461
0.0317529
0.14011
0.0612937
0.0131121
0.0139869
0.0326202
0.330634
0.57977
0.00431027
0.00100981
0.0180338
0.0079641
0
0.0273976
0.0390075
0.105019
0.296691
0.0114911
0.000907082
0.00166485
0
0
0.109919
0.322945
0.233225
0.148174
0.0186068
0.00634957
0.0174843
0.0104111
0.00186324
0.0270952
0.0397432
0.24254
0.33129
0.0214438
0
0
0.000798532
0.000266177
0.0382856
0.139495
0.530595
0.420739
0.0312778
0
0.0134114
0.00905499
0.000317374
0.0427688
0.281177
0.178564
0.0503781
0.00165496
0.00153939
0.00666772
0.00686112
0.00478815
0.0853371
0.438588
0.169472
0.0218309
0.000116369
6.1247e-006
0.000548908
0.00098016
0
0.0135475
0.157935
0.428766
0.193763
0.00256578
0
0.00883834
0.00589223
0
0.0174591
0.395975
0.438588
0.127487
0.000814582
4.28729e-005
0.001555
0.00145895
0.0182626
0.313635
0.690095
0.0775894
0.00705643
0.00216902
0.00322554
0.000695479
0
0.0739476
0.244464
0.182215
0.0730709
0.114803
0.00403
0.0228717
0.0167665
0.00288613
0.00349658
0.037526
0.361621
0.162471
0.0569157
0.00799366
0.00238947
0.001826
0.00364494
0.00633309
0.0277756
0.0474324
0.0398123
0.25207
0.0540594
0.0186942
0.00291285
0.00218697
0.0280632
0.0227287
0.0260668
0.0844167
0.205093
0.0201881
0.008463
0.0140406
0.00629795
0.0715015
0.0226509
0.036497
0.180155
0.576623
0.0471396
0.00359551
0.0194202
0.00514884
0.00152162
0.0190131
0.00716927
0.0795595
0.325131
0.0594092
0.0257503
0.00243946
0
0.0266343
0.0198566
0.0167777
0.227009
0.578264
0.108458
0.029019
0.00135567
0.00240054
0.0637261
0.0224449
0.0502899
0.277854
0.327231
0.0354408
0.0051743
0.0301929
0.00219566
0.0104035
0.0122259
0.173536
0.31428
0.145803
0.0359673
0.0177835
0.0786576
0.0289224
0.0244428
0.00828952
0.0327268
0.251523
0.532074
0.115725
0.00924129
0
0.00225206
0.00437302
0.00287366
0.079584
0.207494
0.396092
0.163349
0.0170988
0.00461612
0.00105185
0.00168211
0.0059113
0.0792908
0.0501056
0.00916298
0.0138138
0.185875
0.228172
0.0306386
0.000413861
0.000854544
0.00484791
0.00129764
0.0104524
0.134922
0.583694
0.328206
0.0105758
0.00449439
0.00299442
0.0345397
0.0266513
0.0416912
0.0459847
0.0707887
0.0294983
0.00229871
0.00465583
0.00123772
0.00870862
0.00812656
0.0181421
0.353732
0.484532
0.0829372
0.00311908
0
0.000632813
0.000609111
0.0018084
0.0169581
0.177347
0.411415
0.0897491
0.00799173
0.000349803
0.011076
0.00478757
0.0266924
0.0551686
0.225575
0.298567
0.0815436
0.0382494
0.000317134
0.00442969
0.00538956
0.00410131
0.0277225
0.397421
0.394965
0.113348
0.0407061
0.0228427
0.0433077
0.02537
0.0175113
0.0953271
0.346742
0.26889
0.178974
0.161654
0.00400164
0.0449188
0.0518494
0.0517604
0.139389
0.273955
0.193214
0.171446
0.0822781
0.0353548
0.0384186
0.0868408
0.039695
0.136239
0.194944
0.0637537
0.0923208
0.0506213
0.0455646
0.0503974
0.0400066
0.0404284
0.287425
0.513424
0.181938
0.103497
0.108932
0.0271357
0.0126512
0.0605518
0.0935212
0.311708
0.334495
0.178529
0.0679075
0.0110613
0.0506553
0.0253699
0.0317927
0.0944931
0.0748324
0.00316316
0.0770099
0.416636
0.0604366
0.0690137
0.0591373
0.0868412
0.391856
0.299215
0.0139515
0.0129103
0.102356
0.0256279
0.139447
0.0839941
0.0234746
0.0409268
0.0305745
0.0612304
0.0806439
0.425806
0.180589
0.225378
0.18039
0.101557
0.202444
0.123959
0.122205
0.039149
0.123335
0.160897
0.00988193
0.0134011
0.0226992
0.201812
0.216424
0.0198459
0.00429035
0
0.00260645
0.000720623
0.00625801
0.0128676
0.322744
0.516581
0.0273529
0.000612907
0.00491385
0.00358474
0.0246245
0.0317169
0.0244044
0.102762
0.286216
0.125994
0.0381526
0.000147435
0.0144838
0.000432374
0.00068393
0.00206765
0.127205
0.577478
0.140676
0.0247306
0.000567548
0.000185303
0
0.00330402
0.0243968
0.314614
0.366033
0.0108982
0
0.00380504
0.00253669
0.000362593
0.00118416
0.0531821
0.309635
0.29143
0.00661534
1.84574e-005
0.00100338
0.00122846
0
0.000472002
0.00110134
0.108113
0.485711
0.148361
0.00395533
0.000439481
0
0.000974869
0.00388016
0.000964941
0.0945255
0.485711
0.141878
0.000565047
0.000616446
0.00049631
0.0101228
0.0126801
0.127364
0.28722
0.3025
0.0130367
0.00120645
0.0100374
0.0157479
0.0106408
0.0317148
0.051761
0.0564397
0.352075
0.213666
0.140239
0.0306437
0.0115384
0.0178823
0.037156
0.0272027
0.104993
0.450592
0.108781
0.00120117
0.0129422
0.00938147
0.0112881
0.0710003
0.212215
0.252185
0.242344
0.115973
0.118005
0.0367142
0.00911167
0.00263056
0.0133875
0.0173182
0.0458758
0.206843
0.113738
0.0914075
0.0101069
0.000215121
0.125782
0.0363792
0.0509578
0.133019
0.51889
0.276196
0.109181
0.0112951
0.0400132
0.0187669
0.0512427
0.183007
0.145643
0.137551
0.0737084
0.0749632
0.00843904
0.000358535
0.237063
0.269483
0.227958
0.215241
0.194597
0.248407
0.138849
0.119343
0.161644
0.120218
0.0300536
0.0922201
0.16343
0.430684
0.216093
0.033871
0.0113599
0.0411759
0.0168873
0.0103399
0.0717685
0.128062
0.364729
0.246663
0.0230046
0.0056877
0.00588227
0.158636
0.123029
0.133223
0.182293
0.15679
0.210608
0.147568
0.155425
0.166341
0.0155692
0.0147346
0.112865
0.178029
0.333992
0.187823
0.0748907
0.0486504
0.0237629
0.011858
0.0122945
0.0531453
0.0823531
0.236592
0.169246
0.0417216
0.00415027
0.000407303
0.0157389
0.0558133
0.111506
0.0592357
0.048868
0.538246
0.326509
0.153527
0.0292761
0.00110553
0.0198968
0.120458
0.149468
0.388989
0.131131
0.0112558
0.00333221
5.81861e-005
0.046333
0.118157
0.204938
0.072735
0.0573033
0.0905153
0.051066
0.107723
0.0640703
0.000738012
0.0106099
0.0121139
0.00431293
0.0149754
0.194192
0.199002
0.217604
0.128004
0.0339059
0.0358131
0.0140482
0.0206763
0.113553
0.175289
0.270594
0.427236
0.364188
0.0375059
0.035327
0.0317141
0.0234984
0.0158043
0.0315668
0.0354367
0.112459
0.0916627
0.0330336
0.0478139
0.0610673
0.325976
0.320529
0.134052
0.160775
0.224333
0.162251
0.0354624
0.02561
0.00609661
0.0407432
0.225477
0.16505
0.161154
0.13247
0.105553
0.0175382
0.00347752
0.00647998
0.0983461
0.287056
0.117349
0.127942
0.0297332
0.00610754
0.00637608
0.0129465
0.0240704
0.331132
0.473291
0.144601
0.0910123
0.0758863
0.036719
0.0236406
0.0058523
0.0059486
0.330159
0.436832
0.0847776
0.0251116
0.01003
0.00277915
0.0872348
0.0410887
0.00208071
0.00180397
0.0385994
0.121451
0.0486276
0.180886
0.146818
0.0982163
0.0620624
0.0146268
0.0138019
0.0734351
0.143106
0.0854248
0.0895741
0.135786
0.0596114
0.012649
0
0
0.0295118
0.150252
0.28385
0.47296
0.154106
0.0285357
0.00264825
0
0
0.0553917
0.129529
0.438349
0.43979
0.130948
0.0112455
0.0113305
0.00447566
0.0247798
0.205222
0.177519
0.0774468
0.0113575
0.0172602
0.00770243
0
8.16317e-005
0.0404782
0.581244
0.269561
0.0632373
0.00232273
0.00414746
0.047146
0
0
0.031572
0.113997
0.15441
0.16047
0.130514
0.0676445
0.0532625
0
0
0.0532345
0.298347
0.448738
0.180204
0.160427
0.0622528
0.00501742
0
0
0.0108459
0.348413
0.251623
0.0562946
0.00113558
0.00270169
0.000949691
0.00130629
0.000617349
0.00991265
0.257478
0.272413
0.118844
0.000985126
0.000641276
0.0101394
0
0
0.00507775
0.157782
0.351352
0.239984
0.0597014
0.00991514
0.00119462
0
0.000324214
0.002177
0.0847268
0.420435
0.466255
0.00950037
0.000679733
0.00165353
0.00646022
0.00777354
0.0184016
0.0978567
0.115043
0.0854373
0.00600012
0.00184049
0.000992119
0.0122365
0.0518783
0.132852
0.178824
0.0512269
0.0104561
0.00473617
0.00128293
0
0.00260124
0.00430697
0.0194476
0.0498334
0.311033
0.738382
0.0375136
0.00589981
0
0.0043354
0.0376521
0.218456
0.334099
0.106029
0.109351
0.0315335
0.00955681
0.00653787
0.0206256
0.0772742
0.109771
0.182173
0.050289
0.00728298
0.000326631
3.15588e-005
0.0511076
0.120398
0.0920567
0.25289
0.328566
0.0924618
0.0416393
0.0580493
0.0488602
0.000464378
0.00211513
0.0382693
0.212038
0.356603
0.0743487
0.00813766
0.000837968
0.000558645
0.00325065
0.0130026
0.0303088
0.432702
0.540357
0.13714
0.0230461
0.00685348
0.00369033
0.0258167
0.0534338
0.0578425
0.311117
0.187705
0.110805
0.0806605
0.077366
0.0568751
0.00153474
0.0015752
0.0828197
0.226815
0.141084
0.0865368
0.0390434
0.0182102
0.00815903
0.00139201
0.00556804
0.0465597
0.443443
0.552287
0.161286
0.0232623
0.00835516
0.00429569
0.00264441
0.00389583
0.0945749
0.284446
0.251151
0.0860825
0.0109939
0.00378183
0.00239752
0.00321297
0.00225755
0.0439899
0.0561331
0.0873835
0.0327312
0.00991808
0.00618887
0.000169104
0.0397642
0.0370241
0.0886411
0.102964
0.0287737
0.02567
0.0289318
0.0186042
0.0323985
0.0108196
0.0271863
0.139012
0.0714452
0.0358003
0.0123968
0.00980226
0.00817867
0.0034404
0.0260318
0.158367
0.81319
0.407467
0.01857
0.00522493
0.0183468
0.0153626
0.0188068
0.124315
0.0929081
0.0757304
0.07215
0.00680279
0.00979695
0.00648841
0.0082452
0.0374195
0.19625
0.136979
0.155192
0.241605
0.136126
0.0476255
0.0130477
0.0191485
0.0702974
0.13418
0.213917
0.444647
0.322065
0.00862133
0.000662544
0.00239209
0.0132801
0.0430005
0.270003
0.249703
0.266569
0.335538
0.151667
0.0532124
8.96916e-005
0.0799937
0.16667
0.0483697
0.0314264
0.105007
0.334926
0.251283
0.0893939
0.00775751
0.00759544
0.0271593
0.0326455
0.0129538
0.0509061
0.339861
0.219997
0.0664341
0.00100427
0
0
0.0767847
0.0487021
0.140152
0.430843
0.298576
0.100698
0.000239113
0.039984
0.0760481
0.0806404
0.0212184
0.0956846
0.421994
0.197194
0.118878
0.00151666
0.0183102
0.0143275
0.0308928
0.00751429
0.000929963
0.00634019
0.0052579
0.0768216
0.250544
0.324045
0.0546254
0.0474629
0.0043654
0
0
0.00691366
0.0375235
0.336532
0.537649
0.103565
0.0360859
0.00656297
0.0060221
0.0240786
0.0205109
0.127304
0.0783881
0.175334
0.0682789
0.179116
0.00805989
0.00152176
0.0199488
0.022767
0.0483068
0.120128
0.399949
0.271684
0.118815
0.0100069
0
0.00718165
0.0143476
0.031491
0.090988
0.220061
0.117992
0.10445
0.00600414
0
0.0119694
0.0420094
0.216025
0.244015
0.289176
0.129558
0.248539
0.0166782
0
0.0030329
0.00640025
0.0175664
0.0632902
0.229809
0.196464
0.139807
0.0100069
0
0
0.0113597
0.219286
0.49223
0.382728
0.157348
0.00561946
0
0
0.0010468
0.0242908
0.178817
0.253955
0.108231
0.016742
0.00015238
0
0
0
0.00920897
0.217011
0.461201
0.0950582
8.20506e-005
0.00273168
0
0
0
0.00223351
0.145706
0.461201
0.185493
0.0203672
0
0
0
0
0.000155553
0.127152
0.461201
0.280622
0.00332988
0
0.000139234
9.28229e-005
0.00255814
0.00771327
0.0776139
0.369952
0.180457
0.00961304
0
0.000232057
0.0165948
0.0477416
0.0928049
0.0618141
0.10171
0.172195
0.0274298
0
0
0
0.000166211
0.00214739
0.0533866
0.387544
0.478151
0.0277377
0.00101887
0
0.00692115
0.0117618
0.0344399
0.0762967
0.280113
0.478151
0.157094
0
3.14818e-005
0.0433755
0.174141
0.153559
0.110417
0.027628
0.0369474
0.0177917
0.0120614
0.000634811
0.0703568
0.264228
0.459742
0.182678
0.0384163
0.0408075
0.0674626
0.0206657
0
0.0188593
0.0586446
0.0426337
0.156089
0.137506
0.284293
0.263298
0.192686
0.00444367
0.103358
0.0976814
0.123672
0.170361
0.0876375
0.191309
0.459742
0.015321
0.00080637
0.0599938
0.117489
0.470031
0.219655
0.0158246
0.0158424
0.0274983
0.0190691
0.0597425
0.0312648
0.0516805
0.191058
0.152199
0.0215645
0.01681
0.0040569
0.304062
0.0201447
0.146244
0.0465773
0.225474
0.133544
0.0162475
0.0509985
0.226004
0.396461
0.387409
0.096125
0.0127098
0.158112
0.112755
0.0222018
0.0214076
0.0418529
0.0102831
0.131992
0.0958747
0.0126823
0.007337
0.00750795
0.00528606
0.00522858
0.00329677
0.00535963
0.200419
0.45582
0.0836854
0.000767435
0
0.000194989
0.000362122
0.000477633
0.112192
0.45582
0.18353
0.00390894
0.0105577
0.00808226
0.00586291
0.00638191
0.00453709
0.0472604
0.45582
0.45582
0.028287
0.000987386
0
0
0
0.000568609
0.0133632
0.119485
0.444759
0.164064
0.00468245
0
2.84767e-005
0.00334061
0.00529457
0.0391282
0.135125
0.253369
0.247787
0.0795018
0.0137668
0
0.0230141
0.0317661
0.0146571
0.206877
0.449065
0.0913577
0.00062546
0
0
0
0
0.0226465
0.211523
0.449065
0.250019
0.0196252
0.00935942
0.00205444
0.00076042
0
0.0240385
0.123224
0.180234
0.444128
0.273924
0.0673665
0.00146992
0.0206004
0.027944
0.0429035
0.0219291
0.0659717
0.285809
0.192648
0.133552
0.0134959
0.0618066
0.0499034
0.0241091
0.301859
0.402075
0.320842
0.124091
0.073333
0.018379
0.00612403
0.00243005
0.0850202
0.0901028
0.0803691
0.122676
0.153382
0.100534
0.0375465
0.0406421
0.0398012
0.0603553
0.0397512
0.0240415
0.0728925
0.0875264
0.188376
0.0502434
0.134893
0.145465
0.298829
0.0192435
0.0124985
0.11033
0.146262
0.117707
0.0915692
0.223469
0.382396
0.0505918
0.0409776
0.0202245
0.045732
0.0602866
0.148336
0.0869064
0.131171
0.206074
0.0547025
0.0235034
0.0203757
0.099338
0.179742
0.257273
0.365173
0.200741
0.180479
0.181974
0.00414383
0
0.0122376
0.0315753
0.0414682
0.11943
0.112544
0.131825
0.072692
0.00361631
0
0
0.0599125
0.355029
0.522528
0.225887
0.0648366
0.0141829
0
0.000892934
0.0148447
0.0500836
0.0898052
0.310384
0.105558
0.0488289
0.0282128
0.00791012
0.00263719
0.00470717
0.065667
0.336088
0.316618
0.171784
0.0576652
0.00344451
0.00147622
0
0
0.00922986
0.13149
0.364813
0.182479
0.0104446
0.0020667
0.00088573
0
0
0.000271833
0.101403
0.504082
0.335851
0.0285199
0.0320428
0.0103335
0.00154162
0.00376183
0.0193914
0.0937588
0.124132
0.188429
0.0389113
0.0244162
0.00634334
0.00210066
0.00330403
0.0108667
0.0442285
0.21974
0.518692
0.0642139
0
0
0
0
0
0.0545533
0.241923
0.302125
0.0700216
0.00324573
0
0
0.00118702
0.00169607
0.0398129
0.205904
0.483653
0.272719
0.00887407
0.000134735
0.000664308
0.000664308
0.00110365
0.0301738
0.160813
0.378022
0.114361
0.00610161
0.00858651
0.000450908
0.00197837
0.00161867
0.0763911
0.190379
0.387779
0.255725
0.0349295
0
0
0.00294709
0.00366491
0.029474
0.0725795
0.210246
0.401063
0.244491
0.00174554
0.0190031
0.00512174
0.0066554
0.0179486
0.0252973
0.0877987
0.486626
0.0234005
0.0212704
0.00111949
0.00491181
0.00401876
0.0238204
0.0439467
0.22131
0.296456
0.222673
0.0153295
0.000671696
0.00294709
0.00241125
0
0.000203514
0.0822596
0.486626
0.383522
0.0199988
0.0357812
0.00631433
0.0273152
0.0057184
0.00209337
0.0154701
0.273973
0.485844
0.280682
0.0472304
0.0094528
0.0337104
0.00686839
0.00195039
0.00568381
0.0869885
0.332109
0.0334709
0.00229577
0
0
0
0
0.00456185
0.2666
0.399808
0.206678
0.0286523
0.0181316
0.00121323
0
0
0.00549999
0.122133
0.206878
0.394798
0.126556
0.0192345
0.00950638
0.001012
0.000781167
0.00227647
0.0139403
0.104617
0.437874
0.309376
0.023564
0.0035905
0
0
0
0.00104465
0.170212
0.264531
0.127195
0.0536597
0.0035905
0
0
0.00220285
0.0367144
0.0974586
0.501144
0.232363
0.0372437
0.0021543
0.00271044
0.00358586
0.00222166
0.0114708
0.0397597
0.290668
0.41388
0.0529413
0
0
0
0
0.00029588
0.0119001
0.203046
0.484528
0.219814
0.00890186
0.0278476
0.00689801
0.00980171
0.003999
0.0597307
0.41507
0.246044
0.0114789
0.0011639
0.0119217
0.0200891
0.00835597
0.0141996
0.0488097
0.18443
0.275005
0.0416344
0.0134884
0.0445661
0.0330266
0.0186244
0.0378147
0.030853
0.244576
0.553425
0.346521
0.0765544
0.18042
0.0941993
0.0525575
0.0119652
0.10786
0.119059
0.12483
0.0608574
0.138237
0.133896
0.128898
0.0272889
0.018728
0.164599
0.0582724
0.221424
0.0736331
0.0760376
0.132433
0.0801212
0.0667068
0.113703
0.116976
0.0540258
0.087237
0.0367083
0.151927
0.0993754
0.0956939
0.0656578
0.113243
0.0887673
0.0168911
0.0409994
0.0983716
0.0498124
0.109021
0.0752474
0.0886001
0.173369
0.059195
0.00565525
0.0496323
0.080856
0.0781721
0.292282
0.330356
0.1553
0.193534
0.15046
0.0687572
0.059267
0.282471
0.109812
0.0631184
0.140383
0.0815187
0.103431
0.10331
0.0383223
0.0808602
0.135048
0.103052
0.31436
0.303335
0.21561
0.164205
0.0094139
0.00152481
0.00859084
0.0174632
0.0506783
0.168081
0.341784
0.19097
0.105237
0.0370904
0.00625171
0.0153726
0.0265315
0.0695327
0.21434
0.216855
0.325822
0.256942
0.0314567
0.0150097
0.0299307
0.0153569
0.0334673
0.163279
0.243612
0.206796
0.104612
0.10577
0.0438094
0.0177726
0.0159189
0.0626055
0.107856
0.207249
0.233457
0.332796
0.0652318
0.0161936
0.0171521
0.0369443
0.0959351
0.0693055
0.0463223
0.230247
0.182846
0.100966
0.016436
0.0239837
0.0324483
0.10273
0.0202337
0.160756
0.70714
0.115394
0.113726
0.0701263
0.0402823
0.0277016
0.120628
0.0336369
0.0381334
0.0897644
0.197621
0.17484
0.0760813
0.0581572
0.0317524
0.106163
0.0106661
0.0792788
0.202612
0.119919
0.0591545
0.00515396
0.00410669
0.00385445
0.0220511
0.00983129
0.0800036
0.387722
0.173656
0.0318399
0.0226864
0.00164646
0.000692207
0.0106001
0.0463139
0.113187
0.636528
0.36541
0.0794084
0.0333386
0.0129798
0.00937478
0.0586152
0.00019146
0.0361461
0.0889032
0.0881627
0.0798963
0.0444619
0.0508917
0.0158521
0.0628519
0
0.0489859
0.286486
0.209263
0.0151094
0.0378216
0.00313712
0.00131891
0.000890934
0.0112742
0.0222297
0.323786
0.293869
0.168744
0.0353259
0.00188227
0.000791344
0.00131229
0.00742415
0.00273916
0.137106
0.599292
0.039266
0.029165
0.0220811
0.00864259
0.0043603
0
0.0396879
0.188579
0.23354
0.085544
0.0308337
0.012417
0.0349703
0.0214511
0.0519691
0.0525726
0.15105
0.449473
0.317802
0.105465
0.0316411
0.0154061
0.00209173
0.0127572
0.0102319
0.0517759
0.423304
0.431242
0.296078
0.10259
0.0504259
0.0161816
0.00264789
0.00760942
0.0449472
0.171301
0.145563
0.0779209
0.0622491
0.0598067
0.0396866
0.0893006
0.0768181
0.0997254
0.305943
0.20134
0.139589
0.167385
0.135042
0.126896
0.0419786
0.047626
0.102644
0.0857416
0.279102
0.303801
0.171281
0.062174
0.0303713
0.00597889
0.00882938
0.0490668
0.0729636
0.127889
0.506574
0.226414
0.0445647
0.0670515
0.0407414
0.0371951
0.0436326
0.0631945
0.126521
0.0769296
0.116118
0.103834
0.207598
0.0576887
0.0214807
0.168805
0.0324677
0.0748826
0.0832482
0.140344
0.184269
0.363251
0.093333
0.0428458
0.129228
0.0576529
0.105579
0.423201
0.117765
0.0247657
0.0461382
0.110784
0.104315
0.0644547
0.105904
0.117766
0.133541
0.115244
0.0481826
0.0343819
0.214795
0.1301
0.0967843
0.155528
0.0808854
0.0626677
0.193213
0.242125
0.251128
0.116738
0.0590967
0.100582
0.105234
0.0596611
0.0501839
0.179767
0.272126
0.126288
0.190008
0.13352
0.247065
0.13927
0.166545
0.0337917
0.0934349
0.0479825
0.0486976
0.127274
0.048504
0.106139
0.159747
0.156322
0.0437932
0.0493089
0.0271492
0.115687
0.130545
0.0565806
0.153083
0.170521
0.128012
0.169445
0.150964
0.139637
0.0837713
0.233125
0.129513
0.219699
0.0956265
0.25473
0.307417
0.125133
0.0403756
0.2384
0.305623
0.175326
0.160449
0.107013