0.219374
0.161964
0.0773781
0.0102
0.00466383
0.000517372
0.0668559
0.164529
0.278455
0.302919
0.328613
0.109069
0.0815102
0.0284168
0
0.00918349
0.0583725
0.259551
0.139831
0.121816
0.062606
0.0476683
0.0158894
0.0036216
0.0447819
0.0938142
0.163235
0.282304
0.256238
0.132678
0.0362714
0.040707
0.00533992
0.021756
0.0266908
0.175229
0.254269
0.329511
0.126162
0.0944029
0.050418
0.0332683
0.0326737
0.0390041
0.134873
0.139538
0.163335
0.140338
0.0616577
0.0841243
0.151168
0.18638
0.0547064
0.131957
0.199567
0.251163
0.138064
0.017352
0.110389
0.0437174
0.0334778
0.046869
0.0857637
0.115867
0.114239
0.143317
0.0620042
0.125274
0.0918941
0.157653
0.125477
0.191702
0.151765
0.0675382
0.121588
0.0637242
0.0308257
0.0965265
0.128504
0.0458168
0.229475
0.173127
0.136864
0.168512
0.134
0.0876887
0.0909593
0.0724948
0.0710381
0.205821
0.153351
0.109936
0.118946
0.046848
0.0271532
0.0291335
0.10352
0.140332
0.316398
0.135905
0.155029
0.187722
0.0953581
0.0399265
0.0761867
0.0626065
0.134229
0.198593
0.0421421
0.0477848
0.0477741
0.0666556
0.112134
0.106319
0.0420307
0.0360374
0.0776352
0.227085
0.285658
0.1358
0.0550454
0.106736
0.240403
0.0351959
0.13185
0.334584
0.0185746
0.0390374
0.0505681
0.0448985
0.0688814
0.0956342
0.0336148
0.0514496
0.068097
0.157112
0.0680084
0.0554825
0.0216253
0.125468
0.164626
0.0256293
0.231068
0.49003
0.25613
0.200103
0.114911
0.0616964
0.0114141
0.0466185
0.0214843
0.113092
0.248332
0.23579
0.124427
0.148382
0.0979074
0.0158915
0.00826107
0.0687084
0.120555
0.187128
0.296911
0.101732
0.0585625
0.0350716
0.0370704
0.0328329
0.00375739
0.120387
0.336804
0.381853
0.15256
0.0851185
0.0587444
0.0210034
0.00195177
0.0106046
0.108207
0.255565
0.22976
0.0533591
0.0473542
0.0198756
0.022121
0.00423038
0.044092
0.077505
0.287098
0.254833
0.143701
0.016659
0.0570163
0.0206764
0.0729378
0.0909281
0.102892
0.248981
0.271864
0.100535
0.0317887
0.0119254
0.00383783
0.00060434
0.0138711
0.0976608
0.329743
0.362858
0.318473
0.0778285
0.0342098
0.00740096
0.0150049
0.023803
0.0255063
0.168901
0.118923
0.168887
0.0394035
0.102164
0.0835563
0.163938
0.0998725
0.0875115
0.124456
0.131656
0.116666
0.0394695
0.0832639
0.0803312
0.0907146
0.0766068
0.0563961
0.119885
0.289105
0.398998
0.119699
0.0600335
0.03859
0.0563108
0.036522
0.00823925
0.102447
0.303549
0.143182
0.0434337
0.0181047
0.0445017
0.0656006
0.0578587
0.0990477
0.251876
0.0678491
0.0418992
0.042973
0.0736653
0.0321162
0.0540978
0.110674
0.0249216
0.120485
0.194488
0.0107423
0.0333251
0.0398273
0.0151637
0.0329293
0.149948
0.229584
0.554672
0.121089
0.0537105
0.0307603
0.00971636
0.00550743
0.0137465
0.0257987
0.0780373
0.14782
0.216156
0.0555675
0.02221
0.00409248
2.85746e-005
0.00386016
0.0219217
0.128102
0.444055
0.338654
0.0892788
0.0456338
0.00166013
0.0114017
0.0032256
0.0498875
0.182816
0.392944
0.346032
0.245718
0.101745
0.0327716
0.112799
0.0200511
0.0425707
0.0516423
0.124585
0.242624
0.0667665
0.0190171
0
0.00354057
0.00654034
0.0266408
0.117671
0.270586
0.214407
0.168561
0.0388522
0.00927822
0.0671074
0.0631003
0.0515447
0.0407217
0.0649629
0.16737
0.132198
0.11435
0.0465763
0.0111886
0.00255017
0.0457807
0.0435681
0.109467
0.134954
0.172342
0.148085
0.0535985
0.0379029
0.0826216
0.0821035
0.0413834
0.0743199
0.283792
0.173868
0.143461
0.0377138
0.0148789
0.0130801
0.053452
0.0581873
0.185861
0.103484
0.104029
0.272208
0.197962
0.0833577
0.18099
0.178778
0.12377
0.0910429
0.0835437
0.16393
0.0906054
0.0365065
0.0725428
0.112611
0.0416423
0.0345787
0.021716
0.103475
0.175521
0.177201
0.175999
0.0731396
0.044769
0.0222001
0.0934669
0.0834205
0.0298335
0.0901912
0.201633
0.245715
0.114449
0.23151
0.0878275
0.0385845
0.00875537
0.047314
0.139743
0.181704
0.335874
0.0990137
0.108836
0.0729922
0.123833
0.0564863
0.10401
0.0868085
0.0748479
0.120613
0.0310019
0.00912732
0.0524995
0.133692
0.149389
0.0633854
0.0990351
0.0786659
0.110394
0.0159138
0.0243089
0.067587
0.195505
0.186251
0.0358508
0.0477979
0.0673763
0.231833
0.105029
0.0602563
0.119141
0.17039
0.102206
0.0347575
0.0982685
0.0730919
0.370933
0.140481
0.0912336
0.0807123
0.197425
0.143933
0.0256353
0.102649
0.113449
0.0958093
0.0174099
0.0155872
0.00985689
0.0626931
0.0825538
0.170441
0.120998
0.126283
0.0719125
0.0906846
0.0469103
0.00191375
0.0937062
0.346236
0.0938524
0.122867
0.194825
0.14349
0.0198582
0.010305
0.0032378
0.101724
0.0693102
0.342975
0.231876
0.28403
0.138531
0.0400269
0.024895
0
0.0317665
0.10105
0.241056
0.0473191
0.0204424
0.0218059
0.0795659
0.0448997
0.0199056
0.116561
0.339486
0.263009
0.0670728
0.00800266
0.0484566
0.0601749
0.0298874
0.0711034
0.280951
0.249697
0.154608
0.106486
0.11064
0.139162
0.0948884
0.0421319
0.0367382
0.0664457
0.109777
0.0929233
0.139054
0.0928292
0.218631
0.0906743
0.0544244
0.117075
0.184478
0.0760453
0.159685
0.0729597
0.0140306
0.068051
0.0114343
0.0109532
0.068514
0.218955
0.198643
0.293779
0.217909
0.146269
0.0300869
0.00278952
0.0197818
0.067715
0.0883432
0.198445
0.0808774
0.147796
0.048189
0.191127
0.0162502
0.043206
0.0912239
0.186881
0.0370402
0.205827
0.140237
0.144891
0.0926699
0.0124355
0.102302
0.140145
0.144769
0.182391
0.209897
0.157559
0.0965505
0.00185998
0.0151613
0.0702207
0.0715626
0.0682722
0.124363
0.149754
0.0441231
0.0262889
0
0.0795137
0.120926
0.108678
0.149843
0.152156
0.159047
0.128894
0.0797772
0.0130199
0.0413386
0.131684
0.195555
0.14945
0.145087
0.0729356
0.0561546
0.0441046
0
0.0730551
0.14583
0.335788
0.303021
0.0927671
0.108134
0.053156
0.0622168
0
0.0359847
0.0484964
0.0491031
0.154557
0.150807
0.238509
0.104552
0.0522664
0
0.0501889
0.0033632
0.0173166
0.187977
0.262694
0.0874031
0.0426031
0.103144
0
0.0232027
0.0590074
0.155934
0.231109
0.124169
0.191003
0.102789
0.118364
0.00858539
0.108889
0.00928414
0.0770066
0.213285
0.18987
0.130997
0.076114
0.0367642
0.0279475
0.0559781
0.0405015
0.0484112
0.156388
0.135583
0.0663415
0.168904
0.0714034
0.0755473
0.100835
0.123246
0.116489
0.0843359
0.0403928
0.112555
0.199937
0.110571
0.101532
0.128437
0.0243009
0.0695645
0.0850378
0.077738
0.167434
0.357957
0.152089
0.163803
0.0683779
0.0721
0.219048
0.118251
0.0680051
0.159104
0.0700204
0.0580773
0.00958
0.0754005
0.0420929
0.0528131
0.0295123
0.0994419
0.0413219
0.0301744
0.165597
0.150858
0.262087
0.125543
0.175161
0.0608356
0.033534
0.0482473
0.0231133
0.0545384
0
0.147038
0.0671164
0.0469473
0.162593
0.0654409
0.00706329
0.0068305
0.0350012
0.0551444
0.388927
0.253354
0.254448
0.113253
0.0290845
0.00188474
0.00758164
0.151042
0.178606
0.102634
0.12152
0.133819
0.0383986
0.0208574
0.0150149
0.0317302
0.098652
0.146887
0.0587948
0.123186
0.165087
0.108777
0.0341676
0
0.000153436
0.0247107
0.0542318
0.181628
0.212786
0.278906
0.0716036
0.0319853
0.0119901
0.0552929
0.0530933
0.0398708
0.345878
0.23837
0.289328
0.0731787
0.0294718
0.0447632
0.0441695
0.0323695
0.117177
0.0882607
0.0396089
0.0782409
0.0894522
0.0407274
0.0767496
0.12882
0.090698
0.291397
0.123831
0.0257436
0.0385216
0.0662084
0.0311928
0.115812
0.205622
0.0701044
0.0503348
0.118881
0.0618426
0.131318
0.0456794
0.0248645
0.27615
0.416419
0.314271
0.146399
0.0397606
0.00341414
0.0538348
0.0502864
0.0450085
0.0831587
0.109469
0.14941
0.117986
0.0169325
0.00276133
0.00243473
0.0347139
0.0227711
0.248316
0.207448
0.138925
0.0510275
0.00877814
0
0
0.0271078
0.0660616
0.102311
0.254326
0.356848
0.147019
0.00530425
0
0.00473335
0.0127603
0.0271015
0.265308
0.386195
0.237638
0.141951
0.0357031
0.00186636
0.0034661
0.0263811
0.0801552
0.1371
0.158724
0.0719827
0.0592795
0.0678634
0.019735
0.0188253
0.106969
0.057823
0.0847113
0.0747245
0.0613011
0.128407
0.0849821
0.0354138
0.0576347
0.249291
0.107431
0.185307
0.216767
0.0662378
0.0919423
0.237375
0.0171263
0.024464
0.130494
0.087296
0.217744
0.0932099
0.0337587
0.0723132
0.297443
0.0364209
0.0400861
0.266992
0.242749
0.0525192
0.0539575
0.0238969
0.0667961
0.00866473
0.0169364
0.0387744
0.202202
0.103538
0.0587436
0.0906542
0.0640326
0.0260886
0.00303321
0.0769036
0.158796
0.226927
0.0807433
0.119554
0.0552545
0.0114144
0.0527718
0.0745643
0.0368856
0.0186991
0.231853
0.225225
0.108124
0.0511333
0.0196631
0.0508841
0.0458231
0.158344
0.34889
0.462117
0.163838
0.0167723
0.0665107
0.0369088
0.00263322
0.014296
0.0694321
0.137903
0.0900763
0.0206355
0.00773507
0.0250905
0.0123401
0
0.0175467
0.100876
0.238653
0.154594
0.013148
0.0172787
0.016493
0.0138013
0.00379823
0.00868654
0.158618
0.402106
0.263174
0.0246988
0.000272794
0.0037012
0.0023131
0
0.0161435
0.244066
0.472315
0.308146
0.0166973
0.0211341
0.00999101
0.0272796
0
0.0135837
0.0925709
0.234391
0.163177
0.0281758
0.0528805
0.0270844
0.0620323
0.0176664
0.0888805
0.0616073
0.129441
0.0912282
0.0603901
0.0346346
0.00948398
0.00366225
0
0.0933891
0.242968
0.398954
0.284744
0.0368184
0.0607945
0.0264277
0.0318067
0.0205768
0.298707
0.204319
0.214176
0.151403
0.0274122
0.0348221
0.0516457
0.0653784
0.0900991
0.138149
0.0249748
0.0299779
0.0141133
0.0246745
0.075284
0.189018
0.119475
0.139359
0.151857
0.0117914
0.0721301
0.0472242
0.0159604
0.0100865
0.0117986
0.0274232
0.116856
0.285369
0.114393
0.0696232
0.0266345
0.00319313
0.0219978
0.158165
0.0922343
0.320923
0.541319
0.0426192
0.0396305
0.0333253
0.000259582
0.0151484
0.0112487
0.033746
0
0.0818748
0.0548861
0.0997665
0.159743
0.0417136
0.00176184
0.00160695
0.00482086
0
0.123858
0.226307
0.266762
0.226183
0.0311889
0.0280854
0.0118353
0.0355059
0
0.0572112
0.102793
0.203829
0.0909399
0.0369252
0.000815452
0.00547779
0.0164334
0.0215204
0.129784
0.286467
0.335941
0.256949
0.0309706
0
0.00015355
0.00164679
0.00929327
0.154834
0.132446
0.142297
0.112236
0.0119418
0.0278904
0.0589148
0.0469802
0.0262792
0.365144
0.119252
0.0868832
0.0420999
0.00983773
0.00352809
0.00210783
0.0146264
0.135244
0.292458
0.148933
0.109032
0.142801
0.0174001
0.0647885
0.045929
0.0638475
0.275435
0.4335
0.0793875
0.0206897
0.0500186
0.0467334
0.0517774
0.128264
0.0827126
0.0231037
0.0694716
0.0229662
0.0407252
0.014573
0.0164227
0.0718114
0.18054
0.388061
0.0651831
0.00027529
0.000840752
0.0188358
0.0258787
0.0310965
0.0465378
0.0500599
0.125873
0.162737
0.155552
0.0445231
0.00671755
0.022112
0.0471714
0.0217175
0.0712782
0.59502
0.275329
0.131521
0.0441702
0.00917439
0.0167089
0.0317004
0.0424047
0.172133
0.422326
0.0951353
0.0049718
0
0.0024123
0.00908818
0.0141462
0.108417
0.184226
0.235841
0.181947
0.0497509
0.00513076
0.00952855
0.00280492
0.0157443
0.0311529
0.125084
0.436695
0.163311
0.0622648
0.0128257
0.00445524
0.0018353
0.0159934
0.0287757
0.096384
0.244607
0.144358
0.166142
0.0161558
0.0433964
0.0221052
0.00872816
0.049484
0.0541317
0.0626407
0.115532
0.213018
0.0122634
0.0277357
0.0117294
0.0136161
0.0786703
0.0642134
0.0603713
0.0843049
0.364744
0.0176224
0.0453155
0.0403569
0.0482446
0.00400297
0.021128
0.0916852
0.0710895
0.311157
0.0391274
0.0820054
0.0277482
0
0.00759279
0.0266383
0.0696016
0.0613852
0.589813
0.0276135
0.18313
0.0672977
0.00237163
0.0670727
0.0460871
0.0679079
0.116626
0.262623
0.0441366
0.0159909
0.056303
0.0776239
0.0919832
0.0412546
0.0294599
0.11928
0.155762
0.138839
0.192238
0.194377
0.105148
0.0149169
0.0205859
0.100217
0.125913
0.467752
0.0539458
0.102173
0.0945969
0.0086862
0.080225
0.0582475
0.0860909
0.127479
0.230082
0.168655
0.060131
0.126667
0.0571918
0.0161953
0.00768951
0.00165413
0.0184561
0.0125114
0.0909513
0.248991
0.210894
0.0295816
0
0.00085326
0.00221149
0.00215823
0.0189129
0.143069
0.403137
0.265727
0.0209344
0.0207945
0.0198805
0.0345142
0.037726
0.030646
0.111056
0.122371
0.111559
0.0377058
0.00258243
0.00803703
0.0366787
0.0202306
0.0305389
0.454884
0.387841
0.117066
0.0213385
0.0257306
0.00839618
0.00458158
0
0.0730828
0.150196
0.21723
0.191978
0.0321881
0.0428843
0.0174166
0.0129955
0.00208027
0.191373
0.198584
0.0920794
0.11538
0.018999
0.0036758
0.0148862
0.0644659
0.0126271
0.116831
0.471759
0.233265
0.0853414
0.0115522
0.00612633
0.0105666
0.0389352
0.0110671
0.23284
0.282304
0.238926
0.117204
0.0108698
0.00507766
0.00609651
0.0089646
0.0377764
0.156274
0.135811
0.0498445
0.0505301
0.00242028
0.00101591
0.0216589
0.018299
0.16496
0.351646
0.125578
0.0762577
0.033957
0.00145217
0.000725381
0.000870929
0.00128066
0.0164218
0.214531
0.239531
0.141836
0.0796754
0.00616199
0
9.8512e-005
0.00370433
0.0436526
0.510882
0.330874
0.157778
0.0460195
0.00272431
0.0410247
0.0146924
0.0556905
0.0215677
0.0612995
0.0369206
0.110372
0.0323567
0.0412748
0.0254799
0.014408
0.0625797
0.0665518
0.261086
0.138968
0.172249
0.0576261
0.0295895
0.0522827
0.0196261
0.092101
0.0616994
0.129023
0
0.0847303
0.130797
0.0704941
0.0541733
0.0148147
0.0998153
0.145637
0.465686
0.091056
0.106526
0.188644
0.0826336
0.0161805
0.00412782
0.0121903
0.0909359
0.288748
0.076542
0.0414663
0.017374
0.0121906
0.0645288
0.0152365
0.0287917
0.160666
0.310644
0.0508432
0.00481202
0.00740532
0.0472467
0.0518787
0.0112184
0.038767
0.0804104
0.411673
0.157575
0.0313591
0.029237
0.016745
0.160707
0.0377587
0.0884552
0.10058
0.411334
0.260963
0.00508316
0.000516269
0.0369666
0.0247986
0.00926864
0.0440521
0.13235
0.216062
0.0552637
0
0.00669586
0.0225404
0.0092144
0.0120253
0.173925
0.213412
0.297681
0.0878953
0.00745565
0.00477033
0.011382
0.0672851
0.0186942
0.0376903
0.164717
0.352643
0.137377
0.00541956
0
0.014073
0.0186817
0.0070453
0.0282665
0.321978
0.469511
0.168551
0.022896
0.0016011
0.0114851
0.0273547
0.066237
0.229581
0.20212
0.160441
0.0584161
0.0286658
0.00576023
0.0171335
0.0528776
0.0635626
0.158566
0.118591
0.17762
0.0243107
0.115502
0.108793
0.00952631
0.0433094
0.0657027
0.0736625
0.288619
0.218234
0.0955659
0.0616289
0.0148858
0.0235117
0.105379
0.110325
0.103948
0.224141
0.238793
0.0801514
0.105378
0.110648
0.0289468
0.0235517
0.0120879
0.0361724
0.020615
0.135279
0.0494127
0.17185
0.11179
0.00494446
0.0141409
0.0370576
0.0667229
0.0308738
0.238969
0.0514951
0.323128
0.109077
0.00353545
0.0563234
0.0345632
0.0713276
0.131729
0.103751
0.0909519
0.179354
0.132399
0.02083
0.0327306
0.0742984
0.30927
0.258357
0.113123
0.106355
0.381678
0.161143
0.0354858
0.0569822
0.0858242
0.108477
0.0402664
0.185131
0.0534687
0.164595
0.109888
0.0136643
0.0965838
0.0788866
0.0862406
0.0506065
0.135224
0.175551
0.0758848
0.0996497
0.0444559
0.0852016
0.137879
0.288683
0.101237
0.107373
0.0854119
0.298429
0.170903
0.066253
0.104561
0.115805
0.143032
0.0440435
0.2274
0.17484
0.176864
0.0794123
0.0674134
0.0371138
0.0281233
0.0687355
0.0462829
0.0372248
0.10653
0.0319529
0.029917
0.0461491
0.0142252
0.0163764
0.0648235
0.0420671
0.152752
0.519522
0.160943
0.0199063
0.0259507
0.0625675
0.0621772
0.0841946
0.0601295
0.0661193
0.0720826
0.0208741
0.00424021
0.0535081
0.037693
0.0522933
0.0706915
0.251436
0.414203
0.25302
0.0555081
0.00878474
0.0301883
0.00301913
0.0056364
0.0429524
0.0166558
0.216804
0.343658
0.0940081
0.00757102
0.00347492
0.00481163
0.00392128
0.0303075
0.043928
0.191671
0.124146
0.172795
0.04946
0.00756626
0.00573667
0.00790636
0.0337371
0.202323
0.473956
0.250648
0.0338561
0.00546706
0.00481163
0.0148767
0.0322174
0.119379
0.221446
0.231645
0.151692
0.101877
0.0283216
0.00833292
0.000541975
0.000985406
0.00567427
0.05861
0.187954
0.0947997
0.0752648
0.0304179
0.00283723
0
0.000140772
0.0034589
0.0753483
0.416146
0.177977
0.0461994
0.0136513
0.000542099
0.0066106
0.0211307
0.0756655
0.181177
0.17855
0.143307
0.0457546
0.0115222
0.00116425
0.00081533
0.0103713
0.112908
0.249917
0.5296
0.258837
0.00926782
0.00148072
3.72791e-005
0.0608941
0.00832414
0.0334905
0.0249855
0.062359
0
0.0543469
0.166549
0.0874218
0.0450855
0.00689032
0.0390158
0.111031
0.333409
0.0803362
0.0832946
0.236786
0.0825631
0.0992394
0.0427558
0.134915
0.0253881
0.0135807
0
0.0852892
0.126799
0.11728
0.0699326
0.0463364
0.183796
0.190115
0.349042
0.0555463
0.0794689
0.19368
0.100156
0.0141437
0.00291694
0.0252002
0.0351855
0.275251
0.137637
0.0669753
0.0404635
0.00873074
0.0496309
0.00848135
0.0506604
0.048898
0.257967
0.267411
0.111867
0.0132491
0.0192834
0.0070911
0.00210791
0.0189215
0.0358868
0.324831
0.151144
0.164176
0.0682867
0.0199005
0.00815601
0
0.00810965
0.0135771
0.321204
0.353262
0.357504
0.0552767
0.0352682
0.0330623
0.00461583
0.0209129
0.0882686
0.205596
0.19357
0.0704168
0.00448961
0.0157414
0.0101922
0.00351226
0.0200529
0.12426
0.240293
0.296331
0.0865715
0.00234404
0.00787128
0.00820215
0
0.00484781
0.0283862
0.234229
0.257238
0.173533
0.0287012
0.0178304
0.0065278
0.00176422
0.00802115
0.0187972
0.19919
0.414741
0.387567
0.0634016
0.00820422
0.0399513
0.0262571
0.0338657
0.11299
0.0939863
0.146426
0.0784338
0.0218156
0.0223649
0.0920146
0.0925839
0.0628921
0.135161
0.125676
0.0974817
0.0372301
0.0480622
0.0595221
0.0499204
0.043156
0.0281285
0.0465873
0.113645
0.267253
0.410586
0.109472
0.0373607
0.111499
0.16744
0.131499
0.341512
0.240609
0.0634199
0.0699483
0.0783743
0.0563784
0.0773359
0.0614451
0.0724578
0.100949
0.12374
0.0478729
0.023498
0.0210945
0.031504
0.0447791
0.0385083
0.211071
0.211347
0.236495
0.0764709
0.146688
0.0481116
0.0268095
0.0957359
0.133619
0.178129
0.18881
0.191714
0.0231731
0.00238657
0.00705297
0.0231395
0.0554161
0.0849022
0.221568
0.218136
0.457651
0.261922
0.168706
0.00510385
0.00908262
0.0114971
0.0222115
0.125761
0.0717347
0.146792
0.136162
0.201894
0.0690203
0.0323941
0.0364884
0.0678096
0.0911692
0.00796202
0.113434
0.0959885
0.0884242
0.0260318
0.0253626
0.005866
0.00936047
0.0556243
0.0851311
0.247854
0.551948
0.249143
0.0531728
0.00920893
0.0357351
0.0486868
0.0584561
0.00741109
0.11527
0.287585
0.119534
0.10317
0.0251683
0.049682
0.0648653
0.0586796
0.0225615
0.0553828
0.0235066
0.0113327
0.000317276
0.0268981
0.0324761
0.0355344
0.0817294
0.333048
0.29369
0.0336679
0.00868164
0.000873985
0.0206128
0.0582094
0.0749464
0.145926
0.0277282
0.0782344
0.0167877
0.0176707
0.031418
0.0332972
0.0462702
0.0853539
0.487996
0.38676
0.260516
0.00132903
0.000569585
0.0109434
0.0339535
0.00952039
0.026064
0.0675864
0.32473
0.340838
0.0550409
0.00388659
0.000785355
0.00199163
0.0552262
0.117097
0.166111
0.158318
0.16254
0.0823552
0.0204374
0.00803282
0.00649279
0.0224617
0.053961
0.244451
0.352531
0.283291
0.0240655
0
0.026358
0.0133693
0.0897126
0.172915
0.148395
0.0744366
0.238709
0.0612352
0.00951773
0.0648049
0.026796
0.0180859
0.0350442
0.0594609
0.120422
0.0764118
0.0628124
0.0191198
0.00759712
0.00828121
0.00168821
0.0182091
0.197772
0.327881
0.202085
0.0894646
0.0099703
0.0040522
0.00491594
0.0236794
0.0528342
0.052178
0.143117
0.22664
0.0398749
0.0115661
0.0248657
0.016321
0.0101088
0.0268609
0.216823
0.505186
0.471063
0.0701974
0.00613225
0.0133799
0.0151197
0.050008
0.0350841
0.111463
0.00707952
0.0666912
0.0454262
0.117547
0.122241
0.0663571
0.0520907
0.0323214
0.139704
0.0986938
0.22859
0.0633496
0.115688
0.166653
0.0804687
0.0974722
0.0247579
0.0905474
0.0440471
0.143944
0.0757103
0.102537
0.0961187
0.130667
0.0657837
0.0156698
0.109996
0.234314
0.311323
0.102008
0.106601
0.154411
0.0914106
0.00832857
0.00153855
0.0203529
0.0332361
0.165771
0.161749
0.128635
0.0741632
0.0219658
0.000812058
0
0.00180349
0.00346313
0.228151
0.340376
0.39469
0.13241
0.0165157
0.02693
0.000406627
0.0374454
0.0836892
0.129794
0.0957578
0.0777434
0.069009
0.0365726
0.0140558
0
0.0647622
0.0622174
0.189812
0.271723
0.337766
0.153383
0.0174378
0
0
0
0
0.15208
0.129397
0.187744
0.0966565
0.00364695
0.0034438
0
0
0
0.0882055
0.220024
0.403746
0.147935
0.010378
0
0
0.0148012
0.0107389
0.0854784
0.168066
0.252279
0.158044
0.00203336
0.0208384
0
0
0
0.0269787
0.209873
0.4719
0.241137
0.0355843
0.02586
0.0220417
0.00896869
0.0104749
0.0293393
0.122901
0.231557
0.20296
0.0350878
0.0478992
0.0567436
0.0544372
0.117275
0.206246
0.0226694
0.0465779
0.149744
0.0514492
0.0386541
0.00659494
0.0061621
0.000629025
0.0090625
0.0909541
0.256234
0.407742
0.0910726
0.0969783
0.0243663
0.0421038
0.0110812
0.142867
0.013411
0.0847649
0.465141
0.27172
0.0300278
0.059248
0.115084
0.123603
0.226154
0.0386622
0.0657115
0.041656
0.0225643
0.0215794
0.117534
0.147534
0.112392
0.258542
0.227472
0.173745
0.0754964
0.0243923
0.118713
0.0157699
0.0272021
0.0220502
0.15198
0.0271984
0.139535
0.197549
0.271662
0.189239
0.208872
0.0870089
0.0406608
0.0738476
0.0740425
0.212488
0.177056
0.335346
0.0061226
0.0867232
0.0673389
0.0637262
0.126791
0.340569
0.12745
0.0588956
0.00823614
0.0193472
0.0717098
0.101713
0.0432648
0.107297
0.214643
0.0888202
0.0824399
0.00828866
0.141264
0.27964
0.12318
0.0475178
0.0626262
0.100342
0.0676541
0.0465316
0.185084
0.22254
0.468205
0.155478
0.0643956
0.118295
0.0989613
0.0451681
0.0116573
0.0640405
0.0161231
0.0735338
0.208901
0.0652348
0.031584
0.0144533
0.00970034
0.0211489
0.0119421
0.0216085
0.0834547
0.443917
0.194459
0.0259582
0
0
0.0075717
0.0124309
0.0575984
0.354031
0.2632
0.0825056
0.0258627
0.0110822
0.00430611
0.0029723
0.00294002
0.0372576
0.251751
0.457248
0.156398
0.000326649
0
0
0.00108167
0.00272497
0.0507188
0.0671323
0.220819
0.153539
0.0565908
0.0228846
0.00154317
0.0423379
0.0261344
0.114989
0.0832152
0.0652948
0.031627
0.0850009
0.0500472
0.0110394
0.106482
0.0726366
0.176745
0.217815
0.255524
0.072602
0.0014011
0.00326923
0.0108022
0.0552774
0.0352222
0.492296
0.207798
0.0648763
0.0124065
0.0037268
0.0071496
0.0230841
0.132665
0.367922
0.0556169
0.0256854
0.0323787
0.0570506
0.233245
0.06132
0.0053357
0.0313879
0.0185959
0.0276704
0.0285897
0.0575469
0.139966
0.541914
0.221059
0.00721731
0.0411456
0.0122214
0.235278
0.0398791
0.0141615
0.051462
0.130303
0.0565136
0.00504335
0.0648826
0.193637
0.105845
0.0284633
0.018074
0.0761573
0.317114
0.340232
0.0527963
0.160635
0.0783125
0.0576847
0.0301068
0.103558
0.0390275
0.129898
0.0606701
0.0647938
0.0424621
0.0834569
0.0534476
0.0424168
0.119745
0.219088
0.158531
0.0821113
0.0618908
0.0807357
0.0562865
0.0503306
0.040649
0.128628
0.0143245
0.270556
0.103598
0.0775176
0.0501828
0.0846422
0.0309906
0.153985
0.212178
0.166507
0.365987
0.111066
0.121324
0.0565848
0.0309906
0.0357747
0.0151537
0.0636155
0.18678
0.109055
0.0465884
0.0389947
0.0672636
0.038763
0.0153891
0.00530285
0.142771
0.198023
0.234865
0.130929
0.0830865
0.0414758
0.0180241
0.00900744
0.102689
0.140015
0.239274
0.165545
0.0659633
0.052858
0.0663581
0.0173178
0.0110055
0.0503999
0.239204
0.258651
0.38854
0.0503096
0.0215459
0.0598989
0.0248561
0.00481459
0.00688746
0.0447331
0.0603589
0.150771
0.147144
0.146482
0.0714082
0.00465162
0.0284928
0.00577332
0.0050975
0.017417
0.047178
0.160573
0.518516
0.223963
0.0368259
0.0565521
0.0637662
0.153464
0.0948209
0.19708
0.0512097
0.0487617
0.0330936
0.0347912
0.123079
0.0535927
0.0544504
0.031221
0.0851116
0.110604
0.268593
0.151946
0.127324
0.02419
0.000814439
0.00107821
0
0.012425
0.0707226
0.341171
0.245497
0.0551724
0.124709
0.012502
0.00754748
0
0.0269552
0.0371461
0.161826
0.343945
0.241201
0.0372284
0.0246113
0.0204156
0.0107144
0.0579685
0.0839964
0.30797
0.102331
0.0725548
0.243125
0.0406756
0.0250749
0.0245148
0.0281468
0.0704462
0.241651
0.120354
0.213566
0.132338
0.0138661
0.00926713
0
0.00992407
0.00438376
0.0452581
0.154207
0.268357
0.22309
0.0719124
0.0436197
0
0.00115588
0.0013705
0.0512555
0.0780398
0.41107
0.254645
0.0251285
0.0165365
0.00434972
0.00184376
0.00715259
0.0320327
0.122697
0.2382
0.276168
0.0423007
0.0416982
0
0
0
0.0429426
0.101849
0.425549
0.21748
0.139359
0.0535896
0.00396882
0.00530435
0.0161026
0.0220059
0.0118307
0.318366
0.243271
0.397065
0.105243
0.040376
0.0167563
0.0264753
0.012355
0.000636015
0.145624
0.22346
0.0709957
0.0432937
0
0.0259722
0.0160388
0.0641971
0.0341255
0.300167
0.211154
0.211101
0.148822
0.0202568
0.10415
0.0267313
0.0297845
0.00783047
0.161679
0.0757908
0.358599
0.166853
0.0672057
0.00631165
0.00553021
0.00254477
0.0107617
0.0201043
0.0442682
0.330261
0.373738
0.0904788
0.0074878
0.0143184
0.0077099
0.033258
0.0216044
0.160909
0.161293
0.132332
0.0348065
0.060655
0.0205479
0.00888271
0.0342386
0.0918523
0.122023
0.15316
0.220358
0.184966
0.215229
0.174389
0.0921589
0.0921811
0.0798821
0.120151
0.245987
0.276109
0.0497564
0.00575993
0.00486993
0.00631084
0.0225344
0.0224471
0.385274
0.242236
0.0953177
0.0102831
0.00201705
0.0107478
0.0166794
0.0755126
0.259332
0.0492532
0.129602
0.260535
0.204847
0.121984
0.0915628
0.0598053
0.0526374
0.0763769
0.183228
0.126169
0.166671
0.0823579
0.0200825
0.0825231
0.0711378
0.118925
0.17801
0.272508
0.068927
0.00273405
0.0318165
0.0405151
0.055786
0.0444262
0.18173
0.325497
0.114802
0.0307262
0.00673867
0.0533999
0.119213
0.236994
0.113076
0.266294
0.155039
0.203689
0.0850003
0.0541401
0.0419203
0.0593234
0.134723
0.11182
0.145722
0.124607
0.220267
0.154512
0.10322
0.0599133
0.113399
0.20003
0.106778
0.11678
0.0607609
0.0647494
0.0235766
0.0583672
0.0254292
0.138103
0.0600271
0.0636463
0.023589
0.0741987
0.03968
0.0584096
0.0939687
0.0828068
0.352316
0.107737
0.127454
0.0141513
0.0383772
0.0676895
0.0734041
0.0594852
0.040224
0.171
0.0763824
0.142874
0.0586428
0.0559531
0.0588206
0.049488
0.101911
0.116775
0.401094
0.13788
0.184856
0.0504646
0.0517788
0.00176172
0.0447944
0.08272
0.0734445
0.16867
0.0742269
0.0666622
0.0129109
0.00432244
0.0132172
0.0526157
0.154768
0.158232
0.360641
0.0445671
0.0238619
0.0212197
0.0181626
0.0029362
0.0173476
0.063253
0.0931858
0.35461
0.087138
0.0786682
0.0151329
0.0029362
0.0102271
0.0480411
0.119906
0.281189
0.405243
0.0876533
0.0251932
0.0882824
0.0361942
0.0686076
0.0833923
0.130151
0.10402
0.258043
0.0672599
0.0340549
0.0645303
0.0660213
0.0949276
0.0636054
0.0636463
0.0133209
0.119275
0.128555
0.126147
0.139999
0.138078
0.0545932
0.0567972
0.092583
0.161397
0.210096
0.0638801
0.054625
0.277307
0.130613
0.0530853
0.0819905
0.150274
0.0608304
0.110608
0.111309
0.174155
0.254705
0.118262
0.0302157
0.0410095
0.0557861
0.0452418
0.178235
0.037962
0.114741
0.0485472
0.0590835
0.271996
0.0723876
0.0890108
0.11412
0.162945
0.0190076
0.122353
0.0480983
0.142614
0.00616631
0.0750688
0.174954
0.116687
0.249598
0.0218961
0.0728006
0.0377573
0.0148389
0.0636849
0.0596084
0.144658
0.244305
0.400075
0
0.10071
0.0335699
0.0231978
0.35402
0.0622483
0.0300125
0.0264776
0.0396663
0.00236164
0.0285848
0.0851323
0.194615
0.246109
0.0629724
0.010516
0
0.0214035
0
0.112398
0.172556
0.403741
0.101831
0.0520269
0.0641424
0.0598136
0.140671
0
0.0939472
0.0746056
0.0655565
0.106788
0.0469185
0.0429921
0.009923
0.0576333
0
0.145813
0.196172
0.165002
0.139323
0.058745
0.0158894
0.00445587
0.0730195
0.00383583
0.205539
0.132729
0.226299
0.214879
0.119372
0.0906399
0.0531558
0.225614
0.00639305
0.0906024
0.0654132
0.145025
0.0798335
0.0501468
0.0188759
0.0611677
0.12177
0.0116459
0.179374
0.142382
0.10015
0.122195
0.17112
0.116743
0.182702
0.23111
0.0344462
0.0981632
0.0850843
0.10068
0.149921
0.0525988
0.0590217
0.0278902
0.132337
0.0210793
0.0283754
0.0449335
0.108702
0.0848569
0.02766
0.0466626
0.0890249
0.321195
0.226134
0.279208
0.19121
0.0822514
0.074106
0.0741231
0.127004
0.108917
0.085314
0.0228613
0.069148
0.0388956
0.0732136
0.0417294
0.0738012
0.183571
0.0624003
0.0841933
0.117964
0.284639
0.239178
0.0484556
0.0178368
0.00851124
0.0519313
0.0853181
0.104485
0.0866034
0.194423
0.178851
0.0704172
0.232114
0.0434717
0.0541562
0.0503746
0.0116418
0.0364837
0.1106
0.183477
0.128308
0.0608752
0.0515043
0.0498355
0.00912811
0.0235786
0.0324307
0.201285
0.289697
0.0950615
0.447777
0.25198
0.0151108
0.0044014
0.012584
0.0010864
0.0868649
0.249115
0.187665
0.280305
0.124873
0.0467099
0.0140166
0.0163238
0.0312918
0.0393125
0.0340423
0.0468996
0.339014
0.258795
0.0794548
0.016792
0.0296621
0.0334856
0.0122385
0.00371274
0.0402645
0.379797
0.271793
0.0327029
0.000512444
0.0287087
0
0.0050178
0.0222371
0.0625944
0.410195
0.273425
0.0444313
0
0.0474003
0
0.000552501
0.000184167
0.0805195