0.0842116
0.0756172
0.0538347
0.0354097
0.0340284
0.0335048
0.269418
0.146601
0.122922
0.0122093
0.0235798
0.0485439
0.0482858
0.031282
0.0973514
0.387965
0.184618
0.0207461
0.136795
0.121871
0.050598
0.039379
0.162473
0.117114
0.280222
0.135828
0.193161
0.0394947
0.0603563
0.0763245
0.0901008
0.296809
0.307619
0.400383
0.0847925
0.0287508
0.00100254
0.00515933
0.0163904
0.100781
0.147559
0.0395861
0.066643
0.0446812
0.00211423
0
0
0.00758064
0.231292
0.511975
0.0391351
0.00916553
0.00458111
0.000302032
0
0.00921369
0.0518768
0.120106
0.221751
0.0964815
0.0609998
0.0202695
0.000302032
0
0.00124014
0.0178374
0.189839
0.675672
0.0573698
0.00495262
0.00240102
4.31475e-005
0.00686547
0.000880347
0.0167266
0.175292
0.373339
0.0548747
0.0101754
4.25454e-005
0.00109526
0.0517938
0.0199704
0.0278777
0.0718377
0.196441
0.227015
0.116647
0.0138128
0.0174345
0.0209319
0.00146725
0.0299006
0.160127
0.628196
0.0710319
0.0023979
0
0.00287982
0.152749
0.00508871
0.0606231
0.165613
0.320756
0.128545
0.204753
0.0290538
0.0364382
0.0251133
0.0168737
0.00340406
0.00160594
0.0357106
0.308515
0.237548
0.0214348
0.0154054
0.00905105
0.00327848
0
0
0.018104
0.35092
0.412734
0.116323
0.0310064
0.0639038
0.00268354
0.0103735
0.0281497
0.0507552
0.172216
0.307094
0.0928677
0.0443896
0.0102434
0.000340705
0
0.000848744
0.0220043
0.170441
0.334198
0.416475
0.127764
0.0454454
0.00629438
0
0
0.0274983
0.163761
0.211732
0.179618
0.0873857
0.0715805
0.010369
0.0150362
0.00496409
0.0590919
0.124891
0.0885306
0.0947895
0.0642009
0.0221689
0
0
0
0.00402272
0.0433369
0.145191
0.626389
0.211637
0.123568
0.0214558
0.0188346
0.000709155
0.0331081
0.0699925
0.0453443
0.454965
0.246507
0.0463205
0.0428974
0.0688472
0.0204001
0.047509
0.121899
0.107638
0.0254837
0.0144729
0.0617797
0.0926078
0.0488338
0.0122401
0.0489441
0.253652
0.240744
0.0459629
0.0161119
0.326782
0.175423
0.0816349
0.00291431
0.0380879
0.0755999
0.0272787
0.113861
0.156726
0.591466
0.361233
0.0534962
0.00174858
0.0200273
0.13662
0.0524754
0.0141157
0.055491
0.0217402
0.0187039
0.00118368
0.0185511
0.0468173
0.263834
0.201235
0.0348699
0.0387516
0.0260969
0.16076
0.144791
0.110959
0.04276
0.24049
0.212895
0.029639
0.157474
0.318776
0.110176
0.000710205
0.0309185
0.0295224
0.115429
0.0400475
0.0356893
0.109315
0.312125
0.507572
0.169995
0.0634979
0.0328813
0.0704658
0.0241157
0.0354126
0.240647
0.00630862
0.131301
0.233247
0.275683
0.100136
0.0309159
0.0268235
0.00406275
0.040147
0.00533225
0.0316189
0.185704
0.350937
0.334436
0.0232649
0
0
0.000796125
0.0844765
0.410876
0.329739
0.0898346
0.0115237
0.00706987
0.00201636
0.00331911
0.047986
0.102246
0.217892
0.335617
0.138934
0.0727586
0.0157937
0
0
0.00967723
0.0362416
0.0185484
0.0825679
0.187332
0.46185
0.127112
0.0259262
0.00392411
0.00586656
0.110598
0.0287608
0.0478821
0.0319777
0.160932
0.153529
0.144459
0.0950502
0.0389792
0.340302
0.115836
0.134291
0.071313
0.152275
0.0902625
0.0389308
0.00654018
0.0902968
0.328824
0.034724
0.025671
0.00619866
0.0449033
0.0818934
0.129555
0.216206
0.320085
0.211451
0.103949
0.0513788
0.0324206
0.128989
0.0447405
0.0564937
0.125496
0.332059
0.124705
0.0942531
0.156975
0.128612
0.383632
0.176073
0.0753517
0.0113561
0.074992
0.228648
0.0347969
0.0280423
0.0217754
0.0467001
0.013398
0.0912021
0.173196
0.352832
0.147248
0.0398802
0.101372
0.152525
0.32075
0.19257
0.0728957
0.0472607
0.112521
0.00303284
0.0103051
0.0503497
0.0538276
0.222112
0.0939955
0.0115289
0.00143568
0.000310637
0
0.00116887
0.00809952
0.0430856
0.564135
0.10998
0.00226539
0.000181202
0
0.00505474
0.00325142
0.0472497
0.131632
0.260115
0.0987873
0.0330185
0.00117086
0.00217446
0
0.000166981
0.0176858
0.156104
0.641638
0.0789067
0.00489616
0
0
0.00550949
0.000190957
0.00557352
0.0393235
0.495805
0.168741
0.00977246
0.00212131
0.000684273
0.0447034
0.00378904
0.0225041
0.0864927
0.310748
0.191014
0.19434
0.0431131
0.0365616
0.00402505
0
0.00151798
0.0940556
0.502357
0.181467
0.0200453
0.0123038
0.000447227
0.116683
0.0189252
0.0208579
0.0667799
0.225099
0.230735
0.160347
0.113891
0.130731
0.0511914
0.0185984
0.0191802
0.0656703
0.0859061
0.0854146
0.323549
0.186367
0.0745503
0.0326226
0.0357048
0.00873068
0.065509
0.0671585
0.0434546
0.165642
0.475119
0.141756
0.3458
0.0795592
0.0315351
0.0527887
0.0553735
0.0465111
0.133601
0.145741
0.240016
0.331646
0.211955
0.0272544
0.106093
0.113445
0.00945201
0.045689
0.162779
0.142563
0.0195344
0.0241993
0.00489088
0.0395726
0.0334492
0.00627534
0.0366243
0.551924
0.20978
0.146437
0.0314245
0.00812853
0.00917209
0.0101781
0.0181915
0.0133395
0.465977
0.334711
0.143282
0.171371
0.0342362
0.0684548
0.0839964
0.0122369
0.0178888
0.146934
0.102271
0.159871
0.0951962
0.0203868
0.0167872
0.0226131
0.0760369
0.0362119
0.14764
0.132074
0.337933
0.107046
0.0164321
0.00215803
0.00728535
0.0202879
0.00456292
0.088651
0.172161
0.649889
0.229428
0.0168024
0
0.0054402
0.0172938
0.00295939
0.0107677
0.0611297
0.175191
0.0945133
0.0183813
0.00359672
0.0208601
0.108207
0.0269672
0.0485641
0.0767896
0.339665
0.144977
0.0226007
0
0.0233666
0.0769192
0.0742584
0.116774
0.13791
0.374552
0.120723
0.0313672
0.00415393
0.00305763
0.00597755
0.000868492
0.00926244
0.0677481
0.307909
0.412706
0.126514
0.00967137
0.00249911
0.000765486
0
0.00577914
0.0823679
0.255319
0.0827547
0.0522788
0
0.0023337
0.00512449
0.0279029
0.054898
0.222237
0.322376
0.148178
0.130792
0.00458025
0
0
0.00195096
0.0211175
0.429668
0.143333
0.398839
0.156829
0.00958168
0.00032429
0
0
0.000509224
0.030776
0.184971
0.306561
0.127626
0.00999984
0.00493786
0.00258003
0
0.000991193
0.0491564
0.246575
0.123865
0.0856846
0.00475582
0
0
0
0.0261728
0.302438
0.520822
0.156817
0.0349017
0.000679403
0
0
0
0.0121072
0.276966
0.182712
0.078149
0.0228452
0.0012042
0.00507649
0.00562416
0.00270221
0.00298319
0.0851501
0.173067
0.0209205
0.00681738
0
0.00108395
0.0034762
0.00646134
0.0465725
0.205824
0.423006
0.052205
0.00886425
0
0
0
0
0.00416553
0.288823
0.404306
0.0250464
0.0113623
0
0
0
0
0.0110993
0.596283
0.0509175
0.00845427
0.0169105
0.0571744
0.0639026
0.0600015
0.161437
0.204777
0.11225
0.0352788
0.0552891
0.0643684
0.175789
0.169175
0.103505
0.0738076
0.0440695
0.0289222
0.0156263
0.00726604
0.126678
0.147478
0.318842
0.115892
0.199276
0.287873
0.183454
0.0133753
0.0867343
0.170233
0.242325
0.523421
0.187857
0.0835418
0.0305358
0.0311209
0.00458508
0.0226319
0.0423109
0.153314
0.16485
0.0484636
0.0338866
0.00051445
0.000955408
0.000538291
0.00215316
0.0181735
0.194873
0.507504
0.0270051
0.00484095
0
0
0.00628007
0.0373794
0.0366261
0.129046
0.337598
0.1065
0.0407156
0
0
0.000897152
0.00358861
0.00265635
0.195788
0.607419
0.147811
0.00581652
0
0
0.0115926
0.0048409
0.0164454
0.138826
0.511271
0.0649924
0.00564737
0.00635195
0.00222112
0.179235
0.0437487
0.0765216
0.0955332
0.16786
0.0707199
0.0411703
0.0995652
0.0869774
0.0173875
0.0134182
0.0221481
0.15471
0.526615
0.242272
0
0
0.00300307
0.13508
0.0826447
0.074696
0.184187
0.22609
0.125065
0.0252304
0.175147
0.039161
0.36447
0.0845231
0.0761265
0.0247157
0.0158573
0.0141571
0.0227402
0.119384
0.20864
0.324876
0.13565
0.0868073
0.0740813
0.106605
0.0373139
0.000328987
0.0324227
0.193406
0.164284
0.108189
0.133925
0.0814843
0.0275499
0.0365317
0.0426473
0.331838
0.090567
0.38574
0.228865
0.205677
0.166252
0.0533746
0.0428641
0.0112927
0.117614
0.127617
0.0992626
0.0672643
0.0336434
0.0485065
0.081975
0.0202339
0.00191796
0.0440968
0.0879407
0.080736
0.0484845
0.0088229
0.00934477
0.0228698
0.0272001
0.0134257
0.124894
0.15968
0.285767
0.107019
0.047047
0.0811548
0.04506
0.0111238
0.00478858
0.0997497
0.311655
0.139635
0.0192974
0.00686281
0.0082933
0.0121431
0.000750988
0.0335201
0.348597
0.670523
0.0312537
0.0283042
0.00799568
0.000360819
0.00518119
0.0315661
0.0130898
0.058396
0.130909
0.0391794
0.0175435
0.00595829
0
0.00637196
0.0244063
0.0754772
0.119804
0.205909
0.105541
0.0151535
0.013018
0
0
0.000465199
0.0107417
0.198353
0.447574
0.0920761
0.00804091
0.0078108
0
0
0.000775332
0.0878255
0.497819
0.553124
0.0889707
0.00668173
0.00590949
0
0.000717076
0.00199195
0.0820096
0.0758526
0.217447
0.157196
0.00406598
0.0143995
0.000517743
0.00474861
0.0122729
0.061302
0.0843228
0.433713
0.0378709
0
0
0
0
9.4319e-005
0.253049
0.402321
0.229546
0.0477266
0
0
0
0.0495419
0.0719938
0.303525
0.403624
0.283066
0.177418
0.0343397
0.0218321
0.00660938
0.016122
0.0333575
0.0539007
0.110437
0.32432
0.469467
0.120161
0.0208705
0.00992213
0.0112241
0.0180173
0.0956788
0.0648065
0.182261
0.0350358
0.0232179
0.0157423
0.0412424
0.174273
0.219482
0.19677
0.244278
0.165884
0.113073
0.0757231
0.0262372
0.0687373
0.11542
0.157587
0.261686
0.314089
0.135802
0.334267
0.0388724
0.00628814
0.00103422
0.000443238
0.001113
0.050041
0.0247751
0.179904
0.291401
0.0104752
0.00731457
0
0
0.000159
0.012917
0.025711
0.523536
0.09415
0.0265925
0.00863955
0.00723956
0.00310267
0.0108375
0.122027
0.316782
0.108646
0.0792964
0.0108013
0.00979365
0
0
0.000264999
0.0345439
0.305634
0.406583
0.0155836
0.000922234
0.0747343
0.0688085
0.179176
0.0602864
0.141232
0.224505
0.224836
0.00281853
0.011322
0.0677631
0.0962215
0.467483
0.221579
0.0565552
0.0270971
0.0548175
0.0109917
0.0031595
0.00735654
0.0381265
0.0653789
0.034852
0.301538
0.321799
0.140316
0.0149732
0.0221165
0.00441393
0.132161
0.398582
0.136389
0.1163
0.0973601
0.105691
0.000765203
0.00455455
0.00794808
0.0525534
0.362851
0.0784741
0.0124231
0.000165251
0.000661004
0.000109315
0.000437259
0.0135434
0.113118
0.411262
0.107846
0.00177473
0
0
0.00341161
0.00511742
0
0.118278
0.5046
0.0327668
0.000552564
0.0039558
0.00830007
0
0
0.0536396
0.311261
0.478139
0.032354
0
0
0
0.00745068
0.00446811
0.0323806
0.151897
0.232164
0.188145
0
0
0.00105296
0.0521547
0.0557246
0.121108
0.1929
0.142818
0.0929266
0.0206821
0.0488684
0.0107205
0.0105253
0.00224839
0.158479
0.377901
0.137166
0.0576502
0
0
0.00847196
0.0308403
0.0414914
0.496941
0.519176
0.0669783
0.0313452
0.00290683
0.000630525
0.0164666
0.0318905
0.075448
0.198349
0.0517633
0.0126984
0.0155775
0.0179522
0.0474938
0.00661318
0.231443
0.218191
0.185164
0.0359799
0
0.010473
0.00606484
0.0168438
0.0440559
0.0119557
0.0894877
0.60978
0.178577
0.00680327
0.00306292
0.00253073
0.000447235
0.00208874
0.141559
0.279032
0.478464
0.0306129
0.00546061
0.0282062
0.0271495
0.00196158
0.0631154
0.304093
0.122232
0.0282212
0.0138971
0.012087
0.0186993
0.0430376
0.0633314
0.23114
0.122017
0.0188146
0.0162639
0.0100433
0.0555515
0.0802295
0.114051
0.178784
0.330098
0.1837
0.136249
0.0643479
0.0304806
0.173722
0.123291
0.112804
0.0321604
0.174165
0.0595611
0.0200692
0.0570609
0.121782
0.549507
0.248694
0.142232
0.0646005
0.111267
0.119809
0.0291255
0.056353
0.0204357
0.0481792
0.0299976
0.0258203
0.0820196
0.205087
0.159899
0.022035
0.0662896
0.0225174
0.0241243
0.00457373
0.0439858
0.393463
0.421634
0.0622242
0.0319206
0.11392
0.16363
0.36446
0.138563
0.0217785
0.0150848
0.0404578
0.150293
0.0578423
0.176421
0.233417
0.222376
0.0556166
0.0870829
0.223894
0.257022
0.020538
0.00141952
0.00556764
0.00150913
0.000167681
0.00461641
0.175441
0.28376
0.122028
0.00207746
0
0
0
0.0193981
0.03085
0.304129
0.253376
0.0560495
0.0310831
0.0122282
0.0269626
0.0242555
0.00962509
0.0248012
0.400315
0.213266
0.109805
0.000911621
0.000327359
0
0
0.00454131
0.0818934
0.609692
0.225872
0.0414945
0.000664661
0.000503948
0.00117588
0.00837399
0.071129
0.0919741
0.188398
0.165853
0.0386568
0.00190395
0.000839914
0.0019598
0.0139567
0.0448817
0.11054
0.184081
0.174174
0.0500963
3.88561e-005
0
0.00790842
0.00510815
0.0363741
0.124949
0.671191
0.227888
0.0312902
0.000271993
0
0.0131807
0.0216976
0.0422333
0.245694
0.405995
0.155656
0.0100545
0.00435886
0.00124751
0.00152651
0.00347709
0.00460788
0.0454919
0.107222
0.442882
0.0968817
0.0631275
0.00173043
0.00173043
0
0.00519617
0.00617369
0.0179078
0.397119
0.39243
0.00529998
0
0.00328377
0.0160806
0.0417519
0.211548
0.283635
0.258318
0.0385941
0.0885283
0
0
0.00544572
0.0563456
0.0483436
0.0692496
0.257637
0.276491
0.00206909
0.00211423
0
0.00425312
0.00871193
0.00603991
0.200027
0.292406
0.040787
0.0133091
0.0211932
0.02622
0.0821088
0.104376
0.00563616
0.0655171
0.167109
0.0885917
0.000602083
0.000302033
0
0
0.000681714
0.00613543
0.183175
0.552833
0.121889
0.0668943
0.0614745
0.0659275
0.0812403
0.0198713
0
0.055076
0.563289
0.224743
0.00733624
0.0122798
0.0334849
0.217271
0.295558
0.00221318
0.00165764
0.0204013
0.0240451
0.000510166
0.000947451
0.0465352
0.412311
0.343203
0.00104192
0
0
0
0.0811383
0.0977827
0.153636
0.284789
0.0961506
0
0.00260934
0.110044
0.102283
0.0316741
0.0469563
0.134971
0.469174
0.328195
0.000426726
0
0
0.0162575
0.0045336
0.000171753
0.0625411
0.205202
0.0825097
0.00829468
0
0
0.0045336
0.00755599
0.00507041
0.171374
0.432695
0.0861424
0.0133872
0
0
0.00755599
0.00286824
0.0014465
0.0356625
0.222203
0.263272
0.0275272
0
0
0.00263168
0.00107943
0.000458896
0.048867
0.517787
0.521275
0.069607
0
0
0.00107943
0.002881
0.0369925
0.431459
0.392298
0.0415307
0.00351941
0
0
0.0015673
0.0184019
0.110666
0.318473
0.060392
0.0372072
0.057464
0.0268777
0.000851472
0.0191792
0.000546861
0.00759528
0.131967
0.519366
0.343048
0.0376169
0
0
0.0002239
0.00226072
0.0196873
0.110058
0.12263
0.152762
0.0524986
0.00383948
0
0
0.0123178
0.0337471
0.025775
0.0211168
0.208864
0.138091
0.0377894
0.000833131
0.0238122
0.00267349
0.00570405
0.0231247
0.0915935
0.507779
0.234719
0.0314763
0.0147096
0.00705099
0.000813759
0.00516313
0.0158579
0.0543816
0.316957
0.151079
0.00375678
0
0
0
0.000653299
0.0177131
0.143607
0.512032
0.348258
0.0276113
0.073557
0.0189553
0.00267945
0.00678569
0.0322913
0.123755
0.390845
0.112178
0.0127151
0.0127235
0.000490073
0.01945
0.0220048
0.0542781
0.170353
0.35826
0.0506059
0.0325805
0.0316238
0.0304006
0
0.000569701
0.0198902
0.202135
0.399602
0.134563
0.0236101
0.0641445
0.0165297
0.0017006
0.00500641
0.0151115
0.176277
0.568754
0.0803931
0.00726417
0.0148353
0.00425723
0.0115651
0.0117949
0.0155031
0.0318307
0.0445266
0.0165722
0.250666
0.0615843
0.0257197
0.0011624
0.00106184
0.000290788
0.000676596
0.000382963
0.0770062
0.663644
0.153637
0.00643288
0.00236179
0.00449869
0.00447109
0.0235788
0.127108
0.0165952
0.0839809
0.0217765
0.00244601
0.00345915
0.000909727
0.00390828
0.00273343
0.00804793
0.0406453
0.589494
0.140852
0.0012542
0
0
0.0166
0.0107222
0.0147745
0.0833063
0.494433
0.20104
0.0249184
0
0
0.0276667
0.045544
0.0293292
0.144184
0.222523
0.129806
0.0377587
0.000911863
9.06418e-005
0.0116526
0.00756168
0.0211172
0.0881992
0.468072
0.324551
0.037394
0
0
0.0168418
0.0407328
0.106139
0.249506
0.279414
0.256219
0.0621632
0.000868808
0.000600861
0.0118284
0.0567939
0.0853053
0.272365
0.340148
0.0747308
0.0236672
0.0134409
0.0042996
0.0101013
0.0276665
0.0977536
0.103254
0.135631
0.12153
0.073094
0
0.00420603
0.0147847
0.166359
0.389291
0.450854
0.253263
0.0511485
0.0274754
0
0.053056
0.139182
0.150254
0.280611
0.150631
0.0782481
0.0222851
0.016154
0.00255019
0
0
0
0.000361478
0.00186463
0.119717
0.348396
0.110442
0.100983
0.0635629
0.0272332
0.0128658
0.00440306
0.00141824
0.0216504
0.321866
0.208813
0.014073
0
0
0.00136962
0.00379437
0.00777657
0.153022
0.479413
0.259767
0.0659041
0.0530114
0.010522
0
0.0308214
0.0174246
0.190906
0.412553
0.29741
0.255531
0.233603
0.159334
0.10168
0.0224118
0.00731111
0.00722478
0.141462
0.18122
0.138792
0.125728
0.150225
0.227347
0.293656
0.0751165
0.0354527
0.0434083
0.0548867
0.177934
0.203339
0.0326999
0.00449938
0.102413
0.065748
0.228759
0.219613
0.162593
0.118474
0.131207
0.0191862
0.0379921
0.315149
0.260731
0.179088
0.162956
0.0515691
0.00583556
0.00139842
0.00872333
0.0667555
0.208241
0.107712
0.00905888
0.00348902
0.00521389
0
0
0.00275472
0.116405
0.512414
0.285924
0.00213037
0
0
0.00476752
0.00324644
0.000695364
0.00816389
0.126275
0.266379
0.078264
0.0268326
0.00340891
0
0
0
0.00365641
0.282856
0.579217
0.12632
0.00690615
0
0
0.000510579
0.008243
0.118166
0.389936
0.201024
0.00236025
0.00104501
0
0
0.000850964
0.0154414
0.0927631
0.147344
0.0421317
0.00393375
0.00174168
0
0.00254222
0.00129464
0.000205701
0.00456155
0.253499
0.712929
0.178546
0.0257331
0.000959879
0.0177955
0.00906251
0.00533896
0.0833811
0.205727
0.161803
0.0916751
0.041193
0.00671915
0
0.000115881
0.0214798
0.1782
0.18291
0.0295337
0.000535684
0.000237176
0
0
0
0.0257778
0.312596
0.270781
0.102131
0.0374605
0.0571001
0.0181142
0.0065873
0.00335463
0.0138277
0.283056
0.293969
0.028733
0.005094
0.00560951
0.0024872
0.00185254
0.00555761
0.0141503
0.512334
0.482664
0.0704571
0.081146
0.0377797
0.00258774
0
0
0.00921544
0.194592
0.246778
0.0950658
0.0356934
0.0544065
0.0172597
0.000329004
0.000416478
0.00490456
0.174272
0.376857
0.0615329
0.00509906
0.00821745
0.0028181
0.00176515
0.00529544
0.0015706
0.200363
0.511354
0.128156
0.0773181
0.0359976
0.00246567
0.00524522
0.0139306
0.0146697
0.174194
0.528775
0.0876279
0.0110455
0.00514251
0.00741521
0.00684546
0.0164268
0.010514
0.0504635
0.182351
0.00968331
0.0176948
0.00519517
0.00340802
0.0554416
0.109097
0.0374718
0.00800737
0.0223837
0.0254236
0.249427
0.058971
0.00399506
0.0146938
0.10266
0.184699
0.0713099
0.156846
0.00959814
0.000286032
9.53439e-005
0.0141352
0.148974
0.654435
0.505706
0.018155
0.0114729
0.011568
0.0154065
0.000667408
0.00456813
0.0269791
0.0635243
0.0366327
0.036919
0.0809616
0.100577
0.208772
0.0990195
0.00668592
0.00665251
0.0235009
0.0343843
0.151181
0.316177
0.260971
0.153386
0.0852944
0.0107266
0.210788
0.419846
0.229848
0.0714758
0.0656169
0.0364646
0.0183874
0.00163674
0.0075679
0.170004
0.210152
0.212262
0.374115
0.289987
0.062018
0.0132338
0.0104155
0.014384
0
0.00186402
0.0214189
0.270169
0.39007
0.185374
0.0399337
0.0112259
0.00260969
0
0.028074
0.169474
0.181509
0.16617
0.0263542
0.00244334
0.000277412
0.000647294
0.0224122
0.0403164
0.0929827
0.504303
0.393816
0.0332717
0.00180867
0.00688812
0.00458801
0.00331166
0.0171966
0.180711
0.23654
0.177875
0.0246855
0.000897661
0.00194188
0.00535897
0.0213504
0.000987096
0.00402753
0.0162376
0.0160546
0.00353273
0.074624
0.318085
0.188467
0.00621504
0.0077217
0.00192681
0.00115113
0.0140454
0.0137675
0.343666
0.560829
0.158692
0.0133539
0.00774895
0.0117678
0.0452683
0.0473149
0.0114002
0.0307337
0.108715
0.0503523
0.00429726
0.0041458
0.000840316
0.00402438
0.0115541
0.0170443
0.225834
0.497136
0.0684361
0.0271605
0.0371432
0.001402
0.00224438
0.0278474
0.0209123
0.208747
0.305182
0.122475
0.0400638
0.0492481
0.000200286
0.0217097
0.09448
0.0694483
0.183624
0.209209
0.0880809
0.013302
0.00889819
0.000527908
0.00425492
0.0119727
0.0429725
0.251167
0.432845
0.117623
0.0221699
0.0182715
0.00369535
0.0188
0.0240873
0.0534031
0.478763
0.391977
0.114904
0.00649047
0.00511739
0
0.018103
0.0666396
0.176642
0.151675
0.0737022
0.00522984
0.0172915
0.000641654
0
0.00801949
0.0775616
0.638539
0.299125
0.0433748
0.00526477
0.00621973
0.00288761
0.00111424
0.0236805
0.0303823
0.0541353
0.251758
0.278284
0.0268774
0.0368042
0.00449158
0
0.0133658
0.0520506
0.247227
0.288509
0.265031
0.0248694
0.00831167
0.00135324
0
0
0.0260254
0.323333
0.299163
0.0840749
0.00394611
0.0305267
0.0128561
0.00269694
0.0273463
0.0585438
0.0769354
0.188995
0.137706
0.0239083
0.0163586
0.00349979
0
0
0.0236067
0.127992
0.376623
0.243309
0.0118938
0.0384372
0.0162289
0.00161816
0.0121615
0.0196371
0.0240957
0.42537
0.517407
0.091038
0.0327846
0.0165146
0.00439527
0.127086
0.261761
0.0691274
0.0212326
0.0437601
0.0210034
0.0119352
0.0197143
0.000627896
0.187545
0.534789
0.18742
0.029085
0.00984956
0.0210884
0.117011
0.0510646
0.00781938
0.0398671
0.142274
0.0892307
0.117149
0.316812
0.192956
0.12284
0.0462089
0.0366523
0.0602235
0.304229
0.349391
0.0477302
0.0770955
0.176638
0.0064234
0.0159284
0
0.071115
0.49829
0.178372
0.0333085
0.0131697
0.0233312
0.0246298
0.0721688
0.0290316
0.0611956
0.392708
0.165685
0.0185381
0.0213482
0.0406953
0.0391966
0.012308
0.012912
0.0188897
0.268828
0.29855
0.0837028
0.102569
0.139009
0.192042
0.216042
0.0408026
0.00543703
0.170218
0.219879
0.109392
0.122222
0.235715
0.0159076
0.0992036
0.164166
0.0131065
0.0306674
0.0169916
0.00146
0.00485718
0.0130797
0.0321945
0.238225
0.48818
0.0562015
0.000221862
0
0
0
0.000812897
0.102633
0.299191
0.245221
0.00500818
0.00611907
0.0158859
0.01022
0.0158289
0.0512311
0.0167863
0.281928
0.590828
0.107528
0
0
0
0
0.000102764
0.192071
0.389315
0.373752
0.0772381
0.00888225
0.0106295
0
0.00474115
0.023707
0.200097
0.226516
0.157718
0.182699
0.0721233
0.0177159
0
0.0331881
0.0458332
0.0550371
0.249064
0.467755
0.165565
0.00763401
0.0177159
0
0.00284469
0.0142242
0.0795361
0.200348
0.226386
0.129891
0.047677
0.0343738
0
0.0199128
0.0274999
0.0498964
0.0757424
0.155098
0.448464
0.208979
0.0143768
0.000534459
0.0328602
0.0218874
0.0157985
0.018296
0.139641
0.256128
0.189036
0.0711591
0.0053166
0.00125373
0.00687499
0.0292662
0.166227
0.345679
0.271929
0.115964
0.054235
0.000890764
0.0197161
0.0131324
0.0328458
0.0535709
0.188877
0.272424
0.246941
0.116949
0.0202214
0.00589756
0.00236977
0.00954465
0.0162616
0.0196459
0.0569202
0.121034
0.12377
0.0872693
0.0733045
0.0266643
0.00499927
0.00611022
0.00523088
0.00634871
0.230985
0.145705
0.271288
0.362028
0.0407048
0.0446194
0.00347929
0.0134761
0.0182236
0.0859964
0.119586
0.236646
0.224853
0.0414397
0.030652
0.0075115
0.0375659
0.0472077
0.452877
0.128783
0.193165
0.204843
0.0399401
0.00418498
0.00348277
0.00475908
0.038332
0.162999
0.113632
0.209294
0.167794
0.0232766
0.0292949
0.0243794
0.0274079
0.0660598
0.0924534
0.102369
0.441596
0.333954
0.0714098
0.0114057
0.00607224
0.0169295
0.0766331
0.432197
0.126818
0.027328
0.0132099
0.0064552
0.0488248
0.0239974
0.0800351
0.115243
0.376944
0.138417
0.148694
0.0870935
0.0285237
0.00734046
0.00549111
0.00617323
0.00965142
0.00449862
0.0315571
0.266012
0.304851
0.0458223
0.0108182
0.00240974
0
0.00263798
0.031707
0.135274
0.410686
0.285472
0.0446553
0.0221649
0.0125239
0.0251922
0.0268418
0.0628116
0.0466777
0.242772
0.10756
0.0193855
0.018613
0.0085857
0.00291213
0.00922973
0.0226486
0.0633203
0.489427
0.386462
0.0612548
0.00613632
0.00187585
0
0
0.0291985
0.0573859
0.260256
0.18636
0.0517227
0.0172269
0.0050272
0
0
0.00965589
0.00643278
0.352231
0.543839
0.160295
0.00386127
0.000847127
0
0
0.00417122
0.0144167
0.158706
0.296945
0.160912
0.0256462
0
0
0
0.0011534
0.00110186
0.138044
0.29548
0.357329
0.0771813
0.0209385
0.00476391
0.00476391
0.0159701
0.0162691
0.0803174
0.325354
0.286166
0.188038
0.0239976
0.0333474
0.0333474
0.0322031
0.0819084
0.0166136
0.0888677
0.360458
0.0579767
0.00240261
0.000680558
0.000680558
0
0
0.0377755
0.169412
0.416582
0.278802
0.0130603
0.00476391
0.00476391
0
0.00202693
0.000106681
0.0528837
0.506928
0.13604
0.0034701
0.012816
0.012816
0.0302213
0.0917742
0.031904
0.0783767
0.240572
0.387816
0.164292
0.0145141
0
0.0163248
0.0521821
0.0407482
0.086033
0.249183
0.350707
0.0105051
0.00183085
0.00183085
0
0.00575597
0.000302947
0.0104723
0.277522
0.569657
0.108509
0.0010859
0
0
0.00345358
0.000181768
0.0114153
0.214565
0.266457
0.361543
0.1554
0.000656825
0
0.00187165
0.00564569
0.0125313
0.0570939
0.0675199
0.377567
0.425994
0.0338868
0
0
0
0.000506442
0.000618985
0.330494
0.255039
0.0518554
0.000884179
0
0
0
0.0014734
0.0443619
0.154951
0.356233
0.188544
0.015147
0.00717365
0
0
0.00354509
0.0053913
0.0649143
0.301896
0.340923
0.0732051
0.00175373
0.00406981
0
0.00235852
0.00288264
0.0802603
0.341404
0.254356
0.0694616
0.0271187
0.0150112
0
0.00141511
0.00172958
0.134733
0.253549
0.254076
0.0625038
0.033408
0
0
0.0165097
0.0201785
0.0615013
0.385312
0.40408
0.0794902
0.0296366
0.00205354
0.00351239
0.0099058
0.0121071
0.0311508
0.213282
0.264999
0.107364
0.0519505
0.030153
9.56484e-005
0
0.00417133
0.0910466
0.086013
0.213467
0.128182
0.0771286
0.0597161
0.034298
0.0364244
0.0291993
0.0382544
0.392989
0.492654
0.0793064
0.0149548
0.00702239
0.0120111
0.00811809
0.0161207
0.146395
0.171162
0.363755
0.126124
0.0698813
0.0624079
0.113014
0.0779065
0.0895315
0.0433999
0.00511388
0.0330983
0.0690257
0.124186
0.0603839
0.145147
0.27273
0.033684
0.0303139
0.0201932
0.0300726
0.0507124
0.157672
0.0949057
0.218615
0.357356
0.0587949
0.0370736
0.0380704
0.0720831
0.0746602
0.0949758
0.0940361
0.178152
0.279754
0.110161
0.0109201
0.0219028
0.0973869
0.0689387
0.107178
0.252214
0.259372
0.337066
0.0713839
0.00748326
0.0138632
0.0131588
0.0399367
0.267093
0.221552
0.0990943
0.0573056
0.0175029
0.0261483
0.061972
0.0849961
0.0777216
0.316788
0.27656
0.170609
0.107528
0.0476502
0.0298678
0.0239487
0.0295978
0.0521049
0.0978778
0.217634
0.146768
0.102863
0.0424654
0.132168
0.111524
0.0551338
0.0574585
0.0547178
0.175336
0.168899
0.384691
0.346241
0.0496599
0.0929921
0.0978631
0.134521
0.127992
0.056882
0.126549
0.0847832
0.0296453
0.0742731
0.0636211
0.0483864
0.0947074
0.0410267
0.0252217
0.23084
0.604206
0.0931807
0.0833203
0.145086
0.0851381
0.168209
0.0377197
0.0345802
0.0434043
0.224926
0.209541
0.0828435
0.114936
0.0944364
0.181251
0.0599758
0.0706117
0.0944151
0.226919
0.107064
0.0200985
0.00507493
0.00402954
0.00341545
0.000551171
0.0115891
0.0902877
0.421998
0.226044
0.12652
0.00833947
0.0120116
0.00282172
0.000918619
0.00578859
0.0638684
0.229428
0.60829
0.0321452
0.0235149
0.0247412
0.0244078
0.0574763
0.0759237
0.0856617
0.133781
0.101437
0.191912
0.0606106
0.0848261
0.0718184
0.138512
0.0405202
0.0314993
0.0641773
0.271771
0.135231
0.00840216
0.00435677
0.000678999
8.13198e-005
0.000151023
0.0105258
0.040086
0.394777
0.380685
0.0159514
0.000331397
0
0
0
0.001215
0.0199139
0.424875
0.22862
0.0521172
0.0304974
0.0392129
0.0472237
0.00391824
0
0.00674383
0.229367
0.374359
0.019951
0.00231978
0.0299909
0.0279049
0.0200276
0.00850503
0.0388086
0.395129
0.427657
0.0127154
0.000768391
0
0
0
0.00562889
0.0118039
0.284727
0.437158
0.0424554
0.00711334
0.0017346
0
0
0.00501251
0.00701519
0.340441
0.236152
0.00401631
0.00537874
0.0233687
0.0347295
0.00913718
0.0409322
0.0991042
0.311285
0.239432
0.0077847
0.0527441
0.0213626
0.0134176
0.00611233
0.0519096
0.0803638
0.300064
0.368002
0.178599
0.0581859
0.00634739
0.0049768
0.00769074
0.00180428
0.0126078
0.208004
0.177458
0.256816
0.277295
0.111809
0.0645471
0.0259696
0.002177
0.0225264
0.0651438
0.261072
0.0451685
0.0543013
0.0495735
0.0356215
0.0539645
0.0271097
0.0310911
0.240462
0.0893609
0.0602544
0.129056
0.209838
0.461756
0.122318
0.0164968
0.0329463
0.113566
0.0599336
0.0767435
0.278233
0.201133
0.0667086
0.00686194
0.000268534
0.0092729
0.0120109
0.0419176
0.159908
0.451052
0.159146
0.0280735
0.00268598
0.0107439
0.00410072
0.0112642
0.00644708
0.0539657
0.208396
0.277668
0.35561
0.027672
0.00187974
0.0178682
0.00762971
0.110954
0.322881
0.292125
0.15166
0.09127
0.00161159
0.00644635
0.0236557
0.0229947
0.0806257
0.169435
0.332783
0.0556282
0
0.00928527
0.0394612
0.0343606
0.0748479
0.116006
0.094742
0.148485
0.13371
0.0862519
0.0483989
0.0988137
0.123125
0.144664
0.244001
0.269943
0.107903
0.0159754
0
0.00557116
0.0624092
0.0749606
0.18374
0.159061
0.0729641
0.0155821
0.0408192
0.0335251
0.0247638
0.397551
0.343892
0.270872