0.15886
0.0557909
0.134369
0.0331511
0.0552506
0.0669769
0.0348701
0.0540328
0.0617625
0.0932122
0.0917332
0.218792
0.0714183
0.0737042
0.0627349
0.0462398
0.0929964
0.0383731
0.113384
0.0261945
0.218018
0.152996
0.0880541
0.0433502
0.0936351
0.0769246
0.146943
0.0585329
0.118016
0.15323
0.232752
0.140886
0.0720624
0.0718186
0.117288
0.0967892
0.0189892
0.101502
0.137306
0.0807285
0.0306949
0.0222012
0.0196841
0.048477
0.0270115
0.061711
0.182443
0.125312
0.112973
0.013171
0.0275595
0.0263347
0.0587758
0.0714188
0.028612
0.102336
0.0893664
0.11666
0.0712084
0.0529332
0.061893
0.0917128
0.04803
0.193208
0.489549
0.219097
0.104351
0.0124986
0.0279127
0.065208
0.123177
0.068732
0.0147122
0.0102957
0.00650492
0.00711467
0.00217507
0.00880649
0.00727278
0.00461447
0.00774873
0.0410551
0.0364723
0.00745943
0.00289061
0.00358
0.0214798
0.0187085
0.0108569
0.00739806
0.0658228
0.232431
0.0348516
0.00606888
0.000285494
0.00462061
0.00549517
0.00508777
0.00317894
0.316072
0.864852
0.0227786
0.00255773
0.000333758
0.0147144
0.00811803
0.00606257
0.00210392
0.059993
0.0344123
0.00248601
0.00032678
0.000609394
0.00595787
0.00516774
0.00420823
0.0121424
0.226548
0.0348365
0.00546366
0.00195021
0.000677322
0.00137385
0.000912093
0.00146244
0.0201
0.380297
0.456319
0.00148495
3.98002e-005
2.16729e-005
0.00422164
0.00189374
0.00182785
0.00565287
0.658034
0.300395
0.000528135
0.000278602
6.63067e-005
0.000374316
0.000125689
0.00800765
0.0325315
0.183282
0.00791833
0.00222562
0.000572783
0.00100729
0.00141461
0.000550438
0.00014708
0.0396973
0.179218
0.00262409
0.000881894
0
0.00218294
0.00280546
0.00822629
0.00105626
0.156136
0.535719
0.0369929
0.000249801
8.18262e-005
0.000143898
0.00687132
0.00293688
0.0163815
0.119715
0.528065
0.00450744
0.000125985
0
8.63389e-005
0.0126673
0.0163475
0.00982892
0.522401
0.0741606
0.00354399
0.00420499
0
0.00179318
0.00170666
0.00841219
0.00775061
0.181994
0.0162219
0.00428673
0.00467221
0.000139697
0.00189732
0.00139889
0.00448793
0.0427357
0.19522
0.190015
0.00514857
0.000600713
0
0
0.00322005
0.0135164
0.0257866
0.607882
0.0430855
0.00249398
0.000656713
0
0.000169935
0.000280508
0.00193501
0.288411
0.607882
0.00268604
0.00190392
0.00112168
0.000488456
0.00375189
0.00337253
0.00486847
0.0482427
0.100787
0.00770553
0.0083286
0.0013193
0.000293074
0.0128001
0.00914102
0.00580282
0.0318717
0.0431402
0.00192919
3.45389e-005
8.05908e-005
0
0.000706117
0.000594328
0.00402903
0.538041
0.465274
0.00426105
0.00406447
0.000402362
0
0.00315908
0.00236595
0.0187345
0.611259
0.197591
0.037391
0.0641608
0.00720526
0.0110669
0.0388851
0.0186847
0.00387755
0.0302881
0.0544706
0.0298556
0.0623083
0.0350506
0.0230469
0.0366246
0.00842145
0.0122972
0.0202983
0.015096
0.045728
0.0402616
0.00598701
0.0180473
0.0106632
0.00409803
0.0705608
0.828218
0.201423
0.0945055
0.058865
0.0308549
0.03284
0.0315515
0.0147609
0.0329482
0.192919
0.0383035
0.0665805
0.0631718
0.0728976
0.0323267
0.0488827
0.0359967
0.0774569
0.0756575
0.0398375
0.0914208
0.0707636
0.127044
0.123326
0.202423
0.0960998
0.118994
0.0839965
0.0313283
0.231407
0.110007
0.0935984
0.0947807
0.0963397
0.0539722
0.0170114
0.0675801
0.0451262
0.266253
0.137587
0.180441
0.231872
0.231404
0.0673283
0.0434374
0.0249865
0.0279016
0.0298922
0.00949167
0.0708698
0.0475138
0.0430246
0.0118916
0.0414643
0.0651199
0.130401
0.0162029
0.0857569
0.0844244
0.121753
0.0879273
0.0376869
0.0285467
0.0431606
0.0585084
0.0218276
0.0411361
0.107509
0.0269303
0.0426184
0.0450167
0.0459925
0.0877214
0.157499
0.01845
0.141519
0.615958
0.176098
0.0625581
0.0586261
0.0561416
0.0285232
0.0537114
0.00285598
0.0135306
0.0239198
0.0121884
0.00399284
0.00350556
0.00177741
0.00333343
0.00300115
0.0203613
0.177937
0.14111
0.00850943
0.000636693
0.000735796
0.00152292
0.00374408
0.00608674
0.00145977
0.0603001
0.292188
0.0275448
0.00197155
0.00390083
0.00140688
0.000756661
0.000667846
0.00685187
0.567187
0.683986
0.0175293
0.000118374
0.000557261
0
0.000269857
0.00254331
0.0186775
0.271829
0.0866361
0.000439414
1.27789e-006
0.000202891
0.000223268
0.000339281
0.000967754
0.105213
0.488221
0.0440888
7.41627e-005
0
0.000504132
0.000108923
0
0
0.00832481
0.488221
0.346679
0.000485882
0
0
0
0.000487886
0.000739831
0.0855286
0.488221
0.119647
0
0
0
0
0.00371626
0.00577827
0.263233
0.441897
0.00373726
0
0
0.000203205
3.58597e-005
0
0.00148256
0.495609
0.198573
0.00107362
0
0
0.00363231
0.00363231
0.0148258
0.0362268
0.189493
0.37092
0.0182319
0
0
0
0
0.00187823
0.0119241
0.412074
0.232848
0.0151493
0
0
0.00605385
0.00605385
0.00896813
0.0384717
0.564907
0.0473854
0.0045241
0.0104655
0.00810838
0.070545
0.0262066
0.0624742
0.117551
0.342343
0.0197418
0.00271446
0.0256897
0.0371257
0.127931
0.1143
0.0443713
0.315087
0.329694
0.235005
0.0398358
0.0732587
0.0205369
0.0919381
0.0320504
0.0374845
0.0519324
0.113767
0.147534
0.074149
0.179828
0.0976843
0.183097
0.186542
0.0472942
0.0624821
0.115921
0.0211472
0.00139908
0.00501437
0.0105875
0.0566367
0.0928849
0.0273364
0.380617
0.0414542
0.0191167
0.00233179
0
0.00248619
0.0273474
0.0318683
0.304585
0.576509
0.0433352
0.0325339
0.0193042
0.0351006
0.0506927
0.131615
0.343134
0.0283125
0.0781046
0.0242412
0.0348716
0.00687462
0.00649219
0.090359
0.145636
0.284233
0.152329
0.241607
0.00139565
0.00135686
0.000239446
0
0.000693978
0.000600701
0.00552319
0.412902
0.236802
0.000608843
0
0
0
0
0
0.0611161
0.528235
0.0902778
0.00951808
0.00906365
0.00266648
0.00492603
0.0229983
0.0219608
0.0252527
0.306112
0.154322
0.00488131
0.000971745
0.000323915
0.000703719
0.000469146
0
0.166017
0.528235
0.0660677
0.00291187
0.000884178
0.000120413
0.00040906
0.000136353
0
0.108915
0.345039
0.017258
0.0121003
0.00431303
0.000624606
0.000681767
0.00220182
0.00131638
0.0936661
0.114457
0.00731328
0.000466519
5.84916e-005
0
0
0
0
0.43658
0.520172
0.00491115
0.00434327
0.00043689
0
0
0.000244463
0.00734963
0.520172
0.251855
0.00696848
0.0408568
0.0138622
0.00447808
0.0152824
0.0216545
0.00702052
0.0686543
0.0600891
0.0272247
0.0359988
0.0401299
0.0109522
0.0297537
0.0383842
0.00831564
0.0142175
0.0114742
0.0164106
0.0182016
0.00127539
0.000569111
0.00865834
0.0300295
0.0884141
0.880465
0.161847
0.0520305
0.0293678
0.0307954
0.00483916
0.0262181
0.0592904
0.0852939
0.0814444
0.0285551
0.0349944
0.0027645
0.00416557
0.00566868
0.0070596
0.00724764
0.00863648
0.0124821
0.00619851
0.00641939
0.00166778
0.0128117
0.229747
0.0923334
0.0129698
0.00459966
0.0053201
0.00437348
0.00233154
0.00397889
0.00203373
0.0147616
0.0616182
0.0210733
0.0179728
0.0230253
0.0389384
0.012338
0.00164199
0.00207477
0.678424
0.627426
0.0483312
0.0116953
0.00684591
0.00911487
0.000539552
6.79185e-005
0.0462162
0.338175
0.0508523
0.0017215
0.000355303
0.000385849
0.000313219
0
0.000228765
0.218673
0.478603
0.0274091
4.75272e-006
4.27745e-005
0
0.000195868
0.000239394
9.70263e-006
0.02794
0.478603
0.261573
0.00683767
0.000391174
0.000299709
0.000407574
0
0.00160136
0.104569
0.478603
0.132801
0.00675339
0
0.00102111
0.00171145
0.00167576
0.00310831
0.284533
0.351393
0.00844109
0
0
0
0.00192996
0.00121592
0.03613
0.367588
0.152514
0.00354427
0
0
0
0.0123252
0.0116341
0.00596484
0.131968
0.325086
0.048166
0.0055548
0
0.000495654
0.00297722
0.00275114
0.0101348
0.417598
0.531405
0.0244205
0.000718501
0
0
0.00736275
0.00485159
0.0839855
0.301776
0.0780581
0
0
0
0
0.00475464
0.0105589
0.260431
0.370167
0.0391614
0
0.00111739
0.0018347
0.000920468
8.15894e-005
0.00958573
0.0277815
0.487932
0.285798
0.00782195
0
0
0
0.00259169
0.0035637
0.171899
0.525716
0.0916818
0.00111742
0.0191583
0.0223523
0.0373097
1.16556e-005
0.00939205
0.308101
0.356374
0.0318656
0.0442619
0.0185346
0.0369967
0.0180018
0
0.0293994
0.111267
0.190015
0.109233
0.128388
0.0838353
0.108488
0.0878859
0.0191797
0.0646755
0.244058
0.326429
0.0436514
0.0573992
0.102639
0.115727
0.101712
0.035044
0.0392281
0.10922
0.487222
0.21145
0.142937
0.149933
0.177272
0.0662297
0.0750763
0.0633539
0.0180989
0.038752
0.130704
0.0632893
0.0893619
0.0912391
0.214832
0.0161049
0.0256316
0.00883188
0.0214653
0.152653
0.109618
0.224404
0.144578
0.218634
0.0159413
0.0321527
0.0174649
0.348233
0.44593
0.0967551
0.0668593
0.053738
0.0267087
0.0200304
0.0173533
0.00403135
0.0999588
0.51029
0.233535
0.167873
0.0400523
0.0236909
0.00194106
0.0021869
0.0472193
0.0237583
0.0404024
0.0719109
0.102305
0.0506111
0.0320862
0.126207
0.0779881
0.0687764
0.0208558
0.00391803
0.00846083
0.00354835
0.00086007
0.21912
0.553837
0.072001
0.123485
0.0754357
0.160715
0.212474
0.184895
0.0263011
0.0325964
0.029592
0.0317833
0.219469
0.126647
0.0717787
0.0670896
0.0939568
0.0400142
0.482346
0.22909
0.105131
0.00555778
0.00235852
0
0
0
0.000839565
0.35141
0.207113
0.00477387
5.02768e-005
0
0
0
0
0.0373576
0.545134
0.109363
0.00104199
0.0169785
0.00998457
0.00312809
0.000469543
0.0198092
0.0200509
0.337585
0.0749708
0.0143753
0
0
0
0.000782572
0.0133685
0.222259
0.545134
0.039042
0
0.000174032
0
0.000155653
0.000457375
0.0044609
0.107316
0.445794
0.0208817
0.00318798
0.00193301
0.0022186
0.0012951
0.00538149
0.013453
0.0754385
0.0668089
0.00930444
0.00354101
0
0
2.22362e-005
0.000176162
0.011499
0.490679
0.573799
0.00823066
0.000143145
0.000731184
0.000698806
0.000278972
0.00206649
0.0635572
0.328763
0.199521
0.00983205
0.00268745
0.00256473
0.000918571
0.0198474
0.0742172
0.0217743
0.00384604
0.0375906
0.104482
0.0226154
0.00141091
0.000457807
0.27517
0.534212
0.0443699
0.00230806
0.0034384
0.0131772
0.00823798
0.00137342
0.0155938
0.109022
0.132399
0.0290296
0.00859836
0.170265
0.341283
0.0386516
0.000824053
0.0255013
0.294672
0.534212
0.0861603
0.00286266
0.0333011
0.0730149
0.0212042
0
0.00572082
0.397997
0.477408
0.027686
0.000505312
0.000373832
0.000145565
0
0.000882208
0.0222752
0.267826
0.209939
0.045223
0.00288286
0.00173616
0.00126506
0.000923198
0.00456593
0.00823398
0.146864
0.543337
0.104587
0.006917
0.00104608
0.000933804
0.000162953
0.0209816
0.0101146
0.123049
0.232818
0.187271
0.0692044
0.00740962
0.00429334
0.0128883
0.00204041
0.0435945
0.328779
0.0852419
0.0197182
0.00560611
0.000502477
0.00080223
0.000785503
0.00154644
0.161774
0.554269
0.0422201
0.00254537
0.00333029
0
9.18119e-005
0.000112215
0.0318031
0.0654006
0.336869
0.142293
0.0873614
0.0785567
0.00494258
0.00314242
0.0295825
0.0209424
0.119794
0.554269
0.123087
0.0176244
0.0303042
0.00126215
0.000662235
0.0187468
0.0142186
0.349622
0.556835
0.0216077
0
0
0
0
0.00148694
0.116565
0.386285
0.136486
0.00270238
0.0236188
0.0631754
0.0826754
0.00628699
0.0141688
0.0157018
0.103677
0.515395
0.0767641
0.00877785
0.00223896
0.000959556
0.000951558
0.00657708
0.0457107
0.076466
0.0928571
0.0156091
0.00963245
0.0456841
0.0326066
0.0138337
0.0268231
0.159389
0.151343
0.0205366
0.0243469
0.0849892
0.129123
0.171288
0.0646133
0.0596835
0.176026
0.674542
0.16082
0.0490152
0.0696088
0.0829465
0.0733675
0.0872667
0.0833823
0.150381
0.0631091
0.00800606
0.00475342
0.0173967
0.0656145
0.0905367
0.0496546
0.0668471
0.230791
0.38024
0.0627868
0.00129335
0.0110312
0.0140135
0.0501673
0.0468663
0.0706023
0.0454002
0.643619
0.381594
0.0357234
0.00899441
0.014823
0.00111409
0.014619
0.0156532
0.00835787
0.176621
0.352728
0.129857
0.171393
0.0211816
0.00076133
0.000463706
0.00373536
0.0582453
0.284291
0.0946164
0.00903017
0.00190366
0.0014139
0.00164069
0.00865231
0.0213046
0.0166904
0.0755157
0.052657
0.0365046
0.150117
0.10052
0.0189691
0.00437522
0.0139004
0.0262018
0.0369053
0.0498162
0.0762815
0.191809
0.0724704
0.0549008
0.00623478
0.00434392
0.0432826
0.0569366
0.0374333
0.0346009
0.137116
0.210422
0.418852
0.0484938
0.0190223
0.00164098
0.00752099
0.00548944
0.0188599
0.15632
0.264022
0.105957
0.000942961
0.00157349
0
0.00686228
0.00457486
0.00655446
0.137016
0.608886
0.37441
0.00228716
0
0.00604461
0.0075663
0.00406392
0.00231392
0.0555953
0.164365
0.298037
0.0276566
0.00608034
0
0
0
0.00735372
0.0528473
0.359829
0.339128
0.0143648
0
0
0.00087084
0.00058056
0.0033669
0.123354
0.49962
0.244308
0.00188674
0
0
0
0
0.0182621
0.168374
0.446549
0.154478
0.00139133
0
0
0
0
0.00144566
0.0277468
0.420371
0.219187
0.00151537
0
0.000522846
0
0
6.6223e-005
0.0856781
0.372509
0.0935874
0.00188826
0.00237768
0
0
0
0.00443848
0.145881
0.482377
0.0824927
0.000125453
0
7.46923e-005
0
0
0
0.278246
0.482377
0.0322556
0.000718241
0.00118759
0.0491567
0.0433133
0.123728
0.0966514
0.0756529
0.0419259
0.189882
0.213452
0.0233306
0.0179729
0.0395693
0.214365
0.486637
0.202823
0.0463693
0.0652216
0.0587795
0.00857899
0.181306
0.0491661
0.0488457
0.0309525
0.110388
0.120047
0.0581567
0.0716375
0.26415
0.06445
0.0171543
0.036173
0.110226
0.501729
0.257754
0.0393342
0.0262833
0.049405
0.0107775
0.0120122
0.0906663
0.438505
0.272814
0.0601206
0.00480171
0.0071385
0.00104555
0.072594
0.0333065
0.0335583
0.162684
0.254089
0.143525
0.0475508
0.0372386
0.0396821
0.00557061
0.0024692
0.0468183
0.098585
0.52024
0.175423
0.0128587
0.0120509
0.0046583
0.102959
0.168004
0.29824
0.113065
0.109925
0.0405475
0.0417163
0.0921106
0.112825
0.102646
0.185076
0.169384
0.0990023
0.0969803
0.117145
0.0337853
0.0332582
0.0804376
0.0589928
0.241717
0.413264
0.142605
0.0285727
0.045819
0.0156116
0.0161176
0.0561776
0.0938047
0.196285
0.144236
0.0416853
0.024957
0.0132942
0.0653236
0.258874
0.217198
0.0279945
0.101205
0.0654038
0.0328372
0.0175406
0.0182384
0.0974434
0.50573
0.258117
0.0296088
0.0924397
0.404694
0.177271
0.0464832
0.0415503
0.0363063
0.00999638
0.037216
0.0496692
0.0277608
0.0637665
0.0590142
0.0561557
0.0307559
0.0249006
0.0189562
0.0608358
0.0175312
0.020826
0.0580691
0.0448403
0.0679202
0.0797771
0.119924
0.563248
0.360788
0.0297447
0.0243854
0.0185551
0.036039
0.175285
0.123231
0.0508547
0.102844
0.140795
0.219692
0.111409
0.0797847
0.0398609
0.0802016
0.0579533
0.0678693
0.0761311
0.134799
0.331668
0.319153
0.134208
0.00984787
0.102934
0.0569892
0.053028
0.116576
0.126263
0.0395729
0.071089
0.0972587
0.0707368
0.223202
0.114769
0.0473098
0.0360106
0.0544847
0.0423165
0.057119
0.165421
0.0669828
0.234762
0.141278
0.0702891
0.0616649
0.0549487
0.0736137
0.119779
0.0519862
0.00805865
0.0401568
0.0259839
0.00552345
0.0281945
0.0581653
0.0788606
0.0945141
0.0361483
0.0630247
0.113781
0.158908
0.0516485
0.037881
0.083742
0.0160002
0.0420728
0.0504683
0.0467104
0.151124
0.0691921
0.0433795
0.0264656
0.0224249
0.257092
0.187417
0.514041
0.243562
0.268969
0.0384345
0.0519962
0.0449966
0.320701
0.0142669
0.00598297
0.000922233
0.0150299
0.0518289
0.197053
0.0332264
0.00197183
0.00903659
0.00683944
0.0015152
0
0.0199467
0.240444
0.587134
0.0843224
0
0.00247735
0.0900515
0.0198599
0.0829036
0.080239
0.0709754
0.0744564
0.0213819
0.0152745
0.091203
0.0490937
0.00385616
0.0354885
0.304454
0.530901
0.252655
0.0238792
0.0173061
0.0432896
0
0
0
0.00837974
0.255048
0.342994
0.0601733
0
0
0.0018523
0.00123487
0
0.0190936
0.251963
0.256124
0.0383747
0
0
0
0
0.0137616
0.191852
0.543865
0.162914
0.00468927
0.00155492
0
0.00308716
0.00205811
0.0100425
0.156367
0.472858
0.146656
0.00188647
0
0
0.00152228
0.00101486
0
0.0117628
0.253146
0.248981
0.0124758
0
0
0.000217469
0.000144979
0
0.00568651
0.38756
0.463178
0.0353461
0.0209405
0.00380178
0.00926615
0.00169143
0.00220446
0.0858996
0.375462
0.09507
0.00999492
0
0.00383041
0.0474655
0.000241632
7.80567e-005
0.062272
0.437417
0.264113
0.114655
0.119883
0.0846445
0.0728716
0.00735724
0.00319913
0
0.0533106
0.161844
0.0260807
0.0835518
0.235617
0.02331
0.00272703
0.000361711
0.0047447
0.342858
0.361003
0.0224234
0.0384546
0.0428666
0.0244186
0
0
0
0.0796012
0.346684
0.0393829
0.0583062
0.0990851
0.00244897
0
0.00535497
0.0134667
0.317614
0.588767
0.0417227
0.0243454
0.0130359
0.00201819
6.91334e-005
0.0431072
0.0548275
0.242798
0.123061
0.00345784
0.00156486
0.00201819
0.0182692
0.0814935
0.328157
0.173675
0.0511192
0.00783147
0.00351724
0.0364112
0.0430347
0.000288313
0.00257054
0.139875
0.176853
0.219113
0.437222
0.0238257
0
0.000288313
0.0294823
0.0837868
0.435333
0.455392
0.0792784
0.0261543
0.0130827
0.0567658
0.0357171
0.0199047
0.103141
0.199364
0.0821148
0.0109006
0.00645215
0.0543213
0.234381
0.143867
0.00672137
0.0223327
0.0195745
0.00746627
0.0263694
0.0573137
0.10784
0.562867
0.218325
0.0416329
0.0901706
0.184784
0.179208
0.0425518
0.0497201
0.086156
0.211085
0.0962213
0.0336478
0.0558652
0.0517644
0.017557
0.163018
0.310785
0.172142
0.30959
0.106169
0.00923226
0.00935492
0.0221495
0.00884865
0.0760533
0.178065
0.0662687
0.407854
0.173412
0.00845859
0.00456126
0.0131392
0.0139458
0.162573
0.16923
0.0297305
0.087096
0.0501214
0.0358601
0.0654845
0.179048
0.102478
0.249147
0.444141
0.143034
0.204516
0.0592611
0.00635375
0.0117753
0.110439
0.140278
0.353684
0.230103
0.0761863
0.0682008
0.0343349
0.0308614
0.0333908
0.030271
0.0307124
0.282589
0.144427
0.0385593
0.0349102
0.029734
0.0337251
0.0202751
0.0957152
0.0417502
0.177707
0.103225
0.084881
0.0750614
0.0376949
0.0147899
0.0311241
0.040833
0.0996348
0.445197
0.150427
0.127945
0.131422
0.0939021
0.0192266
0.0186745
0.100155
0.0554914
0.227735
0.229006
0.162382
0.179293
0.0545936
0.000677422
0.00156054
0.0139771
0.0353756
0.0426966
0.0116231
0.0111438
0.0103025
0.00172949
0.030077
0.0228915
0.211225
0.256085
0.177775
0.0204572
0.0251966
0.0159578
0.0449744
0.000382495
0
0.0132591
0.0518476
0.107406
0.0555123
0.0144153
0.0271646
0.00219996
0.00202803
0.00209466
0.10176
0.400961
0.736795
0.180411
0.0199859
0.0284842
0.00841673
0.0858516
0.0175928
0.163598
0.154753
0.0712809
0.0339429
0.0522107
0.0397493
0.069395
0.0866302
0.010484
0.179197
0.454759
0.208227
0.0336229
0.0446405
0.0447029
0.037446
0.131101
0.0315035
0.0993332
0.210858
0.309499
0.115705
0.0346768
0.0397495
0.0181013
0.214624
0.0566884
0.250959
0.474479
0.192259
0.0398302
0.0241151
0.0505126
0.0317992
0.00997029
0.00132115
0.120638
0.390719
0.303011
0.01582
0.00383138
0.00458052
0.00411803
0.00532673
0.00107738
0.0546045
0.267604
0.350113
0.0226515
0.00883884
0.00390115
0.0134111
0.0746962
0.00876529
0.172859
0.436466
0.234536
0.0109915
0.00366371
0.0427326
0.0924775
0.0801434
0.00516399
0.148738
0.293406
0.216799
0.0611293
0.0211771
0.0349725
0.151364
0.0187985
0.00106586
0.0121735
0.152225
0.324034
0.0218645
0.0241527
0.00488387
0.0135367
0.128828
0.000152265
0.0169938
0.140243
0.290386
0.060216
0.112185
0.121235
0.149186
0.0386266
0.00777526
0.272498
0.303245
0.149612
0.033313
0.0337169
0.00999323
0.060307
0.271086
0.0193952
0.285965
0.273133
0.10461
0.0162151
0.081241
0.0566741
0.433616
0.00308557
0.000241531
0
0.000838801
0.0573721
0.216126
0.0160007
0.0153927
0.00768122
5.17566e-005
3.45044e-005
0.00552515
0.0162556
0.112654
0.579586
0.133609
0.0057976
0.000586171
0.00498771
0.00314786
0.000937885
0.00587161
0.0401874
0.108315
0.0253301
0.00957044
0.00159125
0.000930884
0.000339058
0.00191891
0.00933513
0.0558013
0.579586
0.414871
0.0113621
0.000197156
0.00148677
0.0151858
0.0715636
0.0898185
0.0657412
0.344381
0.137422
0.0243582
0
0.0320341
0.180207
0.167204
0.153145
0.062017
0.0279494
0.0682574
0.0534424
0.008296
0.00247795
0.0260638
0.0148592
0.0219204
0.0347471
0.368674
0.552349
0.0412234
0
0.0203297
0.239074
0.0634868
0.0210963
0.0457905
0.119217
0.405723
0.0656881
0
0.037413
0.158217
0.0761484
0.0484933
0.0250405
0.0245963
0.175851
0.133786
0.0227064
0.0136272
0.0292005
0.0267698
0.00924641
0.0803445
0.220265
0.314309
0.175762
0.0144597
0.0131113
0.173245
0.0462196
0.00281826
0.0109539
0.0297391
0.324561
0.163576
0.000569978
0.000596817
0.0113255
0.00575179
0.00112337
0.0172234
0.0656165
0.537709
0.448198
0.00950161
0.0072334
0.0134335
0.0556122
0.0417276
0.0605045
0.167491
0.216387
0.10299
0.0104765
0.00273087
0.0021426
0.0338039
0.0498579
0.0658184
0.0451368
0.127124
0.170168
0.126121
0
0
0.00426734
0.00467931
0.00807141
0.0619549
0.322337
0.409215
0.0502597
0.00504999
0
0.0025604
0.00476429
0.00356203
0.0166383
0.14357
0.584021
0.360815
0.0121144
0.000709044
0.00167816
0.0076108
0.0203249
0.00430749
0.0231085
0.0801072
0.173038
0.0374011
0.000425426
0.00355547
0.00501365
0.0114067
0.015319
0.0210906
0.0591526
0.177638
0.0770689
0.000868699
4.18926e-005
0.000580582
0.00132179
0
0.0125687
0.256595
0.56743
0.223193
0.0060809
0.0209073
0.0253825
0.0413251
0.0674743
0.0285096
0.187208
0.605155
0.0146596
0.00190048
0.00647952
0.0207231
0.0727234
0.0393345
0.0195152
0.0559308
0.0682669
0.000510957
0.00316747
0.0122908
0.0981388
0.568496
0.297992
0.0354759
0.0257321
0.0136669
0.0719461
0.0056023
0.0285507
0.0583612
0.169858
0.110678
0.073499
0.158201
0.181703
0.00400728
0.00527912
0.013534
0.0455724
0.434271
0.371392
0.166485
0.0883677
0.0745157
0.0921248
0.026053
0.0183055
0.0775215
0.300512
0.200139
0.0493706
0.0141698
0.0258563
0.19448
0.137339
0.0893825
0.141327
0.188067
0.0411745
0.0262889
0.0249258
0.056874
0.202238
0.0152731
0.00566277
0.0165454
0.162837
0.235347
0.1416
0.0776642
0.163543
0.624333
0.233471
0.0589302
0.0173499
0.05227
0.0414268
0.0506886
0.0354143
0.158279
0.0723514
0.102567
0.0722777
0.111991
0.136284
0.0139458
0.00107516
0.035145
0.087515
0.0586272
0.0733395
0.314895
0.233123
0.0701971
0.053
0.00752614
0.0236338
0.0938343
0.202521
0.269925
0.224086
0.0190986
0.034648
0.00498894
0.00011731
0.00496387
0.042684
0.034609
0.235009
0.643217
0.239078
0.0265385
0.00795242
0.000821171
0.00297832
0.0208665
0.0237165
0.0153247
0.426611
0.265209
0.0119069
0.0175974
0.00509547
0.00148279
0.0189291
0.169352
0.0351737
0.311484
0.17241
0.0041867
0.001767
0.0084226
0.00654325
0.198597
0.0101215
0.0368435
0.547455
0.294583
0.00705183
0.00289308
0.000259065
0
0.000453614
0.0597241
0.0291862
0.274622
0.159726
0.00663995
0.00442458
0.0121787
0.00561153
0.0469012
0.0161249
0.011187
0.00773707
0.00778613
0.0243705
0.0578871
0.0385344
0.0166684
0.00551122
0.0055186
0.00312142
0.00225385
0.00685162
0.0486814
0.560329
0.656017
0.0208727
0.00360424
0.0243694
0.0205139
0.0110941
0.00340617
0.015742
0.028904
0.0239295
0.0116383
0.0181595
0.0188133
0.0131608
0.00373961
0.00941403
0.0496814
0.212943
0.290311
0.013421
0.0216356
0.000333969
0.00412305
0.000643719
0.000139631
0.0055287
0.156478
0.422533
0.0169025
0.000326926
0.00188587
0.0337998
0.00594593
0
0.0037498
0.0807107
0.510236
0.086055
0
0.000644121
0.00019869
0
0.00136469
0.00624796
0.0658841
0.321568
0.039972
0.00228849
0
0
0
0.00016171
0.000377324
0.028061
0.510236
0.316699
0
0.000825289
0.0186182
0.00368477
0
0.000603682
0.017146
0.254817
0.118654
0.000274197
0
0.000864837
0.000244693
0
0
0.00206749
0.172384
0.228289
0.0231696
0
0
0
0
0
0.00335175
0.468892
0.4909
0.00294256
0
0
0
0
0
0.000237117
0.160181
0.54144
0.0698006
0.00194814
0
0
0
0
0.00162817
0.105629
0.343691
0.105025
0.0321255
0
0
0
0
0.000232596
0.0242327
0.381964
0.353397
0.00379491
0
0
0
0
0
0.0212866
0.447816
0.213135
0.0865982
0.00952487
0.00298787
0
0
0
0.000938079
0.244156
0.452972
0.131546
0.0058782
0
0
0
0
0.000771779
0.127154
0.424129
0.288318
0.0535323
0.103348
0.075054
0.0404488
0.0635415
0.00870672
0.0743001
0.345235
0.244688
0.0186334
0.0114315
0.00432054
0
0
0
0.0461118
0.367656
0.434725
0.0879906
0.158756
0.0613483
0.00879815
0.0178257
0
0.00391236
0.242013
0.124293
0.0464955
0.179244
0.24033
0.216657
0.143482
0.0427616
0.0824844
0.10372
0.0117062
0.0093045
0.0315139
0.127439
0.249549
0.175303
0.127899
0.114554
0.0826327
0.302782
0.106383
0.252572
0.185476
0.0546256
0.0655575
0.00182472
0.00532079
0.148348
0.409246
0.335434
0.0425448
0.103423
0.0556332
0.0492973
0.0211934
0.053357
0.147559
0.0997959
0.019133
0.00279273
0.00153035
0.0192708
0.0395921
0.0441486
0.0566249
0.0996744
0.300911
0.16359
0.123822
0.00618626
0.000474291
0.00468821
0.00912226
0.0163103
0.0861985
0.157747
0.410707
0.0154999
0.00170874
0.00253263
0.00230084
0.00579249
0.0251824
0.0368659
0.118819
0.645402
0.376444
0.00371176
0
0
0.000531114
0.00639313
0.0195568
0.0764704
0.150639
0.265943
0.00382454
0
0
0
0
0.00958824
0.0103135
0.144312
0.461451
0.0461444
0.00285581
5.50728e-005
0.000165218
0
0.0023447
0.0162916
0.446867
0.399168
0.00229473
4.7034e-005
0.000141102
0
0
0.00147796
0.00576946
0.23995
0.449433
0.00845877
0.00472709
0.00226725
0.00115653
6.39818e-005
0.00210226
0.00681526
0.0700756
0.85311
0.191157
0.0240414
0.00326875
0.00125369
0.000953899
0.00378999
0.0171926
0.0110978
0.141582
0.0912115
0.0282873
0.0206579
0.0123004
0.00547331
0.0152771
0.00821907
0.0818512
0.3223
0.0339495
0.0302399
0.0142057
0.00882189
0.00221353
0.0124842
0.0139163
0.00690292
0.0203142
0.015484
0.026141
0.0281583
0.0101392
0.00632167
0.0227578
0.012447
0.00751301
0.00471227
0.000477072
0.0077856
0.0499887
0.125443
0.0290335
0.0272245
0.0171509
0.0054462
0.000978133
0.00496454
0.0372719
0.0410979
0.0682412
0.0139567
0.0133472
0.00525114
0.00110651
0.000720808
0
0.0607333
0.137751
0.890896
0.12673
0.059938
0.0149993
0.0120497
0.0018166
0.00402778
0.0459082
0.058202
0.116508
0.0517221
0.0175481
0.0059716
0.000294778
0
0.00370169
0.0142406
0.0248934
0.217255
0.0625975
0.00491714
0.00357198
0.000153336
0
0.000806467
0.00112177
0.0112
0.658899
0.577117
0.00254121
0.0118967
0.00669127
0.00182327
0.00973759
0.0102232
0.0129513
0.0414466
0.029361
0.00652839
0.0219069
0.00385562
0.0011212
0.00780157
0.00931999
0.0177805
0.153228
0.246783
0.00466406
0.00046718
2.45884e-005
0
0
0
0.000307731
0.200107
0.446468
0.0124112
0
0
0
0
0
0
0.0760657
0.544894
0.154584
0.0040918
0.000817664
8.61699e-005
0.000198542
0.00272821
0.0017371
0.0580612
0.246476
0.027495
0.00698385
6.97565e-005
1.231e-005
0
0.000369937
0.000335797
0.0252636
0.485532
0.280708
0.000394198
0
0
0
0
0
0.00329232
0.359219
0.219409
0.0384882
0.00551474
0.00172993
0
0
0
0
0.189859
0.393795
0.00431458
0
0
0
0
0
0.000562122
0.315721
0.394939
0.0720795
0.000787819
0.000247132
0
0
0
0
0.213578
0.521724
0.100207
0.00614374
0.00579001
0.00218833
0
0
0
0.0253585
0.26048
0.248759
0.00921723
0.0205016
0.00462348
0.00057439
0.00172317
0
0.000241249
0.24084
0.201386
0.00081992
0.000827144
0.000312619
0
0
0
0.0274119
0.487015
0.487015
0.00188745
0.0012345
0.000521031
0
0
0
0.000144749
0.487015
0.268113
0.0408675
0.0140054
0.00316015
0.00158532
0.00486032
0
0.000400796
0.104894
0.376047
0.294299
0.00202785
0.00197627
0.00110411
0.00317618
0.000117128
0.00134698
0.043326
0.488381
0.0611088
0.000271842
6.9498e-005
0
0
0
0
0.167985
0.488381
0.356318
0
0
0
0
0
0
0.0331558
0.212544
0.499525
0.00693633
0.000162885
6.09412e-005
5.98149e-005
0.000127434
0.00123059
0.00749978
0.100677
0.511855
0.131127
9.32131e-005
3.1071e-005
0
1.82049e-005
0.000615658
0.00082444
0.267143
0.397182
0.00200455
0
0
0.000240826
0.000467205
0.000936149
0.00409094
0.111823
0.351246
0.0163982
0.00166166
0.000297235
0.00168578
0.00132914
0.00413317
0.00494114
0.0498745
0.77626
0.367056
0.00103502
0.00138236
0.00139643
9.07348e-005
0.0039763
0.00196889
0.0190259
0.253687
0.206587
0.0136464
0.0181099
0.0122302
0.00214723
0.00650768
0.0054801
0.0651149
0.233783
0.0372332
0.0114504
0.00504612
0.00500771
0.00307971
0.0107258
0.00907431
0.0208456
0.0376223
0.0124924
0.0315396
0.035334
0.0228786
0.0139434
0.0106263
0.00560848
0.0470166
0.172445
0.200276
0.0908869
0.158884
0.150422
0.0544597
0.0186633
0.0911436
0.0754662
0.0259363
0.0281705
0.0527086
0.0921004
0.184225
0.0590194
0.0219643
0.161146
0.0999714
0.080076
0.00954722
0.17129
0.176012
0.192603
0.0887973
0.0160061
0.0878605
0.145194
0.213103
0.0884222
0.206424
0.0540913
0.187857
0.0759358
0.00473205
0.178246