0.145696
0.0265259
0.0141162
0
0
0
0.00517497
0.165629
0.256616
0.0431918
0.005744
0.0020166
0
0
0
0.0362248
0.536891
0.51602
0.124191
0.00620347
0
0
0
0
0.000147729
0.024948
0.219688
0.140178
0.00349058
0
0
0
0
0.0010341
0.0763137
0.408958
0.0204699
0.00470894
0
0.00435806
0.000229372
0
0.013784
0.320267
0.370752
0.0477967
0.00725907
0
0.00726344
0.00107986
0.0102977
0.0355032
0.545822
0.320569
0.0718733
0.000882886
0
0
0
0
0.000257049
0.0995292
0.257457
0.0666641
0.0137924
0.0195865
0.0178945
0.00950032
0.0281366
0.0501896
0.380759
0.256841
0.0291238
0.00453875
0.00183293
0.0113789
0.0182824
0.0358287
0.153497
0.423119
0.0841824
0.00983541
0.00197233
0.020244
0.122746
0.0976568
0.0582942
0.265363
0.220808
0.0315911
0.0223299
0.0177943
0.038481
0.0788056
0.112128
0.155534
0.183707
0.312415
0.0760869
0.00759359
0.0145738
0.0945008
0.342737
0.314364
0.296725
0.264095
0.140869
0.0222389
0.033916
0.0514059
0.0518678
0.106839
0.06085
0.0284766
0.0852753
0.0278861
0.0559841
0.15964
0.268954
0.156588
0.0422995
0.0572085
0.0314218
0.0347285
0.00977174
0.114998
0.033968
0.103606
0.162404
0.257091
0.176321
0.18744
0.0782703
0.0243139
0.0296108
0.246742
0.551509
0.423045
0.104267
0.0963683
0.151151
0.0136114
0.00338731
0.0609107
0.187264
0.220631
0.0400294
0.00406577
0.0250186
0.0191393
0.0178817
0.00911066
0.0796079
0.316963
0.420537
0.0304581
0.00714556
0.033173
0.00945458
0.00835851
0.012064
0.0810689
0.311429
0.383503
0.0951318
0.0121504
0.00886059
0.0120018
0.000538012
0.00130152
0.0655829
0.420537
0.314899
0.0224054
0.00131584
0
0
7.68589e-005
0.0585967
0.203179
0.373711
0.361368
0.0205595
0.00333261
0.014439
0
0
0.0113327
0.102165
0.488506
0.214685
0.0526901
0
0
0
0
0.00477454
0.127526
0.214193
0.239557
0.0164765
0.00562085
0.000295834
0
0
0.131492
0.234523
0.238775
0.109446
0.00549869
0.00936809
0.000493057
0
0.00194185
0.14132
0.318679
0.426916
0.134325
0.108233
0
5.31305e-005
0.000478175
0.00224763
0.0544391
0.223741
0.1541
0.0240427
0.0425046
0.00111947
0.0406993
0.0122332
0.0682309
0.329877
0.413066
0.190085
0.0216607
0
0.00188122
0.000470925
0.00334722
0.0221184
0.150915
0.337199
0.0875718
0.00326411
0
0
0.000619856
0.00676704
0.079316
0.311201
0.280166
0.0285208
0.00419031
0.0262622
0.00900659
0.0395805
0.0376016
0.0617949
0.284505
0.198439
0.0220312
0.0039135
0.0933623
0.0302554
0.0168574
0.0402263
0.0361741
0.345729
0.330794
0.0405154
0.00134096
0
0
7.39913e-005
0.00563113
0.0413176
0.254378
0.246527
0.0272163
0.000191565
0
0
0
0.00523626
0.0331163
0.516844
0.419346
0.0923516
0.0278527
0.0467732
0.0208329
0.0150509
0.0258853
0.0350026
0.2037
0.220538
0.131472
0.0488598
0.0779094
0.0825166
0.0294438
0.0584764
0.0445724
0.140184
0.0968767
0.050885
0.00564565
0.00555463
0.00264167
0.00113537
0.0053013
0.0307382
0.449091
0.331791
0.0549625
0.0191724
0.0153347
0.0202886
0.0137278
0.0577716
0.0531818
0.540143
0.394222
0.167492
0.00114577
0
0
0
0
0
0.0231308
0.332625
0.236343
0.000687461
0
0
0
0
0
0.0405375
0.414479
0.196888
0.00228277
0.00117948
0
0
0
0.00270582
0.0194004
0.401726
0.277427
0.00151543
0.00805918
0.012323
0
0.000546379
0.0120046
0.0217404
0.510939
0.12071
0.0113047
0.00349636
0.00332924
0.000587514
0
0.00147794
0.0137031
0.20412
0.128926
0.148473
0.107366
0.0482282
0.0173446
0.0144167
0.0201813
0.0494221
0.170494
0.111691
0.0292313
0.141188
0.0590326
0.00097919
0.000960466
0.0285943
0.0260497
0.208692
0.116162
0.374931
0.705218
0.209896
0.00874462
0.000576279
0.0281919
0.0402328
0.0972323
0.0360679
0.142936
0.0917079
0.0406657
0.0598104
0.0802731
0.0309689
0.0206041
0.0362884
0.0635361
0.156148
0.0935971
0.0805974
0.206088
0.228282
0.0738611
0.0152066
0.0366622
0.077351
0.406647
0.409516
0.0380973
0.024535
0.0382842
0.00256418
0.00284262
0.0188722
0.20028
0.463566
0.370949
0.00173411
0.120449
0.110534
0.0182405
0.00147839
0.0419631
0.103164
0.148385
0.0560174
0.057717
0.12287
0.194658
0.0431437
0.0111076
0.0419892
0.175655
0.361198
0.105606
0.0572834
0.102839
0.16743
0.012544
0.00158679
0.0196274
0.334092
0.438958
0.101584
0
0.0566509
0.0720209
0.0165953
0.00207972
0.0556275
0.348251
0.418185
0.0233698
0.0391969
0.0834746
0.08427
0.0553616
0.0036772
0.0346026
0.294108
0.280806
0.0520027
0.0540528
0.038085
0.0335897
0.0134939
0.000222831
0.0331586
0.365499
0.0825715
0.0093979
0.0124325
0.00348849
0.00349644
0.0443571
0.0823836
0.238725
0.198508
0.202625
0.0501768
0.123511
0.10636
0.117799
0.138607
0.0100236
0.0287126
0.180922
0.0658349
0.0524184
0.115565
0.0427266
0.125662
0.560969
0.106709
0.151446
0.114237
0.0187972
0.00190895
0.0187442
0.000986535
0.00312958
0.0227052
0.191367
0.21729
0.100678
0.021116
0.000656289
0.0312403
0.00164422
0.000447082
0.00853326
0.30267
0.386666
0.100121
0.00584124
0.00570595
0.0277839
0.00218056
0.0811811
0.400657
0.199942
0.168481
0.0860145
0.0117804
0
0.0187442
0.000986535
0.0360319
0.102367
0.399552
0.412802
0.0468037
0.0133667
0
0.00415402
0.000329776
0.00183433
0.0514665
0.246105
0.282284
0.0569527
0.00944031
0
0
0.000185239
0.00305722
0.0807905
0.335608
0.194417
0.0309958
0.019826
0
0.00249241
0.000131179
0.0058383
0.117056
0.388982
0.259395
0.0383035
0.0296023
0
0
0
0.0097305
0.299992
0.545424
0.130386
0.0875484
0.00328461
0
0
3.54707e-005
0.00125127
0.0460821
0.212369
0.199282
0.0568239
0.000249632
0
0
0
0.00110975
0.034863
0.212765
0.299803
0.0537018
0.0110099
0
0
0
0.0427667
0.4563
0.471765
0.119426
0.0586257
3.56618e-005
0
0.00179318
0.0142715
0.122917
0.388241
0.180015
0.219336
0.0438824
0.0220748
0.0282354
0.00175486
0
0.00101029
0.0214319
0.19494
0.272395
0.0714371
0.102075
0.0650104
0.0528146
0.0206767
0.0903655
0.0355542
0.323747
0.339584
0.109296
0.0761396
0.0899607
0.0473715
0.0693255
0.0474898
0.0684607
0.0528225
0.148298
0.414021
0.329327
0.216621
0.177506
0.10253
0.0761589
0.0122371
0.0386595
0.35314
0.0843258
0.00696771
0.0069473
0.000415519
0
0
0.00823169
0.0140257
0.126433
0.0941637
0.00514347
0.128623
0.0514252
0
0.000553532
0.0162883
0.0265743
0.20005
0.0403031
0.0183755
0.0311335
0.0106904
0.0493527
0.00109595
0.00755309
0.0254743
0.0664025
0.0141233
0.0714107
0.857122
0.158693
0.173416
0.00775071
0.00760762
0.043713
0.0813791
0.0197802
0.0228314
0.18797
0.0884383
7.05099e-005
0.000511039
0.0125159
0.0104433
0.0391098
0.0637956
0.183701
0.486453
0.162423
0.000493569
0.000306623
0.0104033
0.0102824
0.00955205
0.0105447
0.0466816
0.486453
0.155343
0.020055
0.00103155
0.00655022
0.015373
0.0173894
0.0711285
0.257977
0.486453
0.179882
0.00460126
4.38033e-005
0.00924913
0.0136313
0.00214042
0.0693014
0.309951
0.370227
0.0353321
0.00256685
0.00990235
0.00056964
0.00120447
0.00257213
0.117515
0.413658
0.272239
0.00254296
0.00784469
0.0185742
0
0
0.00979131
0.0351674
0.264761
0.333547
0.0360439
0.00155649
0
0.00104743
0.00157115
0.000367448
0.0492654
0.343853
0.390862
0.0302895
0
0
0
0
0.00181821
0.180238
0.254184
0.0771941
0.00101394
0.00242258
0.00340938
0
0.000466476
0.0224996
0.272934
0.298199
0.0289553
0.00718463
0.0321086
0.0223842
0.0215079
0.00326533
0.0281015
0.147235
0.41434
0.300039
0.0333622
0
0
0
6.66395e-005
0.00615655
0.349185
0.471459
0.229398
0.0231545
0.00403428
0.00293189
0.00343619
0.0223078
0.0173975
0.176983
0.237995
0.0580118
0.0861728
0.0728174
0.0956878
0.0752856
0.0148397
0.0176896
0.0571341
0.100311
0.066476
0.194714
0.0509324
0.110391
0.452277
0.11777
0.0306605
0.279544
0.408308
0.181972
0.102203
0.0441955
0.0300176
0.0097629
0.0888634
0.041172
0.108288
0.280207
0.172087
0.220409
0.0950598
0.131507
0.145757
0.137872
0.0321351
0.020388
0.00736037
0.0141903
0.0726421
0.0169491
0.0971473
0.513687
0.193466
0.0406442
0.0225152
0.00129838
0.00130944
0.0318084
0.0714684
0.0908553
0.228099
0.229402
0.118501
0.0195194
0.186771
0.21719
0.240424
0.0644237
0.0971057
0.285522
0.131541
0.00242315
0.0375108
0.0653072
0.181009
0.264794
0.268358
0.102132
0.200694
0.10221
0.0139227
0.0127645
0.00503113
0
0.00487137
0.0406948
0.024953
0.0977005
0.249943
0.124029
0.00977263
0.0144352
0
0
0.000803894
0.0250039
0.446168
0.516523
0.0676213
0.136332
0.0165516
0.0745488
0.0553903
0.166218
0.0453805
0.0690741
0.068796
0.136614
0.113342
0.0164133
0.0329127
0.00126109
0.00676423
0.0947918
0.433196
0.164452
0.215644
0.00271637
0.00255941
0
0
0
0.0450818
0.372988
0.148956
0.0107974
0.00518228
0
0
0.00105221
0.0200861
0.118129
0.45692
0.106558
0.0201904
0.00484669
0.00165641
0
0
0.00403714
0.104577
0.420199
0.0729855
0.0251286
0
0
0
0.000150316
0.0235206
0.301093
0.502709
0.120557
0.00107902
0.0228483
0.0241335
0.0409892
0.0507466
0.122217
0.117472
0.175062
0.0450092
0.0190991
0.128053
0.254031
0.106944
0.151921
0.167642
0.0933286
0.0220138
0.0802945
0.208701
0.0143638
0.00658751
0.00561961
0.0537986
0.110424
0.334493
0.481866
0.0605745
0.0106666
0.118291
0.383855
0.0571654
0.144236
0.154426
0.24554
0.132464
0.1149
0.129808
0.0118305
0.0146719
0.0186063
0.0181397
0.0229322
0.0157117
0.0802694
0.0693379
0.0626014
0.001715
0.0886164
0.405225
0.169507
0.0805794
0.0254774
0.0124136
0.0254032
0.0183113
0.03104
0.0729985
0.03979
0.0279236
0.00327603
0.0260901
0.378133
0.358816
0.155545
0.00279052
0.196559
0.467206
0.280076
0.0240357
0.0370303
0.153146
0.207118
0.104375
0.00154191
0.0716525
0.489552
0.187673
0.0262742
0.00361309
0.00266753
0.00523633
0.00252395
0.0107934
0.084735
0.456458
0.192329
0.0238297
0
0.00623881
0.00699466
0.000295235
0
0.0830652
0.37096
0.291912
0.0513907
0.00554808
0.0121317
0.0284939
0.025459
0
0.0123231
0.213098
0.336611
0.15364
0.0172841
0.00500682
0.00422212
0.00280166
0.00366798
0.0923826
0.250981
0.0636935
0.00994499
0
0.00260841
0.00179878
0
0.0100855
0.289103
0.498338
0.0498744
0.000687671
0
0.000314056
0.000169107
0
0.0151123
0.0500375
0.280358
0.247976
0.113264
0.0323639
0.0051092
0.00197292
0.000795386
0.0300867
0.21767
0.498338
0.28899
0.0564831
0.0224672
0.00139055
0.000281845
0.00132564
0.0564494
0.346277
0.423424
0.0331182
0
0
0
0
0.00283986
0.169229
0.397138
0.261661
0.0354335
0
0.0233957
0.0362588
0.0518667
0.0274848
0.0247731
0.259182
0.461404
0.0835642
0.0175341
0.00124401
0
0
0.00529654
0.0755333
0.224656
0.185751
0.0169509
0.00412208
0.0407228
0.0586741
0.0463924
0.057257
0.164747
0.187471
0.19218
0.121145
0.026313
0.0491306
0.098345
0.113859
0.0577103
0.133363
0.44246
0.299612
0.131915
0.0604203
0.107379
0.0528522
0.0606011
0.0456982
0.176853
0.0849309
0.0654801
0.052957
0.00422335
0.0616275
0.161658
0.0940539
0.170785
0.314522
0.389079
0.241019
0.0387014
0.00691915
0.0212238
0.0787996
0.0330744
0.157237
0.0351805
0.464252
0.390851
0.11747
0.0347052
0.0509007
0.0238236
0.0134239
0.00496307
0.0447602
0.163088
0.297379
0.173008
0.283708
0.0530178
0.0327287
0.00493985
0.0133095
0.0863082
0.344933
0.224544
0.00610431
0.00575951
0.00527221
0.00421944
0.00418268
0.0188282
0.0202325
0.0974288
0.110861
0.031628
0.309504
0.123839
0.083875
0.00436778
0.00626115
0.0700824
0.0225038
0.0935633
0.0287378
0.144118
0.0693603
0.0855204
0.0564985
0.0574033
0.0585438
0.0136478
0.0481138
0.00218414
0.0283934
0.110268
0.34738
0.154633
0.0951365
0.0110838
0.0133635
0.0522544
0.0150083
0.206702
0.247094
0.301616
0.0513237
0.0081882
0.00817362
0.00721707
0.0288951
0.00191548
0.116788
0.472645
0.492965
0.206182
0.0130601
0.00417531
0.000594053
0
0.00327971
0.0251127
0.112729
0.250085
0.0636261
0.0216611
0
0
0
0.00546618
0.0463781
0.407149
0.343992
0.0466781
0.000990717
0.000550777
0
0
0.00779414
0.12954
0.360287
0.293043
0.0779817
0.00303161
0
0
0
0.0142337
0.311683
0.476585
0.14426
0.0107603
0.000141531
0.00458727
0.00346251
0
0.0322037
0.0572651
0.350539
0.229415
0.0297159
0.00282331
0.0348229
0.0985663
0.0223478
0.0835096
0.141839
0.21331
0.0806528
0.0231188
0.0197632
8.72902e-005
0.000494644
0
0.0112885
0.237586
0.448232
0.200329
0.0641288
0
0.000611031
0.00522741
0.002725
0.0450859
0.448232
0.360969
0.197443
0.097397
0
0.0323273
0.0361442
0.0413818
0.0175588
0.045398
0.0332582
0.237739
0.285451
0.0918685
0.0030758
0.0551795
0.171236
0.104191
0.0937001
0.0774059
0.16012
0.265734
0.114748
0.16027
0.2911
0.273475
0.0293382
0.104287
0.0626091
0.0701851
0.129615
0.0590019
0.0430631
0.129938
0.190714
0.0740611
0.494808
0.247289
0.0785156
0.158106
0.0738061
0.000939829
0.0328385
0.184811
0.230643
0.207933
0.0571311
0.0451957
0.0950038
0.0646456
0.0065788
0.00831054
0.0653775
0.288002
0.292913
0.0793293
0.0175821
0.0298928
0.00492204
0.00452521
0.0273412
0.0535693
0.12928
0.664103
0.211138
0.0454044
0.0564446
0.0254549
0.0403499
0.0200916
0.0651823
0.107113
0.2396
0.0790043
0.0317899
0.060094
0.0146191
0.0790791
0.0181123
0.11657
0.265957
0.178323
0.130684
0.0113082
0.051789
0.0463525
0.131162
0.0833848
0.515424
0.416778
0.144349
0.0916567
0.00553808
0.0320132
0.0776244
0.130889
0.0307225
0.0548421
0.0686801
0.0624792
0.0898401
0.0137434
0.128685
0.167125
0.174305
0.0875781
0.14707
0.109548
0.0818339
0.0700962
0.00519932
0.180947
0.312689
0.0534892
0.186531
0.708352
0.310107
0.187898
0.0272217
0
0.0104173
0.036777
0.0436894
0.112148
0.143049
0.0107014
0.0363417
0.0299983
0.0359917
0.0410464
0.0778565
0.142698
0.0748914
0.134791
0.0864044
0.154993
0.0454358
0
0.112543
0.232171
0.112976
0.0266569
0.00460746
0.00501524
0.026573
0.00874222
0.00583013
0.0310599
0.114121
0.232198
0.0499868
0.0158913
0
0.00355513
0.0607199
0.13021
0.129585
0.35742
0.501558
0.285292
0.136371
0.000663661
0
0.021829
0.0752773
0.0770094
0.356115
0.0837017
0.0221334
0.00416101
0.00720724
0.00130868
0.0162553
0.0181086
0.0450591
0.158843
0.106862
0.0492142
0.0354519
0.00102961
0.00201167
0.0223158
0.0369603
0.0497572
0.187635
0.157278
0.189562
0.123701
0.0148075
0.0069648
0.00183205
0.0475535
0.0350678
0.0642668
0.0333071
0.0482646
0.0648511
0.104339
0.395521
0.295496
0.267319
0.0272152
0.0291724
0.0952788
0.0535647
0.0371046
0.0145369
0.0185961
0.00671591
0.0473445
0.0317137
0.104032
0.232522
0.448455
0.159799
0.117079
0.160344
0.0707907
0.0494595
0.0481357
0.0998216
0.000530477
0.00302326
0.00544739
0.00778342
0.10105
0.211976
0.150936
0.00500497
0.000455709
0
0.000704176
0.00195663
0.000731914
0.202395
0.482919
0.23807
0.0320734
0
0.0450525
0.0598016
0.0311787
0.0304792
0.185334
0.133701
0.014962
0.00176087
0.0114139
0.0225717
0.0148099
0.0166797
0.120245
0.482919
0.482919
0.0184809
0
0.00608296
0
0
0.000181401
0.00352351
0.138076
0.425468
0.071731
0.0118923
0
0
0
0.0012698
0.0170441
0.290033
0.347976
0.0216163
0.000363036
0
0
0
0.0017332
0.0873019
0.360263
0.366524
0.00847248
0.00051106
0
0
0
0.00888863
0.0922851
0.431529
0.281564
0.00542646
0.00357742
0
0
0
0.000411254
0.00503259
0.262816
0.306771
0.0660256
0.0276956
0
0
0
0
0.0114251
0.453756
0.221731
0.0953305
0.0461594
0
0
0
0.00287878
0.0807138
0.453756
0.223683
0.00554104
0.00336784
0
0
0
0
0.134756
0.453756
0.183746
0.00859138
0.00368202
0
0.123077
0.408967
0.208906
0.0432467
0.0545587
0.0140815
0.0018763
0.0056841
0.060276
0.0479044
0.151168
0.124292
0.0758562
0.436004
0.193176
0.017999
0.00865684
0.0364538
0.158145
0.334028
0.148744
0.131367
0.050062
0.0202196
0.0193092
0.0453889
0.106831
0.0827281
0.0763683
0.0620134
0.177323
0.227187
0.341173
0.135814
0.0367763
0.109301
0.00198483
0.0162432
0.0125984
0.0429407
0.353132
0.178176
0.0200849
0.00234306
0.000320076
0.0326355
0.0278537
0.123114
0.115913
0.138131
0.0409332
0.0101774
0.0108964
0.00871098
0.00262297
0.00345713
0.00927117
0.10601
0.198206
0.462059
0.209493
0.0029536
0.0144532
0.0205372
0.0292333
0.195306
0.534557
0.262956
0.165359
0.0819347
0.00582611
0.00124443
0.0833291
0.0633371
0.12336
0.0870093
0.0219144
0.00600909
0.00215396
0.0903502
0.121645
0.0790011
0.0518204
0.0366485
0.0158685
0.0070758
0.00581235
0.000336556
0.298578
0.406229
0.0541273
0.0709784
0.202911
0.415989
0.0933873
0.00355907
0.0158725
0.0775646
0.149641
0.0831356
0.048269
0.0541973
0.14052
0.0848062
0.0158703
0.039766
0.27708
0.5012
0.0912708
0.00966032
0.00398426
0
0.0338311
0.0185255
0.0364351
0.241769
0.352375
0.083056
0.0058765
0.00052363
0.00658721
0.0854941
0.0277993
0.0623897
0.0949084
0.103963
0.133347
0.0228799
0.0789617
0.0999176
0.221163
0.125491
0.10331
0.293933
0.440126
0.0779124
0.0143174
0.125221
0.0747915
0.447697
0.208186
0.110099
0.148598
0.0964944
0.0845575
0.015561
0.00339314
0.0388664
0.139634
0.0343024
0.0778453
0.0931248
0.138598
0.106576
0.0322753
0.0289573
0.0272416
0.00775289
0.00722387
0.0664541
0.0783799
0.178496
0.0470859
0.00203764
0.110802
0.148295
0.665064
0.244461
0.13863
0.129141
0.0774804
0.124044
0.0203069
0.0313759
0.0595742
0.0112107
0.00933304
0.112524
0.107382
0.123991
0.0155791
0.0101989
0.0104865
0.0315203
0.0275726
0.00293842
0.00461191
0.00409636
0.0167438
0.0572889
0.272278
0.0656199
0.18245
0.121997
0.0180973
0.0321855
0.0119543
0.0276234
0.018567
0.0053162
0.0112451
0.0694729
0.13246
0.0152676
0.00669432
0.00412173
0.0109649
0.0254271
0.240716
0.0736089
0.404811
0.630523
0.362735
0.116907
0.0179286
0.014009
0.069443
0.184954
0.0612272
0.10034
0.123859
0.0254895
0.050081
0.00575001
0.0330484
0.0409003
0.0659598
0.0524382
0.411028
0.387543
0.0873701
0.0300486
0.00223992
0.0193788
0.0934805
0.217506
0.0681049
0.136834
0.173818
0.18181
0.144113
0.0264205
0.02323
0.120609
0.141112
0.0951787
0.497768
0.26761
0.052677
0.0783257
0.0557907
0.0379167
0.000720636
0.00421749
0.0144212
0.319825
0.279324
0.0639118
0.000515319
0.00255834
0.00236223
0
0
0.0169089
0.265579
0.347832
0.070881
0.00360723
0.012509
0.00393705
0.0194633
0.0146263
0.0506123
0.441963
0.219615
0.02718
0.00257939
0.0653508
0.0866613
0.0129612
0.0128243
0.147461
0.458896
0.263848
0.0270027
0.00248865
0.0433659
0.0940868
0
0
0.0334395
0.233165
0.271253
0.0394434
0.00098582
0.0031271
0.000395823
0
0
0.0345243
0.295355
0.409953
0.0327948
0
0
0
0.0013031
0.00350474
0.144211
0.409953
0.191896
0.0058276
0.000591492
0.00296195
0.00668004
0
0
0.0965611
0.409953
0.409953
0.000195916
0
0
0
0.147637
0.137236
0.171961
0.129395
0.0766659
0.0628901
0.0855684
0.0864267
0.117053
0.141858
0.0637239
0.0481077
0.12477
0.127275
0.437298
0.185688
0.0703789
0.189865
0.100664
0.0853656
0.250017
0.11553
0.15417
0.0895356
0.0709203
0.0711822
0.122516
0.0990455
0.0890769
0.175103
0.160996
0.234465
0.359325
0.236455
0.112005
0.072111
0.0110428
0.00503581
0.00236592
0.0746237
0.0600537
0.319143
0.174992
0.0349497
0.0298897
0.0353459
0.0224035
0.038934
0.379743
0.172702
0.192678
0.102341
0.0564812
0.0634399
0.0131909
0.0154161
0.0122768
0.0533818
0.0858283
0.23624
0.348314
0.118637
0.0243393
0.0750711
0.0334313
0.00920867
0.104822
0.203775
0.23244
0.461843
0.141289
0.170596
0.0682947
0.069213
0.0575226
0.257409
0.109041
0.0238913
0.0380645
0.0719715
0.156183
0.0532715
0.0470002
0.0229392
0.0938588
0.0830325
0.02899
0.231721
0.155666
0.20908
0.110592
0.100182
0.0262608
0.0497003
0.100413
0.050894
0.314478
0.135824
0.258276
0.0358999
0.0608912
0.0161809
0.0105587
0.0190762
0.0236079
0.495208
0.436519
0.14355
0.0414845
0.0139067
0.0504393
0.0805779
0.08647
0.082236
0.209418
0.0837931
0.0590178
0.0410765
0.00834402
0.0807855
0.0853274
0.133758
0.0792708
0.112751
0.118684
0.0768299
0.00492114
0.00198667
0.00889001
0.0257576
0.0185604
0.0562875
0.451653
0.434016
0.0617106
0.0381714
0.001192
0.0156916
0.0440521
0.0158147
0.0331399
0.231309
0.485441
0.324732
0.0433888
0.00346086
0.0154175
0.0246745
0.045007
0.0144053
0.0219816
0.0785632
0.0737428
0.0649305
0.0286803
0.00098226
0.00184216
0.000735701
0.000551658
0.0112087
0.0457661
0.0602771
0.11484
0.024226
0.00331781
0.0116002
0.00358472
0.0004348
0.0648145
0.521767
0.407849
0.386974
0.210457
0.000712959
0.01252
9.31714e-005
6.21143e-005
0.0734719
0.300974
0.416182
0.0456685
0.0162489
0.00212847
0.0114087
0.0754028
0.0277842
0.00359656
0.0224425
0.0445508
0.0139093
0.0224982
0.00705989
0.079789
0.359835
0.449487
0.138574
0.0226753
0.0157153
0.253638
0.123293
0.00314762
0.0412193
0.0526911
0.100585
0.1232
0.158706
0.216396
0.0264931
0.0100394
0.00726298
0.0376492
0.175227
0.470001
0.32217
0.165044
0.0754985
0.0981958
0.0466094
0.00845803
0.0526061
0.13979
0.294907
0.169593
0.0276566
0.0368641
0.254839
0.0738115
0.0419468
0.111137
0.201649
0.0766822
0.0747722
0.113811
0.0960973
0.168403
0.00948878
0.00274851
0.0212407
0.057335
0.230569
0.260451
0.161105
0.165289
0.539229
0.172311
0.0994992
0.0293711
0.0484222
0.0414522
0.0910323
0.145321
0.254505
0.0732878
0.0641665
0.0752404
0.0950691
0.11542
0.0346172
0.00556261
0.112066
0.0917561
0.0164818
0.0981327
0.309234
0.250837
0.0729068
0.0289341
0.000794659
0.0468599
0.0776318
0.281018
0.266167
0.276923
0.0992919
0.0233865
0.013256
0.00333757
0.057642
0.0638162
0.0283523
0.283716
0.459716
0.416718
0.014242
0.0156186
0.000476795
0.0208535
0.0188317
0.00146545
0.0218022
0.239988
0.385066
0.0866512
0.00390142
0
0.000491274
0.00554267
0
0
0.079824
0.336485
0.33334
0.00325372
0
0
0
0.000209351
0.0453431
0.416082
0.346324
0.0859253
0.00872719
0
0
0.000628052
0
0.0019054
0.128538
0.211904
0.387095
0.0187444
0
0
0
0.0834912
0.0862429
0.267411
0.104784
0.0918665
0.0598317
0.0221083
0.0313474
0.0683464
0.0203589
0.161204
0.29959
0.25242
0.193116
0.150315
0.142096
0.0971849
0.010693
0.277299
0.077096
0.248682
0.119176
0.126755
0.0960808
0.151083
0.0373851
0.114413
0.0550878
0.201724
0.286855
0.224952
0.219993
0.23126
0.157574
0.0495711
0.102308
0.00913694
0.0775359
0.0428152
0.0601006
0.0903245
0.0946714
0.258435
0.133768
0.0122484
0.030676
0.0217802
0.0109383
0.00964847
0.0958183
0.149787
0.609966
0.255999
0.0757779
0.0368254
0.11108
0.0626278
0.0639102
0.0752629
0.0791802
0.0536787
0.061531
0.0632584
0.015355
0.0317202
0.0592217
0.0330756
0.0234037
0.108707
0.364112
0.384415
0.0836192
0.0199457
0.0171951
0.00279384
0.000128289
0.0134479
0.0202659
0.359745
0.16916
0.0510637
0.00568692
0.0103171
0.00153335
0
0
0.00921659
0.300337
0.312071
0.0400236
0.00176992
0.00237943
0.00578284
0.00277637
0.00257158
0.0466984
0.36623
0.321183
0.0360079
0.0117781
0.000816716
0
0
0.00154295
0.0421384
0.424516
0.424516
0.0590468
0.000978232
0
0
0
0
0.011789
0.158229
0.355917
0.0522107
0.0155302
0
0
0
0
0.00330797
0.0876452
0.425464
0.267736
0.0355856
0
0
0
0
0.0162684
0.148129
0.385928
0.198465
0.131681
0
0
0
0
0.00196117
0.0307526
0.36274
0.425464
0.0802597
0.00555705
0
0
0
0
0.0201815
0.219691
0.335425
0.326374
0.07873
0.00111686
0.0212204
0
0
0.0304874
0.0915651
0.372031
0.162628
0.00244675
0
0
0
0
0.00511691
0.137052
0.396228
0.400837
0.0859203
0.00217047
0.0127323
0
0
0.00311759
0.0288738
0.400342
0.293134
0.108515
0.0180516
0.107874
0.0508474
0.0729469
0.101091
0.0601668
0.192287
0.0571241
0.0447123
0.0307204
0.102278
0.107715
0.150017
0.121113
0.077451
0.0440365
0.443873
0.220556
0.0282567
0.0789025
0.0285524
0.0181466
0.0141451
0.00243238
0.308393
0.380762
0.324203
0.194823
0.104724
0.0595444
0.0302443
0.0106137
0.0090273
0.2303
0.0799391
0.0410612
0.0151948
0.0120803
0.0156596
0.0286219
0.0475704
0.0704911
0.0832618
0.254145
0.244982
0.230077
0.0273004
0
0.00242998
0.0117174
0.0372444
0.114714
0.213204
0.365607
0.201842
0.015872
0.0084927
0.00296906
0.00132196
0.0101785
0.0642605
0.265904
0.468076
0.468076
0.0271137
0
0
0.000180399
0.00484509
0.0547308
0.0909061
0.229134
0.355045
0.053617
0
0
0
0
0.0236374
0.0102842
0.20543
0.418636
0.1692
0.000222136
0
0
0
0.00228344
0.0553907
0.328217
0.418636
0.0453277
0
0
0.00218289
0.000385217
0.0120596
0.0126979
0.224462
0.418636
0.0853406
0.0263282
0.0074177
0.00363815
0.00102419
0.00435276
0.00674188
0.0833509
0.47441
0.214006
0.0919411
0.023857
0
0
0
0.00404513
0.00889064
0.10291
0.0914252
0.437113
0.0432479
0
0
0
0.0479655
0.104669
0.272991
0.128293
0.169777
0.0385084
0.000909276
0.0020789
0.017266
0.0283159
0.009903
0.0283687
0.119551
0.542922
0.0431669
0.000976229
0.00115106
0.0103596
0.189549
0.0141655
0.0613634
0.0441247
0.191776
0.236743
0.197508
0.0591066
0.0695759
0.0555838
0.0379953
0.0538878
0.125393
0.16851
0.215246
0.188461
0.0815146
0.11456
0.090785
0.0352864
0.251079
0.107496
0.094505
0.330686
0.207201
0.152893
0.0354986
0.0819189
0.0252887
0.127668
0.234034
0.0863873
0.118338
0.322812
0.312749
0.10661
0.046439
0.0657738
0.0588069
0.0965078
0.112351
0.142305
0.0734535
0.0487215
0.0908811
0.105652
0.0855335
0.119364
0.101361
0.0874165
0.109405
0.102028
0.260503
0.126638
0.055376
0.0196061
0.0232628
0.163358
0.197359
0.0633287
0.253152
0.215316
0.213256
0.248691
0.0817746
0.051387
0.149087
0.501803
0.151125
0.139281
0.155045
0.179719
0.0300068
0.0143435
0.0299705
0.0428349
0.0367965
0.0905576
0.199298
0.168381
0.0576859
0.0824759
0.0140587
0.0275566
0.0235934
0.0112261
0.0914244
0.553375
0.442163
0.216366
0.0618449
0.0433599
0.107557
0.094174
0.139927
0.102215
0.0649656
0.0523176
0.0609227
0.0912219
0.120896
0.229004
0.0873242
0.0217614
0.0670953
0.197992
0.178756
0.258327
0.0691037
0.00301425
0.0033117
0.000558888
0
0.00694793
0.12751
0.248803
0.296948
0.14042
0.0200888
0
0
0
0.000272387
0.00915887
0.374937
0.413205
0.0717337
0.0430053
0.0370196
0.00473622
0
0.00248058
0.0803209
0.188822
0.289772
0.154774
0.203786
0.033515
0
0
0
0.0142467
0.321824
0.388228
0.151385
0.0255218
0
0
0
0
0
0.249477
0.242905
0.359321
0.202953
0.00443233
0
0
0
0
0.0653232
0.255811
0.206809
0.173725
0.0346889
0
0
0
0
0.209031
0.253908
0.42873
0.229843
0.0117655
0
0
0
0
0.0840298
0.382878
0.244299
0.257326
0.00689672
0.00192012
0
0
0
0
0.15008
0.394158
0.294489
0.111265
0.00635615
0
0
0
0
0.170386
0.322268
0.292538
0.0072328
0.00106655
0.017111
0.00151933
0
0.00979715
0.173722
0.393662
0.358982
0.0491921
0.0102242
0.06248
0.0041312
0.0019543
0
0.135223
0.271755
0.37116
0.267582
0.00223226
0
0
0.000614408
6.82675e-005
0.0648768
0.273664
0.444393
0.317547
0.00756454
0.00163067
0.000287765
0.00430086
0.0135007
0.0422658
0.245804
0.267956
0.142116
0.013651
0.0337462
0.00281207
0.0183698
0.00430788
0.167339
0.123556
0.201966
0.183532
0.0134124
0.0242738
0.00533957
0.0509031
0.0314331
0.130932
0.2125
0.400946
0.541321
0.0518824
0.00601016
0.00705071
0.0187035
0.0294516
0.0411114
0.0506071
0.210259
0.453468
0.0826047
0.0876989
0.0303416
0.0259444
0.0118876
0.043511
0.116604
0.144747
0.168132
0.0201665
0.0473339
0.0170152
0.037388
0.052593
0.0526575
0.137556
0.144064
0.124202
0.0652096
0.0370578
0.021351
0.0230145
0.0363314
0.148453
0.0635665
0.0530323
0.0885534
0.104444
0.251242
0.04819
0.00841913
0.010012
0.10448
0.0371534
0.00320844
0.00445511
0.153943
0.632298
0.087854
0.0509797
0.00546109
0.0937341
0.131937
0.0469696
0.0475105
0.0828125
0.106944
0.0637697
0.0561987
0.072197
0.206092
0.148177
0.015934
0.0135199
0.0597608
0.277194
0.187623
0.183005
0.0424187
0.32821