0.118563
0.121865
0.150238
0.0156622
0.049803
0.0183364
0.0376097
0.0859887
0.086901
0.0630166
0.166593
0.198222
0.0435799
0.190344
0.058111
0.0627095
0.137292
0.0824637
0.0765355
0.372299
0.39895
0.0595007
0.0281758
0.0119634
0.0173096
0.00679357
0.00793159
0.0701967
0.246906
0.471598
0.242325
0.154625
0.0701352
0.0216174
0.00786168
0.0448952
0.221883
0.249077
0.126656
0.0344805
0.0749325
0.0349818
0.0369832
0.0549819
0.0710025
0.379456
0.331145
0.0917972
0.00450205
0.00672923
0.0208298
0.0411658
0.0681766
0.154461
0.245852
0.219173
0.196229
0.125038
0.0989005
0.0540722
0.0138059
0.00126587
0.0926285
0.332023
0.333919
0.0981962
0.00917216
0.0189989
0.0147259
0.0515474
0.00823475
0.181145
0.178225
0.160519
0.0447712
0.0126854
0.00533413
0.0514036
0.0278797
0.0295063
0.0828235
0.281383
0.211388
0.143721
0.0788057
0.00787202
0.0603646
0.0124817
0.02651
0.15506
0.0869878
0.169919
0.264591
0.0521685
0.0163241
0.0528482
0.0255725
0.00694356
0.0642388
0.127546
0.238518
0.641582
0.197899
0.0514016
0.0825666
0.00748905
0.0480371
0.0289773
0.13839
0.307418
0.107043
0.0276468
0.00951453
0.00444535
0.00533921
0.0146119
0.066456
0.0603484
0.344853
0.169991
0.0850803
0.0831575
0.0495881
0.0493075
0.030065
0.0527391
0.156984
0.280749
0.262042
0.0562111
0.0162889
0.00909059
9.8858e-005
0.0315362
0.0285862
0.496746
0.38023
0.204451
0.0537631
0.0399562
0.00207049
0
0.00447427
0.0831337
0.151223
0.131553
0.0490026
0.0601497
0.0401676
0.0474471
0.0461739
0.0172398
0.0532016
0.330685
0.0752709
0.00104083
0.00732694
0.00281384
0.0272868
0.0539852
0.0755484
0.166276
0.520489
0.24187
0.042794
0.0344679
0.0150963
0.00338762
0.00151173
0.0049476
0.0759788
0.467972
0.151026
0.00132339
0.00439616
0.000401977
0.0162363
0.0413481
0.135684
0.351728
0.169911
0.0911647
0.0191457
0.00503178
0
0.0142608
0.0281225
0.0674332
0.144455
0.172137
0.270261
0.0911064
0.0083863
0
0.00492155
0.0102358
0.0383742
0.142772
0.0995094
0.0370059
0.0132221
0.0083863
0
0.0173059
0.0404086
0.159918
0.453218
0.104861
0.103174
0.0401709
0.0139772
0
0.00820258
0.0170596
0.170009
0.663758
0.149318
0.183673
0.0942503
0.00152626
0
0
0.00202803
0.0215897
0.252795
0.133742
0.144127
0.15451
0.0334448
0.00677196
0.0236748
0.0202227
0.0356108
0.327704
0.214814
0.278534
0.136652
0.00254377
0
0
0.00338006
0.0712004
0.408126
0.214363
0.404788
0.260897
0.0340623
0.0662331
0.0460518
0.0414181
0.0382225
0.119235
0.0919923
0.0604239
0.085236
0.0652153
0.0164704
0.0468034
0.0915407
0.209752
0.288493
0.104714
0.12865
0.0292939
0.0393594
0.0172281
0.0392387
0.226473
0.465319
0.285899
0.0944574
0.160921
0.110637
0.108385
0.172228
0.0801435
0.0815353
0.156324
0.0675585
0.0347413
0.238239
0.13461
0.207203
0.193928
0.0445703
0.0993925
0.188215
0.0674332
0.167341
0.31973
0.0374284
0.0103528
0.00263859
0.00713094
0.0697799
0.114939
0.122658
0.402206
0.407517
0.060858
0.00476266
0.000348752
0.00994621
0.0185335
0.0885472
0.149435
0.0529177
0.340053
0.148422
0.115738
0.0486695
0.0209311
0.0355134
0.0268567
0.0145133
0.10243
0.357296
0.263103
0.122242
0.0379248
0.0390103
0.034201
0.0630076
0.0287553
0.115092
0.436538
0.246316
0.117027
0.00786168
0.00308727
0.00816076
0.0115927
0.00160293
0.0810073
0.168127
0.283152
0.229492
0.0853871
0.0451553
0.022059
0.0010847
0.0692155
0.215139
0.252015
0.130484
0.244192
0.185132
0.0988702
0.0664313
0.0710279
0.0108451
0.127624
0.133585
0.128638
0.265173
0.166975
0.06987
0.0954026
0.0121169
0.0937116
0.134513
0.0908988
0.0577723
0.0670264
0.0620677
0.0323133
0.0073322
0.00235586
0.0700292
0.173086
0.20841
0.136235
0.0404885
0.0489228
0.014841
0.00593802
0.00141352
0.085429
0.049863
0.0473969
0.120248
0.148443
0.135481
0.0459718
0.0335727
0.0171831
0.0542658
0.0342949
0.395313
0.688964
0.17047
0.13228
0.0233993
0.00187855
0.00999348
0.0276331
0.0230325
0.0969997
0.170473
0.0238054
0.00819964
0.00368662
0.000933394
0
0.0167402
0.0765891
0.25356
0.230087
0.0367614
0.0194398
0.00963952
0
0.00804341
0.00591067
0.00615279
0.407694
0.360553
0.0247565
0.00910434
0.0012676
0
0
0.00257101
0.138549
0.611602
0.290646
0.0116291
0.00265401
0.000884671
0
0
0.000557117
0.163897
0.213865
0.0540899
0.00816058
0.00565608
0.0022333
0
0.00654487
0.00933013
0.46785
0.182592
0.0250211
0.00252445
0
0
0
0.00325838
0.0400674
0.242092
0.462215
0.0397696
0.00108235
0.000794456
0.000264819
0
0
0.000901453
0.398332
0.431515
0.0193354
0
0
0
0
0.00387232
0.0205058
0.564709
0.108762
0.0108174
0.0115695
0
0.00962189
0.00962189
0.0128801
0.111582
0.307933
0.0495379
0.00933052
0.0479978
0
0.0297413
0.0344967
0.0834576
0.344879
0.308324
0.34156
0.0678779
0.056917
0
0.0192823
0.0209052
0.0171016
0.0859125
0.0989394
0.178417
0.0979792
0.19384
0.00568114
0.0741684
0.0889508
0.0754228
0.162727
0.0587703
0.00226209
0.00251793
0.0135694
0
0.0360259
0.0248111
0.0935696
0.374527
0.0728317
0.0140784
0.00192725
0.00157657
0
0.0247665
0.0114723
0.169432
0.595579
0.0454913
0.0201869
0.0158359
0.0602744
0.0321209
0.153001
0.128518
0.0665861
0.162517
0.0805472
0.00307246
0.00619042
0.032852
0.0887833
0.149939
0.100495
0.142598
0.500488
0.114899
0.0885989
0.0271207
0.000230589
0
0.000962242
0.00377029
0.0979109
0.440101
0.121015
0.121141
0.0471447
0.020342
0.08345
0.0753954
0.0374787
0.0662809
0.199159
0.0586413
0.0147166
0.00835874
0.0084866
0.0279307
0.0137718
0.0428997
0.233369
0.488824
0.035871
0.0179677
0.00373674
0.0136972
0.0492353
0.206728
0.370916
0.273301
0.255001
0.0388065
0.0538231
0.0341229
0.0772993
0.189802
0.126082
0.0381543
0.0464512
0.045128
0.0208114
0.100727
0.0927438
0.121058
0.135085
0.0484926
0.00614978
0.0339194
0.02253
0.011284
0.0201791
0.02708
0.0617965
0.139874
0.474793
0.545363
0.0742617
0.0342428
0.0300388
0.0770051
0.0659571
0.0829109
0.124136
0.305933
0.335833
0.0228081
0.0467919
0.0379968
0.190905
0.16077
0.179856
0.115349
0.108681
0
0.0297436
0.0573461
0.123471
0.298
0.311848
0.211456
0.128182
0.14904
0.0181826
0.0249662
0.0416594
0.0656418
0.0854729
0.0605437
0.0562624
0.204169
0.222879
0.0980636
0.0625397
0.136163
0.163406
0.350311
0.228707
0.0322112
0.211508
0.21193
0.0166716
0.0221974
0.112823
0.0453121
0.0306506
0.0703813
0.0902916
0.160111
0.24231
0.0924447
0.0603565
0.0165715
0.0368915
0.0832984
0.109896
0.129009
0.0826365
0.0463851
0.0976911
0.0302727
0.0437118
0.010153
0.00282097
0.0219839
0.0237113
0.156355
0.67164
0.311586
0.206052
0.0458364
0.0268812
0.0978605
0.105598
0.116312
0.155227
0.109192
0.112346
0.157079
0.0878054
0.00573527
0.0362306
0.136238
0.0585968
0.0352386
0.00674494
0.0217173
0.00629175
0.00630419
0.00085168
0.128373
0.544531
0.0874745
0.0316163
0.00153578
0.0019514
0.00149372
0.00106843
0.00544412
0.0487265
0.264318
0.209049
0.0769591
0.00922183
0.0128618
0.00922142
0.0068292
0.000632332
0.0731805
0.58098
0.359594
0.0378926
0
0.00117084
6.16234e-005
0
0.00279694
0.240076
0.343648
0.0188734
0.00288441
0.000110698
0
0
0
0.043978
0.4167
0.241627
0.00273148
0.000239931
0
0
0
0
0.00148899
0.117148
0.465363
0.1227
0.0123493
0
0
0
0
0.0137682
0.252639
0.47657
0.0776724
0.00889399
0
0
0
0.0100436
0.0845257
0.361226
0.134217
0.00301555
0.000795685
0
0
0
0
0.114141
0.459692
0.070095
0.00701426
0.000477411
0
0.000838612
0.00182109
0.00411992
0.0180883
0.330191
0.385024
0.0302476
0.00556979
0
0
0
0.0122532
0.0979874
0.519214
0.152092
0.0181952
0.00334188
0.00177242
0.0218221
0.00914488
0.0243695
0.120379
0.439208
0.0821516
0.0321988
0.0206094
0.0410943
0.0298852
0.0101616
0.0181677
0.0603402
0.256317
0.116124
0.130189
0.113989
0.0837434
0.0906573
0.0347386
0.0664658
0.199459
0.328188
0.0444214
0.00896533
0.0844198
0.0683544
0.178053
0.0624131
0.0587023
0.215344
0.384097
0.151266
0.0756829
0.252319
0.104573
0.238563
0.099956
0.0661267
0.0211809
0.0644117
0.0983302
0.156804
0.119156
0.0897597
0.111518
0.0224244
0.0525868
0.0403945
0.0212129
0.128706
0.231231
0.200085
0.101865
0.0896268
0.0395482
0.1118
0.0602733
0.292392
0.382144
0.235015
0.10282
0.016378
0.0434835
0.0189686
0.0224113
0.00969671
0.0935245
0.438728
0.412692
0.187364
0.0192105
0.0118277
0.00390604
0.00678216
0.054761
0.0328782
0.0547789
0.0553625
0.0594058
0.013987
0.0598743
0.139095
0.155355
0.0400608
0.0162268
0.0102342
0.00129914
0.0113602
0.14111
0.552907
0.194587
0.0931034
0.0610802
0.0910024
0.143549
0.183631
0.153783
0.0335701
0.057906
0.0339222
0.110306
0.0858072
0.0513017
0.0446304
0.0473258
0.0516518
0.138516
0.550637
0.132435
0.170368
0.00243782
0.000541421
0.00139349
0.00263889
0.00762593
0.127433
0.410129
0.0199779
0.00323386
0.00259675
0.00378995
0.00232248
0.00463366
0.0173933
0.125989
0.425035
0.0195695
0.0113442
0.0055764
0
0
0
0.00650175
0.0932807
0.471791
0.0391581
0.0114803
0
0
0
0.000482649
0.00744266
0.293506
0.498506
0.0266261
0.00261489
0.0147252
0.0129481
0.0072391
0.00807849
0.100022
0.129765
0.232241
0.0384754
0.0315172
0.0417295
0.115517
0.0726889
0.0111215
0.119161
0.0708773
0.0265655
0.00818275
0.0401008
0.00532909
0.00952338
0.00383658
0.0331974
0.0852917
0.505516
0.659366
0.0287937
0.0188215
0.0483377
0.164029
0.0828936
0.073591
0.122786
0.133129
0.116676
0.0127054
0.0394567
0.00588599
0.00019141
0
0.000545324
0.0258866
0.200058
0.259519
0.321789
0.0237824
0.0322616
0.0331947
0.112758
0.0854842
0.0379132
0.0251105
0.122136
0.237603
0.0712163
0.0194562
0.0349078
0.0615622
0.0375523
0.0138557
0.0594268
0.276402
0.443285
0.0418559
0.106548
0.0537587
0.289721
0.202396
0.0192254
0.00208608
0.221225
0.385426
0.0759223
0.00875925
0.0253451
0.215139
0.287722
0.0348321
0.00418838
0.00774883
0.0176437
0.015954
7.60716e-005
0.0106284
0.364362
0.43653
0.0267109
0.00308239
0.00205493
0
0
0.0279383
0.0169136
0.2885
0.38117
0.0450626
0.0018811
0.01936
0.0457607
0.0194458
0
0.00186668
0.161434
0.468861
0.116152
0.027507
0.00540695
0
0
0.00314629
0.03395
0.286056
0.298286
0.0543053
0.00404364
0.00518753
0.0030455
0
0.0256777
0.150302
0.545186
0.234337
0.0541192
0.000577663
0.00453805
0.00507583
0.0146147
0.014958
0.0310666
0.0744956
0.289666
0.162697
0.0538856
0.0228919
0.0213185
0.0207084
0.0665783
0.262279
0.367613
0.202375
0.108246
0.0347365
0.0297125
0.0412242
0.0378522
0.0234671
0.245833
0.523323
0.0645971
0.00934629
0
0.000765009
0.00110366
0.0193461
0.0978161
0.398629
0.209564
0.0138339
0.00183749
0.00394877
0.0552257
0.0123228
0.0582095
0.0350402
0.220543
0.501163
0.0677573
0.0121664
0.00832622
0.00535506
0.0182793
0.0142458
0.0560867
0.136263
0.191121
0.0317504
0.00282228
0.0124642
0.0584857
0.0314141
0.050657
0.146035
0.18758
0.017153
0.00160712
0.0358717
0.0313087
0.274278
0.0766672
0.154847
0.306466
0.481517
0.124485
0.0180905
0.077917
0.0340325
0.249195
0.107153
0.154101
0.0947271
0.059565
0.0103832
0.00287437
0.000624533
0.016806
0.165006
0.0648241
0.201779
0.217453
0.274898
0.0947041
0.0121543
0
0.00994735
0.083629
0.0540608
0.252462
0.120069
0.474743
0.380196
0.0837743
0.0183209
0.00895228
0.0269253
0.018606
0.0270082
0.00492456
0.136897
0.361102
0.234731
0.238599
0.11622
0.0106152
0
0
0.0753606
0.227735
0.155501
0.0334406
0.0164447
0.0139073
0.00412075
0.00584902
0.0377135
0.00807372
0.0611514
0.107308
0.0576942
0.250289
0.255354
0.0401794
0
0.0048963
0.00969229
0.0214945
0.0375745
0.104138
0.150266
0.139539
0.0641822
0.0098277
0.0424172
0.0149319
0.0114204
0.0119236
0.0383199
0.0721539
0.255849
0.318721
0.0708965
0.075759
0.002614
0.00126829
0.00744385
0.0234651
0.164079
0.369204
0.0962479
0.00497207
0.00743361
0.000353556
0
0
0.0138432
0.318196
0.615691
0.195683
0.0351048
0.0170575
0.00146085
0
0
0.00041713
0.0413212
0.169531
0.231006
0.0352794
0.00889174
0
0
0
0.000769451
0.0326586
0.432957
0.404075
0.0122096
0
0
0
0
0.00912573
0.237921
0.339732
0.0780618
0.0118918
0.00364496
0
0
0
0.0118915
0.201005
0.521432
0.143733
0.00153414
0
0.000889615
0.00346314
0.00199441
0.0230142
0.066781
0.387622
0.289379
0.00289727
0.00722044
0.0112196
0.0636107
0.0436981
0.0905848
0.0818002
0.105309
0.0685347
0.00427026
0.013873
0.000704028
0.000426302
0.00107514
0.041124
0.33717
0.597031
0.136683
0.0008991
0.00884504
0.0409153
0.0691118
0.0247729
0.138563
0.304715
0.221572
0.0462772
0.00445994
0.0648007
0.067513
0.158639
0.163997
0.141958
0.0505483
0.0209979
0.0801915
0.118988
0.0466956
0.200342
0.154513
0.192125
0.198488
0.080829
0.00611838
0.0886199
0.142678
0.0780443
0.11076
0.161143
0.106445
0.208266
0.231318
0.1673
0.112315
0.111384
0.195445
0.205328
0.134962
0.0473092
0.0840879
0.229219
0.345297
0.205237
0.140665
0.325856
0.0517822
0.0219771
0.147293
0.25777
0.214388
0.0219998
0.0278969
0.0488289
0.0344351
0
0.0169188
0.057914
0.243553
0.257991
0.0691495
0.0123962
0.00342761
0.00280441
0.0448518
0.0188222
0.0162494
0.0413934
0.37404
0.422252
0.159429
0.0742286
0.108623
0
0.028198
0.223773
0.198783
0.329549
0.30142
0.033511
0.00571269
0.00467401
0.0685046
0.080076
0.0456909
0.122531
0.132974
0.086578
0.0149697
0.0190507
0.0517391
0.128856
0.217239
0.157782
0.0507607
0.0522409
0.0769312
0.0206696
0.151808
0.182811
0.162369
0.107438
0.419713
0.277742
0.0770212
0.0523749
0.0104689
0.030955
0.0400205
0.270616
0.085328
0.185717
0.0933762
0.0257675
0.0654169
0.134272
0.451151
0.233507
0.0348595
0.12174
0.194903
0.0262837
0.00660723
0.0280592
0.0164511
0.193798
0.154763
0.0239803
0.0155485
0.0611653
0.0198645
0.0171491
0.0462843
0.0386825
0.0967637
0.10465
0.0519294
0.00991635
0.0142124
0.0230047
0.0992675
0.113172
0.234929
0.61311
0.232309
0.00596408
0.000294145
0.00223791
0.0464927
0.28806
0.224452
0.147926
0.267096
0.11897
0.135073
0.0191541
0.0242839
0.00397357
0.0296427
0.123424
0.115246
0.0952624
0.274963
0.195039
0.126781
0.133525
0.0228265
0.0274921
0.0621356
0.050468
0.0567572
0.356539
0.0231934
0.00540587
0.0180635
0.045658
0.356111
0.393825
0.0891469
0.112951
0.093194
0.0370191
0.0294362
0.0808017
0.018224
0.066696
0.0791083
0.0388673
0.102516
0.103134
0.0204736
0.0370463
0.0684726
0.0486764
0.0156407
0.0195923
0.00993475
0.00421456
0.0275657
0.147197
0.0447848
0.122741
0.102327
0.105407
0.15696
0.0435378
0.00400227
0.0291777
0.0120265
0.00694497
0.0496515
0.113258
0.0959124
0.00947341
0.0107872
0.0151761
0.0201187
0.331773
0.181509
0.251793
0.614177
0.374188
0.0235668
0.00997489
0.0490868
0.0956292
0.0507021
0.0181786
0.0155355
0.032166
0.121455
0.171863
0.0353658
0.00321338
0.0128151
0.0121357
0.00748205
0.00598282
0.106753
0.467119
0.314229
0.0279274
0.00487217
0.00611954
0.109526
0.106712
0.103912
0.157918
0.134016
0.0356695
0.00361383
0.0377448
0.0671589
0.0238049
0.0807361
0.112392
0.442903
0.507722
0.0612893
0.00673615
0.0237889
0.0385965
0
0
0.000682579
0.0536792
0.368381
0.149047
0.00493999
0.000998661
0.000427998
0
0
0
0.0303009
0.357102
0.304814
0.0179521
0
0
0
0.00656377
0.0223644
0.260151
0.447189
0.0219322
0.0106204
0.00986343
0.00310437
0
0.00261198
0.0164839
0.153281
0.515625
0.087189
0.00735118
0.0136477
0.00517394
0.00296494
0
4.65978e-005
0.0173734
0.414965
0.372796
0.0578134
0.0190014
0.0228266
0.114636
0.044507
0.00697574
0.0288773
0.231522
0.159664
0.0774714
0.0371468
0.167906
0.0197552
0.0087453
0.0178727
0.0817629
0.492609
0.163009
0.0407408
0.0640707
0.0599475
0.160186
0.019111
0.00447522
0.00947308
0.168248
0.0856489
0.0670927
0.16027
0.342492
0.0238884
0.0135513
0.00345306
0.0255484
0.0667143
0.155581
0.237903
0.105427
0.0461995
0.0184195
0.00641847
0.000395605
0.00817651
0.109974
0.340463
0.234287
0.0618219
0.0909067
0.00244363
0.000814542
0
0
0.0114827
0.136768
0.503002
0.117797
0.00158842
0.000349089
0.000116363
0
0
0.0622534
0.254378
0.510977
0.196626
0.0111189
0.00375373
0.00216816
0.00416311
0.00856483
0.12595
0.449635
0.127448
0.0263551
0.030565
0.00267656
0.0121899
0.183658
0.153078
0.0790531
0.29669
0.0618595
0.00193045
0.00443232
0
0.0096713
0.00375408
0.00818405
0.061422
0.406782
0.352771
0.141455
0.00602543
0.0209707
0.0798109
0.124641
0.116219
0.0318693
0.360097
0.265173
0.0792184
0.0189114
0.101257
0.0280025
0.418239
0.28978
0.0629433
0.055447
0.0224331
0.0114276
0.058848
0.153157
0.0200655
0.134586
0.0963564
0.0450915
0.124935
0.160492
0.154763
0.12666
0.1091
0.0980278
0.331484
0.181928
0.0618081
0.138093
0.103336
0.0554982
0.166609
0.105244
0.0245338
0.136651
0.046695
0.0334501
0.177666
0.31767
0.188922
0.266776
0.0175693
0.00143671
0.00593215
0.0422323
0.116553
0.236426
0.159888
0.137721
0.0389653
0.00416307
0
0
0.0879886
0.280085
0.258289
0.0977362
0.0770901
0.0249481
0.0104498
0.000155966
0.00355929
0.0253394
0.0693301
0.368389
0.243799
0.207731
0.0516925
0.0291415
0
0
0.0527932
0.170185
0.353467
0.288396
0.305885
0.237315
0.0188939
0.000618654
0.00341334
0.0309616
0.103983
0.0922803
0.0249899
0.0298003
0.0455039
0.029711
0.00784884
0.0175928
0.00760175
0.00581759
0.0120511
0.004205
0.0219835
0.0870272
0.149921
0.000249225
0.00176341
0.0185769
0.0619571
0.0672779
0.109087
0.203359
0.482462
0.328569
0.011748
0.00928157
0.00354128
0.00759756
0.0139262
0.0200722
0.0889273
0.661959
0.0131111
0.00843024
0.0186443
0.0556851
0.074689
0.000158605
0.000513501
0.00793572
0.0312051
0.0394101
0.0506297
0.0915902
0.289527
0.442694
0.0116234
0.00309489
0.0177494
0.0236852
0.115697
0.0214296
0.0272255
0.0634855
0.0991859
0.0308506
0.0119106
0.07597
0.22155
0.0267778
0.0298663
0.0652699
0.21808
0.653285
0.194222
0.0987189
0.0725151
0.042786
0.0387016
0.148201
0.162263
0.161003
0.226739
0.0104388
0.00690277
0.0374217
0.0494769
0.0150118
0.168431
0.173014
0.370531
0.345277
0.0266847
0.074543
0.0374217
0.0303038
0.120588
0.0891232
0.0907097
0.087888
0.323813
0.122563
0.115539
0.0589792
0.061332
0.318448
0.246955
0.0996272
0.119883
0.281837
0.0688266
0.137251
0.0518903
0.050383
0.000977919
0.0180523
0.0431961
0.242455
0.270383
0.037771
0.101551
0.0460254
0.01095
0.00158853
0.0332218
0.223975
0.177379
0.249077
0.0450846
0.0479872
0.0406012
0.0180689
0.0808109
0.0975947
0.151328
0.0910427
0.209456
0.0991768
0.127425
0.049283
0.00960323
0.0243811
0.108093
0.672552
0.182347
0.077612
0.0831894
0.0548827
0.0331126
0.0105746
0.0384603
0.0817551
0.175536
0.103935
0.175822
0.0480196
0.00385019
0.0489625
0.0809096
0.0821347
0.047293
0.0241346
0.0124199
0.0501708
0.0264676
0.00735389
0.225729
0.305308
0.0980554
0.196161
0.559687
0.102244
0.0123956
0.0125665
0.0111636
0.0460229
0.126302
0.100638
0.109658
0.0558224
0.00890104
0.0026079
0.00326067
0.0529731
0.373101
0.358343
0
0.000203078
0.00137697
0.000172988
0.0046672
0.0784821
0.370311
0.0401249
0.000953964
0
0
0.00017737
0
0.00635077
0.0750388
0.590807
0.168076
0.00855573
0.0112136
0.0273382
0.0162486
0.00146521
0.0110013
0.0552116
0.204845
0.0128723
0.00810024
0.00469507
0.00197058
0.00193563
0.000706138
0.0155037
0.11831
0.590807
0.0625834
0.00899499
0
0.00322013
0.000354919
0.000659136
0.00507683
0.0916257
0.385853
0.128945
0.007891
0.0154889
0.033503
0.0204467
0.0183821
0.0316498
0.145871
0.370237
0.118216
0.0145129
0
0
0
0
0.00621378
0.104853
0.523965
0.0754448
0.00781509
0.00213464
0.00156601
0.00104435
0.00517662
0.0202714
0.136275
0.523965
0.117088
0.00596886
0.0239595
0.0365854
0.0557284
0.0375249
0.0403512
0.0953092
0.178017
0.0640362
0.0414157
0.00976198
0.0129667
0.0311901
0.0183421
0.00755982
0.0419937
0.209057
0.172879
0.0651927
0.00264448
0.00375893
0.00351687
0.0174324
0.0243414
0.124798
0.565819
0.211584
0.00793432
0.000377783
0.00185239
0.00211012
0.0104594
0.00427466
0.0370921
0.443481
0.474514
0.0591834
0.00378165
0
0
0
0.00454146
0.0743291
0.174806
0.303808
0.0629012
0.0285746
0
0
0
0.0132882
0.0827387
0.139258
0.354819
0.286391
0.0111853
0
0
0
0.000578127
0.0033742
0.16818
0.42987
0.224051
0.0563338
0
0
0
0.00404689
0.0178367
0.0271215
0.258619
0.475423
0.0830611
0
0
0
0.00413344
0.0166619
0.0517875
0.16827
0.386885
0.243637
0.00840222
0.0601556
0.00773072
0.0135657
0.0178287
0.0382915
0.0759808
0.451472
0.0882339
0.0037533
0
0
0.0015942
0.0101414
0.0146201
0.0932704
0.43703
0.182973
0.0530788
0.188341
0.0298307
0.00813944
0.0179627
0.0277655
0.0427576
0.422414
0.130664
0.0168932
0.142001
0.0764902
0.118943
0.09368
0.0500115
0.108736
0.232734
0.0245955
0.00739659
0.070394
0.113181
0.332914
0.287815
0.22614
0.152463
0.0830009
0.144848
0.0543925
0.366399
0.157032
0.0571698
0.0908529
0.0542937
0.0414993
0.161184
0.319085
0.121362
0.123041
0.13835
0.07809
0.164381
0.174306
0.143141
0.114612
0.135076
0.021765
0.00913853
0.0118807
0.067785
0.0744259
0.10799
0.0719912
0.0950772
0.354462
0.119947
0.111331
0.0130116
0.0406409
0.01535
0.0303293
0.0420639
0.0708783
0.197292
0.239362
0.038917
0.00490934
0.00685614
0.0241247
0.0608949
0.0656278
0.0871799
0.198748
0.561684
0.497814
0.00164872
0
0.00044953
0.00679132
0.0363999
0.0537462
0.0760025
0.0851583
0.234727
0.0243729
0.0323289
0.0156557
0.00899296
0.00722572
0.00351453
0.0147133
0.0948369
0.505815
0.103227
0.0129797
0.0139271
0.00440397
0.00299401
0.000143676
0.0323563
0.233943
0.505815
0.00702483
0
0
0
0.00626095
0.00171048
0.0112143
0.18503
0.505815
0.0425875
0.00230672
0.00515958
0.00448296
0.00152086
0.000921881
0.0855087
0.156946
0.620153
0.131979
0.0151551
0.0106799
0.0444161
0.0414105
0.0672217
0.0658109
0.0771061
0.0468114
0.0163941
0.0308962
0.0763377
0.18276
0.272888
0.176918
0.0307304
0.120303
0.381274
0.0719157
0.0782939
0.0725276
0.0493369
0.0177933
0.00677625
0.0118776
0.017984
0.0215404
0.0718578
0.175034
0.271014
0.133254
0.0524096
0.0105221
0.0457282
0.072439
0.0341219
0.00725206
0.0500835
0.0458017
0.0958288
0.0362897
0.0686015
0.0180206
0.0202807
0.0142568
0.0042988
0.123243
0.24463
0.519056
0.0667322
0.0306429
0.0753324
0.0215066
0.013142
0.0042988
0.036471
0.0461741
0.125821
0.259445
0.46171
0.0540419
0.0266983
0.0402469
0.0115223
0.112335
0.175541
0.288614
0.206129
0.204197
0.000936202
0.0024501
0.0016334
0
0.0321354
0.149285
0.340058
0.0279341
0.00229095
0
0
0
0
0.00861499
0.131719
0.557047
0.125171
0.00158147
0.00655342
0.0040835
0.0121065
0.00386874
0.0358106
0.114944
0.190278
0.0791059
0.0224449
0.000527495
0
0.0013406
0.000552677
0.00810678
0.189575
0.553613
0.247652
0.0203423
0.00597084
0.00729769
0
0
0.00295266
0.0515852
0.396534
0.186922
0.00608173
0.0099514
0.0121628
0
0
0.00845636
0.0226614
0.243873
0.474483
0.117057
0.0111872
0.0121628
0
0
0.0116189
0.178166
0.38554
0.152389
0.0312062
0.0173271
0.0202714
0
0
0.0679856
0.177188
0.271114
0.343022
0.153505
0.00570043
0.00168088
0
0
0.00333918
0.00299211
0.0390567
0.331677
0.21404
0.0186586
0
0
0
0.00233929
0.00701786
0.00108347
0.192508
0.374743
0.00503302
0.00280146
0
0
0.0312155
0.0401769
0.0561531
0.380957
0.286776
0.0362082
0
0
0
0.00261754
0.00527795
0.000962353
0.308224
0.531735
0.0507175
0.00188257
0
0
0.000799611
0.00239883
0
0.0376702
0.272524
0.176641
0.0252522
0.0326194
0.00461919
0
0.00364419
0.00242946
0.00428855
0.235645
0.128628
0.000268938
0
0
0.00011423
0.00034269
0
0.0564045
0.50449
0.50449
0.0124723
0.00160632
0
0
0.000520598
0.000347066
0.00302953
0.50449
0.228506
0.0523814
0.0412482
0.0151068
0.000348441
0.012327
0.00738323
0.00608611
0.0764317
0.407815
0.186136
0.010889
0.0110784
0.00174808
0.0133293
0.01067
0.0160324
0.0293767
0.531604
0.0771196
0.00169101
0
0
0.00148974
0.000993164
0.00417958
0.167808
0.531604
0.281814
0.000241573
0
0
0.000893847
0.000595898
0.00429391
0.0564172
0.247481
0.299594
0.0208004
0.00040415
0.000562507
0.00203976
0.00435608
0.00815072
0.0115288
0.087042
0.493325
0.214504
0
0
0
0.00047183
0.00329631
0.00425418
0.352918
0.335277
0.00523223
0
0
0
0
0.000358363
0.00766033
0.125118
0.493325
0.0809661
0
0
0
1.55042e-005
0.000802287
0.000942887
0.0095154
0.478263
0.576465
0.00606163
0.000196509
0.00089975
0.000285647
0.00162395
0
0.0209757
0.178072
0.40138
0.0151192
0.0206471
0.0125606
0.00919017
0.000394476
0.00160161
0.0262366
0.349194
0.184001
0.00689602
0.000905097
0.0059504
0.00207886
0.00246295
0.00177482
0.0151887
0.0520255
0.0847629
0.0288215
0.0614498
0.0253958
0.0170939
0.00104089
0.000482348
0.0256938
0.0671198
0.0999463
0.059256
0.175868
0.0852952
0.0229708
0.00209205
0.00312474
0.00252955
0.0014885
0.00978201
0.211125
0.325074
0.200203
0.0160611
0.00125523
0.000446392
0.00767429
0.00653735
0.00774339
0.148673
0.347585
0.0462265
0.0159957
0
0.000446392
0.000361365
0
0.0546415
0.449525
0.527424
0.0445381
0.000849978
0
6.37703e-005
0.00987472
0.000217467
0.000144978
0
0.00444656
0.0201785
0.164835
0.226132
0.13487
0.00896273
0.00152227
0.0105242
0.00884107
0.0119159
0.0338441
0.287939
0.203946
0.0653539
0.0154686
0.0041219
0
0
0.0196595
0.166966
0.325341
0.336766
0.0681808
0.0708964
0.0521778
0.00547457
0.0121693
0.00918816
0.0865532
0.468878
0.474788
0.0695064
0.00410038
0.000608369
0.010736
0.00960449
0.0151264
0.039369
0.130592
0.136613
0.059108
0.00144853
0
0.00147578
0.00137207
0.00388588
0.15473
0.34992
0.160072
0.054729
0.0374558
0.0483442
0.0059473
0.0269356
0.011167
0.0124943
0.195525
0.490682
0.0902512
0.0171765
0.0227441
0.000849614
0.0137669
0.00982359
0.0794444
0.272035
0.586143
0.0954054
0.00262279
0.00167172
0
0
0.00402399
0.134805
0.351584
0.0762117
0.0264061
0.00303262
0.00278619
0
0
0.0321934
0.157296
0.486026
0.0858375
0.0373395
0.00186297
0.00205783
0
0
0.0117636
0.102069
0.401867
0.158118
0.024675
0.0009585
0
0
0.010496
0.0446843
0.190263
0.534721
0.0780476
0.0122951
0.00639477
0.000498989
0
0
0.0276797
0.0858567
0.280362
0.128204
0.117082
0.0618071
0
0
0.000243774
0.0067189
0.0213689
0.0614667
0.105686
0.43433
0.00617927
0
0
0.0138896
0.0554054
0.120648
0.62086
0.111363
0.0452038
0.0338561
0.000198511
0
0.00369065
0.041632
0.117953
0.407104
0.0523064
0.104856
0.181879
0
0
0.00156592
0.00180003
0.00260651
0.00299621
0.0229564
0.554993
0.528005
0.00337487
0
0.0036606
0.000678622
0.00600746
0.0023509
0.0273316
0.500592
0.0694427
0.00158182
0.00107858
0.015348
0.0276589
0.0451678
0.0464867
0.00422371
0.118782
0.100697
0.00775946
0.00755005
0.0329353
0.00661778
0.01231
0.0234592
0.0457876
0.129537
0.601944
0.0388801
0.00397348
0.00166117
0.000106364
0.0217354
0.00526125
0.0495257
0.263382
0.553294
0.259712
0.037602
0.00199809
0
0.0130412
0.00231495
0.0317557
0.141222
0.100324
0.0130733
0.0148864
0.0129452
0.00143352
0.0439355
0.0453741
0.0707422
0.108569
0.118448
0.118093
0.0966021
0.0165281
0.00499661
0.0263613
0.0174254
0.0388241
0.0761182
0.369618
0.543004
0.0355106
0.00168689
0
0
8.65599e-005
0.00549243
0.0301693
0.136559
0.583776
0.0513717
0.0056119
0.00295997
0
0.000211084
0.00922212
0.00967857
0.0624279
0.206222
0.0758805
0.016237
0.0164195
0
0.00060592
0.0158123
0.0123152
0.0276387
0.154831
0.0310929
0.0218365
0.0225316
0
0.00446795
0.013185
0.00580714
0.0923464
0.475993
0.122214
0.0236241
0.0408577
0.0179858
0.00594776
0.0418618
0.030166
0.0310532
0.0628995
0.0399367
0.143242
0.353037
0.179738
0.0351849
0.0176916
0.00430943
0.0348996
0.153155
0.0576576
0.0681964
0.0913112
0.00113796
0.0352855
0.0384857
0.0208839
0.0319948
0.053853
0.0358675
0.141305
0.342996
0.191774
0.0852671
0.0475764
0.022076
0.00059624
0.00100321
0.0012078
0.110719
0.227913
0.0944293
0.0134367
0
0
0
0
0.0693916
0.335843
0.31713
0.155095
0.0274425
0
0
0.00239556
0.00105436
0.00242856
0.0529158
0.140346
0.205876
0.102727
0.00624447
0.00212089
0
0
0.0253879
0.13264
0.362299
0.538724
0.228993
0.000669313
0