0.103209
0.131122
0.0449029
0.0645283
0.0760313
0
0.00805459
0.0402208
0.0795562
0.157135
0.0686112
0.0917783
0.190695
0.125126
0.0361226
0.0134243
0.0552077
0.089792
0.189054
0.211595
0.0523151
0.0945413
0.0781949
0.0396823
0.111494
0.159499
0.128616
0.396537
0.140942
0.0929755
0.057035
0.0931538
0.04571
0.130492
0.185529
0.122727
0.133282
0.0700833
0.0541121
0.0803145
0.0483515
0.0436333
0.0114898
0.0157403
0.0743015
0.140149
0.0587957
0.0512096
0.0072331
0.14545
0.0475612
0.0244142
0.048545
0.173269
0.313416
0.258933
0.100631
0.0170356
0.0302993
0.0283607
0.0115013
0.0201477
0.0935439
0.326501
0.275149
0.0688093
0.0407025
0.0725723
0.0458311
0.0454423
0.0771562
0.355992
0.110432
0.0384316
0.0458875
0
0.0945759
0.0140273
0.0161093
0.136928
0.120345
0.105813
0.06569
0.0635632
0.0362877
0.0275311
0.0412653
0.0304717
0.200612
0.106087
0.213557
0.120495
0.0289845
0.0604204
0.0542225
0.0411364
0.105953
0.154988
0.220357
0.140059
0.152526
0.0301737
0.0500365
0.0830471
0.239758
0.334604
0.260174
0.0793344
0.0264043
0.0525665
0.121556
0.0603455
0.0459767
0.0533356
0.0174107
0.0484205
0.0312217
0.0781297
0.101425
0.22132
0.174801
0.125539
0.10878
0.0210621
0.0942612
0.0217654
0.101395
0.212154
0.085157
0.0168594
0.0850227
0.245337
0.143357
0.0961789
0.0279249
0.275982
0.277245
0.148714
0.0523687
0.0381181
0.0876148
0.0485218
0.159437
0.11644
0.132612
0.123231
0.0594996
0.0690264
0.0319031
0.0518097
0.00733352
0.109186
0.0923119
0.253769
0.281123
0.0504638
0.00910331
0.0064341
0.0257364
0.0217828
0.0899226
0.18268
0.209688
0.0589319
0.0231206
0.015702
0.0103555
0.0304393
0.0235191
0.148354
0.169273
0.471535
0.119768
0.0214525
0.00178858
0.00174744
0.00698975
0.018565
0.0833829
0.348471
0.148768
0.177278
0.101336
0.0052747
0.0598706
0.123828
0.0573152
0.0678018
0.067665
0.0208497
0.0556283
0.0768693
0.0592107
0.221403
0.152862
0.0590416
0.0311689
0.00475866
0.386707
0.126579
0.0628437
0.0114696
0.0234158
0.0478135
0.020106
0.13607
0.260426
0.080803
0.0908488
0.0950928
0.0969966
0.0637955
0.0811595
0.0600599
0.343041
0.157586
0.0141817
0.040978
0.0480831
0.110522
0.302041
0.0360609
0.049791
0.0240869
0.0118217
0.0654781
0.0514391
0.0641462
0.054461
0.201815
0.0228133
0.0593557
0.0867451
0.0692174
0.0397359
0.052457
0.115815
0.0942694
0.0779576
0.0235562
0.137769
0.288902
0.09483
0.137397
0.0716956
0.081294
0.0217387
0.0675393
0.0380221
0.134568
0.177766
0.145998
0.0632041
0.0262675
0.0740794
0.0548818
0.0655124
0.0228624
0.0333498
0.0449508
0.0673634
0.0866835
0.0325534
0.0932138
0.0557148
0.0323908
0.080039
0.0764573
0.152762
0.107471
0.0939727
0.0779574
0.120572
0.086851
0.0673394
0.0527722
0.0479485
0.054386
0.0966764
0.162138
0.0530045
0.15417
0.248093
0.298486
0.270437
0.0538196
0.0989897
0.213114
0.0485573
0.0389132
0.0538107
0.0281386
0.0271695
0.0463628
0.0271259
0.0651949
0.0577396
0.10858
0.0641911
0.0552501
0.0234364
0.0407893
0.0130423
0.0270973
0.0683974
0.154316
0.117837
0.0977316
0.140249
0.189126
0.280933
0.175698
0.0175226
0.0430707
0.103173
0.382818
0.14512
0.16107
0.114741
0.179767
0.111373
0.0797995
0.154928
0.330026
0.049416
0.0758301
0.0347347
0.129075
0.202038
0.110153
0.094165
0.0517076
0.0280279
0.128729
0.0837299
0.176367
0.0767246
0.102449
0.0557087
0.0907583
0.0608557
0.0284124
0.00928235
0.0275563
0.111692
0.199368
0.386514
0.12704
0.0504811
0.0159794
0.00928235
0.0300497
0.0799627
0.304978
0.215433
0.210678
0.0583051
0.022096
0.00516823
0.0176488
0.15919
0.219237
0.222563
0.0421157
0.0227278
0.0420078
0.0130113
0.00859454
0.029994
0.178613
0.241321
0.116468
0.168426
0.0909504
0.105834
0.0459963
0.0365534
0.130855
0.0575088
0.0846238
0.234628
0.143759
0.0333458
0.0746275
0.0331534
0.0130267
0.0305676
0.0840646
0.058334
0.121762
0.147872
0.141884
0.17948
0.101676
0.0584323
0.149914
0.0699242
0.0555535
0.017781
0.129241
0.08061
0.0694513
0.10218
0.0485021
0.0584101
0.0866625
0.100274
0.0117084
0.0678848
0.0752249
0.178613
0.297339
0.168826
0.0315724
0.0637347
0.0519412
0.0769773
0.150705
0.12289
0.0955667
0.125697
0.0442888
0.0716952
0.161974
0.349318
0.173625
0.171732
0.074415
0.192621
0.149371
0.130064
0.0359485
0.0923522
0.16095
0.0458614
0.0103281
0.0291077
0.0818223
0.0813105
0.0729369
0.017951
0.283152
0.258511
0.0728568
0.00690749
0.00382771
0.0103861
0.0120621
0.0261476
0.0666823
0.134814
0.349463
0.204496
0.0587248
0.0080796
0.0400032
0.0320296
0.0672732
0.0263981
0.316782
0.390733
0.23326
0.0489442
0.000390135
0.0125547
0.00744429
0.0208365
0.0566179
0.278094
0.171264
0.0148786
0.000824711
0
0.00267431
0.00851598
0.0300695
0.117598
0.370082
0.101212
0.00221338
0
0.00534186
0.0321496
0.0562056
0.0560369
0.295102
0.298152
0.244399
0.0430614
0.00577298
0
0.0310712
0.0133162
0.0454899
0.0956448
0.21552
0.152101
0.0583429
0.0989737
0.0798997
0.119597
0.101711
0.0770967
0.246843
0.155685
0.0138342
0.00353059
0.00315929
0.00567672
0.0454138
0.0550127
0.151371
0.221833
0.0237011
0.00974724
0.0280979
0.0232977
0.00287372
0.031469
0.134088
0.397593
0.190316
0.0393695
0.0180605
0.0849309
0.11153
0.0948138
0.101775
0.12181
0.164794
0.166381
0.0248115
0
0.0696151
0.0419253
0.146692
0.103647
0.313929
0.377778
0.164358
0.0198461
0.0046919
0.0185327
0.00929161
0.000491792
0.00450708
0.150666
0.263209
0.0844548
0.0662763
0.0190693
0.0180184
0.000844176
0.00965979
0.00240142
0.0820063
0.157082
0.136241
0.0332542
0
0.0111872
0.00372905
0.0577772
0.0421168
0.292082
0.38683
0.146695
0.0360295
0.0221747
0.0126126
0
0.0223118
0.0345572
0.306367
0.430152
0.188289
0.0961014
0.0766805
0.0473887
0.0213235
0.0467781
0.0188096
0.0539891
0.0855594
0.116956
0.173938
0.126551
0.0982449
0.133238
0.226071
0.115232
0.0317334
0.0394715
0.171517
0.0819696
0.122993
0.0681753
0.0178367
0.0823234
0.0335238
0.224961
0.256662
0.113366
0.184493
0.238645
0.220295
0.10604
0.159473
0.0430824
0.058899
0.0415025
0.118085
0.0553594
0.0612505
0.0919357
0.128501
0.270305
0.103703
0.00239663
0.00626778
0.0407488
0.139518
0.0448691
0.0900232
0.0983458
0.308358
0.113296
0.045555
0.0312191
0.0746776
0.0376614
0.0599015
0.0959236
0.110937
0.292917
0.101129
0.00605823
0.00264413
0.0232323
0.0314388
0.00716298
0.0392384
0.117664
0.547285
0.172775
0.0192648
0.00341514
0.0228881
0.00294807
0.0304375
0.0806929
0.115309
0.291367
0.0468557
0.0762044
0.045996
0.00173622
0.0307963
0.057978
0.151743
0.155752
0.243266
0.0212625
0.0440907
0.0284748
0.0319986
0.017034
0.0572658
0.0125003
0.0698735
0.287752
0.175001
0.149815
0.0694508
0.0351766
0.16474
0.141685
0.0594597
0.111518
0.276826
0.11811
0.0840132
0.127094
0.0807283
0.0420287
0.0264942
0.106354
0.124149
0.0355565
0.0333834
0.0414509
0.0237713
0.0478195
0.0601022
0.0407069
0.1014
0.0789102
0.0770598
0.0738537
0.0499912
0.0634134
0.146116
0.195837
0.231362
0.119343
0.101253
0.0883911
0.02069
0.0312582
0.0593228
0.0838523
0.14571
0.284843
0.321552
0.256172
0.145772
0.0144951
0.0118202
0.0702272
0.0609506
0.0488291
0.099491
0.0817967
0.044988
0.0369546
0.0212093
0.0283548
0.0166081
0.045176
0.0644397
0.303724
0.255947
0.117729
0.0138102
0.0410769
0.0260264
0.00712575
0.00677113
0.0380679
0.161594
0.203141
0.216125
0.0730961
0.00201347
0.00228055
0.0170067
0.0125545
0.0493165
0.270998
0.508033
0.266654
0.0310148
0.0016539
0.00307153
0.00608482
0.00168676
0.0600698
0.236178
0.157489
0.0476079
0.00148038
0.00842597
0.00247773
0.00405561
0.00741689
0.214871
0.282573
0.0998895
0.0238721
0.000317183
0.00808528
0.00346512
0.00906236
0.0202566
0.037699
0.192261
0.402968
0.0862475
0.00954452
0.000162473
0.000301735
0.000590924
0.00282293
0.172916
0.448337
0.358219
0.0691315
0.0129834
0.00115504
0.000495018
0.0020896
0.00819548
0.286081
0.183635
0.0306314
0.00947348
0.000117795
0.017842
0.0082398
0.0436472
0.0718974
0.214294
0.0984105
0.119704
0.140908
0.0700056
0.0383958
0.0239661
0.0759499
0.165487
0.237939
0.412361
0.183468
0.0531042
0.00288144
0.0135943
0.0664354
0.0323984
0.0429845
0.193261
0.197776
0.144787
0.123093
0.113363
0.13839
0.191233
0.128284
0.113896
0.0323745
0.0132105
0.13818
0.171311
0.114591
0.0700413
0.042798
0.0987325
0.0522927
0.0209675
0
0.0555027
0.0613745
0.258301
0.244001
0.114566
0.167485
0.0442753
0.0819828
0.0935887
0.123031
0.154436
0.2076
0.146124
0.0562131
0.0902339
0.0545501
0.0428545
0.165536
0.172106
0.117912
0.418934
0.33817
0.0359991
0.0656128
0.0252369
0.0276692
0.000853033
0.00434024
0.00133399
0.15434
0.14077
0.145546
0.232589
0.0851405
0.00395275
0.0296065
0.0125285
0
0.0349339
0.0712925
0.25001
0.376492
0.0811221
0.00744204
0.0483128
0.109315
0.089118
0.286344
0.202807
0.0612854
0.096298
0.0298499
0.000564678
0.0252687
0.0464627
0.0429264
0.0610429
0.211833
0.155329
0.333724
0.0569586
0.0128024
0.0521341
0.0286238
0.00573397
0.0681958
0.0791076
0.206261
0.191956
0.0317956
0.0451828
0.0580379
0.104436
0.0297106
0.0814699
0.0543839
0.128553
0.0683514
0.0379309
0.00851044
0.021509
0.00947093
0.00513625
0.0314588
0.323351
0.285649
0.286822
0.0332694
0.106523
0.0309549
0.027307
0.00616611
0.0614114
0.218657
0.311462
0.177213
0.109446
0.0170916
0.0186382
0.0786436
0.0424547
0.197244
0.0829474
0.0541334
0.0204777
0.0353503
0.0148058
0.0443948
0.0810377
0.0599944
0.386999
0.127922
0.0957117
0.0497033
0.0814516
0.0819322
0.0426047
0.0330566
0.0141088
0.0639362
0.0679601
0.107113
0.0883583
0.194849
0.147814
0.101873
0.0605896
0.0266827
0.0923567
0.0348369
0.109245
0.16184
0.506104
0.0067
0.0267998
0.00795369
0.0188869
0.1383
0.138873
0.0969943
0.0791564
0.0223647
0.0873799
0.183955
0.0305252
0.0329653
0.102104
0.128955
0.0791757
0.0805371
0.0238401
0.0385698
0.0338554
0.0432294
0.00269813
0.102509
0.128547
0.276414
0.25712
0.11207
0.10666
0.11909
0.0394321
0.00449688
0.0645856
0.143521
0.239843
0.370925
0.342733
0.110808
0.213289
0.0353927
0.0128439
0.0337908
0.0215787
0.0593936
0.0362772
0.0266946
0.104024
0.168775
0.109721
0.184883
0.14613
0.00861659
0.0304348
0.0476854
0.0347305
0.0958898
0.103394
0.0134653
0.0232722
0.03906
0.0687229
0.30395
0.202099
0.172322
0.0532447
0.0660329
0.0900606
0.377593
0.307229
0.0309818
0.265293
0.140231
0.0450052
0.023269
0.0531123
0.12973
0.315086
0.133901
0.0376936
0.003015
0.0305348
0.015757
0.0245967
0.0768489
0.351755
0.287077
0.0662141
0.0861326
0.0522343
0.0285293
0.0196803
0.0385235
0.00723532
0.0897934
0.33026
0.208032
0.0732075
0.0442865
0.069428
0.0442617
0.153288
0.0502373
0.099811
0.125999
0.0625286
0.159957
0.122714
0.140617
0.187713
0.0306994
0.110494
0.392443
0.0909392
0.0142004
0.0170799
0.0373028
0.00414153
0.0118023
0.050401
0.313248
0.472565
0.060325
0.0149784
0
0.0052305
0.00284965
0.0111414
0.176413
0.121362
0.176111
0.0493921
0.00922916
0.0301287
0.0801754
0.0461454
0.112409
0.161563
0.1753
0.297735
0.0940245
0.0151506
0
0.0168877
0.00706463
0.030029
0.0601859
0.339908
0.231834
0.0376106
0.00554445
0.0180429
0.137912
0.0442631
0.0411206
0.182744
0.168414
0.047483
0.0338004
0.0638183
0.162057
0.348751
0.180062
0.092076
0.0882097
0.163195
0.122916
0.0603567
0.0218203
0.0172969
0.0723249
0.0272054
0.0407129
0.21062
0.173926
0.0247839
0.0122905
0.0274841
0.051856
0.166803
0.159268
0.128938
0.247271
0.223447
0.0424901
0.0411457
0.101547
0.103052
0.0747426
0.0985853
0.0739899
0.169139
0.390889
0.225378
0.113163
0.181612
0.0765664
0.00428093
0.0523743
0.044359
0.225043
0.19378
0.0235635
0.0232908
0.0452
0.0222911
0.0371576
0.0860831
0.0757942
0.152855
0.226734
0.109896
0.137602
0.15225
0.106694
0.0356931
0.0692878
0.030121
0.0688941
0.0901775
0.142204
0.120932
0.109011
0.0429713
0.0255452
0.0694244
0.057555
0.0351955
0.00658547
0.0376593
0.0492641
0.0713694
0.172597
0.164746
0.166417
0.0636045
0.106453
0.0536999
0.143367
0.123495
0.148424
0.186426
0.16051
0.0874174
0.0475115
0.0600344
0.0114236
0.0643708
0.0517501
0.205678
0.417099
0.35075
0.141732
0.0561699
0.00200952
0.00161261
0.00234851
0.00696655
0.0440079
0.176731
0.249651
0.131624
0.0101361
0.050492
0.0323898
0.0100678
0.00534294
0.0376314
0.12539
0.389503
0.156563
0.0319075
0.000169473
0.00894694
0.00980483
0.1128
0.19257
0.207899
0.203612
0.105698
0.0129922
0.036707
0.154415
0.127473
0.250915
0.161922
0.0702586
0.318462
0.120257
0.0211581
0.118721
0.0660102
0.006858
0.00078235
0.0110606
0.0282383
0.153967
0.099677
0.107801
0.218885
0.0687624
0.0045366
0.00153339
0.00107071
0.00301658
0.0204691
0.124622
0.340773
0.192188
0.17276
0.104857
0.0850855
0.0253782
0.00772427
0.146366
0.0638724
0.119271
0.395557
0.107522
0.0423821
0.00521477
0.000537622
0
0.0113177
0.101623
0.365382
0.0614131
0.0421121
0.0189828
0.0164936
0.0465586
0.0610836
0.153949
0.218731
0.188432
0.0843144
0.0626859
0.0278656
0.0344227
0.00790604
0.169458
0.116131
0.307351
0.357005
0.0812072
0.0898173
0.0956359
0.127836
0.208402
0.0646404
0.0685224
0.128135
0.115858
0.0872813
0.0911788
0.105279
0.17042
0.0633963
0.269533
0.0525721
0.112232
0.0904411
0.0324455
0.00844629
0.00844372
0.0302595
0.0287065
0.178441
0.210037
0.124616
0.124929
0.00707024
0.00661625
0.052307
0.208257
0.242268
0.0965702
0.221237
0.0776042
0.0156558
0.0109425
0.0113885
0.040358
0.0835458
0.166635
0.318932
0.0928371
0.0270792
0.017163
0.00925192
0.044242
0.0950379
0.11764
0.449496
0.26316
0.11432
0.019055
0.00154124
0.0637977
0.022333
0.117976
0.107835
0.138288
0.0254222
0.039997
0.0318577
0.0220374
0.25755
0.0483556
0.122692
0.0126199
0.0179342
0.0213802
0.0716393
0.187211
0.127166
0.0552117
0.0942409
0.338333
0.0884501
0.223029
0.0596127
0.0829665
0.0309678
0.00890602
0.275532
0.145966
0.388371
0.05479
0.0872809
0.0259309
0.210689
0.256064
0.0802802
0.151746
0.0514298
0.0398563
0.0048124
0.00395308
0.00566249
0.131289
0.232833
0.101204
0.0745208
0.0536333
0.0507425
0.059069
0.0378421
0.00575942
0.105287
0.107139
0.024912
0.118207
0.0463361
0.0880731
0.0411693
0.113661
0.0240887
0.395004
0.365814
0.0625844
0.014293
0.0160565
0.0900431
0.0764759
0.272785
0.0502473
0.36486
0.200854
0.0203477
0.074499
0.107381
0.0511889
0.119011
0.0773145
0.0394133
0.0768255
0.0525152
0.029593
0.140982
0.129151
0.0434541
0.0633099
0.0906437
0.082905
0.0586833
0.082543
0.10234
0.0516812
0.0199428
0.09807
0.157002
0.286831
0.0900852
0.198644
0.106477
0.0642614
0.0809992
0.0183361
0.0765426
0.105806
0.243271
0.0695867
0.0655469
0.140286
0.1077
0.0747657
0.0531256
0.0316224
0.054022
0.0749507
0.0259729
0.0268652
0.0503553
0.0497867
0.0517035
0.0268781
0.0449469
0.163727
0.205284
0.185837
0.123202
0.0804764
0.0356409
0.0459375
0.030462
0.0441834
0.0737145
0.168338
0.0413318
0.0454148
0.0628859
0.0262351
0.100707
0.103545
0.0667971
0.494243
0.253706
0.150825
0.100479
0.076007
0.0375627
0.0146416
0.00988905
0.0363295
0.0918007
0.14774
0.141544
0.0937451
0.018521
0.00674292
0.00819065
0.015152
0.0380406
0.088482
0.244865
0.253975
0.127685
0.0194163
0.00353734
0.0155462
0.0208826
0.0587624
0.402121
0.180377
0.0503103
0.0450706
0.0231879
0.00649891
0.0015733
0.00891534
0.117867
0.452761
0.351171
0.0767541
0.0565586
0.0264465
0
0.000316527
0.0038124
0.0102234
0.123085
0.22132
0.109386
0.0348885
0.0146095
0.00232886
0.0107238
0.0547707
0.0668484
0.267475
0.265938
0.0370148
0.0187243
0.00929426
0.0101274
0.000189916
0.00107619
0.0396733
0.223161
0.363501
0.0380433
0.0137903
0.00319242
0
0.00458883
0.00368353
0.0198565
0.294533
0.533484
0.0523075
0.00715541
0
0.00458883
0.12595
0.103839
0.130975
0.208925
0.155154
0.0186041
0.0254301
0.00607748
0.0867365
0.30555
0.0600775
0.115973
0.0334165
0.0926559
0.00239404
0.0128666
0.023023
0.255096
0.081592
0.0194567
0.0656475
0.23485
0.38456
0.0819565
0.0467814
0.00406986
0.0308163
0.224988
0.0445916
0.110261
0.0434804
0.168193
0.0305994
0.0702886
0.0300003
0.10234
0.111894
0.235398
0.140597
0.0646405
0.086476
0.0134394
0.00618012
0.0159439
0.01274
0.167526
0.185428
0.138742
0.110379
0.0727412
0.0655334
0.0101261
0.0112556
0.0160453
0.12457
0.45096
0.258188
0.0270464
0.00527171
0
0
0
0.00580943
0.223945
0.3143
0.207029
0.0629756
0.0510507
0.107907
0.00315749
0.036143
0.0647614
0.0411006
0.0271214
0.0422052
0.111411
0.159083
0.0967559
0.00938782
0.00357854
0.00386692
0.0362068
0.0957025
0.0415589
0.152597
0.24365
0.140542
0.077959
0.0169392
0.00382865
0.0658688
0.0393223
0.032426
0.0950146
0.167705
0.273842
0.0736364
0.0321406
0.0270684
0.0406832
0.0941768
0.0154565
0.147167
0.272136
0.409194
0.455338
0.072809
0.00819876
0.0152237
0.0521194
0.0875355
0.0599005
0.103297
0.0519209
0.165635
0.0974874
0.0102003
0.0517253
0.0545856
0.0920954
0.0747003
0.0757443
0.024602
0.244941
0.219455
0.0347582
0.0180797
0.0358949
0.0111079
0.0451473
0.0971443
0.200397
0.366818
0.170874
0.0135552
0.0281572
0.0403443
0.0064482
0.0595665
0.0630318
0.142957
0.470022
0.381544
0.0353759
0.0385736
0.0431718
0.0994028
0.144704
0.150889
0.0276089
0.161762
0.118885
0.0255664
0.00676886
0.0186564
0.190018
0.141314
0.262716
0.0366707
0.117682
0.0535791
0.00742326
0.0220492
0.046961
0.0525089
0.140073
0.103352
0.146591
0.339022
0.252525
0.0426819
0.00428027
0.0155763
0.113969
0.124179
0.144702
0.142636
0.395451
0.266769
0.0336556
0.0267607
0.012146
0.139435
0.110638
0.151143
0.0402478
0.0589244
0.0486738
0.0455217
0.024648
0.00921816
0.0706893
0.111529
0.094089
0.0167045
0.0230176
0.0850864
0.0609618
0.0100955
0.0183408
0.0984546
0.0499117
0.0656913
0.121617
0.342724
0.357318
0.12813
0.0134815
0.0444913
0.0567855
0.126487
0.172603
0.108622
0.0438761
0.296797
0.155914
0.0467051
0.0565696
0.0506266
0.102359
0.0595476
0.0123995
0.0173355
0.0340565
0.0132268
0.170561
0.148765
0.142922
0.297459
0.076185
0.0290295
0.0163391
0.0291279
0.0493164
0.0518108
0.0621269
0.0546664
0.246184
0.267602
0.100706
0.00592885
0.0401089
0.0343006
0.299743
0.151501
0.183564
0.353967
0.234022
0.0806001
0.0715
0.00416113
0.136715
0.0360337
0.0254874
0.114224
0.322482
0.0676817
0.00557492
0.00497588
0.00736826
0.0117603
0.000538005
0.000540452
0.102788
0.448687
0.15542
0
0.010992
0.00936103
0
0.0840458
0.0354499
0.154411
0.294298
0.0609545
0.0347753
0.0399565
0.000340023
0.0326712
0.00376603
0.00378316
0.173735
0.515943
0.111241
0.0368463
0.0139421
0.00174586
0
0
0.00216975
0.0605983
0.286336
0.177735
0.000498444
0.00589265
0.00250508
0
0.00369568
0.00385828
0.0677567
0.405118
0.214913
0.0135684
0.0034787
0.00105256
0.00385097
0
0.0151882
0.248028
0.320339
0.07694
0.00740174
0.00964712
0.00201301
0
0.0015544
0.0279538
0.290046
0.423615
0.0536438
0.0048489
0.0129852
0.00739094
0.00264148
0.0458261
0.00982405
0.0886773
0.36196
0.222883
0.0654391
0.0327012
0.0347253
0.0292513
0.130447
0.0389432
0.0600193
0.0331697
0.0617167
0.0836037
0.103894
0.0786946
0.0731033
0.0238784
0.0226824
0.166096
0.373484
0.0893519
0.0303737
0.0408302
0.11253
0.0360828
0.0658053
0.0299029
0.0528794
0.0515952
0.105922
0.110226
0.123272
0.15878
0.0719736
0.0768867
0.31674
0.341743
0.058158
0.0109701
0.0114857
0.00492245
0
0.00923046
0.0734755
0.15019
0.248916
0.0915372
0.105493
0.146343
0.0226258
0.0223414
0.0424111
0.16944
0.146753
0.153337
0.0426634
0.0523013
0.0575336
0.0115283
0.00859278
0.0615674
0.142007
0.07812
0.109493
0.0607196
0.216057
0.0551189
0.0223265
0.0143213
0.0798956
0.00904144
0.00953708
0.0196765
0.0113278
0.0661412
0.166764
0.107735
0.0123745
0.00798042
0.00310297
0.00710566
0.00207981
0.0126799
0.10485
0.392776
0.45088
0.0433068
0.00132356
0.0190718
0.00902694
0.0135737
0.00382242
0.0896498
0.0950362
0.0695036
0.0113083
0.0173716
0.00450722
0.00111717
0.00181072
0
0.101766
0.383586
0.461653
0.145798
0.00915565
0.00587163
0.00710355
0.000300632
0.00837153
0.0585409
0.274303
0.26918
0.039213
0.00144344
0.00983388
0.0210366
0.00210443
0.006113
0.0390153
0.232709
0.288871
0.0830954
0.00887379
0.000711472
0.00331362
0.000501054
0
0.0530679
0.277307
0.418664
0.156067
0.00155063
0.00118579
0.0206657
0.00350738
0
0.0481142
0.228765
0.4208
0.18762
0.00699769
0.00329634
0.0108116
0.000960559
0.00910341
0.0150763
0.182782
0.289019
0.133021
0.0384492
0.00827318
0.01582
0.000345074
0.00873036
0.0139256
0.149241
0.384844
0.257964
0.0846489
0.000199114
0.00920468
0.00160093
0
0.0248115
0.124233
0.281621
0.21048
0.0683815
0.0379827
0.0251179
0
0
0.00743744
0.0797336
0.316979
0.361492
0.224055
0.0176526
0.023106
0.0124288
0.00365641
0.0050692
0.0620344
0.22582
0.283803
0.173925
0.011224
0.0202422
0.0194115
0.0527835
0.0786578
0.0911301
0.131959
0.224297
0.161396
0.159032
0.057072
0.0709043
0.0192935
0.0122303
0.0339657
0.184181
0.30549
0.335454
0.13928
0.0729299
0.182045
0.174992
0.100031
0.0927199
0.200993
0.175812
0.191234
0.0129743
0.0134582
0.00856558
0.111629
0.2189
0.172122
0.122983
0.0698466
0.0335837
0.120799
0.035094
0.0285431
0.124241
0.22244
0.17805
0.181546
0.123591
0.104754
0.0243445
0.0461069
0.0728895
0.119413
0.112341
0.123476
0.212129
0.13932
0.0787082
0.0979903
0.066675
0.0544115
0.0477257
0.0935621
0.127471
0.240044
0.360478
0.315941
0.0885804
0.0244489
0.062172
0.202692
0.106731
0.134893
0.0844812
0.0463776
0.0621835
0.0196015
0.0243263
0.148598
0.362449
0.12664
0.166262
0.0438944
0.00105534
0.00514479
0.18711
0.0877475
0.100201
0.130617
0.0896686
0.10386
0.0613824
0.137714
0.185693
0.117907
0.246818
0.376141
0.190146
0.0913102
0.126635
0.0516881
0.00500415
0.0174709
0.000554839
0.0160141
0.257371
0.230414
0.0964636
0.0348433
0.0176404
0.000354597
0
0.00363169
0.0170198
0.289088
0.20889
0.0815351
0.0190571
0.0357469
0.00759143
0.00474575
0.00942958
0.150928
0.434727
0.203159
0.0528101
0.0301381
0.0210169
0
0
0.0149202
0.0517617
0.33751
0.256246
0.0600916
0.0236021
0.0234205
0.0311784
0.0166842
0.0489923
0.0260008
0.165301
0.12347
0.124812
0.0307618
0.0547556
0.0558755
0.056309
0.0757683
0.051566
0.095478
0.0890396
0.167232
0.0473408
0.0544978
0.070407
0.0779333
0.079781
0.0372613
0.223581
0.139714
0.131816
0.0949579
0.0290854
0.100114
0.093928
0.1436
0.0965251
0.157453
0.206814
0.123717
0.058243
0.0469781
0.0744187
0.156159
0.186166
0.121796
0.0374335
0.0228029
0.0783945
0.0674537
0.0109147
0.0320129
0.0648948
0.211856
0.150827
0.0229807
0.0837667
0.109853
0.0262885
0.00253622
0.0564589
0.112764
0.189491
0.131684
0.0587921
0.0304675
0.0720791
0.0239625
0.0251693
0.0419824
0.112832
0.236098
0.206383
0.0592683
0.0725966
0.0940039
0.0910885
0.0629168
0.0666431
0.182121
0.0636935
0.0496743
0.0126028
0.0222144
0.0601487
0.0906444
0.0242777
0.0526181
0.0531887
0.0324921
0.0112005
0.00579277
0.00846823
0.0632238
0.223722
0.424834
0.43058
0.0609691
0.0996995
0.108216
0.0640234
0.0883035
0.0125856
0.0552611
0.0203571
0.0582182
0.0793024
0.1132
0.0788161
0.0991084
0.0912597
0.00617796
0.057891
0.133812
0.236047
0.136027
0.00295259
0.00158404
7.88275e-005
0.000475497
0.0141755
0.058263
0.266109
0.279886
0.00850266
0.000243718
0.0032893
0.000551792
0
0.025007
0.0523126
0.393084
0.353854
0.00670837
0.0283634
0.0150444
0.00816949
0.00389946
0.000211646
0.00739221
0.107015
0.248915
0.0512088
0.016826
0.0140695
0.00145552
0.000783743
0.017132
0.0142997
0.264158
0.481892
0.0963653
0.000719757
0.00134273
0.000236952
0
0.0213765
0.0217557
0.255644
0.206469
0.0525616
0.0321075
0.00371767
0
0
0.0152651
0.0158292
0.1299
0.226845
0.239267
0.00922265
0.00828431
0.00461841
0.00248684
0.019998
0.0188589
0.219127
0.350461
0.173763
0.0529719
0.00103118
0.00277105
0.0014921
0.0101837
0.012772
0.0794983
0.326004
0.494366
0.152061
0.032038
0.0328065
0.00717925
0.0172707
0.00726112
0.04171
0.120264
0.274163
0.223736
0.115519
0.126426
0.0716906
0.0323696
0.0112992
0.0327213
0.038964
0.151277
0.141608
0.00788883
0.00173941
0
0.00882637
0.00400768
0.0461557
0.19888
0.450305
0.397808
0.159243
0.0474218
0.00253769
0.00126091
0
0.0350055
0.0945472
0.278339
0.123394
0.121459
0.06346
0.0425986
0.0185386
0.00640202
0.0309117
0.038211
0.0685383
0.129716
0.216666
0.112575
0.0602782
0.015256
0.0173527
0.0591765
0.0878924
0.112853
0.314489
0.309037
0.0662241
0.0024839
0
0
0.00272211
0.0117711
0.0702509
0.282015
0.514086
0.262794
0.0718753
0.00653219
0.00236229
0.00560136
0.00195511
0.0266138
0.0972898
0.143666
0.172699
0.0962388
0.0176715
0.0183227
0.0182639
0.0338782
0.0506214
0.0897926
0.282624
0.321803
0.0562857
0.00738508
0.00688731
0.00532735
0.00157485
0.0043455
0.161328
0.295943
0.336241
0.0945053
0.00699199
0.00252857
0.00220567
0.00555142
0.0256313
0.24229
0.372056
0.214582
0.027784
0.00509265
0.0122462
0.0194671
0.0179157
0.0832282
0.0525873
0.320575
0.402869
0.0681131
0.00161301
0.00346354
0.00364842
0
0.00238756
0.0645414
0.131825
0.201336
0.158137
0.0223476
0.0381142
0.0184892
0.0255376
0.0333041
0.176024
0.346352
0.129521
0.00503284
0.0189787
0.025368
0.0353139
0.0182124
0.0653595
0.125324
0.179468
0.0724248
0.0289373
0.106244
0.0982981
0.0332142
0.00643338
0.0556047
0.0796567
0.0406239
0.0918907
0.123189
0.0504058
0.0932988
0.0414408
0.0714937
0.0785411
0.150973
0.0714215
0.0765368
0.182121
0.0384569
0.0370799
0.109911
0.0713805
0.0993668
0.0784216
0.0718019
0.0703848
0.0492613
0.225695
0.193289
0.0557559
0.0389159
0.0598106
0.199593
0.0912482
0.125121
0.106585
0.145585
0.0740545
0.107994
0.117466
0.1171
0.113681
0.0199197
0.00580061
0.00244458
0.00536394
0.00216481
0.0109547
0.0290648
0.195555
0.244509
0.0338907
0.00633045
0.0076252
0.00934122
0.0255914
0.0210385
0.0150112
0.21276
0.159581
0.0618709
0.0211471
0
0.00367842
0.0448327
0.0596349
0.125089
0.334253
0.544867
0.120626
0.034269
0.00108931
0.000582821
0.0100164
0.0174622
0.0543508
0.363266
0.192131
0.0618562
0.0228725
0.0283713
0.00241321
0.0146756
0.0074352
0.0109536
0.129461
0.168923
0.0681782
0.0465803
0.0274764
0.00117274
0.00363914
0.0149902
0.0447908
0.214307
0.37575
0.0674711
0.00803379
0.00309824
0.000139632
0.00204951
0.00104203
0.0453091
0.325637
0.38629
0.138967
0.0141595
0.00233386
8.37791e-005
0.000190853
0.0018546
0.0640416
0.470404
0.132384
0.031186
0.00957536
0.00210444
7.55366e-005
0.000806624
0.02012
0.0795949
0.165273
0.214822
0.0533329
0.0046374
0.00249706
0.00271756
0.00222345
0.0449465
0.18712
0.187649
0.331055
0.0749966
0.00402808
9.56059e-005
0
0
0.00168772
0.0335732
0.352536
0.526876
0.0572711
0.00278244
0.00149824
0.00167956
0.0158956
0.00335922
0.0460776
0.319814
0.102783
0.0297813
0.0155214
0.00835768
0.00344343
0.0143923
0.0738
0.224136
0.247717
0.0421814
0.0199214
0.0123193
0.00501461
0.00173994
0.0296761
0.0799669
0.275346
0.444813
0.259152
0.0313786
0.00931284
0.00501461
0.0543133
0.143896
0.0696016
0.101662
0.265479
0.0366079
0.0371323
0.0245801
0.00300876
0.187377
0.252102
0.123658
0.145817
0.180596
0.117462
0.0286294
0.00944625
0
0.00236402
0.00901156
0.0368986
0.148587
0.468088
0.424731
0.125422
0.0383907
0
0.006359
0
0.0170806
0.0480375
0.306535
0.0513825
0.0803121
0.0479021
0
0.112076
0.0657368
0.0279435
0.0444061
0.154758
0.188875
0.173051
0.0704738
0
0.0351609
0
0.000844055
0.0256361
0.152378
0.195647
0.130056
0.0242706
0.000723264
0.0079577
0
0.000546217
0.00421349
0.0383796
0.212069
0.271209
0.120754
0.0270744
0.0144334
0
0
0.00121717
0.0266012
0.0960356
0.086699
0.0579116
0.0432929
0.0636958
0
0.00130805
0.0259089
0.0329039
0.404115
0.543897
0.279944
0.201237
0.127761
0.0232419
0.000784832
0.0125847
0.0345064
0.139962
0.171711
0.131374
0.0222799
0.00751308
0
0.00493109
0.0182593
0.0236726
0.165878
0.137138
0.0616941
0.0184825
0.0273238
0.0479848
0.0425141
0.0953486
0.0968771
0.359677
0.440172
0.173049
0.108124
0.10625
0.0457231
0.0345176
0.0585959
0.018216
0.254037
0.330158
0.112362
0.183096
0.24152
0.0979488
0.0888655
0.191341
0.0559274
0.0936141
0.0878187
0.0227964
0.00926676
0.0644842
0.107505
0.0616156
0.0743865
0.104084
0.106583
0.0907268
0.0365438
0
0.051277
0.0534964
0.0152036
0.0637507
0.125437
0.165209
0.27866
0.0891277
0.161043
0.361361
0.165849
0.0691538
0.136583
0.0982985
0.213182
0.183746
0.0541301
0.0796547
0.225853
0.164126
0.0481048
0.372838
0.20234
0.0623209
0.0342356
0.0135052
0.001096
0.0428834
0.0439332
0.0167566
0.0591898
0.0823769
0.100559
0.096673
0.0839586
0.0206113
0.0533142
0.0237614
0.0317811
0.0343137
0.0540368
0.149699
0.0356662
0.0339404
0.0164011
0.0637332
0.159733
0.145914
0.276145
0.151579
0.138144
0.1629
0.5289
0.203191
0.312999
0.0665185
0.187057
0.0443912
0.0648131