0.110818
0.0358022
0.00416554
0
0
0.00555152
0.0242205
0.0778006
0.190941
0.127278
0.0153357
0.000712505
0
0
0.00333091
0.0397795
0.282457
0.540328
0.251757
0.015154
0.000712505
0
0
0
0
0.0662663
0.30069
0.294445
0.00830458
0.000427503
0
0
0
0
0.0492611
0.457986
0.0565598
0.000686364
0
0
0
0
0.00413301
0.275854
0.328069
0.0579807
0.00741704
0.0211159
0.017258
0.0327194
0.00454979
0.0186023
0.51849
0.531471
0.131469
0.00667529
0
0
0
0
0.000348892
0.0248181
0.237505
0.143826
0.108096
0.0427942
0.0262976
0.0608125
0.00758299
0.0136036
0.0830503
0.268969
0.0303752
0.0114346
0.0356092
0.0439152
0.128053
0.066671
0.0490348
0.27218
0.275141
0.0865618
0.144386
0.233127
0.103054
0.254452
0.111484
0.0552343
0.117219
0.136694
0.0643195
0.127185
0.0683102
0.0691555
0.248366
0.102711
0.0501721
0.0645725
0.0808771
0.0464222
0.170273
0.198074
0.137845
0.474635
0.256485
0.201638
0.143434
0.0585184
0.045256
0.218042
0.232692
0.0603118
0.131518
0.0125471
0.00843821
0.026013
0.0303673
0.219829
0.486538
0.208306
0.0214722
0.0608861
0
0.00208128
0.0210938
0.0480331
0.0252254
0.155129
0.156612
0.078996
0.245628
0.0806338
0.0687031
0.185663
0.0466509
0.292779
0.363942
0.175219
0.0338286
0.123652
0.0252048
0.0250055
0.192188
0.151337
0.332277
0.290346
0.0345022
0
0
0
0.000225288
0.00287438
0.0739396
0.430782
0.239389
0.0192396
0
0
0
0
0.00234736
0.161701
0.336614
0.151054
0.0279805
0
0.0014209
0.00213136
0.00541948
0.029563
0.188655
0.358607
0.0592138
0.0118897
0.00313793
0.00732184
0
0.00403635
0.0206762
0.424787
0.394258
0.319566
0.0407842
0
0
0
0
0.0156018
0.150203
0.353486
0.255617
0.0193596
0
0
0
0
0.0211688
0.116425
0.195158
0.0304627
0.00762498
0.00450941
0.010522
0
0.0443793
0.158838
0.419988
0.128482
0.0302667
0.00153339
0.000644202
0.00150314
0
0.0611419
0.289138
0.338565
0.260425
0.108335
0.00956284
0
0
0
0.00709692
0.0826993
0.199384
0.0669665
0.0276808
0.0057377
0
0
0
0.0294582
0.450286
0.337947
0.141346
0.0180415
0
0
0
0
0.0456674
0.247882
0.41858
0.143832
0.0210784
0
0
0
0
0.0447811
0.24614
0.365704
0.0132492
0.0140314
0.000491272
0.00442146
8.98707e-005
0.00170754
0.0231478
0.375739
0.27441
0.0264353
0.00907217
0.000818787
0.00736909
0.000629095
0.0119528
0.100945
0.499772
0.312732
0.0823694
0.0217015
0
0
0
0
0.00889327
0.151167
0.214497
0.0779494
0.00958635
0
0
0
0
0.0435931
0.275228
0.446473
0.0393139
0.020775
0.000103739
0.00625482
0.00115569
0.00487737
0.0741324
0.289022
0.265732
0.0744929
0.149597
0.00919496
0.0141114
0.0226672
0.0418577
0.0860876
0.279307
0.203855
0.0537073
0.0254627
0.0023646
0.0026814
0.00327726
0
0.0411683
0.229182
0.430454
0.0426114
0.0556549
0.00394101
0.0326625
0.0925953
0.0954879
0.175455
0.494764
0.277241
0.24658
0.00224213
0
0
0
0
0
0.0943679
0.326381
0.273961
0.00542147
0.000235445
0
0
0
0
0.0504342
0.506993
0.174575
0.0111373
0.0117329
0.00458071
0.0029438
0.00545088
0.0112308
0.0518223
0.301314
0.196733
0.0403567
0.0755431
0.0478661
0.0184878
0.0257232
0.0118442
0.0246098
0.444987
0.0953585
0.00822733
0.00957865
0.00403659
0.00663452
0
0.000853353
0.00697461
0.163936
0.134046
0.113815
0.11856
0.0987182
0.0555717
0.00092341
0.00597347
0.0343342
0.099736
0.0495674
0.0550459
0.220447
0.118446
0.0283663
0.00720284
0.00134017
0.00468394
0.138783
0.0631346
0.261156
0.618647
0.523189
0.0873948
0.000958173
0.00358408
0.0230666
0.0938243
0.0655371
0.184158
0.120407
0.0682044
0.041357
0.0170003
0.00728627
0.00829814
0.0109591
0.0575419
0.301056
0.224832
0.0581229
0.0581499
0.072665
0.053063
0.0343959
0.00746946
0.0387327
0.399932
0.355368
0.203951
0.0175731
0
0.00081371
0.00890281
0.042531
0.0905787
0.479277
0.400844
0.0419255
0
0.00495101
0.00165034
0.00380903
0.0233405
0.045986
0.314533
0.172741
0.0421705
0.0657745
0.0718283
0.0413533
0.104262
0.013399
0.301524
0.240134
0.0951503
0.0116306
0.0585262
0.0364832
0.0423224
0.129385
0.0651489
0.152621
0.541648
0.188676
0.0132
0.00135141
0.00936216
0.00638643
0.00606832
0.00837006
0.311382
0.358194
0.0779944
0.00995948
0.108573
0.0757841
0.0636813
0.0209802
0.0141658
0.314651
0.0664676
0.0141043
0
0.0259056
0.0131904
0.0388083
0.0394966
0.146714
0.216646
0.0527124
0.0169295
0.00484767
0.0205455
0.0123591
0.0989384
0.0441083
0.382859
0.195046
0.128815
0.0309486
0.0287262
0.169028
0.200106
0.0912871
0.0270266
0.111333
0.101023
0.080056
0.0202876
0.0400775
0.0708241
0.221215
0.544997
0.169813
0.251668
0.0510036
0.0238669
0.00508717
0.00452528
0.010559
0.006383
0.0875428
0.188521
0.243911
0.0633785
0.0272556
0
0.000646469
0.00150843
0.00109596
0.0712032
0.405813
0.251273
0.0239416
0.0310498
0.00505672
0.00747473
0.00246263
0.0649484
0.479949
0.250305
0.124541
0.036789
0.0189553
0
0.00273177
0.00285491
0.0206294
0.186574
0.440111
0.245024
0.056182
0.00940019
0
0
0
0
0.0704531
0.280433
0.220649
0.055583
0.00212069
0
0
0
0.00950031
0.103519
0.330817
0.160857
0.0305862
0.00564012
0
0.00099979
0.00099979
0.00160614
0.135191
0.415946
0.198846
0.00967927
0
0
0
0
0.0668745
0.359067
0.537912
0.0868171
0.0646992
0.00548812
0.00274836
0.00183224
0
0.0143959
0.0776064
0.173106
0.128053
0.106068
0.00745673
0.00458059
0.00305373
0
0.00358631
0.0480832
0.0529968
0.23107
0.0140091
0
0.00458059
0.00305373
0
0.114699
0.527533
0.40253
0.050519
0.0679663
0.00465623
0.00763432
0.00508955
0.0224996
0.110568
0.555824
0.132664
0.098899
0.124662
0.0697756
0.0170596
0.00384912
0.00409674
0.000126676
0.00821202
0.0658659
0.187093
0.164313
0.103488
0.0271896
0.0599814
0.10183
0.0948068
0.0689781
0.180363
0.154703
0.118676
0.0823625
0.11541
0.104319
0.108057
0.07332
0.155084
0.0378966
0.0849086
0.367191
0.124849
0.3815
0.196949
0.119342
0.0360191
0.0695945
0.202264
0.504339
0.0363143
0.0114536
0.0134488
0.0102289
0.003978
0.00927781
0.0135584
0.0079255
0.0537561
0.0340094
0.05045
0.287859
0.100378
0.0330775
0.0478415
0.0253673
0.00662147
0.0623181
0.0181074
0.0197189
0.030552
0.01206
0.0524287
0.0606875
0.0121161
0.0462665
0.120386
0.00604685
0.292822
0.628663
0.345482
0.32803
0.240421
0.0468303
0.014981
0.0536765
0.0113995
0.0583248
0.245259
0.113371
0.0192397
0.00742219
0.00206852
0.000519328
0.0132938
0.0147866
0.272263
0.457531
0.225372
0.0162781
0.000575273
0
0.000581182
0.0114689
0.0134274
0.153511
0.405356
0.161521
0.0800584
0.0240388
0.004826
0.000682777
0.00291743
0.0245425
0.308961
0.457531
0.119848
0.0426682
0.000961955
0
0
0.00325649
0.00875398
0.346618
0.303498
0.0835975
0.00344408
0
0
0.00154601
0.0145263
0.0712644
0.438028
0.188599
0.00911157
0.00185886
0
0
0.000927604
0.0111635
0.012601
0.213001
0.342162
0.0250388
0.0175185
0.000885511
0
0
0.00250865
0.0640557
0.366083
0.448488
0.0185209
0.0140809
0.000126502
0
0
0.00571237
0.117137
0.292463
0.0611446
0.000709877
0.000263693
0.00020079
0.00113781
0.000761362
0.0075475
0.185036
0.371892
0.0483714
0.00698071
0.0300074
0.0337422
0.0124379
0.00238327
0.00948279
0.12064
0.49852
0.316047
0.00496914
0.00184585
0
0
0.000108766
0.00921387
0.211582
0.49852
0.107064
0.0106321
0.005514
0.0287667
0.000161457
0.000181277
0.0412112
0.134312
0.275243
0.0493662
0.0641226
0.0665122
0.163813
0.0299257
0.0128165
0.0310082
0.0266335
0.100299
0.0627097
0.118466
0.0449618
0.202845
0.397011
0.16474
0.0433175
0.191947
0.463064
0.0587773
0.103857
0.0380302
0.0918822
0.0230352
0.00157817
0.0602056
0.0843126
0.335318
0.244807
0.198142
0.0844971
0.14895
0.1513
0.0490709
0.0278579
0.00114167
0.0136827
0.0329642
0.0480443
0.0585892
0.123152
0.534293
0.14479
0.0157958
0.00851619
0.0017478
0.0122106
0.0337509
0.109452
0.0927361
0.277077
0.114492
0.0817687
0.0119438
0.210308
0.32133
0.250266
0.117429
0.152322
0.207643
0.0432024
0
0.0449857
0.0830573
0.176763
0.276773
0.237445
0.12667
0.126579
0.0157094
0.0223625
0.0198267
0
0.000995332
0.00734442
0.0342249
0.0111427
0.104438
0.229047
0.106721
0.0123213
0
0.00153954
0.00153954
0
0.0503971
0.47221
0.497021
0.0440292
0.197814
0.0892166
0.0336501
0.0763742
0.0918214
0.0217168
0.0536621
0.110153
0.140901
0.151243
0.0260491
0.0187441
0.0245581
0.0102843
0.0835897
0.367387
0.304019
0.15648
0.000637902
0
0.000668506
0.000546831
0.0015618
0.0617517
0.356681
0.16347
0.00192067
0.00248808
0.000223432
0.000608374
0.000405583
0.0357767
0.134025
0.491907
0.0841887
0.00615015
0.00375857
0
0.00212437
0.00655494
0.011185
0.144289
0.356387
0.0923577
0.00857601
0
0
0
0.000632939
0.0382947
0.34743
0.491907
0.0673406
0
0.0154427
0.0105738
0.0475222
0.0680794
0.153952
0.138422
0.214898
0.0223672
0.0151992
0.212704
0.123199
0.185951
0.113362
0.14672
0.09044
0.113881
0.0983327
0.159845
0.0223029
0.00740839
0.00596571
0.0175151
0.154597
0.27466
0.503189
0.0295584
0.00854444
0.263814
0.303251
0.0469843
0.0397267
0.214548
0.187533
0.247333
0.026861
0.0688047
0.0209599
0.0123835
0.0424534
0.0344272
0.0379329
0.0307836
0.0804745
0.0828454
0.0545883
0.0107786
0.164916
0.349878
0.1935
0.166842
0.0651841
0.0100002
0.0149045
0.0155056
0.0783222
0.00960491
0.0868531
0.0903849
0.0463997
0.0328418
0.22909
0.401146
0.104604
0.100197
0.0969729
0.525064
0.308775
0.214092
0.0468279
0.0236319
0.109722
0.0645066
0.00251091
0.167373
0.387744
0.239606
0.089391
0.0155946
0.00195935
0.00024643
0.00101828
0.00751009
0.118255
0.394431
0.17125
0.0818142
0.00122766
0
0
0.0015734
0.0112573
0.0679824
0.376689
0.326599
0.121343
0.0139749
0.00651183
0.000439146
0.00490732
0.000475034
0.0350946
0.201154
0.3417
0.265255
0.00017538
0.0155397
0.000731911
0.000158345
0.00679505
0.0745403
0.305316
0.0356798
0.0376979
0.000868481
0
0
0.00217598
0.0099511
0.267014
0.499927
0.0240153
0.00918781
0.000124069
0
0
0.00184286
0.000913484
0.0635726
0.335479
0.202248
0.188599
0.000124069
0.0258705
7.00731e-005
0.000304495
0.00150776
0.170157
0.499927
0.224636
0.0617454
1.77241e-005
0.0153962
0
0.000840904
0.0237776
0.400827
0.437716
0.00569868
0.000715482
6.29288e-005
0.000457318
0.00172139
0.0117218
0.0687106
0.474304
0.129007
0.0101518
0.0157928
0.0740457
0.0360473
0.0202326
0.0983599
0.0049372
0.207235
0.474304
0.0777408
0.00543774
0.000440502
0.000986187
0.00289571
0.00866678
0.021133
0.172399
0.126666
0.00673126
0.0116241
0.0474194
0.0616468
0.041058
0.0914753
0.18087
0.217786
0.0423709
0.0764788
0.0761489
0.132755
0.058062
0.0350665
0.119015
0.232319
0.476277
0.314458
0.112076
0.0742953
0.0669249
0.0259103
0.0191229
0.0493233
0.227628
0.071066
0.0197122
0.0115578
0.0400741
0.0736571
0.0824175
0.0688305
0.175456
0.396826
0.327286
0.149828
0.0135593
0.0255797
0.0172404
0.0113982
0.0338252
0.101532
0.0540169
0.41224
0.403678
0.163666
0.0528823
0.0335103
0.00730582
0.00570898
0.00759848
0.0565644
0.151101
0.183431
0.278336
0.207706
0.165211
0.0177588
0.00717559
0.0144859
0.0997757
0.237572
0.136772
0.0113519
0.0239591
0.00987232
0.000481483
0.012574
0.0263024
0.0177249
0.0593205
0.0373954
0.0766845
0.17919
0.472332
0.0772666
0.00918178
0.0167979
0.084765
0.0733349
0.0241853
0.0670952
0.0505109
0.138034
0.0570171
0.085179
0.0445484
0.0572598
0.0295255
0.0115532
0.0232245
0.0174517
0.223329
0.200618
0.164427
0.0596658
0.0110028
0.0299017
0.00967824
0.0348883
0.0526646
0.486072
0.213817
0.0535244
0.00535384
0.00636815
0.0156474
0.00516193
0.0141787
0.0539711
0.486072
0.486072
0.0916384
0.00755194
0.00148789
0
0.000840967
0.0195154
0.0398313
0.195008
0.181212
0.0367558
0.00768835
0
0
0
0.00692145
0.0489542
0.374857
0.466414
0.0377834
0
0
0
0.00693581
0.0208282
0.143034
0.305318
0.327708
0.0146277
0.00106913
0
0
0.0376588
0.0310113
0.25293
0.376279
0.291561
0.0409419
0
0.00532871
0.00233568
0
0.00113511
0.0838193
0.249455
0.345547
0.0313979
0.000991013
0.0450765
0.0674561
0.0162401
0.0147776
0.237084
0.173888
0.121085
0.00519616
0.00693709
0
0
0.0194396
0.0283636
0.210307
0.457561
0.192201
0.0370181
0
0
0
0.00757525
0.0406515
0.457561
0.386736
0.0556172
0.0052883
0
0.0830361
0.0209416
0.0421081
0.131795
0.082059
0.0133118
0.121018
0.24851
0.102309
0.0938111
0.0137148
0.158363
0.205997
0.3269
0.0598931
0.0436478
0.0711437
0.0919582
0.221474
0.263008
0.128813
0.169506
0.223574
0.013371
0.0501428
0.0957637
0.057078
0.0407513
0.0621275
0.0474403
0.232931
0.556845
0.125659
0.0459594
0.0433099
0.0437963
0.0206624
0.0101546
0.207362
0.253152
0.282138
0.0696521
0.0351935
0.0100808
0.0187277
0.000212366
0.00750344
0.102545
0.258792
0.386563
0.0323658
0.081104
0.0254957
0.0218725
0.00451212
0.00914565
0.0292994
0.183499
0.600761
0.149873
0.0414236
0.0164334
0.0130406
0.0181082
0.0544074
0.0692598
0.0775591
0.176344
0.0735437
0.0741797
0.0719241
0.122239
0.039239
0.0945225
0.142736
0.213746
0.299721
0.0168963
0.121096
0.0257394
0.0390121
0.0675188
0.16736
0.452353
0.422474
0.120263
0.0104709
0.0722352
0.0145523
0.0263664
0.140039
0.096832
0.0371322
0.0448952
0.0886782
0.0295208
0.0815418
0.0892239
0.257532
0.198358
0.127744
0.0746074
0.184072
0.0371057
0.0181257
0.0466627
0.079314
0.30507
0.0513051
0.148095
0.647506
0.458767
0.0650757
0.0238645
0.00801858
0.00562927
0.0195121
0.0536636
0.0756093
0.110494
0.0298226
0.015507
0.0114042
0.0486016
0.0427822
0.0710153
0.0953915
0.0714859
0.0803593
0.232995
0.0414058
0.0438509
0.0213984
0.0448228
0.278693
0.0515696
0.0447343
0.0440402
0.0228134
0.00700243
0.0118081
0.0214784
0.0503011
0.0899224
0.343602
0.0810439
0.0408741
0.0103136
0.0136443
0.0213683
0.0773977
0.08587
0.244529
0.62823
0.225306
0.0593681
0.00122382
0.00621045
0.0167173
0.0134341
0.0620754
0.199029
0.0510195
0.0677
0.0596438
0.024577
0.00616396
0.029211
0.0320581
0.0747151
0.0496494
0.13193
0.0824872
0.030876
0.00347535
0.00341607
0.0449862
0.0453317
0.068243
0.0998831
0.109243
0.0568046
0.0255707
0
0.00964357
0.0256513
0.00407163
0.0329415
0.0489539
0.0421527
0.0324966
0.0122862
0.0193707
0.174803
0.703567
0.110158
0.0157211
0.0341253
0.0783082
0.0315296
0.0312262
0.0222595
0.0115159
0.00882552
0.00698807
0.0254502
0.0635086
0.424198
0.0914605
0.0789918
0.185629
0.097196
0.148767
0.0154451
0.0325179
0.0518651
0.00178023
0.00247695
0.000799519
0.00415455
0.0489243
0.301902
0.145777
0.00254429
0.000491052
9.96601e-005
0.00014949
6.65321e-005
0.00158323
0.193768
0.474402
0.354406
0.00414941
0
0.0695941
0.0113219
0.00469882
0.0471952
0.17805
0.151463
0.0426112
0.0104592
0.0038726
0.0154164
0.00136925
0.000110887
0.120956
0.474402
0.374806
0.0762802
0.00627554
0.00193999
0
0
0.0066664
0.0118096
0.260866
0.279737
0.163554
0.000629859
0
0
0
0.036196
0.0476117
0.374292
0.175068
0.0491073
0.00519577
0
0
0
0.000952343
0.0900591
0.507104
0.244587
0.0205452
0
0
0
0
0.00517086
0.0733629
0.507104
0.108831
0.00420069
0
0
0
0
0.016756
0.0401934
0.293421
0.245187
0.0361115
0.00421293
0
0
0
0.00470871
0.0690453
0.411775
0.231088
0.0281899
0.000601847
0
0
0
0.00524774
0.168058
0.448435
0.0944571
0.00971225
0
0
0
0
0.00542937
0.356074
0.448435
0.105698
0.0147372
0
0
0.134402
0.263829
0.114826
0.0499253
0.147183
0.0266581
0.00687211
0.0406273
0.0662589
0.0139236
0.0720953
0.0195141
0.10509
0.504907
0.233639
0.0398122
0.0254296
0.02223
0.0681878
0.168159
0.126043
0.0409266
0.150125
0.0614712
0.0463725
0.0271029
0.0710272
0.0033294
0.0545673
0.0330494
0.0398373
0.231041
0.455706
0.366681
0.0486045
0.0317712
0
0.00985504
0.0102043
0.0687734
0.277768
0.16662
0.0286273
0.00299299
0.00185579
0.0282566
0.0891943
0.115281
0.167397
0.0712077
0.0347033
0.00778601
0.0223825
0.0751288
0
0.00436543
0.01453
0.112855
0.142576
0.469033
0.288506
0.0156128
0.000887766
0.043778
0.0685958
0.207086
0.573467
0.171007
0.147069
0.049337
0.00333836
0.0423551
0.0913288
0.0820184
0.0919135
0.0727574
0.0139951
0.00574506
0.00545419
0.0826934
0.262584
0.081793
0.0263337
0.020882
0.019161
0.00682621
0.00535177
0.0465879
0.228307
0.466435
0.10571
0.0719278
0.144314
0.386289
0.085279
0.0231484
0.0332685
0.05739
0.202232
0.0858216
0.0205667
0.0197882
0.121506
0.105955
0.0982999
0.170045
0.288164
0.411906
0.0146405
0.00620592
0.0064617
0.0124979
0.00530733
0.0213764
0.140559
0.238021
0.305378
0.0119505
0.0149705
0.0114288
0.00498727
0.0100195
0.0367638
0.0958143
0.0962571
0.0592341
0.104006
0.00896363
0.0094435
0.138602
0.122017
0.191266
0.390463
0.422893
0.293372
0.0800699
0.0266964
0.00768362
0.120743
0.157764
0.274248
0.279909
0.178325
0.0526134
0.053499
0.0685028
0.0476428
0.0383407
0.025535
0.0806507
0.108314
0.11642
0.0687553
0.11213
0.087348
0.0490073
0.033624
0.0112556
0.0728497
0.0919805
0.0668246
0.109916
0.119401
0.0717633
0.0270071
0.118308
0.334964
0.494771
0.249725
0.113267
0.100857
0.0812538
0.0581799
0.0900351
0.0825154
0.0732117
0.0963034
0.107841
0.0963124
0.0934954
0.013239
0.0101799
0.0125338
0.0499551
0.0309796
0.00486608
0.00213977
0.00382076
0.0127382
0.232889
0.0623051
0.0442921
0.242446
0.113685
0.0115918
0.0175563
0.0393518
0.0189038
0.00303555
0.00576175
0.0110624
0.0721072
0.164694
0.0423043
0.00375233
0.00483425
0.00451085
0.152649
0.0872413
0.0243997
0.35432
0.723721
0.26382
0.0292605
0.0469151
0.053753
0.13678
0.0462671
0.0442707
0.110509
0.154832
0.0219509
0.0261408
0.0560542
0.0181314
0.0308691
0.0272009
0.0671536
0.333332
0.490382
0.0581848
0.0156845
0.0336325
0.0107833
0.122336
0.119445
0.0664016
0.14094
0.258307
0.0834118
0.0435681
0.0796046
0.0869533
0.0872427
0.118585
0.157145
0.442404
0.346268
0.0735522
0.0261408
0.0701501
0.0963253
0.00255355
0.00397989
0.0137115
0.233525
0.452129
0.0462471
0.00167108
0
0.00137157
0.0031401
0.00182447
0.000738073
0.121611
0.444277
0.0741524
0.0116976
0
0.00228595
0.0373625
0.0205532
0.0662384
0.326826
0.301724
0.0882567
0.00436226
0.0499337
0.107278
0.0154537
0.0522289
0.169835
0.321296
0.300732
0.115286
0.0305358
0.0506653
0.0843697
0.000333925
0.000194017
0.00268691
0.187802
0.387381
0.0330673
0.00338139
0
0.000243093
0
0
0.00447818
0.290493
0.416838
0.0190508
0
0
0
0.000785333
0.0195424
0.105099
0.340191
0.372099
0.0442866
0.00882691
0.00367833
0.00368229
0
0.00113007
0.0205517
0.26761
0.416838
0.0175127
0
0
0
0.052784
0.104706
0.0660467
0.0264634
0.101235
0.0943446
0.0627807
0.0434783
0.0346857
0.0166645
0.0335578
0.0284493
0.0535951
0.0434959
0.392981
0.492028
0.0768238
0.0178132
0.0719298
0.0786717
0.0207805
0.0538765
0.0293928
0.320764
0.105964
0.0570372
0.0625849
0.0446342
0.0367152
0.0355842
0.152404
0.0997332
0.439406
0.336215
0.0436374
0.032632
0.000933177
0
0.00959824
0.0844264
0.0171019
0.285398
0.263619
0.0193221
0.00618854
0.0617469
0.0650383
0.0635063
0.390944
0.0714468
0.148564
0.100962
0.0146015
0.0420859
0.00432269
0.00651802
0.00984509
0.0495494
0.0379604
0.331005
0.345476
0.0789371
0.0347117
0.119708
0.140656
0.0111678
0.100438
0.0271296
0.32943
0.369279
0.19757
0.148359
0.140875
0.0771625
0.0356124
0.220991
0.0565275
0.0272596
0.105829
0.0411937
0.0753318
0.0929012
0.0138923
0.0075938
0.085368
0.0734252
0.124704
0.369332
0.125708
0.075136
0.216871
0.172267
0.00480982
0.040669
0.0141082
0.11408
0.305441
0.139452
0.0846697
0.0955444
0.0353876
0.00333461
0.018065
0.00878637
0.0991738
0.538508
0.361872
0.0202806
0.0529924
0.0112669
0.0121427
0.0897672
0.0500844
0.0925998
0.24657
0.108943
0.0244685
0.0507321
0.0304181
0.00728561
0.0757704
0.0690776
0.0630072
0.146561
0.121978
0.0330717
0.0100857
0.00676015
0.00728561
0.0343865
0.00649167
0.0465092
0.473291
0.404616
0.0163827
0.036843
0.0182509
0.00437137
0.0241466
0.00971326
0.00895288
0.315039
0.473291
0.291478
0.0368499
0.0142867
0.00228583
0.00843993
0.0265817
0.0225526
0.0267328
0.0433586
0.0567422
0.0602765
0.00496065
0.0114473
0.00489757
0.00491046
0.00510669
0.00536647
0.00592149
0.0580288
0.22851
0.00863107
0.00130972
0.00130349
0.00372403
0.00149775
0.0538538
0.254712
0.513533
0.534116
0.0179338
0.0230367
0.0173186
0.00124163
0.0304813
0.0132309
0.0788644
0.503763
0.0252111
0.000995371
0.00955994
0.00935505
0.089325
0.0316489
0.00170117
0.000992171
0.0304528
0.0195451
0.013279
0.00344151
0.0479247
0.534075
0.289561
0.0248233
0.0124424
0.0251235
0.22595
0.0153894
0.0257622
0.0450708
0.101533
0.107719
0.0346844
0.0631149
0.239464
0.0408169
0.00317963
0.00864085
0.0337503
0.508946
0.339282
0.138339
0.0776678
0.15034
0.0707162
0.0531406
0.00963355
0.0548671
0.302703
0.183038
0.0371431
0.0421934
0.06115
0.21999
0.114903
0.0508583
0.158512
0.168161
0.0977988
0.0161056
0.0682495
0.0978015
0.174101
0.0689095
0.00039974
0.0142131
0.221875
0.195236
0.123544
0.094093
0.233012
0.502397
0.402385
0.0690932
0.04311
0.0554394
0.0416151
0.0308643
0.0622211
0.184929
0.111989
0.0887414
0.0827982
0.0803412
0.0934311
0.0831074
0.00117794
0.0879912
0.102223
0.021622
0.162311
0.35969
0.212243
0.0733427
0.0675809
0.00824557
0.0717782
0.0713802
0.253859
0.314774
0.29955
0.0935848
0.019356
0.024122
0
0.0450314
0.0290273
0.050691
0.254046
0.477338
0.314454
0.0475256
0.0297338
0
0.0285693
0.0118124
0.000205306
0.0621869
0.234321
0.336076
0.210193
0.0200974
0.0030306
0.00428805
0.00303872
0
0.00358105
0.0409661
0.21973
0.432126
0.0205439
0.00109386
0
0
0
0.073388
0.349844
0.277696
0.266036
0.0291606
0
0.000612579
0.00032985
0
0.00775594
0.0395708
0.147748
0.447065
0.0497653
0.00216337
0
0
0.0272624
0.0528924
0.0541069
0.0676199
0.110154
0.266589
0.157442
0.0502841
0.079504
0.0317882
0.115283
0.13836
0.155128
0.148712
0.194455
0.147668
0.0460666
0.0911635
0.00588718
0.0654872
0.192713
0.17176
0.396712
0.211378
0.144328
0.0939413
0.0738433
0.0304507
0.166266
0.14784
0.156857
0.369312
0.152482
0.230668
0.198318
0.126163
0.00900591
0.0673074
0.029067
0.0205119
0.0410025
0.134302
0.183294
0.0894404
0.0428361
0.0407012
0.0683244
0.00254631
0.00036529
0.0100648
0.262694
0.467577
0.32804
0.0675244
0.0384811
0.201549
0.0492597
0.0361435
0.0998338
0.0507021
0.0846704
0.0859264
0.0394258
0.0377867
0.20975
0.0319321
0.00643341
0.0233545
0.232646
0.432873
0.335366
0.0551427
0.0544976
0.0343358
0.000649945
0.012349
0.00254592
0.110556
0.271524
0.185055
0.0209289
0.0286544
0.00786634
0.00108324
0.0205816
0.00044869
0.038672
0.303837
0.287604
0.0375377
0.016404
0.0239586
0.00497929
0.0210224
0.00361635
0.131493
0.367005
0.441954
0.0721106
0.0227432
0
0.0018054
0.0343027
6.40985e-005
0.02269
0.246912
0.441954
0.199442
0.00242689
0
0.000144975
0.00275453
0
0.00504643
0.191868
0.334308
0.0942764
0.0115261
0
0
0
0
0.000778936
0.0934825
0.395391
0.403562
0.0125337
0
0.000241625
0.00459089
0
0.00113569
0.104035
0.361955
0.218778
0.0513998
0.000764926
0
0
0
0
0.0346819
0.313656
0.424632
0.13194
0.000422927
0
0
0
0
0.0101866
0.13752
0.411039
0.412029
0.0689339
0.0348816
0.0281012
0
0.0202062
0.00865979
0.0574192
0.28727
0.159802
0.00147222
0
0
0
0
0.00020932
0.119694
0.412452
0.427005
0.11577
0.036093
0.0168515
0
0.00288659
0.00123711
0.0245587
0.285709
0.2548
0.129475
0.0805686
0.136298
0.0974663
0.10258
0.0399758
0.0731737
0.14998
0.0625386
0.0316571
0.0302916
0.0893077
0.240329
0.126729
0.0716514
0.075507
0.130126
0.397466
0.314617
0.10598
0.0817361
0.044683
0.0144224
0.00571083
0.010709
0.116442
0.288517
0.513234
0.12376
0.0639937
0.0776543
0.0125506
0.0045516
0.0159581
0.0873597
0.115589
0.0516314
0.0268924
0.00106353
0.0379824
0.0293534
0.0316397
0.047868
0.142731
0.230045
0.294749
0.288346
0.0203034
0.000758016
0.00329594
0.00596175
0.0246835
0.114535
0.227756
0.348795
0.133681
0.00982258
0.00714049
0.0009011
0.000699763
0.00949408
0.0402952
0.159194
0.475713
0.475713
0.030024
0
0
9.99661e-005
0.00963042
0.0306567
0.0788856
0.230112
0.397134
0.0643798
0
0
0
0.00437779
0.0112097
0.0147516
0.147323
0.433054
0.131507
0.0255185
0.00417195
0
0.00182747
9.61829e-005
0.0136897
0.321035
0.433054
0.0371574
0.000358869
0.00203359
0
0.00262668
0.0104175
0.00802941
0.143358
0.433054
0.0689723
0.0329324
0.0137321
0
0.0263857
0.0373366
0
0.0679413
0.335479
0.123986
0.255944
0.0367677
0
0.00855871
0.00045046
0
0.0156161
0.0283992
0.0705821
0.521084
0.0614399
0.0025093
0.00828783
0.000270276
0.0158632
0.042096
0.181369
0.0653941
0.290376
0.065299
0
0.0833314
0.0271706
0.00882176
0.0177385
0.00930693
0.0615848
0.556549
0.112272
0.00488334
0.045212
0.00948809
0.014694
0.0254237
0.192011
0.237576
0.181013
0.135372
0.084395
0.0539421
0.0318503
0.0615389
0.043758
0.0388928
0.0560824
0.205898
0.170009
0.298841
0.0875345
0.0575536
0.154407
0.0538947
0.124345
0.263035
0.0794966
0.0390941
0.113682
0.211722
0.205707
0.316963
0.139516
0.0448715
0.0224728
0.0608807
0.0868793
0.325053
0.155739
0.337885
0.142004
0.165191
0.0647205
0.0251764
0.136941
0.112986
0.164176
0.0338143
0.0411642
0.128584
0.250547
0.0919011
0.02764
0.118111
0.25693
0.201883
0.122627
0.0871475
0.346167
0.123626
0.141831
0.00642193
0.0529234
0.11299
0.166321
0.0140755
0.244695
0.367377
0.196597
0.182825
0.0681649
0.157909
0.197841
0.21361
0.00683926
0.10295
0.0144991
0.0349963
0.0163439
0.0124092
0.0553533
0.127786
0.196232
0.31291
0.138073
0.0288951
0.0298089
0.00627251
0.00820581
0.012624
0.0538506
0.3375
0.547833
0.224824
0.0970409
0.0748933
0.0856716
0.0604514
0.132311
0.11272
0.0985148
0.0499186
0.0757486
0.0590333
0.217088
0.133149
0.166496
0.0741751
0.0953632
0.19769
0.247693
0.120473
0.0755849
0.0192875
0.00434582
0.000673223
0
0.0202026
0.189119
0.345083
0.144536
0.272507
0.00825069
0.00298903
0
0
0.00350329
0.0649396
0.197806
0.431129
0.126338
0.140261
0.108955
0.110274
0.00497796
0.0348904
0.127721
0.13604
0.10992
0.343507
0.0608184
0.0860204
0.0597875
0.00221412
0.0514557
0.111439
0.131608
0.444272
0.235867
0.00259122
0.000280848
0
0
0.00155119
0.00356129
0.0363604
0.329509
0.389205
0.0393777
0.009868
0
0
0.000930712
0.00137545
0.0040173
0.361373
0.215011
0.0254152
0.0343903
0.0123162
0.00496516
0.0674038
0.0724021
0.052485
0.347959
0.397958
0.11054
0.124265
0.0220713
0.0029791
0.0304715
0.0174155
0.0137487
0.376179
0.322398
0.160076
0.0194621
0
0.00134395
3.30677e-005
0
0.00169764
0.198294
0.224546
0.428506
0.118879
0.0304261
0.00225952
0.000231474
8.98405e-005
0.0125658
0.0937812
0.428506
0.140262
0.0474012
0.00676467
0
0
0.00054312
0.0386929
0.313001
0.312083
0.233808
0.122853
0.0363719
0.00189449
0.00351833
0.016677
0.101337
0.21493
0.21346
0.400761
0.192806
0.0618148
0.000395228
0.000107949
0.0040033
0.00754261
0.0366528
0.189038
0.382288
0.428154
0.111028
0.00704838
0.02245
0.0307088
0.0093404
0.0133556
0.191481
0.148165
0.229164
0.0776606
0.0024016
0.00446012
0.0245769
0.0457269
0.130481
0.275324
0.11249
0.232688
0.163127
0.0496818
0.0386735
0.0546311
0.0293274
0.100998
0.0311817
0.316479
0.536983
0.107883
0.0183152
0.0457464
0.0227085
0.0243729
0.0180431
0.036765
0.133183
0.302169
0.110777
0.0501535
0.037149
0.00373544
0.0560653
0.118666
0.109162
0.0855685
0.251654
0.176875
0.11482
0.0661213
0.0395612
0.0560449
0.0274206
0.0774855
0.0851802
0.405184
0.255054
0.074374
0.0250205
0.00647055
0.0344123
0.0508766
0.0283739
0.0239261
0.0580681
0.0721539
0.234718
0.0684727
0.0125804
0.0673558
0.0415229
0.0302882
0.0290826
0.00417221
0.0602418
0.53009
0.140156
0.037713
0.0387175
0.027499
0.0413338
0.0443894
0.1963
0.20889
0.117463
0.0956128
0.149388
0.0903277
0.0167463
0.110688
0.136994
0.0494796
0.0658529
0.233613
0.317958
0.448045
0.14342
0.0430758