0.109403
0.0957155
0.0702092
0.0372063
0.111562
0.0641918
0.0253796
0.0325821
0.0832162
0.121345
0.197654
0.0536673
0.00323885
0.225901
0.0495327
0.069875
0.0309376
0.127612
0.0752315
0.165273
0.216993
0.0673043
0.0474916
0.152986
0.156294
0.272283
0.232446
0.193075
0.277516
0.158095
0.0347356
0.263585
0.0812615
0.179441
0.346939
0.307433
0.0990235
0.0899715
0.00907423
0.00979925
0.109501
0.0164869
0.0278067
0.0170458
0.0632406
0.181097
0.134193
0.284218
0.0848443
0.164004
0.0187431
0.00390018
0.0218217
0.0737743
0.106778
0.111305
0.0661588
0.0757792
0.19908
0.0185767
0.0521822
0.135655
0.126922
0.0835664
0.173963
0.563717
0.240164
0.42342
0.0789128
0.0065003
0.150441
0.0710108
0.0851929
0.136525
0.469312
0.138607
0.0745586
0.0107563
0.000259985
0.00233996
0.050565
0.0649552
0.156175
0.408095
0.183732
0.103563
0.0359699
0.00887053
0.00375481
0.027769
0.0258667
0.140245
0.459128
0.134085
0.269503
0.0699887
0.0018199
0.0163797
0.00813507
0.0448938
0.14431
0.252888
0.0763828
0.111335
0.0601541
0.0162043
0.00625802
0.00957653
0.0694035
0.056858
0.153721
0.112968
0.193878
0.0760935
0.0898439
0.0798534
0.0350439
0.17624
0.0651973
0.184841
0.0890058
0.238062
0.179919
0.291574
0.363361
0.305999
0.134281
0.144483
0.123683
0.0196909
0.0284353
0.0433557
0.0353229
0.039715
0.0448049
0.388789
0.172533
0.0508569
0.0123847
0.0241141
0.0309068
0.0820462
0.161047
0.263011
0.224841
0.138705
0.0388896
0.010261
0.0534152
0.0390866
0.101945
0.18254
0.308595
0.443567
0.326063
0.101228
0.033816
0.0666149
0.0133539
0.0215077
0.103758
0.275997
0.267394
0.05513
0.0031445
0.00100594
0.00201883
0.00526759
0.0330238
0.0883033
0.248743
0.25205
0.0631081
0.00184104
0.0110838
0.0179212
0.014579
0.00955443
0.107804
0.319278
0.334673
0.231806
0.183737
0.0650877
0.246953
0.0739367
0.0141047
0.107106
0.153074
0.0701511
0.0840071
0.0289274
0.023271
0.170368
0.137879
0.0368133
0.159004
0.155876
0.122353
0.045302
0.0066005
0.020938
0.0446938
0.0770241
0.0264648
0.213533
0.350108
0.0651779
0.0442195
0.00547812
0.0124868
0.0678851
0.182764
0.0777622
0.290078
0.417048
0.103151
0.128898
0.00854025
0.0951374
0.0953937
0.141418
0.0655205
0.119349
0.137541
0.0683038
0.0449873
0.0334279
0.115861
0.0899206
0.0777915
0.0269202
0.12789
0.1126
0.116434
0.0872412
0.00512415
0.0708449
0.120106
0.206198
0.178808
0.461299
0.27282
0.0739338
0.0628657
0.0347378
0.0766439
0.147257
0.0813776
0.201651
0.405296
0.195761
0.0611602
0.0453134
0.0766716
0.0367409
0.0321028
0.10629
0.0351974
0.104555
0.129519
0.212618
0.0823854
0.087153
0.0544702
0.0930714
0.016227
0.0464467
0.0759696
0.188592
0.0543287
0.0794032
0.0859975
0.0782695
0.101149
0.0702767
0.250502
0.270249
0.227863
0.1407
0.0802507
0.0903841
0.158679
0.155079
0.00741661
0.326887
0.195386
0.396293
0.236144
0.114369
0.049922
0.042507
0.144959
0
0.0369078
0.0308304
0.10489
0.164445
0.136056
0.0805233
0.0598812
0.140261
0.0712487
0.0323112
0.0123102
0.0854106
0.269114
0.238873
0.102415
0.176299
0.224033
0
0.148288
0.0713619
0.146142
0.240277
0.202221
0.110016
0.125637
0.386652
0.0191795
0.0108945
0.0970751
0.0581516
0.00834017
0.119566
0.102306
0.051329
0.0384595
0.121558
0.146499
0.140821
0.136798
0.0463083
0.156298
0.085301
0.140324
0.0659842
0.0991711
0.0851756
0.196933
0.15835
0.0422081
0.154964
0.0957787
0.218024
0.163625
0.210454
0.144383
0.151659
0.144343
0.010622
0.252623
0.221488
0.473574
0.15217
0.176408
0.103718
0.215261
0.168377
0.0239685
0.116525
0.0834396
0.071423
0.0851667
0.0438314
0.0121391
0.0627895
0.0527728
0.00767197
0.233948
0.401825
0.112243
0.181686
0.0447745
0.000797173
0.0419987
0.0135992
0.005765
0.278344
0.291448
0.162568
0.101789
0.054313
0.0125535
0.0735414
0.0604746
0.00665472
0.425535
0.478963
0.139039
0.0485092
0.0295755
0.000997471
0.0065608
0.0068801
0.0197872
0.288132
0.509504
0.0718019
0.302542
0.0573814
0.00217562
0.0109688
0.00214236
0.075364
0.226451
0.221092
0.0103409
0.111077
0.033567
0.0104755
0.00222918
0.00964124
0.0166508
0.292213
0.491633
0.0460833
0.0375819
0.00566704
0.00641082
0.00249969
0.00328219
0.0659357
0.127406
0.119189
0.00294292
0.0252329
0.0119567
0.011599
0.00306093
0.0120319
0.19417
0.272013
0.165241
0.0116372
0.0170244
0.0157328
0.0124958
0.0114916
0.0576426
0.370519
0.205716
0.036089
0.00639865
0.0261963
0.000352563
0.00701509
0.0132292
0.155707
0.144059
0.253702
0.108343
0.017774
0.0314735
0.0200915
0.00798729
0.00128141
0.0818169
0.370829
0.315325
0.0821257
0.0106644
0.0298072
0.00246794
0.00116116
0.000497638
0.392112
0.228797
0.0583639
0.0116914
0
0.00482931
0.00163221
0.0068724
0.0109906
0.127948
0.150413
0.0147557
0.0195377
0.00567092
0.0310847
0.0579171
0.0339032
0.0782116
0.252564
0.395405
0.0600616
0.0208852
0
0.00442808
0.00272035
0.00438551
0.00225434
0.312358
0.412265
0.0100205
0.0232872
0.0396965
0.0220562
0.0640497
0.0384443
0.0351927
0.522342
0.068959
0.00485395
0.0325653
0.0148473
0.0363674
0.085749
0.0840885
0.139579
0.216303
0.100028
0.00885181
0.020213
0.010975
0.0583951
0.0907114
0.234628
0.328729
0.30394
0.166326
0.00228071
0.0432949
0.103931
0.067521
0.148515
0.111111
0.0649525
0.296576
0.111293
0.00311872
0.0275181
0.0623587
0.280898
0.245814
0.397699
0.157088
0.0919694
0.0571281
0.00839023
0.00305026
0.00591417
0.0564741
0.0394919
0.177248
0.383366
0.119531
0.0672672
0.0163418
0.00797869
0.00823321
0.0815602
0.0395538
0.325613
0.370455
0.106019
0.0424573
0.0139042
0.00532915
0.00564556
0.205911
0.0779966
0.244919
0.183855
0.0348414
0.0472966
0.0187655
0.013153
0.0228637
0.0496773
0.0283014
0.41756
0.284553
0.0649013
0.0265025
0.0137372
0.0131019
0.013611
0.0861714
0.0248879
0.267402
0.19413
0.0731101
0.0262626
0.0403231
0.0811146
0.0446543
0.16991
0.0334479
0.174049
0.15069
0.157811
0.0144044
0.00771594
0.0188193
0.0109737
0.0553997
0.0288043
0.443312
0.362343
0.0303022
0.005739
0.122843
0.18284
0.0542338
0.174063
0.0827846
0.312681
0.33572
0.0464266
0.051847
0.101832
0.138127
0.117536
0.20377
0.0412173
0.104874
0.074919
0.0788317
0.055106
0.0642067
0.0599202
0.126327
0.34305
0.0412771
0.0118801
0.162073
0.0571817
0.0373196
0.172625
0.211509
0.163575
0.214086
0.164119
0.186523
0.117717
0.0625904
0.185283
0.120498
0.0374471
0.192254
0.40166
0.173185
0.026074
0.160091
0.124607
0.043414
0.0748009
0.111096
0.113322
0.0357764
0.0332195
0.0652435
0.107832
0.0748765
0.00542805
0.107924
0.423882
0.259737
0.0705627
0.0222184
0.0177653
0.0610991
0.0592891
0.104331
0.154243
0.287028
0.134605
0.0261272
0.000528677
0.0628436
0.111207
0.185038
0.00670047
0.120529
0.522367
0.361205
0.118715
0.000234747
0.00749319
0.0144478
0.0370074
0.00154111
0.218312
0.48801
0.241561
0.0947048
0.00823974
0.00463284
0.0417935
0.0395247
0.00539289
0.215222
0.331613
0.145057
0.0245813
0.00804548
0.00139631
0.00365242
0.00489242
0.00256058
0.0813848
0.537365
0.286222
0.0910377
0.000952439
0.00238452
0.00469546
0.00496346
0.0113495
0.0408921
0.095789
0.102896
0.0350699
0.00366186
0.0121112
0.0108538
0.00756917
0.0139148
0.120234
0.248542
0.0344436
0.0244091
0.0107736
0.00584634
0.00457053
0.00685766
0.107652
0.188325
0.262984
0.00283038
0.0200039
0.0113874
0.0129159
0.00610837
0.0131925
0.0318419
0.0646096
0.174051
0.0365852
0.133213
0.0154426
0.0636982
0.0161977
0.0165684
0.129015
0.296121
0.717327
0.021031
0.0769406
0.0160118
0.085162
0.00501131
0.0356305
0.119995
0.267054
0.186675
0.00154913
0.00596482
0.00614013
0.00368621
0.000714179
0.023592
0.303635
0.350742
0.102365
0.000929478
0.00534839
0.00292212
0.000545383
0
0.189793
0.146137
0.277795
0.471394
0.00988908
0.000520477
0.0069577
0.0127922
0.000380438
0.0133142
0.257448
0.296911
0.172691
0.00593345
0.0202692
0.0253166
0.0148409
0
0.0874794
0.407046
0.0824796
0.0135151
0.00226131
0.0131997
0.00303406
0.000326597
0
0.27897
0.356604
0.00412716
0.0167088
0.0289646
0.0620455
0.0119628
0.00415414
0.0291041
0.467338
0.246663
0.0754405
0.0195604
0.0107124
0.0937279
0.0365105
0.0213225
0.0127795
0.157101
0.280473
0.0562495
0.0626533
0.0749869
0.188178
0.0386014
0.0193984
0.0950899
0.220753
0.13949
0.0169096
0.0184258
0.0485228
0.133517
0.0574537
0.0187973
0.0415715
0.311424
0.0965893
0.050916
0.0908721
0.0314456
0.248655
0.141272
0.221144
0.0517224
0.103497
0.325967
0.204347
0.0435819
0.0322318
0.189896
0.023307
0.00422867
0.0489215
0.122736
0.331912
0.39814
0.234586
0.0106904
0.149448
0.0387591
0.061774
0.0313847
0.105611
0.0627517
0.0577179
0.145525
0.0620586
0.337911
0.0982683
0.344097
0.0785562
0.0326243
0.0241128
0.0426167
0.0603217
0.10282
0.138259
0.0184682
0.232547
0.103929
0.0268295
0.203356
0.301783
0.31914
0.0928878
0.204266
0.0439377
0.11528
0.0509053
0.0956685
0.164216
0.0670133
0.0866629
0.167507
0.133602
0.0338656
0.040321
0.0129293
0.0845973
0.00552336
0.0208384
0.0312264
0.0172263
0.0384483
0.0265426
0.268503
0.216334
0.00700894
0.0011961
0.0820437
0.148462
0.0820307
0.0913101
0.100031
0.441169
0.270375
0.0034406
0.0603711
0.0257004
0.0152526
0.0410996
0.0583886
0.0660363
0.0997512
0.0459025
0.0293148
0.0193954
0.051038
0.0754123
0.127981
0.184763
0.145626
0.518252
0.149199
0.016108
0.0507512
0.103479
0.148713
0.17982
0.12073
0.124914
0.228268
0.0850444
0.0208194
0.165948
0.0962207
0.0729996
0.228347
0.225352
0.127326
0.0263417
0.0485989
0.0660497
0.0487585
0.192966
0.172025
0.23676
0.173763
0.0617305
0.365163
0.0899331
0.00311843
0.120824
0.206928
0.132512
0.275783
0.196161
0.0274972
0.0935135
0.0501438
0.0214979
0.169116
0.109752
0.217353
0.102843
0.0547991
0.0587956
0.0820009
0.141813
0.251533
0.0282298
0.0966258
0.444611
0.317598
0.278176
0.0356433
0.0165346
0.0374872
0.0618019
0.189192
0.040077
0.104327
0.0376585
0.0308567
0.130673
0.150097
0.191217
0.209566
0.138542
0.0588405
0.218413
0.205866
0.230162
0.0631465
0.0310461
0.078834
0.0938798
0.0138786
0.0980988
0.428412
0.435266
0.365721
0.0169194
0.0125584
0.0106855
0.00819829
0.0286567
0.0207046
0.0321105
0.0865824
0.067843
0.032638
0.0467861
0.0319478
0.0298698
0.051305
0.0586432
0.208979
0.295696
0.330981
0.0197445
0.00891113
0.00880421
0.0219852
0.0839625
0.0564949
0.202686
0.0566925
0.0300203
0.0431063
0.0714798
0.0293267
0.147557
0.0903688
0.0424241
0.0971392
0.0340372
0.157845
0.038148
0.127445
0.0273141
0.0664895
0.224097
0.20784
0.546855
0.0254004
0.0921739
0.0273483
0.171611
0.0134687
0.156975
0.14485
0.0405231
0.112239
0.0177603
0.0301739
0.0366351
0.266433
0.0908074
0.222391
0.148764
0.0478413
0.0618365
0.00340722
0.0565957
0.00673278
0.238084
0.138594
0.15048
0.20096
0.244466
0.641463
0.0314077
0.0165565
0.0179901
0.0561917
0.011007
0.0850671
0.214346
0.172055
0.177954
0.0188446
0.0565814
0.0475571
0.0783372
0.0169733
0.0424222
0.101325
0.0377796
0.0732128
0.00549152
0.0690019
0.00565276
0.0642919
0.0981978
0.100554
0.0895646
0.0298761
0.0426587
0.00972503
0.037384
0.0328153
0.10609
0.10085
0.0649323
0.14446
0.0627846
0.0250519
0.0319076
0.143222
0.0823932
0.0952953
0.0567114
0.0786405
0.467129
0.168941
0.0857892
0.117062
0.19559
0.0889962
0.0664749
0.303966
0.255901
0.0718994
0.0466201
0.0404259
0.0475903
0.0199954
0.0242658
0.0686675
0.0917585
0.0508523
0.233485
0.167402
0.0823405
0.0809581
0.0334784
0.0115505
0.0137029
0.0731422
0.136726
0.45303
0.284749
0.0477096
0.024847
0.0706922
0.0139803
0.00689022
0.0783325
0.124109
0.415945
0.390981
0.15132
0.0105367
0.069964
0.0344899
0.0208091
0.0228058
0.116188
0.143706
0.105945
0.0618672
0.0399118
0.0211745
0.00267493
0.00153341
0.0212511
0.0709704
0.117768
0.0805345
0.0677299
0.0833063
0.07471
0.0552288
0.0368287
0.0596586
0.0512074
0.118687
0.0827291
0.0734576
0.0587093
0.0717198
0.0303527
0.0367263
0.0253912
0.0607354
0.184463
0.0129893
0.0466107
0.119588
0.0731749
0.0854386
0.136603
0.0807521
0.108421
0.060134
0.0173879
0.0387908
0.0951229
0.164251
0.135176
0.174063
0.0510335
0.0289599
0.101558
0.00221854
0.0505302
0.128017
0.362695
0.40302
0.512427
0.151732
0.0603992
0.0727627
0.00530756
0.00848433
0.05281
0.0717261
0.118495
0.108009
0.0385595
0.0446545
0.0174786
0.0184596
0.0121747
0.0532767
0.228692
0.0910273
0.340064
0.0954609
0.0180447
0.0346679
0
0.00783312
0.0365265
0.302613
0.377042
0.29861
0.0619878
0.0242546
0.0273341
0
0
0.0460077
0.440741
0.151933
0.202877
0.0645922
0.0307151
0.015424
0.0637925
0.0283138
0.0468234
0.187025
0.0917146
0.349104
0.0800309
0.00286555
0.0665549
0.075311
0.0268746
0.0901619
0.126645
0.126483
0.145546
0.0335666
0.00453859
0.012317
0.000174081
0.00135647
0.0498154
0.300598
0.230665
0.363294
0.0739811
0.0101709
0.0396374
0.0104126
0.0152424
0.193853
0.130722
0.392576
0.297136
0.0456959
0.0277525
0.235136
0.0373253
0.0427136
0.0326041
0.0906026
0.048502
0.0393924
0.0555825
0.0666642
0.156177
0.0206606
0.0713999
0.0707538
0.126043
0.0501388
0.00873265
0.0294818
0.0486696
0.51727
0.191337
0.154139
0.0720171
0.323557
0.190538
0.0488678
0.003474
0.10217
0.201893
0.0346072
0.0685979
0.0353536
0.395293
0.330602
0.0953912
0.0027155
0.029214
0.0198119
0.0534165
0.204164
0.129912
0.095869
0.0216699
0.000557852
0.00217107
0.0135732
0.0563861
0.112158
0.3482
0.105789
0.0080416
0.00515235
0.06378
0.0268115
0.0822249
0.025473
0.100721
0.415704
0.123173
0.226856
0.1878
0.0544988
0.00582568
0.0267497
0.167299
0.151786
0.51044
0.15292
0.121002
0.0286076
0.0670296
0.0159636
0.0718964
0.0504299
0.0346269
0.0938048
0.0382123
0.00906065
0.00473235
0.252228
0.125406
0.0838696
0.0161701
0.00500855
0.00165288
0.00638446
0.0321645
0.00288859
0.334911
0.253474
0.0329243
0.100235
0.0549155
0.0763697
0.0559746
0.149386
0.0474308
0.225063
0.112773
0.0631019
0.0839761
0.0447204
0.0176052
0.0741303
0.10484
0.0339952
0.582324
0.335617
0.0821171
0.0166888
0.00209039
0.00363983
0.00847571
0.0741566
0.0111857
0.19253
0.19711
0.033626
0.0215831
0.00613875
0.0159384
0.0270315
0.056518
0.0476793
0.0505877
0.0695641
0.0361313
0.0637671
0.0129762
0.0177528
0.168787
0.293202
0.0709604
0.60228
0.293518
0.0717546
0.024676
0.00273454
0.0137614
0.0656807
0.226833
0.12721
0.0850204
0.0839371
0.0751939
0.0381671
0.0785727
0.0951408
0.0654188
0.0271052
0.104643
0.065901
0.127477
0.044054
0.15403
0.266573
0.182866
0.0674682
0.00798524
0.0320228
0.0213208
0.0563805
0.0712786
0.0626867
0.0552113
0.059102
0.0635014
0.0932707
0.240294
0.131655
0.0962671
0.0926096
0.213329
0.235127
0.0902588
0.0550351
0.109644
0.0661104
0.122035
0.0599429
0.177819
0.112545
0.138692
0.0938966
0.0862436
0.0167155
0.00362966
0.00660048
0.0592477
0.0720251
0.0847558
0.0950459
0.0691703
0.183802
0.0935663
0.0602231
0.0398305
0.167699
0.067162
0.207283
0.132243
0.0394666
0.0257845
0.0397966
0.0254076
0.0978359
0.0791463
0.174613
0.384076
0.127036
0.0529477
0.0533361
0.136362
0.0467655
0.0921165
0.16563
0.176472
0.00771517
0.00826833
0.00619076
0.031126
0.116478
0.0568621
0.0448985
0.0185336
0.00455873
0.00101826
0.00112935
0.00562115
0.0655565
0.43969
0.193482
0.107758
0.0196232
0.000769493
0.0238215
0.0109429
0.064838
0.0477264
0.189542
0.0105364
0.00359006
0.0181056
0.0128733
0.00107362
0.0111598
0.154315
0.150608
0.731053
0.0762397
0.00261828
0.00566481
0.00188011
0.00285924
0.00172199
0.00291238
0.0545897
0.381364
0.201867
0.0667301
0.00669167
0.00182162
0.0146613
0.00457771
0.0036631
0.053463
0.263829
0.0920648
0.0419445
0.0103835
0.0127514
0.00777315
0.0163707
0.0990016
0.135214
0.652833
0.0797532
0.00452742
0.00320773
0.00102005
0.0169384
0.02764
0.0427163
0.121116
0.337615
0.0397461
0.0119201
0.0171383
0.00714034
0.00615117
0.00140211
0.00557788
0.0707352
0.245737
0.182099
0.151499
0.0216357
0.00576573
0.0107887
0.00324767
0.0341738
0.200784
0.215191
0.273975
0.179986
0.015746
0.0390128
0.0210448
0.0432076
0.112956
0.223292
0.289985
0.128551
0.0547512
0.00984428
0.00637923
0.0676103
0.0612243
0.118311
0.232736
0.314725
0.283727
0.318707
0.0125007
0.0425355
0.185087
0.118977
0.119877
0.0807164
0.18224
0.135339
0.121017
0.0121646
0.0272811
0.0410287
0.0257109
0.0618908
0.032958
0.282113
0.253852
0.218857
0.0227765
0.0130005
0.0955127
0.162098
0.138765
0.111736
0.176271
0.137702
0.124898
0.0679842
0.0340862
0.0236098
0.0318548
0.0581102
0.0822842
0.464977
0.358667
0.311203
0.157335
0.0263011
0.0178002
0.0477611
0.177769
0.0563297
0.247369
0.185375
0.108488
0.0235904
0.0721539
0.0837168
0.069264
0.204148
0.0348613
0.141669
0.0483225
0.125766
0.0109044
0.0679024
0.0156011
0.0169573
0.0351549
0.046548
0.554179
0.396398
0.27116
0.1641
0.079134
0.0161949
0.0282621
0.0531768
0.0217064
0.137763
0.104603
0.201953
0.0325177
0.0564736
0.0411273
0.0281011
0.0251533
0.00848495
0.153052
0.0824742
0.217452
0.0267277
0.0223048
0.0717286
0.0430556
0.0140824
0.0456782
0.0889065
0.102672
0.309663
0.0819296
0.0578484
0.00494509
0.00650809
0.00781765
0.00636987
0.0991556
0.14403
0.414962
0.0600066
0.0087134
0.0341022
0.0216145
0.00372996
0.00607876
0.0484165
0.197614
0.6484
0.136464
0.0271871
0.105594
0.0358734
0.0171212
0.118017
0.209396
0.101673
0.270771
0.0844418
0.0791351
0.0331465
0.00988212
0.00716197
0.024432
0.14547
0.0678775
0.0361565
0.0597777
0.0498988
0.0625507
0.0431163
0.013436
0.0313882
0.0978301
0.138123
0.646487
0.263577
0.0494006
0.0390524
0.0334305
0.03309
0.0502672
0.101123
0.0175665
0.137256
0.181049
0.0666767
0.0608832
0.0516795
0.0235049
0.00656461
0.0553317
0.0906714
0.0883754
0.0654088
0.0684458
0.105546
0.0694138
0.0253164
0.0583612
0.173161
0.0253728
0.12496
0.0399866
0.0922031
0.0826959
0.174903
0.0784152
0.0423718
0.0736031
0.0165737
0.0818943
0.10391
0.0835372
0.116493
0.146276
0.0351935
0.137939
0.515213
0.0657188
0.133496
0.0387174
0.0832625
0.0545509
0.0444808
0.0649501
0.0316923
0.0528514
0.00329246
0.0211333
0.0148052
0.0282042
0.167454
0.0757249
0.13992
0.0482267
0.122347
0.0039908
0.015758
0.0633221
0.073209
0.0318788
0.0450593
0.163981
0.117536
0.397781
0.0108947
0.0138743
0.0158735
0.0184334
0.182337
0.0865303
0.396945
0.176065
0.544261
0.0322618
0.00247623
0.100885
0.128494
0.0375326
0.020539
0.16877
0.0804423
0.13573
0.00461083
0.00118314
0.0182531
0.0223311
0.000959635
0.0386016
0.320297
0.227295
0.303577
0.034926
0.000297265
0.00133328
0.00154949
0.0800856
0.0765219
0.365442
0.105565
0.160106
0.00921896
0.000141362
0.0308783
0.0629047
0.0146389
0.137811
0.536405
0.264753
0.150351
0.0217656
0.00478613
0.00525827
0.0129352
0.00646966
0.0487064
0.250059
0.217583
0.385856
0.0285139
0.00589192
0.00569924
0.00300759
0.0131359
0.0462264
0.102167
0.0875311
0.334545
0.0332997
0.00829477
0.0296743
0.0210531
0.0102933
0.0874819
0.285234
0.234171
0.17377
0.028195
0.0236578
0.0204556
0.01025
0.0131062
0.2207
0.254856
0.106866
0.355569
0.0534566
0.0148746
0.0276609
0.0184939
0.0228173
0.0583687
0.191023
0.117718
0.20587
0.0523051
0.0497632
0.025005
0.01525
0.0913226
0.0610896
0.168061
0.0990823
0.137887
0.147257
0.238189
0.0511873
0.0831063
0.0661819
0.183764
0.251898
0.120187
0.346447
0.102276
0.0612881
0.0279977
0.0174291
0.225449
0.0681665
0.120142
0.0762037
0.395252
0.259761
0.13521
0.0535222
0.134035
0.114974
0.074663
0.078875
0.0520937
0.0731568
0.183769
0.0659293
0.0783214
0.0804879
0.0849563
0.0263853
0.0750912
0.0284815
0.233999
0.403133
0.260897
0.200158
0.0761901
0.130236
0.0939623
0.153315
0.154432
0.0685126
0.12768
0.0473847
0.0768963
0.144282
0.186293
0.0745336
0.274034
0.0885493
0.183367
0.210434
0.322924
0.214168
0.218225
0.01186
0.0062253
0.0272366
0.0063354
0.184174
0.211318
0.168519
0.130502
0.0412256
0.000876034
0.000166516
0.00177855
0.00731159
0.048228
0.0551429
0.067301
0.0234709
0.0101928
0.0511468
0.0136648
0.108003
0.0249259
0.156654
0.198959
0.569389
0.257027
0.0975719
0.00833875
0
0.000644113
0.00410075
0.0477081
0.127166
0.538289
0.138134
0.0150313
0.000352785
5.81677e-005
0.000744623
0.00574608
0.0309769
0.0583276
0.288209
0.0717485
0.00686597
0.00771889
0.00273856
0.000304284
0
0.0122445
0.0716524
0.669028
0.245682
0.0159262
0.00928289
0.00595137
0.00831751
0.00108747
0.0360046
0.0576467
0.277884
0.084994
0.0109815
0.0431934
0.0356361
0.0195918
0.00199276
0.0176416
0.0129549
0.354457
0.236924
0.0963003
0.0164054
0.00254493
0.00334595
0.0074461
0.00614411
0.018567
0.34501
0.244037
0.0359587
0.032538
0.0089624
0.00831426
0.0217826
0.0118923
0.00165476
0.175255
0.229065
0.100991
0.0555503
0.0184614
0.00615851
0.00291559
0.0030815
0.00144321
0.249946
0.330755
0.1816
0.10053
0.0238233
0.00796076
0.00337636
0.00466148
0
0.272158
0.489084
0.297735
0.0366754
0.0384611
0.0174317
0.0210941
0.0336873
0.00231549
0.0905737
0.147347
0.137911
0.0284258
0.0376966
0.0495482
0.0476373
0.17648
0.0162084
0.0352469
0.0199134
0.0697528
0.13413
0.116132
0.050167
0.0434784
0.163689
0.00204481
0.338627
0.408715
0.300951
0.0469541
0.0961579
0.118605
0.0974851
0.463416
0.0143136
0.141068
0.0587409
0.133219
0.0127707
0.00780039
0.075876
0.0705853
0.349285
0.00742298
0.00619304
0.00977228
0.0128667
0.127449
0.0159422
0.14034
0.0802425
0.449364
0.0251356
0.000619229
0.0251047
0.0628923
0.0645727
0.0120308
0.0812072
0.0631626
0.334687
0.00389716
0.00647478
0.0534874
0.114972
0.242332
0.0110502
0.0613496
0.054885
0.35042
0.0035908
0.00420287
0.168111
0.368522
0.117344
0.0803325
0.297332
0.0340573
0.166628
0.00986513
0
0.0161529
0.0872373
0.0912453
0.132931
0.411901
0.066032
0.108107
0.00833858
0.00415698
0.0210381
0.0963233
0.161569
0.0774203
0.113732
0.0142579
0.196743
0.00416475
0.00594049
0.167876
0.319194
0.173951
0.209272
0.28218
0.0617567
0.248314
0.01969
0.00366604
0.0903458
0.259872
0.0344509
0.0429289
0.155361
0.0510655
0.0591693
0.0067995
0.0117115
0.0188379
0.0264824
0.00768036
0.147387
0.353697
0.0967772
0.122712
0.0130163
0.0128986
0.0124544
0.00517141
0.0572509
0.141634
0.372553
0.113791
0.120632
0.00750741
0.00130406
0.00871869
0.0460627
0.0278397
0.244451
0.623858
0.143873
0.0450934
0.016695
0.0141323
0.0381809
0.00674193
0.0717628
0.17488
0.285952
0.173369
0.183671
0.0750829
0.035283
0.00933529
0.030151
0.223611
0.0639265
0.0394176
0.0829607
0.353171
0.205292
0.0736347
0.0203119
0.147259
0.0396641
0.158552
0.310473
0.13949
0.112903
0.0939926
0.0534753
0.0788983
0.0574191
0.17293
0.102286
0.0562151
0.0825739
0.27786
0.147849
0.0882306
0.0624422
0.202854
0.0870066
0.133817
0.109716
0.170274
0.105923
0.0547983
0.0155472
0.167629
0.0764753
0.195051
0.105638
0.117024
0.116071
0.259446
0.102578
0.154121
0.276422
0.138316
0.0675711
0.0888343
0.0733626
0.118752
0.0951904
0.123721
0.0617046
0.286954
0.077476
0.135108
0.101341
0.181609
0.152093
0.229373
0.330448
0.164995
0.360598
0.0733287
0.101522
0.0190208
0.0268416
0.0262087
0.129376
0.10989
0.379928
0.122647
0.0526721
0.0367791
0.0015038
0
0.00807763
0.0518177
0.180367
0.488822
0.154761
0.0211816
0.128875
0.0368045
0.0987691
0.127756
0.208292
0.158381
0.137762
0.0598248
0.0471396
0.131029
0.0638629
0.0245902
0.0623184
0.142823
0.226603
0.399022
0.219923
0.0795137
0.00496947
0.00344193
0.0057331
0.00100051
0.0135369
0.0915652
0.214281
0.131392
0.0270255
0.0151962
0.0180068
0.0150846
0.00223607
0.00310749
0.0175341
0.0423618
0.0502939
0.0582614
0.0572279
0.0345415
0.00383473
0.00700358
0.0175634
0.226821
0.436323
0.456653
0.201121
0.0510773
0.00599741
0.00721519
0.00134164
0.0168928
0.122448
0.390462
0.302141
0.32252
0.062995
0.0339431
0.018537
0.0131676
0.00948211
0.00894928
0.0605889
0.121563
0.158612
0.122101
0.0381913
0.0194035
0.0139715
0.0212246
0.00126906
0.113444
0.289602
0.234535
0.179385
0.0158854
0.0191636
0.0197622
0.0565803
0.146943
0.361548
0.164296
0.417735
0.340205
0.022065
0.0411719
0.0427943
0.0358264
0.054125
0.0604717
0.0716115
0.35775
0.151091
0.121471
0.0433196
0.0295185
0.109432
0.00265115
0.141097
0.21337
0.20122
0.0747849
0.105627
0.0631467
0.0438182
0.238455
0.00673345
0.0599669
0.0291314
0.0960498
0.424028
0.0388026
0.0253901
0.0308061
0.0429274
0.0165682
0.00785323
0.0298295
0.344903
0.373861
0.0674687
0.0377712
0.00701927
0.0326526
0.0332049
0.013431
0.00658469
0.34047
0.0886232
0.0333978
0.0356246
0.0168287
0.131121
0.00329775
0.00982903
0.0488548
0.144944
0.232665
0.0362754
0.0247644
0.0126189
0.0798091
0.0135057
0.0112403
0.215005
0.407458
0.289932
0.0945521
0.045427
0.00968319
0.00324709
0.0181678
0.0166818
0.0215526
0.201191
0.394662
0.298734
0.254691
0.0153436
0.0022696
0.0291757
0.00957734
0.0585653
0.221692
0.0967935
0.0927031
0.0488942
0.0019046
0.0284211
0.00874632
0.00662083
0.148924
0.209381
0.0779678
0.322716
0.308063
0.0274935
0.0729145
0.00798517
0.00304065
0.0657444
0.15629
0.19655
0.236589
0.235483
0.0113695
0.00143778
0.0129401
0.00464924
0.025205
0.128549
0.134485
0.441292
0.378706
0.0363508
0.00543082
0.0164298
0.0230085
0.0217071
0.166598
0.016923
0.266109
0.421507
0.0863773
0.0546214
0.00651415
0
0.000396978
0.0255417
0.0413574
0.187276
0.364653
0.176246
0.045145
0.011206
0.0054453
0.040022
0.0184316
0.0570909
0.299912
0.269748
0.0872687
0.0470145
0.0491191
0.0113463
0.0418549
0.0964279
0.155884
0.191141
0.203718
0.195
0.218685
0.0938903
0.000848636
0.0308304
0.0927611
0.0786626
0.124128
0.169975
0.167808
0.0845589
0.0266295
0.0214029
0.0878388
0.0536703
0.131268
0.120584
0.137392
0.17415
0.23178
0.0631492
0.058757
0.0637595
0.0816812
0.189438
0.232387
0.255257
0.219445
0.192483
0.0351111
0.00222912
0.0264588
0.105147
0.140875
0.176783
0.19045
0.303086
0.310027
0.0749534
0.0315358
0.0986822
0.120987
0.0480025
0.0995046
0.114541
0.0440999
0.0424629
0.127157
0.0638543
0.115009
0.0467518
0.107984
0.145006
0.348044
0.143864
0.0719289
0.179945
0.128681
0.105603
0.0440829
0.0862417
0.219885
0.166101
0.0713774
0.207337
0.199282
0.0928434
0.0593956
0.0639488
0.197916
0.233076
0.229755
0.298261
0.227238
0.2255
0.329233
0.0342907
0.0688808
0.106816
0.0608408
0.19919
0.24616
0.135956
0.0665803
0.0877215
0.0463135
0.0806206
0.131929
0.150387
0.0643277
0.174519
0.121169
0.0940961
0.0972775
0.151648
0.169043
0.179856
0.141724
0.10315
0.35737
0.17165
0.0948861
0.24469
0.042249
0.0853363
0.138842
0.277276
0.113705
0.385796
0.181669
0.08123
0.0635921
0.0740405
0.148359
0.0436053
0.0458634
0.02269
0.0454285
0.0403264
0.110409
0.157437
0.278567
0.14222
0.0364109
0.0167198
0.0284442
0.0138896
0.162166
0.167804
0.286902
0.284322
0.200072
0.0323951
0.0789629
0.0649674
0.173341
0.0997249
0.158311
0.0493065
0.146248
0.0900994
0.0339491
0.043653
0.0500586
0.0527795
0.350392
0.476422
0.166836
0.197427
0.106025
0.08588
0.0393324
0.0692264
0.0190777
0.117174
0.191348
0.164093
0.0864
0.174253
0.254295
0.108259
0.0845033
0.0637748
0.020436
0.0778501
0.0301685
0.0185113
0.208647
0.0885679
0.0825028
0.122048
0.143267
0.223136
0.428881
0.178618
0.0621589
0.107133
0.274911
0.286369
0.261065
0.240747
0.0473999
0.093858
0.0649964
0.0901654
0.159697
0.261417
0.0507716
0.0307737
0.0774211
0.0222237
0.0506928
0
0.00224265
0.163749
0.248455
0.0379302
0.00622344
0.0687133
0.0137469
0.0334713
0.0015394
0.0023177
0.173431
0.368662
0.150619
0.155401
0.254267
0.0724657
0.087767
0.0439454
0.0700641
0.219518
0.392937
0.0678317
0.0349914
0.332627
0.196116
0.0526602
0.00627791
0.026793
0.293793
0.275865
0.0877398
0.0322748
0.0381503
0.019458
0.00386003
0.00322853
0.00259985
0.167579
0.237586
0.207859
0.161273
0.0250815
0.0396021
0.0034555
0.00106822
0.00138573
0.134217
0.298924
0.0910225
0.10212
0.225894
0.176705
0
0
0.132988
0.315474
0.203183
0.13818
0.158269
0.104869
0.207853
0.00518006
0.00172324
0.267415
0.332601
0.24519
0.306164
0.267485
0.0532512
0.0194258
0.00272931
0.0126814
0.00433909
0.0999483
0.192719
0.290408
0.261355
0.130884
0.00442822
0.0231146
0.0912951
0.0282188
0.106193
0.187242
0.201302
0.18446
0.0915723
0.148134
0.0240711
0.0191087
0.124079
0.112433
0.237636
0.188086
0.200173
0.188618
0.0956839
0.0246809
0.0885926
0.0785371
0.041482
0.141423
0.122314
0.141824
0.0995938
0.0352025
0.0479674
0.0388399
0.0658705
0.164516
0.196105
0.156541
0.169232
0.175833
0.195582
0.0969564
0.000398217
0.0415663
0.195384
0.144777
0.132206
0.222752
0.158486
0.101984
0.0285965
0.0491246
0.0833779
0.192626
0.134368
0.211116
0.223834
0.195157
0.151816
0.0413148
0.0103572
0.110736
0.378438
0.113081
0.178526
0.175432
0.0924594
0.126394
0.0263189
0
0.00798553
0.0730394
0.0763949
0.201198
0.12277
0.148806
0.241923
0.0521405
0.019585
0.097568
0.0934906
0.144074
0.125523
0.0759677
0.099074
0.219549
0.010299
0
0.0282323
0.149939
0.153916
0.190966
0.0711347
0.149593
0.566443
0.0877636
0.0453095
0.0553803
0.127753