0.0718633
0.0268739
0.0159036
0.00620937
0.0378903
0.0813324
0.110481
0.235335
0.106515
0.100826
0.0357737
0.0509445
0
0.0631523
0.0646995
0.135177
0.187128
0.124497
0.149146
0.110954
0.0479065
0.0317881
0.0508926
0.055071
0.0881781
0.194191
0.153677
0.133699
0.0902293
0.0853338
0.0175418
0.188496
0.0908891
0.181229
0.178671
0.146672
0.082315
0.0348065
0.0441189
0.0177221
0.0752665
0.0152693
0.045059
0.0985858
0.0951826
0.0406414
0.0257347
0.051566
0.0312087
0.127698
0.0918355
0.0954016
0.363983
0.176402
0.0762148
0.0304169
0.0815263
0.0316479
0.250699
0.0429479
0.0809714
0.0621198
0.0964367
0.0539757
0.0310771
0.14075
0.0609308
0.323654
0.0311247
0.0910714
0.144827
0.0832873
0.00607493
0.00328848
0.0162345
0.0550401
0.157461
0.103613
0.0715209
0.171447
0.0626247
0.00839306
0.0179
0.0148597
0.19924
0.27316
0.147377
0.155425
0.105594
0.0098337
0.0103326
0.024211
0.18537
0.157409
0.218349
0.0519694
0.0366568
0.056225
0.0192433
0.0570024
0.0685858
0.216488
0.431166
0.240136
0.079809
0.11869
0.0268639
0.0225579
0.0323523
0.0633892
0.0307814
0.103128
0.133358
0.132955
0.255422
0.0847586
0.0243573
0.0619324
0.132272
0.0720505
0.102339
0.159643
0.122651
0.158337
0.126353
0.0608244
0.0850415
0.117645
0.165435
0.242651
0.0806092
0.0448689
0.244249
0.0626999
0.0316386
0.0572783
0.0874405
0.152944
0.160812
0.118998
0.0685865
0.199941
0.186499
0.0648661
0.0197055
0.0284439
0.0150415
0.04588
0.211802
0.12745
0.034528
0.0275251
0.0211195
0.0021843
0
0.00788441
0.0353791
0.409075
0.182224
0.0283296
0
0.0021843
0.0269705
0.0108638
0.0258378
0.0384701
0.232329
0.124984
0.0569586
0.0565991
0.0338014
0.0036405
0
0.0568243
0.029216
0.480976
0.266708
0.0690968
0.00619554
0.00380897
0.00231474
0.000865955
0.0101374
0.0990319
0.350918
0.153052
0.00618744
0.00645308
0.00345352
0.0193691
0.0262008
0.0933318
0.148734
0.240414
0.144353
0.0230393
0.05156
0.0266135
0.00385791
0.00166177
0.0603189
0.0339414
0.435842
0.21644
0.0477713
0.0112463
0.0049722
0.033206
0.0191776
0.0891744
0.0729306
0.292392
0.197958
0.0881805
0.096347
0.0488977
0.0419519
0.134679
0.225185
0.0908398
0.109721
0.0612097
0.0568331
0.0353168
0.0152107
0.0717921
0.25839
0.374256
0.0400007
0.0409829
0.0153483
0.0380294
0.0134997
0.0143878
0.0307189
0.0433104
0.138917
0.0575456
0.0780776
0.173325
0.157003
0.139931
0.0698636
0.130101
0.179391
0.264803
0.0099767
0.0286452
0.0770974
0.102164
0.135835
0.120216
0.0578893
0.215873
0.233107
0.0416548
0.0341497
0.00403494
0.046653
0.0235349
0.0207122
0.101877
0.138843
0.164382
0.0577782
0.0647912
0.0067249
0.0808511
0.256838
0.168787
0.146223
0.250823
0.158943
0.00940585
0.0142757
0.0110305
0.0624391
0.106521
0.0760692
0.10484
0.173015
0.156678
0.0324402
0.109527
0.0183841
0.138262
0.105829
0.101416
0.0972464
0.158509
0.0766383
0.0278437
0.0119114
0.000678283
0.0183784
0.202339
0.198784
0.10112
0.362766
0.407318
0.143794
0.0180649
0
0.00673732
0.0625868
0.106766
0.0701381
0.0988049
0.0910822
0.0186042
0.107724
0.00185424
0.0508559
0.040747
0.0976818
0.0754755
0.186548
0.215652
0.0878574
0.113157
0
0.0228827
0.0177309
0.0715989
0.0878795
0.0625053
0.0501587
0.0459538
0.198823
0.109582
0.0353695
0.0364262
0.0787322
0.092171
0.0781507
0.094657
0.0475828
0.11309
0.142916
0.119343
0.128084
0.112025
0.0424626
0.071769
0.0954546
0.0188341
0.317915
0.102588
0.103666
0.0539347
0.0351447
0.160079
0.167207
0.159625
0.0467951
0.178645
0.128711
0.0863543
0.0745033
0.150055
0.0291972
0.0410353
0.0915457
0.0199383
0.0980845
0.0438014
0.0954897
0.110053
0.0806872
0.0259025
0.0905043
0.129298
0.0206558
0.244399
0.0288609
0.105507
0.0768519
0.0443908
0.0663868
0.147744
0.178304
0.125576
0.0239387
0.0170628
0.0718251
0.106742
0.0816579
0.050557
0.263406
0.32368
0.18438
0.115577
0.069215
0.169786
0.108677
0.0266152
0.00568941
0.0312406
0.110813
0.0398362
0.147606
0.0442703
0.0649509
0.0209804
0.00513653
0.0637204
0.0569403
0.143785
0.091327
0.111133
0.054115
0.0773608
0.0597417
0.0172952
0.0176332
0.18193
0.197042
0.0262086
0.0746654
0.120661
0.153233
0.0307801
0.00160913
0.241581
0.576958
0.291251
0.00377967
0.0488503
0.101797
0.116701
0.0670018
0.020653
0.0623753
0.0360305
0.0405382
0.0195238
0.0176374
0.00519187
0.0166145
0.0201651
0.00844957
0.102554
0.0264801
0.0351029
0.0200654
0.0198731
0.000933371
0.0263275
0.0357961
0.0528053
0.363198
0.209674
0.0436599
9.10998e-005
0.00822388
0.00333865
0.00775459
0.0233505
0.0293425
0.768736
0.106335
0.0206882
0.00116099
0.00462752
0
0.0124186
0.0234076
0.204324
0.034454
0.00253631
0.00626797
0.00706057
0.0348205
0.00329065
0.0181069
0.0240047
0.0720161
0.014883
0
0.00624781
0.00334222
0.0778379
0.0400967
0.0241578
0.0350516
0.115266
0.362844
0.0363258
0.0124009
0.000863969
0.00414471
0
0.0101874
0.0289265
0.336322
0.178357
0.0146667
0.00171009
0.000123424
0.0232803
0.0235068
0.0170492
0.148565
0.740772
0.00408499
0.000197394
0.00768685
0.00421992
0.0513173
0.0592104
0.0393949
0.0609424
0.0752109
0.0153301
0.00398531
0.0186303
0.0111159
0.0250379
0.0409364
0.0438369
0.0928901
0.08198
0.034667
0
0.000117935
0.000219022
0.0247045
0.0301844
0.032116
0.280826
0.519083
0.0292341
0.000703294
0.00293543
0.00153316
0.0110792
0.0103925
0.109603
0.482542
0.489531
0.0402128
0.0155837
0.0527489
0.0111387
0.0169173
0.0504188
0.0340241
0.088648
0.0967235
0.0606571
0.0437739
0.0827847
0.00401459
0.0536436
0.0272607
0.0469283
0.0681739
0.0646421
0.0502173
0.00611351
0.0280912
0.0181084
0.0227845
0.00971967
0.361655
0.553315
0.339405
0.0283233
0.0218204
0.0513635
0.0330699
0.138424
0.0152131
0.266574
0.209393
0.0829604
0.0972236
0.070898
0.0659545
0.00124867
0.0907694
0.0461311
0.133856
0.156874
0.065711
0.0560836
0.02924
0.0314041
0
0.193251
0.0708326
0.143369
0.102451
0.0566056
0.0598533
0.138668
0.0506053
0.0397756
0.219233
0.121742
0.216126
0.138679
0.0554434
0.136939
0.182164
0.107353
0.018621
0.243
0.160534
0.166723
0.0534486
0.109036
0.0237494
0.0217056
0.0606809
0.0360359
0.184691
0.0185526
0.0642446
0.0271743
0.0222301
0.0234626
0.097684
0.17644
0.157049
0.154272
0.0251571
0.0441796
0.028055
0.0102919
0.099539
0.0291054
0.0790636
0.0584497
0.151477
0.0981534
0.124903
0.0976622
0.147583
0.0408022
0.0554371
0.146776
0.214853
0.169263
0.325204
0.258145
0.147087
0.119021
0.0696433
0.0935452
0.051583
0.00821606
0.148257
0.0080152
0.0707468
0.0827141
0.0606579
0.196866
0.17136
0.0574995
0.00872745
0.0681442
0.0133587
0.0553819
0.101327
0.174589
0.0731532
0.111725
0.117249
0.0575124
0.235653
0.0151288
0.047131
0.0967491
0.0670944
0.182746
0.230476
0.116976
0.0182077
0.113689
0.00216126
0.113077
0.203709
0.163493
0.0240141
0.0518226
0.0353032
0.0290264
0.00902706
0.000592385
0.0236007
0.034718
0.0199726
0.0117865
0.118305
0.253367
0.0979199
0.0223486
0.00672178
0.0235782
0.0298307
0.00415709
0.0176209
0.0416756
0.044132
0.0481038
0.137268
0
0.0596287
0.0507696
0.0162917
0.00397889
0.171714
0.662489
0.396494
0.19731
0
0.0268523
0.023633
0.00259098
0.00918916
0.116657
0.178378
0.028434
0.00253535
0.00975201
0.0122924
0.00307034
0.000236117
0.0681096
0.311355
0.21901
0.015129
0
0.0080284
0.00904299
0.00212662
0.0014305
0.0162029
0.227454
0.383645
0.101328
0.0116675
0
0
0.000675808
0.0111638
0.0478192
0.492084
0.493024
0.0749485
0
0
0
0
0.0184075
0.181707
0.191095
0.0655202
0.00849566
0.000638254
0.00491727
0.00853352
0.0170494
0.0309514
0.352394
0.104276
0.0474471
0.0559362
0.0293337
0.0313133
0.0539634
0.0268991
0.0981865
0.0731668
0.255613
0.286938
0.0594696
0.0457863
0.0606389
0.0128484
0.0387594
0.0700298
0.0956425
0.103054
0.117365
0.188508
0.586021
0.252136
0.0899391
0.064599
0.120284
0.188252
0.0580683
0.0517661
0.0512407
0.0228641
0.0153477
0.0237058
0.027956
0.15446
0.0870089
0.0398856
0.0365689
0.0531682
0.0336948
0.0648072
0.0459702
0.126959
0.338095
0.0427383
0.0427424
0.0687981
0.206237
0.420043
0.096962
0.056586
0.0431122
0.0696737
0.0187645
0.0614858
0.0631018
0.221333
0.557903
0.229317
0.0975481
0.096327
0.10388
0.0258256
0.0511803
0.0249404
0.053147
0.0545799
0.0523949
0.0299991
0.169672
0.259092
0.0300239
0.0307082
0.00769174
0.00759243
0.0423603
0.0441537
0.150487
0.309311
0.260752
0.0247506
0.148016
0.0525122
0.223245
0.461434
0.142822
0.0717186
0.103885
0.0885238
0.0428023
0.0895507
0.0193865
0.0541959
0.110878
0.165424
0.321378
0.290077
0.158295
0.00604544
0
0.00110286
0.00204816
0.0085377
0.0277601
0.257068
0.239741
0.0800954
0.00750385
0.00262268
0.00274909
0.00861784
0.01843
0.0119096
0.217496
0.224601
0.0414093
0.010335
0.000148604
0
0
0.0124998
0.104452
0.333015
0.327145
0.123959
0.00667642
0.000374669
0.00637697
0.00789285
0.0118
0.212259
0.496981
0.358334
0.0822434
0.0376238
0.0614409
0.0162615
0.0512739
0.073645
0.0334999
0.145722
0.130773
0.035406
0.0813997
0.0900632
0.0416185
0.0440916
0.0662646
0.0372065
0.048001
0.0179484
0.0568133
0.0234195
0.0322946
0.0618349
0.0801508
0.0963873
0.439176
0.608075
0.188175
0.0232825
0.0491815
0.0806313
0.0984787
0.0794351
0.146771
0.132012
0.12528
0.0269822
0.0290218
0.112352
0.0241004
0.0567338
0.026868
0.0605088
0.0706993
0.082964
0.0604614
0.150002
0.0384943
0.00356163
0.0657921
0.0692575
0.114847
0.33965
0.253169
0.0581827
0.104825
0.0550113
0.0685643
0.14645
0.0593191
0.151682
0.0959348
0.103022
0.0519365
0.0553795
0.0154194
0.0205724
0.197007
0.264086
0.175561
0.318698
0.185795
0.0181974
0.0247592
0.0274894
0.00525209
0.00747162
0.00286465
0.0210132
0.00556807
0.00859702
0.00941961
0.0632995
0.0596131
0.0357233
0.0138662
0.00408661
0.0137693
0.000795438
0.00687378
0.00939388
0.0603018
0.291144
0.00119089
0.00048789
0
0.00384221
0.00334084
0.00427797
0.0099825
0.520149
0.387915
0.0466233
0.00288095
0.00220643
0.00194473
0.000477263
0.0017472
0.0136856
0.615235
0.0328732
0.0396074
0.0394562
0.0526513
0.0656867
0
0.00729965
0.00437235
0.0139071
0.00546211
0.0454121
0.266098
0.344921
0.102979
0
0.00338455
0.00129155
0.00058213
0.296328
0.175161
0.11176
0.0591177
0.0206827
0
0
0.00576988
0.21843
0.124775
0.214444
0.446987
0.470873
0.138141
0.00165808
0
0.000360226
0.0229388
0.00882301
0.105246
0.251977
0.191601
0.0143144
0
0
0
0.00882301
0.0176887
0.313651
0.3676
0.0924339
0.00661073
0
0
0
0.014705
0.00610563
0.0554588
0.258223
0.469751
0.115705
0.00317864
0.00138555
0.000828172
0.00126043
0.013758
0.144651
0.345881
0.335475
0.0624418
0.0132022
0.00969886
0.0057972
0.00210072
0.00506846
0.117372
0.146221
0.0266117
0.0805237
0.0278868
0.000989247
0.00523398
0.0117182
0.00172425
0.0266878
0.0337299
0.0579455
0.586975
0.0857532
0.00692473
0.0087233
0.0172527
0.00820026
0.0561624
0.100292
0.0862555
0.144944
0.00880983
0.00245015
0.0014645
0.000195229
0.00114358
0.00865764
0.0116648
0.143762
0.684709
0.0183305
0
0
0
0
0.00119252
0.00443741
0.0465802
0.350112
0.0281909
0.00649842
0.0042217
0.00336607
0
0.00616348
0.00499105
0.0488842
0.477764
0.0623484
0.0107626
0.00565442
0.00287733
0
0
0
0.0365393
0.534727
0.0146146
0
0
0
0
0
0
0.015786
0.544993
0.0332437
0
0
0
0.0106667
0.0246732
0.00632474
0.0618912
0.487835
0.0562942
0.0172377
0.0191675
0.019112
0.0182177
0.0160231
0.00280177
0.0220502
0.113784
0.0612914
0.13132
0.152498
0.057742
0.00439903
0.000685768
0
0.014734
0.722961
0.0526925
0.00215859
0.00380742
0.00597803
0.00733172
0.00114295
0
0.0204138
0.270787
0.10958
0.0608513
0.0656978
0.0324049
0.00510004
0.00361145
0.000572898
0
0.0512277
0.117894
0.167489
0.199934
0.0712777
0.00101602
0.0227249
0.00613023
0.0017345
0.0750591
0.366982
0.24024
0.0890786
0.0365689
0.00140494
0.00562972
0.00095483
0.013853
0.169487
0.320288
0.139945
0.0774656
0.0207555
0
0.0378749
0.00668381
0.00172277
0.206813
0.587457
0.256035
0.0150832
0.00347103
0.00149492
0.018368
0.0447661
0.011962
0.0463314
0.400945
0.195882
0.0161467
0.000820325
0.00586293
0.0285572
0.0955371
0.0202007
0.0385086
0.112634
0.0513262
0.0116777
0.00332802
0.00021356
0.0205233
0.0421457
0.0033247
0.130713
0.614989
0.301912
0.0206434
0.00629876
0.043306
0.0125456
0.081564
0.00993945
0.0721596
0.281748
0.227807
0.0905165
0.0929744
0.00859369
0.0469758
0.121666
0.0259354
0.0748748
0.0277249
0.0186965
0.0225944
0.00719227
0.00740531
0.0150696
0.10741
0.0768268
0.103507
0.089992
0.0424803
0.0418405
0.0210883
0.231057
0.0315755
0.0648034
0.00794048
0.0676223
0.0495925
0.0830057
0.140705
0.273752
0.422387
0.00949951
0.0218496
0.00474628
0.0808297
0.0580423
0.0399209
0.135298
0.565705
0.216082
2.01183e-005
0
0
0.000638865
0.00118646
0
0.00625029
0.323683
0.231869
0.00762539
0
0
0.010516
0.0154194
0
0.0220712
0.434099
0.320346
0.0011066
0
0
0.00106477
0.00197744
0
0.0069159
0.316842
0.428093
0.00774619
0
0
0.0175266
0.0256989
0
0.0246535
0.376898
0.265251
0.0972222
0.0379107
0.0190395
0.0172617
0.0171271
0.000593677
0.0205775
0.26538
0.155789
0.178062
0.160376
0.204055
0.245158
0.00813638
0.00415574
0.0146625
0.0448724
0.218555
0.019202
0.00128357
0.0175501
0.0287695
0.0378737
0.0356267
0.131318
0.434637
0.0627841
0.0457593
0.00898496
0.170132
0.413863
0.0925995
0.14183
0.20173
0.1702
0.011156
0.0343637
0.0754373
0.31836
0.338952
0.00622641
0.00388758
0.005771
0.000569906
0.0078989
0.0174559
0.0754348
0.234065
0.177291
0.0192409
0.0171918
0.0193811
0.00144312
0.00565549
0.0116605
0.00309523
0.166284
0.630257
0.103814
0.0439551
0.0348992
0.00455044
0.00348268
0.00744544
0.00915185
0.0719577
0.373599
0.0752826
0.0117564
0.013084
0.00240521
0.00454026
0.00835288
0.0204747
0.0555014
0.111016
0.0102815
0.0036353
0.00409824
0.000829502
0.000648608
0.00105353
0.0027976
0.108865
0.644012
0.0103757
0
0
0.0001185
0.00200183
0.00427961
0.00542294
0.0136905
0.186329
0.0295045
0.0022708
0.00276669
0.0013825
0.000285976
0.000611373
0.000892218
0.0310672
0.672077
0.0515032
0
0
0.0001975
0
0
0
0.0338953
0.375483
0.00546826
0
0
0
0
0
0
0.0210315
0.520654
0.0105573
0
0
0
0
0
0
0.0208831
0.511922
0.0154428
0
0
0
0
0
0
0.0312563
0.520654
0.00398994
0
0
0
5.68927e-005
0
0
0.0129112
0.594411
0.0144978
4.04988e-005
0.000542405
0.000629838
0.00064569
0.000989763
0
0.0162173
0.20629
0.046395
0.00826878
0.0117391
0.00440886
0.000398249
0.000251049
0.000466233
0.0147835
0.67625
0.0026665
0
0.000325443
0.00045568
0.00451983
0.0149594
0.00986692
0.0066874
0.27661
0.010869
0.00149394
0.00690063
0.00318976
0.000743559
0.00275361
0.000156262
0.0221076
0.0995048
0.277543
0.0972123
0.017627
0.00306132
6.6719e-005
0.00764663
0.00138918
0.0329856
0.170951
0.53268
0.265969
0.00214153
0
0.00520492
0.0320229
0.0962602
0.0901238
0.128433
0.125419
0.0297261
0.0103066
0.00221483
0.000467033
0.0436766
0.18349
0.313363
0.344451
0.32245
0.0760192
0.0012464
0
0.00794167
0.0068993
0.00581572
0.0226521
0.137243
0.354683
0.335589
0.039818
0.0270875
0.219453
0.0264637
0.0101558
0.0026103
0.0475135
0.154684
0.340433
0.138345
0.13941
0.0145124
0.103185
0.122826
0.16914
0.293937
0.16304
0.13495
0.0315168
0.0352957
0.289168
0.160013
0.134275
0.0199451
0.117389
0.0818595
0.166221
0.0849019
0.118594
0.329617
0.0314292
0.00446861
4.41443e-005
0.00615562
0.00967561
0.0476922
0.0488778
0.129296
0.423658
0.0144757
0.00165484
0
0.00283068
0.00160501
0.00725005
0.0185068
0.363911
0.367886
0.105875
0.0401412
0.0011422
0.0151361
0.0155401
0.0437533
0.0267898
0.103813
0.41846
0.0899695
0.0418389
0.00217971
0
0
0.041759
0.0203666
0.309756
0.413361
0.0157631
0.00433852
0
0.00145809
0.00155469
0.00076146
0.00173103
0.275772
0.602301
0.013521
0.000591221
0
0.00452339
0.0145573
0.00350082
0.0381487
0.275065
0.24777
0.0627267
0.0378241
0.0484996
0.0429881
0.0232001
0.00917344
0.00524583
0.10966
0.329128
0.0271931
0.00925114
0.0212461
0.0777861
0.039686
0.02386
0.0655968
0.126076
0.182604
0.00351705
0
0.00206201
0.0231425
0.0816722
0.0640524
0.123808
0.226873
0.0101907
0
0
0.0337769
0.214712
0.331662
0.166663
0.140671
0.0943334
0.0927378
0.000502435
0
0.0127613
0.18381
0.155104
0.051031
0.0650357
0.056435
0.00519121
0
0
0.00809042
0.354733
0.608977
0.106414
0.0395615
0.015414
0
0
0
0.0337576
0.302239
0.335657
0.0484733
0.0193445
0.00198309
0.000318192
0.00242675
0.00616617
0.021795
0.208371
0.209386
0.0133048
0.0018749
0.000318192
0
0
0
0.00334185
0.181853
0.578124
0.12677
0.0325891
7.83547e-005
0.0020949
0.00100267
0.00233956
0.0102988
0.116239
0.387934
0.244963
0.060854
0.00658665
0.000183875
0.00140236
0.00356327
0.00355237
0.148706
0.0296407
0.0039437
0.000973565
0.000183875
2.62679e-005
0.000200337
0.000509039
0.00024236
0.6607
0.0535575
0.000389833
0.000129944
2.62679e-005
0.00329072
0.000579417
0.00440874
0.0124287
0.1503
0.0596414
0.0569392
0.0154471
0.0103465
0.00197443
8.27738e-005
0.00528775
0.0254008
0.6607
0.0735373
0.00429828
0.00227316
0.00620789
0
0
0
0.00410921
0.39326
0.0266096
0
0
0
0
0
0
0.0164573
0.522354
0.0126265
0
0
0
0
0
0.00109336
0.0117589
0.493745
0.0396915
0
0
0
0
0
0.00101216
0.0287491
0.522354
0.0245739
0
0
0
0.000146908
0.000251735
0.000467509
0.0127113
0.590182
0.0104583
0
0
0.000146908
0.0016673
0.0106088
0.00989391
0.0207638
0.219585
0.0192391
0
0
0.00102836
0.000527751
0.00100253
0.000920865
0.0162825
0.671783
0.0248461
0.00228087
0
0.000527751
0.00369425
0.0149338
0.0636941
0.0385873
0.276933
0.0380113
0.00380146
0
0.00369425
0.00153698
0.0203758
0.0981479
0.139911
0.136832
0.0130545
0
0
0.000571596
0.000137912
0.0631223
0.25564
0.293027
0.179469
0.025643
0.000769619
0
0
0.00205339
0.0228184
0.240361
0.229747
0.202669
0.0119661
0.00077732
0
0.00205339
0
0.0500347
0.446012
0.53617
0.185601
0.000828986
0
0
0
0.0105239
0.199872
0.225321
0.140043
0.112937
0.0209205
0.0028389
0.00296725
0.00574776
0.0924877
0.261927
0.170884
0.0170072
0.0393297
0.0194258
0.00992009
0.0221902
0.123431
0.0266758
0.223408
0.424136
0.406719
0.0586024
0.00112493
0.000313911
0.00835443
0.0139786
0.0936795
0.32043
0.197334
0.0786939
0.00562619
0.000160705
0.00659632
0.136326
0.256094
0.097796
0.0801726
0.0321621
0.00120261
0.00586282
0.0056918
0.023448
0.0391439
0.231134
0.184747
0.0554278
0.0368188
0.00229501
0
0
0.0250681
0.0375469
0.311507
0.121834
0.0563779
0.0068779
0.000171802
0
0
0.00758412
0.124273
0.419565
0.392273
0.0050992
0.00465846
0.000327858
0
0
0.00249351
0.042624
0.555431
0.0652742
0.0752896
0.106929
0.30272
0.158494
0.0500024
0.0150423
0.00500151
0.0218435
0.0727299
0.0360571
0.028181
0.137742
0.373139
0.0521963
0.028014
0.0413284
0.040462
0.026405
0.100928
0.263855
0.342465
0.113491
0.0109411
0.00142291
0
0.0151628
0.0130375
0.0158807
0.0407189
0.305414
0.419113
0.0696131
0.0250488
0.000913831
0.00909769
0.00696899
0.000525455
0.00157636
0.031978
0.291884
0.121959
0.0228912
0.0132866
0.00672021
0
0.000875758
0.00262727
0.0102101
0.314991
0.497831
0.22834
0.109457
0.000445494
0
0.00367818
0.0116124
0.0440811
0.19769
0.126524
0.0413595
0.0056138
0
0
0.00613031
0.0183909
0.00145858
0.0806083
0.260887
0.442223
0.16615
0
0
7.26486e-005
0.000217946
0
0.0509912
0.227172
0.224545
0.138933
0
0.00538276
0
0
0
0.0170265
0.137004
0.376327
0.2116
0.0269739
0
0.000508541
0.00152562
0
0.00469271
0.155198
0.3888
0.190589
0.000429235
0.00363251
0.00765415
0
0
0
0.174207
0.465856
0.33614
0.0993012
0.018271
0.0151658
0.024272
0.04168
0.0863161
0.0330953
0.13829
0.0802275
0.0674945
0.016085
0.0252763
0.0482827
0.165191
0.728722
0.0530514
0.0143285
0.00895573
0.0404967
0.0537467
0.0582196
0.0358418
0.040116
0.0140779
0.0282104
0.158449
0.146285
0.204193
0.0802478
0.0766035
0.119366
0.236124
0.309834
0.0579868
0.0381893
0.0437629
0.16161
0.00525345
0.00613325
0.00901357
0.0548513
0.459708
0.0633571
0.00666894
0.000529246
0.00338669
0.00744873
0.00609442
0.00425453
0.0535302
0.666576
0.0832003
0.0109422
0.00145361
0.00564449
0.0269276
0.0172314
0.0264036
0.0880465
0.222505
0.0806907
0.0466826
0.0278774
0.093517
0.069182
0.0547547
0.00255272
0.12664
0.35683
0.137204
0.0538491
0.0252874
0.103964
0.00727213
0.0141572
0.00332348
0.0223846
0.653971
0.109368
0.0356138
0.0124337
0.0142669
0.0271657
0.103172
0.192364
0.032122
0.183242
0.0608283
0.0308356
0.0167409
0.0263176
0.0805809
0.0819439
0.00199409
0.071646
0.339737
0.177834
0.104867
0.0587177
0.0724955
0.145325
0.337144
0.204768
0.018011
0.0543258
0.0591308
0.0686008
0.0545808
0.0940637
0.0227796
0.0896629
0.301593
0.0747353
0.0370364
0.00411316
0.00173987
0.00171185
0.00487003
0.014065
0.136625
0.43776
0.247021
0.0339332
0
0
0
0.000445687
0.0625214
0.254635
0.364396
0.0396621
0.00369028
0.00127591
0.00104392
0.0036001
0.0123926
0.0320242
0.30047
0.491353
0.09109
0.0239312
0.00165747
0.000710344
0
0.000742812
0.0162321
0.147685
0.506262
0.44906
0.0217131
0.0061004
0.0037225
0.0124316
0.0110485
0.0341032
0.115354
0.139816
0.1227
0.0199263
0.0207534
0.0265939
0.162767
0.11578
0.0241059
0.217018
0.431884
0.162465
0.0385343
0.0137143
0.0083152
0.0038434
0.00348186
0.0342906
0.034078
0.0913099
0.0585218
0.0866775
0.0530253
0.0270786
0.0411654
0.0384416
0.127856
0.0366906
0.0158732
0
0.02666
0.0144722
0.0312912
0.216794
0.347807
0.393696
0.00897334
0.0140977
0
0.00654689
0.012785
0.0224382
0.0780823
0.556437
0.0915705
0.0428345
0.0288445
0
0.0794733
0.0582204
0.0257078
0.0733891
0.139386
0.0884282
0.0520484
0.0251233
0
0.0331718
0.0353629
0.051128
0.105146
0.192393
0.050476
0.212337
0.248972
0.175701
0.0584607
0.00886893
0
0.00269953
0.0460121
0.0270647
0.0917486
0.128158
0.265152
0.183726
0.157389
0.0482282
0.00363474
0.0108522
0.190655
0.327687
0.1028
0.0506298
0.00794454
0.0107738
0.0236289
0.0622383
0.240507
0.188196
0.334993
0.173713
0.0917881
0.0186425
0.0932226
0.0238955
0.0175371
0.0784929
0.00451921
0.0239728
0.0684741
0.114682
0.12959
0.256728
0.106329
0.0149464
0.00264937
0
0.00909112
0.0466781
0.0599296
0.0801544
0.311131
0.478928
0.0924333
0
0.0448397
0.170422
0.185196
0.171107
0.0283198
0.11137
0.0532997
0.0222106
0.0286993
0.0215271
0.0313559
0.119272
0.181715
0.117238
0.137426
0.141278
0.0485925
0.0255446
0
0.000904571
0.00498067
0.00721143
0.0258077
0.171221
0.368529
0.0987608
0.0142941
0.00522548
0.0170392
0.00930325
0.00384556
0.00979255
0.186411
0.432463
0.385009
0.328769
0.00688612
0.00582919
0.0271117
0.0393201
0.0601093
0.0728913
0.0945889
0.0428966
0.0281631
0.0211183
0.0302689
0.0651228
0.0269189
0.041006
0.0585932
0.106236
0.196332
0.330715
0.0379183
0.038055
0.0120399
0.00975269
0.000149185
0.0156848
0.066207
0.142657
0.345157
0.0710801
0.0355482
0.0478838
0.0743122
0.0492881
0.0390975
0.0158068
0.118989
0.464256
0.0301044
0.0151251
0.0213486
0.00153048
0.00822738
0.00624238
0.0169033
0.102044
0.341783
0.108219
0.0206129
0.00711472
0.00469342
0.00999477
0.0151005
0.0066369
0.113772
0.590809
0.0855291
0.0113376
0.0139749
0.0348094
0.0440749
0.0398113
0.0263348
0.0628125
0.350599
0.295785
0.133104
0
0.0697514
0.0828399
0.0451167
0.0299875
0.0300809
0.278542
0.194383
0.0111436
0.00153555
0.00147755
0.00169105
0.0065506
0.0012692
0.0332844
0.423898
0.458319
0.101177
0
0.0021632
0.00455395
0.000607347
0.000728948
0.00594551
0.364908
0.238575
0.248648
0.000775062
0.042551
0.0804806
0.0466347
0.0469882
0.0392322
0.0764599
0.256183
0.506491
0.0775798
0.00644468
0.0105224
0.00969208
0.0281929
0.0315524
0.0623121
0.323168
0.274709
0.00920053
0.00427115
0.00858964
0
0.00181385
0.00534401
0.109818
0.211361
0.428325
0.0310281
0.0289255
0.0173548
0
0.00172827
0.00331423
0.0187563
0.178393
0.529805
0.351294
0.0780421
0.00881571
0
0
0.00290224
0.0299479
0.0561935
0.278039
0.374729
0.14454
0.0660154
0.0115397
0.00494557
0.00106519
0.0178291
0.157777
0.289426
0.071023
0.0650475
0.0226717
0
0.00801663
0.00651876
0.0337039
0.0606021
0.106927
0.0891624
0.068079
0.0208655
0.0069238
0.016106
0.0177912
0.0399235
0.0929234
0.298664
0.281138
0.0954494
0.15133
0.0380432
0.0329439
0.0197535
0.0182726
0.20892
0.132082
0.0787601
0.0122747
0.170261
0.0481937
0.0416803
0.0462772
0.171931
0.101734
0.199795
0.07518
0.0525074
0.0665845
0.0199752
0.0446742
0.113812
0.0616309
0.24334
0.183862
0.0312045
0.0467573
0.0976152
0.00285359
0.0742851
0.161446
0.200564
0.238912
0.111211
0.0109925
0
0.0576985
0.0507661
0.0261348
0.0624182
0.254589
0.138353
0.113064
0.0289263
0
0.0946727
0.0736383
0.0778722
0.128709
0.173694
0.235961
0.120685
0.0463367
0.0217112
0.0310039
0.0436492
0.111609
0.0840836
0.23699
0.175838
0.127374
0.104526
0.0011251
0.20896
0.11256
0.139425
0.0563847
0.168402
0.144206
0.138039
0.0248086
0
0
0.0230947
0.159867
0.190735
0.248078
0.186311
0.299495
0.123275
0.044193
0.0353749
0.0201871
0.0196258
0.0785789
0.105126
0.0182254
0.0326702
0.089583
0.0299619
0.0139407
0.0218168
0.227729
0.270948
0.0672143
0.0590586
0.108583
0.167724
0.056789
0.109438
0.156163
0.0710476
0.201399
0.0628521
0.079914
0.191296
0.135479
0.0906916
0.0657829
0.0294116
0.0164609
0.069992
0.0600802
0.0642885
0.0400888
0.0722419
0.0891169
0.0861068
0.138677
0.141777
0.14666
0.0925583
0.081106
0.112029
0.0701165
0.028081
0.200584
0.203322
0.0908404
0.113297
0.0584427
0.0659978
0.0964424
0.121224
0.23155
0.289468
0.199374
0.18712
0.142728
0.0800502
0.0199499
0.00912908
0.0263139
0.0562874
0.0974049
0.250778
0.0829567
0.0448939
0.0321789
0.0302957
0.0594396
0.0749894
0.0476299
0.184848
0.273005
0.0474075
0.0763924
0.181454
0.0105619
0.0377879
0.11516
0.213412
0.203221
0.225723
0.0715885
0.0298022
0.0160171
0.0489082
0.0688738
0.138776
0.133243
0.268679
0.35164
0.0387192
0.0238926
0.0474372
0.0470109
0.0413284
0.050842
0.0426065
0.0852468
0.0995279
0.0535714
0.123539
0.285509
0.209072
0.0820989
0.0259593
0.0283419
0.071124
0.185807
0.0534228
0.121782
0.480634
0.0414154
0.0548011
0.129693
0.162094
0.114633
0.141254
0.0279926
0.0415565
0.0388276
0.0676609
0.0922988
0.0798573
0.10798
0.148303
0.181178
0.0349095
0.101475
0.0563862
0.297928
0.0515456
0.00563492
0.00285138
0.00956312
0.0352015
0.0129517
0.030224
0.321072
0.516621
0.11444
0.00208797
0.00387765
0.00448255
0.00951936
0.00581235
0.0198233
0.417246
0.0949216
0.0660096
0.0169094
0.0199596
0.0477982
0.047288
0.0185912
0.0614948
0.0797741
0.143091
0.123979
0.0569157
0.0332001
0.0165849
0.0616612
0.0303313
0.0579497
0.131645
0.36917
0.214695
0.0274316
0.0114311
0.0486116
0.064507
0.0150986
0.0270946
0.252752
0.132419
0.292036
0.0867446
0.101849
0.135099
0.0941562
0.0298261
0.0276746
0.0389369
0.0728856
0.0779858
0.060504
0.0344349
0.0623739
0.207056
0.0619815
0.0655659
0.0871531
0.032524
0.0558177
0.0319818
0.0433804
0.152949
0.252279
0.128325
0.20876
0.0378211
0.0780577
0.156801
0.0839134
0.0783935
0.111422
0.0335812
0.0584738
0.0875207
0.0350407
0.0684194
0.121437
0.166845
0.0282776
0.0778998
0.0435446
0.078994
0.122564
0.0625158
0.0588422
0.100865
0.0162926
0.0142261
0.129071
0.192178
0.0956264
0.256621
0.0664758
0.0635244
0.0816096
0.0902497
0.0291535
0.183981
0.364501
0.113891
0.180607
0.0761961
0.091404
0.102712
0.0870401
0.0631486
0.0705637
0.0123494
0.0347135
0.0600305
0.0600258
0.161153
0.102953
0.11249
0.251776
0.149272
0.00735892
0.0414842
0.0587206
0.110466
0.103026
0.0884677
0.0937319
0.0940877
0.135735
0.084177
0.0668917
0.10508
0.0700141
0.164057
0.0767168
0.122362
0.296855
0.27608
0.0515124
0.168216
0.213843
0.105993
0.132854
0.0544295
0.10336
0.138242
0.0712367
0.0660376
0.0959209
0.0361183
0.120653
0.09297
0.0757275
0.126524
0.0598449
0.0951767
0.166864
0.134921
0.0463746
0.0854488
0.151517
0.0589056
0.10121
0.204982
0.118184
0.120873
0.146641
0.134228
0.142173
0.12175
0.159205
0.212205
0.252247
0.0608481
0.190548
0.101447
0.0408321
0.107964