0.152585
0.0682336
0.0457953
0.0690534
0.0569552
0.100069
0.0860449
0.131616
0.145859
0.144755
0.185694
0.0961425
0.0974282
0.0702526
0.0141791
0.0329722
0.0865754
0.211916
0.0284725
0.0431906
0.239558
0.290815
0.194804
0.103765
0.290113
0.131781
0.0638153
0.0791399
0.167077
0.135449
0.150888
0.113244
0.0416441
0.194685
0.166133
0.183213
0.0262053
0.163835
0.106848
0.25234
0.191935
0.0481996
0.02204
0.0214513
0.0614362
0.0591904
0.115419
0.0796816
0.210483
0.237104
0.247522
0.13986
0.134471
0.0688254
0.0535623
0.208356
0.130584
0.167187
0.122449
0.0467586
0.0204911
0.0376572
0.0704612
0.157068
0.237138
0.217385
0.109948
0.143265
0.148863
0.0496798
0.104667
0.0603152
0.0776514
0.116381
0.0655873
0.00656523
0.0281419
0.0806745
0.0743445
0.0800745
0.18698
0.168015
0.238209
0.189535
0.0595998
0.0254547
0.0565608
0.0434474
0.0524731
0.295949
0.0909598
0.209364
0.116365
0.0213563
0.0196418
0.0495288
0.029705
0.0976043
0.0342214
0.11432
0.516451
0.354839
0.101779
0.0114394
0.137889
0.0503336
0.123543
0.0653121
0.0568674
0.041065
0.0335906
0.0298295
0.0202657
0.0457905
0.0348672
0.0327986
0.0385575
0.143587
0.0324613
0.0161433
0.0116437
0.0179069
0.0546892
0.0684876
0.0748675
0.103132
0.141096
0.330272
0.13695
0.0266025
0.00639985
0.0604005
0.0504237
0.0542565
0.0280449
0.636246
0.489048
0.0986891
0.0154714
0.00862747
0.033034
0.0584325
0.0527941
0.166118
0.143201
0.0463379
0.00767919
0.0222692
0.0391491
0.0472181
0.0405972
0.0739296
0.0734406
0.141066
0.0627446
0.0194567
0.0281213
0.0578907
0.168276
0.0985366
0.0790727
0.0726999
0.56953
0.168668
0.0148624
0.0319254
0.0246244
0.00914317
0.010865
0.0242581
0.146615
0.589211
0.142875
0.00974965
0.0238626
0.0401726
0.0426642
0.0364993
0.0613863
0.228301
0.0498135
0.0275652
0.0150367
0.0106958
0.0237792
0.124397
0.0912307
0.0558373
0.102668
0.0482722
0.0677897
0.0244055
0.0520199
0.0659904
0.0367107
0.0502551
0.0839627
0.1413
0.194406
0.0635669
0.021091
0.00163858
0.0218848
0.0377859
0.0350674
0.114267
0.424344
0.0802941
0.0731318
0.0188655
0.00849056
0.0156523
0.0134554
0.0732993
0.448979
0.615653
0.0353387
0.0354892
0.0240412
0.0444299
0.0318813
0.0197367
0.0658154
0.090651
0.0703825
0.0129637
0.0307586
0.0819478
0.107695
0.0770871
0.0444103
0.105437
0.0369613
0.0218849
0.0217953
0.0357646
0.0103252
0.00850059
0.0064094
0.0181222
0.137007
0.671945
0.209247
0.0114896
0.0800968
0.0675921
0.0320762
0.0539424
0.0291091
0.264991
0.492573
0.0754931
0.0338012
0.0605683
0.134915
0.28761
0.283064
0.0727386
0.114578
0.00404169
0.0140992
0.0953111
0.0719114
0.0811432
0.184063
0.173689
0.0544123
0.0504622
0.0328342
0.0403485
0.0440005
0.153114
0.221111
0.10896
0.182927
0.0294356
0.333264
0.385194
0.0573899
0.0865513
0.0941742
0.136368
0.106862
0.13186
0.102781
0.0257779
0.104949
0.101761
0.159356
0.206291
0.107567
0.0884023
0.0545375
0.0151923
0.0257851
0.0547373
0.0446502
0.134393
0.355468
0.295805
0.18273
0.0684813
0.0114356
0.0405525
0.0389691
0.0246478
0.0744999
0.189516
0.177735
0.0908492
0.0482756
0.0388019
0.000587294
0.0414367
0.0777985
0.043602
0.351276
0.340227
0.245093
0.0658004
0.0152239
0.00411106
0.00760456
0.0268052
0.0394151
0.0637618
0.110043
0.256359
0.132558
0.079133
0.20124
0.0811982
0.0249182
0.0378933
0.0830729
0.0823881
0.114288
0.0492433
0.079269
0.131895
0.117221
0.0576975
0.442565
0.211398
0.0538355
0.14962
0.0650949
0.0936348
0.156008
0.188316
0.120752
0.256043
0.21993
0.0704096
0.065928
0.0117495
0.103535
0.0974908
0.205662
0.125905
0.0466932
0.0431606
0.046542
0.0349202
0.0296558
0.00878047
0.0125173
0.0235256
0.0210677
0.126852
0.0996477
0.0910145
0.0131491
0.0309046
0.0138241
0.0578803
0.0404144
0.0233862
0.16944
0.172369
0.0657484
0.00821076
0.00337442
0.0210426
0.0157103
0.0213659
0.0600816
0.217507
0.503647
0.649829
0.00314984
0.00388971
0.00244987
0.0582352
0.0226931
0.0495007
0.0305264
0.10173
0.086479
0.00747529
0.00209223
0.00448228
0.0140562
0.0129929
0.00506052
0.02147
0.337363
0.216264
0.026112
0.00101932
0.0128878
0.0105597
0.0131203
0.002485
0.0272644
0.254431
0.367351
0.00286822
0.000125825
0
0.00891814
0.00291458
0.0057749
0.0199562
0.566903
0.482943
0.00568587
0
0
0.00140875
0.000301456
0.000988116
0.0533722
0.390883
0.130093
0.0107741
0.00157251
0.00731512
0.0077971
0.0131864
0.00500572
0.157838
0.404054
0.0720686
0.0489628
0.0749869
0.00183725
0.00600471
0.042818
0.0898949
0.0397843
0.45906
0.165206
0.00674716
0.0138141
0.00154907
0.00208651
0.0160826
0.0055132
0.0351665
0.28729
0.0364857
0.103282
0.456667
0.0166803
0.00323243
0.0610628
0.0601269
0.17623
0.149365
0.0260854
0.118669
0.0890433
0
0.000446704
0.030967
0.11723
0.258703
0.13023
0.0142297
0.0688375
0.0499601
0.033682
0.037289
0.0802508
0.153374
0.0306518
0.10802
0.0264461
0.22063
0.618133
0.013837
0.000460532
0.0250656
0.0543507
0.118987
0.118733
0.0149681
0.149966
0.444884
0.0892909
0.0540196
0.0651295
0.0877301
0.0991133
0.0371966
0.0136654
0.000540746
0.09371
0.0776357
0.0367985
0.0854552
0.14769
0.0866114
0.0119321
0.00819925
0
0.103092
0.048038
0.0413704
0.373081
0.214267
0.0570464
0.017013
0.0019522
0.0119797
0.502657
0.184591
0.0542126
0.0645607
0.0394752
0.107496
0.00825542
0.00117132
0.000887091
0.533266
0.134769
0.0207869
0.244443
0.0474134
0.0182419
0.00329246
0
0
0.0092206
0.00152084
0.0727493
0.396722
0.0538051
0.00241472
0.0100805
0.00687342
0.000650694
0.0030425
0.00281617
0.244677
0.408853
0.0276578
0.0377815
0.00573358
0
0
0.0568037
0.00837699
0.0927815
0.318099
0.035574
0.00263793
0.000819083
0
0
0.000423914
0.00765185
0.486406
0.448777
0.0317327
0.00421829
0.00743056
0.011561
0.00106873
0.0036615
0.00226657
0.201903
0.229176
0.0149668
0.0132126
0.00555083
0.00826803
0.00265192
0.00531622
0.00591209
0.0857307
0.087349
0.0192469
0.000639529
6.01048e-005
0.000180314
0
0
0.0150982
0.592407
0.334856
0.011208
0.00293183
0.00366001
0.00272779
0.0021929
0.0012501
0.0695587
0.578972
0.169216
0.00776849
0.0577817
0.0418681
0.0638549
0.0621817
0.0539645
0.0147205
0.0571451
0.0604335
0.0495604
0.0388258
0.101867
0.0982599
0.203991
0.125539
0.00558285
0.00779086
0.0415971
0.0364273
0.0410191
0.0548962
0.0658169
0.0496266
0.0516432
0.237305
0.717034
0.104801
0.0287074
0.126926
0.0609775
0.092409
0.108814
0.140017
0.0363536
0.0681215
0.0859918
0.0542899
0.203895
0.163359
0.0275924
0.00909204
0.055908
0.0923737
0.0743626
0.131779
0.0390478
0.103767
0.0723267
0.00519869
0.0214227
0.0726027
0.0947907
0.116237
0.217786
0.0481923
0.33558
0.278876
0.047992
0.0117433
0.106544
0.110467
0.129488
0.230801
0.111721
0.116526
0.0509949
0.00886142
0.0910905
0.152274
0.140319
0.368496
0.377263
0.168811
0.0681323
0.104152
0.0476345
0.0117567
0.0646507
0.037982
0.0190878
0.0292428
0.0241524
0.0974563
0.239273
0.433118
0.0469211
0.0416326
0.0153188
0.00372283
0.00125663
0.0133131
0.0321405
0.0493127
0.09271
0.125598
0.183141
0.108784
0.0865909
0.0648315
0.0331225
0.0750802
0.0990806
0.638834
0.297205
0.16209
0.0792574
0.00605434
0.00289433
0.00161049
0.0202368
0.162597
0.509204
0.0393902
0.00114035
0.00134606
0.00109013
0.00110005
0.00121676
0.0051732
0.251645
0.453644
0.0138369
0.0018128
0.00659144
0.0049128
0.00147272
0.000964362
0.0187366
0.0373468
0.511689
0.186658
0.011736
0.00680878
0.000895941
0.00582877
0.00102861
0.00109056
0.0339492
0.249901
0.0559281
0.019477
0.0177791
0.0136251
0.010698
0.00206282
0.0103631
0.12638
0.0907796
0.00819225
0.0247137
0.0079983
0.00494407
0.00595752
0.00247285
0.00601429
0.0412962
0.00825691
0.040308
0.59018
0.0395591
0.00247173
0.013735
0.00685647
0.00251719
0.00852964
0.0226871
0.0102983
0.0436206
0.0140417
0.0159808
0.00426594
0.00248
0.00286557
0.00066314
0.000759762
0.0341284
0.73595
0.0557737
0.00875562
0.00253406
0.00286557
0.00151462
0.00591042
0.00222598
0.0403323
0.47847
0.0193437
0.000136029
0.00196231
0.00213385
0.00904274
0.0081448
0.00126735
0.0388189
0.38744
0.030286
0.00459662
0.00396321
0.00613675
0.000549775
0.000132983
3.32458e-005
0.0158683
0.529209
0.0348305
0.000298524
0.000761915
0.000669013
0.00253334
0.000930882
0.000232721
0.0161573
0.529209
0.0463056
0.000278721
0.00472976
0.00336801
0.00417527
0.00111217
0
0.0148332
0.440338
0.0439349
0.00524428
0.00356783
0.00232623
0.0136036
0.00451061
0
0.00984092
0.436286
0.0445762
0.00485314
0.0160962
0.00353033
0.00094033
0.000345526
8.63815e-005
0.0153348
0.526206
0.0501594
0.000103456
0.0017556
0.00125014
0.00359619
0.00160486
0
0.0265469
0.526206
0.0416823
0.00412872
0.00137624
0.00319497
0.0252103
0.0147638
0
0.00688339
0.157864
0.0282781
0.0970791
0.139432
0.0208408
0.00331788
0.00443726
0
0.000728546
0.00946617
0.0265657
0.75817
0.348938
0.0167553
0.0130849
0.00947297
0
0.0262098
0.216935
0.025191
0.0211478
0.0130393
0.0150723
0.00467579
0.00523353
0.00125502
0.0126033
0.035034
0.0585675
0.300488
0.0606342
0.012113
0
0
0
0
0.000451186
0.0220107
0.426421
0.0882446
0.000786685
0
0.00135929
0.00149725
0.000226355
0.00116664
0.102195
0.520604
0.0417607
0
0
0
0.000480938
0.00287543
0.00458588
0.090385
0.313199
0.0143144
0.0006274
0
8.32809e-005
0.000263028
0.000410776
0.00328813
0.312622
0.520604
0.00430703
0
0.00518958
0.00800192
0.0155758
0.00205723
0.012473
0.157759
0.386964
0.0142388
0.00278053
0.0267648
0.00980857
0.0226002
0.0163912
0.0207759
0.0512431
0.0432746
0.0100193
0.0103235
0.00197172
0.000509012
0.00211857
0.000117859
0.0469633
0.556711
0.58102
0.00485409
0.00174912
0.017709
0.0105836
0.00747755
0.0140431
0.07932
0.255364
0.125761
0.00423496
0.0122438
0.204094
0.0809017
0.0717998
0.120541
0.0765943
0.0192022
0.0692717
0.164523
0.0943128
0.0567633
0.012508
0.0231802
0.161763
0.150003
0.0641623
0.206317
0.204862
0.201682
0.0380481
0.10111
0.199909
0.341952
0.114448
0.00845964
0.00949122
0.0501129
0.0280027
0.0131066
0.0358842
0.165181
0.480387
0.35235
0.0364475
0.0401276
0.0707151
0.073969
0.00499464
0.000352141
0.0456174
0.220592
0.109396
0.046444
0.0478308
0.0214124
0.0334345
0.00561534
0.00106227
0.292009
0.373445
0.0825183
0.0263652
0.00476287
0.00121531
0
0.000598922
0.00120792
0.0339617
0.425998
0.231917
0.022634
0.0141359
0.00577331
0.0123403
0
0
0.0721867
0.591721
0.177979
0.0082453
0.00360398
0.00231159
0
0.00693888
0.00566953
0.551813
0.463845
0.0306721
0.0149374
0.00635288
0.00913244
0.00108037
0.00575929
0.02944
0.145356
0.0928047
0.0549268
0.0428709
0.0264559
0.0141207
0.00180062
0.00225793
0.00451345
0.11295
0.456137
0.149137
0.029124
0.0270068
0.0210723
0.00176428
0.0174011
0.0241733
0.0494986
0.0378076
0.0926283
0.0673543
0.041225
0.0154351
0.0139455
0.00122322
0.00458296
0.00912771
0.00814074
0.0354632
0.0130588
0.00939037
0.00267838
0.0006117
0.000887041
0.000566926
0.00498543
0.0426621
0.596351
0.0459617
0.00636464
0.0020296
0.000887041
0.00331082
0.00458555
0.014809
0.00859109
0.0429594
0.0184172
0.00531823
0.000681541
0.00289623
0.000848696
0.000929951
0.0112595
0.0461367
0.747597
0.0398501
0.00290837
0.000683232
0.000848696
0.000412324
0.000345806
0.000331272
0.012875
0.491529
0.0256461
0.000624213
0.000413175
0.000454286
0.00242346
0.00242064
0.000605161
0.00816294
0.413167
0.0319059
0.00263709
0.00231476
0.0027172
4.94584e-005
0.000207484
0.000664652
0.0235974
0.51596
0.0221985
0.000753193
0.000199457
4.94584e-005
0.000346209
0.00145239
0.000363097
0.0234315
0.51596
0.0277421
0.00433502
0.00108375
0.000346209
0.000920794
0.000919724
0.000229931
0.0156234
0.443701
0.0381296
0.00100196
0.000879494
0.0010324
0.00245699
0.000161684
0.000248776
0.0209581
0.445497
0.0284029
0.000523963
0.000450048
0.00275316
0.000131542
0.000551834
0.000137959
0.0254044
0.522474
0.0374767
0.00164709
0.000411772
0.000131542
0.000286026
0.000839692
0.00334906
0.0280844
0.522474
0.036362
0.000392227
0.00045899
0.000847014
0.0264169
0.00311944
0.00231541
0.0377889
0.505546
0.0383213
0.0116534
0.0188928
0.0483441
0.0204514
0.00187167
0.0188968
0.0534948
0.0659515
0.073939
0.0963018
0.0509273
0.0549375
0.00584251
0.0219781
0.0487751
0.0821176
0.666106
0.0402856
0.00738447
0.016439
0.0254854
0.0239908
0.0252135
0.0921849
0.117511
0.0438935
0.0166048
0.0264606
0.0273515
0.0448079
0.00121364
0
0.00372691
0.0100363
0.0156983
0.134925
0.102494
0.00337382
0.00246306
0.000163721
0
0.000485929
0.00139723
0.0324108
0.593284
0.333891
0
0.000163721
0.00358377
0.00138187
0.00958055
0.015143
0.0474185
0.0701482
0.0107376
0.00181535
0.00400299
0.00114604
0.000261728
0.00127055
0.00953911
0.269128
0.593714
0.0693924
0.000120082
0.00114604
0.00021651
0
0
0
0.0545057
0.465198
0.167669
0
0.00021651
0.00298843
0.00546102
0.00347684
0.00556175
0.0943963
0.263408
0.0529055
0.00126655
0.00180487
0
0
0
0.0273935
0.259343
0.554067
0.046787
0
0
0.0172716
0.00206089
0.0020861
0.0343981
0.245725
0.410998
0.0401609
0.0089972
0.0240651
0.0420525
0.136713
0.215159
0.177465
0.0732248
0.01856
0.00515989
0
0
0.024465
0.0770536
0.223539
0.296939
0.274418
0.107164
0.0361192
0
0
0.195743
0.184067
0.215306
0.161718
0.0627437
0.0205567
0.0118953
0.0107334
0.148236
0.215381
0.0977522
0.147814
0.238776
0.369473
0.24893
0.0948952
0.009347
0.154699
0
0.00372753
0.0295269
0.25504
0.296145
0.0660052
0.00769917
0
0
0.000443548
0.00124828
0.00953538
0.33938
0.28419
0.0248171
0.00114531
0.000965395
0.000131478
0.0293885
0.0134035
0.0243713
0.141059
0.477152
0.19092
0.0360638
0.00457862
0.00984719
0.00355371
0.00903719
0.0126798
0.141113
0.471325
0.184243
0.0111084
0.00274717
0.000920349
0.00711111
0.00660144
0.0566813
0.416577
0.303921
0.0563195
0.0295373
0.0142188
0.00561831
0.0315263
0.00908564
0.0650165
0.0933484
0.136177
0.0779593
0.0414294
0.010308
0.0313131
0.0376305
0.0456898
0.0980198
0.251988
0.426087
0.198645
0.00968026
0.000339994
0.021344
0.0578652
0.0128569
0.100002
0.160423
0.199467
0.0719405
0.0403515
0.00237996
0.0508034
0.00414826
0.0041641
0.00950429
0.00733247
0.0310586
0.00908127
0.00425991
0.000775423
0.00336658
0.00248044
0.0045506
0.00476183
0.0150957
0.609013
0.0288017
0.00397316
0.00118248
0.00117766
0.00841808
0.00584625
0.0093925
0.0148408
0.0443289
0.0119996
0.00591603
0.000579347
0.00612926
0.00859341
0.00761463
0.00422292
0.025434
0.740564
0.0464524
0.00408803
0.000709486
0.00583048
0.000123663
0.000294209
0.000158239
0.0147917
0.495482
0.0156733
0.000350586
0.0001099
2.55931e-005
0
0
9.29354e-005
0.0275856
0.412186
0.0200456
0.000584825
0.000146206
0
0.000593342
0.000490348
9.29354e-005
0.017434
0.514578
0.0221008
0.000218743
5.34079e-005
0.000429892
0
0
0.000650547
0.0382328
0.514578
0.0184569
0
0
0
0
0
3.48125e-005
0.0195301
0.444601
0.0238155
0.000219068
5.4767e-005
0
0
0.000937048
0.0029884
0.0263164
0.45354
0.0258751
0.00104781
6.10472e-005
7.46133e-005
0
0
0.000243687
0.0226284
0.519687
0.0229058
0
0
0
0.000315064
0.0023666
0.00357509
0.0357054
0.519687
0.0231819
0.000697016
0
0
0.0068543
0.0280608
0.0550728
0.0825343
0.486992
0.0442968
0.00760594
0.00201793
0.00723382
0.0279545
0.0532549
0.0932115
0.0550337
0.0214317
0.00400346
0.0121121
0.00575353
0.0227754
0.021117
0.0347444
0.0391259
0.100731
0.684714
0.049328
0.006826
0.00442301
0.00812582
0.0676746
0.082908
0.051659
0.0235579
0.0723218
0.00941085
0.00455962
0.034207
0.0463251
0.00445569
0.00870575
0.0168966
0.010143
0.0564454
0.0147815
0.00371503
0.00124786
0.00332697
0.00114609
0.00276142
0.00657469
0.0296146
0.504982
0.284185
0.00370614
0.000169789
0.000827617
0.0110243
0.0160471
0.0195396
0.013143
0.0562261
0.00379733
0.00152619
0.00656178
0.011343
0.00254003
0.0059282
0.0162175
0.154402
0.732334
0.0755084
0.00165633
0.00198722
0.00372358
0
3.07362e-005
0.000265042
0.0830877
0.365293
0.19754
0.00873303
0
0
0.0482189
0.0214212
0.00767517
0.110191
0.264749
0.152334
0.0505841
0.00729035
0.0248878
0
0.000215153
0.0010896
0.201436
0.590322
0.0465984
0.00353842
4.44133e-005
0
0.0289313
0.035702
0.012792
0.257878
0.429272
0.0337388
0.0238363
0.000874211
0.00417775
0.252545
0.131831
0.0597962
0.0294614
0.00574521
0.00206624
0.00231109
0.00692108
0.201248
0.288092
0.0453754
0.0668883
0.0974342
0.0971467
0.0463359
0.0450252
0.00937586
0.240426
0.424794
0.0922692
0.051959
0.0405407
0.0111144
0.00238317
0.0234954
0.0330068
0.242017
0.449922
0.0427704
0.068962
0.050649
0.0547547
0.0420363
0.0423294
0.0191576
0.382372
0.0514568
0.0151161
0.0456129
0.066066
0.165515
0.170698
0.0795039
0.00995953
0.0286972
0.00187789
0.00516336
0.00826455
0.0242338
0.203895
0.30328
0.0554358
0.00593609
0.00026914
0.0702728
0.0262165
0.05025
0.0487961
0.0839015
0.337414
0.11603
0.0161421
0.102406
0.00925675
0.0197674
0.0097549
0.0245594
0.114613
0.70961
0.214764
0.0136795
0.00747012
0.0277445
0.0299943
0.0192887
0.0545738
0.20224
0.225107
0.0122426
0.00102352
0.0117407
0.0463826
0.0225552
0.020738
0.0622581
0.0680719
0.0272394
0.029145
0.00464047
0.0291068
0.0258406
0.0401771
0.02556
0.0432714
0.148246
0.767677
0.241903
0.0177378
0.00776415
0.057394
0.059029
0.0345116
0.0400275
0.0291925
0.079022
0.0691117
0.0154895
0.0330088
0.0099894
0.00389346
0.00278353
0.0146909
0.0288626
0.0100682
0.006026
0.000462193
0.00586905
0.0090534
0.00251493
0.00136739
0.036624
0.592682
0.0273789
0.00330971
0
0.00599456
0.0135506
0.0115115
0.00902556
0.0111988
0.0313736
0.00773915
0.00855921
0.00439611
0.00559642
0.01197
0.00376552
0.00361003
0.0284755
0.753769
0.0180442
0.00339815
0.00296738
0.00368234
0.00053387
8.50999e-005
3.3888e-005
0.0156158
0.495277
0.0145324
0.000157672
0
0.000434653
0
0
0.000237216
0.0271811
0.419402
0.0119856
0
0
0
0.000777868
0.00013526
0.000270046
0.0237729
0.512081
0.00981974
0.00012796
8.12426e-005
0.000251166
0
0
0.00189032
0.0340492
0.512081
0.0251657
0.000233494
0
0
0
0
8.67322e-005
0.0141309
0.441579
0.0152568
0
0
0
0.000304818
0.00245131
0.00323391
0.0124196
0.474686
0.0189809
0.000179696
0
0
0
0
0.000691149
0.0102913
0.513057
0.0306797
8.53715e-005
0
0
4.35455e-005
0.00263633
0.00415091
0.00175751
0.513057
0.0232278
0.000107817
0
0
0.00721332
0.0288928
0.0344993
0.0374662
0.49687
0.0410306
0.00690603
0.00441138
0.00157744
0.0261901
0.0472762
0.0397138
0.015748
0.0466311
0.0134455
0.015712
0.0332983
0.021446
0.0106737
0.059546
0.0511431
0.00865117
0.71292
0.0443651
0.0107359
0.00237595
9.91156e-005
0.0391738
0.0782127
0.0642874
0.00529997
0.054433
0.0334319
0.0398128
0.0214142
0.0222767
0.00585099
0.00876271
0.009099
0.0210449
0.0298259
0.00259438
0.00443956
0.00604995
0.00702453
0.00146531
0.00307972
0.0257135
0.331366
0.324132
0.00673595
0.0053107
0.00235091
0.00249264
0.00901863
0.00819126
0.0292102
0.111376
0.0389418
0.00907876
0.00679588
0.00450564
0.00807974
0.0038688
0.0101468
0.189282
0.792481
0.16082
0.00748872
0.00509003
0.00122979
0.00227996
0
9.06372e-005
0.0201231
0.290819
0.419569
0.060088
0.00502138
0.000138249
0
0
0.00553294
0.0075268
0.159518
0.370472
0.122181
0.0326422
0
0
0.0100094
0.030335
0.180371
0.511605
0.203272
0.112641
0.0135378
0.000819473
0.00136783
0.0154495
0.0310384
0.11676
0.122671
0.200826
0.232684
0.10363
0.0162681
0.0498747
0.376908
0.0489882
0.0162754
0.0162975
0.00446803
0.00260423
0.0239478
0.0476824
0.20238
0.37447
0.0320143
0.0216023
0.0744366
0.0949474
0.0416684
0.0189227
0.0580168
0.350363
0.24189
0.125468
0.0700045
0.0345437
0.0186926
0.00692793
0.0250666
0.0397076
0.166313
0.275446
0.128864
0.058537
0.104391
0.28436
0.176428
0.0939608
0.210194
0.231146
0.0560119
0.0382801
0.0174353
0.0844864
0.0725118
0.130921
0.0462665
0.0255598
0.0823056
0.0420556
0.0573153
0.00934984
0.0467413
0.0354579
0.319525
0.357689
0.0434518
0.00720812
0.0529562
0.0493406
0.0229915
0.100432
0.193594
0.237306
0.121423
0.0861576
0.0455155
0.0515096
0.0604693
0.0137949
0.0546646
0.0680598
0.372899
0.587624
0.145319
0.0636482
0.00860863
0.0139126
0.00197673
0.00269819
0.00720863
0.179634
0.29865
0.0205313
0.000256851
0.00440528
0.00989733
0.0059928
0.00716186
0.00191782
0.0472131
0.0674707
0.00375926
0.00243203
0.00942729
0.0123954
0
0.00298263
0.00415963
0.268192
0.708351
0.0922535
0.0290221
0.0036882
0.00511109
0.00579195
0.0208784
0.00300076
0.0919406
0.448127
0.0899403
0.00309556
0.00631596
0.00606989
0.00684093
0.00526737
0.0197251
0.0166939
0.00933174
0.00906909
0.00435648
0.00670264
0.0015689
0.00185114
0.0257874
0.605589
0.0135496
0.00256605
0.00728657
0.00381466
0.0110541
0.00366079
0.00678703
0.0111644
0.0192675
0.0245969
0.049187
0.0443249
0.00693855
0.0121801
0.00174192
0.000969575
0.0239093
0.738389
0.0691733
0.00385939
0.00767987
0.00487984
0.000426171
6.41608e-005
0.000381266
0.0213419
0.496621
0.00912387
9.08477e-005
0.000221269
0.000184734
0
0
0.00266886
0.0220341
0.414868
0.0259571
0.000635934
0
0
0.000764747
0.000100136
0.000813532
0.0117962
0.512689
0.0361663
5.45086e-005
0.000132761
0.00022074
0
0
0.00569473
0.0213056
0.512689
0.0360421
0.00038156
0
0
0
0
0.000956202
0.0047591
0.435141
0.0235661
0.000227843
0
0
5.74326e-005
0.000718563
0.00269727
0.00257793
0.497374
0.0171835
0
0
5.74326e-005
0
0
0.00204031
0.0137153
0.504627
0.0342648
0.000136706
0
0
0.000402028
0.000163547
0.00570598
0.0167738
0.504627
0.0397337
0
0
0.000402028
0.0053664
0.0135567
0.0136028
0.0149706
0.346392
0.0208478
0.00828561
0.00764306
0.00161602
0.0134109
0.0237035
0.055212
0.0232048
0.0262767
0.0202664
0.0275881
0.0210106
0.00704867
0.00526838
0.0288175
0.0451658
0.0462972
0.434033
0.0340257
0.011756
0.0128735
0.00609817
0.00556099
0.159106
0.716467
0.0467417
0.0391508
0.00643221
0.0344687
0.0269398
0.00552403
0.00352483
0.00619496
0.109908
0.0872662
0.0137186
0.0077131
0.00276628
0.00268833
0.00205624
0.0119678
0.0337796
0.280165
0.355283
0.0689483
0.0150832
0.00306993
0.000236489
0.000522513
0.00989193
0.0422177
0.555759
0.0814523
0.00429985
0.00375772
0.00302168
0.00187858
0.00370454
0.0687413
0.0635071
0.56484
0.182972
0.148176
0.0985099
0.0196211
3.37841e-005
0.0248011
0.047283
0.105196
0.255086
0.352843
0.126461
0.0530274
0.00940231
0.00261992
0.00486557
0.13022
0.10093
0.158568
0.0997917
0.058799
0.0726945
0.0387007
0.0532687
0.17162
0.0738207
0.0826516
0.18958
0.192321
0.408619
0.230498
0.045936
0.00157195
0.0185648
0.27383
0.0764972
0.198428
0.110097
0.309735
0.152699
0.0529027
0.0496682
0.156706
0.101925
0.0850295
0.0958744
0.113146
0.0687164
0.0577642
0.0521093
0.0711624
0.0702377
0.127717
0.120528
0.0595477
0.0874987
0.193082
0.140748
0.227831
0.292358
0.0756726
0.167783
0.0885862
0.107433
0.0792706
0.0854507
0.156154
0.143904
0.259376
0.191173
0.182713
0.0542503
0.0498702
0.0736038
0.122081
0.150452
0.276225
0.443588
0.181493
0.0261109
0.0265418
0.0240627
0.0261336
0.142371
0.181061
0.18497
0.145584
0.0379781
0.0272535
0.0481555
0.0171661
0.01195
0.0571951
0.277855
0.427373
0.271581
0.116257
0.0902851
0.0218313
0.0330069
0.0184854
0.041196
0.0367856
0.212468
0.203678
0.10296
0.0770673
0.0679259
0.0243516
0.00660139
0.0163981
0.0965569
0.304081
0.461148
0.165875
0.00625513
0.0189012
0.00185842
0.000651401
0.00293816
0.130447
0.381278
0.139264
0.0316763
0.00351009
0.00286084
0.00167979
0.00455981
0.00105507
0.0478647
0.411326
0.284516
0.00398727
0.0535485
0.0429916
0.00309737
0
0.00041484
0.077205
0.143363
0.234392
0.0993425
0.0343223
0.0250788
0.000442482
0
0.000103814
0.0679322
0.341372
0.533587
0.0814068
0.00415161
0.00071921
0.00301294
0.00238301
0.00806875
0.00533801
0.104809
0.188274
0.0152469
0.00635658
0.000420858
0.0105899
0.0119737
0.349575
0.0411377
0.00825908
0.0548106
0.0264686
0.0132037
0.00309138
0.00246933
0.000617332
0.00275461
0.0189935
0.205883
0.58315
0.0796785
0.0610539
0
0.0172853
0.0676417
0.23036
0.0426885
0.0490553
0.530207
0.177216
0.00201319
4.62472e-005
0.00410509
0.00973437
0.571583
0.0553665
0.00465737
0.00764199
0.00735628
0.00991288
0.00534608
0.0112106
0.0250294
0.48487
0.054437
0.0109025
0.0133253
0.0135151
0.0438647
0
0.00624535
0.0760271
0.393793
0.107675
0.035734
0.147594
0.114362
0.174721
0.0406707
0.0383866
0.0610431
0.274744
0.0866268
0.054336
0.0906015
0.179263
0.00727281
0.00499944
0.01568
0.0344965
0.460075
0.0384856
0.00227611
0.00438301
0.00482746
0.00898435
0.0239977
0.0119034
0.0311967
0.545807
0.037834
0
0.0112077
0.00476968
0.183194
0.0448514
0.0853942
0.0836218
0.298964
0.0199369
0.00837058
0.0232635
0.0746946
0.223439
0.237503
0.0538022
0.0516023
0.402837
0.0266574
0
0.078454
0.0577756
0.0125636
0.117737
0.044503
0.0109109
0.108085
0.00850131
0.000988252
0.00548904
0.00500156
0.0111347
0.244111
0.387954
0.0138387
0.00938699
0
0.00288759
0.0103141
0.00217155
0.136194
0.508363
0.0680736
0.0142149
0.074009
0.0089453
0
0.0387839
0.0355967
0.0809921
0.528634
0.335371
0.0992484
0.0260637
0
0
0.0448764
0.0384007
0.0102845
0.10137
0.553742
0.0681008
0.0078036
0.00483531
0.00124914
0.0341929
0.00774002
0.03274
0.0326997
0.397532
0.194311
0.159329
0.0715943
0.00943822
0.0279342
0.0311165
0.0549274
0.143575
0.290877
0.0847466
0.0233416
0.00805885
0.00648873
0.19002
0.0670117
0.0805928
0.0492275
0.336395
0.23067
0.0748314
0.0386167
0.0164537
0.197756
0.0664392
0.0183734
0.0129976
0.132112
0.203676
0.376954
0.173443
0.0606894
0.00569093
0.0153604
0.0659668
0.00565232
0.0729226
0.0852057
0.287526
0.232502
0.220514
0.12338
0.0244598
0.0457084
0.0409654
0.260647
0.298971
0.169963
0.143532
0.078088
0.0492869
0.0116133
0.0139993
0.0159395
0.0532395
0.109647
0.112499
0.215533
0.310727
0.246259
0.111063
0.0955837
0.0960583
0.103767
0.00960796
0.0557437
0.0949801
0.113358
0.115362
0.0942257
0.242377
0.101651
0.116581
0.0173319
0.0829716
0.0850853
0.0615858
0.133017
0.209457
0.273534
0.117084
0.091746
0.0229962
0.0328016
0.0479796
0.0620206
0.0972591
0.353079
0.311842
0.264832
0.282616
0.15158
0.0443087
0.0313481
0.0385476
0.105348
0.394058
0.170042
0.031307
0.0247122
0.00472917
0.0115271
0.0180106
0.0715544
0.167609
0.175866
0.0604672
0.0104886
0.00343916
0.000818144
0.0361587
0.0562624
0.206752
0.47145
0.177707
0.262378
0.236622
0.100823
0.0489829
0.0244572
0.0444421
0.0415995
0.146824
0.231158
0.209432
0.21861
0.0367697
0.0311776
0.222369
0.156684
0.164485
0.299842
0.18104
0.0522352
0.0246204
0.000615665
0
0.029391
0.0523693
0.115052
0.325447
0.19451
0.0545541
0.0317765
8.79521e-005
0
0.00588793
0.0438957
0.207382
0.385884
0.302947
0.053029
0.0503382
0.0377509
0.0488124
0.173327
0.107112
0.123991
0.185534
0.173946
0.119714
0.0178034
0.0284271
0.0230485
0.0374325
0.0205789
0.133557
0.205096
0.517862
0.0736868
0.00349008
0.000359449
8.98622e-005
0
0.0170645
0.131792
0.353895
0.188557
0.174148
0.00345727
0.00251614
0.03063
0.0337929
0.0145666
0.0789134
0.451348
0.259166
0.159689
0.0146299
0.0164172
0.0021211
0
0.00402417
0.0556492
0.092542
0.381137
0.320963
0.0393635
0.00882265
0.00194998
0.00037258
0.0131784
0.0471113
0.138948
0.370847
0.0739684
0.00263728
0.000895168
0.0422388
0.0592221
0.0337334
0.0326057
0.2263
0.207095
0.229361
0.0183387
0.0142368
0.0291395
0.0337183
0.0222206
0.067664
0.231952
0.223232
0.126441
0.0204455
0
0.00293832
0.000979441
0.0101046
0.0384729
0.22472
0.291052
0.130933
0.00271774
0.000259514
0.00254153
0.000587664
0.00921206
0.109127
0.558451
0.420257
0.282538
0.0381217
0.0488728
0.0289298
0.040636
0.000790549
0.0310263
0.0744324
0.10503
0.349835
0.196135
0.101165
0.0172482
0.0610404
0.00273594
0.00496848
0.0428964
0.0945319
0.244258
0.0309269
0.0297361
0.00180372
0
0.00106258
0.0507124
0.23738
0.394767
0.421279
0.109617
0.135632
0.00108223
0
0
0.0185363
0.075533
0.409361
0.234724
0.410971
0.126653
0.0282051
0.0195355
0.001772
0.0033854
0.0365263
0.0742394
0.0837675
0.28708
0.244508
0.260211
0.0524596
0
0.000483629
0.0401968
0.06044
0.28644
0.167423
0.189331
0.0222865
0.00357388
0
0.0236978
0.107033
0.305252
0.123054
0.178886
0.294825
0.218941
0.0450134
0
0.0033854
0.056929
0.10403
0.104831
0.0982699
0.216407
0.240512
0.0619531
0.00308961
0.0285334
0.265236
0.130705
0.317267
0.146484
0.199509
0.137031
0.0435591
0.0335209
0.0565551
0.311697
0.159351
0.0791418
0.155763
0.226754
0.234539
0.0679802
0.00434639
0.0284047
0.117854
0.0399893
0.19802
0.175001
0.146365
0.110799
0.255492
0.059389
0.0483138
0.137793
0.057039
0.268721
0.241448
0.215974
0.209846
0.0737113
0.153343
0.0626876
0.067132
0.0479724
0.0919877
0.166593
0.161608
0.209709
0.0802329
0.172428
0.137931
0.132944
0.179733
0.258218
0.235445
0.11477
0.0981648
0.268519
0.114021
0.0165099
0.0241351
0.0397742
0.125553
0.214438
0.162906
0.112148
0.0917551
0.134992
0.0312011
0.00554585
0.0759842