0.117063
0.0323588
0.0788621
0.0707799
0.130963
0.157407
0.0343648
0.109036
0.0890206
0.145001
0.0395602
0.155239
0.0991965
0.0902366
0.110018
0.0399714
0.115427
0.136874
0.141113
0.0655233
0.0725505
0.128749
0.311307
0.150313
0.0352126
0.104045
0.096436
0.129398
0.0779647
0.229873
0.224694
0.150551
0.171786
0.0334185
0.0586201
0.113041
0.0672044
0.0442721
0.0974501
0.0606039
0.0536293
0.0940729
0.0697616
0.0269569
0.0478126
0.0459201
0.0745973
0.0509126
0.0572089
0.119924
0.292742
0.136368
0.0123311
0.0227724
0.0294056
0.092412
0.184848
0.122388
0.0507834
0.143054
0.120335
0.018862
0.0304309
0.0394714
0.16167
0.125102
0.0148373
0.143791
0.48053
0.287507
0.029606
0.020602
0.0098654
0.0301363
0.0246942
0.0086168
0.0139685
0.0284857
0.01269
0.00516376
0.00603326
0.0301064
0.100503
0.0408358
0.00993989
0.0122817
0.0118078
0.0106237
0.0072103
0.00312373
0.0169818
0.182972
0.108769
0.00590043
0.0145656
0.048535
0.0268335
0.00298274
0.00559191
0.136889
0.872116
0.192949
0.00983405
0.00708377
0.00300068
0.00237501
0.000309911
0.000798844
0.0787884
0.0678722
0.00941351
0.00284507
0.0036467
0.00234922
0.00270873
0.00221893
0.00367566
0.249161
0.0480028
0.00284385
0.000339353
0.0015329
0
0.00110908
0.00927732
0.0416807
0.22488
0.471765
0.0786182
0.000782655
0.00218802
0.000335603
0.00014383
0.000157373
0.00692579
0.680588
0.293186
0.0632311
0
0.000268354
0.00210315
0.0189284
0.00110161
0.108166
0.181772
0.0104269
0.000606837
0
0.00453808
0
0.000463909
0.00296783
0.0532282
0.214537
0.0100473
0.000702966
0.00083856
0.00499186
0
5.76027e-005
0.00216632
0.128864
0.504802
0.0438148
0.0158942
0
0
0.00171817
0.0154635
0.000331077
0.18984
0.630176
0.0217658
0.00956661
0.00328231
0
0.000245453
0.00308928
0.0168944
0.37722
0.121035
0.00803129
0.00176165
0.00258674
0.00205849
0
0.00111249
0.00943341
0.177729
0.0513182
0.00617615
0.00234351
0.00155205
0.00760898
0
0.0160721
0.0710757
0.202034
0.38931
0.0194063
0.0101251
0.0101251
0
0
0.00387594
0.0560755
0.442201
0.139835
0.00824896
0.00607505
0.00607505
0.000645328
0
0.121263
0.38105
0.547955
0.0248074
0.00244881
0.00106408
0
0.0135575
0
0.020084
0.090802
0.0929949
0.0328452
0.00955557
0.00483091
0.0166471
0.0260466
0.0173133
0.0077712
0.0321544
0.0410839
0.0325181
0.00188194
0
0
0.00260956
0
0.241831
0.608353
0.304212
0.0238495
0.012128
0.00356418
0.0139491
0.0210422
0.00890806
0.173042
0.537865
0.183937
0.00415715
0.00196937
0.00189529
0.0103078
0.151247
0.027497
0.00169035
0.00162209
0.00326675
0.000238519
0.000128433
0.00397875
0.0154592
0.653468
0.056825
0.00793298
0.004892
0.0031552
0.00151301
0.00178389
0.00142506
0.00557723
0.196321
0.0300997
0.0260556
0.0672327
0.0109111
0
0
0.0112582
0.00876891
0.653468
0.0957047
0.00644874
0.010361
0.00189312
0
0
0.0106995
0.0104177
0.570806
0.0706005
0.0204543
0.0141159
0.00910435
0
0
0.00709678
0.0715539
0.249032
0.0774972
0.0127067
0.00977175
0.00546261
0
0
0.0318981
0.0290838
0.584091
0.0908569
0.00155907
0.00361672
0.00546261
0.00773585
0.00208538
0.0320129
0.0837533
0.412796
0.0849001
0.00397392
0.0112855
0.00744302
0.0423
0.0248514
0.0320558
0.0723527
0.365108
0.128892
0.056361
0.0261891
0.0279642
0.0691289
0.0304594
0.09816
0.0793009
0.153369
0.0891667
0.0978901
0.0261203
0.0602247
0.117725
0.0401426
0.0211742
0.0658378
0.409865
0.229287
0.117356
0.0739289
0.10738
0.161115
0.102669
0.085198
0.0336732
0.112266
0.0929932
0.231816
0.142127
0.155783
0.00907821
0.0136317
0.0318854
0.018445
0.0116474
0.0301923
0.0250211
0.00488174
0.00566264
0.0198131
0.123094
0.159494
0.0125047
0.0372458
0.0687223
0.0253044
0.00300568
0.00429009
0.0192894
0.0573824
0.103309
0.0946475
0.0114371
0.0169496
0.035152
0.0263778
0.00884488
0.0588376
0.564955
0.667391
0.233143
0.0273024
0.0232868
0.0102401
0.0105372
0.0011694
0.0139253
0.142805
0.148157
0.00777933
0.00572661
0.00972341
0.00271715
0.000189749
0.00183124
0.0668074
0.436015
0.155755
0.0110935
0
0.000199557
0.000154546
1.56973e-005
0.000261605
0.0439335
0.295625
0.38944
0.0767653
0.00314043
0.00233386
0.000118313
0
0.000261605
0.0902565
0.568407
0.317162
0.0490895
0
0
0
0
0.00361577
0.118769
0.415095
0.0749432
0.00173951
0
0.00124675
0.000311688
0.00609835
0.00971981
0.233267
0.227798
0.0644951
0.0182276
0.0534163
0.0518557
0.0401226
0.0426885
0.0804302
0.110126
0.497862
0.0736108
0.00663902
0.0113219
0.01151
0.00383608
0.0120106
0.0226652
0.107476
0.199722
0.0323192
0.0595635
0.515533
0.138061
0.0407943
0.0742252
0.0642345
0.200357
0.0714682
0.0576319
0.0512532
0.0604263
0.0479341
0.0400771
0.0183226
0.128659
0.282056
0.0653742
0.0398731
0.0456769
0.0463191
0.0393614
0.0365611
0.0569898
0.246363
0.0524644
0.0675754
0.0613156
0.164514
0.598905
0.112856
0.0308892
0.0348171
0.0523683
0.0665767
0.0816923
0.0427719
0.12164
0.458167
0.15208
0.0605742
0.0766484
0.136258
0.168573
0.0322132
0.040493
0.041677
0.0855082
0.0333489
0.0319868
0.0660861
0.1614
0.0919441
0.0266965
0.04421
0.0277564
0.055211
0.00589041
0.122728
0.270104
0.255517
0.0399414
0.0322265
0.0448796
0.0667371
0.622985
0.134319
0.0505678
0.0515832
0.0693651
0.0624462
0.0415163
0.0647216
0.0628345
0.415416
0.0389993
0.0851188
0.229384
0.152051
0.0090416
0.00244146
0.0035061
0.000484193
0.00112978
0.00217721
0.146129
0.304723
0.121411
0.00362917
0.00248602
0.000214062
0.000397543
0.00276793
0.0272135
0.2014
0.375183
0.0859696
0.0306433
0.00986998
0.00860862
0.00490483
0.0194347
0.00783153
0.119608
0.391812
0.0967298
0.031521
0.0138089
0.000278443
0
0.000212029
0.112243
0.367044
0.542175
0.0671426
0.00219997
0.00162296
0.000171513
0.00919518
0.112988
0.0301521
0.0943014
0.145176
0.00868894
0.000301771
0.000201181
0.00332311
0.0261657
0.53464
0.133857
0.0239581
0.0468366
0
0.0234719
0.011597
0.00697915
0.0185524
0.0615418
0.0868583
0.259416
0.27434
0.00584166
0.0331798
0.00615048
0.0490187
0.0597392
0.53464
0.322171
0.144645
0.153452
0
0
0
0.00856089
0.035817
0.497835
0.0961267
0.000962461
0.000641641
0
0.00618766
0.00453418
0.0261621
0.0810167
0.318307
0.0370271
0.00089409
0.00268227
0.00333182
0.00884936
0.00114998
0.0175868
0.0489872
0.497835
0.242987
0.0132101
0.00726557
0
0.000883952
0.00272051
0.0110186
0.139689
0.497835
0.0707249
0
0
0.000475974
0.05628
0.0145936
0.0103208
0.00914379
0.12043
0.107591
0.0365028
0.0609749
0.0862892
0.0643098
0.0540053
0.075188
0.0981782
0.0324623
0.038944
0.0433792
0.109922
0.11334
0.028604
0.0395027
0.0276917
0.0404191
0.15793
0.215289
0.040369
0.0537481
0.0514196
0.0144043
0.029118
0.246536
0.722526
0.16258
0.0539132
0.0115202
0.113901
0.0715483
0.00660786
0.0319005
0.0986132
0.12085
0.00483729
0.00591894
0.00495802
0.00953558
0.00365852
0.0291984
0.23737
0.349913
0.211769
0.00647284
0.00104997
0.000840614
0.00185241
3.93659e-005
0.00239528
0.0250691
0.168338
0.390424
0.0389657
0.0128639
0.00160935
0.00607518
0.0022574
0.0143461
0.197178
0.520173
0.444343
0.0392141
0.00754316
0.000229908
0
0
0.03354
0.282662
0.458041
0.131158
0.0019911
0
0.000126249
4.20831e-005
0
0.0550264
0.325466
0.3545
0.0504386
0.0102015
0
0.000883746
0.000294582
0.00728245
0.0171734
0.195251
0.515017
0.157597
0.0183098
0.00110579
0.000883746
0.000848554
0.00156859
0.0244202
0.0936107
0.213484
0.0208012
0.0231265
0
0.00618622
0.00593988
0.00738913
0.0428114
0.140022
0.0487112
0.00559379
0.0306258
0.00916846
0.00345149
0.00634267
0.0152027
0.0229049
0.036535
0.00404354
0.0314645
0.662471
0.0477173
0.00947916
0.0175894
0.0125662
0.00965838
0.0120065
0.0244291
0.0106534
0.0618499
0.00590564
0.00282446
0.00478938
0.00561066
0.00229014
0.00147836
0.00412731
0.0581558
0.674885
0.0125115
0.0015042
0.00490662
0.00192079
0.00460417
0.0051014
0.00451534
0.0451539
0.489244
0.0331369
0.00241888
0.00439499
0.00206672
0.00560168
0.0073015
0.00359957
0.0370035
0.406683
0.0539356
0.00909232
0.00951213
0.00810047
0
0
0.000119246
0.051532
0.514571
0.0148448
0.000237816
0.000441245
0
0
0
0.000198743
0.0611543
0.514571
0.0205392
0.000717817
0
0
0.0014079
0.00303777
0.00342881
0.0232462
0.53241
0.0397444
0.00637918
0.00436468
0.00469089
0.0114875
0.0106667
0.008853
0.0236379
0.351969
0.0158688
0.00872766
0.0294986
0.0118827
0
0
0.000184991
0.057238
0.533234
0.00460541
0.000284741
0
0
0.00180443
0.00541769
0.00416885
0.0384484
0.496397
0.00406195
0.00266013
0.000544362
0
0.0499775
0.0238624
0.00872835
0.0083758
0.0639788
0.0156468
0.077337
0.237177
0.0314195
0.0421518
0.0161127
0.00120126
0.000168525
0.00196991
0.221528
0.626491
0.439391
0.0274153
0.0106888
0.0172798
0.0123672
0.0156607
0.0961055
0.0126677
0.0311098
0.0269695
0.00308009
0.0138356
0.00559056
0.00455401
0.00117967
0.0102206
0.176377
0.375472
0.124716
0.0114542
0.0360978
0.01032
0.00895806
0.00846196
0.0101409
0.12576
0.340338
0.160413
0.00492576
0.105283
0.0165641
0.0737469
0.0838296
0.261521
0.299937
0.193172
0.105711
0.0235918
0.0190543
0.00350406
0.00358757
0.0100869
0.0157415
0.234614
0.336017
0.0817615
0.00732283
0.0625937
0.0095545
0.160231
0.19276
0.140424
0.464408
0.262302
0.0794987
0.0393196
0.0288698
0.00375166
0.0335567
0.112444
0.377114
0.249755
0.0157632
0.00960705
0.00805038
0
0
0.00512446
0.248427
0.406375
0.0829746
0.00112711
0
0
0.0173219
0.002251
0.147327
0.305984
0.202299
0.270013
0.0345731
0.016333
0.0144463
0
0
0.0435349
0.427445
0.258748
0.0992444
0.018496
0.0293693
0.00720277
0.0354221
0.0317437
0.0167437
0.0241699
0.0202429
0.0221299
0.00376771
0.0124352
0.0792178
0.0125249
0.0723192
0.196638
0.206042
0.0664791
0.00322248
0.000572843
0.0104359
0.0398293
0.303878
0.0715027
0.0209027
0.0123705
0.00245519
0.00134098
0.00109984
0.0962669
0.474231
0.424795
0.316526
0.311343
0.0933691
0.105517
0.0020133
0.0167523
0.0211004
0.307901
0.00101442
0.0230134
0.183201
0.3475
0.0737694
0.00493049
0.000215705
0.00106817
0.00168955
0
0.0445566
0.256924
0.441183
0.0894233
0.0116338
3.0815e-005
0
0
0.0739961
0.10152
0.216862
0.29855
0.222366
0.00426341
0.0121901
0.00545395
0.0703065
0.00186337
0.00611824
0.0874742
0.479929
0.25779
0.0119213
0.0025865
0.00102802
0.0074535
0.0132765
0.105029
0.538829
0.466741
0.140786
0.032227
0.00739677
0.00603427
0.00765282
0.0352932
0.0320085
0.11048
0.0227633
0.0551231
0.00841921
0.0203241
0.0284366
0.028029
0.00536357
0.00223398
0.0602571
0.419936
0.252248
0.0509047
0.0289917
0.0223149
0.0054089
0.0259362
0.0340628
0.0262945
0.00971968
0.0684474
0.032668
0.0543816
0.0507893
0.0234033
0.00378352
0.00406836
0.00797408
0.003684
0.0486097
0.00435151
0.00133745
0.00331958
0.00375604
0.000387523
0.00140147
0.00334424
0.0331984
0.678075
0.00725251
0
0.000225412
0.000402844
0.00446279
0.00954593
0.0123356
0.00383205
0.0628387
0.00956022
0.00299349
0.00451833
0.00375853
0.000567358
0.00250177
0.0117999
0.0735409
0.678075
0.0129898
0
0.000375686
0.000462452
0
0
0
0.0301426
0.50121
0.00426417
0
0
0
0
0
0
0.0463109
0.434453
0.00632014
0
0
0
0
0
0.000665206
0.0538492
0.50121
0.00304992
0
0
0
0
0
0
0.0453652
0.50121
0.00652138
0
0
0
0
0
0.000325552
0.0595081
0.540789
0.00168423
0
0
0
0.000262717
0.000648202
0.00392381
0.0481456
0.362632
0.00361286
0.00425839
0.00111082
0.00016997
0
0
0.000195331
0.0526466
0.540789
0.0140491
0
0
0
0.00145277
0.000786255
0.00561932
0.0445081
0.467665
0.0251691
0.00173197
0.000561753
0.00145277
0.0124174
0.0109858
0.0412789
0.103551
0.324905
0.031726
0.10445
0.0466223
0.0138009
0.0379833
0.0103391
0.0323152
0.0162369
0.0903952
0.282607
0.33505
0.106891
0.0419288
0.0264285
0.0112926
0.0925183
0.173832
0.422535
0.0636069
0.0402854
0.0175216
0.0273371
0.0464316
0.0165004
0.0931887
0.137509
0.115983
0.0987588
0.138865
0.0494301
0.0545826
0.00168157
0.00025077
0.00158348
0.00363953
0.0565737
0.159776
0.0842106
0.0153789
0.00246351
0.00121094
0
0.0904682
0.0857585
0.249748
0.525629
0.0945414
0.0194748
0.00611993
0.00317015
0.00053319
0.00256188
0.00377701
0.104499
0.102838
0.015676
0.0043078
0.00382263
0.0142378
0
0.0114941
0.0182536
0.448144
0.566256
0.0203794
0.00167723
0.0129685
0.00362038
0.000901267
0.126859
0.208413
0.242894
0.320325
0.0251431
0.0093907
0.00662891
0.00217223
0.00301851
0.0600294
0.279003
0.232746
0.0552128
0.0410789
0.0390917
0.0110612
0.0645486
0.0240972
0.0725612
0.0714461
0.311698
0.559756
0.0246674
0.00275907
0.0519843
0.0587325
0.0520682
0.220604
0.225641
0.159009
0.057975
0.0306557
0.0153148
0.0965152
0.28029
0.08357
0.0303644
0
0
0.0200289
0.0113887
0.126823
0.312778
0.467417
0.191834
0.0981082
0.0325151
0.170349
0.0520849
0.0981251
0.0439375
0.23225
0.228071
0.0984929
0.0361815
0
0
0.0333815
0.0423767
0.107969
0.155408
0.120406
0.0574333
0.0828808
0.0514514
0.274795
0.0846438
0.300518
0.180445
0.151005
0.0771372
0.0443797
0.0489723
0.131885
0.360238
0.0168304
0.0433575
0.0152757
0.0649491
0.00184845
0.00259582
0.0128061
0.19559
0.360806
0.00903923
0.00553411
0.00229193
0.0073938
0.0165697
0.00647814
0.0451502
0.129947
0.539664
0.0844529
0.11418
0.0515875
0.0175871
0.000264064
0.00173754
0.0129677
0.145465
0.483975
0.139559
0.0321709
0.00547753
0.00105626
0.0131188
0.0143063
0.0592493
0.274426
0.430235
0.0235385
0.029509
0.0187698
0.0131188
0.0468722
0.0428466
0.0987289
0.0382553
0.0894058
0.0402338
0.0405289
0.0346282
0.0446188
0.0153019
0.0310012
0.130224
0.191255
0.449573
0.237937
0.0619167
0.0112029
0.0153019
0.0750321
0.0288189
0.140303
0.0726793
0.173774
0.0068745
0.0366104
0.0366801
0.079384
0.00367666
0.005769
0.0154734
0.0107263
0.0456439
0.00740049
0.000994338
0.00141532
0.00338042
0.000469663
0.00382757
0.0161797
0.0828262
0.676302
0.00969585
0
0.000116996
0.000427343
0.00668133
0.00352286
0.0106616
0.0153788
0.0651148
0.00860994
0.0013077
0.00367797
0.00725346
0.000857727
0.00474566
0.0108545
0.0590126
0.676302
0.0233795
0
0.000463153
0.00093946
0
0.000242254
0.00111449
0.0485251
0.495529
0.00435014
0
0
0
0
0
0
0.0402607
0.446875
0.00777231
0
0
0
0
0.000403756
0.000844775
0.0228778
0.499505
0.013798
0
0
0
0
0
0
0.0384474
0.499505
0.0129621
0
0
0
0
0
0.000427728
0.0371996
0.543277
0.0155455
0
0
0
0.00133678
0.00137314
0.00728009
0.0220136
0.357454
0.0275623
0
0
0.00133678
0
0
0.00071288
0.0416285
0.543277
0.0162589
0
0
0
0.0018562
0.000867552
0.00739191
0.0326293
0.470402
0.031694
0
0
0.0018562
0.0336049
0.0276629
0.120552
0.103453
0.372193
0.0718281
0.0055031
0.0176357
0.0367171
0.0358929
0.0353552
0.143655
0.115534
0.0436556
0.0545889
0.0648886
0.0649937
0.0631849
0.0471808
0.0370872
0.133519
0.103383
0.508578
0.0903502
0.00139566
0.0221092
0.0510824
0.0614383
0.0577951
0.191103
0.0719915
0.0930782
0.024513
0.0504343
0.126526
0.0920536
0.00233298
0.00171029
0.00738178
0.00837201
0.0763962
0.0579337
0.00772415
0.00491742
0.00495715
0.0132518
0.000141666
0.00733802
0.036363
0.458397
0.493688
0.0201246
0.00186202
0.0128895
0.00197571
0.00242113
0.0118176
0.0396679
0.0766007
0.0251035
0.00883422
0.00778622
0.00417912
0.00132687
0.000236111
0.0827497
0.389773
0.529622
0.13612
0.0118833
0.00162532
0.00153689
0.0648748
0.0268825
0.0669988
0.0940225
0.309951
0.384102
0.0481956
0.0066629
0.053214
0.0776025
0.0564615
0.197519
0.152452
0.0867607
0.0453689
0.0320979
0.0344063
0.139833
0.00748736
0.00339713
0.25622
0.460928
0.354952
0.0918946
0.0353531
0.00935893
0.00722647
0.0281558
0.0113845
0.238865
0.208785
0.0954705
0.039938
0.0818185
0.0744988
0.12326
0.298745
0.0592971
0.0046941
0
0
0.00507688
0.0205947
0.0565385
0.246618
0.0490964
0.00393488
0.0294484
0.0129906
0.13756
0.0601778
0.298356
0.264118
0.2992
0.238854
0.110524
0.0157587
0.00673488
0
0
0.00231912
0.0545134
0.234786
0.0417612
0.0177305
0.00733824
0.0112248
0.0571945
0.328244
0.257688
0.293198
0.299211
0
0
0.0150119
0.0291506
0.218422
0.140268
0.188636
0.063591
0.0219871
0
0.000683316
0.00446748
0.0367446
0.21075
0.235871
0.139081
0.00543809
0
0.00017839
0.000118926
0.000339618
0.000792443
0.0927805
0.3957
0.297059
0.0643111
0.0234109
0
3.81407e-005
0.000114422
0.00679322
0.154694
0.533678
0.385958
0.0196442
0
0.00409253
0.00665316
0.0290139
0.0465067
0.138515
0.220567
0.103612
0.00915628
0.00409253
0.0299459
0.00848061
0.0382263
0.0212953
0.0440329
0.00281725
0.0311275
0.01442
0.0307012
0.00100885
0.00539677
0.0224881
0.0389953
0.229306
0.626016
0.523578
0.0355218
0.00100885
0.0155457
0.0238667
0.083057
0.0217497
0.081616
0.0346559
0.0834782
0.0113042
0.0155457
0.00596089
0.00103201
0.00313721
0.0116542
0.052937
0.00549492
0.00311836
0.00223853
0.0061725
0.000727365
0.000660265
0.00125508
0.0462462
0.675229
0.0193036
0.000257666
0.000257186
0.000757594
0.00348214
0.00308957
0.0103981
0.0204593
0.0780346
0.00874151
0.00319392
0.00106464
0.00348214
0.000435991
0.000225312
0.00111481
0.0928604
0.675229
0.0283522
0.000429443
0.000143148
0.000435991
0
5.48718e-005
0.000101905
0.0141179
0.497922
0.0129267
0
0
0
0
0
0
0.0248141
0.451098
0.0105984
0
0
0
0
0
0
0.0344098
0.497922
0.0132908
0
0
0
0
0
0
0.0314562
0.497922
0.0107254
0
0
0
0
0
9.67436e-005
0.0367013
0.544451
0.00851923
0
0
0
0.00184642
0.000430759
0.00109647
0.0246111
0.358889
0.0238247
4.67317e-005
0
0.00176494
0
0
0
0.0404459
0.544451
0.00943027
0
0
0
0.00225739
0.00251217
0.000691699
0.0248501
0.467856
0.0278037
0.00138441
0.00124853
0.00437529
0.0408251
0.0121879
0.0298379
0.0381865
0.396579
0.0982512
0.00318475
0.00750174
0.0411275
0.0529672
0.0145928
0.0746238
0.0644226
0.118833
0.0613072
0.0400498
0.0454463
0.0592235
0.0383851
0.0376277
0.0270805
0.0233509
0.475351
0.141024
0.0413803
0.0422986
0.0686939
0.017686
0.0284231
0.215936
0.237324
0.167758
0.117744
0.0452169
0.0878671
0.0377799
0.00141891
0.000507952
0.00844683
0.0737937
0.0608646
0.00781586
0.00431499
0.00252972
0.00164431
0
5.13472e-005
0.0976039
0.539045
0.202525
0.0113606
0.0012423
0.000388663
0
0.000202702
0.0178301
0.119909
0.183831
0.0579229
0.00642207
0.00097788
0.00495823
0.00134519
0
0.0649675
0.324966
0.63379
0.153702
0.00412898
4.85892e-005
0.000618174
0.000150494
0.000593414
0.00266365
0.22407
0.491975
0.0942602
0.00407423
0.00679946
0.00806764
0
0.0110722
0.00864091
0.152873
0.163853
0.0149753
0.0100081
0.0475962
0.0636215
0.0950974
0.0105383
0.0663961
0.251886
0.611639
0.153122
0.000659184
0.0032917
0.00384476
0
0.0790429
0.0997632
0.0871796
0.23682
0.0815556
0.00728303
0.0541612
0.0603778
0.0779613
0.115031
0.150518
0.048204
0.0224055
0.0108694
0.0167214
0.020887
0.0548484
0.109043
0.0333029
0.0522671
0.0222754
0.028509
0.1121
0.612325
0.330519
0.236994
0.118739
0.0315725
0.0712736
0.0272018
0.0782737
0.0733822
0.0322867
0.0324605
0.0715943
0.0344267
0.0392654
0.0442417
0.022659
0.0622497
0.163632
0.187265
0.29394
0.130332
0.0387695
0.000441676
0.000294451
0.000309336
0.000721785
0.040733
0.240217
0.211953
0.0476702
0.00357468
0
0
0
0.000837387
0.0485814
0.337088
0.43621
0.0992817
0
0.00212736
0.00113062
0.00227228
0.00489962
0.0320209
0.136296
0.247384
0.0529089
0.00225935
0
0
0.000318299
0.000591127
0.00723877
0.303708
0.538291
0.241444
0.0145609
0
0.000541558
0.00185031
0.00139713
0.0248948
0.161525
0.316289
0.0552267
0
0.0018881
0.00634428
0.0121271
0.00418882
0.0203964
0.0266598
0.09842
0.0177258
0.00118566
0
2.38775e-005
7.16324e-005
0
0.00420918
0.159814
0.621818
0.263799
0.0198517
0.00336576
0.0058202
0.0045869
0.0115794
0.00904718
0.036424
0.494252
0.26298
0.0197373
0.00198935
0.00523147
0.0112072
0.0146983
0.052544
0.0141728
0.00690959
0.0014209
0.00124924
0.000284193
0.000728667
0.00464578
0.0372524
0.670403
0.0393765
5.78712e-005
1.92904e-005
0.000178463
0.0108534
0.00683083
0.0150912
0.0300942
0.0486258
0.0103553
0.0919484
0.0900123
0.0225979
0.00974916
0.00155225
0.0146203
0.0809098
0.670403
0.0290081
0.0045025
0.0105693
0.0137556
0
0
0.000155341
0.017465
0.495471
0.0118793
0
0
0
0
0
0
0.0300494
0.451269
0.00620026
0
0
0
0.000758126
0.00277669
0.00317035
0.0517699
0.497341
0.0166697
0
0.00163555
0.00357391
0.00155167
0.0113271
0.00380144
0.0469995
0.497341
0.0168916
0
0.00272591
0.00506241
0
0
0
0.0324013
0.551805
0.0111026
0
0
0
0.000800251
0.00177531
0.000712896
0.0168831
0.362716
0.0252879
0.00308611
0.00191092
0.00318652
0.00283981
0.00476819
0.000600282
0.0561407
0.551805
0.0176985
0
0.000430447
0.000799402
0.0366119
0.0233811
0.00424251
0.0589978
0.43993
0.0220493
0.00177725
0.000724354
0.00192276
0.00233552
0.00650372
0.0101116
0.0114773
0.0630959
0.0145845
0.00850961
0.00551953
0.00694352
0.00372286
0.031274
0.198193
0.0834953
0.0195721
0.0156213
0.00520025
0.00991483
0.00345435
0.0769816
0.125488
0.112436
0.0469291
0.0663265
0.00835127
0.00362275
0.00145077
0.00838009
0.0642278
0.403469
0.796225
0.162439
0.0216961
0.00819388
0.00104618
0.00125244
0.00491178
0.00395937
0.0343368
0.258337
0.117652
0.00830919
0.00285676
0.000288356
0.00343931
0.000825425
0.00237562
0.10969
0.426169
0.223533
0.0558544
0
0.000446877
0.000823076
0.000114362
0.0313119
0.166693
0.512873
0.127195
0.00490325
0.00158684
4.11936e-005
0.000471181
0.000114362
0.0175996
0.151534
0.517283
0.121721
0.0812502
0.00558551
0.00312814
0.00262474
1.63375e-005
0.00731762
0.103487
0.220348
0.222786
0.203494
0.000279503
0.000975931
0.000562062
0
0.0519369
0.0839263
0.0435191
0.157241
0.235023
0.0257352
0.0550689
0.028959
0.014465
0.00135589
0.0769667
0.178122
0.116467
0.425064
0.0207542
0.00449089
0.00367437
0
0.00590437
0.0277199
0.0170721
0.146675
0.655252
0.0621133
0.0254142
0.00446422
0
0.0798695
0.112084
0.0366335
0.140618
0.112849
0.0719312
0.0349356
0.121084
0.0959428
0.110814
0.0736002
0.118536
0.186381
0.152485
0.123305
0.169514
0.150938
0.107755
0.091228
0.142304
0.143348
0.0492115
0.0375681
0.0664971
0.108531
0.143634
0.145376
0.0837661
0.068103
0.269559
0.0995675
0.0488147
0.095076
0.220805
0.227411
0.136049
0.00495247
0.00231246
0.012959
0.014265
0.025035
0.111089
0.13843
0.0302834
0.00369655
0.00164517
5.48201e-005
0.00230817
0.00291804
0.0139105
0.240899
0.745933
0.338562
0.0282636
0.00836741
0.00441271
0.0250239
0.0105324
0.0200478
0.0269944
0.034813
0.0172631
0.00841911
0.0247475
0.00422811
0.00547053
0.00323136
0.0290136
0.0520729
0.318526
0.223602
0.0252654
0.000303072
0
0
0
0.000770761
0.0521929
0.385
0.237536
0.0217458
0.00156741
0.000572921
0.000428142
0.00261804
0.000275655
0.018354
0.360321
0.34964
0.0534289
0.00983434
0.00175361
0.000299402
0
0.00239114
0.0183374
0.197342
0.280041
0.0369348
0.00328687
0.000236259
0
0
7.53381e-005
0.00940267
0.330046
0.493811
0.126686
0.014023
0.00778469
0.0052051
0.012644
0.0179145
0.00168912
0.146781
0.211598
0.108099
0.0257316
0.048142
0.00715121
0.0789207
0.456609
0.017183
0.0280709
0.0740688
0.103351
0.0107516
0.0113871
0.000511086
0.00336955
0.00369193
0.000119379
0.198266
0.415968
0.311149
0.127207
0.0797096
0.00085181
0.0358717
0.188467
0.0076357
0.0433997
0.257339
0.440924
0.0308062
0.0289521
0.00416944
0.0735601
0.50807
0.0376377
0.0462989
0.0232683
0.0517061
0.0849338
0.0550026
0.0504192
0.0749616
0.400807
0.0374302
0.0277793
0.0169272
0.0689885
0.240506
0.0398209
0.000588552
0.0259653
0.210468
0.0209499
0.0771648
0.0757344
0.249681
0.435627
0.0565359
0.0758351
0.0373473
0.118869
0.0248793
0.0462989
0.0252397
0.294163
0.0512026
0.0225733
0.0475328
0.0806827
0.525317
0.0471415
0.00468211
0.0280057
0.0186507
0.150936
0.11711
0.0381696
0.0526174
0.30607
0.0497791
0.00780351
0.0442199
0.00716449
0.326658
0.0395407
0.0780693
0.0392921
0.180598
0.0463504
0.00780351
0.0451041
0.160895
0.471883
0.273493
0.0854647
0.0109696
0.11091
0.0420918
0.0130059
0.0736998
0.0809142
0.0928993
0.211011
0.131465
0.0112305
0.0130878
0.00455885
0.000938577
0.0053186
0.00232942
0.0729793
0.403251
0.400934
0.0510995
0.0059173
0
0
0
0.00102554
0.175143
0.378381
0.183464
0.00049565
0.00273363
0.00294675
0.00165491
0.00886434
0.00851813
0.12625
0.490369
0.279228
0.00997135
0.000643074
0.00253291
0.00108553
0
0.0110579
0.0461468
0.400874
0.53406
0.121753
0.00750562
0.000861633
0.000369271
0
0
0.0183988
0.210558
0.373709
0.0991406
0.123817
0.0438523
0.00319526
0.00174271
0
0.0638099
0.348949
0.258871
0.0392186
0.00103176
0.00954097
0.0061671
0.000692704
0.00890381
0.00909483
0.123402
0.095749
0.0335448
0.115338
0.12234
0.0138643
0.00115451
0.00186843
0.00141899
0.019022
0.0416485
0.0229348
0.313782
0.0615299
0.00163509
0.00118165
0
0
0
0
0.0427936
0.528261
0.0611137
0.000206321
0.000168808
0
0.00106618
0.00597683
0.0067507
0.00569743
0.382545
0.139974
0.00236228
0.000105943
0
0
0
0
0.0339687
0.610852
0.100002
0
0
0
0.0581278
0.0674773
0.10267
0.0252869
0.0440107
0.00635203
0.076982
0.123408
0.0843728
0.0813607
0.0994419
0.0918025
0.0170251
0.0652083
0.0105867
0.183621
0.189378
0.0887599
0.0421182
0.0541146
0.148275
0.157861
0.0479013
0
0.0889725
0.171287
0.0861096
0.129043
0.405061
0.193667
0.224655
0.0933976
0.0504151
0.18235
0.100139
0.0642671
0.0516359
0.0588677
0.0420713
0.00872179
0.081972
0.0183977
0.108422
0.0906985
0.0486258
0.124542
0.0362243
0.0356729
0.0269029
0.145111
0.0558443
0.186318
0.251938
0.0977108
0.0705153
0.239459
0.0523264
0.0465596
0.189856
0.138703
0.178029
0.0747548
0.0428527
0.0448526
0.0362232
0.0475028
0.135062
0.449699
0.253327
0.122224
0.035098
0.03862
0.0320864
0.00655132
0.0038025
0.0153813
0.0120507
0.00834593
0.0940949
0.260946
0.0599479
0.0230045
0.00207341
0.0051682
0.0109091
0.00222451
0.00366869
0.393124
0.717399
0.271003
0.0103059
0.00205109
0.00786453
0.077203
0.0525917
0.044268
0.0193425
0.0211804
0.0119191
0.0259682
0.00506814
0.0108954
0.0568681
0.015574
0.036437
0.0762702
0.153987
0.120801
0.0110457
0.00245038
0.000996583
0.000232261
0.000165187
0.00137667
0.105543
0.293941
0.366078
0.165912
0.0160037
0
0.000839572
0.0159737
0.000196666
0.0133025
0.19253
0.660691
0.0139536
0.0026613
0.00438464
0.00162582
0.00115631
0.0133953
0.0240654
0.0932601
0.176805
0.0919513
0.00391222
0.00457603
0.00053318
0.000152963
0.00569442
0.0127256
0.0921872
0.373098
0.310781
0.00860588
0
0.000899052
0.017082
0
0.0143438
0.0440169
0.405582
0.539153
0.0367853
0.0138927
0.000859632
0.00636662
0.00211418
0.0090432
0.00797531
0.357303
0.15767
0.00379144
0.00145726
0.00155201
0.00166239
0.00426373
0.0121125
0.0296902
0.284883
0.299587
0.0326652
0.00318034
0.000931207
0.0116367
0.00576396
0.0171735
0.0115497
0.212505
0.506085
0.0648242
0.0148911
0.000783743
0.0114399
0.00615993
0.00287325
0.00892576
0.17228
0.58844
0.244432
0.037517
0.000111963
0.00751879
0.00369596
0.00331384
0.0150994
0.0948744
0.305309
0.0540191
0.00316115
0
0.00458855
0.00178705
0.0154554
0.005136
0.0581753
0.321955
0.0941614
0.0032029
0
0.00458406
0
0.00792831
0.0078628
0.0624467
0.420029
0.52394
0.173643
0
0.0034834
0.00178614
0.00192466
0.00593528
0.0495762
0.210957
0.439409
0.172137
0.00478289
0.00209004
0.0213964
0.0126788
0.00451649
0.0506359
0.225637
0.131207
0.024391
0.0160327
0.0243838
0.00107168
0.00396823
0.0154505
0.0723064
0.12407
0.0856357
0.0503166
0.0384238
0.0146303
0.0128378
0.0300645
0.049049
0.106821
0.176227
0.275089
0.152158
0.0308629
0
0.041004
0.029133
0.00745761
0.0469856
0.0528812
0.0707616
0.0811904
0.0529097
0.281015
0.311722
0.0533244
0.0141762
0.0148613
0.277492
0.070342
0.0549171
0.0205469
0.0083174
0.0264357
0.0331199
0.15409
0.222801
0.192013
0.063744
0.172196
0.184044
0.288185
0.179762
0.0511543
0.196435
0.072589
0.000756517
0.000704667
0.00232433
0.00710609
0.29275
0.100589
0.00388224
0.000708298
0.000399975
0
0
5.08832e-005
0.0216543
0.563961
0.0971124
0.000304018
0
0
0.00283686
0.00567541
0.0326235
0.0805738
0.324733
0.067674
0.00518892
0.00666456
0.000666625
0
0.000750499
0.0116319
0.0827583
0.616848
0.101164
0.000506697
0
0