0.0432634
0
0
0
0.0404028
0
0
0
0.0432634
0.0613042
0
0
0
0.0514436
0
0
0
0.0613042
0.00825652
0
0
0
0.0121398
0
0
0
0.00825652
0.0122178
0.0193186
0.536039
0.228591
0.0202329
0
0
0
0.0122178
0.00242829
0.00777543
0.00208769
0
0.000674096
0
0
0
0.000391675
0.0112891
0.0936434
0.134767
0.0609853
0.0545883
0
0
0
0.00257296
0.0105631
0.137381
0.191849
0.0184999
0.000273033
0
0
0
8.04921e-005
0.0238934
0.648706
0.648706
0.0600341
0.0199274
0
0
0
0
0.0703435
0.112558
0.161394
0.0830677
0.0355627
0
0
0
0.0480248
0.356618
0.139141
0.100831
0.0432081
0.00508039
0
0.000660942
0.00374534
0.250874
0.0374613
0.44913
0.463457
0.0783237
0.0131507
0
0
0
0.0121934
0.333304
0.275442
0.236309
0.0440303
0.00303444
0
0
0.0010181
0.0953974
0.483433
0.0821519
0.00600363
0
0.000974815
0.000649877
0.00184977
0.0137272
0.150387
0.483433
0.103391
0.00909376
0.0199988
0.0535446
0.0191294
0.0056248
0.0949293
0.13051
0.411065
0.0898795
0.0165956
0.00774427
0.0193231
0.006623
0
0.00645674
0.0742484
0.301845
0.0310797
0.00501509
0.211968
0.279008
0.0506569
0.00270896
0.0742242
0.0918121
0.299246
0.115125
0.0261836
0.0585803
0.121177
0.0570277
0.0242041
0.21454
0.153996
0.169538
0.200943
0.0407508
0.0931047
0.0443564
0.0293089
0.0266087
0.134585
0.122998
0.128582
0.0168781
0.0368952
0.472402
0.452061
0.0676585
0.0136959
0.111395
0.0700787
0.107064
0.0330674
0.0381818
0.262642
0.222574
0.081968
0.0536322
0.0431704
0.0829908
0.0775856
0.103976
0.148126
0.207969
0.0126892
0.0019031
0.00933622
0.041688
0.0570263
0.0393368
0.0966245
0.237034
0.204479
0.00709817
0.0331508
0.120195
0.377304
0.153497
0.0230358
0.0198663
0.101259
0.400598
0.265852
0.0532876
0.0388009
0.0104071
0.0349395
0.0110569
0.0945011
0.197635
0.407591
0.198195
0.0526496
0.075285
0.184641
0.124831
0.0365655
0.0583307
0.0373326
0.0165596
0
0.0382922
0.137375
0.334818
0.252042
0.210434
0.0792113
0.030782
0.025297
0
0.032177
0.113647
0.295825
0.306679
0.0180692
0.052187
0.0332551
0.0325085
0.00937411
0.0414599
0.11502
0.30665
0.202243
0.0772531
0.0451055
0.0147915
0.0221873
0
0.0674128
0.33134
0.426635
0.179848
0.228453
0.0794618
0.0887672
0.10813
0.014156
0.095267
0.0808357
0.115972
0.0893029
0.106041
0.0904072
0.0659745
0.151161
0.218414
0.0961509
0.0954192
0.0391601
0.0278517
0.0728992
0.0238629
0.0538225
0.0907561
0.0263657
0.270519
0.392994
0.278887
0.0347114
0.0456994
0.0280802
0.0429698
0.12061
0.254605
0.404159
0.326146
0.175642
0.00284339
0.0655933
0.0309316
0.00869585
0.067229
0.405049
0.0190548
0.0571352
0.0166375
0.0502076
0.0828823
0
0
0
0.1394
0
0
0
0.0828823
0.103769
0.027827
0.00521751
0.0798704
0.572334
0.210764
0.15641
0.0545002
0.0901603
0.175801
0.00786157
0
0.0190849
0.411421
0.00509634
0.0618965
0.0543563
0.201034
0.000316592
0
0
0.00265644
0.00206747
0
0
0
0.000316592
0.000527653
0.00896697
0.204535
0.102377
0.0106868
0
0
0
0.000527653
0.00012538
0
0.00974854
0.0696283
0.0206625
0
0
0
0.00012538
0.000208967
0.01167
0.679857
0.640986
0.0455383
0
0
0
0.000208967
0.00195985
0.0881381
0.338141
0.0506995
0.00183116
0
0
0
3.44031e-005
0.00488675
0.389882
0.449585
0.0138382
0
0
0
0
6.81826e-005
1.36247e-005
0.0428511
0.449585
0.221411
0.00474607
0
0
0
1.36247e-005
0.00261459
0.134746
0.449585
0.0566502
0.0019455
0
0
0.000871631
0.000648527
0.0184447
0.699742
0.494066
0.0134821
0.00100714
0
0.00124682
0.000415608
0.00354016
0.132536
0.286113
0.14564
0.0109395
0.00724104
0
0.00207804
0.00293068
0.0162497
0.0127652
0.183375
0.169275
0.00664964
0.00708888
0.00102551
0.00251754
0.0070051
0.00660551
0.0157375
0.0536065
0.0346592
0.0130417
0.00916977
0.00221926
0.00518157
0.00559019
0.0109274
0.0866792
0.0343848
0.00922284
0.018994
0.0546171
0.00664007
0.000191063
0.00264585
0.0143652
0.0388987
0.00509215
0.0031945
0.272765
0.582464
0.0260403
0
0.00764924
0.018366
0.00722407
0.0092503
0.0143241
0.0284413
0.110503
0.00995999
0.00105543
0.000546565
0.00464562
0.00306804
0.00187437
0.00263706
0.269375
0.648982
0.0153333
9.56625e-005
6.2917e-005
0.00189296
0.0183819
0.00236838
0.0116107
0.236789
0.417514
0.00965702
0
0.00243434
0.00703308
0.0389599
0.0039473
0.0154384
0.115866
0.266044
0.0421029
0.0101425
0.000457048
0.0190334
0.00151261
0.000688136
0.00638469
0.171213
0.570585
0.00377767
0.000965823
0.00110765
0.00163956
0.00365087
0.00114689
0.0150498
0.116132
0.505646
0.0126307
0.00160971
0.00184609
0.00348583
0.0093388
0.00402476
0.0178836
0.177146
0.38853
0.034704
0.00932603
0.000638103
0.00803842
0.00919799
0.0248568
0.0364463
0.184725
0.29804
0.00918025
0.00569232
0.0639734
0.0381422
0.000940035
0.000536193
0.00522344
0.195122
0.543983
0.0078479
0.000200313
0.000229729
0.000645171
0.00273885
0.00360762
0.0169881
0.187516
0.51157
0.000936124
0.0026408
0.0156123
0.00848773
0.00882754
0.0204794
0.0182992
0.0455748
0.0468339
0.0129771
0.127222
0.30905
0.128257
0.0522042
0.00277065
0.00388684
0.0056949
0.015009
0.0651582
0.462434
0.492268
0.11812
0.00496305
0.00452249
0.018869
0.0566482
0.0865151
0.00248404
0.0808762
0.123013
0.0341998
0.0325349
0.00300365
0.00465056
0.00136993
0.033323
0.0990699
0.376033
0.328089
0.0606675
0.0227507
0.00136555
0.00443436
0.0111396
0.0831934
0.148602
0.212438
0.152999
0.0127102
0.0093803
0.00574943
0.00266061
0.0212853
0.220535
0.418651
0.204754
0.10217
0.00815334
0.0134342
0.000828931
0.000373839
0.00559647
0.138568
0.259051
0.175037
0.0790971
0.00908942
0.0062189
0.00264456
0
0.0135157
0.319725
0.523706
0.259053
0.0735928
0.0170108
0.0375452
0.0279186
0
0.0310383
0.23039
0.344591
0.12364
0.0517273
0.0739596
0.0622837
0.0285734
0.00776579
0.0463207
0.143482
0.0370899
0.065773
0.094941
0.10865
0.0275459
0.0285734
0.00412911
0.0321589
0.29419
0.566642
0.271356
0.170208
0.105168
0.029882
0.10438
0.0505459
0.0941302
0.229822
0.181452
0.0928762
0.116529
0.083463
0
0
0.0246709
0.108095
0.0325678
0
0
0
0
0
0.000755556
0.390193
0.516878
0.0591886
0
0
0
0
0
0
0.0706299
0.358147
0.0912792
0
0
0
0
0
0.000615691
0.251104
0.516878
0.202235
0.00203259
0
0
0
0
0.00617788
0.583987
0.479616
0.0363483
0.000379021
0.000162438
0
0
0.00164337
0.0200101
0.211966
0.0953045
0.00793998
0.000631702
0.00027073
0.00240517
0.000843734
0
0.00482459
0.180465
0.50191
0.144761
0.00589482
0.00128168
4.82037e-005
0
0.00388654
0.0130219
0.0553068
0.0600701
0.013451
0.00526224
0.00306906
0.00436868
0.000764862
0.036967
0.133983
0.314236
0.113105
0.0643253
0.032237
0.014433
0.104564
0.0517245
0.0288931
0.0548726
0.198126
0.125719
0.0558362
0.105388
0.0696075
0.089376
0.0640591
0.0897743
0.113752
0.264899
0.183467
0.0457874
0.0454649
0.0249841
0.104523
0.0480631
0.0690535
0.121029
0.185527
0.0751911
0.134729
0.123094
0.12789
0.0943493
0.0733071
0.000996896
0.0023213
0.00856877
0.0205426
0.0999372
0.010069
0.00352965
0.000816613
0.0012146
0.000433085
0.000551718
0.00175633
0.188161
0.634286
0.0102679
0.000646835
8.0113e-005
0.000421836
0.00322991
0.00266388
0.00366652
0.0230294
0.168939
0.00905827
0.00793863
0.00196259
0.00278893
0.00171923
0.000297922
0.000313537
0.239727
0.634286
0.0091929
0.00208871
0.000449849
0.00137691
0.000755415
0
0.00145467
0.111442
0.473512
0.00194133
0.00240542
0.00101485
0.00199579
0.00125902
0
0.00297112
0.0878306
0.370389
0.00396076
0.00400904
0.00169142
0.00332631
0.00125902
0.0019726
0.0013261
0.139415
0.532393
0.00675628
0.00144325
0.000144979
0.00143622
0.00209837
0.00328767
0.00221017
0.127904
0.496252
0.0163522
0.00240542
0.000241631
0.0023937
0.000155657
0
0.00158703
0.128669
0.510495
0.00286753
0.000495648
0.000209115
0.000411241
0.00143754
0.000359015
0.00854292
0.10827
0.361402
0.00389175
0.00165998
0.00199078
0.00169546
0.000259428
0.00123397
0.00122721
0.162261
0.516374
0.0057615
0.000297389
2.98735e-005
0.00029594
0.00207593
0.0067553
0.0101128
0.112231
0.472872
0.00738452
0.000983925
0.000443952
0.00210588
0.031615
0.0155837
0.0521416
0.127248
0.238651
0.0185208
0.0469352
0.055058
0.0322129
0.0284938
0.0248038
0.0398198
0.00611768
0.0541172
0.230602
0.593193
0.168575
0.0336045
0.0526631
0.0505107
0.0864922
0.151142
0.301944
0.0619516
0.0229829
0.00487135
0.0343961
0.0518429
0.0368976
0.0518819
0.0128839
0.0747175
0.197995
0.150552
0.00894371
0.0209859
0.000344972
0.000535295
0.00102059
0.000760673
0.0290669
0.170149
0.16358
0.00823308
0.000704277
0.000524412
0
0
0.0112251
0.0706409
0.51418
0.393
0.0213155
0.00384086
0.000650191
0.000712579
0.00116224
0
0.00874107
0.107587
0.0862526
0.000530356
0.000162445
0
2.61852e-005
7.85556e-005
0.00597439
0.00787117
0.529027
0.409487
0.00411834
0
0.00175439
0.00264102
0.00766017
0.034121
0.0648553
0.324637
0.247874
0.0435009
0.0118313
0.00194224
0.0184871
0.0278793
0.0381774
0.119799
0.142792
0.0992696
0.0283025
0.00709881
0
0
0.0427833
0.0325804
0.0753617
0.564467
0.411321
0.0172535
0
0.00278308
0
0.0951964
0.0465344
0.2357
0.355856
0.177785
0.0164224
0.00649385
0
0
0.0422519
0.261165
0.139323
0.0772004
0.00564656
0
0
0
0.000598962
0.0505112
0.449141
0.328225
0.0851002
0.00338793
0
0
0
0
0.00937773
0.0749149
0.301499
0.275694
0.0278648
0
0
0
8.5566e-005
0.0058046
0.097657
0.477589
0.356123
0.0167189
0
0
0.000253382
0.00798479
0.0454372
0.339699
0.391206
0.0549314
0.00171354
0.000260707
0.000253382
0.00529726
0.011834
0.0431043
0.0541994
0.0192868
0.0204814
0.00915933
0.0128969
0.00395021
0.000734815
0.00236289
0.0036809
0.0965999
0.748829
0.206115
0.00116326
0.000156424
0.000422304
0.00769128
0.0151272
0.0146469
0.0548769
0.0415713
0.0468118
0.0141133
0.0113434
0.00632328
0.0562527
0.0918621
0.17573
0.130677
0.062769
0.0609924
0.0531922
0.0947428
0.0291948
0.0724619
0.160752
0.213523
0.044072
0.136963
0.0425233
0.13985
0.0562603
0.0363618
0.072503
0.156383
0.140701
0.100373
0.0641263
0.111068
0.109267
0.086255
0.0635266
0.0990101
0.189795
0.236493
0.0447138
0.168687
0.0945904
0.134998
0.0373097
0.0653518
0.00367204
0.00389193
0.00620748
0.0171417
0.144182
0.00108432
0.00542918
0.00158855
0.00190343
0.00152232
0.00105868
0.00166699
0.168991
0.630095
0.00281259
0.00129996
0.000384411
0.000632029
0.00384652
0.0045015
0.00915434
0.0320819
0.209091
0.00379913
0.00242329
0.000552296
0.00181052
0.000936378
0.00130869
0.00306354
0.221877
0.630095
0.00716524
0.000173177
5.49159e-005
0.000245649
0.00028218
0.0024079
0.000548389
0.0977419
0.435545
0.00803366
0
0
0.000168825
0.0004703
0.00401316
0.000913982
0.0797087
0.39838
0.0237116
0
0
0.000281375
0.000711173
0.00138307
1.46953e-005
0.114504
0.526582
0.0115916
0.0016154
0.000403849
0
0.00118529
0.00230512
2.44922e-005
0.122219
0.526582
0.0171174
0.00269233
0.000673082
0
6.02691e-005
0.00136415
0.000519906
0.106819
0.531571
0.0083454
3.93796e-005
0
3.60584e-005
0.00052779
0.00720098
0.00633325
0.0640663
0.36959
0.00998936
0.00105513
0
0.000431157
0.000151895
0.000416811
2.45638e-005
0.153431
0.531571
0.0055122
0.00062068
0.000275818
0.000231687
0.00191898
0.00282806
0.0027177
0.0770016
0.447507
0.0151535
0.00297642
0.00204933
0.00332704
0.030512
0.0851552
0.0937506
0.128232
0.38355
0.0957936
0.025736
0.00140357
0.0226898
0.0380066
0.0584741
0.0603343
0.0256266
0.131746
0.12274
0.078242
0.0154633
0.028968
0.0589459
0.0922252
0.051245
0.0652155
0.479799
0.102939
0.040564
0.0295012
0.0575507
0.0580912
0.118836
0.0448731
0.0313361
0.239036
0.0162158
0.085636
0.038696
0.0542422
0.000706387
0.00311332
0.0051164
0.000271574
0.0169606
0.0646097
0.0253403
0.00171427
0.000580077
0
0.00112165
0.00187241
0.000452623
0.0498344
0.740485
0.25692
0.00337266
0
0.00261943
0.0143065
0.0073133
0.00457335
0.0224144
0.0143598
0.0109978
0.00341245
0.00161449
0.00191796
0.0120648
0.00461887
0.00463735
0.161988
0.520425
0.0353735
0.00152688
0
0
0
0.013443
0.00582208
0.0782133
0.47558
0.129385
0.00623523
0
0.00558171
0
0.0384311
0.016622
0.124583
0.361909
0.082089
0.0463029
0.0241927
0.000113417
0.000453666
0.000530365
0.000643038
0.161453
0.47558
0.0387036
0.0106723
0
0.00359946
0
0.00300636
0.00719693
0.187708
0.47558
0.102783
0.135541
0.0411315
0
0
0
8.10261e-005
0.245172
0.161981
0.00874015
0
0
0
0
0
0.00435821
0.47399
0.324493
0.00524409
0
0
0
0
0
0
0.220652
0.196606
0.000954456
0
0
0
0
0
0.00323785
0.47399
0.47399
0.00668119
0
0
0.000252659
0.00103414
0.000539264
0.0318423
0.435233
0.19233
0.000922432
0
3.90629e-005
0.0022997
0.0107715
0.0122697
0.0353245
0.0327873
0.0160799
0.00481073
0.00513124
0.00143243
0.000705
0.00153964
0.00425274
0.0250854
0.426333
0.708897
0.00778961
0.000215858
0.000674486
0.004935
0.00732993
0.018105
0.0243742
0.0755685
0.0517564
0.00768757
0.0123124
0.00952957
0.0636302
0.101194
0.142725
0.0940277
0.0530266
0.0771505
0.0704735
0.0617831
0.061525
0.142869
0.138552
0.092926
0.0327553
0.162898
0.0872495
0.0835148
0.0196086
0.0784132
0.0672729
0.0621796
0.127219
0.0389043
0.199512
0.0974012
0.104564
0.173661
0.122446
0.125898
0.121845
0.0608367
0.0534846
0.269189
0.109272
0.161408
0.115297
0.0922188
0.00383665
0.00385273
0.00310658
0.0225555
0.172845
0.00595954
0.00156793
0.000123729
0.000709944
0.000443034
0.000445706
0.00102009
0.151729
0.621986
0.0077437
0.000437195
0
3.21021e-005
0.00269689
0.0030404
0.0024535
0.0453295
0.243785
0.00602485
0.00475574
0.00157683
0.000633072
0.000246559
0.000174435
0.00120676
0.223355
0.621986
0.00557426
0.00103222
0.000101189
0
0.00157283
0.00105971
0.00128477
0.0805913
0.411786
0.00560103
0.00163239
0.000408096
0.000112449
0.00262139
0.00176619
0.00214129
0.102813
0.429689
0.0114317
0.00272065
0.000680161
0.000187416
0.00164787
0.00057382
0.00214129
0.107201
0.511817
0.00468001
0.000233198
0.000318286
0.000833026
0.00274646
0.000956366
0.00356881
0.135386
0.53277
0.0172892
0.000388664
0.000530477
0.00138838
0.000355536
0.000315756
0.000542501
0.13801
0.553469
0.00415214
0.000477453
0.000294983
0.000273205
0.00136665
0.00145418
0.00322227
0.0650924
0.333999
0.00381076
0.000907277
0.00400964
0.00454519
0.000428036
0.000256727
0.00102925
0.185083
0.553469
0.00903929
5.27139e-005
0.00010091
0.000279239
0.00435394
0.000976973
0.00402152
0.0827483
0.395632
0.00522314
0.000216704
0.00486707
0.00646101
0.0344226
0.0307804
0.0344911
0.0605093
0.345161
0.0206203
0.0450249
0.0884409
0.0963493
0.0456663
0.0534044
0.0320598
0.0847803
0.147322
0.000703545
0.0804113
0.0749394
0.086531
0.0603324
0.0197863
0.0539527
0.0676763
0.467006
0.0159494
0.0499871
0.141805
0.125778
0.0871871
0.0948335
0.117866
0.14659
0.170751
0.041124
0.0743567
0.0934428
0.0809869
0.0158383
0.034793
0.00830259
0.0257602
0.0504796
0.00507439
0.00997877
0.00532931
0.00856429
0.0124284
0.0411464
0.00424894
0.0182929
0.467603
0.431047
0.00713022
0.000659762
0.00142396
0.0492253
0.0462846
0.0242592
0.0483256
0.040346
0.00810187
0.0050827
0.0026851
0.0153232
0.0306296
0.0342584
0.0122203
0.0589041
0.609965
0.157696
0.0166625
0.00137863
0.0107371
0.000295394
0.00107403
5.1218e-005
0.0142761
0.275388
0.310187
0.0294086
0.00976497
0.00147937
0.0170598
0
0
0.0297567
0.347414
0.388806
0.0910134
0.0940524
0.118451
0.00299166
0.000601973
0.00556484
0.0673454
0.41057
0.117123
0.0120125
0.0136186
0.0112242
0.0460126
0
0.00893367
0.0982645
0.406377
0.148959
0.0590666
0.129202
0.24616
0
0
0
0
0.110169
0.176577
0.00227787
0
0
0
0
0
0.00169825
0.229084
0.613564
0.051157
0
0
0
0
0
0
0.0658512
0.094781
0.00813601
0
0
0
0
0
0.000208544
0.134707
0.613564
0.238138
0
0
0.000594961
0.00083488
0.00250464
0.0048612
0.101418
0.568279
0.0514907
0.000349025
0.000594961
0.00435857
0.00356594
0.00987274
0.00596444
0.0259702
0.0942929
0.0167166
0.00316923
0.00673289
0.000225117
0.000337915
0.00101374
0.000596951
0.0387096
0.5765
0.346535
0.000209415
0.000225117
0.00200142
0.00260129
0.00730882
0.00543771
0.0103836
0.320344
0.201091
0.00159873
0.00232974
0.0357947
0.0497386
0.0756738
0.0469168
0.0865167
0.0690396
0.0830246
0.0718081
0.0699795
0.0178376
0.0618542
0.0627953
0.0862116
0.153096
0.0821281
0.105305
0.0764523
0.0227828
0.0298968
0.0574703
0.0694403
0.0781947
0.0865517
0.367508
0.38904
0.0426504
0.0322397
0.0191625
0.0935316
0.126178
0.12343
0.229128
0.147445
0.185628
0.0689364
0.0308815
0.000162202
0.000990498
0.0019974
0.0424521
0.191981
0.00795601
0.00392097
0.00159992
0.00012987
0
0
0.000400027
0.173404
0.606148
0.0063177
0.000560698
0.000145986
0
9.02776e-005
0.00177694
0.00412941
0.0649622
0.281138
0.0108909
0.00459416
0.00148992
0.000512877
0
7.3664e-005
0.000282602
0.230543
0.606148
0.00691389
0.000360991
5.58528e-005
0
0.00028846
0.00023121
0.000973293
0.080326
0.370105
0.00543539
0
0.000703996
0.000412695
0.000480767
0.000385349
0.00162215
0.100355
0.502428
0.00619677
0
0.00117333
0.000687824
0
0.00161847
0.00165829
0.101386
0.4612
0.005805
0
0.000422397
7.45408e-005
0
0.00269744
0.00267143
0.147371
0.543684
0.003483
0
0.000703996
0.000124235
0.000265006
7.48501e-005
0.000357641
0.162332
0.583073
0.00286437
0.000149403
0.000171664
0.0002953
0.0060416
0.000129301
0.000938817
0.0807421
0.275248
0.00450501
0.00167881
0.00291282
0.0065859
0.000324445
0.00039465
0.000635991
0.218517
0.583073
0.000581011
0.000375602
0.000145197
0.000342622
0.00555915
0.00203427
0.0027707
0.108949
0.30673
0.00406707
0.00359186
0.00506796
0.00628683
0.0850765
0.0243344
0.0477069
0.0611452
0.325772
0.0290724
0.0537096
0.073095
0.0960591
0.0727536
0.131117
0.103901
0.0851177
0.125639
0.0840808
0.0613125
0.0349682
0.036684
0.0907101
0.0465559
0.0567857
0.157643
0.23695
0.0786508
0.109263
0.093891
0.099203
0.0747441
0.074911
0.0669966
0.0467135
0.114444
0.340683
0.164449
0.0343859
0.0629316
0.0220485
0.0293808
0.0189805
0.0235886
0.0125119
0.0119273
0.00494834
0.000671372
0.0090425
0.0151807
0.0145799
0.0289458
0.154157
0.298607
0.0424664
0.0235575
0.00288279
0.00931797
0.0124896
0.0245322
0.0214342
0.0163112
0.0331673
0.0470743
0.0129895
0.000734442
0.00999425
0.0118874
0.0217849
0.335421
0.758893
0.209374
0.0347021
0.019706
0.00172968
0.0108923
0.00390907
0.000154843
0.0370367
0.223799
0.322784
0.0317857
0.0105356
0.00849199
0.00830862
0.0315647
0.00163045
0.0514139
0.241486
0.258594
0.0427621
0.0540732
0.0884467
0.121583
0.00178049
0.00075307
0.287269
0.504628
0.211893
0.0447636
0.0121565
0.0126102
0.00806887
0.0168828
0.0130616
0.208941
0.326308
0.223533
0.129864
0.0932887
0.0826894
0.0447366
0
0
0
0
0.0341852
0.0393168
0.00675388
0
0
0
0
0
0
0.110334
0.774999
0.377218
0
0
0
0
0
0
0.00908206
0.00438652
0.000284148
0
0
0
0
0
0
0.0690218
0.303011
0.259154
0
0
0
2.32798e-005
6.98395e-005
0
0.0125393
0.374894
0.329279
0
0
0.00022832
0.000162959
0.000488877
0.000486804
0.00265806
0.223817
0.360721
0.000443615
0.00022832
0
0
0
0
0.0120693
0.227908
0.430111
0.000230079
0
0.000118415
0
0
0
0.00080895
0.192297
0.496606
0.0304567
0.000118415
0.00169283
0.00151232
0.00390041
0.00343188
0.00790096
0.0882019
0.213483
0.00527283
0.00257489
0.00112283
0.00390106
0.0134016
0.0170184
0.0279511
0.012873
0.0318744
0.0133267
0.00783286
0.000825874
0.000397042
0.00340564
0.00436589
0.00110686
0.0985491
0.851939
0.184023
0.00141537
0.000495524
0.000798322
0.0118722
0.0265106
0.0519204
0.0178265
0.238911
0.173426
0.00504213
1.17834e-005
0.00081271
0.00370385
0.0626725
0.220896
0.0019306
0.0032806
0.0020523
0.00131602
0
7.10454e-005
0.00047849
0.20002
0.585974
0.000958284
0.000133147
1.44108e-005
0
0
0.000117629
0.00279727
0.0885388
0.320552
0.000892855
0.0132401
0.0157215
0.00100816
0
0.000417843
0.0012517
0.227407
0.585974
0.00448864
0.0010803
0.000903631
3.1221e-005
0
0.00059448
0.00106317
0.0905278
0.323277
0.00120177
0.000190348
0.000243605
0
0
0.0009908
0.00152123
0.134054
0.548665
0.000721065
0.000254126
0.000406009
0
0
0.0011335
0.00313279
0.0887184
0.414142
0.00694759
0.00197534
0.00191954
0
0
0.000680098
0.00224973
0.183469
0.548665
0.00269678
0.00216462
0.00297064
0
8.89429e-005
0.000154555
0.000484363
0.16995
0.610145
0.00309759
0.00175988
0.000210458
8.89429e-005
0.00115176
0.00636062
0.00419479
0.0660192
0.229581
0.00560908
0.0062929
0.00394133
0.00130233
6.50622e-005
0
0.000128634
0.193148
0.610145
0.00996697
0.00306464
0.000691682
6.50622e-005
0.00141842
0.00432192
0.00267655
0.0572728
0.260582
0.0190805
0.0129422
0.00967377
0.00138816
0.0259622
0.0790315
0.0373616
0.061574
0.111946
0.0559222
0.0842573
0.0483907
0.0250041
0.053065
0.0230274
0.0273687
0.0123867
0.0624747
0.217115
0.120696
0.022767
0.0510592
0.0488479
0.0925657
0.0305611
0.0463379
0.0772291
0.0774195
0.114254
0.110784
0.0463688
0.100995
0.44764
0.463705
0.0308306
0.0456325
0.0809432
0.106138
0.0371186
0.0893266
0.00280078
0.00226281
0.0362046
0.0121682
0.0108888
0.0131971
0.00395933
0.000268859
0.00280078
0.00213883
0.0024872
0.250143
0.367425
0.0227113
0.00332937
0.000735294
1.18852e-005
0.00213883
0.00303849
0.0641853
0.259311
0.0267691
0.0042851
0.00458354
0.00483105
0.000685748
0.00261278
0.000305547
0.0565298
0.625917
0.520382
0.0208766
0.0111324
0.000595228
8.31962e-005
0.000305547
0.00313088
0.00382031
0.269497
0.40088
0.051161
0.0272756
0.0171917
0.0097134
0.0134243
0.0351856
0.0487793
0.14133
0.145603
0.0784915
0.0908099
0.0728676
0.0363142
0.0425097
0.00302768
0.0269769
0.326246
0.532807
0.0621215
0.090813
0.0261508
0.00655935
0.00956536
0.0300473
0.0672933
0.177655
0.294378
0.173813
0.25979
0.091689
0.022872
0.0369732
0
0
0
0
0.00530393
0
0
0
0
0
0
0
0
0.112757
0.492177
0.503071
0
0
0
0
0
0
0
0
0
0
0
0
0
0
0
0.0108042
0.0505476
0.0291333
0
0
0
0
0
0
0.00628967
0.0908083
0.293874
0.00264777
0
0
0
0
0
0.000974223
0.0830337
0.646969
0.128455
0
0
0
0
0
0.00170969
0.0173334
0.0816696
0.00508568
0
0
0
0
0
0.00171517
0.0187911
0.597401
0.188377
0
0
0
0.000165046
0.00034283
1.9593e-005
0.00835247
0.469061
0.187141
0
0
0.00276302
0.00306534
0.00522396
0.0116778
0.0027052
0.205465
0.26339
0.00671425
0
0
0
0
0.000137151
0.00346277
0.405684
0.334053
0
0.000728338
0.00460504
0.00376776
0.00208521
0.00249311
0.0164155
0.294667
0.469061
0.058015
0
0.0103062
0.0154303
0.0906292
0.215798
0.000918263
0.0389424
0.115991
0.0179994
0.000279495
0.00660299
0.0169493
0.197846
0.539782
0.0292667
0.0037876
0.0105102
0.0125352
0.0259329
0.0403931
0.0606368
0.102316
0.10639
0.00828662
0.0836885
0.465888
0.199357
0.0460356
0.0495654
0.090774
0.276634
0.370632
0.0385457
0.0287963
0.0702095
0.13697
0.000827605
0.0110101
0.00463177
0.0700243
0.284918
0.0328303
0.00464768
0.0035543
0.0106893
0.000496563
0.0170258
0.00195441
0.254766
0.528215
0.00719804
0.00217913
0.00204395
0.00641355
0.0195907
0.0368063
0.0149578
0.128328
0.164348
0.0419885
0.021167
0.0179946
0.0476615
0.00958789
0.0617314
0.00176187
0.557006
0.382219
0.0206796
0.0143576
0.00298021
0.0465629
0.00378854
0.00221445
2.94096e-005
0.198416
0.527755
0.0113603
0.00233151
0.000649726
0.000374199
0.0286362
0.0126567
0.00023824
0.0433592
0.160008
0.0159845
0.00877543
0.0078283
0.00306675
0.112242
0.0619379
0.000205867
0.401359
0.337258
0.0403069
0.0139958
0.00072074
0.062681
0.444161
0.298872
0
0.0558654
0.0927796
0.0274046
0.0078573
0.00608922
0.0449323
0.041051
0.0571979
0.000938192
0.00312863
0.00100877
0.00353931
0.00540154
0.00709638
0.00227262
0.119233
0.188709
0.0637159
0.00233301
0.000509644
0.000680416
0.00240076
0.00259323
0.00690792
0.29287
0.514621
0.000438453
0.000446947
0.000180648
0.000987701
0.00185767
0.00368867
0.0027332
0.483906
0.539258
0.0338678
0.000333288
1.75414e-005
4.19004e-005
0.000280759
0.0162344
0.103794
0.0893749
0.177118
0.25814
0.0146292
0.000738972
6.09928e-005
0.00107335
0.000184802
0.0109076
0.0210495
0.129715
0.522326
0.181122
0.0322776
0.0103752
0.00217336
0.00111612
0.00486761
0.394774
0.324239
0.140306
0.0096024
0.00417922
0.00505832
0.0104637
0.0849203
0.191671
0.152026
0.133347
0.318318
0.0737753
0.0726873
0.0225116
0.0381293
0.114622
0.146104
0.00193951
0.0841323
0.34646
0.277931
0.130921
0.0704102
0.0122216
0.0138132
0.0058165
0.00512687
0.0810972
0.188406
0.31496
0.323109
0.177016
0.0530066
0.0585159
0.0407155
0.0302766
0.0684629
0.225913
0.0909574
0.196843
0.0772221
0.114311
0.14576
0.0571677
0.046248
0.225523
0.180257
0.236267
0.217419
0.107645
0.205244
0.162892
0.0274884
0
0
0
0
0
0
0
0
0
0
0
0
0
0
0
0
0
0
0
0
0
0
0
0
0
0
0
0
0
0
0
0
0
0
0
0
0
0
0
0
0.00265673
0.00536732
0.0409304
0.00878972
0
0.000948833
0
0
0
0.00667416
0.00894554
0.69753
0.457
0.000948833
0
0
0
0
0
0
0.000221234
7.37447e-005
0
0.00158139
0
0
0
0.138725
0
0.0284028
0.049598
0.00158139
0.00456677
0.00207078
0.00336193
0.00820354
0.0188332
0.0134801
0.210537
0.295326
0.000721029
0.0707415
0.0251948
0.00668134
0.0188999
0.0445473
0.0976774
0.232979
0.719488
0.105412
0.0184948
0.0676798
0.029465
0.0499312
0.0944696
0.00795873
0.0206857
0.0463495
0.00259841
0.139026
0.194855
0.0851107
0.192803
0.203593
0.0715147
0.0759101
0.144447
0.0421995
0.0925473
0.0527737
0.0310675
0.0846254
0.0601041
0.0442482
0.125556
0.419893
0.252466
0.100328
0.0762236
0.0655612
0.198848
0.115682
0.0300208
0.103166
0.0991959
0.169959
0.103762
0.0656514
0.0661503
0.268554
0.364991
0.08641
0.12514
0.0886087
0.078157
0.108733
0.0431556
0.0785855
0.259523
0.363403
0.118767
0.151051
0.0902744
0.0604687
0.0384481
0.0319732
0.0214017
0.113515
0.0699231
0.0446424
0.0530053
0.0387258
0.0340553
0.0195884
0.0679481
0.0473127
0.518451
0.291187
0.049734
0.0604141
0.0122506
0.0443064
0.0497789
0.0531909
0.0799062
0.0890393
0.0722676
0.119635
0.118118
0.0918633
0.0241661
0.0532583
0.181521
0.236531
0.475766
0.356458
0.139578
0.0897607
0.0284292
0.0202831
0.141502
0.1228
0.0522773
0.173122
0.113123
0.0167355
0.0243869
7.65496e-005
0.0485777
0.482685
0.376548
0.0327665
0.0224427
0.0195059
0.00691014
0.0038833
0.000535847
0.0311834
0.105273
0.186692
0.157607
0.251807
0.216842
0.0402259
0.0179175
0
0.00846998
0.370504
0.369698
0.0933329
0.131347
0.0843694
0.0162729
0.00201239
0
0.0139939
0.338902
0.515479
0.00066894
0
0
4.23484e-005
7.8647e-005
0.000216422
0.00198662
0.271421
0.515479
0.000510376
0
0.000778175
0.00720464
0.0136615
0.0269963
0.104277
0.242789
0.308951
0.00592122
0.00954899
0.00084334
0
0
0
0.0123329
0.0922604
0.226952
0
0
0.00934675
0.0216917
0.0227692
0.0125763
0.0371275
0.29044
0.254162
0.0144122
0.00435344
0.00730451
0.0587764
0.0853569
0.201703
0.306535
0.163564
0.12201
0.0940149
0.0304741
0.0420232
0.0832189
0.121854
0.256475
0.389782
0.0603085
0.0919277
0.00232986
0.00780147
0.0579131
0.127229
0.101537
0.0725836
0.17233
0.0844181
0.153719
0.0826386
0.0546103
0.108185
0.166462
0.112135
0.107689
0.39102
0.0436171
0.0499243
0.0767744
0.0215225
0.0722222
0.118588
0.137056
0.178973
0.146394
0.0435184
0.236518
0.167016
0.145141
0.110872
0.160893
0.16447
0.131076
0.0112109
0.0588957
0.0987339
0.0750072
0.0191872
0.104431
0.201918
0.135804
0.112726
0.219115
0.118703
0.389275
0.0841841
0.107505
0.226328
0.397225
0.260854
0.105778
0.115629