0.0806284
0.0324529
0.114085
0.12205
0.107827
0.0520985
0.0620981
0.0334205
0.0632741
0.023439
0.031092
0.146316
0.303959
0.179825
0.0698536
0.09202
0.0703151
0.0318829
0.0516963
0.0044291
0.157634
0.167826
0.117518
0.203963
0.133965
0.0541865
0.076852
0.0129178
0.0194481
0.0920916
0.207857
0.161804
0.275874
0.217976
0.177654
0.0401158
0.00153412
0.0665869
0.128763
0.226761
0.0789807
0.113468
0.0635761
0.0405614
0.0127241
0.00255686
0.152712
0.1531
0.154945
0.107597
0.160468
0.172631
0.0194934
0.00374921
0.00255686
0.113464
0.163542
0.168478
0.100867
0.102579
0.0972526
0.113015
0.0212069
0.00426143
0.199467
0.169451
0.162822
0.0960817
0.108248
0.418637
0.0387817
0.00330548
0.0337068
0.120368
0.108433
0.114167
0.11036
0.0485334
0.106889
0.0476469
0.00985837
0.0555076
0.0933816
0.0952415
0.188392
0.0737491
0.0677316
0.107334
0.0980871
0.00992152
0.0433148
0.228758
0.112234
0.0869612
0.0404126
0.0887906
0.317644
0.0387984
0.0315711
0.159938
0.243229
0.149513
0.0839195
0.0605767
0.176403
0.296181
0.0738501
0.0751911
0.0230762
0.0259014
0.0476684
0.0837195
0.0615043
0.0683841
0.054155
0.0401225
0.0129445
0.0440226
0.105515
0.125901
0.162298
0.094124
0.0457795
0.0385113
0.0353652
0.0665225
0.184267
0.0977935
0.167066
0.0492742
0.0366196
0.0899368
0.0963467
0.046763
0.0664742
0.485806
0.360809
0.218455
0.0578373
0.0136338
0.024524
0.0247706
0.0527387
0.293859
0.0184517
0.103664
0.10927
0.119121
0.0807012
0.0420083
0.0149954
0.0146577
0.0417896
0.134041
0.0901242
0.0605148
0.149321
0.139854
0.0749524
0.00381271
0.0607834
0.140702
0.246937
0.325394
0.155999
0.0273217
0.0375225
0.0545541
0.0224431
0.0185076
0.203695
0.417621
0.229495
0.122262
0.0286433
0.0904687
0.102642
0.0537384
0.12729
0.324868
0.0908763
0.0484874
0.0154222
0.068778
0.0514841
0.0497376
0.0180964
0.124086
0.0908147
0.0943722
0.0262443
0.0211864
0.0415173
0.0627398
0.0629366
0.0430453
0.114878
0.0746746
0.264885
0.0611596
0.0172296
0.0093511
0.0233167
0.0302632
0.100486
0.360074
0.218946
0.310003
0.0327729
0.000271483
0.0029692
0.0165123
0.0336998
0.169707
0.361307
0.419606
0.069317
0.013516
0.0144718
0.0148222
0.0855605
0.0934517
0.0825536
0.0452864
0.0486355
0.0320149
0.0479193
0.0345894
0.0436072
0.0886563
0.0923094
0.0940853
0.10526
0.0524888
0.228269
0.028649
0.00807611
0.000901052
0.0264269
0.0766727
0.305733
0.21492
0.384869
0.199845
0.10137
0.0354358
0.00513259
0.0323999
0.111762
0.281053
0.301782
0.223981
0.0669823
0.104631
0.0657573
0.038862
0.125506
0.0376801
0.089143
0.170998
0.0504527
0.0722758
0.113193
0.152676
0.0862431
0.28129
0.100238
0.0981703
0.0953265
0.0127074
0.177036
0.0973952
0.0367307
0.00882425
0.0699241
0.147746
0.17913
0.224928
0.140743
0.0957771
0.108328
0.152382
0.114824
0.306623
0.169569
0.188169
0.075359
0.0124568
0.00808547
0.0191512
0.0563076
0.0958178
0.211238
0.102299
0.100351
0.035792
0.00740413
0.00804775
0.0455023
0.0690325
0.162626
0.173488
0.137246
0.189493
0.0497641
0.0188775
0.0100392
0.0272759
0.115399
0.142918
0.376616
0.123459
0.0833198
0.00839374
0
0.00482865
0.0143216
0.128835
0.279866
0.366825
0.161037
0.134027
0.0143224
0.00482865
0.00655144
0.00777228
0.0428581
0.0759953
0.127929
0.232124
0.0817377
0.0555019
0.00776288
0.00330462
0.00680853
0.0688956
0.100018
0.152409
0.305767
0.108376
0.0747307
0.00418933
0.0786533
0.054406
0.103772
0.121448
0.123256
0.278032
0.10474
0.0326717
0
0.047192
0.0709727
0.296791
0.20909
0.132757
0.214946
0.185647
0.0672068
0
0.000298152
0.0177634
0.072072
0.141321
0.129908
0.0847329
0.0641788
0.0335995
0.00247291
0.00049692
0.03505
0.0523519
0.219562
0.233731
0.0893303
0.140973
0.0142251
0.000353272
0
0.0355917
0.193521
0.173669
0.10904
0.0565283
0.157773
0.144663
0
0.00784573
0.0844872
0.308047
0.416247
0.232359
0.0354337
0.111633
0.141892
0
0.007602
0.0227687
0.0228494
0.0746834
0.0386756
0.0253105
0.0350048
0.00432926
0.00667033
0.0572844
0.119009
0.060665
0.0570461
0.012137
0.0218206
0.0407357
0.00972921
0.0307994
0.0153007
0.0750599
0.165273
0.177576
0.0438991
0.00665712
0.00496145
0.0060079
0.00221424
0.0674455
0.600651
0.606527
0.109074
0.0112298
0.00151713
0.00361035
0.00516656
0.0154997
0.0483126
0.117309
0.035063
0.0110015
0.00340015
0.00377532
0.00608493
0.00204576
0.00753239
0.168029
0.256828
0.0217003
0.00420017
0.00534703
0.000929652
0.000488252
0.0130695
0.0509432
0.0400754
0.484182
0.198229
0.0101178
0.00289788
0.000173905
0.000521716
0.000764718
0.0023479
0.197357
0.695708
0.0568315
0.0127501
0.0882372
0.00862385
0
0.0180216
0.0418384
0.12527
0.121118
0.0200623
0.0129094
0.049415
0.0202266
0.0143948
0.0363578
0.0973862
0.104145
0.0335539
0.0906362
0.0565449
0.0755095
0.0354077
0.043201
0.0514193
0.114059
0.140106
0.206087
0.0262076
0.137329
0.425653
0.0454349
0.0086058
0.0532593
0.0832148
0.126935
0.0357796
0.199375
0.444487
0.529041
0.0738508
0.0604041
0.0775922
0.0884892
0.0798137
0.0188217
0.0343068
0.0253285
0.0153361
0.0463672
0.0767742
0.0777987
0.0756026
0.0649224
0.0206144
0.017168
0.0557665
0.0256889
0.0783025
0.0732678
0.107214
0.207594
0.110449
0.0315886
0.0889753
0.156015
0.254497
0.199796
0.163309
0.118595
0.0551766
0.033414
0.018708
0.0395508
0.180207
0.627386
0.349396
0.137864
0.153859
0.181176
0.0432874
0.0111061
0.0107017
0.0269256
0.00969702
0.0201843
0.0321066
0.16626
0.171202
0.0357995
0.023718
0.0109778
0.00132771
0.000850797
0.0152984
0.0548575
0.214672
0.0845797
0.0240941
0.0162303
0.0231479
0.109898
0.221224
0.0822102
0.025249
0.357735
0.216701
0.0245784
0.0184185
0.0078142
0.0099733
0.00800378
0.01034
0.280399
0.680198
0.124474
0.0291112
0.0137783
0.00656113
0.000610144
0.00591138
0.0597812
0.111086
0.104213
0.0441534
0.00552185
0.00482867
0.0103373
0.0187985
0.0615686
0.0597357
0.0928023
0.0151552
0.00227159
0.0225855
0.00556623
0.00425096
0.00427101
0.00127039
0.0459832
0.653212
0.459731
0.0402143
0.00303326
0
0.0154085
0.0321746
0.0792573
0.086339
0.403811
0.102972
0.00147134
0.00122114
0.0113779
0.0832675
0.101157
0.279763
0.0741784
0.0581553
0.00895716
0
0
0.0247245
0.143897
0.222196
0.275924
0.0805535
0.058427
0.0100129
0
0
0.00122163
0.0946483
0.0847162
0.333888
0.170984
0.188902
0.0765031
0
0
0.0194896
0.185701
0.235449
0.257773
0.149945
0.171953
0.0604422
0
0.0571744
0.0438769
0.0968235
0.0901323
0.108916
0.159002
0.097655
0.0408768
0.0304522
0.0411432
0.088596
0.227901
0.123649
0.130045
0.109915
0.219223
0.0792904
0.0182713
0.0162007
0.0427409
0.152242
0.12779
0.136102
0.151668
0.130149
0.0935668
0.0685302
0.021118
0.0779801
0.234221
0.253975
0.156817
0.226493
0.29306
0.103817
0.0476397
0.000581689
0.0262985
0.101836
0.0695902
0.0283311
0.0236718
0.0570186
0.0662596
0
0.00973437
0.117261
0.180059
0.17115
0.0315574
0.0289679
0.022853
0.0590895
0
0.000969482
0.0167557
0.104005
0.232796
0.0374725
0.0566987
0.0609639
0.0293262
0.00713094
0.00584062
0.095877
0.22524
0.764604
0.070212
0.0832502
0.0164882
0.0135014
0.00427856
0.00613778
0.0451535
0.15498
0.0581696
0.00818712
0.00712203
0.000633961
0.0017092
0
0.00982418
0.17274
0.468551
0.0503421
0.00170933
0.000870148
0
0
0
0.00226022
0.032583
0.323697
0.273605
0.0174532
0.0160759
0.00148103
0.000224058
0
0.00787505
0.057294
0.660666
0.168128
0.00419673
0.00145025
0
0.000354168
0.00157007
0.0131053
0.424222
0.434517
0.0214396
0.00227157
0
0.00113164
0.00452655
0.00025775
0.0699491
0.42795
0.0881924
0.0231193
0.217435
0.023912
0.00188606
0.0113189
0.0141145
0.0187209
0.0777175
0.373947
0.0474221
0.00573448
0.00344266
0.00710539
0.0126754
0.00718502
0.0135249
0.0486224
0.0437349
0.0373361
0.357203
0.0230612
0.0118423
0.0193812
0.00880821
0.0155956
0.030702
0.00349907
0.0713102
0.32056
0.0132706
9.15395e-005
0.00404584
0.00590529
0.0142322
0.00550496
0.03248
0.203014
0.460184
0.0197798
0.0123564
0.00856373
0.00377736
0.000924529
0.00202261
8.62864e-005
0.0756854
0.510266
0.00668589
0.000574763
0.000893039
0.000679685
0
0
0.00128474
0.158475
0.539686
0.00698331
0.00316834
0
0
0.0121183
0.00455596
0.017096
0.0829217
0.275122
0.0503033
0.0293605
0.0165005
0.00196929
0.00218017
0.00244678
0.0051064
0.0882619
0.527748
0.0744863
0.0205185
0.0166146
0.0099302
0
0
0.00122699
0.0958764
0.512522
0.0079577
0.00387775
0
0
6.41403e-005
0.000256561
0.000175284
0.129224
0.528908
0.005366
0.00117001
0
0
0.00892874
0.0123389
0.00838221
0.0973006
0.424429
0.053298
0.0152297
0.115328
0.0516528
0.0136548
0.0080635
0.00547046
0.016693
0.0244965
0.0187659
0.310289
0.349516
0.0394052
0.00401782
0.0034561
0.00596441
0.0956691
0.668523
0.012635
0.00459915
0.00487612
0.00120543
0.00624989
0.00427945
0.0204926
0.0259301
0.0602462
0.0498636
0.126109
0.0426314
0.00200906
0.00254531
0.000109266
0.00113351
0.00272853
8.89257e-005
0.0316939
0.424766
0.150913
0.00357766
0.000212324
0
0.00511244
0.00609873
0.0264659
0.0703931
0.381329
0.0604733
9.09961e-005
0.000635425
0.000553433
0.00509235
0.0052757
0.00177761
0.132581
0.328574
0.0313328
0.000212812
0
3.41234e-005
0.000629551
5.85755e-005
0.0160241
0.301163
0.590857
0.0282952
0
0
0
0.0413107
0.0318892
0.101163
0.156185
0.202715
0.046287
0
0
0.00118786
0.0896989
0.0845039
0.0806043
0.0944375
0.0858083
0.0205049
0
0
0
0.0170739
0.0231491
0.0804575
0.480207
0.592735
0.0251361
0
0
0
0.0609956
0.0695772
0.196312
0.212715
0.129993
0.00531179
0
0.00970012
0.0150357
0.0570728
0.0481261
0.0754921
0.0750678
0.0301557
0.0102768
0.00726255
0.0121602
0.113966
0.23443
0.143386
0.0383382
0.0697172
0.0313612
0.0173801
0.044808
0.0628998
0.0519521
0.0754598
0.12308
0.112805
0.104158
0.0461267
0.028727
0.00704048
0.0479204
0.334514
0.522025
0.308353
0.354091
0.108265
0.0100329
0.0427468
0.123881
0.00662658
0.0355202
0.0570542
0.0837311
0.00964971
0.00907689
0.00635882
0.0292509
0.0422463
0.00394017
0.00759619
0.0660608
0.473959
0.0529036
0.0105373
0.00456887
0.0379634
0.0270076
0.0169313
0.112569
0.122485
0.101095
0.0724903
0.0171689
0.0311406
0.0916807
0.122959
0.0101588
0.0157187
0.061264
0.735932
0.167779
0.0150886
0.0513926
0.121342
0.076542
0
0.00522504
0.18859
0.471123
0.0268037
0.00424981
0.000902622
0.00380056
0.000302441
0.0080008
0.00765407
0.273636
0.237251
0.0166125
0.00108039
0
0.00180687
0.00296798
0
0
0.0546749
0.661647
0.125093
0.00288798
0.0065661
0.0123279
0.000504069
0.00555531
0.00235473
0.04373
0.267532
0.0540496
0.011379
0.00622369
0.0043248
0.00409903
0.0267125
0.0054163
0.146508
0.0653998
0.0284782
0.0135324
0.00848656
0.0106161
0.0161444
0.0107497
0.00179211
0.0107022
0.0936811
0.512446
0.0231582
0.0141443
0.00943207
0.010656
0.0209487
0.0159309
0.0218354
0.0713364
0.0363595
0.0260148
0.0123968
0.00956612
0.012846
0.00814336
0.00955854
0.0163678
0.190221
0.703437
0.0154516
0.0176693
0.00960272
0.00374726
0.000165025
0
8.65398e-005
0.0597332
0.372139
0.000932086
0.000373168
0.000191691
0.000165025
0
0
0
0.0920373
0.516435
0.00370544
0
0
0
0
0
0.000648076
0.0895093
0.492464
0.000299264
0.00113091
0.000605828
0
0
0
0
0.120524
0.516435
0.00320985
0
0
0
0
0
0
0.0605476
0.379775
0.00356709
0
0
0
0
0
0
0.0828623
0.512032
0.00216839
0
0
0
0
0
0
0.0853022
0.495404
0.00313489
0
0
0
0
0
0.000525742
0.132674
0.512032
0.00251408
0
0
0
0
0.000913534
0.00289383
0.0596337
0.61118
0.0200559
0.0072269
0.00176514
0.000116079
0
0.00253343
0.011921
0.0116673
0.0573975
0.0483259
0.0306309
0.00709722
0.00443899
0.000405931
0.00386049
0.0141057
0.118084
0.701543
0.0219076
0.0054839
0.00302462
0.00100666
0.00428005
0.00974612
0.0218342
0.0184795
0.0478074
0.0315349
0.0169597
0.0309989
0.0190589
0
0.00113859
0.00512378
0.00330125
0.0082245
0.158246
0.102116
0.00369415
0.00367267
0
0.000135114
0.000405341
0
0.0200476
0.547166
0.368224
0.00293034
0.000484713
0.00232397
0.00428289
0.00684461
0.0141132
0.0499491
0.0904562
0.0204866
0.0188742
0.0136644
0.000192275
0.000935625
0.00210187
0.0129388
0.186072
0.604169
0.140246
0.00192443
0.00160557
0
0
0.000857538
0.00142534
0.0220621
0.397177
0.236212
0.0139316
0.00133657
0
0
0.00377775
0.0104273
0.0869027
0.155883
0.0838053
0.0274782
0.00681767
0
0
0
0.00113933
0.110837
0.623896
0.190122
0.0966189
0.0332643
0.000439002
0.0182038
0.00806952
0.00763689
0.0509071
0.219119
0.207648
0.276017
0.135247
0.0140394
0.0272393
0.0278158
0.042147
0.0634124
0.0623447
0.0165803
0.0244448
0.00682006
0.00821433
0.0465008
0.119197
0.119815
0.436428
0.102918
0.00892149
0.021081
0.0222261
0.0137942
0.0298615
0.0245582
0.0298356
0.147651
0.113381
0.0165853
0.011452
0.00352471
0.00664326
0.0299937
0.0419378
0.0770243
0.732527
0.256068
0.0529676
0.0242386
0.00265086
0.00374389
0.0291471
0.0737168
0.109754
0.206319
0.03763
0.0232038
0.037867
0.0357672
0.00224633
0.00411926
0.0516486
0.356937
0.31715
0.0739466
0.0374168
0.03964
0.0218006
0
0.0534409
0.0625386
0.127468
0.349755
0.10924
0.0379704
0.0187118
0.00104784
0
0.0436065
0.0809348
0.183753
0.574553
0.286361
0.0335414
0.0188251
0.000628704
6.00612e-005
0.000240245
0.0191498
0.399157
0.364934
0.0573024
0.00811587
0.00599743
0.000101095
0.00393326
0.00344116
0.00340562
0.123556
0.112593
0.0247419
0.0142446
0.0082827
0.00221457
0.000420429
0.00511018
0.014861
0.0887908
0.63447
0.340004
0.0217064
0.00845045
0
0.00737548
0.0118795
0.0014366
0.0257982
0.181799
0.0987286
0.0213545
0.0107065
0.00520336
0.00885618
0.00792011
0.00537251
0.0188648
0.0161181
0.0322021
0.024293
0.00889356
0.00324726
0.00374834
0.00420777
0.00775539
0.11418
0.488602
0.0220489
0.0289535
0.0189954
0.000463895
0.00849329
0.00677868
0.00381088
0.0183938
0.0148768
0.0468431
0.0457662
0.0196154
0.0076298
0.00128038
0.000257114
0.00314154
0.0841442
0.76011
0.0626677
0.079626
0.0411441
0.00108997
0
0
0.00033263
0.0711086
0.372127
0.000635493
0.00169158
0.00146842
0
0
0
0
0.0944294
0.511184
0.00337195
0
0
0
0
0
8.45181e-005
0.0669448
0.511184
0.00599201
0.0043491
0.0029284
0
0
0
0
0.0918876
0.511184
0.0122839
0
0
0
0
0
0
0.0651849
0.381996
0.00324286
0
0
0
0
0
0.000517558
0.106798
0.508828
0.00158232
0
0
0
0
0
0
0.0611315
0.508828
0.0117204
0
0
0
0
0
7.39369e-005
0.0868543
0.508828
0.00625833
0
0
0
0.00169203
0.00282684
0.0118424
0.115218
0.550351
0.0143648
0.00144445
0.00156466
0.00100935
0.0162175
0.0131951
0.0228244
0.0208896
0.0399257
0.0153216
0.00352649
0.0191699
0.0139348
0.0015037
0.000404721
0.00136475
0.0817293
0.743467
0.0267671
0.0022743
0.000175739
0.000794266
0.0131499
0.00774338
0.0190531
0.0309195
0.0628615
0.037785
0.0100779
0.00270283
0.00632948
0.0123704
0.0146249
0.0248825
0.0355204
0.0785068
0.0341216
0.00298138
0.0173523
0.0134162
0.000885226
0.00398673
0.0110749
0.0437306
0.398836
0.434518
0.041984
0.00166331
0.00139047
0.00920461
0.0119504
0.0358464
0.0454251
0.0831019
0.037403
0.00924065
0.00272786
0.00398858
0.000531135
0.00347211
0.0128977
0.192472
0.64587
0.148594
0.00662311
0.000298089
0.000155784
0
0
0.000448871
0.0252601
0.201595
0.281543
0.0677531
0.0612026
0.0416224
0.00107595
0.0506477
0.0960474
0.0813871
0.0984281
0.111237
0.122492
0.207183
0.123015
0
0.00393168
0.00205868
0.114883
0.461184
0.173232
0.0397305
0.019798
0.0247073
0.000645572
0.0643444
0.149692
0.182818
0.35492
0.401232
0.207313
0.067987
0.0473199
0.00880662
0.00933376
0.0161863
0.0606233
0.172873
0.131565
0.028264
0.0133576
0
0.0048457
0.107578
0.0308374
0.0458622
0.513213
0.461472
0.187515
0.160659
0.0320156
0.00124771
0.0107707
0.0354966
0.0760766
0.0588805
0.0523925
0.055808
0.0393018
0.011977
0
0.0772432
0.0246898
0.0436849
0.155449
0.238223
0.220238
0.232744
0.0574498
0
0.131375
0.0582844
0.0551368
0.11108
0.0916717
0.067199
0.0607944
0.0115848
0
0.110127
0.073919
0.0812625
0.193258
0.361411
0.165441
0.0536582
0.00165497
0
0.093584
0.0350953
0.0373577
0.147028
0.126451
0.0666292
0.0764429
0.0201762
0
0.0749314
0.039222
0.0570109
0.193796
0.593068
0.427228
0.0555517
0.00288231
9.25997e-005
0.00595005
0.00697714
0.0104662
0.143159
0.356131
0.0783591
0.0144426
0
0.00283965
0.00259279
0.000493509
0.00493254
0.0504495
0.132073
0.0263971
0.00654152
0.00313487
0
0.00334779
0.00324119
0.00637168
0.0536709
0.674746
0.350806
0.0143721
0
0.00122631
0
0.00263975
0.010035
0.0348174
0.381017
0.163721
0.0076282
0.00202778
0.00525667
0.00340547
0.00426114
0.0169749
0.00727815
0.0303066
0.0250507
0.0178801
0.00719857
0.00158671
0.00860523
0.0132493
0.046605
0.56692
0.0365827
0.0376144
0.0176656
0.00192376
0.00481138
0.00629949
0.0150274
0.0317679
0.0228074
0.0741182
0.0416999
0.0223129
0.00684255
0.00797975
0.0360284
0.0276588
0.130469
0.71838
0.0228124
0.00656129
0.0127454
0.00361748
8.39507e-005
0.000759095
0.0010312
0.0361842
0.418676
0.00517126
0.00260197
0.00103062
3.26451e-005
0
0
0
0.0502481
0.502255
0.00517253
0
0
0
0.000587655
0.00312014
0.00182165
0.0797458
0.502255
0.00241228
0.000321762
0.000308315
5.44085e-005
0
0
0
0.0897094
0.502255
0.00330689
0
0
0
0
0
0
0.0349901
0.422691
0.00485491
0
0
0
0
0
0
0.0468007
0.502455
0.00614409
0
0
0
0
0
0
0.0541812
0.502455
0.00310638
0
0
0
0.000232995
5.82487e-005
0
0.0889037
0.502455
0.00312917
0
0
0
0.000110867
0.000170348
0.000511044
0.0419387
0.600323
0.0218376
0.00186776
0.000520663
0.000202749
0.000776068
0.00193952
0.00998994
0.0159603
0.0608782
0.0256821
0.0241929
0.00750842
0.00141924
0.00423678
0.00400552
0.00699995
0.0965486
0.703324
0.0103235
0.000970777
0.000867772
0.000153136
0.00444189
0.018032
0.0473044
0.0388957
0.0648136
0.00523749
0.0183671
0.00989069
0.00107195
0.000294948
0.00341926
0.0242681
0.0505296
0.0559598
0.0162842
0.0187512
0.00537682
0.000539389
0
0.00168992
0.0808498
0.295657
0.249451
0.0392893
0.00461295
0.000570236
0
0.000415034
0.0157088
0.202083
0.131261
0.0444616
0.00199292
0.0147552
0.0062512
0.000407401
0
0.046035
0.706967
0.380952
0.0718666
0.0170587
0.00276899
0.000563228
0
0.0457729
0.0256822
0.0643899
0.184938
0.20815
0.108718
0.0340721
0.0248595
0.0203396
0.168468
0.155469
0.0758211
0.0669494
0.145929
0.329588
0.230065
0.0628888
0.0417206
0.0762882
0.101926
0.440759
0.208014
0.0236134
0.0407699
0.00639514
0.0149157
0.0122037
0.318482
0.293498
0.273937
0.0777241
0.0076037
0.0782775
0.0696051
0.0481835
0.0710764
0.00709785
0.0386347
0.0391654
0.122497
0.0631451
0.10973
0.0650141
0.0745582
0.0295368
0
0.0205166
0.023238
0.164071
0.190242
0.18801
0.242272
0.134375
0.023248
0.117383
0.0183356
0.025142
0.170462
0.197451
0.307435
0.0277239
0.0767024
0.0693286
0.16859
0.0240871
0.101867
0.323186
0.193167
0.143692
0.183667
0.0983448
0.0594123
0
0.0105269
0.00516048
0.0190339
0.109275
0.152641
0.0502926
0.0149165
0.00327013
0
0.00631612
0.00377414
0.0138168
0.140349
0.429894
0.476808
0.0175523
0.000467161
0.01557
0.00979935
0.00870535
0.0272239
0.0536319
0.109617
0.0593656
0.0202277
0.00667286
0.0106213
0.0125522
0.00162618
0.00752025
0.0613794
0.34249
0.549119
0.0292727
0.00738609
0
0
9.01722e-005
0.000510976
0.0163971
0.22738
0.355907
0.019685
0
0.00022977
0
0.000622537
0.00419227
0.00933232
0.172976
0.347964
0.0396497
0.000424053
0.00170794
0.00139741
0
0
0.0176184
0.138677
0.463566
0.0608808
0.000573409
3.28243e-005
0
0
0.000443492
0.0102003
0.092715
0.572999
0.191416
0.000992272
0.00309792
0.00137499
0.00301341
0.0103148
0.0154992
0.0517741
0.128768
0.0291816
0.00259949
0.00660292
0.00801176
0.00384501
0.0746761
0.304231
0.0225977
0.00610694
0.0056452
0.00227119
0.0177885
0.00176423
0.000702406
0.00226242
0.0107074
0.0428728
0.68637
0.288211
0.0488418
0.0792982
0.0123496
0.00117068
0.0598701
0.429246
0.0397473
0.0943552
0.160556
0.116152
0.000756821
0.00133376
0.000344925
0.0941636
0.396699
0.00339987
0.000129138
4.33918e-005
7.54428e-005
0
0
0
0.111278
0.497474
0.00113444
0
0
0
0.0152099
0.00214107
7.46655e-005
0.0824624
0.497474
0.0319718
0.00749946
0.0103316
0.0162472
0.0100947
0.00233266
0.00173076
0.136837
0.497474
0.0297593
0.036807
0.0124892
0.00895128
0
0
0
0.0689825
0.424934
0.00112069
0
0
0
0.000876211
0.000487918
0
0.0804896
0.495699
0.00416621
0.000551058
0
0
0.00921757
0.00230439
0.00464768
0.150551
0.476868
0.00630546
0.0131481
0.00453885
0.0030259
0.0124337
0.00396828
0.00278861
0.126356
0.495699
0.0324287
0.011811
0
0.00509341
0.0122865
0.0176419
0.0110899
0.057708
0.446693
0.0150563
0.00499413
0.000105411
1.8602e-005
0.0120072
0.0975716
0.140609
0.0285009
0.0239661
0.00338022
0.00384946
0.00102221
0.000130214
0.101834
0.0965618
0.067456
0.0465261
0.461852
0.061999
0.0319674
0
0.018062
0.07437
0.344579
0.534082
0.0400997
0.0133551
0.00683603
0.00731826
0
0.00336167
0.000721938
0.0593436
0.267722
0.0593802
0.00379202
0
0.000628251
0.000409349
3.52822e-005
0.018603
0.0669764
0.544155
0.0825865
0.00336985
0.000233713
0.000523789
2.99167e-005
0.000578613
0.00269364
0.212716
0.484411
0.054281
0.0023021
0.00395629
0.00430953
0
0
0.0480971
0.112951
0.466513
0.105034
0.0189168
0.0105008
0.0198516
0
0.0033169
0.069245
0.148358
0.639726
0.0934823
0.0185438
0.00913885
0.00268797
0
0.00358331
0.116793
0.148852
0.332937
0.130983
0.0765987
0.0557178
0.0330246
0.00381035
0.0425617
0.12577
0.0966591
0.270335
0.0783073
0.0693095
0.0515936
0.0313373
0.00928403
0.0159572
0.0450864
0.0392397
0.0782117
0.0701597
0.251029
0.134141
0.0360103
0.0348379
0.0210212
0.171532
0.000670717
0.0026467
0.0113149
0.0237092
0.0338356
0.000320071
0.010878
0.128227
0.256617
0.00514456
0.0173962
0.0224196
0.0185736
0.0115473
0.0103158
0.0178827
0.135072
0.388448
0.00040243
0.0003438
0.000555304
0.00218361
0.00359181
0
0.0192222
0.352533
0.58213
0.00281701
0.0024066
0.000978374
0.0014051
0.00137421
0.00110112
0.00910822
0.399348
0.129316
0.00602653
0.00641228
0.00857694
0.0262467
0.0238224
0.016265
0.0453708
0.134754
0.172579
0.0251687
0.000235344
0.00163787
0.0334382
0.143582
0.190069
0.0450288
0.148495
0.357013
0.00744432
0.000852556
0.000187385
0.00275838
0.00168157
0.00106035
0.0243522
0.361187
0.540368
0.0245355
0
0
0.00384938
0.0203336
0.0358032
0.0285021
0.453483
0.0554645
0.0062111
0
0
0.0095134
0.0835361
0.225017
0.0800191
0.0615282
0.00813118
0.000184669
0
0
0.00428515
0.0411123
0.558984
0.3371
0.123425
0.180078
0.00899872
0.000578853
0
0.000403853
0.0129949
0.0521289
0.0754577
0.227868
0.0423609
0.0232689
0.00405197
0
0
0.00643722
0.110827
0.353576
0.437288
0.00807001
0.000376609
5.51605e-005
0.000102441
0.000638996
0.0057413
0.295818
0.326998
0.0923179
0.0489739
0.00698386
0.00661333
0.00716231
0.118736
0.0175407
0.0994751
0.330656
0.15527
0.0175817
0.0067682
0.00119439
0
0
0.0009102
0.103781
0.387593
0.23054
0.0388975
0.00724599
0.010869
0
0.0220635
0.00685206
0.0921752
0.544349
0.247847
0.0413125
0.019112
0.0263975
0.0273072
0.475827
0.13769
0.0451481
0.134093
0.129264
0.0784111
0.0234616
0.0367216
0.122005
0.462228
0.168196
0.0990401
0.108403
0.0886256
0.0311391
0.0298897
0.0439651
0
0.0888622
0.110061
0.0595106
0.321455
0.317863
0.113936
0.0638631
0.0707758
0.0402295
0.0769871
0.157761
0.0758267
0.148485
0.18999
0.0879068
0.014933
0.061786
0.312344
0.4084
0.0674221
0.0444069
0.0527189
0.0424949
0.11011
0.0321053
0.0355206
0.233971
0.555726
0.151725
0.0736689
0.0424375
0.0486193
0.107493
0.100318
0.108113
0.1389
0.0997984
0.0836994
0.0470028
0.0792796
0.0691323
0.172647
0.131702
0.118231
0.0998602
0.116891
0.129417
0.0898435
0.108042
0.136638
0.306535
0.130989
0.0566972
0.0239339
0.163514
0.0768989
0.049857
0.0271495
0.0908006
0.233513
0.224798
0.391967
0.0601695
0.00251962
0.00285866
0.00859037
0.042833
0.0785794
0.379676
0.13484
0.0854263
0.0104079
0.021669
0.0415698
0.0421123
0.105826
0.211859
0.289827
0.0782499
0.111645
0.0307435
0
0.000333103
0.0140118
0.161609
0.318581
0.0296677
0.154535
0.363894
0.0759078
0.00305758
0.0160476
0.0235938
0.0808822
0.0625826
0.0905302
0.080802
0.184328
0.0806195
0.0255844
0.0337766
0.0707398
0.0905693
0.151913
0.105287
0.0201503
0.0753809
0.0355782
0.000405403
0.00962857
0.0213263
0.158508
0.317939
0.214876
0.0126374
0.0228143
0.013413
0.00343515
0.0189079
0.0423747
0.1605
0.628158
0.131025
0.0399503
0.0200992
0.0210432
0.0244798
0.0184173
0.0250109
0.0335996
0.120041
0.130989
0.0249998
0.00380611
0.00461379
0.066673
0.0297645
0.0108287
0.0686623
0.205385
0.280153
0.0172974
0.00115248
0.00145994
0.00288125
0.00387456
0.0124705
0.0533927
0.442398
0.398624
0.0106321
0.00054373
0
0.00560385
0.00199538
0.00458799
0.0654749
0.583907
0.251531
0.00172096
0
0
0
0
0
0.024004
0.335043
0.407023
0
0.0127913
0.0296062
0.00358111
0
0
0.00326222
0.390054
0.220989
0.033249
0
0
0
0
0
0.0297796
0.262047
0.297389
0.122907
0.152297
0.208105
0.028999
0
0
0.0244706
0.291827
0.196931
0.0496464
0.0305645
0.0383509
0.00185765
0
0
0
0.130747
0.4131
0.0875293
0.0317018
0.0232215
0.000589257
0.00615366
0.0196435
0.0332614
0.22209
0.134069
0.121154
0.245338
0.330998
0.0185469
0
0
0.00148803
0.0550392
0.450945
0.193745
0.245531
0.265491
0.0358131
0.150265
0.0934726
0.0907309
0.114581
0.243875
0.0238625
0.00509744
0.00296974
0.0118337
0.0493927
0.0734613
0.105446
0.28827
0.0393522
0.0418289
0.00946724
0.00914434
0.0184782
0.0630022
0.117698
0.245787
0.303814
0.224637
0.0569062
0.0447916
0.0795898
0.236326
0.402703
0.184249
0.159435
0.153206
0.0552835
0.00850976
0.077817
0.151638
0.276177
0.242971
0.134364
0.0975273
0.0998741
0.0307041
0.0176195
0.00395846
0.00310231
0.0027346
0.00914614
0.066797
0.395829
0.221461
0.0730444
0.00369856
0.0037738
0
0
0
0.0440791
0.611278
0.278626
0.13547
0.00734361
0.0325369
0.0421951
0.0322974
0.0127103
0.0411693
0.0867085
0.155312
0.312465
0.00889583
0
0
0
0
0.00924772
0.137107
0.227821
0.120306
0.0123136
0.0122373
0
0
0.0329764
0.0359463
0.307124
0.333936
0.28983
0.111324
0.0363399
0.00357705
0.00950316
0.0598934
0.0600995
0.0676704
0.19915
0.321955
0.00892059
0
0
0
0.00477499
0.0131276
0.0692346
0.261566
0.52858
0.0521011
0.0047019
0
0
0.00866299
0.0227167
0.00768878
0.21484
0.188202
0.317091
0.0933188
0.0179022
0.0354133
0.0306601
0.0397997
0.0352729
0.0499658
0.126535
0.315342
0.224653
0.0181776
0.021248
0.0291402
0.0439244
0.0913601
0.110238
0.448173
0.143168
0.0281288
0.00762077
0
0.0019021
0.00714651
0.000503649
0.132791
0.465206
0.149854
0.062819
0.0130668
0
0
0.0105766
0.0308118
0.124483
0.160569
0.0964768
0.142494
0.00911314
0
0.00449957
0.0159087
0.117296
0.146184
0.226891
0.0245365
0.0330074
0.00476185
0
0
0.010054
0.1308
0.367678
0.400717
0.0793907
0.0285301
0.00309499
0
0
0.00510868
0.0482862
0.140347
0.378893
0.048162
0.00471534
0.000680264
0
0
0.00111554
0.063726
0.432537
0.182107
0.00216368
0
0
0
0
0.00298438
0.0474569
0.283026
0.207732
0.000455982
0
0
0
0
0.00310993
0.0895992
0.472107
0.322308
0.0288663
0
0
0
0
0.000339389
0.0310337
0.253609
0.370972
0.033202
0
0
0
0
0.00472032
0.0876766
0.37082
0.166309
0.00260362
0
0
0
0
0.00226519
0.0819825
0.35738
0.306801
0.00433937
0
0
0
0
0.000277804
0.0494169
0.413535
0.232572
0.0200429
0
0
0
0
0.00377532
0.0792056
0.301215
0.363963
0.0214765
0
0
0
0
0.000463006
0.0545136
0.356613