0
0
0
0
0
0
0
0
0
0
0
0
0
0
0
0
0
0
0
0
0
0
0
0
0
0
0
0
0
0
0
0
0
0
0
0
0
0
0
0
0
0
0
0
0
0
0
0
0
0
0
0
0
0
0
0
0
0
0
0
0
0
0
0
0
0
0
0
0
0
0
0
0
0
0
0
0
0
0
0
0
0.00541285
0.00137776
0
0
0.00196899
0
0
0
0.00127955
0.00384618
0.0117741
0.00784939
0
0
0
0
0
0.00384618
0.122885
0.586423
0.0983951
0
0.0137829
0
0
0
0.00854288
0.00933899
0.000970922
0
0
0.000347077
0
0
0
0.00204967
0.052184
0.019774
0
0
4.95824e-005
0
0
0
0.004627
0.149342
0.243418
0.011222
0
0.00242954
0
0
0
0.00678001
0.708611
0.513927
0.00109413
0
0.000347077
0
0
0
0.0110741
0.0690882
0.0203804
0
0
0
0
0
0
0.0148213
0.108851
0.00803205
0
0
0
0
0
0.00062474
0.079418
0.593876
0.242574
0
0
0
0
0.00623026
0.00850928
0.104546
0.495637
0.0645936
0
0
0
0.0150391
0.0604445
0.116975
0.41397
0.0739515
0.00219325
0
0
0
0
0
0.00235892
0.109789
0.134745
0.0777347
0
0
0.00583867
0
0
0.00141535
0.0717846
0.210275
0.0331397
0.0292012
0
0
0.0208901
0.0541757
0.136155
0.420166
0.401138
0.529887
0.19546
0
0.000465706
0.0029843
0.0107089
0.035839
0.276316
0.143871
0.0998424
0.0262043
0.00543186
0.0365582
0.00661243
0.000143151
0
0.0194021
0.098733
0.106087
0.242346
0.099253
0.0614384
0.0165767
0.00115093
0.00133982
0.0206242
0.404829
0.393622
0.0883748
0.00293346
0.00334741
0
0
0.0568055
0.275278
0.309559
0.16894
0.118553
0.0859142
0.0170839
0.00725499
0.029415
0.165815
0.398867
0.106593
0.0764448
0.370434
0.155944
0.0380338
0.0063758
0.00883784
0.0260931
0.0405207
0.267708
0.127058
0.147291
0.043776
0.0135342
0.0144555
0.0209836
0.120706
0.178226
0.127532
0.0918337
0.158019
0.163729
0.0565739
0.0319198
0.0662803
0.201024
0.218812
0.147703
0.257827
0.195169
0.0657551
0.0334507
0.0278252
0.0603886
0.341709
0.178773
0.115568
0.0745997
0.0600544
0.183904
0.0644145
0.047156
0.0120294
0.0571846
0.0623827
0.0267422
0.0160668
0.0669427
0.464991
0.255872
0.0485763
0.00635593
0.0197455
0.0110218
0.0605221
0.20065
0.273347
0.256514
0.0408099
0.0168846
0.0150853
0.0748833
0.0374099
0.00733075
0.0574783
0.190863
0.462234
0.204246
0.0101307
0.00337691
0.00282078
0.00244255
0
0
0
0
0
0
0
0
0
0
0
0
0
0
0
0
0
0
0
0
0
0
0
0
0
0
0
0
0
0
0
0
0
0
0
0
0
0
0
0
0
0
0
0
0
0
0.00926705
0.0258509
0.00124246
0
0
0
0
0
0
0
0
0.00554177
0.0079507
0
0
0
0
0
0.024678
0.626565
0.224946
0.0556549
0
0
0
0
0.000849716
0.0156472
0.0274576
0.000120331
0
0
0
0
0.000849716
0.00924624
0.201125
0.127808
1.71902e-005
0.000412094
0
0
0
0.00143965
0.00050983
0.0728887
0.276122
0.0303366
0.00198293
0
0
0
0.00050983
0.00184136
0.539191
0.69885
0.0151591
0
0
0
0
0.000849716
0.0580847
0.256712
0.0677928
0
0.000297975
0
0
0
0.000764328
0.329028
0.365364
0.0215146
0
4.25679e-005
0.000907827
0.00136174
0
0.00706809
0.0259845
0.462922
0.315689
0.000635888
0
0
0
0
8.31512e-005
0.213533
0.497458
0.109355
0.00400201
0.0102334
0.00777007
0.00953218
0
0.0152284
0.449735
0.208713
0.000752358
0.00210838
0.0182614
0.0193619
0.029389
0.00588814
0.104422
0.223918
0.0342907
0.00282931
0.0336242
0.0984991
0.0582196
0.126565
0.0771234
0.218491
0.264674
0.206431
0.00612186
0.0875579
0.161407
0.0710399
0.0654018
0.00110561
0.0783271
0.0819849
0.0162114
0.0336302
0.384901
0.412025
0.115938
0.126485
0.013039
0.0822209
0.0483798
0.0201904
0.0413842
0.0601354
0.0602079
0.0459064
0.0803738
0.07217
0.104191
0.0911957
0.228786
0.290395
0.115081
0.0249167
0.0106242
0.0164275
0.0172353
0.0943272
0.00418658
0.00765211
0.065864
0.297514
0.289831
0.0835673
0.0775079
0.011666
0.0124465
0.0216407
0.0685069
0.284247
0.520077
0.386664
0.0450642
0.02667
0.00344891
0.0533083
0.0907758
0.178251
0.154998
0.0371897
0.00488196
0
0.00413442
0.0841713
0.233505
0.0651996
0.0340973
0.014899
0.010723
0.00689992
0.0421933
0.133349
0.246707
0.303908
0.045079
0.0557846
0.187978
0.247767
0.106013
0.00216715
0.0201738
0.141597
0.194174
0.0261417
0.00744475
0.0196784
0.0178857
0.00568376
0.0968638
0.464631
0.406436
0.19162
0.0197329
0.0104327
0.0152374
0.0219663
0.0193479
0.11791
0.12677
0.0927733
0.079839
0.0691286
0.0651489
0.0533797
0.029237
0.021424
0.105225
0.0404201
0.0922549
0.055079
0.00114403
0.00199802
0.00799207
0.00568367
0.0111317
0.297733
0.581491
0.1119
0.0248605
0.0531842
0.017106
0.0195899
0.0262442
0.02797
0.353434
0.503794
0.0235197
0.0179388
0.180361
0.231515
0.276796
0.203539
0.032985
0.0432972
0.0139107
0.089968
0.044719
0.0321768
0.0719074
0.186282
0.277808
0.12053
0.00712457
0.000182283
0
0.00159239
0.171467
0.0792256
0.0658465
0.074571
0.0673079
0.346508
0.459144
0.0220163
0.0196946
0.0406622
0.0386979
0.0468214
0.0744115
0.0859554
0.134587
0.064062
0
0.00325646
0
0
0
0
0
0
0
0
0
0
0
0
0
0
0
0
0
0
0
0
0
0
0
0
0
0
0
0.0046034
0.00325509
0.00976528
0.0108101
0.00720675
0
0
0
0.0046034
0
0
0.000627645
0.00735763
0.00745589
0
0
0
0
0
0.00101081
0.238546
0.153614
0.0345494
0
0
0
0
0.000678069
0.000176386
0.0155679
0.05781
0.0358626
0
0
0
0.000678069
0.000406841
2.5198e-005
0.555183
0.690815
0.0813099
0
0
0
0.000406841
0
0.030147
0.311168
0.0786616
0.00458622
0
0
0
0
0
0.227539
0.506507
0.0482356
0
0
0
0
0
0
0.0054234
0.443262
0.30281
0.00809488
0
0
0
0
0
0.0570257
0.437362
0.203417
0.00966154
0.00147252
0
0
0
0.00492692
0.519259
0.535868
0.0161492
0
0
0
0
0
0.0588246
0.376191
0.153062
0.0335886
0.0642529
0.0113037
0.00835922
0
0.0154342
0.00125919
0.127229
0.288235
0.0886124
0.0192448
0.0125277
0
0
0.000237926
0.0088143
0.0776389
0.0729412
0.0412044
0.151767
0.0456166
0
0
0.00340378
0.0189806
0.0384968
0.00310007
0.109285
0.177808
0.0192988
0.0123188
0
0.00936936
0.00371141
0.00174488
0.015715
0.320256
0.350168
0.0277609
0.0141753
0
0.00314528
0.00144354
0.00640657
0.00343999
0.112301
0.349062
0.0164372
0
0
0.00104662
0
0
0.0014702
0.262563
0.676242
0.00661891
0.000452028
0
0.000110551
0
0
0.0150422
0.138603
0.21981
0.0285254
0.0114021
0
0
0.00521263
0.0019005
0.0250633
0.219044
0.40576
0.0243389
0.00759003
0.00101965
0.00594561
0
0
0.00133571
0.12098
0.42825
0.0107462
0.00111634
0
0
0.000587865
0.000625262
0.00307671
0.195815
0.645877
0.0112132
0.0012816
0.000611788
0.000103741
0.030938
0.00548633
0.0470351
0.245993
0.301435
0.0077281
0.0207254
0.0783323
0.0615519
0.0189831
0.00178868
0.00896818
0.0195922
0.0161731
0.0604128
0.431594
0.233511
0.0661518
0.00952494
0.003925
0.0170938
0.182272
0.609124
0.0088711
0.00936643
0.017048
0.0204668
0.016601
0.00402677
0.011306
0.0231232
0.0413841
0.0292429
0.239724
0.082063
0.0426023
4.08209e-005
0
0
0.000273705
0.00018247
0.0795191
0.357247
0.0455942
0.00291452
0.00235165
0.000473716
0
0.00191594
0.00266414
0.145077
0.485825
0.0222544
0
0.00152031
0.00030896
0.000129512
5.55051e-005
0
0.0517622
0.301301
0.0466874
0.0039067
0
0
0
0
0.00349609
0.347268
0.571823
0.0374239
0
0.00490707
0.00194518
0.00033441
0.00187097
0.0186485
0.20642
0.30578
0.00478235
0
0.00240207
0.00239845
0.00226439
0.00404358
0.0459726
0.11389
0.0405385
0
0.000348637
0
0
0
0
0.0815148
0.673686
0.381561
0.0062062
0
0.00104139
0.00438218
0.00406261
0.0089734
0.192935
0.328924
0.0383052
0
0
0
0
0
0
0.00261846
0
0
0
0
0.00180879
0.0105819
0.0380865
0.0878595
0.0439834
0
0
0
0.00180879
0
0
0
0
0.0156068
0
0
0
0
0.000258398
0.013928
0.0594242
0.335458
0.47698
0.120412
0
0
0.000258398
0.000343547
0.00073938
0.0228626
0.0901891
0.0163328
0
0
0
0.000343547
0.000206128
0.000105626
0.205578
0.484434
0.0736099
0
0
0
0.000206128
4.90782e-005
0.00097318
0.0333647
0.189606
0.10042
0.0272388
0
0
4.90782e-005
2.94469e-005
0.000139026
0.100079
0.667032
0.364391
0.0353363
0
0
2.94469e-005
0
9.13481e-005
0.317605
0.495678
0.0841565
0
0
0
0
0
0.0017522
0.172907
0.261035
0.0668023
0.00473246
0.00253336
0.000551679
0
0
0
0.0814822
0.520423
0.343447
0.00878557
0
0
0
0
0
0.0435777
0.2036
0.132403
0.00499658
0.00596433
0.000919465
0
0.0014664
0.0144558
0.106145
0.161358
0.0980148
0.0642728
0.0414889
0.00698195
0.00262869
0.0102648
0.0336367
0.0533331
0.0536823
0.367656
0.125624
0.047055
0.0153471
0.0184008
0.00087984
0.00014649
0.0477338
0.164384
0.113586
0.0769683
0.090535
0.0116366
0.00281699
0.00615888
0.00102543
0.015129
0.129028
0.653523
0.155852
0.122265
0.0255786
0.0197189
0.000653778
0.00170989
0.0018398
0.0589266
0.280173
0.0121962
0.0009528
0.00077729
0.00117197
0
0
0
0.128045
0.505284
0.00177139
0
0
0
0.000392267
6.5311e-005
0.000242234
0.0936339
0.402092
0.0106514
0.00374809
0.00129548
0.00125592
0
0.000368896
0.00110669
0.16813
0.621401
0.00144396
0
0
0
0
0
0
0.07486
0.309209
0.000360248
0
0
0
0
7.56874e-005
0.000782482
0.131603
0.522155
0.000693199
0
0
0
0
0.000339968
0.0010199
0.0911842
0.403648
0.000978854
0
0
0
0
4.85668e-005
0.00193246
0.142617
0.598554
0.000587313
0
0
0
0.00939505
0.00296545
0.0103997
0.16531
0.554806
0.00140265
0.000451659
0.00105406
0.00645758
0.0280163
0.0144824
0.0109083
0.0323111
0.0367387
0.00705577
0.0500774
0.0240222
0.0187472
0.0103394
0.00796707
0.0216748
0.168261
0.701031
0
0
0
0.00156216
0.042905
0.0457498
0.0320623
0.033175
0.0415977
0.00252508
0.00552392
0.0019181
0.00861406
0.00509623
0.00461355
0.00069102
0.00247224
0.00011778
0.0678409
0.125823
0.0227889
0.00290949
0.000374551
0.000563622
2.05787e-005
0.00134269
0.0187467
0.576171
0.3465
0.0137625
0
0.0149326
0.0234743
0.00785496
0.0042193
0.0001963
0.0441832
0.0236679
0.00860278
0.00405321
0.00811243
0.00724814
0.00160313
0.00225563
0.0767685
0.644488
0.129578
0.0124995
0.00383049
0
0
0
0
0.08799
0.430067
0.106418
0.000581367
0
0.000248638
0.0013788
0.00261376
0.00190435
0.162297
0.214636
0.0128108
0.000652958
0.0018635
0.0005349
4.55044e-005
0
0
0.165687
0.634251
0.0672357
0.0011239
0.000352882
0.000291369
0.000844902
0.00216125
0.000102207
0.18263
0.422678
0.11152
0.0168094
0.0166776
0
0
0
0
0.00941935
0
0
0
0
0
0.00159592
0.00931459
0.124994
0.437967
0.271511
0.0125413
0
0
0
0
0
0
0.00178135
0
0
0
0
0
0
0
0.00498558
0.155985
0.255736
0.0209022
0
0
0
0.000105874
0.00653543
0.0584262
0.111859
0.106545
0.0022616
0
0
0
1.51249e-005
0.00953762
0.21806
0.431953
0.205841
0.00135696
0
0
0
0
0
0.00284239
0.0866873
0.175359
0.00376933
0
0
0
0
0
0.0196641
0.500827
0.58097
0.0022616
0
0
0
0
0.00536003
0.224716
0.4267
0.109922
0.000241023
0
0
0
0
0.0268633
0.0931606
0.112788
0.0390808
0.00319199
0.000139859
0
0
0
0.00105385
0.0333503
0.541255
0.52675
0.00218923
0
0
0
0
0.00945973
0.0262178
0.181039
0.175663
0.0115097
0
0
0
0.000199848
0.0412757
0.0781081
0.0628464
0.0462623
0.0183027
0.00125335
0.000208646
0
0.00139894
0.0227539
0.115683
0.514627
0.0583983
0.0298895
0.00275501
0.00146052
0
0.00267231
0.0296496
0.0479817
0.101054
0.0779588
0.0233972
0.0092194
0.000326644
0
0.0187061
0.0709322
0.227497
0.650039
0.0209021
0.0207393
0.0153657
0.000544406
0
0.000109754
0.000998529
0.0807702
0.320632
0.00509055
0.00151648
0.000171878
0.000114585
0
0.0031409
0.00348861
0.126799
0.46465
0.0026457
0
0
0
0
0.00146759
0.00490578
0.11707
0.434673
0.00101547
0.000589944
0.000443484
1.57126e-005
0.000201965
0.00533072
0.00536111
0.148866
0.611176
0.00476154
0
0
0
0
0.00290181
0.00322305
0.05745
0.306936
0.00550505
0
0
0
0
0.000621297
0.00222066
0.109695
0.521258
0.00330303
0
0
0
0.000186591
0.00492494
0.00495301
0.0882956
0.412946
0.00712574
0
0
0
2.66559e-005
0.00255579
0.0035533
0.190493
0.588204
0.00383146
0
0
0
0.00408862
0.00934207
0.0277522
0.173687
0.552848
0
0
0
0.000414767
0.0233958
0.0410875
0.0536527
0.0492081
0.0273072
0
0
0
0.00331323
0.0131784
0.0399854
0.0355003
0.278942
0.640767
0
0
0
0
0.0552169
0.101103
0.0456946
0.0638017
0.0259041
0
0.0021469
0.000715632
0.00535305
0.0269101
0.047877
0.0286903
0.0151751
0.00050531
0.0216607
0.00677444
0.0059927
0.00678557
0.0258627
0.0239966
0.0073205
0.00470284
0.224267
0.644978
0.0484184
0.0134893
0.00827407
0.0520052
0.0706522
0.0271138
0.0266288
0.00393982
0.00715456
0.00530406
0.00532743
0.0155284
0.037875
0.0347265
0.0203811
0.217887
0.461428
0.323101
0.0220763
0.0322746
0.0100111
0.0011259
0.000300443
0.000504117
0.0102014
0.178563
0.444533
0.03215
0.00107358
0.000381048
0.000115744
0.000123472
0.00635991
0.0359389
0.150904
0.371213
0.14777
0.0244469
0.0116762
0.00132396
0.000984466
0.0182589
0.26892
0.321022
0.228681
0.00994502
0.00438986
5.44354e-005
0
0.00803953
0.133757
0.404706
0.249836
0.205392
0.0521517
0.00875761
0.00121702
0
0
0
0
0
0
0
0
0
0
0
0
0
0.0753607
0.0859896
0.00648192
0
0
0
0
0
0
0
0
0
0
0
0
0
0
0
0.029924
0
0
0
0
0
0
0
0
0.070856
0.0791641
0.000795631
0
0
0
0
0
0
0.331164
0.543327
0.00595699
0
0
0
0
0
0
0.0512289
0.0473432
0.00135061
0
0
0
0
0
0
0.168399
0.686952
0.0285133
0
0
0
0
0
0.00250066
0.171691
0.404558
0.0191715
0
0
0
0
0.000309303
0.00785389
0.066408
0.173925
0.0292657
0.000271358
0
0
0
0
0.000623954
0.0650184
0.69532
0.0709547
0
0
0
0
0
0.00290694
0.0243653
0.43627
0.135991
0.00177008
0
0
0.00150042
0.00749014
0.0141298
0.0657713
0.0756313
0.0423631
0.0127916
0.000745093
0
0.0105029
0.0350242
0.18031
0.381621
0.0301987
0.0180432
0.0187741
0.00124182
0
0.00015265
0.000964272
0.00424531
0.0482274
0.261392
0.199923
0.0116565
0.000447056
0
0.00106855
0.0067499
0.163305
0.685798
0.154094
0.0353412
0.00868953
0.000745093
0
0.00102494
0.00325864
0.113496
0.329854
0.00199228
0.000254339
0.000622592
4.45814e-005
0.000573036
0.00375523
0.00293741
0.136197
0.460554
0.00651427
0.000301838
0
0
0
0.000104276
0.000658699
0.155271
0.455319
0.00954479
1.3213e-005
0.000204429
2.67489e-005
0.000343821
0.00194832
0.000401486
0.229747
0.548675
0.01917
0.000503063
0
0
0.000500338
0.00327883
0.00256475
0.0942055
0.300885
0.00484006
0.000263545
0
0
7.14768e-005
0.00145713
0.00398477
0.194587
0.459085
0.000881123
3.76494e-005
0
0
0.000300203
0.00170115
0.000350551
0.132504
0.42311
0.0165588
0.000439242
0
0
4.28861e-005
0.000748383
0.00409119
0.252218
0.578295
0.00235065
6.27489e-005
0
0
0.0127698
0.0310538
0.042224
0.289796
0.482288
0
0
0
0
0.0508781
0.0786938
0.0335778
0.0389031
0.0229093
0.000669588
0.00719007
0.0075764
0.00771628
0.00253139
0.0120946
0.0446843
0.370445
0.593994
0.00228527
0
0
0
0.0125633
0.0493117
0.0693123
0.06447
0.072237
0.00849589
0.00493779
0.0102788
0.00658523
0.0173081
0.0182896
0.00976478
0.0129917
0.00439505
0.000943755
0.0036773
0.00559144
0.00606177
0.0127632
0.00889375
0.0662149
0.300801
0.143073
0.0203922
0.00271177
0.00733396
0.00293287
0.00649244
0.0238532
0.0953887
0.0653149
0.0130525
0.00550393
0.00274543
0.00704887
0.00302067
0.00739787
0.0160835
0.621706
0.633013
0.0472346
0.00317395
0.000895038
0.00301832
0.000638747
0.000904547
0.000644345
0.0662637
0.429234
0.135825
0.0201403
0.000487571
0.00137842
0
0
0.00844663
0.140758
0.400767
0.0680248
0.0140923
0
0
0
0.000662245
0.00103125
0.372631
0.528326
0.0275784
0
0
0
0
3.78594e-005
0.00235259
0.161817
0.318613
0.0073666
0
0
0
3.78594e-005
0
0
0
0
0
0
0
0
0
0
0
0
0
0.00145015
0
0
0
0
0.0134376
0
0
0
0
0
0
0
0.0134376
0.0154637
0
0
0
0.00347873
0
0
0
0.0154637
0
0
0
0.00141896
0.0337748
0.0326265
0.00104251
0
0
0
0
0
0.0132101
0.231666
0.716566
0.026016
0
0
0.00020576
0
0
0.0211964
0.0332395
0.00486522
0
0
0.00020576
0
0
0
0.176329
0.421808
0.282005
0.00298834
0
0
0
0
0
0.00300407
0.0752636
0.499389
0.054989
0
0
0
0
0
0.000202915
0.0189548
0.407245
0.224461
0.00629299
0.000426666
0
0
0
0.0391
0.183952
0.356972
0.0446929
0
0
0
0
0
0.0025806
0.0546387
0.448122
0.285226
0.0479647
0.0191532
0
0
0.00292751
0.000154079
0.00988617
0.160474
0.247903
0.0438895
0.00332963
0
0
0.0204926
0.0628612
0.380956
0.0906521
0.0546164
0.0492216
0.00965225
0
0
0.00487918
0.000256799
0.00195779
0.177072
0.371919
0.320516
0.0804323
0
0.0324458
0.0987168
0.15033
0.333915
0.0348956
0.1164
0.427432
0.10136
0
0
0.00329821
0.108013
0.395153
0.00886245
0.000770788
0.00260375
0.00134746
0
0
0
0.167275
0.454903
0.0163924
0.00134396
0
0
0
0.014195
0.0397138
0.153919
0.437243
0.0136612
0.0069028
0.0330232
0.0105029
0
0.00202785
0.0268842
0.194522
0.524031
0.051879
0.0225036
0
0
0
0
0
0.0961139
0.355169
0.0113153
0.000456248
0
0
0.000404328
0.000162404
0.00088361
0.140537
0.508664
0.00544205
8.36267e-006
0
7.13521e-005
0
0
0.0149903
0.199073
0.383632
0.0242175
0.00865439
0
0
0.0176371
0.00849487
0.00221445
0.210315
0.543306
0.0467073
0.0120642
0.0118356
0.00210294
0.00641394
0.00995982
0.00490866
0.0872505
0.251169
0.010986
0
0
0.000379653
0.0163519
0.106052
0.0700955
0.0164676
0.0369517
0.00711234
6.53342e-005
0.000600495
0.000642318
0.0715406
0.160609
0.0349118
0.0718681
0.247283
0.0485773
0.00945814
0.0231673
0.00579625
0.0630144
0.761056
0.368356
0.00579301
0.0188435
0.00691882
0.000174191
0.00330962
0.00204292
0.00236955
0.0742342
0.168487
0.0329349
0.00474524
0.0014069
8.28523e-005
0.000489633
0.000193384
0.000476161
0.0520475
0.475921
0.269492
0.00728938
0.00064987
4.97114e-005
0.000221449
2.76263e-005
0.00485869
0.381272
0.350733
0.0153551
0.00135259
0.000194273
0
0
0
7.16166e-005
0.233368
0.506109
0.175636
0.0108482
0
0
0
0
0.00016223
0.0115326
0.629136
0.501671
0.0221977
0
0
0
0
0.000336722
0.000766966
0.144455
0.152773
0.00918933
0
0
0
0.000209328
0.000180293
0.0477223
0.340254
0.286822
0.045796
0
0
0
0
0.000363677
0.00524076
0.0270413
0.0390912
0.0275609
0
0
0
0.000125597
0.0889459
0.00906245
0.00445797
0.00023463
0.00183068
0
0
0.00226408
0.0600038
0.048883
0.000659743
0.00138883
0.00257926
0.00304103
0.00389664
0
0.021762
0.0915038
0.310574
0.102032
0.115084
0.0355872
0.189801
0.0763265
0.0324207
0.0551238
0.298009
0.166167
0.0229128
0.0596703
0.04865
0.0626868
0.229383
0.0766386
0.101639
0.374045
0.00330954
0
0.00175979
0.0529792
0.0683701
0.0110464
0.00170448
0.0068009
0.0137107
0.000804194
0
0.00105587
0.322481
0.42918
0.285816
0.112237
0.0117044
0.00332045
0.0581782
0.00944133
0.0257705
0.0488049
0.0594993
0.0547986
0.0543102
0.0275187
0.0702004
0.0488009
0.00500949
0.061681
0.16111
0.222493
0.307099
0.390732
0.0903777
0.0439606
0
0
0
0.0558795
0.158704
0.354506
0.081063
0.00561476
0.00209287
0.0257265
0
0
0.00293545
0.0665572
0.502279
0.182025
0.100653
0.0969168
0.00388994
0
0.0286519
0.0568065
0.0955485
0.322587
0.174876
0.0314687
0.0278738
0.0828613
0
0.00946283
0.0251774
0.065105
0.371042
0.176033
0.14663
0.258154
0.0280291
0.000793982
0.000606506
3.19214e-005
0.00384536
0.09364
0.127713
0.290739
0.141065
0.0253296
0.164052
0.101416
0.081672
0.0690539
0.000377683
0.0664134
0.40407
0.135632
0.114606
0.0259046
0.0047567
0
0.00525116
0.0498259
0.120571
0.265785
0.175809
0.162761
0.50903
0.106121
0.0187347
0.00279487
0.00433986
0.0661083
0.269949
0.138172
0.00788904
0.168774
0.161162
0.203001
0.314715
0.0176293
0.0136242
0.0748602
0.0303671
0.00159281
0.040402
0.12365
0.279863
0.457459
0.0777267
0.0485242
0.000982366
0
0.048329
0.458383
0.166543
0.0963023
0.0689593
0.0197829
0.00761653
0.037858
0.0720709
0.00655762
0.120737
0.140213
0.205412
0.179202
0.0822052
0.0449888
0.0079813
0.0445757
0.00043603
0.00174412
0.0390966
0.229757
0.346109
0.0792286
0.0445922
0.0182966
0.0071978
0.10428
0.0585312
0.0120648
0.169245
0.434485
0.145807
0.0881141
0.088211
0.0556856
0.00606682
0.0158892
0.0417542
0.0937763
0.15277
0.100706
0.093192
0.111893
0.127254
0.169791
0.102946
0.0360277
0.0295684
0.123067
0.112912
0.112353
0.329188
0.43595
0.0890306
0.199071
0.0686604
0.0119465
0.051654
0.0264562
0.0166768
0.0278563
0.0182841
0.0301859
0.533608
0.330124
0.00200514
0.000924531
0.000672163
0.00010475
0.00199024
0.00133655
0.121167
0.229576
0.185176
0.0106415
0.00723209
0.0126327
0.012312
0.0686108
0.124676
0.027885
0.369128
0.474488
0.0338555
0
0
1.49643e-005
0.00182182
0.010032
0.00217791
0.570408
0.457147
0.0043845
0
0
0
0
5.96938e-005
0.000795961
0.279653
0.346292
0.0496557
0.00402352
0
0
0
0.000417857
0.00637591
0.242306
0.326894
0.0210046
0.000129324
0
0.000635013
0.000776127
0.00678638
0.00347069
0.0794308
0.0944493
0.00541826
0.000994151
0
0.00105835
0.00129355
0.00511831
0.00427749
0.184236
0.527265
0.286651
0.0678431
0
0
0
0.00123638
0.000612751
0.0219946
0.0259377
0.0644605
0.192742
0.00327964
0.00140556
0
0
0.00516088
0.0509088
0.0800831
0.0125573
0.00924107
0
0.00115203
0.00140803
0.00310367
0.00679416
0.0141622
0.0237657
0.00887043
0.273506
0.0229575
0.0163325
0.0151516
0.00490571
0.0628531
0.0992937
0.0811965
0.0474849
0.26713
0.0822539
0.0720271
0.0378171
0.0961639
0.0694985
0.0958094
0.102976
0.0463251
0.0926567
0.144971
0.0895825
0.0381004
0.132833
0.0337183
0.173433
0.0502115
0.0730652
0.25391
0.0973071
0.21833
0.0915558
0.0264438
0.22362
0.351244
0.234287
0.151718
0.132179
0.0526221
0.0997685
0.0263807
0.172043
0.0394135
0.0415074
0.0289976
0.011453
0.0068288
0.0215497
0.0419029
0.00706155
0.0289457
0.0634564
0.121987
0.11614
0.0391973
0.0370905
0.03794
0.0928533
0.0212398
0.0376403
0.0794405
0.279614
0.121876
0.0407382
0.0057935
0.00876596
0.0223948
0.00206781
0.0604049
0.233381
0.782234
0.175517
0.0268272
0.00437558
0.0067055
0.0353534
0.0408656
0.0634737
0.0401938
0.0891252
0.201954
0.111959
0.0813633
0.133913
0.118882
0.0251179
0.0598016
0.110421
0.0203793
0.0742786
0.0650688
0.0683517
0.15974
0.202719
0.148295
0.243557
0.208321
0.423826
0.20562
0.0468123
0.0179651
0.0743852
0.130293
0.14315
0.128979
0.157943
0.0847277
0.107366
0.0270057
0.0880334
0.147709
0.279196
0.177927
0.204412
0.103806
0.0628057
0.040784
0.0227888
0.0251671
0.0318693
0.161208
0.177387
0.100679
0.137915
0.497075
0.26345
0.0768274
0.0231986
0.0207272
0.0724903
0.0917089
0.0509547
0.143427
0.0631611
0.104993
0.0640431
0.06993
0.0408227
0.137893
0.0935476
0.194188
0.135055
0.146002
0.382538
0.211349
0.19346
0.0227857
0.0437087
0.0264572
0.124251
0.0373383
0.353709
0.182728
0.0784559
0.0305195
0.078192
0.0236697
0.00601812
0.0682477
0.0127083
0.131643
0.245127
0.131281
0.0752511
0.115527
0.0453464
0.00573269
0.0703094
0.0214127
0.106132
0.338386
0.164027
0.108207
0.0729978
0.0261079
0
0.0129193
0.0108271
0.144046
0.566879
0.167021
0.0318203
0.0732108
0.0369695
0.00024893
0.0100442
0.0273631
0.0949369
0.138263
0.0368101
0.0361892
0.0440609
0.0545447
0.107951
0.228576
0.118193
0.110892
0.0400377
0.00176367
0.0459853
0.0305057
0.0739795
0.410191
0.622728
0.01914
0.114151
0.22881
0.0330132
0.0362912
0.0141561
0.0132315
0.0223799
0.0548642
0.0511027
0.0592357
0.0278492
0.000965423
0.167187
0.0875221
0.100633
0.158472
0.143209
0.162373
0.204739
0.247237
0.0229317
0.0270732
0.00905204
0.0171784
0.19091
0.270928
0.108242
0.175853
0.550753
0.0895014
0.00319158
0.00198217
0.00183409
0.0579879
0.107354
0.152591
0.0573669
0.0508866
0.0441879
0.0900522
0.0848895
0.0896331
0.136843
0.0924549
0.192207
0.0421712
0.106462
0.105041
0.0390319
0.0810581
0.0656421
0.15632
0.268719
0.0823674
0.0813016
0.416435
0.0814436
0.014518
0.0314575
0.0182
0.0871627
0.162233
0.0179531
0.0219889
0.0422969
0.00788741
0.0443515
0.0536701
0.0191868
0.0482924
0.0464418
0.107391
0.0039055
0.0551743
0.204957
0.199635
0.207762
0.136234
0.248556
0.326239
0.00825252
0
0.00119344
0.156587
0.280704
0.16559
0.066909
0.0780744
0.0344357
0.00292013
0.0157042
0.0151871
0.00549695
0.0309647
0.0180725
0.00324642
0.00396785
0.00137041
0.0389423
0.0734967
0.0331084
0.00807178
0.0885923
0.00875544
0.0104841
0.0294244
0.05223
0.00203834
0.031212
0.0443986
0.117112
0.183691
0.055743
0.0123507
0.00526842
0.000154472
0.374029
0.292551
0.307161
0.260644
0.110574
0.000579904
0.00223722
0.0254478
0.193384