0.00243614
0.00765493
0
0.039037
0.210995
0.0921068
0.0549729
0.0760988
0.0232096
4.44622e-005
0.000384278
0
0.106558
0.567614
0.0971006
0.0245718
0.00711161
0.00081679
0.00793687
0.0350847
0.0232743
0.170721
0.302829
0.0730768
0.015682
0.0166385
0.00559256
0.000141576
0.00358337
0.00785492
0.259359
0.567614
0.135158
0.00373762
0.00819894
0.00448655
0.00677497
0.000344429
0
0.0724814
0.586642
0.138555
0.00931777
0.00197105
0.00755092
0.0539714
0.0304841
0.0761321
0.0266531
0.190096
0.1621
0.015698
0.00899745
0.0528565
0.0186491
0.0159501
0.0179653
0.126098
0.581444
0.174954
0.0426766
0.0187458
0.0354795
0.157427
0.0690855
0.0380445
0.0179647
0.113621
0.125143
0.0711276
0.0233405
0.147252
0.0699677
0.0983924
0.333585
0.172294
0.0378087
0.0509335
0.00596937
0.00812374
0.0533454
0.0107538
0.0801254
0.376094
0.218379
0.00866918
0
0
0
0
0.277503
0.192984
0.188087
0.0865744
0.0243025
0.054295
0.0264084
0.0342481
0.223679
0.0929511
0.284357
0.353837
0.166852
0.0654538
0.0414345
0
0.00433567
0.046423
0.0189959
0.082633
0.179974
0.0624075
0.00153567
0.00125645
0.00245268
0.00458311
0.00646488
0.0353569
0.0869574
0.105202
0.0522761
0.0150385
0.0195543
0.0401838
0.0734237
0.0483766
0.101692
0.44241
0.235351
0.0357877
0.0181862
0.00510248
0.00147161
0.005498
0.0332458
0.307415
0.407402
0.146494
0.0211529
0.00868378
0.0475878
0.137189
0.343076
0.280303
0.0191396
0.0592729
0.1121
0.0794549
0.0385685
0.0313751
0.0382899
0.042361
0.0170519
0.0358891
0.318106
0.387065
0.123559
0.101053
0.0250503
0.0370329
0.016375
0.0140102
0.0747196
0.035061
0.0474605
0.0615448
0.0628856
0.173692
0.292941
0.260244
0.0991688
0.0713247
0.0690394
0.139962
0.131918
0.173574
0.188894
0.366321
0.278558
0.176417
0.0372167
0.238538
0.23794
0.056738
0.0657092
0.0229339
0.00800493
0.016513
0.0338991
0.0243118
0.110531
0.0866146
0.113598
0.290166
0.262095
0.0175197
0.0185358
0.04329
0.189353
0.254242
0.0966556
0.0577671
0.0812596
0.0170317
0.0582281
0.122545
0.195277
0.229517
0.442511
0.189371
0.178978
0.260357
0.0523682
0.000815646
0.0247428
0.120725
0.00668358
0.0225576
0.0189367
0.0870606
0.428558
0.37944
0.0634936
0.00496125
0.010731
0.00829557
0.0149064
0.00554697
0.0219873
0.176761
0.148099
0.0676
0.0030222
0.000533329
0.159786
0.205905
0.11453
0.209857
0.439722
0.127952
0.0107143
0.0554155
0.119256
0.0668736
0.0508744
0.0183943
0.0505122
0.199574
0.0817049
0.0582785
0.078373
0.0345265
0.00153618
0.00367243
0.00610097
0.0428533
0.148084
0.140519
0.0271067
0.00152129
0.000268463
0
0.000150688
0.00972318
0.185988
0.446909
0.19696
0.00833319
0
0
0.00713299
0.013646
0.0404806
0.127373
0.124724
0.0971451
0.0535471
0.0317378
0.00237129
0.00489584
0.00105482
0.0712218
0.487241
0.365011
0.146
0.024999
0.00687365
0.00209822
0.000193049
0
0.00853536
0.194869
0.378676
0.068866
0.00473654
0.00083195
0.000193049
0.00135134
0
0.0400336
0.170692
0.441953
0.0559375
0.0132923
0.00335002
0.00135134
0.0281235
0.00558809
0.0290943
0.272958
0.312502
0.0574699
0.0345682
0.0110063
0.0302071
0.0582247
0.0410122
0.0977021
0.284518
0.297856
0.0398061
0.0313094
0.0100669
0.0478361
0.00293024
0.0144566
0.0292629
0.121431
0.196221
0.168428
0.0326601
0.00315742
9.82424e-005
0.0117722
0.0128327
0.0174985
0.115491
0.430991
0.350049
0.130078
0.0511738
0.0792066
0
0.0008405
0.00953327
0.0365089
0.0584774
0.213722
0.181722
0.0204367
0.000687697
0.0373474
0.016207
0.00966059
0.0137523
0.0650977
0.327498
0.473512
0.209713
0.20608
0.0890075
0.0678128
0.0399812
0.0330864
0.185991
0.117646
0.0644376
0.0539766
0.135205
0.145684
0.0788968
0.0252989
0.00780731
0.0278866
0.0141899
0.0284206
0.0829167
0.243171
0.241953
0.0764152
0.0239887
0.00200967
0.0244035
0.0786145
0.183233
0.203693
0.432505
0.278915
0.0708738
0.0143932
0.00104447
0.0822326
0.0328102
0.0681975
0.260434
0.499312
0.0551778
0.0467983
0.0259359
0.00411577
0.00405229
0.00922287
0.0192434
0.0821282
0.162315
0.0267316
0.253118
0.10681
0.0138886
0.0204316
0.0140505
0.00653729
0.016572
0.0396155
0.0830147
0.128934
0.0365838
0.000919231
0.0712596
0.0349315
0.114026
0.188948
0.235709
0.0774686
0.751452
0.305699
0.00202055
0.011341
0.00652978
0.045761
0.031606
0.0608354
0.0432214
0.308708
0.076018
0.00334158
0.00561865
0.00153953
0
0.000181731
0.00877219
0.161835
0.222742
0.0467574
0
0.0138465
0.0363523
0.0638811
0.0997127
0.0719646
0.109855
0.6498
0.154079
0.000342106
0.00142411
0.00208428
0
0.00689318
0.011902
0.271962
0.345363
0.0277652
0.00457313
0.199737
0.129292
0.0918682
0.101111
0.0773864
0.0646316
0.0218846
0.0047488
0.0207867
0.0593456
0.134418
0.141607
0.128992
0.0441897
0.0489624
0.019961
0.0100662
0.0619942
0.0685655
0.112759
0.122508
0.130494
0.119443
0.0852232
0.0245108
0.00180901
0.0919416
0.521835
0.216071
0.117143
0.087509
0.0479602
0.0338541
0.0315502
0.0290221
0.279102
0.567784
0.107144
0.0327038
0.0394932
0.122288
0.18844
0.132183
0.0200695
0.03753
0.0179127
0.00717476
0.0187189
0.0574458
0.131078
0.308634
0.22538
0.0406094
0.029638
0.0169353
0.0014088
0.00108901
0.0640061
0.203979
0.185345
0.140884
0.0899119
0.27857
0.268419
0.00838664
0.00358406
0.0157861
0.108159
0.327164
0.158054
0.0883985
0.153725
0.075727
0
0.050832
0.234535
0.45789
0.0955343
0.0568287
0.0135711
0.0175514
0.0203031
0.00429425
0.0209251
0.137712
0.159862
0.0201
0.00881664
0.0022015
0.00502075
0.0100392
0.00782297
0.0796106
0.147087
0.0396603
0.0726753
0.019973
0.00931534
0.00661885
0.000757062
1.00033e-005
0.259155
0.44065
0.303754
0.00273374
0.000616476
0
0.000141524
9.43493e-005
0.00366328
0.4526
0.51995
0.0537843
0.00322636
0.00316724
0.0108114
0.0545862
0.0326741
0.0181842
0.110584
0.0853682
0.00440553
0.0188832
0.028213
0.0379566
0.18728
0.0837531
0.0155404
0.0476915
0.016083
0.0143598
0.0438878
0.00135024
0.00483963
0.0244762
0.027756
0.047893
0.406004
0.460141
0.105381
0.49146
0.0863299
0.0333741
0.0653186
0.0557622
0.0614536
0.172242
0.13669
0.321143
0.0494953
0.0337916
0.0109248
0.0640678
0.0401171
0.00269005
0.011627
0.00354508
0.0369934
0.0824772
0.0638599
0.0404842
0.0680406
0.0312974
0.00143368
0.00795376
0.00263145
0.0718848
0.481123
0.104992
0.00952064
0.0152265
0.0125806
0.00547572
0.00800921
0.00609194
0.229711
0.615903
0.31591
0.0324947
0.0312343
0.0126792
0
0.000789996
0.000263332
0.297514
0.0006765
0.0148259
0.0523022
0.0572095
0.0114382
0.0909676
0.23462
0.0556453
0.00422688
0.036844
0.011041
0.010995
0.0217073
0.00339541
0.131812
0.568922
0.460081
0.22886
0.04907
0.0669907
0.0715237
0.0503295
0.0109751
0.00737056
0.0464733
0.0690783
0.0332888
0.185967
0.0910652
0.0208725
0.0407169
0.00938927
0.0123656
0.132737
0.326453
0.143933
0.0838142
0.015253
0.00374518
0.0346936
0.0215746
0.016888
0.125462
0.242391
0.324893
0.103342
0.0192651
0.0102954
0.14214
0.241665
0.0464
0.0389722
0.175075
0.328544
0.077793
0.0817356
0.0854194
0.128817
0.0250822
0.00282086
0.0447862
0.164051
0.109847
0.0340526
0.0659159
0.218652
0.565974
0.204879
0.0135365
0.0141959
0.0616016
0.0786502
0.0626273
0.141718
0.0583452
0.0535021
0.141589
0.0312309
0.0351389
0.0545875
0.0902958
0.0537543
0.521018
0.313433
0.00380922
0.0154585
0.00378846
0.014102
0.00672901
0.0311374
0.0444741
0.148769
0.22819
0.265261
0.121997
0.00661547
0
0.00463372
0.0201042
0.0291315
0.353744
0.450465
0.0687224
0.0206186
0.000541208
0
0.00194018
0.00941019
0.0661299
0.372105
0.166276
0.00435877
0.00987092
0.0113818
0
0.00756168
0.0070676
0.115394
0.149074
0.0169791
0.0536767
0.392332
0.100666
0.0201458
0.0527396
0.0291207
0.0159891
0.170613
0.166358
0.0281724
0.0709726
0.0137129
0
0.00539446
0.00338747
0.0216185
0.0414325
0.0156778
0.173989
0.676724
0.0442802
0
0.00957498
0.00505824
0.0132438
0.00350254
0
0.0572018
0.407065
0.0493913
0.0123322
0.0135315
0.00757679
0.00105009
0.00221915
0.00398372
0.105605
0.447987
0.0299337
0.00176174
0.00212742
0.0133055
0.00156934
0.00024487
0
0.113173
0.519738
0.0112998
0
0.00156118
0.000473972
0
0
0
0.101561
0.519738
0.0157965
0
0
0
0.0201
0.0185249
0.0386893
0.183855
0.404734
0.0104408
0
0.00169971
0.0231893
0.0487502
0.0227698
0.0545182
0.14641
0.182408
0.000654262
0.0783309
0.102545
0.139168
0.00137362
0
0.0047193
0.12609
0.587883
0.0108147
0
0
0.00256633
0.0111391
0.00197795
0.0131474
0.112315
0.513381
0.0109867
0.0708517
0.0363552
0.0195743
0.0133221
0.00285511
0.00859536
0.0151448
0.00941562
0.000102576
0.297638
0.197303
0.0755794
0.0028961
0
0
0
0
0.000810407
0.437181
0.335132
0.0231451
0.00586307
0.00252148
0.00464049
0.018732
0.0502422
0.0050087
0.272444
0.127911
0.0127259
0.0112728
0.000526599
0.000509564
0
0.00885449
0.0141518
0.525613
0.36119
0.0346322
0.0604007
0.00402718
0.0200068
0.0168589
0.0082501
0.00792028
0.169298
0.245052
0.103235
0.489258
0.0458623
0.0346747
0.0280981
0.0137502
0.010405
0.0366714
0.0727308
0.214456
0.0774952
0.0157242
0.032929
0.0425668
0.101705
0.0726768
0.228045
0.244686
0.118914
0.509328
0.160015
0.0548816
0.0709446
0.17784
0.169375
0.02097
0.0407299
0.160463
0.334952
0.0256801
0.00367466
0.00274061
0.00134115
0.000861504
0.00105295
0.00241765
0.195198
0.391075
0.105934
0.00208743
0.00148883
0.00063807
0
0
0
0.260459
0.336621
0.0675496
0.005353
0.00691973
0.0240882
0.036474
0.000480426
0.00195016
0.25747
0.445781
0.0649668
0.000214932
0
0
0.00130401
6.86323e-005
0.00354838
0.416471
0.108469
0.121431
0.0298128
0.0541078
0.035327
0.0686553
0.0260246
0.034059
0.0382405
0.27441
0.196698
0.0370559
0.0971994
0.105948
0.112306
0.0169563
0.068463
0.0666462
0.11137
0.113833
0.00629188
0.0284029
0.084519
0.263085
0.0984255
0.0123171
0.0309973
0.0441545
0.0731796
0.0133407
0.0772604
0.264179
0.634664
0.0981105
0
0.00349326
0.0516759
0.068532
0.0918876
0.135917
0.0640578
0.011805
0.00369443
0.0150926
0.00717202
0.00934828
0.0324215
0.223572
0.498372
0.16065
0.00851864
0.00198641
0.0045165
0.000275819
0.00658547
0.0162179
0.0243574
0.105436
0.223149
0.153083
0.0206869
0
0.000176415
0.000662105
0.00279828
0.0583373
0.461105
0.480552
0.156048
0.006898
0
0
0.00591952
0.0419874
0.196658
0.421582
0.159032
0.0022364
0
0
0
0.00355171
0.0909431
0.279621
0.207224
0.0816766
0
0
0.00088367
0.000220917
0
0.00224473
0.0335835
0.545889
0.347115
0.044669
2.6737e-005
0
0
0
0.0218927
0.0675676
0.270957
0.184062
0.0084304
0.00105659
0.000900088
0.000158839
0
0.0252455
0.0582256
0.0285132
0.0859913
0.00178103
0
0.00151373
0.000378433
0
0.0033019
0.0042752
0.0937804
0.662373
0.00540318
0
0.00090824
0.00022706
0
0.00753699
0.0283862
0.0347392
0.11054
0.00173659
0.00153273
0.000567217
0.000100097
0
0.000556316
0.00564307
0.14818
0.662373
0.00230037
0.000893603
8.10311e-005
1.42996e-005
0
0
0
0.0685396
0.457516
0.000984789
0
0
0
0
0
0
0.0782654
0.486879
0.000836209
0
0
0
0
0
0
0.0925764
0.486879
0.000505662
0
0
0
0
0
0
0.109703
0.486879
0.000641687
0
0
0
0
0
0.000109672
0.0792847
0.532605
0.00240898
0
0
0
0.00131392
0.00200902
0.0017723
0.0505489
0.375241
0.00960288
0.00785167
0.0049696
0.00138827
0
0
0
0.125841
0.532605
0.000723812
0
0
0
0.000187703
0.000949323
0.00200356
0.0859142
0.454998
0.00485389
0.000483461
0.000162265
0.000198325
0.00474315
0.00975285
0.0108774
0.0285582
0.160306
0.0233448
0.166812
0.0959322
0.0136228
0.00976476
0.00320157
0.00591475
0.0109552
0.0775791
0.16217
0.660541
0.30318
0.0261853
0.000677592
0.00789246
0.0196605
0.0638692
0.222359
0.0202805
0.020025
0.00397778
0.00194611
9.67989e-005
0.00435688
0.0117963
0.0623245
0.285755
0.27155
0.18104
0.0221464
0.00116767
0.0164731
0.00546231
0.00494666
0.0124441
0.146093
0.178105
0.190796
0.0890172
0.0240619
0.109438
0.0804766
0.00824444
0.0195258
0.315464
0.340554
0.0443406
0.0198973
0.0342631
0
0
0
0.0132169
0.318874
0.218116
0.0843295
0.0139652
0
0.0331523
0.014004
0.00649332
0.00751667
0.583943
0.296744
0.0525172
0.0254255
0.00915047
0.245718
0.105715
0.00172286
0.00408034
0.119523
0.18387
0.0145183
0.0145267
0.196042
0.462045
0.107311
0.00138943
0
0
0.0113112
0.00207404
0.0235317
0.344658
0.203566
0.0544991
0.0278705
0.00151451
0.224809
0.159835
0.0412395
0.0355862
0.0824107
0.458294
0.105618
0.018213
0
0.00467645
0.00986021
0.00589135
0.0179577
0.206573
0.0534998
0.0554971
0.0571477
0.0343648
0.129149
0.157359
0.0688703
0.0184821
0.0346248
0.0129019
0.0462831
0.0893106
0.0289872
0.218649
0.472218
0.172344
0
0.00192605
0.0401466
0.0782012
0.132057
0.231521
0.185728
0.15729
0.0174381
0.0106452
0.0170159
0.0147155
0.10668
0.19356
0.137517
0.316022
0.276633
0.177052
0.0318212
0.00661677
0.0021355
0.00392488
0.00408808
0.0123273
0.118032
0.172434
0.0738848
0
0
0.000305071
0.000457606
0.00144051
0.112471
0.339773
0.316466
0.0492208
0
0
0.00355916
0.0076238
0.00813633
0.0286236
0.18574
0.182111
0.0868145
0.00640986
0.000546055
0.000508452
0.000762677
0
0.0580392
0.461795
0.589665
0.088028
0.000770822
0
0
0.000538914
0.00242491
0.191842
0.320719
0.201499
0.00514396
0
0
0
0.00659439
0.0139443
0.0866808
0.15029
0.0813116
0.00669889
0.00391338
0.000602537
0
0
2.99257e-005
0.0413527
0.31208
0.658262
0.0594908
0
0
0
0.000231569
0.000904187
0.00869418
0.111324
0.380544
0.0535153
0.0099596
0.00145015
0
0.00259093
0.00817267
0.0154609
0.0867438
0.00975156
0.00569567
0.00240851
0.000370834
0
0.000248116
0.00198084
0.140286
0.650422
0.00283265
0.00255147
0.000344072
5.29762e-005
0
0.00014252
0.000474989
0.00803794
0.138786
0.0386241
0.0123298
0.00612968
0.000892499
0
2.036e-005
6.108e-005
0.166993
0.659742
0.015284
0.00251267
0.000875668
0.0001275
0
0
0
0.0883705
0.437833
0.000428527
0
0
0
0
0
0
0.0833797
0.49055
0.00299969
0
0
0
0
0
0
0.108433
0.49055
0.00110333
0
0
0
0
0
0
0.106728
0.49055
0.00313469
0
0
0
0
0
0
0.1008
0.552009
0.00163749
0
0
0
4.0002e-005
0.000532626
0.00139833
0.0700518
0.342566
0.00515779
0.00138
0
0
0
0
7.09904e-005
0.134224
0.552009
0.00185765
0
0
0
0.000280014
0.00278267
0.00557788
0.0905475
0.421181
0.00535469
0.000828002
0
0
0.000523912
0.00697588
0.0206641
0.0860773
0.206254
0.0213288
0.00664909
0
0
0.000314347
0.00418553
0.0189349
0.219001
0.407353
0.098796
0.00779546
0
0
0.00366738
0.0329862
0.0837001
0.138081
0.202698
0.0174282
0.00398946
0
0
0.00220043
0.0238296
0.163296
0.601215
0.315817
0.018198
0.000569922
0
0
0
0
0.000989374
0.0836995
0.358876
0.0756664
0.00492025
0
0
0.0209296
0.00414281
0.00794716
0.0495536
0.516506
0.144696
0.0218378
0.0101349
0.00599158
0
0.000599464
0.0367223
0.30658
0.289697
0.0175659
0
0
0
0.00359151
0.000283827
0.0240091
0.285639
0.465019
0.0653235
0.00799355
0.00755637
0.00975851
0.129001
0.0421481
0.0504665
0.028074
0.283512
0.114388
0.0433609
0.0390126
0.0904331
0.378035
0.0567958
0.0333955
0.0100714
0.0232701
0.00388022
0.00619441
0.0333198
0.302161
0.0230319
0.0137257
0.0346179
0.177485
0.299171
0.0695959
0.0175932
0.0929562
0.151177
0.176719
0.0269897
0.0319043
0.0264226
0.0200672
0.00457737
0.00251331
0.164334
0.502414
0.0259574
0.0273286
0.0463933
0.142037
0.202185
0.168602
0.00278304
0.00348179
0.00295942
0.00156671
0.020163
0.0578397
0.0782107
0.305062
0.196201
0.0458845
0.0980607
0.0131237
0.0106259
0.0242329
0.0501653
0.193573
0.411247
0.0948802
0.0182712
0.00634199
0.00242853
0.0142149
0.00558773
0.0589185
0.159508
0.530438
0.168663
0.0497852
0.0955708
0.00862236
0.000550281
0.00155611
0.00465152
0.0366259
0.215358
0.0889039
0.0202237
0.0290309
0.00169573
7.86116e-005
0.000117917
0
0.0990047
0.502118
0.359802
0.0774772
0.00866002
0
0.00183673
0.00148834
0.00935221
0.0302632
0.165934
0.13506
0.040354
0.0302276
0.00111411
0
0.00021262
0.000637861
0.0502053
0.327594
0.411844
0.342843
0.142401
0
0
0
0
0.0409243
0.115913
0.374612
0.11054
0.00470393
0
0
0.000551933
0.000674585
0.00413306
0.0150608
0.292062
0.140605
0.0121184
0.000304748
0
0
0
0.0219013
0.0644312
0.334407
0.373339
0.155362
0
0
0.00386353
0.00472209
0.00247984
0.00391299
0.265462
0.501742
0.240847
0.0131894
0
0.00126302
0.00154369
0.00681567
0.106175
0.0433826
0.036218
0.00671732
0.000256548
0
0.00075781
0.000926212
0.103643
0.642602
0.019069
0.00321577
0.000708861
3.66498e-005
0
0.014304
0.0248109
0.0394949
0.093946
0.030519
0.140382
0.10906
0.025702
0
0.0144095
0.0298253
0.197324
0.642602
0.0151608
0.0123433
0.014086
0.0142293
0
0
0
0.0662524
0.45746
0.00212014
0
0
0
0
0
0
0.0799968
0.488264
0.00243211
0
0
0
0
0.000776885
0.00261846
0.0708432
0.488264
0.030032
0
0
0
0
0
0.0043875
0.0604338
0.488264
0.083046
0
0
0
0
0
0.000203848
0.111879
0.571997
0.00146806
0.000110951
0
0
0.000108817
0.00683281
0.010667
0.0801913
0.312675
0.00195202
0.000776655
0
0
0.00100626
0
0.00229339
0.0938065
0.571997
0.0822496
0.000776655
0
5.29615e-005
0.00704385
0.0164483
0.0329657
0.091938
0.381077
0.0411793
0.00543658
0
0.00037073
0.00344271
0.0568441
0.0948901
0.0821698
0.0714153
0.00268381
0.000903044
0
0
0.0080355
0.100228
0.238045
0.22096
0.0823165
0.0208302
0
0
0
0.0257447
0.21581
0.237869
0.108134
0.0708405
0.0187179
0.00632131
0
0.000431061
0.10253
0.645348
0.419858
0.0693535
0.021576
0.0111539
0
0
0
0.00254911
0.0546489
0.169872
0.238553
0.130272
0.0213609
0
0
0
0.00220845
0.0294873
0.153017
0.365622
0.222796
0.011803
0.000137207
0.00349296
0.00941551
0.145214
0.452677
0.269322
0.0690708
0.0253502
0.00969859
0.00145363
0.000622985
0.00991909
0.162001
0.322961
0.327563
0.190299
0.0462586
0.00178947
0.0101754
0.00436089
0.017663
0.0188096
0.0192776
0.18269
0.26089
0.148674
0.00731287
0.000260445
0.0365007
0.114964
0.100314
0.0400433
0.185599
0.0584392
0.00819077
0.00070692
3.72065e-005
0.0788268
0.421053
0.0790449
0.207842
0.421145
0.193986
0.0436261
0.00295798
0.0124469
0.00335091
0.017761
0.0728673
0.162136
0.367327
0.0751147
0.0374771
0.0156788
0.0089022
0.00356213
0.0929819
0.0117779
0.00827954
0.022114
0.155275
0.370819
0.15877
0.0529013
0.00556532
0.00400227
0.0718858
0.024062
0.083896
0.155853
0.332824
0.146739
0.0928737
0.019473
0.023983
0.0204978
0.00600681
0.00974343
0.0324898
0.239736
0.382819
0.16947
0.0181221
0.0191623
0.0859699
0.0317285
0.101208
0.0290833
0.105039
0.251083
0.249126
0.0527287
0.0766216
0.0123931
0.0109716
0.0343161
0.0378849
0.0880419
0.111151
0.0793222
0.0152401
0.00413467
0
0.00156737
0.00642802
0.0204066
0.0904065
0.305525
0.61989
0.248443
0
0.0147165
0.0161721
0.0569236
0.0167107
0.0483466
0.0472658
0.0660654
0.0152906
0.0131048
0
0.00325272
0.0258483
0.0530183
0.0906569
0.274276
0.436135
0.099514
0.00436625
0
0
0.000256884
0.00102754
0.00577855
0.107668
0.348619
0.144129
0
0.000483922
0.00127947
0.0015638
0
0.000371995
0.0828247
0.425774
0.300064
0.0210677
0
0
0.00179819
0.00719275
0.0105036
0.11779
0.316333
0.145032
0.0061304
0.00338745
0
0
0
0.000172666
0.0618825
0.392218
0.455484
0.0728553
0.0139591
0.030771
0.0280685
0.0498113
0.0299966
0.0198177
0.223264
0.209015
0.0458993
0.0223423
0.0466425
0.0457348
0.311625
0.572422
0.0276209
0.0531167
0.0323146
0.0206848
0.0432101
0.0284069
0.0091092
0.0354563
0.00286376
0.0297949
0.254732
0.296054
0.0904852
0.0663234
0.0473448
0.0349809
0.28667
0.292702
0.0487002
0.144913
0.153894
0.058325
0.00426781
0.0102203
0.012024
0.10945
0.483775
0.0838289
0.00371478
0.00562461
0.0143018
0.0034606
0.0411927
0.0476506
0.122156
0.56419
0.155084
0.00222887
0.00937435
0.0238363
0.0421845
0.034674
0.0201261
0.0996053
0.255904
0.0905792
0.0368564
0.0597937
0.126716
0.0630228
0.212541
0.118307
0.219528
0.282372
0.0832179
0.0156021
0.0240529
0.140113
0.00646712
0.0184555
0.0199864
0.133079
0.637906
0.125465
0.0146824
0.00225873
0.00452789
0.041532
0.0179669
0.0721385
0.0813449
0.320786
0.0799676
0.0264652
0.00135375
0.00594932
0.0182725
0.0936561
0.0776327
0.25813
0.416251
0.061818
0.0589086
0.00971162
0.0215311
0.0486605
0.033492
0.174795
0.123261
0.20499
0.0617759
0.108709
0.0207817
0.0332032
0.0325921
0.118758
0.253996
0.0683382
0.0256039
0.0155909
0.00681627
0.000298014
0.00356008
0.0524369
0.341497
0.371697
0.086354
0
0
0
4.35047e-005
0.000826585
0.0676225
0.180461
0.446796
0.141335
0.00708306
0.0106792
0.0291578
0.0106004
0.0251161
0.0736148
0.321385
0.388738
0.197777
0.00317148
0
0.000903825
0.013653
0.0425174
0.186032
0.463402
0.302812
0.119984
0
0
0.00533162
0.00247908
0.0400692
0.223605
0.335666
0.218745
0.0636269
0.00153946
0.00657254
0.038835
0.0178754
0.0753191
0.0456546
0.188617
0.267548
0.287444
0.0179472
0.00662802
0.00743857
0.0287905
0.0722803
0.0529637
0.0856362
0.195534
0.145058
0.0283033
0.029769
0.0368575
0.073335
0.10246
0.121122
0.249589
0.279548
0.0708366
0.0195914
0.0543103
0.0706589
0.0201742
0.047621
0.0420487
0.15627
0.221914
0.0394517
0.117095
0.0987423
0.163102
0.0760274
0.00448095
0.071097
0.084353
0.177938
0.20071
0.0590299
0.128551
0.0811233
0.0864786
0.104145
0.0814768
0.0551878
0.0970999
0.190015
0.091741
0.119326
0.265117
0.374168
0.0790076
0.0262247
0.00612416
0.0103437
0.0222793
0.0514541
0.17546
0.193409
0.0603521
0.0551984
0.0187571
0.0211157
0.0368777
0.0433826
0.11669
0.204359
0.268084
0.0784941
0.0371666
0.0943783
0.112937
0.0795973
0.149789
0.115073
0.0484385
0.111503
0.0676324
0.0598963
0.0548687
0.106829
0.0479066
0.198805
0.570904
0.235305
0.145437
0.041466
0.00725866
0.0127016
0.0431045
0.0670269
0.0411034
0.105622
0.100606
0.0640041
0.0258757
0.0109136
0.0049459
0.0237786
0.0421728
0.0501188
0.181314
0.449275
0.27576
0.105332
0.0510247
0.0160458
0.0733627
0.0622818
0.166669
0.344306
0.152249
0.0312228
0.0189751
0.0116241
0.0282263
0.044832
0.0404721
0.14228
0.119153
0.327115
0.200989
0.175835
0.162131
0.00280325
0.00261844
0.0116388
0.0142753
0.0284112
0.130386
0.196458
0.23197
0.0603588
0.0166234
0.00436407
0.0171594
0.0140395
0.000930294
0.0283257
0.233771
0.701629
0.121983
0.0582977
0.0349443
0.0175394
0.0212587
0.0125562
0.0673555
0.0903274
0.114642
0.143938
0.16658
0.0524243
0.028599
0.0233992
0.00471399
0.00834579
0.102009
0.317363
0.157977
0.022563
0.00568756
0.00351508
0.00987597
0
0.00847903
0.118534
0.409009
0.0954052
0.060538
0.00865807
0.0110441
0.0635448
0.0634947
0.0160355
0.172479
0.35064
0.15991
0.0601686
0.00554948
0.00429134
0.00844903
0.0110702
0.00577432
0.0939665
0.355875
0.106179
0.089856
0
0.00743699
0.0143147
0.00839782
0.00293218
0.184367
0.504197
0.286858
0.116196
0.042393
0.00811941
0.0248643
0.0638469
0.0306837
0.0564212
0.132695
0.31354
0.172037
0.319305
0.155401
0.12168
0.0851747
0.0221625
0.00964977
0.0387421
0.264913
0.210778
0.019989
0.00253274
0.00310332
0.00303987
0.00314639
0.0565677
0.170705
0.428733
0.332262
0.209584
0.0887266
0.0122332
0.0220774
0.0220247
0.0575896
0.0753445
0.304581
0.0593973
0.215027
0.223736
0.196249
0.198553
0.0344587
0.0596652
0.0117807
0.0444362
0.025785
0.154186
0.29632
0.239588
0.104184
0.0425999
0.120604
0.0297332
0.0419131
0.174189
0.283823
0.209451
0.0317829
0.0213381
0.0198277
0.0436895
0.0422972
0.0502224
0.0518968
0.391024
0.409874
0.145649
0.0160399
0.0146374
0.0168323
0.00812813
0.0299081
0.0569481
0.18244
0.420985
0.409207
0.0140565
0.0117325
0.0389746
0.0165102
0.0255214
0.105209
0.218442
0.184294
0.265362
0.0153432
0.0215186
0.0146759
0.0281965
0.0726307
0.0315766
0.208221
0.328067
0.305923
0.035552
0.0112833
0.0144908
0.00216358
0.00715958
0.079908
0.085506
0.0743246
0.163002
0.0641378
0.0681803
0.0202064
0.00777748
0.0151793
0.0565051
0.101703
0.115388
0.249182
0.050588
0.0456247
0.0287643
0.130646
0.148219
0.244715
0.0638775
0.116323
0.130278
0.0576163
0.040821
0.0275371
0.232537
0.274538
0.0726546
0.0463008
0.0785229
0.0854917
0.139818
0.149975
0.0274702
0.0789348
0.117978
0.38656
0.0960124
0.099674
0.0534579
0.0838397
0.0447129
0.0403431
0.130358
0.284162
0.308707
0.155466
0.0891576
0.128739
0.0221262
0.0349457
0.0191422
0.0779364
0.118218
0.205464
0.113791
0.0700551
0.139519
0.0101046
0.0198416
0.0931452
0.224328
0.12418
0.427638
0.165514
0.0556249
0.0264125
0.0155079
0.000503352
0.0671576
0.0856267
0.11884
0.218449
0.0942891
0.0289683
0.0231038
0.00712106
0.041193
0.198227
0.229272
0.0976831
0.128125
0.191403
0.165951
0.119438
0.0787456
0.0125171
0.0204775
0.0199548
0.0105296
0.104507
0.132064
0.0722666
0.14659
0.460321
0.183163
0.0180778
0.0105789
0.00276169
0.0677012
0.119041
0.147341
0.112128
0.0652385
0.0607321
0.125301
0.189191
0.124963
0.0831807
0.0850568
0.114824
0.119606
0.307615
0.208911
0.114254
0.136907
0.0519779
0.011631
0.0227801
0.0206809
0.119535
0.349696
0.184609
0.0247937
0.0470095
0.0392547
0.0514259
0.0230969
0.018857
0.138798
0.0830167
0.0949037
0.0724603
0.205589
0.169544
0.034414
0.0160454
0.0190373
0.0596973
0.27183
0.189587
0.147085
0.180617
0.12631
0.110119
0.0147632
0.0207593
0.117877
0.17625
0.153809
0.146837
0.32735
0.271457
0.165319
0.126003
0.0206827
0.0717064
0.0037804
0.0201407
0.0406896
0.0939973
0.167672
0.329998
0.170072
0.0190375
0.0355663
0.064952
0.0989198
0.0964205
0.151327
0.188729
0.0863567
0.121756
0.0935556
0.217433
0.142159
0.083708
0.0246061
0.0914878
0.0740565
0.0903489
0.178966
0.102221
0.12759
0.182902
0.440445
0.0924165
0.191317
0.101056
0.0607933
0.0115756
0.0080706
0.0480607
0.11711
0.0747828
0.0883117
0.165083
0.063184
0.0748871
0
0.0685235
0.144853
0.0937112
0.0239245
0.0971944
0.316593
0.281501
0.0106542
0.0129778
0.0265805
0.0939898
0.337062
0.347775
0.0507814
0.0496253
0.0225902
0.0226087
0
0.224304
0.349533
0.349288
0.127865
0.0170741
0.0424488
0.0566823
0.179881
0.00356372
0.0382701
0.0481979
0.027756
0.0384279
0.0759111
0.161876
0.446932
0.261516
0.0764741
0.0137733
0.00171163
0.146461
0.107945
0.167587
0.142952
0.281377
0.0322873
0
0.137699
0.138693
0.1067
0.161712
0.0582382
0.0853397
0.0948384
0.0786293
0.0127548
0.011621
0.0184604
0.255465
0.393478
0.101858
0.100764
0.0788167
0.18497
0.219274
0.137301
0.0285805
0.0707212
0.0371568
0.0841246
0.105171
0.0464831
0.0861806
0.331244
0.475334
0.0828556
0.00489285
0
0.00565627
0.0171489
0.0212425
0.141661
0.0615922
0.15144
0.103448
0.121935
0.126586
0.033982
0.0527852
0.0546319
0.108459
0.0875042
0.439886
0.152725
0.014814
0.000863133
0.0172023
0.0536024
0.0462898
0.0812121
0.244191
0.42003
0.128937
0.0319168
0.00310244
0.0187804
0.0251871
0.0263384
0.10731
0.104811
0.0906552
0.0897707
0.171665
0.100418
0.032656
0.0237034
0.0329758
0.147457
0.0764714
0.253791
0.0613827
0.00319753
0.00476128
0.104618
0.170248
0.114963
0.239223
0.0866724
0.0186541
0.022701
0.0750752
0.100808
0.091761
0.151389
0.242484
0.0320199
0.0220048
0.0404025
0.0571901
0.176765
0.135436
0.0306646
0.0102331
0.0267186
0.0860929
0.0783969
0.147135
0.052281
0.122846
0.0576014
0.0554492
0.0290989
0.0481352
0.0919119
0.0365967
0.0360251
0.071899
0.159482
0.198272
0.034523
0.054634
0.115838
0.0322213
0.288116
0.540896
0.232048
0.191948
0.129591
0.031242
0.014176
0.0148177
0.0909705
0.106041
0.105554
0.0284497
0.0345958
0.00105094
0.0495785
0.0581142
0.0266425
0.0782149
0.0741124
0.0363167
0.0276579
0.0433112
0.068879
0.157437
0.127385
0.0233726
0.0644479
0.390331
0.391458
0.0833651
0.0749276
0.0529406
0.0498007
0.0386095
0.0366297
0.079598
0.207576
0.224256
0.218511
0.329838
0.159388
0.143884
0.1035
0.0599356