0.129343
0.0805505
0.0872712
0.0506574
0.105007
0.130366
0.201759
0.0653369
0.040113
0.183059
0.19735
0.125892
0.159939
0.219728
0.0753288
0.0816526
0.00269532
0.0122687
0.0454297
0.0515033
0.0627509
0.241542
0.234426
0.181785
0.470762
0.0704098
0.00980296
0.0380386
0.205841
0.0805218
0.281566
0.29339
0.0999074
0.169572
0.0672856
0.0174224
0.113542
0.132679
0.112291
0.22812
0.25335
0.0670949
0.0602908
0.00854766
0.0214135
0.0166949
0.017661
0.154838
0.314903
0.261109
0.120344
0.0190806
0.00718598
0.0301395
0.0905087
0.187375
0.0940526
0.210421
0.130547
0.0523675
0.12135
0.167086
0.110587
0.0827975
0.133334
0.182254
0.394443
0.276604
0.143214
0.0367702
0.070391
0.112745
0.0351894
0.0101115
0.160764
0.186853
0.141827
0.0609596
0.00431348
0.000393192
0.00618178
0.201861
0.0692043
0.138101
0.0786111
0.0949961
0.0422967
0.00517799
0.0106394
0.0327608
0.049351
0.0385537
0.20697
0.407275
0.303973
0.0725086
0.0216555
0.00565401
0.0096015
0.324502
0.036235
0.426698
0.277062
0.171779
0.0805031
0.0456664
0.028761
0.0446005
0.163949
0.12332
0.0699916
0.0305756
0.0945087
0.0667138
0.00757185
0.0372925
0.0674263
0.0925782
0.222225
0.138785
0.109569
0.0675685
0.0573097
0.0249915
0.16467
0.110418
0.328731
0.136244
0.28974
0.0596501
0.0210055
0.0839697
0.0316239
0.0442319
0.140221
0.355265
0.308873
0.227828
0.046261
0.0106346
0.018103
0.0286368
0.0561986
0.361956
0.063413
0.0596561
0.0657306
0.122961
0.0547448
0.05303
0.0354738
0.0697762
0.138609
0.101947
0.0167764
0.013475
0.0761202
0.0940293
0.292841
0.264375
0.0957321
0.140893
0.216462
0.0784807
0.129879
0.0510422
0.0383587
0.0802383
0.0189355
0.0245789
0.286381
0.531316
0.0274357
0.0408041
0.060306
0.0821707
0.199169
0.0837822
0.0711496
0.340847
0.0712539
0.0101136
0.0890448
0.133225
0.0524723
0.154901
0.160156
0.0535349
0.0493845
0.0689005
0.0409094
0.193507
0.400825
0.087308
0.0449284
0.0859307
0.0375865
0.0543773
0.442087
0.100009
0.0602285
0.0604023
0.0195106
0.0624561
0.0636309
0.0203582
0.173745
0.428348
0.154184
0.109569
0.124767
0.0288517
0.0222441
0.0942179
0.130381
0.290555
0.04901
0.0879753
0.127244
0.206333
0.070786
0.0449014
0.0772602
0.0738281
0.0861311
0.0551973
0.10889
0.087511
0.0395681
0.0753192
0.102437
0.107775
0.0680807
0.0715883
0.191799
0.139256
0.101777
0.0640292
0.0297478
0.0174963
0.11255
0.363491
0.422395
0.27307
0.169082
0.101951
0.0210373
0.023363
0.0421227
0.148297
0.267561
0.321467
0.0414761
0.0514113
0.0721214
0.053178
0.0315214
0.0500388
0.127906
0.116208
0.0559338
0.079787
0.0177715
0.119817
0.0703093
0.0540462
0.0214558
0.125585
0.36103
0.374861
0.196624
0.0340639
0.0120579
0.00551941
0.0229733
0.0959469
0.263418
0.126151
0.16429
0.0868564
0.0141642
0.0111393
0.0354003
0.141037
0.322009
0.346111
0.254021
0.196012
0.0604578
0.0205315
0.0460911
0.027136
0.0389364
0.0491192
0.0626301
0.17219
0.200126
0.0800678
0.0817383
0.108965
0.111946
0.245576
0.198185
0.184412
0.0947174
0.0890635
0.017972
0.0225379
0.0178948
0.0255972
0.095193
0.186299
0.118087
0.16172
0.0797523
0.00917214
0.021643
0.0312278
0.0407498
0.256219
0.562608
0.392204
0.104837
0.0249153
0.125687
0.101575
0.298048
0.324355
0.216504
0.0782018
0.173279
0.0301795
0.0284899
0.0465987
0.0901914
0.143075
0.267257
0.218825
0.0667605
0.104723
0.135992
0.114346
0.102529
0.122626
0.332558
0.110371
0.101158
0.162242
0.0317917
0.0386092
0.0769766
0.0797777
0.0670398
0.109217
0.104874
0.123842
0.142625
0.130148
0.172525
0.300857
0.0634699
0.054072
0.048923
0.0816915
0.0310565
0.0168985
0.0613637
0.118031
0.110027
0.0840763
0.0990944
0.124915
0.116587
0.0509164
0.013208
0.0346201
0.0474845
0.114613
0.304412
0.039984
0.0227532
0.0790086
0.0292637
0.0405907
0.0899913
0.13182
0.251322
0.628498
0.212219
0.205696
0.0345009
0.0159031
0.00528172
0.0503829
0.058915
0.340019
0.0263368
0.0370927
0.0646566
0.086246
0.0677206
0.00363011
0.0194454
0.00650688
0.0217068
0.123003
0.141441
0.191238
0.0715485
0.059402
0.00990728
0.0295627
0.0108569
0.0209155
0.186455
0.310519
0.287288
0.0159455
0.0167921
0
0.0148057
0.00511516
0.0871997
0.345061
0.631963
0.306698
0.0173096
0.0136412
0
0.0159519
0.00546812
0.0367986
0.107323
0.189741
0.0977396
0.0172174
0.00392061
0.00663175
0.00488316
0.00390407
0.0219337
0.265315
0.198182
0.0418969
0.00819489
0
0.000947392
0.00495249
0.0028448
0.13795
0.307009
0.508625
0.0755594
0.00969446
0.000560088
0
0.00160354
0.000838996
0.0242766
0.508625
0.358081
0.0252606
0.0051203
0
0
0.000662384
0.000348284
0.119766
0.280125
0.0330027
0.0175335
0.0035983
0.0027185
0.00520739
0.00470463
0.00496872
0.15817
0.368008
0.00583726
0.00683299
0.00358452
0.00453083
0.00904731
0.00452283
0.0459794
0.265168
0.472269
0.0649467
0.00128852
0
0
0
0.00112462
0.00843304
0.182468
0.380551
0.00911769
0.000708773
0
0
0
0.00360338
0.108158
0.472269
0.231853
0.0367301
0.00108431
0.00244149
0.000680232
0.00183507
0.00311872
0.0727304
0.236047
0.139675
0.0589475
0.00820901
0.00300864
0
0.00642162
0.0427834
0.17362
0.202272
0.135103
0.0147098
0.000239981
0
0
0.00122199
0.00370368
0.17494
0.499345
0.0627741
0.0435607
0.00563326
0
0
0.0177189
0.159304
0.457916
0.445962
0.0352788
0.0209992
0.0107659
0.00193736
0.000678109
0.0184946
0.079813
0.156905
0.095746
0.0586764
0.0185796
0.005891
0.0078678
0.00474676
0.016562
0.072224
0.106931
0.144323
0.0162851
0.0188322
0.00529467
0.00712014
0.00474676
0.0329876
0.351151
0.487162
0.147129
0.0199732
0.0058988
0.000654129
0.049841
0.0412985
0.0261104
0.483654
0.444539
0.204364
0.08271
0.00987123
0.00112096
0.00469378
0.0061345
0.0417959
0.138986
0.0987068
0.17977
0.0288477
0.0150388
0.00238622
0.00715865
0.0295267
0.175441
0.251093
0.197471
0.0935663
0.0174069
0.00214275
0
0.0316345
0.0589428
0.0528222
0.372623
0.396697
0.234678
0.0139267
0.00705957
0
0.0234264
0.0938817
0.119491
0.32547
0.44176
0.158483
0.0215301
0.0738227
0.0515259
0.0247787
0.0792604
0.127882
0.110876
0.169741
0.0686449
0.0279418
0.131086
0.0882897
0.0682337
0.187169
0.264853
0.157151
0.0975035
0.022752
0.0147029
0.0888264
0.0460165
0.0989036
0.190169
0.100044
0.229669
0.265052
0.121346
0.14416
0.570204
0.112462
0.142901
0.181158
0.119975
0.0945243
0.116565
0.0453206
0.0367899
0.0380029
0.0571152
0.0835386
0.0700069
0.135136
0.0738908
0.0480238
0.0414533
0.123702
0.140775
0.0240767
0.118206
0.103299
0.155013
0.0652565
0.0991583
0.161016
0.0550526
0.0175625
0.00829668
0.066088
0.0514519
0.197002
0.458478
0.361995
0.0507174
0.175081
0.307956
0.119584
0.200151
0.1317
0.275502
0.174377
0.127527
0.156513
0.171455
0.0527381
0.040905
0.0176725
0.0064229
0.0232645
0.0120063
0.048385
0.0965603
0.294519
0.179036
0.33475
0.0196857
0.000375395
0.00288865
0.00349963
0.0219593
0.127637
0.0945282
0.176793
0.256586
0.139089
0.0282684
0.045095
0.00488137
0.0487877
0.103752
0.111458
0.293482
0.547125
0.324357
0.0131776
0.00545631
0
0.0257078
0.0780973
0.0814596
0.239763
0.278792
0.00638117
0.000230381
0
0.000369626
0.000135913
0.0261554
0.100977
0.416848
0.193767
0.010369
0.00161267
0
0
0
0.0151466
0.0346272
0.245822
0.416848
0.0922095
0.00317474
0
0
0
0.0053941
0.0691469
0.416848
0.411675
0.0434728
0.0128917
0
0
0
0.0180376
0.175973
0.310024
0.100449
0.0285751
0.000728509
0
0
0
0.0250085
0.443322
0.16325
0.0516464
0.0168913
0
0
0
0
0.077033
0.130896
0.33933
0.340225
0.0765385
0.0104505
0
0
0
0.0256451
0.431908
0.261128
0.230916
0.0436136
0.00321058
0
0
0.00555009
0.14429
0.347776
0.048294
0.00324735
0
0
0
0.000176319
0.0027325
0.156239
0.254056
0.00927598
0
0
0
0
0.00144006
0.0466137
0.396509
0.388929
0.0793346
0.0263711
0
0.000503893
0.00508283
0.00871982
0.0228416
0.29572
0.353587
0.00815114
0.00413282
0.000682199
0.00352725
0.015835
0.0274195
0.06028
0.455171
0.0779034
0.0164263
0.000216171
0
0
0.00428228
0.0152312
0.100891
0.396427
0.0263156
0.0516176
0.00151319
0
0
0.0319423
0.159049
0.25669
0.300987
0.134378
0.0129752
0.0105094
0.00216072
0.0013583
0.0190396
0.0756353
0.192044
0.353614
0.0282663
0.0371647
0.0137945
0.00270169
0
0.0877563
0.385289
0.4302
0.253096
0.0076328
0.0210637
0.00044437
0.00162617
0.00108411
0.0160715
0.151241
0.270053
0.100691
0.00252173
0.00221022
0
0.0113832
0.0125997
0.024781
0.323942
0.380923
0.0908442
0.0083428
0.0217951
0.00262119
0.000451361
0
0.0633075
0.304207
0.338433
0.0978522
0.00147298
0.00294128
0
0
0.0127378
0.12907
0.41843
0.41843
0.0668489
0.00191539
8.34161e-005
0
0.00579444
0.0242161
0.059186
0.291775
0.251727
0.0589302
0.0102839
0
0
0.0523139
0.0638602
0.0898519
0.144432
0.116303
0.0668074
0.000867319
0
0
0
0.033036
0.237946
0.49326
0.317624
0.043148
0.0134352
0
0
0.074026
0.0871405
0.390323
0.339081
0.235826
0.0371681
0.0177904
0.021309
0.00409631
0.12794
0.151011
0.113527
0.159244
0.0685256
0.0412787
0.210156
0.239387
0.0239097
0.0466265
0.0967746
0.102037
0.137629
0.147658
0.0351815
0.110568
0.0229728
0.000247485
0.181864
0.125475
0.286642
0.301547
0.142397
0.0177832
0.531634
0.0990812
0.0222438
0.108211
0.0704522
0.118129
0.254805
0.154825
0.0532688
0.00940656
0.00304509
0
0.00143261
0.00199
0.0365422
0.308302
0.286038
0.0124643
0.0552887
0.0543356
0.12857
0.0648444
0.0235844
0.0395723
0.0988453
0.155158
0.0731316
0.0116858
0.000435013
0
0
0.000101512
0.0136695
0.382396
0.468675
0.043276
0.0880137
0.0611484
0.262805
0.0623942
0.00745014
0.00279501
0.161059
0.399247
0.263126
0.0206098
0.0870931
0.305122
0.155935
0.0239839
0.0175779
0.00449961
0.0178368
0.0433944
0.00464179
0.16802
0.438281
0.313398
0.0321651
0.00553181
0
0.00318654
0.0131882
0.0329574
0.096778
0.414397
0.137987
0.0631475
0.0165461
0.00783765
0.0355906
0.087429
0.00282011
0.201575
0.35148
0.302285
0.193336
0.0251346
0
0
0.00043385
0.0117668
0.154147
0.363815
0.157889
0.021798
0.000491378
0
0
0
0.0528055
0.312478
0.454573
0.0809797
0.0170044
0.00200916
0
0.00771172
0.00633384
0.00558781
0.143752
0.366217
0.213566
0.122218
0.00343964
0
0
0
0.0203746
0.102961
0.454573
0.12679
0.0984127
0.0187628
0
0.0130079
0.00845341
0.107593
0.369917
0.381446
0.104892
0.0360723
0.0111349
0.0104069
0.0209204
0.0171974
0.284166
0.275044
0.213019
0.051306
0.0166053
0.0412482
0.0563627
0.093596
0.187154
0.0349208
0.142094
0.25155
0.160294
0.155943
0.060116
0.0173449
0.0440784
0.0435194
0.069559
0.168082
0.0745914
0.137276
0.0665946
0.247294
0.174141
0.199122
0.203077
0.238026
0.0717913
0.0300391
0.0194497
0.0629817
0.0559643
0.0856619
0.148785
0.296639
0.151298
0.00651264
0.024193
0.0513549
0.177716
0.0794872
0.096191
0.112599
0.257872
0.0732849
0.0302214
0.0414556
0.11555
0.172658
0.29915
0.208574
0.208801
0.160869
0.0842354
0.00146509
0.0505915
0.209352
0.437711
0.178598
0.107702
0.120608
0.195062
0.0869841
0.0109099
0.0557429
0.0298756
0.096464
0.0476748
0.0861241
0.139724
0.152262
0.0552008
0.012427
0.0716211
0.0157366
0.03446
0.137378
0.338521
0.526984
0.190321
0.0857019
0.00728402
0.0861469
0.0868868
0.311011
0.0515278
0.0401595
0.0830478
0.180138
0.0552341
0.0348183
0.140293
0.0833463
0.241574
0.173966
0.163769
0.27482
0.121195
0.00412332
0.00338676
0.00845054
0.00149127
0.00164193
0.118786
0.275014
0.27866
0.049121
0.000161274
0.000483823
0.0110712
0.00596139
0.0399545
0.224468
0.411688
0.311148
0.0187747
0.00319506
0.00623927
0.0277496
0.0231605
0.0473614
0.167831
0.211627
0.117163
0.0149289
0
0
0.0235117
0.0153723
0.0775306
0.315849
0.45835
0.241886
0.0181221
0
0
0.0248739
0.0161498
0.0720998
0.251177
0.267852
0.165048
0.017418
0.00800113
0
0.0205893
0.0303484
0.050043
0.330068
0.414707
0.230274
0.00711189
0
0
0.0586952
0.0484792
0.112056
0.269231
0.24681
0.140929
0.0526423
0.0163002
0.0227333
0.0934471
0.106725
0.0628781
0.191145
0.376199
0.252226
0.0398585
0.03697
0.00427865
0.00257905
0.0325164
0.0246135
0.0941209
0.257178
0.229841
0.0183184
0.176308
0.0150043
0.0106738
0.0484699
0.0261451
0.0407786
0.148918
0.155359
0.0908564
0.0669253
0.0480068
0.026618
0.0608036
0.0864897
0.0690823
0.258253
0.340735
0.10373
0.500673
0.0476824
0.00271103
0.0271745
0.0602668
0.0423361
0.11246
0.277397
0.400703
0.0159383
0
0
0.00091863
0.0108692
0.0177155
0.240201
0.41195
0.0914666
0.147723
0.106173
0.180883
0.0795668
0.0783835
0.0255868
0.143451
0.412789
0.408637
0.00252921
0.00683399
0.0441696
0.0383028
0.0461002
0.0233208
0.0280138
0.0629396
0.037639
0.0578375
0.210213
0.219446
0.284653
0.19529
0.0439954
0.0176739
0.0816063
0.12206
0.0397786
0.066346
0.143362
0.16047
0.136434
0.00931005
0.00502387
0.0276884
0.0760012
0.00266136
0.060149
0.115999
0.361832
0.451077
0.0178711
0
0
0.00143304
0.0372474
0.126974
0.0778803
0.260781
0.214265
0.00567229
0.00144837
0.00875557
0.0222519
0.0138965
0.0353423
0.0389364
0.302532
0.526373
0.094852
0.00626557
0.00417705
0.000859825
0
0.0436937
0.193136
0.242892
0.420256
0.00919447
9.75726e-005
3.25242e-005
0
0.000659589
0.02894
0.243203
0.105079
0.253319
0.0210158
0.000683008
0.00730132
0.0212933
0
0.00202131
0.0233837
0.1154
0.575847
0.14783
0.0116996
0.00225149
0.000297344
0.00461712
0.00704136
0.0294272
0.0673323
0.39014
0.0719029
0.0186906
0.0220513
0.0322825
0.0127889
0.0420163
0.0946641
0.152226
0.249837
0.0592061
0.00599481
0.0326042
0.117368
0.0575926
0.0526244
0.0338893
0.199964
0.185691
0.313875
0.115055
0.142526
0.188264
0.0952298
0.0289413
0.0975593
0.173871
0.160882
0.034411
0.0103045
0.0525859
0.174444
0.383486
0.16873
0.182109
0.152417
0.142711
0.147356
0.0778405
0.0783103
0.398881
0.0515424
0.00778161
0.0267939
0.0532092
0.159924
0.292624
0.171031
0.128405
0.0849687
0.136747
0.00353757
0.0365527
0.0796224
0.273764
0.179428
0.143356
0.101808
0.297065
0.200539
0.0760549
0.102507
0.00980868
0.164308
0.164258
0.144121
0.0787413
0.226716
0.160071
0.030198
0.101075
0.0376231
0.31523
0.15162
0.125956
0.145188
0.356228
0.110407
0.0149682
0.070511
0.0810683
0.241106
0.088842
0.0472562
0.0457771
0.286827
0.0180272
0.0990907
0.20676
0.12628
0.246671
0.0957913
0.0874406
0.0713539
0.0954457
0.0964037
0.0209095
0.0882079
0.13106
0.256341
0.276009
0.09058
0.0590134
0.253977
0.0220375
0.071435
0.189201
0.134876
0.193006
0.453166
0.187293
0.00514264
0.0637615
0.000464566
0.032926
0.0803684
0.0497444
0.0970163
0.0683326
0.116959
0.0359319
0.00382435
0
0.000764471
0.0144429
0.0358231
0.411225
0.252199
0.376725
0.0826234
0.0138709
0.000283193
0.0340068
0.0665409
0.0348413
0.100337
0.110054
0.0531041
0.00390974
0.00173933
0.000471988
0.0162653
0.0291707
0.229424
0.645305
0.0903165
0.0640706
0.00512877
0.00289888
0
0
0.0229144
0.0671194
0.330378
0.204662
0.125961
0.0320147
0.0207365
0.0488295
0.0449581
0.101491
0.147214
0.170086
0.141067
0.0947418
0.0547113
0.015348
5.26416e-005
0.0067941
0.0401758
0.219289
0.55303
0.0812199
0.0218275
0.000484976
0.000323317
0.0353816
0.0868113
0.0901397
0.23637
0.472073
0.108734
0.0622005
0.025762
0.00236022
0.0984211
0.0757558
0.0428794
0.0763412
0.18489
0.0728078
0.0904342
0.105631
0.0525365
0.389419
0.0614834
0.00145619
0.0226726
0.122589
0.0600595
0.0535053
0.127151
0.260949
0.0677526
0.10186
0.0432386
0.0963197
0.20525
0.0637955
0.184644
0.169726
0.0982733
0.288912
0.0316329
0.00734886
0.0110314
0.06782
0.0401934
0.140305
0.21151
0.546234
0.00301617
0.0437988
0.13913
0.021122
0.00806608
0.00177846
0.000522243
0.00058872
0.000164827
0.0810027
0.248942
0.346084
0.0717825
0.0254597
0.00330313
0.0158795
0.00613713
2.35468e-005
0.0234758
0.185114
0.502968
0.0415845
0.00443547
0
0
0
2.35468e-005
0.237781
0.315358
0.502968
0.0791796
0.0144734
0.0213062
0.163441
0.0443775
3.36382e-006
0.132668
0.236003
0.152419
0.115052
0.0821776
0.00311161
0.0385506
0.00967034
0.0128199
0.0785284
0.0524539
0.0464152
0.114767
0.35837
0.152885
0.146557
0.0146797
0.0385769
0.206603
0.162214
0.152373
0.10759
0.0423104
0.0378459
0.388207
0.0789202
0.0523096
0.0932445
0.0208049
0.0210666
0.073032
0.0760576
0.155943
0.544325
0.0831854
0.117918
0.00723336
0.000430454
0.00394358
0.019429
0.306012
0.205786
0.204786
0.0111448
0.0102703
0.00141734
0.0111286
0.00956944
0.0461919
0.147141
0.101099
0.163717
0.0198357
0.00947383
0.0120556
6.14934e-005
0.00236615
0.0038693
0.063056
0.22538
0.522892
0.0588387
0.0279023
0
0.0139561
0.00987511
0.0322445
0.126535
0.286316
0.522892
0.0539988
0.00589866
0.0631533
0.0637347
0.104505
0.149048
0.102976
0.0390006
0.0373226
0.0218963
0.0387234
0.353439
0.235391
0.139014
0.0758509
0.0726472
0.063283
0.0198161
0.0485925
0.181366
0.0540035
0.0723484
0.0556282
0.0803925
0.224842
0.21481
0.382598
0.0682358
0.00841206
0.322409
0.171388
0.0422583
0.0385796
0.127993
0.364579
0.250733
0.0842232
0.0516925
0.279939
0.110561
0.0399844
0.000615673
0.0286741
0.030403
0.0149849
0.0187891
0.201352
0.22052
0.0201125
0.0323997
0.0116088
0.0542902
0.0347962
0.0122762
0.0936301
0.414821
0.333062
0.0876839
0.00148526
0.0171272
0.0294287
0.13025
0.0538149
0.0151677
0.175959
0.341999
0.0184148
0.0104775
0.0472558
0.0393637
0.0450406
0.0051211
0.0735123
0.520906
0.108086
0.00454431
0.0627675
0.0581057
0.048189
0.144495
0.0561777
0.0993526
0.320511
0.0392847
0.00274621
0.0908594
0.067382
0.0602687
0.422525
0.115228
0.0685974
0.133529
0.134762
0.0309497
0.13361
0.148802
0.0650833
0.0502136
0.00771726
0.10165
0.408486
0.0393348
0.0906989
0.352094
0.211013
0.150137
0.205684
0.015839
0.106543
0.212075
0.000573302
0.0237149
0.0582515
0.030465
0.0419459
0.120709
0.0195504
0.0138822
0.00886772
0.000955504
0.0832786
0.267732
0.272306
0.281264
0.0202628
0.00190252
0.00157996
0
0.00505345
0.0499315
0.312248
0.205419
0.0873794
0.0940539
0.00361852
0.0203281
0.018187
0.0209693
0.187616
0.561377
0.41899
0.0655067
0.0148942
0.000966095
0.000947977
0.0135973
0.000102234
0.0483427
0.143835
0.211995
0.228094
0.0113593
0
0
0
0.000919135
0.0466611
0.0550631
0.227929
0.329005
0.0499139
0.0120736
0.0163643
0.00168625
0.00599334
0.124968
0.457757
0.202451
0.0948691
0.00111348
0
0.00209228
0.0227852
0.00127004
0.0648172
0.221406
0.353088
0.457757
0.0305089
0.0309766
0.00909701
0.0345885
0.0247067
0.0534963
0.0373919
0.172523
0.216209
0.0362188
0.0498286
0.113272
0.0795029
0.228404
0.0305523
0.0208067
0.0476093
0.0395076
0.00432615
0.0371947
0.126639
0.42279
0.0182034
0.0267859
0.0858738
0.388742
0.511569
0.0368344
0.0405733
0.0356412
0.0362451
0.203508
0.0475949
0.122461
0.169458
0.160047
0.00979535
0.00579618
0.0730139
0.215207
0.0144664
0.288124
0.525054
0.054554
0.00477837
0.000316542
0.000587865
0.000243695
0.000603455
0.0989982
0.145401
0.412336
0.0804405
0.0154827
0.0323398
0.18572
0.0314432
0.0113619
0.0146749
0.277151
0.456591
0.0733275
0.00756358
0.00552813
0.000979774
0.00198699
0.0156205
0.0209187
0.102245
0.149374
0.0317459
0.020615
0.0309622
0.0930047
0.0295924
0.0749001
0.0380799
0.0179451
0.0309079
0.0348095
0.0152905
0.071968
0.387712
0.0548947
0.0223078
0.00806236
0.000270673
0
0.0156562
0.00689417
0.170479
0.496705
0.0856812
0.0441089
0.00625831
0.011092
0.0184498
0.00640422
0.0176908
0.107301
0.299798
0.0656376
0.0310711
0
0.0044459
0.0109904
0.000501921
0.02357
0.263243
0.496705
0.27695
0.0375017
0.00754146
0
0
0.00297404
0.0280998
0.14905
0.409143
0.0894952
0.062973
0.015275
0.00264019
0.000922646
0.00707323
0.0808572
0.220517
0.392538
0.168676
0.0532933
0.0100237
4.38891e-005
0.000833894
0.00178442
0.0361645
0.119192
0.367766
0.311183
0.11284
0.0611164
0.00648691
0
0.00297404
0.112765
0.129798
0.314669
0.322788
0.117088
0.0117618
0.00673074
0.00763185
0.00305865
0.0507166
0.0951262
0.239264
0.226672
0.0477732
0.0400143
0.0126456
0.0358092
0.012956
0.0698896
0.15448
0.134753
0.143744
0.0880729
0.0533302
0.00754641
0.00813284
0.000441671
0.0409668
0.0490103
0.189091
0.481189
0.192946
0.0285223
0.00411327
0.0569299
0.012587
0.0442043
0.0401597
0.0935733
0.485482
0.431629
0.160137
0.0264368
0.0215349
0.0500979
0.0660471
0.125242
0.0498167
0.0320715
0.136973
0.223775
0.0504683
0.0376029
0.0782583
0.0500151
0.114941
0.00645413
0.0275645
0.269131
0.107073
0.0353478
0.0358914
0.0373764
0.0519481
0.0419312
0.0257689
0.310824
0.451567
0.393903
0.311305
0.0625699
0.0490369
0.0257764
0.0844524
0.00677775
0.113185
0.342765
0.0767595
0.0799663
0.0578266
0.0726934
0.0426281
0.068316
0.00344166
0.0103342
0.10334
0.0820593
0.307401
0.205213
0.0809099
0.0478335
0.0486434
0.002065
0.00914109
0.0689684
0.333112
0.29593
0.0689452
0.026046
0.0185958
0.0671058
0.00816437
0.00123576
0.0694001
0.456536
0.530443
0.191565
0.0359877
0.0281851
0.0339632
0.00378855
0
0.0813807
0.0465089
0.153167
0.233458
0.16907
0.0553456
0.0193046
0
0.00438539
0.0262126
0.14344
0.114673
0.469723
0.286832
0.0491511
0.00354536
0.00960538
0.00788585
0.0532367
0.181107
0.287734
0.195328
0.109371
0.093877
0.00725412
0
0.00356429
0.0628593
0.303369
0.232655
0.341572
0.190474
0.103828
0.00351932
0.0531762
0.0150993
0.0847097
0.0569675
0.109086
0.3824
0.139851
0.0712571
9.27987e-005
0.0138654
0.0136762
0.0351799
0.0137776
0.0705471
0.156784
0.250824
0.459251
0.0478307
0.0977045
0.0204882
0.0433306
0.188215
0.211006
0.345927
0.13456
0.0361672
0
0.0595655
0.0242788
0.04823
0.196044
0.146782
0.226137
0.227344
0.203924
0.0756645
0.0693714
0.0390697
0.0847241
0.0222153
0.0127313
0.102931
0.355476
0.457603
0.0831777
0.154112
0.0179379
0.0477192
0.138979
0.0342077
0.249307
0.265903
0.140668
0.0298476
0.0326278
0.0438899
0.0878524
0.0863136
0.0358457
0.12878
0.273697
0.270927
0.147602
0.0965849
0.03825
0.0941645
0.0757369
0.0367774
0.149635
0.264023
0.119674
0.133699
0.12384
0.0919405
0.0478206
0.0259268
0.265037
0.336836
0.152865
0.0487351
0.0583685
0.00191735
0.00563057
0.0482092
0.0838986
0.22115
0.14382
0.0170662
0.0455625
0.105386
0.163536
0.0536561
0.248062
0.0400931
0.300446
0.239877
0.0912556
0.0674324
0.143199
0.0772372
0.0339327
0.0592174
0.076789
0.280608
0.193237
0.0862225
0.213756
0.205697
0.254692
0.0566443
0.19085
0.0459727
0.0390797
0.0374693
0.00218852
0.0414295
0.110161
0.198374
0.101967
0.0617161
0.0449385
0.0561245
0.0373017
0.000312645
0.110161
0.224824
0.454993
0.508733
0.0454034
0.088467
0.0490073
0.0229063
0.0431334
0.135131
0.114054
0.145103
0.0957787
0.0555492
0.1199
0.0813419
0.0199803
0.00822405
0.13897
0.197287
0.268902
0.306582
0.0690046
0.00475787
0.0171483
0.00293329
0
0.0272517
0.0555079
0.269645
0.356294
0.0648868
0.0342391
0.00443676
0.000115957
0
0.0418348
0.0743824
0.312131
0.360243
0.102644
0.01469
0.0307115
0.00280934
0
0.0224074
0.0653621
0.234501
0.303899
0.0750913
0.021284
0.0198161
0.00147814
0
0.00276255
0.0604103
0.298493
0.475187
0.143146
0.0298603
0.0020612
0.000847587
0
0.0138951
0.0407515
0.135495
0.234078
0.167536
0.0131952
0.000600352
0.00593311
0.0104925
0.00946498
0.0183432
0.114712
0.33672
0.243355
0.0163186
0.00719788
0.000426761
0
0.000917556
0.0471248
0.134504
0.433262
0.254873
0.0614219
0.000462174
0
0.0062955
0.00515087
0.0291051
0.123207
0.431018
0.433262
0.056599
0.0200171
0.0029569
0.0121089
0.010923
0.00339465
0.0351827
0.241018
0.254149
0.235397
0.22042
0.0288453
0.00337714
0.00156043
0.014068
0.00563321
0.0822121
0.247407
0.134332
0.0161796
0
0.00726531
0.00602836
0.00726837
0.0510347
0.246973
0.467261
0.310409
0.17273
0.03546
0.00630657
0.0014373
0.0215789
0.0193645
0.0769798
0.467261
0.216586
0.240683
0.11479
0.00220473
0
0.0162997
0.00607267
0.000252748
0.0470757
0.310638
0.309339
0.245395
0.0464567
0.00648411
0.00470439
0.00115966
0
0.0394931
0.298327
0.169825
0.141216
0.00538002
0.000217715
0.0130277
0.00814574
0.0117485
0.251486
0.315639
0.309972
0.346029
0.0506193
0.0446175
0.0553054
0.0192927
0.019034
0.229178
0.185186
0.193376
0.240217
0.0905995
0.0518324
0.00217215
0
0.000524374
0.0800305
0.283937
0.2338
0.322975
0.114702
0.0655347
0.00831054
0.0213956
0.00287042
0.156722
0.13912
0.289056
0.362614
0.0671907
0.0799956
0.0919465
0.0274159
0.00887101
0.111771
0.2315
0.226965
0.278042
0.0520528
0.0960626
0.0800456
0.0439831
0.013562
0.229934
0.259108
0.196234
0.461755
0.160634
0.0114861
0.0286201
0.0376058
0.0219162
0.167166
0.279709
0.103966
0.282305
0.165849
0.0469626
0.0355751
0.00978826
0.0960148
0.254282
0.197734
0.0851973
0.205388
0.114252
0.0518798
0.112462
0.0252079
0.0320907
0.212991
0.133562
0.0892558
0.158352
0.156837
0.0308019
0.115189
0.018083
0.0813287
0.166432
0.188662
0.0646404
0.170125
0.234443
0.155248
0.0754927
0.00702216
0.105723
0.256406
0.138477
0.0724313
0.0902916
0.205778
0.108773
0.139579
0.140732
0.185178
0.0822535
0.195605
0.155065
0.210539
0.227061
0.0591504
0.0623662
0.0170346
0.0579436
0.120639
0.246377
0.189505
0.318197
0.271096
0.081026
0.0426153
0.0149874
0.0272566
0.161583
0.0862565
0.126606
0.125383
0.041026
0.0367782
0.108046
0.0854407
0.0589811
0.100478
0.0505791
0.124181
0.118917
0.224775
0.234182
0.146425
0.133723
0.0176467
0.0498318
0.218607
0.216116
0.0797691
0.073062
0.0385768
0.125325
0.104393
0.143619
0.0699586
0.130959
0.259029
0.269707
0.530958
0.175237
0.0875972
0.0411776
0.0716124
0.0207182
0.0873007
0.036721
0.0209981
0.16987
0.225876
0.135965
0.0873195
0.0436381
0.0279166
0.147099
0.0418261
0.00372998
0.0268632
0.0972884
0.263288
0.366117
0.256496
0.124771
0.0726075
0.0900944
0.139861
0.365917
0.16126
0.0784257
0.0539268
0.0742345
0.033068
0.114305
0.0922938
0.0347118
0.0454998
0.0438037
0.186754
0.260725
0.299984
0.177067
0.0896137
0.0534719
0.00857912
0
0.010131
0.103262
0.256165
0.271407
0.0900715
0.17158
0.146463
0.0203889
0
0
0.0711739
0.237124
0.601801
0.141395
0.117462
0.122099
0.0554414
0
0.00204346
0.0713468
0.132275
0.154114
0.0929173
0.276573
0.2124
0.0909246
0.00491287
0
0.0431389
0.0607846
0.123497
0.128796
0.0532131
0.0394233
0.00320722
0
0
0.0210139
0.0875068
0.38386
0.231887
0.16178
0.00236392
0
0.00308695
0.0130058
0.0116276
0.07517
0.340236
0.634619
0.0974674
0.0629306
0.00894159
0.0110404
0.012865
0.0284594
0.0364571
0.102512
0.112518
0.114595
0.0138647
0
0.0421011
0.0767621
0.0330634
0.0817204
0.132164
0.296514
0.157716
0.00310351
0
0.0109885
0.0736124
0.0227
0.0687592
0.145841
0.556212
0.246918
0.0398497
0.0643533
0.0661331
0.118327
0.078535
0.0686008
0.0570007
0.440622
0.0447902
0
0
0.0656217
0.18307
0.0815975
0.0895823
0.08554
0.181712
0.0502213
0.0402343
0.0497338
0.112049
0.290344
0.200484
0.168997
0.0880214
0.0814786
0.259819
0.0683346
0.125252
0.0483202
0.0360689
0.0458458
0.020497
0.0480997
0.269463
0.241055
0.183789
0.206486
0.044386
0.115748
0.183518
0.0789868
0.0798557
0.248526
0.0912245
0.178325
0.121707
0.0568073
0.0823305
0.0853901
0.0630684
0.0793951
0.0531882
0.154346
0.555366
0.238403
0.0719612
0.0621821
0.143017
0.0496933
0.0569725
0.0635849
0.0680549
0.149045
0.208697
0.151671
0.226697
0.240739
0.0764758
0.0224813
0.0599933
0.0647576
0.0655633
0.126561
0.160549
0.231368
0.222732
0.140344
0.0320453
0.172968
0.0702458
0.314341
0.247265
0.260138
0.176393
0.122328
0.043125
0.0145366
0.064554
0.057985
0.0346073
0.168081
0.228733
0.258233
0.18515
0.13637
0.0166014
0.16495
0.094732
0.00998467
0.132742
0.131652
0.171329
0.191065
0.0771488
0.0365709
0.221664
0.0898878
0.103489
0.189519
0.207791
0.167384
0.168628
0.0540645
0.0264988
0.0686357
0.0591079
0.00692328
0.197802
0.0712419
0.27934
0.257459
0.184935
0.0600015
0.178318
0.113558
0.206581
0.277667
0.158094
0.223629
0.176537
0.22189
0.12162
0.13309
0.0800641
0.129487
0.191954
0.126884
0.0388955
0.0462347
0.0509737
0.0110228
0.017569
0.101915
0.169976
0.233358
0.151829
0.00819068
0.018103
0.104069
0.0537343
0.155049
0.2271
0.328129
0.234235
0.099783
0.0299818
0.0406324
0.0951532
0.0705463
0.100341
0.248769
0.197752
0.126283
0.106982
0.0683631
0.0440827
0.209404
0.273802
0.410798