0.165898
0.363464
0.235564
0.0662683
0.0114682
0.00901032
0.00366803
0.036114
0.05673
0.0722233
0.340033
0.214957
0.0502366
0.0547364
0.0650585
0.0308243
0.0385571
0.0218214
0.246598
0.317856
0.104294
0.0107502
0.00260836
0.00657396
0.00375645
0.0245118
0.151887
0.127979
0.17612
0.080536
0.0223771
0.0700523
0.133447
0.0440055
0.0246738
0.0633901
0.0161005
0.0773188
0.0323796
0.0674411
0.134861
0.127133
0.114589
0.0664668
0.0278778
0.000929767
0.0100596
0.0257126
0.160892
0.16189
0.0908718
0.163995
0.125666
0.0355076
0.0296794
0.0817908
0.026301
0.0649185
0.12373
0.218031
0.105705
0.116854
0.0798714
0.0499597
0.0607049
0.0317084
0.0895456
0.0900243
0.123025
0.189426
0.465047
0.266556
0.00409207
0.0126924
0.0291362
0.0430953
0.05635
0.0432053
0.132931
0.137508
0.042705
0.159517
0.04236
0.0556523
0.0403005
0.103657
0.100189
0.194466
0.138931
0.0602049
0.0673229
0.00786929
0.00752061
0.0165867
0.0385734
0.0504916
0.163077
0.348312
0.250894
0.103663
0.00873173
0.0143166
0.142567
0.240264
0.188979
0.29748
0.220142
0.126665
0.115477
0.0420258
0.0544653
0.104864
0.172482
0.0749499
0.0545341
0.0234044
0.0142208
0.0249127
0.014423
0.072775
0.179117
0.362547
0.0816405
0.00414251
0.0180052
0.045341
0.0752634
0.0241782
0.0151996
0.242131
0.31875
0.142847
0.10124
0.03467
0.0118758
0.135846
0.173287
0.089185
0.312127
0.304618
0.0967651
0.017187
0.0545564
0.0834976
0.00618652
0.000325606
0.011284
0.0565524
0.381548
0.123221
0.0173654
0.0138415
0.028823
0.0925295
0.0515637
0.0125378
0.0863859
0.493435
0.14047
0.125685
0.0278395
0.00820035
0.0805182
0.095199
0.0946451
0.159491
0.217613
0.0972069
0.0218948
0.020828
0.0836684
0.110062
0.0798225
0.0730331
0.130904
0.33298
0.214798
0.147016
0.0115732
0.0682509
0.188801
0.165101
0.0751889
0.13698
0.22879
0.0593511
0.0964075
0.0367321
0.0182195
0.0958538
0.171761
0.0676917
0.127118
0.16931
0.0942927
0.0454396
0.087469
0.0308604
0.231903
0.152966
0.0202418
0.0520058
0.217136
0.127182
0.125428
0.0233165
0.0934553
0.29691
0.289187
0.0705241
0.0340141
0.151702
0.0826412
0.0471834
0.0993108
0.104649
0.041949
0.204966
0.12484
0.0552313
0.0645606
0.0447651
0.02574
0.0434046
0.0122895
0.0135645
0.184047
0.300558
0.327614
0.248463
0.0513177
0.0129502
0.0130098
0.0107746
0.121951
0.297375
0.155858
0.0378888
0.056608
0.0572615
0.0307739
0.0779131
0.0366497
0.084124
0.219486
0.281508
0.161153
0.0633201
0.0818454
0.0856225
0.167507
0.168104
0.0070306
0.021445
0.103686
0.329146
0.246872
0.0448394
0.0189087
0.0375673
0.0315645
0.0375283
0.0494126
0.116467
0.110566
0.0927428
0.0248452
0.0787295
0.101195
0.0818062
0.0832737
0.0417439
0.115766
0.174579
0.0693263
0.0511931
0.0530435
0.188918
0.236659
0.0206189
0.141578
0.409831
0.156685
0.101493
0.0695019
0.0565031
0.208122
0.12286
0.121179
0.0713796
0.135559
0.0311309
0.0061687
0.00273621
0.0385786
0.083972
0.115122
0.190788
0.063949
0.0555796
0.0132186
0.0179781
0.0229401
0.028929
0.26338
0.321214
0.0991309
0.127843
0.382013
0.121479
0.0393304
0.0678173
0.0480159
0.077263
0.0901734
0.222387
0.198589
0.181247
0.131675
0.131554
0.150893
0.0585671
0.150956
0.212717
0.175019
0.0983523
0.0179766
0.0320581
0.0734058
0.0478618
0.0138453
0.0510625
0.181177
0.126201
0.101654
0.0246542
0.0217332
0.061798
0.117743
0.0787535
0.0371125
0.087214
0.211934
0.040884
0.040105
0.0715417
0.171166
0.1525
0.35708
0.196432
0.14291
0.218482
0.0608644
0.053259
0.102441
0.171868
0.153846
0.115533
0.0176839
0.149808
0.0508052
0.123646
0.0430103
0.00827084
0.0394441
0.107459
0.0870309
0.102237
0.0763784
0.0721726
0.117394
0.0960836
0.0442053
0.0467735
0.116227
0.116919
0.33007
0.209251
0.108127
0.101072
0.0729482
0.0735722
0.0926231
0.0712895
0.0680487
0.0310059
0.140931
0.122683
0.117824
0.280067
0.118978
0.0758347
0.0921744
0.0834664
0.215976
0.155138
0.0368595
0.00734676
0.00933536
0.0144585
0.0201097
0.0452382
0.068692
0.109706
0.091571
0.0744355
0.0388706
0.0383093
0.038845
0.0893146
0.0752213
0.124945
0.0999472
0.0790973
0.0778935
0.0888898
0.0667178
0.0304241
0.027438
0.0283734
0.0773994
0.138029
0.0332534
0.148143
0.480548
0.56116
0.116328
0.193323
0.0246224
0.155974
0.129012
0.0700295
0.0685839
0.0390645
0.0198055
0.0173015
0.032917
0.0184297
0.012662
0.0111619
0.0181778
0.254149
0.115673
0.0224274
0.015822
0.0171823
0.0149127
0.00482123
0.0119442
0.0340342
0.132328
0.241582
0.279114
0.0644211
0.0565086
0.00292564
0.0132804
0.0106315
0.0272159
0.669251
0.444967
0.146251
0.0353162
0.0185206
0.00211579
0.00611014
0.0134801
0.038806
0.171592
0.0450264
0.0215533
0.0140576
0.00931071
0.00411447
0.00112844
0.00225745
0.0855838
0.188223
0.0213179
0.0169821
0.016745
0.0273163
0.0115154
0.0045295
4.90167e-005
0.15998
0.535213
0.120923
0.00666776
0.00149334
0.00311071
0.0001719
0.0030322
0.00709715
0.131737
0.61914
0.0518624
0.00504572
0.00138895
0.00327012
0
0.000396047
0.00092411
0.358423
0.152836
0.012707
0.001277
0.00505287
0.0165453
0.00418673
0.0028652
0.00092834
0.129075
0.126387
0.0133131
0.00524765
0.00357549
0.0165512
0.000744206
0.00336421
0.0236554
0.213638
0.450823
0.0279387
0.00219082
0.000669142
0.00488962
0
0.00304148
0.0084162
0.356524
0.282406
0.00446684
0.00071901
0.000510784
0.00412037
0.00531686
0.0643193
0.235666
0.599873
0.0498731
0.0187829
0.01291
0.00797976
0.0101692
0.00445263
0.0172703
0.070389
0.14915
0.0171067
0.00802298
0.0134116
0.00559316
0.0136914
0.0124046
0.0400297
0.098674
0.0708906
0.0597083
0.00253749
0.000694452
0.00113997
0.00113284
0.0159108
0.236222
0.510584
0.361021
0.00529592
0.000362499
0.00567348
0.000841306
0.0103151
0.0290382
0.311533
0.548948
0.131302
0.0335764
0.00634122
0.0597057
0.0251197
0.0512998
0.0208303
0.0522563
0.137451
0.102052
0.0265728
0.0388685
0.160075
0.0517948
0.0533638
0.0400677
0.0418318
0.131666
0.0965237
0.00313185
0.00358368
0.0765225
0.0622995
0.102084
0.145198
0.429548
0.56402
0.117284
0.0534771
0.0561331
0.145672
0.113931
0.133354
0.114029
0.16441
0.124018
0.11726
0.12684
0.102518
0.141066
0.0485069
0.038257
0.0696108
0.04729
0.137976
0.168605
0.293361
0.251774
0.0993245
0.0980557
0.077006
0.0809344
0.0438244
0.108636
0.198892
0.171499
0.142207
0.0967384
0.0929749
0.0692348
0.0223438
0.0189166
0.113818
0.209275
0.248618
0.273144
0.143603
0.189829
0.0562825
0.0143786
0.0769874
0.119133
0.16976
0.0162267
0.00283744
0.00565502
0.0087282
0.0130695
0.00714542
0.237875
0.0939633
0.0175999
0.0243267
0.00586716
0.0126886
0.0311987
0.0347053
0.00755921
0.0448994
0.0260469
0.025879
0.00638295
0.000355011
0.00232044
0.00549495
0.00551254
0.00217468
0.710425
0.401604
0.0167134
0.0284931
0.00589262
0.0255426
0.0326934
0.0224958
0.00797783
0.345858
0.23683
0.0445683
0.0319835
0.0304803
0.0319391
0.07264
0.0716919
0.0104763
0.0126957
0.0111614
0.058999
0.0714692
0.0671713
0.136779
0.0479838
0.0241381
0.0116024
0.00879291
0.044141
0.0715653
0.0468594
0.0679011
0.11955
0.115156
0.0650033
0.0289462
0.174689
0.102806
0.0596485
0.0669104
0.125722
0.569879
0.55557
0.0412477
0.0400683
0.0112543
0.0066342
0.045187
0.0458445
0.0594169
0.103088
0.021071
0.00149711
0.000944542
0.00694381
0.0195451
0.00626764
0.100508
0.344196
0.301711
0.0624142
0.0189813
0.000214672
0.0116973
0.0134008
0.00307919
0.0290794
0.0662102
0.39017
0.238476
0.0117592
0.00780279
0.00407429
0.00175235
0.00581504
0.0850514
0.354155
0.535932
0.218148
0.0162224
0.0269501
0.0251539
0.0113409
0.0160315
0.0620717
0.256154
0.283356
0.0923372
0.020685
0.00966293
0.00533623
0.00389149
0.00799621
0.221182
0.290489
0.138435
0.0601117
0.0266052
0.0160596
0.0128938
0.0273901
0.0420744
0.0530473
0.254457
0.352787
0.0807773
0.00589109
0.0253335
0.0145875
0.0196707
0.0224038
0.217392
0.477065
0.348431
0.0654151
0.0268622
0.026766
0.0133229
0.030899
0.0827391
0.231579
0.135145
0.00410478
0.00217682
0.00633387
0.00154995
0.00657403
0.0160077
0.0376396
0.379193
0.103156
0.00591253
0
0.00254013
0
0.000883791
0.00206218
0.118721
0.297195
0.383623
0.0600612
0.00705543
0.00704726
0.00258326
0.00435774
0.015718
0.0657254
0.579137
0.261553
0.0361346
0
0.00152408
0
0.00625726
0.0259295
0.22597
0.224378
0.0307093
0.00431468
0
0.00692121
0
0.00653409
0.0283315
0.179656
0.0961815
0.0126323
0.00423306
0.00250046
0.00415272
0.0114224
0.0723005
0.175467
0.263275
0.325094
0.0361329
0.00896472
0
0.00415272
0
0.0108972
0.103173
0.402584
0.0949575
0.0188495
0.00654058
0.00416744
0.00249163
0.00806763
0.0580909
0.392307
0.545282
0.0165443
0.0119496
0.0119013
0.00793421
0
0.0278972
0.179122
0.247289
0.114805
0.0031114
0.00170709
0.00763635
0.00478661
0.000696897
0.045447
0.296128
0.401193
0.0604319
0.0433227
0.0202529
0.0198355
0.0132237
0.00578138
0.0495108
0.134819
0.328134
0.289383
0.0179827
0.00284515
0.0119013
0.00793421
0.0404696
0.105664
0.316768
0.486583
0.0983932
0
0.000563595
0.00371557
0.00884546
0.0224895
0.13034
0.212837
0.20653
0.0195739
0.00315382
0.00665439
0.0215159
0.0301475
0.0464338
0.149154
0.100927
0.0283102
0.00496441
0
5.26896e-005
0.000158069
0.000961146
0.0283533
0.260993
0.419948
0.322139
0.00858551
0
0.000368827
0.0116619
0.0181956
0.0349911
0.561181
0.342683
0.066074
0
0.0169547
0.022524
0.0729248
0.125159
0.0592617
0.0811048
0.0312785
0.0237127
0.0235806
0.0120282
0.0413231
0.137014
0.246566
0.0621515
0.00276879
0.0158381
0.0133198
0.0159189
0.0112463
0.0121657
0.0771081
0.105543
0.0587524
0.635375
0.195967
0.0447153
0.00587666
0.0187439
0.0223977
0.228158
0.407226
0.0836631
0.0700069
0.0170487
0.0063879
0.00979443
0.00162606
0.000363654
0.000135724
0.000111047
0
0.00460185
0.405258
0.173062
0.00163064
0.0052411
0.00134754
0.00615034
0.00539068
0.000506599
0.0141207
0.410237
0.161244
0.00666294
0.00141421
0.000606089
0
0.00144244
0.0033657
0.0132711
0.338268
0.150806
0.00928389
0
9.42362e-005
0.000977296
0.00294923
0.00201942
0.0158863
0.584339
0.272699
0.0067656
0.00684334
0.0167391
0.0401058
0.0395768
0.00207584
0.0201422
0.190427
0.0650227
0.00413412
0.00747219
0.0318483
0.208223
0.308758
0.00537255
0.00651192
0.0244545
0.0121642
0.00148634
0.0253649
0.0224688
0.0394593
0.0536678
0.00069197
0.0200756
0.494986
0.255287
0.032414
0.0422748
0.0427626
0.213474
0.596593
0.0130815
0.00286795
0.0865325
0.104377
0.0534313
0.00187125
0.0298776
0.319953
0.284901
0.0177932
0.00568078
0.00609093
0.00219426
0.00586468
0.00543122
0.107093
0.35431
0.155342
0.0649715
0.0296441
0.0371652
0.0106682
0.0239525
0.00606081
0.0216922
0.218749
0.455224
0.04574
0.00410034
0.0125189
0.0111635
0.0201948
0
0.0693496
0.258815
0.382722
0.306342
0.0155924
0.0309155
0.0174704
0.023065
0.0162019
0.164858
0.359197
0.0672314
0.0300392
0.0127256
0.0140885
0.0106318
0.0169002
0.114356
0.348127
0.404165
0.120924
0.0403841
0.00370777
0.00146404
0.0176564
0.0789827
0.0143394
0.13918
0.30533
0.316797
0.186055
0.0357332
0.0119678
0.00288006
0.00481591
0.0847374
0.21508
0.247629
0.240235
0.0901969
0.0804609
0.0348968
0.0368897
0.0758408
0.164457
0.359634
0.104165
0.035222
0.0136314
0.00393365
0.00812528
0.0471071
0.191963
0.300623
0.253449
0.0619891
0
0.0209684
0.0807857
0.0785041
0.113181
0.342504
0.100088
0.284654
0.0668234
0.0613243
0.0172394
0.0355055
0.0262656
0.0839931
0.159877
0.0719805
0.311443
0.133949
0
0.0671852
0.272633
0.182995
0.135658
0.181215
0.241047
0.0570439
0.0155182
0.00398248
0.0249436
0.0697484
0.0477202
0.12516
0.317917
0.176141
0.0355007
0.00129733
0.00750235
0.0102965
0.0537444
0.118234
0.418978
0.402927
0.107146
0.114839
0.0481926
0.0278773
0.120915
0.2175
0.132784
0.137991
0.0982464
0.152267
0.0839414
0
0.0592202
0.194666
0.235073
0.103171
0.241168
0.137871
0.0326062
0.00582679
0.00251602
0.00231823
0.0110579
0.090498
0.209163
0.218181
0.129576
0.00599371
0.00036089
0.00150961
0.00100641
0.0431224
0.148514
0.376118
0.200929
0.0335897
0.020612
0.00982977
0
0.0153676
0.137375
0.218818
0.226969
0.115778
0.029343
0
0
0
0.00284108
0.117183
0.37888
0.559067
0.111251
0.000951929
0
0
0
0
0.0291791
0.179927
0.233745
0.097594
0.00136044
0
0
0.000843251
0.0010671
0.0342455
0.489723
0.180451
0.0205192
0
0
0
0
0.000995861
0.171
0.333165
0.213105
0.0347213
0
0
0
0
0.00165977
0.248568
0.558266
0.115121
0.00373823
0
0.0159779
0.0113748
0.0116696
0.00608461
0.0228876
0.483767
0.123665
0.00807273
0.00592213
0.0280162
0.0310845
0.0712035
0.0964231
0.0170714
0.0684245
0.0279987
0.00212215
0.0112565
0.0197669
0.00798148
0.00415072
0.00882408
0.137759
0.71361
0.243617
0.00414675
0.0219113
0.0426489
0.0425262
0.0394818
0.0371996
0.0201716
0.133755
0.105376
0.010916
0.0505512
0.00037694
0.000161546
0.00743949
0.0281408
0.0713107
0.0332005
0.174564
0.153902
0.0223008
0
0
0.0129957
0.0315165
0.0302571
0.0130555
0.64481
0.39841
0.0212158
0.00509175
0.0509939
0.124913
0.124301
0.117561
0.0275887
0.0295717
0.0376766
0.00627023
0.00848625
0.0818013
0.332644
0.148698
0.0642248
0.0127517
0.224583
0.156823
0.00999558
0.0159137
0.00970083
0.0297174
0.0470157
0.00556833
0.0180967
0.469663
0.271104
0.0590564
0.0265228
0.0313909
0.172624
0.373624
0.0331534
0.0168979
0.146049
0.127532
0.0956219
0.00286078
0.0762545
0.287194
0.186797
0.0381775
0.0294318
0.271588
0.117069
0.0229121
0.00309952
0.0732181
0.213751
0.251568
0.0866641
0.0877111
0.179962
0.142202
0.035608
0.00260726
0.0168805
0.0809098
0.211671
0.0692116
0.0139019
0.0112571
0.00920637
0.0136447
0
0.0126065
0.0508551
0.346439
0.363769
0.0346978
0.0153198
0.00766637
0.00707468
0.00030469
0.0152912
0.0465635
0.0811894
0.160142
0.0896233
0.0355453
0.0325215
0.00396691
0
0.0044767
0.0122178
0.157903
0.668134
0.322428
0.0125907
0.00225764
0.000777587
0.00407644
0.017744
0.0746713
0.379862
0.300125
0.0980081
0.022771
0.00234777
0.00422532
0.0846529
0.0884925
0.0779102
0.136085
0.0781169
0.191055
0.065247
0.0181267
0.0427824
0.00310692
0.00498082
0.0417807
0.167567
0.537682
0.362793
0.0537025
0.0070547
0.00601891
0.112419
0.101296
0.185686
0.0887226
0.0906148
0.196348
0.0828564
0.0484176
0.0817294
0.181547
0.225121
0.0777352
0.0308678
0.00955997
0.0798543
0.0441245
0.0956566
0.0766164
0.0986579
0.237294
0.157783
0.0070651
0.0348374
0.212111
0.288367
0.243105
0.0564629
0.257227
0.242307
0.165612
0.0661959
0.00340999
0.039074
0.0421039
0.100704
0.185728
0.213564
0.304226
0.182768
0.0986411
0.0238261
0.0818657
0.227915
0.203626
0.112544
0.0472072
0.0693303
0.0435543
0.0177712
0.0914122
0.126357
0.197279
0.261056
0.0584461
0.070071
0.044851
0.00652146
0.153043
0.345059
0.159552
0.0629043
0.223044
0.0771337
0.0523218
0.105098
0.090858
0.067287
0.0661434
0.137248
0.149655
0.211459
0.0306129
0.02684
0.020453
0.0520849
0.259427
0.365925
0.298968
0.235682
0.24667
0.0344982
0.00818061
0.00634439
0.00397169
0.103458
0.229325
0.125186
0.0475729
0.0393856
0.00737445
0
0
0.000567385
0.0387319
0.34033
0.357126
0.164575
0.0341331
0
0.00453427
0.00509371
0.0146225
0.198126
0.220539
0.138967
0.0826008
0.0302811
0.00219248
0.00344894
0.00712255
0.0162321
0.269804
0.599956
0.177356
0.0204815
0.00183535
0
0
0
0
0.0137897
0.29654
0.219302
0.0490186
0.00472743
0
0
0
0
0.02142
0.364986
0.2486
0.0247459
0.000203467
0
0.000342162
0.000706612
0.00263563
0.140968
0.525659
0.0871418
0.00566929
0.000182081
0
0
0
0
0.0965169
0.541761
0.0715851
0.00752027
0
0
0.0030469
0.00250498
0.00220942
0.0676406
0.302195
0.293902
0.0733123
0.00123927
0.00582204
0.0213259
0.0346357
0.0211592
0.0738545
0.0762082
0.0730728
0.0424688
0.00553271
0.0174754
0.00152333
0.00271757
0.00418957
0.157737
0.766071
0.0943051
0.00734882
0.000343038
0
0.0286631
0.0401877
0.0343229
0.126705
0.246855
0.0658128
0.0144641
0.00687529
0.0123705
0.00509438
0.111471
0.0952193
0.0351092
0.0123449
0.00319907
0
0.000518282
2.72781e-005
0.00541686
0.201753
0.342211
0.0295503
0.00837564
0.000824181
0.00790075
0.00362797
0.000190947
0.00472724
0.309494
0.26149
0.00902232
0.00287564
0.00321178
0
0
0
0.00375211
0.508204
0.580423
0.000872691
0
0
0
0
0
0.00376976
0.208435
0.392795
0.0639144
0.0114199
0.0138095
0.0237166
0.0148054
0.0249824
0.00492629
0.121969
0.144442
0.0678906
0.0584527
0.145372
0.0795088
0.0891103
0.0427521
0.00911211
0.393063
0.443789
0.00358077
0.0034892
0.0419214
0.0185527
0.0130384
0.0627321
0.0085411
0.141874
0.101771
0.00596794
0.0635023
0.460256
0.162592
0.0497414
0.106668
0.000673874
0.0088362
0.00829574
0.0118693
0.128071
0.153872
0.0496403
0.0512348
0.0119341
0
0
0.00109204
0.00725943
0.380837
0.484363
0.0937977
0.0212928
0.0067142
0.00131597
0.00482241
0.000713159
0.000816363
0.0821186
0.322902
0.197984
0.0458409
0.040157
0.00627558
0
0
0
0.104328
0.443879
0.347541
0.0813374
0.0681787
0.00607663
0.0211601
0.0738019
0.0251578
0.243615
0.393853
0.149256
0.0293928
0.00366268
0.0538515
0.123256
0.256415
0.155593
0.0483963
0.0902435
0.0746538
0.033827
0.0469881
0.0470038
0.0236514
0.0498093
0.0305171
0.0515858
0.323177
0.398907
0.214703
0.0875344
0.0754302
0.0702495
0.159734
0.228442
0.0269663
0.0937686
0.206643
0.252422
0.139128
0.136136
0.193803
0.139656
0.193747
0.069764
0.0120369
0.0266514
0.0178072
0.107433
0.245454
0.321941
0.0796261
0.17851
0.0768489
0.0361497
0.046602
0.0212517
0.0745234
0.0396924
0.0735124
0.0961612
0.235324
0.109906
0.123906
0.178902
0.101685
0.141739
0.309479
0.243304
0.0364296
0.156568
0.0965253
0.0710193
0.175221
0.10303
0.392193
0.0991378
0.16351
0.0949362
0.0657922
0.0745568
0.102109
0.0407221
0.0378746
0.00995305
0.014141
0.0338122
0.0685327
0.0924823
0.26433
0.36654
0.236038
0.156518
0.000443561
0.284524
0.189205
0.0896849
0.0771299
0.0866849
0.0622326
0.035811
0.0772519
0.146284
0.0981432
0.100556
0.140137
0.247344
0.44666
0.222585
0.0758169
0.112942
0.0137685
0.0114644
0.0278201
0.0255676
0.0692826
0.124132
0.215516
0.124709
0.0350938
0
0.0191073
0.0765902
0.146343
0.299212
0.251574
0.0851757
0.035297
0
0
0.0477405
0.113019
0.146636
0.0867401
0.23062
0.149719
0.0568202
0.0305163
0.0103445
0.0428577
0.284202
0.649521
0.119436
0.100884
0.0667907
0.025918
0.00244664
0.0105573
0.00221153
0.0185414
0.0742492
0.209276
0.3135
0.0384061
0.0135654
0
0
0
0.000456436
0.0105244
0.147676
0.527998
0.044964
0.0226089
0
0
0.00313726
0.0735783
0.322985
0.167998
0.146033
0.046767
0.00813922
0
0.00407317
0.000102685
0.00920985
0.0910927
0.382154
0.407434
0.0631447
0.0135654
0
0.000581881
0.000217837
0.000455093
0.00162122
0.11715
0.625471
0.0537071
0.00911724
0.000985286
0
0.014683
0.0125127
0.0193729
0.0439149
0.22798
0.0807959
0.0285208
0.00927142
0.00620138
0.000655114
0.0178132
0.0670694
0.343308
0.509682
0.035453
0.0057584
0.000591172
0
0.011269
0.0300348
0.104922
0.0883507
0.188001
0.0402915
0.0191289
0.00444221
0.000358893
0.000806086
0.262569
0.385858
0.00132092
0.000504387
0.000490686
0
0
0
0.0022756
0.307893
0.466422
0.000597342
1.99332e-005
0
0
0
0
0.00269441
0.254734
0.442332
0.00305935
0
0
0
0
0
0.00389029
0.131852
0.357883
0.00567671
0.000139533
0
0.000541335
0.000997017
0.00105317
0.0119242
0.323381
0.347888
0.0156771
0.0168047
0.0458872
0.0288576
0.0104682
0.0282762
0.00762048
0.0906881
0.0513976
0.0238765
0.0443389
0.489575
0.409133
0.0327897
0.0501723
0.0182191
0.111192
0.186632
0.0310237
0.010794
0.0137676
0.0100879
0.0123787
0.0202012
0.0208264
0.0488155
0.0256995
0.0365635
0.0171603
0.227594
0.355542
0.0440818
0.0460238
0.000671519
0
0.00053064
0.00168416
0.0121346
0.18993
0.345066
0.0248044
0.0222738
0.00892491
0
0
0.0172426
0.0195899
0.184718
0.286674
0.0496213
0.07889
0.00201365
0.00370019
0.00118227
0.00241271
0.00124348
0.217327
0.444643
0.025622
0.0104026
0.00337962
0
0
0.0287377
0.0159962
0.321147
0.535499
0.105023
0.0276302
0.0325086
0.00257851
0.00401508
0.0383377
0.0199586
0.122294
0.17872
0.212036
0.125134
0.034946
0.00429752
0.0182107
0.0627579
0.0101099
0.0590513
0.288452
0.41543
0.138336
0.0292905
0
0
0.0552948
0.0266929
0.115811
0.23527
0.240194
0.0720648
0.0385276
0
0.00098761
0.039564
0.0257683
0.0176334
0.402155
0.461738
0.0993625
0.00893278
0.0312169
0.0189675
0.0272498
0.0103268
0.0686472
0.191052
0.171177
0.0826046
0.13038
0.169237
0.0136356
0.0120817
0.00790795
0.0312774
0.083364
0.09433
0.265363
0.0123396
0.0453849
0.00234365
0.00695398
0.00617277
0.0207487
0.273247
0.334755
0.166293
0.155364
0.188505
0.00722779
0.000468729
0
0.0103711
0.0669724
0.219394
0.620283
0.172273
0.199015
0.0544785
0.0252323
0.0127142
0.00511372
0.0140235
0.05887
0.163953
0.125751
0.229567
0.16879
0.138715
0.122812
0.0127484
0.00619743
0.0905821
0.038456
0.297236
0.170331
0.0409793
0.00702307
0.00841574
0.00268227
0.00705128
0.0933512
0.475444
0.415834
0.297911
0.130331
0.0360209
0.0204906
0.0187759
0.0233914
0.101783
0.158055
0.102573
0.213524
0.155291
0.056887
0.0824654
0.0128099
0.00266454
0.0468412
0.0124831
0.077565
0.304061
0.444679
0.0180682
0.0291215
0.01255
0.00159872
0.0066916
0.0190789
0.189588
0.308047
0.0895972
0.0186521
0.0125534
0.00514172
0.00521234
0.0436608
0.0289002
0.101147
0.384528
0.488529
0.0388892
0.0136062
0.000846418
0
0.0113651
0.0176483
0.0120999
0.12892
0.246763
0.103268
0.0575516
0.025678
0
0
0.011462
0.0141587
0.0853864
0.204271
0.377564
0.12832
0.0295851
9.93145e-005
0.000297944
0.00163742
0.0205628
0.307573
0.496498
0.0604625
0.0110601
0.00361725
0
0
0.00738204
0.0393494
0.279017
0.422185
0.180985
0.0140507
0.00386923
0.000695202
0.00208561
0.00451654
0.0572283
0.130204
0.308782
0.555599
0.230814
0.0122668
0.00148878
0.00256832
0.000282021
0.0440654
0.103566
0.219075
0.106845
0.0815224
0.00817072
0.00351461
0.0024798
0.00566663
0.118209
0.22269
0.37077
0.225596
0.0108263
0.00800374
0.00893467
0.0186074
0.00756488
0.0943669
0.110801
0.114461
0.0364515
0.00343078
0.0146051
0.009855
0.021763
0.0499413
0.0330568
0.51829
0.516275
0.0223923
0.00046092
0
0
0
0
0.0196827
0.156967
0.378104
0.0488208
0.000954088
0
0.00976963
0.00593293
0.00381389
0.0907348
0.241822
0.130876
0.0507138
0.00720232
0.00100926
0.00166978
0.000556592
0.00714462
0.0569632
0.0917502
0.122622
0.0683941
0.00184855
0
0.0133816
0.00463988
0.0162668
0.0914903
0.159647
0.178361
0.0792933
0.00624675
0.00266384
0.0529666
0.0463433
0.0646104
0.109207
0.113891
0.0380777
0.088807
0.0338361
0.315831
0.415953
0.159931
0.122951
0.0764326
0.19271
0.0848512
0.083459
0.0167763
0
0.0595321
0.0234179
0.0283613
0.0710131
0.137944
0.081341
0.203042
0.104991
0.079481
0.0880418
0.123628
0.041076
0.00331316
0.00551912
0.00184711
0.00430365
0.00259678
0.172859
0.28266
0.0510616
0.00639195
0
0
6.58386e-005
0.00592335
0.00371512
0.222322
0.563481
0.423737
0.00297163
0.00367234
0.0158358
0.0221555
0.03012
0.0144014
0.0643842
0.0831432
0.0541192
0.0029205
0.000365339
0.00865982
0.0176139
0.0330235
0.0160804
0.0987237
0.240445
0.403081
0.00805238
0.0145479
0
0
0.00618513
0.00324074
0.028661
0.14629
0.372826
0.0187289
0.0242465
0
0
0.00744746
0.00605492
0.00341304
0.11529
0.408125
0.102815
0.00399765
0.000258273
0.00108345
0.00440678
0.00290867
0.013148
0.0993249
0.409707
0.0406275
0.0271682
0.000444631
0
0
0
0.00169106
0.0569159
0.540615
0.324189
0.0128975
0.00478439
0
0.00185541
0.00185541
0.00237787
0.0766178
0.207128
0.149847
0.0796311
0.0338092
0.00787615
0
0
0.000339695
0.0166439
0.13643
0.385941
0.0846206
0.00329629
0
0
0
0.00142672
0.0204277
0.211642
0.396326
0.254638
0.0161729
0.00472569
0
0
0.000203817
0.00445141
0.0937294
0.637649
0.109087
0.0321425
0.0227695
0.0065512
0.0146867
0.00375803
0.00502957
0.0690464
0.253405
0.212694
0.145671
0.0196951
0.0122888
0.0244778
0.0263062
0.0226753
0.0476895
0.121218
0.218925
0.018097
0.0130295
0.00377658
0.00881202
0.00194278
0.00147555
0.0404061
0.539235
0.439883
0.288397
0.0148038
0.0062943
0.0146867
0.0135995
0.00853857
0.0186299
0.386007
0.115729
0.275501
0.0234596
0.00384118
0.00485667
0.00818199
0.00628272
0.0119487
0.0277019
0.0710938
0.398642
0.308292
0.0098714
0.00342649
0
0
0.0056457
0.00676475
0.193075
0.493363
0.0241565
0.0007202
0.00173321
0.00523193
0.00276183
0.00177898
0.0489132
0.115123
0.532267
0.111986
0
0.000658767
0.00313641
0.00227323
0.00199727
0.00313584
0.0317341
0.36781
0.652398
0.0213459
0.00269873
0
0
0
0.000860749
0.0421639
0.219496
0.357173
0.0455762
0.00298837
0
0.000436027
0.00130808
0.00602524
0.0708653
0.288011
0.210019
0.023975
0.0172843
0.00994571
0.0051251
0.00170316
0.00176183
0.0244343
0.072782
0.147623
0.0594335
0.039766
0.00847532
0.00242297
0.000191555
0.00196224
0.169803
0.361401
0.365415
0.122745
0.0118687
0.0233872
0.00900329
0.0228011
0.0178258
0.165512
0.180886
0.0800382
0.0571539
0.0248148
0.0401516
0.00906686
0.0502857
0.0759321
0.196399
0.219425
0.254992
0.119478
0.0805161
0.0438785
0.000624424
0.00281089
0.0114432
0.158748
0.130488
0.094984
0.0943283
0.103913
0.0637458
0.00437096
0.0196762
0.0285809
0.153178
0.150319
0.125917
0.218424
0.0872543
0.00886639
0.0163814
0.00546046
0.0396126
0.141546
0.149541
0.190623
0.125347
0.0633275
0.00239864
0.0406996
0.0187065
0.0832488
0.115956
0.103397
0.214608
0.161572
0.148267
0.0172782
0.0259123
0.0224964
0.0959201
0.0784865
0.114292
0.252361
0.067203
0.137505
0.0184988
0.112728
0.166525
0.160219
0.0665737
0.159124
0.107334
0.046138
0.0664557
0.00649402
0.0213458
0.0194276
0.0425398
0.0805415
0.220048
0.215078
0.161476
0.135079
0.0200766
0.0259098
0.0691936
0.0241219
0.0480946
0.0711508
0.124862
0.0247155
0.10217
0.0454581
0.0690698
0.166863
0.135408
0.0938099
0.149204
0.296871
0.100476
0.259163
0.061256
0.0849185
0.136301
0.119989
0.0535987
0.203564
0.217502
0.117381
0.0538937
0.0639214
0.0260511
0.040738
0.0122636
0.0702066
0.162738
0.165193
0.159828
0.0674129
0.138736
0.181842
0.230546
0.0596774
0.185076
0.167682
0.197495
0.0361295
0.0619048
0.034966
0.061311
0.0448769
0.144346
0.307881
0.24524
0.116973
0.0226112
0.0254128
0.0638852
0.0531772
0.041097
0.143646
0.0435862
0.0282591
0.00945569
0.0149425
0.0101567
0.0175461
0.0953827
0.240541
0.128333
0.174765
0.0336293
0.00318183
0
0.00138593
0.000569056
0.0401971
0.402819
0.690831
0.0746191
0.0772676
0.0257242
0.00366149
0.0102189
0.0147022
0.0145092
0.0163748
0.0550941
0.127575
0.0807044
0.0338576
0.010688
0.0145903
0.0217671
0.0130416
0.0250905
0.162053
0.20869
0.0294108
0.00228181
0
0.000106104
0
0.000981639
0.089817
0.42161
0.428436
0.0405989
0.00209647
0
0
0.000307665
0.000571377
0.0358311
0.651081
0.092393
0.0505232
0.0129715
0.00222423
0.00238203
0.0141449
0.0112402
0.0135644
0.0659911
0.140832
0.0731944
0.00845231
0
0.00779801
0.0248037
0.0313124
0.0265885
0.0887197
0.227831
0.00802799
0.000723427
0.000598769
0
0.000748456
0.00138999
0.0208372
0.588021
0.412416
0.190911
0.0072405
0.000997948
0
0.000449074
0.000833994
0.00914819
0.498244
0.0523037
0.0163779
0.00703908
0.0125133
0.0236483
0.0137852
0.0172192
0.0216243
0.11273
0.0989739
0.0453129
0.0198847
0.0208554
0.0195436
0.00375248
0.00609895
0.00733889
0.132789
0.361064
0.590226
0.035603
0.000236669
0.000536929
0.0102016
0.00275097
0.0186719
0.175445
0.119284
0.478035
0.0488067
0
0.00303282
0.0303692
0.0407158
0.07274
0.0343602
0.125014
0.0680533
0.0130203
0.004946
0.00230636
0.00981952
0.0087704
0.0440813
0.110264
0.0261327
0.0261154
0.00451987
0
0.000842349
0.0550533
0.107918
0.157746
0.0546624
0.0733844
0.216632
0.0502588
0.018509
0.0934611
0.119394
0.0964618
0.0684701
0.0178589
0.034458
0.0627779
0.0769008
0.0556547
0.232595
0.149895
0.0420859
0.0262547
0.0130231
8.23809e-005
0.0087767
0.00372739
0
0.0573248
0.299806
0.304457
0.174982
0.019502
0.0120685
0.00668113
0.0109735
0
0.140753
0.356231
0.188995
0.363025
0.0864615
0.135784
0.0754623
0.0722623
0.04451
0.121651
0.128675
0.00762729
0.0208695
0.0343858
0.116983
0.0715654
0.0551901
0.0384371
0.16035
0.108429
0.0245581
0.00481451
0.036815
0.0574446
0.0155263
0.0232204
0
0.069341
0.17449
0.0451547
0.465534
0.204071
0.0640984
0.0302372
0.0566265
0.0313687
0.178048
0.118094
0.0859813
0.196646
0.174202