0.0423305
0.00276331
0.0123946
0.00269507
0.00157098
0.0631436
0.101258
0.0683565
0.231628
0.0874362
0.0047632
0.0150168
0.0207958
0.0661075
0.112648
0.0665285
0.0996856
0.227717
0.362114
0.0151603
0.0406748
0.00449179
0.000942587
0.0619681
0.0744682
0.0093911
0.435009
0.343772
0.0677874
0.111165
0.0722442
0.0790255
0.0852416
0.0537868
0.0261248
0.335221
0.0174721
0.000802757
0.00507641
0.0241614
0.157954
0.0918949
0.0334011
0.0763992
0.0563784
0.000123551
0
0.00183715
0.0763408
0.536482
0.217272
0.113784
0.0434391
0.00670435
0.0953352
0.112639
0.0739053
0.097771
0.154503
0.0664821
0.00594478
0.00707839
0.0594924
0.0210328
0.257282
0.120244
0.167521
0.430005
0.263353
0.00815764
0.000304716
0.0270341
0.00390628
0.0095743
0.00479405
0.086596
0.451588
0.175176
0.0738213
0.0259306
0
0.0404968
0.0855512
0.0515465
0.170765
0.298471
0.170891
0.0596789
0.0400223
0
0.0344737
0.101035
0.0271859
0.0527197
0.295968
0.243321
0.0539138
0.102648
0.0528871
0.39981
0.161778
0.0469479
0.0402571
0.121825
0.142967
0.0741791
0.171081
0.168782
0.0579371
0.0810076
0.0887027
0.103588
0.0968884
0.0818698
0.0402518
0.0290295
0.0168265
0.0529554
0.058383
0.0984645
0.0367823
0.0175701
0.0604139
0.0771049
0.0726021
0.0357812
0.552546
0.169966
0.114594
0.0329498
0.0148011
0.00934775
0.0136093
0.0331673
0.227228
0.444429
0.271875
0.174384
0.0205382
0.00269896
0.00646518
0.00662929
0.00369377
0.240781
0.0362491
0.0606793
0.0632228
0.0359172
0
0.0323898
0.0523944
0.0800884
0.045107
0.0543157
0.122991
0.0652446
0.0556107
0.0587766
0.0244503
0.0159473
0.0821789
0.0791724
0.31545
0.234481
0.0965689
0.0206819
0
0.00462712
0.00343682
0.00528621
0.242423
0.278213
0.252312
0.0381173
0.0272872
0.00408769
0.0606252
0.0168507
0.0595248
0.617316
0.02205
0.0399301
0.0109668
0.113695
0.13627
0.043228
0.0211423
0.0402134
0.0280216
0.00827446
0.00881874
0.0052515
0.361055
0.282204
0.103471
0.0803479
0.104713
0.0393991
0.0518826
0.055243
0.00330332
0.0582866
0.0474969
0.122782
0.0704393
0.144285
0.302408
0.0305445
0.00331642
0.00138624
0.141982
0.110062
0.16007
0.136449
0.338938
0.513604
0
0
0.00831097
0.297518
0.185435
0.10635
0.054871
0.0765624
0.0258052
0.0069459
0
0.00306748
0.187141
0.29475
0.121854
0.0412294
0.102876
0.0441382
0.0165317
0.00107499
0.00306748
0.0889977
0.0531496
0.111391
0.106404
0.325506
0.360023
0.0912626
0.00752495
0.00156633
0.0925578
0.167459
0.0723712
0.0914905
0.449064
0.209713
0.00588702
0.000896762
0.011157
0.151654
0.437122
0.12526
0.0460733
0.0232162
0.0134197
0.000841004
0.00847611
0.0272308
0.148998
0.483647
0.204951
0.063524
0.00215677
4.42635e-005
0.0546078
0.0141435
0.00574933
0.09709
0.329722
0.0846019
0.144382
0.111711
0.0644535
0.00660934
0.121916
0.0790658
0.103603
0.301733
0.107757
0.221223
0.0232034
0.012038
0.0102206
0.0156821
0.0266615
0.0512646
0.287224
0.166752
0.0327875
0.0241139
0.0158939
0.048154
0.0209043
0.113294
0.316613
0.216449
0.109141
0.0315845
0.0394024
0.0432466
0.0390263
0.145561
0.127491
0.0568747
0.168526
0.067739
0.0605538
0.0158549
0.0179643
0.0687727
0.0558682
0.0941996
0.200387
0.521583
0.354712
0.00660456
0.00986104
0.0258831
0.161196
0.00141056
0.00310676
0.00016261
0
0.00136219
0.00139282
0.0148372
0.288965
0.139021
0.0162818
0.0119617
0.00568388
0.00297669
0.00137387
0.00159104
0.0517929
0.266716
0.216397
0
0
0
0
0
0.0224694
0.12033
0.573283
0.113524
0.0157916
0.00023108
0
0
0
0.0833939
0.322962
0.450218
0.164097
0.162669
0.0399331
0.0227541
0.0159452
0.00395101
0.00183005
0.0283805
0.149131
0.102594
0.36136
0.1213
0.0892581
0.0765603
0.0448845
0.01185
0.000249506
0.0579744
0.274111
0.186227
0.024123
0.0302835
0
0.00814441
0.0703268
0.158152
0.305696
0.236772
0.318829
0.299575
0.349696
0.0502436
0.0151771
0.0936771
0.005016
0.0701008
0.0300538
0.0973167
0.0487391
0.0708931
0.044551
0.0405943
0.00790553
0.022055
0.0433591
0.217031
0.169851
0.058373
0.0380746
0.0148178
0.0211005
0.00702554
0.0367584
0.106621
0.027401
0.189052
0.235185
0.205973
0.0342777
0.00317605
0.0146633
0.00113723
0.0171546
0.0993773
0.724352
0.358454
0.0873734
0.0110566
0.00134051
0
0.00189539
0.0272462
0.138706
0.146668
0.0391305
7.1301e-005
0
0
0.000534249
0.00370843
0.0816873
0.149721
0.219978
0.054252
0
0
0
0
0
0.0713154
0.0513962
0.555846
0.160442
0.000499107
0
0
0
0.00019122
0.0259988
0.276815
0.619733
0.109691
0
0
0
0
0
0.0207266
0.148615
0.0782785
0.0120913
0
0
0
0
0.000234458
0.072004
0.116169
0.0185831
0.000608448
0
0
0.00349129
0.00120239
0.0130917
0.283201
0.474911
0.20582
0.0168733
0
0
0
0
3.3494e-005
0.0902322
0.457089
0.0270688
0
0
0
0
0
0.0125358
0.574021
0.0262527
0.00361216
0
0.00128909
0.00128909
0.0119397
0.0106035
0.0647354
0.24405
0.0162976
0.000155117
0
0.00214848
0.00311885
0.0129512
0.0321961
0.208452
0.238395
0.114477
0
0
0
0
0
0.0058906
0.117481
0.569204
0.045747
0
0
0
0
0.0278186
0.0782981
0.543332
0.349668
0.00620015
0.000359208
0
0.000305731
0.00132605
0.00535637
0.0305124
0.217718
0.1376
0.0202255
0.00251446
0
0.00576309
0.0108387
0.00784025
0.0500832
0.258159
0.0922996
0.00552182
5.13155e-005
0
0
0
0.0292504
0.100665
0.584133
0.110761
0.00203551
0.000359208
0
0.000658437
0.00141257
0.0116526
0.263823
0.595072
0.0859478
0.0207896
0.00684162
0.00162427
0.0232364
0.0657969
0.0402453
0.113975
0.154447
0.0522538
0.0176609
0.0564462
0.0230022
0.0185051
0.0668895
0.0403381
0.108588
0.0403223
0.0274538
0.00490881
0.00112562
5.68634e-005
0.00294628
0.0366155
0.0982388
0.594981
0.416896
0.0379256
0.0441258
0.00857653
0.000932265
0.00419523
0.0919016
0.223277
0.478483
0.117081
0.0635936
0.0316307
0.084194
0.0561893
0.0158948
0.0298458
0.0212842
0.0492108
0.0813227
0.0704978
0.0315157
0.0248238
0.0572033
0.187494
0.415683
0.142878
0.0137108
0.0402205
0.0551011
0.0628201
0.0274792
0.0255091
0.0151895
0.0795449
0.127768
0.243304
0.288285
0.200151
0.0214547
0.117897
0.227381
0.351175
0.343116
0.0227918
0.125931
0.198141
0.113786
0.140651
0
0
0.00131837
0.0171089
0.0595222
0.0939034
0.135298
0.424885
0.04161
0.00606332
0.00185571
0.0122752
0.0312864
0.0988816
0.246278
0.25825
0.28009
0.053715
0.00197841
0.00964489
0.061913
0.269096
0.158607
0.113498
0.0638673
0.186773
0.00560267
0.000118602
0.0789317
0.261133
0.332601
0.269378
0.17797
0.0575948
0.100244
0.0442237
0.0164091
0.0281575
0.0733646
0.0190586
0.0154011
0.0478451
0.0464872
0.0954969
0.0334838
0.0477625
0.20104
0.259997
0.011919
0.00548831
0.0203767
0.00560029
0.0214724
0.00386139
0.000193375
0.186897
0.300302
0.0765699
0.0384088
0.0271175
0.0160683
0.0484446
0.00223123
0.0503462
0.62245
0.524587
0.0281072
0.000784044
0.00145608
0.00390296
0.0118675
0.00477414
0.134776
0.168434
0.0924562
0.00226167
0.000469391
0.00323936
0
0
0.00820718
0.398636
0.23702
0.0472093
0.000715584
0
0
0
0
0.00510062
0.127329
0.513529
0.118834
0.0155293
6.70558e-005
0.000124532
0
0
0.0334797
0.333017
0.513529
0.0807694
0.0138229
0
0
0
0.00609365
0.00642576
0.381902
0.215228
0.0121534
0
0.000786519
4.13959e-005
0.00258036
0.00110587
0.166302
0.471817
0.161566
0
0
0.00550563
0.000289771
0.0043006
0.00580724
0.0309984
0.316677
0.451496
0.0411863
0.00531688
0.0128799
0.00352207
0.0304821
0.0578931
0.0686622
0.299337
0.224948
0.0157926
0.0134999
0.0924076
0.0246545
0.0508035
0.104914
0.416604
0.237271
0.0325593
0
0
0.00239548
0.00025111
0.00177134
0.0671415
0.426301
0.0383383
0.000987054
0
0.00049973
0.00107845
0.00165269
0.04056
0.484183
0.185702
0.198225
0.0648061
0.0303394
0.01548
0.05682
0.0200121
0.0558677
0.157613
0.174796
0.0653626
0.00701124
0.0194198
0.0489231
0.118426
0.0486304
0.142563
0.32026
0.0775072
0.00196174
0.00271482
0
0.000431764
0.00253284
0.0106358
0.165576
0.413796
0.0160871
0.00301646
0.00452469
0
0.000371121
0.0296678
0.122424
0.536116
0.212353
0.0221183
0.0129223
0.0190037
0.045279
0.0903997
0.0573729
0.0281511
0.145963
0.168348
0.00440426
0.0211152
0.0326739
0.0770521
0.0791928
0.0411356
0.195547
0.468332
0.235963
0.00121641
0.000286612
0.000429918
0
0.000217251
0.0233986
0.152833
0.349189
0.0233368
0
0
0
0
3.10359e-005
0.0240145
0.310909
0.364246
0.0101237
0.00109553
0.00200628
0.00491991
0.0181068
0.0200921
0.0303905
0.364456
0.319648
0.0505425
0
0
0.00114629
0.00696209
0.00907994
0.173966
0.469321
0.295488
0.00112612
0.000195383
2.17091e-005
0
0
0.00175201
0.0426501
0.333022
0.181177
0.00194846
0.00881205
0.00141638
0.00295031
0.00267072
0.0379265
0.163986
0.278971
0.0593693
0.0116133
0
0
0
0
0
0.200986
0.485327
0.204924
0.000166797
0.00106348
0.00210737
0.00491719
0.00160243
0.0287915
0.359932
0.485327
0.112719
0.00106348
0.0206316
0.0177769
0.0221158
0.00653377
0.0780755
0.161228
0.195121
0.0946489
0.0406681
0.019435
0.0731593
0.102459
0.0722776
0.0480909
0.0140109
0.0911241
0.0976133
0.0579845
0.0053046
0.0168128
0.0307647
0.00367024
0.0665295
0.451098
0.687974
0.0805954
0.0172991
0.0204294
0.0337189
0.0671608
0.0216108
0.0267666
0.131672
0.220453
0.120212
0.137127
0.0271784
0.0175647
0.0216358
0.133258
0.160487
0.0334152
0.0129467
0.0107652
0.0294801
0.00148222
0.00269567
0.136653
0.409043
0.185475
0.0519597
0.00764863
0.00135787
0.00322757
0.0435848
0.0565951
0.0190274
0.181317
0.0868125
0.0349355
0.0202083
0.0378817
0.0485228
0.00778682
0.0156704
0.16767
0.670388
0.357932
0.0581552
0.0102259
0.00164632
0.00434318
0
0.00105535
0.170441
0.242726
0.0260725
0.0068159
0.000812858
0.000511594
0.00153478
0
0.00941412
0.348412
0.395409
0.00898185
0
0
7.30848e-005
0.000219254
0
0.00738748
0.165338
0.444301
0.146783
0.00639815
0.000757353
0
0
0
0.00625626
0.257475
0.506122
0.120583
0.00321843
0
0
0
0.00058108
0.0231417
0.391227
0.214632
0.013773
0
0
0
0
0.0214867
0.0625185
0.454853
0.164151
0.0544248
0.00521971
0
0
0.00512955
0
0.00267003
0.234848
0.454853
0.0733476
0.000649478
0
0
0
0.00293118
0.0035581
0.25707
0.369307
0.199099
0.0639077
0.0149199
0.00858042
0.00349635
0.0314177
0.0745136
0.310787
0.123657
0.125524
0.0403517
0.0126684
0.054248
0.0765364
0.0147529
0.0543988
0.11132
0.080767
0.222891
0.186587
0.0448925
0.0904134
0.123436
0.0484134
0.0489638
0.13038
0.22735
0.326761
0.201799
0.0709434
0.0831764
0.0353133
0.0744607
0.0856484
0.0780957
0.320385
0.441702
0.286846
0.147472
0.10723
0.044965
0.0279311
0.0626213
0.0319558
0.0741166
0.122025
0.157323
0.0350605
0.102635
0.0854559
0.021419
0.0354221
0.0108615
0.0442708
0.152628
0.332411
0.0621348
0.16376
0.107783
0.0314118
0.0192394
0.0154501
0.117771
0.215188
0.297769
0.218876
0.154159
0.0617046
0.0424389
0.0156581
0.0305116
0.0298931
0.240692
0.528567
0.25349
0.231624
0.114146
0.001397
0.00431186
0.0149526
0.0514561
0.25734
0.145365
0.0241896
0.039098
0.0401259
0.00143308
0.007134
0.0167395
0.104287
0.344558
0.101387
0.210863
0.0995948
0.178775
0.0355235
0.0296533
0.0635547
0.0374062
0.366343
0.224733
0.108442
0.0468583
0.0402952
0.102318
0.0768982
0.100223
0.22316
0.513713
0.142738
0.170495
0.123325
0.126949
0.000439541
0.000804949
0.00329102
0.0414173
0.151316
0.0725484
0.298884
0.0779666
0.0547792
0
0
0.00125016
0.011268
0.0745199
0.325718
0.466278
0.070263
0
0.0271319
0.043404
0.0534149
0.15997
0.317577
0.0994601
0.138399
0.0389311
0.0380274
0
0.00563556
0.00776677
0.0300865
0.2269
0.466278
0.240135
0.00209805
0
0
0
0
0
0.00318683
0.276232
0.34304
0.0441146
0
0
0.000208519
0.000486545
0
0.00981771
0.390585
0.341753
0.0334355
0
0
0
0
0.00831822
0.103582
0.416
0.227946
0.00587729
0
0
0
0
0.0269
0.186357
0.416
0.218896
0.00753355
0
0.000341413
0.00106726
0.00249028
0
0.042801
0.4464
0.319804
0.0130582
0.00207229
0.004518
0.000640357
0.00353988
0.000814794
0.0322343
0.18868
0.124612
0.038348
0.0541845
0.00181385
0
0
0.0143466
0.271913
0.572666
0.179644
0.00318436
9.54659e-005
0.0577901
0.0169744
0
0
0.162765
0.327643
0.0977456
0.0140017
0.0422977
0.0168962
0.0305506
0.0035191
0.0527727
0.0663509
0.0324514
0.017209
0.0265669
0.0251425
0.0046183
0.008252
0.0243348
0.379661
0.439644
0.0548995
0.00861063
0.00699777
0.00771809
0.0108323
0.0157083
0.0129466
0.0738698
0.167855
0.0335211
0.010291
0.0193611
0.010637
0.00157142
0.00228981
0.00773371
0.357988
0.639898
0.104121
0.00900969
0.0102672
0.00445634
0
0.00225351
0.0245963
0.270391
0.263889
0.00631125
0.000627995
0
0
0
0.00135211
0.0426232
0.399401
0.337951
0.00580754
0
0
0
0
0
0.000324328
0.195379
0.467934
0.0746155
0.00242494
0
0
0
0
0.00157501
0.193275
0.467934
0.12546
0.000333603
0
0
0
0
0.0512849
0.449625
0.369761
0.00332211
0
0
0
0.00477727
0
0.0340218
0.204593
0.260553
0.069558
0.0296055
0.0213049
0.0132272
0
0
0.00148793
0.144285
0.569522
0.112319
0
0
0
0.0176193
0.00487831
0.00475429
0.0387925
0.350812
0.0425699
0.012241
0.0132728
0.0142282
0.176365
0.123079
0.031926
0.121908
0.218539
0.217272
0.132207
0.11595
0.0770036
0.280551
0.231749
0.0847788
0.337689
0.195399
0.174096
0.222965
0.0880611
0.056493
0.25394
0.0818395
0.0268047
0.0143733
0.0520397
0.0345414
0.038535
0.048901
0.103867
0.39893
0.233886
0.0701996
0.0399829
0.0140663
0.0379997
0.0630208
0.0253191
0.1301
0.0547793
0.039661
0.0270277
0.101616
0.0990229
0.183376
0.36394
0.215936
0.0628896
0.0610442
0.0405733
0.0567527
0.0241403
0.147085
0.303502
0.389457
0.350651
0.233884
0.0872265
0.148242
0.0803
0.0346336
0.0218518
0.0488211
0.0973476
0.107925
0.0723259
0.0381657
0.0920708
0.150974
0.0583138
0.0379513
0.0515094
0.128647
0.216639
0.236457
0.135138
0.104441
0.0718608
0.0320564
0.179282
0.107402
0.130563
0.0653718
0.0985871
0.391243
0.278611
0.160817
0.154117
0.292332
0.0466783
0.0524232
0.0982439
0.14008
0.0984065
0.0823223
0.055291
0.0446702
0.0177996
0.0443923
0.0835242
0.177234
0.132382
0.275573
0.176794
0.0386655
0.0473819
0.0325877
0.0295729
0.120467
0.402367
0.215957
0.131075
0.174088
0.13451
0.163396
0.228289
0.0361468
0.0228048
0.0364962
0.0475726
0.00209796
0.0208457
0.0202391
0.0559868
0.400143
0.460062
0.0532094
0.000404312
0
0.0982932
0.0893161
0.0314313
0.0223987
0.0648532
0.00627467
0.0846077
0.152996
0.0742374
0.0034966
0.0097569
0.0111418
0.256581
0.509933
0.0982863
0.0126259
0.00918294
0
0
0
0
0.0317232
0.268265
0.269775
0.0415576
0.000503436
0
0
0
0
0.0709165
0.422254
0.319673
0.0520735
0.00083906
0
0
0
0.00464881
0.194883
0.422254
0.0711982
0.000581004
0
0
0
0
0.011205
0.336616
0.422254
0.0969825
0.00122747
0
0
0.00556723
0.00378876
0
0.0616321
0.418694
0.377534
0.0537072
0.000218454
0.000282518
0.123258
0.066065
0
0.0169515
0.196905
0.167612
0.0398448
0
0.00848142
0.00355304
0.00703632
0.0164994
0.378532
0.500117
0.141831
0.00415981
0
0.000169511
0.0886689
0.081271
0.00583884
0.0928586
0.278763
0.117407
0.0337658
0
0.00118658
0.0100764
0.0246383
0.0199832
0.0554718
0.128396
0.0232006
0.0164361
0.0228423
0.0149635
0.00411935
0.0241527
0.011692
0.119984
0.642035
0.25439
0.0258971
0.0119983
0.00575907
0.0238797
0.0449917
0.0246425
0.0204286
0.0977488
0.0646705
0.0116978
0.025353
0.0198743
0.0224961
0.047543
0.0109986
0.0301216
0.349652
0.519242
0.0844929
0.0143261
0.0126549
0.000201592
0.00158998
0.000498547
0.0335665
0.309332
0.212818
0.0142883
0
0
0
0
0
0.0252305
0.412875
0.351057
0.0443621
0
0
0.00141115
0.00311074
0.000714041
0.00194782
0.135218
0.435851
0.0837488
1.46349e-005
0.000278062
0
0
0
0
0.119063
0.445045
0.299745
0
0
0
0
0
0.010854
0.3365
0.280226
0.0550122
2.16056e-005
0
0.00705045
0.00893774
0.00755493
0.0236978
0.181799
0.0977463
0.036066
0.000927106
0.00162075
0
0
0
0
0.0845498
0.454446
0.454446
0.0042169
0
0.000776159
0.00508668
0.00419643
0.0291126
0.177713
0.23688
0.454446
0.0140094
0
0.113577
0.0634739
0.0415703
0.0959559
0.124371
0.0310134
0.0149992
0.0161313
0.0832489
0.172304
0.135425
0.0478459
0.0586557
0.0977966
0.131591
0.0620594
0.0287734
0.150194
0.0465986
0.0564401
0.0321366
0.146946
0.397188
0.234716
0.22369
0.0603083
0.150507
0.101255
0.0803765
0.0785883
0.133786
0.236701
0.468034
0.237767
0.0898544
0.265377
0.0893724
0.175398
0.0773784
0.0269001
0.0749147
0.0924435
0.0452749
0.0463211
0.184617
0.036935
0.0884289
0.0971076
0.0498122
0.055271
0.0431494
0.0882479
0.139201
0.370986
0.102256
0.0570478
0.0509701
0.0618031
0.117604
0.335809
0.273627
0.108359
0.26094
0.133372
0.115443
0.105499
0.184312
0.0788052
0.0620984
0.12867
0.149548
0.4193
0.00594959
0.00795364
0.00985604
0.0580539
0.103542
0.0353155
0.0643032
0.101862
0.0897729
0.0175446
0.00663055
0.00103633
0.0792532
0.261622
0.0588872
0.140024
0.264413
0.236155
0.0352354
0.0187466
0.0388971
0.165488
0.285275
0.0711377
0.0550215
0.0446531
0.10099
0.162697
0.0387601
0.0611964
0.191566
0.577489
0.127743
0.0925729
0.0888635
0.338074
0.00585929
0.0014294
0.00292516
0.0156992
0.184066
0.0337657
0.0934368
0.0851004
0.0723404
0.000252234
0.000137907
0.0439132
0.2977
0.172843
0.0054159
0.0133326
0.00394114
0
0.0568364
0.0268839
0.124265
0.0965244
0.480043
0.0527238
0.050521
0.027491
0.102778
0.00356242
0.0293952
0.44702
0.509722
0.189975
0.0067303
0.00695007
0.000483739
0
0
0.000899061
0.0492884
0.35276
0.181428
0.00832619
0
0
0
0
0.00149844
0.0505316
0.425526
0.280213
0.0212477
0
0
0
0
0.0185055
0.279281
0.425526
0.0516374
0.00616491
0
0
0
0
0.0180296
0.246346
0.425526
0.176124
0.0150088
0
0
0
0.00143871
0.00658487
0.0471627
0.476481
0.309987
0.0967973
0.013046
0
0
0.0166261
0.0583954
0.0397505
0.124491
0.187028
0.131549
0.0528466
0
0
0.00802898
0.0221222
0.124792
0.509816
0.341265
0.094917
0.0354117
0
0
0.0431313
0.0870488
0.0934379
0.246489
0.152157
0.127509
0.0634628
0
0
0.0168932
0.0527706
0.0401619
0.0273711
0.0714911
0.0901791
0.0136085
0.00870622
0.0223397
0.0158274
0.0198034
0.00947752
0.0161332
0.208594
0.663101
0.134221
0.00565131
0.0236621
0.0389759
0.0327977
0.0360876
0.0426492
0.0324723
0.0465436
0.0888661
0.0912986
0.10935
0.00553068
0.00254717
0.00382676
0.0359848
0.227773
0.493922
0.139649
0.135045
0.0633946
0.000550049
0.000595078
0.000290735
0.000470877
0.0483741
0.342913
0.0758954
4.21509e-005
0.000800864
0
0
0
0
0.0169238
0.442328
0.347641
0.0013465
0
0
0
3.58297e-005
0.00214959
0.0727381
0.330367
0.0753284
0.010643
0.00525009
0.00363147
0
0
0
0.0328893
0.442328
0.442328
0.0288414
0.0167678
0
0
0
0
0.00150138
0.201443
0.417914
0.0142036
0
0
0
0
0.00260705
0.0408529
0.117535
0.431048
0.0744656
0
0.00294737
0
0
0
0.00159951
0.133989
0.431048
0.0866656
0.00956439
0.000421053
0
0
0
0.00218938
0.0620435
0.431048
0.366106
0.00524602
0.00880806
0.00500945
0.00424798
0.01189
0.0767412
0.0971019
0.265744
0.157625
0.0563246
0.0522278
0.00834908
0.0297359
0.0363802
0.033131
0.101219
0.10784
0.145973
0.130144
0.00328106
0
0.000606855
0.000326768
0.00326278
0.0265733
0.412574
0.50759
0.033594
0.0385446
0
0.00424798
0.0105545
0.00192502
0.0060821
0.100037
0.50759
0.265353
0.0671958
0.00667578
0.0179084
0.0339732
0.0117587
0.0688136
0.106133
0.0617093
0.121129
0.0993285
0.0352336
0.0481608
0.0611776
0.0121929
0.011844
0.0463508
0.0210555
0.142272
0.128307
0.000961999
0.00255834
0.0149115
0.00238834
0.00370553
0.0234914
0.252661
0.533106
0.465169
0.0267746
0.00918946
0.0121814
0.000887299
0.00234081
0.0153921
0.0189106
0.520294
0.0789268
0.0453035
0.0390342
0.0927376
0.0832246
0.0422697
0.0318285
0.00337716
0.0872412
0.238755
0.256925
0.0986782
0.114149
0.225448
0.0643144
0.0288688
0.00289929
0.141258
0.387279
0.186552
0.00795118
0.0125055
0.00119266
0.00825341
0.0133006
6.81113e-005
0.146669
0.297246
0.609064
0.115958
0.013339
0.00295806
0.00953589
0.00950832
0
0.0532301
0.0640602
0.143672
0.198193
0.054057
0.117156
0.00877827
0.00145441
0.000602397
0.0228829
0.00983821
0.116753
0.463469
0.161169
0.0502344
0.000630719
0
0
0
0.0439184
0.463469
0.258716
0.0064997
0.00391985
0.00062332
0.000207773
0
0.00311122
0.02286
0.341457
0.463469
0.0147781
0.00342498
0
0
0
0
0.000837615
0.0757745
0.454373
0.249436
0.0298946
0.00142261
0
0
0
0.000705802
0.0620481
0.338514
0.337284
0.0905935
0.00568761
0
0
0.000302487
0.00650962
0.184583
0.479051
0.0666996
0.00777713
0.000485807
0
0
0
0.0239095
0.189148
0.337972
0.129842
0.0365978
0.00358906
0
0
0.00419656
0.0280513
0.105991
0.248214
0.430804
0.225717
0.050986
0.0198942
0.00145598
0.0179379
0.0577089
0.0745913
0.100669
0.289951
0.172388
0.139119
0.0583556
0.0297792
0.0299025
0.192333
0.282794
0.252504
0.124789
0.0517809
0.015872
0.000457149
0.0171448
0.10488
0.169759
0.0443015
0.0491536
0.0801282
0.0892255
0.134099
0.125389
0.276328
0.247776
0.0986341
0.0310231
0.0105043
0.0138186
0.0135845
0.0167616
0.0863936
0.167108
0.198666
0.0224833
0.000538297
0.00105057
0.0124132
0.129528
0.24263
0.21073
0.371279
0.164975
0.174967
0.088815
0.082598
0.0817946
0.0467242
0.00166976
0.0105731
0.0885936
0.225172
0.136059
0.025571
0.0352136
0.00679948
0.121598
0.310677
0.23039
0.325125
0.315975
0.000372899
0.00858438
0.00379212
0.00179227
0.134841
0.349271
0.125384
0.0658613
0.021357
0.0536802
0.0607338
0.0265448
0.00104569
0.100583
0.403528
0.359208
0.113055
0.13424
0.0105658
0.0143073
0.0325552
0.0151117
0.126501
0.346641
0.146323
0.136908
0.0398993
0.132519
0.104653
0.211718
0.124082
0.0783636
0.241407
0.165502
0.228992
0.137183
0.0298636
0.012656
0.00543268
0.000214011
0.00344624
0.0605181
0.309766
0.160938
0.0594006
0.00426623
5.11147e-005
0
0
0
0.0137871
0.36634
0.493469
0.0280526
0.0737236
0.0230016
0.0532996
0.0357438
0.00131883
0.0151508
0.213775
0.206941
0.0659271
0.0105319
0.000357803
0.00229646
0.00234974
0
0.00869142
0.304913
0.493469
0.0504222
0
0
0
0
0
0.00109617
0.137991
0.447708
0.0269501
0.00242763
0
0
0
0
0
0.0468102
0.447708
0.214336
0.000285881
0
0
0
0
0.00087994
0.0783231
0.447708
0.0879445
0.00601873
0.00497134
0
0
0
0
0.0325127
0.447708
0.266583
0.0537406
0
0
0
0
0
0.00229346
0.187235
0.402275
0.363472
0.0110213
0
0
0
0
0
0.0194587
0.40812
0.0469833
0.0110075
0
0
0
0
0.00617017
0.22295
0.372752
0.293358
0.00961362
0
0
0
0
0.000379616
0.0484144
0.416741
0.457486
0.124133
0.00451947
0.00288306
0
0
0
0
0.11515
0.258377
0.534048
0.096993
0.00480509
0
0
0
0
0.00925266
0.394109
0.0401874
0.00741705
0.00480509
0
0
0
0.00152551
0.155709
0.30033
0.259123
0.0853008
0.00800849
0
0
0
0
0.04347
0.0418782
0.502252
0.165948
0.000699088
0
0
0
0
6.05384e-005
0.0334184
0.410553
0.348648
0.000102796
0
0
0
0
0
0.0969757
0.32382
0.1317
0.00116515
0
0
0
0
0.028985
0.0573275
0.375227
0.308807
0.000719571
0.000536293
0.0052042
0.00711264
0
0.0118252
0.0099396
0.28774
0.497552
0.0150644
0.00261382
0.000128905
0
0
0
0.0829255
0.300949
0.388879
0.0266069
0.0105438
0.000902336
0
0
0.0144393
0.0332399
0.254364
0.39047
0.0154052
0.0158186
0.0174988
0.0163895
0
0
0.139936
0.200912
0.25084
0.0449715
0.0306707
0.0212201
0.00637388
0
0.0259874
0.240992
0.185039
0.127654
0.0104022
0.00507256
0.00168176
0
0.0115907
0.109717
0.199916
0.110432
0.102782
0.0300902
0.004401
0.0171395
0.0438182
0.223563
0.251
0.341361
0.160775
0.102495
0.0399343
0.0104815
0.0109609
0
0.0019578
0.136388
0.282496
0.339963
0.421672
0.163683
0.00290512
0.00922825
0.0142976
0.0592344
0.159329
0.108631
0.0781593
0.17693
0.175239
0.185658
0.000673721
0.0167937
0.0462268
0.115729
0.182243
0.043844
0.133714
0.0295665
0.177108
0.243205
0.0839831
0.128178
0.271032
0.0652155
0.0517322
0.105658
0.129988
0.246687
0.108955
0.156756
0.207851
0.113567
0.255599
0.131258
0.109383
0.0481983
0.179175
0.0829122
0.0864448
0.153863
0.315525
0.0191813
0.00786024
0.0650046
0.0457589
0.148962
0.266076
0.0613627
0.125176
0.068469
0.0619731
0.0265791
0.239635
0.371454
0.161015
0.156862
0.0946992
0.212798
0.0884939
0.0654657
0.0220795
0.0405835
0.0426265
0.184459
0.0874418
0.0491733
0.0470685
0.10454
0.00826205
0.00108562
0.0549168
0.253336
0.544391
0.148695
0.0249695
0.0451894
0.0930794
0.0369314
0.00851683
0.0675976
0.11883
0.0340547
0.021192
0.222029
0.15507
0.0538802
0.010626
0.00367313
0.00418968
0.00938515
0.00594183
0.019787
0.352714
0.643757
0.15609
0.0128881
0.0144621
0.017346
0.0802782
0.145533
0.066753
0.045946
0.0537031
0.0712919
0.0397345
0.032858
0.0208381
0.0144119
0.0252595
0.029317
0.0857658
0.366897
0.286512
0.0156819
0.000339001
0
0
0
0.00152438
0.0596759
0.392312
0.202882
0.0931343
0.022291
0
0
0
0
0.0178565
0.307182
0.34494
0.108162
0.0545017
0.0324251
0.00642568
0.0038572
0.00347453
0.0181907
0.239708
0.249296
0.355956
0.0973193
0.0232292
0.00161476
0.000462939
0.00030833
0.00328394
0.159549
0.475953
0.180031
0.0536124
0
0
0
0
0.00587206
0.135216
0.189349
0.3438
0.0407386
0
0
0
0
0.000480782
0.0439436
0.253783
0.419626
0.117214
0.00617397
0.02729
0.00130561
0
0.000814858
0.0488777
0.245541
0.527679
0.136819
0.0169797
0.0454834
0.00217602
0.00726119
0.0318476
0.0723852
0.331552
0.328001
0.0243779
0.00146267
0.000947585
0
0
0
0.0129465
0.252978
0.394558
0.148851
0.0172807
0.00157931
0
0
0
0.00873175
0.14078
0.288382
0.0462764
0.00733617
0.00829947
0.00224711
0.053111
0.0928898
0.127476
0.467755
0.353607
0.115701
0.0060241
0
0.0129503
0.0661454
0.0676741
0.0706883
0.278519
0.321346
0.253941
0.136097
0.000333796
0
0.000946367
0.00536274
0.00939297
0.151392
0.115877
0.367525
0.375415
0.000560362
0.00357345
0.0762502
0.0861216
0.00525064
0.0719116
0.338939
0.201727
0.0620116
0
0.0074403
0.0247427
0.0486568
0.0756643
0.193363
0.13064
0.261378
0.16236
0
0.0422514
0.203201
0.141595
0.0484355
0.0783282
0.0564958
0.188104
0.245296
0.0269212
0.0444355
0.192285
0.130418
0.000120949
0
0.112339
0.0945622
0.0904423
0.0831593
0.102526
0.227031
0.0750783
0.0115328
0.0163019
0.0356799
0.0859128
0.0625526
0.00349776
0.0976205
0.437011
0.23792
0.0531293
0.0211541
0.023339
0.00801545
0.00430857
0.0115146
0.0863416
0.339314
0.298684
0.315183
0.161122
0.210577
0.0932112
0.0487791
0.0485347
0.0390169
0.0886464
0.0266807
0.0179544
0.0780806
0.1752
0.215905
0.324367
0.21998
0.0638711
0.0784585
0.105798
0.00838152
0.082286
0.0321234
0.0207046
0.00829137
0.0162343
0.0328579
0.11621
0.109835
0.2777
0.285095
0.035057
0.0288874
0.0410718
0.12747
0.121674
0.186281
0.356267
0.22785
0.317884