0.171005
0.0214729
0.0445748
0.0551639
0.0777865
0.0382175
0.0465561
0.107193
0.161509
0.167173
0.0200833
0.0437514
0.0327728
0.0536896
0.0495228
0.0756401
0.159486
0.284719
0.29036
0.0768921
0.122809
0.054318
0.134967
0.144162
0.116563
0.0953005
0.126093
0.354946
0.0459831
0.0966684
0.0721294
0.0662775
0.103339
0.0491828
0.185385
0.26612
0.0137751
0.00472242
0.0248041
0.053378
0.0947856
0.0677859
0.0734655
0.0500676
0.0578616
0.00945432
0.0168516
0.0973282
0.116372
0.391678
0.191354
0.0369273
0.0196902
0.0104732
0.0581349
0.00699612
0.160263
0.126934
0.0860414
0.0988794
0.0272745
0.042738
0.0559004
0.00691335
0.0101208
0.176843
0.101991
0.400417
0.518651
0.023781
0.0376918
0.0159032
0.0250848
0.0266902
0.0841424
0.0925196
0.295164
0.129473
0.0192599
0.0120515
0.0194905
0.0772817
0.0584382
0.130471
0.174305
0.292921
0.0712645
0.0353611
0.0220424
0.0266825
0.00966574
0.00871044
0.0375332
0.0263835
0.329666
0.365182
0.0528291
0.0979466
0.0398957
0.260285
0.0521768
0.0611329
0.0677175
0.34908
0.111753
0.144252
0.12362
0.101457
0.169406
0.0957235
0.13162
0.108108
0.119204
0.0212227
0.0266425
0.0399362
0.0469358
0.139442
0.193376
0.174459
0.11415
0.0660611
0.00689858
0.0134212
0.0397828
0.0463068
0.431398
0.116614
0.0682034
0.13685
0.195053
0.0310036
0.14086
0.0615384
0.100618
0.14921
0.119295
0.165727
0.30158
0.257801
0.0749181
0.108922
0.0482174
0.0960059
0.0368787
0.213145
0.19794
0.043909
0.010551
0.00268068
0.0134993
0.0312896
0.00918932
0.0937184
0.381519
0.185219
0.01668
0.00569725
0.000901384
0.0382424
0.0623706
0.00457205
0.0942657
0.192683
0.203731
0.141925
0.108524
0.0452298
0.0210015
0.0436395
0.0469808
0.300419
0.466332
0.149534
0.031164
0.0126199
0.0417842
0.0218503
0.0557813
0.0806849
0.0651686
0.304675
0.294684
0.0623226
0.0282759
0.00345388
0.0146786
0.034904
0.0049513
0.049435
0.125194
0.254062
0.0922628
0.174019
0.123464
0.052375
0.0640346
0.0209815
0.124226
0.350692
0.202243
0.0399983
0.0169167
0.0673415
0.0169239
0.0586059
0.0553302
0.0634821
0.161224
0.278826
0.172599
0.123953
0.157039
0.0400378
0.0561823
0.0407117
0.0518318
0.0324226
0.026395
0.0247148
0.2222
0.155007
0.0674468
0.0945774
0.0312531
0.0930843
0.0314483
0.0447946
0.0753146
0.354988
0.0936527
0.0498757
0.126512
0.140233
0.0950209
0.0526401
0.105442
0.0921351
0.176903
0.176123
0.0920016
0.0859973
0.0899114
0.201952
0.0994112
0.133572
0.107118
0.425752
0.0866638
0.110507
0.147832
0.114867
0.0418809
0.00855973
0.0368298
0.0525539
0.255799
0.0341431
0.0766884
0.170745
0.201452
0.0216565
0.0156251
0.0387738
0.0112268
0.192259
0.104866
0.315798
0.2653
0.155295
0.136908
0.116094
0.107596
0.078117
0.338513
0.0179791
0.0645906
0.0895239
0.057684
0.0904281
0.0988992
0.0626642
0.0490568
0.213259
0.0679646
0.105527
0.196792
0.111668
0.0210065
0.010004
0.0167076
0.0004962
0.0166165
0.0216919
0.14956
0.267553
0.07214
0.0484188
0.0156556
0.00772932
0
0
0.000296027
0.121759
0.618392
0.167315
0.0883534
0.0451853
0.0236506
0.0034734
0.0147686
0.0354244
0.0593356
0.128421
0.0972893
0.189371
0.0704711
0.0241421
0
0
0.0195985
0.070541
0.383509
0.247141
0.173001
0.0584133
0.0325007
0.00387793
0.0211048
0.0673053
0.105402
0.123393
0.0877789
0.226543
0.0729514
0.0427243
0.0269377
0.0202157
0.0347148
0.0317845
0.18063
0.114183
0.313886
0.12631
0.140461
0.0256856
0.0849525
0.094635
0.130284
0.0833443
0.172521
0.315997
0.147896
0.115758
0.159941
0.168129
0.0405082
0.1693
0.181984
0.324412
0.114434
0.0220663
0.137526
0.0849539
0.0523444
0.0457166
0.0345425
0.0703841
0.0446972
0.0504923
0.0124334
0.129821
0.0691371
0.255988
0.40014
0.123754
0.0503175
0.0228943
0.135141
0.0497875
0.115496
0.195329
0.107153
0.0194237
0.195929
0.106692
0.0939618
0.0961546
0.0513946
0.0899958
0.162277
0.121391
0.238555
0.367476
0.0788074
0.0821879
0.00996515
0.017192
0.018032
0.00325436
0.0801558
0.163635
0.0947036
0.0576399
0.0249879
0.186848
0.0457195
0.0141777
0.0125137
0.0716618
0.055311
0.0854614
0.0812411
0.117733
0.023274
0.0968909
0.14372
0.0835089
0.0252918
0.0971645
0.186535
0.0425926
0.0696712
0.549758
0.393521
0.34244
0.152833
0.0204242
0.0280373
0.070263
0.0471399
0.144989
0.135994
0.0395462
0.0116244
0.0396451
0.0463721
0.00645912
0.0251288
0.0160985
0.0421708
0.110897
0.0632741
0.0329742
0.0682651
0.0885369
0.0316117
0.0196452
0.0175197
0.0748094
0.547216
0.171409
0.0722178
0.0433902
0.0186876
0.00276391
0.00275684
0.0060861
0.0581145
0.628771
0.195158
0.0992387
0.0282768
0.0303609
0.0160444
0.00290463
0.00801273
0.232678
0.136179
0.025816
0.0242723
0.0290529
0.0409102
0.0295343
0.0100178
0.0369661
0.107951
0.208842
0.0286358
0.012423
0.00815728
0.00487284
0.0165644
0.0114708
0.109958
0.187339
0.374851
0.141594
0.0649595
0.0075214
0.0114234
0.0166077
0.00523451
0.0266024
0.34294
0.446038
0.0761604
0.0347059
0.00193676
0.00114803
0.00417399
0.0354632
0.177791
0.499312
0.0636256
0.0222124
0.0128859
0.00221835
0.000899335
0.0155838
0.00530512
0.103901
0.123861
0.0877606
0.0433307
0.0400482
0.0145758
0.00418471
0.00913459
0.00343583
0.050119
0.17648
0.223723
0.0101858
0.00433773
5.71799e-005
0.000121949
0.00222625
0.0369544
0.19567
0.385899
0.218685
0.0223835
0.00697521
0.000400259
7.31694e-005
0.00146678
0.0304617
0.250386
0.696433
0.132874
0.0437825
0.0784222
0.0156848
0.00994476
0.0083365
0.01135
0.0417246
0.149029
0.113128
0.0579493
0.162817
0.0278222
0.0369574
0.0355921
0.0174956
0.0465472
0.0675064
0.220012
0.0402645
0.0563336
0.00175942
0.00719663
0.00274223
0.0405735
0.392315
0.566173
0.129363
0.0531015
0.159656
0.0107088
0.0840466
0.0659633
0.0626089
0.367167
0.216724
0.192057
0.121114
0.140378
0.0353179
0.0660374
0.10674
0.0331742
0.0337862
0.0749174
0.136932
0.129926
0.0792541
0.0229291
0.0271754
0.0587301
0.0674893
0.139118
0.108458
0.180619
0.106377
0.129456
0.0111346
0.136666
0.204168
0.109577
0.354643
0.203001
0.281338
0.224384
0.168485
0.0225946
0.0362311
0.112326
0.16084
0.142864
0.16799
0.0785571
0.0591983
0.04497
0.00484761
0.00720403
0.0681336
0.126359
0.105139
0.0671283
0.388242
0.142938
0.0325823
0.000236684
0.00343928
0.0591297
0.0939515
0.105386
0.134987
0.115459
0.0857399
0.098407
0.0180564
0.0640797
0.0887494
0.150761
0.0859488
0.0814116
0.537381
0.21779
0.034023
0.00838612
0.0599704
0.0543636
0.0776551
0.172574
0.226185
0.0740491
0.0345822
0.0844989
0.0276808
0.13959
0.0959354
0.0642773
0.126432
0.137977
0.0671527
0.0353258
0.0734535
0.219786
0.328503
0.0528184
0.0881122
0.0980963
0.204494
0.244313
0.130869
0.0703575
0.0251786
0.0889768
0.051902
0.150942
0.253462
0.20566
0.0962697
0.117282
0.156574
0.215248
0.326521
0.0733225
0.121156
0.190903
0.206049
0.030423
0.0370189
0.120883
0.204913
0.207305
0.0109508
0.0715175
0.0334465
0.0446817
0.0617277
0.0954312
0.139585
0.165848
0.10764
0.0496212
0.106252
0.0341116
0.0587345
0.0370012
0.124812
0.153493
0.156982
0.311959
0.057265
0.0538738
0.0569731
0.053189
0.0919482
0.167033
0.20644
0.22677
0.533941
0.129753
0.0596664
0.0445502
0.0449833
0.0225614
0.128286
0.129909
0.13968
0.0439967
0.0179308
0.0411164
0.0191675
0.0390964
0.180549
0.244223
0.322717
0.289663
0.0734373
0.00382912
0.0113326
0.0115911
0.0271541
0.0773433
0.210961
0.114072
0.168026
0.243394
0.05142
0.00561131
0.0121062
0.0301387
0.206142
0.2779
0.287844
0.35036
0.236777
0.0187517
0.000246715
0.00617573
0.045056
0.216662
0.133051
0.0950161
0.0674025
0.0253818
0.00282152
0
0.000322702
0.0123288
0.294653
0.217467
0.152529
0.0170238
0.0038541
0.00169291
0
0
0.0694337
0.101506
0.242223
0.177199
0.115746
0.0900424
0.0197507
0
0.00203835
0.0100436
0.259427
0.592472
0.367594
0.0573037
0.0201226
0.0118504
0
0.0142684
0.060073
0.20725
0.122913
0.0681614
0.00543134
0
0
0
0.000841554
0.0720429
0.286411
0.0555193
0.0228111
0.00132947
0
0
0.0149235
0.0393545
0.233996
0.415256
0.245654
0.114118
0.0141323
0
0
0.00286074
0.0203012
0.0809645
0.512033
0.055672
0.0127828
0.00145295
0
0.00240785
0.0250619
0.0760028
0.450644
0.116833
0.00325289
0.00216859
0
0
0.000716072
0.0399986
0.115013
0.236255
0.0544774
0.00104647
0
0
0
0.0166506
0.0763046
0.241812
0.240388
0.11155
0.0101626
0.00686955
0.00189977
0
0.00376159
0.059826
0.269836
0.452579
0.0161795
0.0339099
0.00485364
0.00113986
0
0.0268864
0.183551
0.560126
0.286636
0.0457272
0.00859307
0.00347612
0.00296834
0.0255255
0.0485692
0.108089
0.355531
0.228749
0.02783
0.00869489
0.0161437
0.00757165
0.0670503
0.0519593
0.143467
0.36764
0.133022
0.0542145
0.0600014
0.00294571
0.0218787
0.0526888
0.135483
0.213909
0.466898
0.273214
0.0770594
0.101289
0.0612998
0.0694109
0.117204
0.168098
0.165552
0.190137
0.138252
0.061904
0.0158814
0.0179939
0.0063931
0.0559983
0.0835996
0.150512
0.357754
0.157254
0.139029
0.0398436
0.0291957
0.00469084
0.0288396
0.116898
0.215804
0.179707
0.122381
0.0727574
0.114004
0.125685
0.0837132
0.157589
0.177267
0.218952
0.196892
0.115367
0.0484774
0.0894907
0.0744979
0.140179
0.179631
0.297719
0.31639
0.194586
0.0766353
0.0590498
0.025246
0.049181
0.0233558
0.0654573
0.15183
0.201968
0.0481689
0.0332615
0.151997
0.0792723
0.0446822
0.0329288
0.0736659
0.109427
0.0920241
0.171289
0.139974
0.051011
0.0766683
0.0686464
0.101638
0.113986
0.342241
0.368166
0.0506757
0.0117311
0.0727154
0.0451688
0.0533989
0.0563701
0.0662747
0.315528
0.414524
0.180725
0.0450636
0.265897
0.241685
0.115823
0.065582
0.0013843
0.00600289
0.0595736
0.0936374
0.0793541
0.148163
0.13812
0.105935
0.0428318
0.0405287
0.075735
0.134174
0.166571
0.0817389
0.23455
0.237572
0.184356
0.17204
0.00320041
0.0222061
0.0625836
0.157246
0.212347
0.270395
0.285088
0.21211
0.0810303
0.0166839
0.055531
0.199319
0.258775
0.108068
0.0212491
0.0365873
0.0346507
0.0302579
0.086253
0.0769953
0.0744408
0.0549948
0.0240596
0.0175914
0.0479359
0.0413233
0.174659
0.380221
0.100561
0.0387622
0.0342654
0.0153989
0.137266
0.0903062
0.10027
0.07507
0.107607
0.071001
0.112646
0.114242
0.0269059
0.063808
0.067568
0.172251
0.463351
0.559602
0.0680115
0.0663908
0.0574546
0.0163992
0.0376074
0.101851
0.0423404
0.0841422
0.120325
0.0295385
0.00191484
0.0133249
0.0183984
0.125012
0.170713
0.175462
0.162727
0.0761523
0.00798777
0.00206566
0.00727888
0.0428917
0.025057
0.0996213
0.12907
0.254793
0.159929
0.0190704
0.0257351
0.0144986
0.00867468
0.0600215
0.125877
0.393879
0.683819
0.128566
0.037782
0.018097
0.00500922
0.0214518
0.0674787
0.178359
0.188151
0.11639
0.0471767
0.00998592
0.00441336
0.00424952
0.0168123
0.180033
0.299136
0.230317
0.0716068
0.0202899
0.00649669
0.00551048
0.0351651
0.163764
0.0295656
0.120865
0.270177
0.364878
0.216937
0.106039
0.0345395
0.00254971
0.0152709
0.190215
0.323245
0.190235
0.164788
0.276147
0.142889
0.0446499
0.0482466
0.234116
0.27422
0.132263
0.0867613
0.0164129
0.00231527
0.0146959
0.0511345
0.0815376
0.24455
0.20681
0.0185949
0.0205053
0.0048584
0.00251672
0.0910222
0.186294
0.142604
0.275984
0.181865
0.13878
0.16449
0.0682244
0.06147
0.123343
0.135031
0.0951662
0.318693
0.0486957
0.0111892
0.0953554
0.0815792
0.0738086
0.431691
0.313023
0.122322
0.144347
0.0405616
0.0471612
0.0790924
0.023163
0.00210868
0.061524
0.117235
0.174227
0.23114
0.0326943
0.121304
0.0776632
0.0269734
0.0302708
0.0151488
0.223252
0.415759
0.232737
0.0199172
0.0679222
0.216455
0.181823
0.0517152
0.231271
0.146443
0.0732109
0.0576913
0.0453542
0.142339
0.233126
0.313604
0.2794
0.049765
0.0945687
0.198785
0.175413
0.0188694
0.0319964
0.00831816
0.0105858
0.0304789
0.118506
0.175951
0.198618
0.0936082
0.0306575
0.0463481
0.0409011
0.0369993
0.0463967
0.239119
0.118749
0.0603536
0.0282132
0.0103512
0.0253231
0.0222496
0.0800696
0.212983
0.254041
0.191791
0.147436
0.0501939
0.00360313
0.00701023
0.019577
0.0320328
0.099337
0.665187
0.344333
0.0625085
0.00191533
0.0251423
0.0569591
0.066082
0.0591127
0.106569
0.163963
0.0602801
0.00679767
0.00854296
0.0159419
0.0634071
0.0521894
0.12202
0.201726
0.153565
0.0531161
0.0166822
0.0031752
0.00359176
0.0126929
0.0285622
0.0435274
0.174181
0.520941
0.292083
0
0
0.0271142
0.0350088
0.0231091
0.0904134
0.449896
0.37488
0.130443
0.0460068
0.0242256
0.0771236
0.0982892
0.0489109
0.100205
0.100059
0.106321
0.0604118
0.0177084
0.0161955
0.144213
0.0684697
0.0344921
0.0206024
0.0065623
0.0948975
0.104406
0.0479835
0.0760111
0.191703
0.166007
0.027713
0.0842554
0.221576
0.186247
0.0185153
0.127426
0.0845232
0.555472
0.470879
0.134351
0.0124995
0.00616921
0.05549
0.0314723
0.0740607
0.165468
0.211649
0.138701
0.106649
0.0606088
0.00111661
0.00709951
0.0195369
0.1185
0.288916
0.260915
0.255728
0.20466
0.0784392
0.0249335
0.00668998
0.0457453
0.0883676
0.174138
0.127797
0.127512
0.159151
0.218817
0.0361208
0.0182478
0.0118505
0.0769068
0.137217
0.192119
0.211422
0.215981
0.379589
0.0595389
0.0313392
0.0349567
0.0504669
0.223892
0.0748262
0.0648262
0.187384
0.102377
0.0627082
0.0107464
0.0168523
0.0224676
0.0347463
0.0263424
0.036504
0.318933
0.268412
0.275719
0.0399661
0.0314552
0.0149638
0.00657261
0.0512442
0.0457774
0.197987
0.218997
0.129868
0.0253763
0.0365461
0.0609562
0.0882853
0.0070698
0.0296483
0.322974
0.261303
0.530991
0.0536787
0.065988
0.104722
0.0755043
0.00465962
0.0155543
0.0694548
0.141886
0.175197
0.0339298
0.0174229
0.00373148
0.000361158
0.00776603
0.00986481
0.0911726
0.417737
0.288835
0.0456634
0.00763552
0.000439233
0.00040874
0
0.00573599
0.0405231
0.0987262
0.405289
0.0767907
0.0092592
0.0116048
0.0140075
0
0.00113996
0.00478631
0.186647
0.59089
0.223088
0.0089708
0.00129893
0.000824122
0.0166559
0.0182424
0.0819979
0.289329
0.323894
0.179018
0.0671179
0.00278278
0.0224209
0.181943
0.185266
0.119334
0.0702817
0.276411
0.234292
0.100967
0.0277262
0.211669
0.0146389
0.00396992
0.0164657
0.154072
0.393626
0.227106
0.12434
0.0237845
0.0230825
0.21145
0.102706
0.10837
0.131237
0.0750524
0.121209
0.175231
0.0900027
0.188498
0.22174
0.201184
0.221663
0.0744343
0.0777624
0.110952
0.0926238
0.0705672
0.27573
0.0722066
0.0487322
0.114479
0.122751
0.105865
0.25861
0.171189
0.163429
0.187251
0.36472
0.215432
0.136811
0.0619101
0.0179505
0.0206565
0.0753063
0.105445
0.235485
0.208662
0.118964
0.0998451
0.134497
0.0397792
0.0191149
0.0970203
0.20149
0.194057
0.0437668
0.0695631
0.133093
0.165306
0.0948309
0.105394
0.0801396
0.0981681
0.0720447
0.0307256
0.155317
0.233366
0.37885
0.323473
0.0545004
0.0130289
0.0818921
0.0563826
0.0444307
0.0432081
0.0975163
0.195637
0.160095
0.036481
0.0568863
0.125962
0.0834167
0.0154781
0.0868387
0.192223
0.24731
0.353163
0.313548
0.152799
0.136022
0.0132384
0.00108487
0.0271866
0.0349963
0.114107
0.215251
0.145557
0.0374981
0.0332992
0.00987899
0
0
0
0.0364189
0.251105
0.479138
0.129784
0.0135718
0
0
0.0160836
0.0387044
0.154377
0.185202
0.187044
0.0406156
0.0233959
0.000297169
0
0
0.00454932
0.363326
0.511716
0.224581
0.0103844
0
0
0
0
0.00565981
0.0274273
0.193981
0.392296
0.184281
0.00981383
0
0.0258016
0.024273
0.0587621
0.030039
0.171592
0.220028
0.143305
0.0547536
0.0261234
0
0
0.0103633
0.257786
0.499141
0.224377
0.0955304
0.0201994
0
0.0340411
0.0518298
0.140635
0.156772
0.329034
0.161447
0.147051
0.0469902
0.0123343
0.120861
0.115163
0.053298
0.0178325
0.0752347
0.10106
0.035715
0.113721
0.101876
0.196023
0.304473
0.100483
0.00174008
0.00713613
0.0763378
0.0582251
0.139029
0.272809
0.127933
0.137729
0.137682
0.124485
0.170046
0.0735096
0.0446321
0.124081
0.133021
0.0783325
0.0971933
0.0319322
0.0211248
0.0547755
0.163879
0.0413493
0.358768
0.509818
0.00931866
0.0235988
0.0675209
0.185509
0.0885165
0.0709942
0.0815607
0.0807508
0.0765585
0.0465742
0.063644
0.0817913
0.256512
0.0661539
0.0701386
0.112932
0.191491
0.243107
0.00203311
0.00495248
0.0324329
0.0580395
0.0855168
0.0734698
0.110292
0.204645
0.221336
0.0274525
0.0077197
0.0253692
0.0695292
0.0628961
0.0947957
0.122804
0.442329
0.485684
0.02402
0.0193645
0.0348216
0.084113
0.0699584
0.0540114
0.0965511
0.155774
0.118705
0.00322801
0.00568111
0.0388838
0.0915793
0.332011
0.161118
0.168728
0.202964
0.103546
0.0156589
0.00241873
0.00463204
0.0120431
0.0309094
0.203999
0.150288
0.17094
0.148449
0.00223699
0.000206026
0.000168567
0.00745282
0.128489
0.539455
0.407546
0.150463
0.0457502
0
0.000863496
0.00420257
0.0447423
0.221667
0.15819
0.0357516
0.0246066
0.0155812
0
0.00604896
0.00465756
0.0287623
0.345859
0.475996
0.0680448
0.0084694
0.00091671
0
0
0
0.00695373
0.0660501
0.224389
0.188516
0.0751986
0.00222589
0
0.00640493
0.00618688
0.00820845
0.0664186
0.493283
0.393041
0.103224
0.000130959
0.00163607
0.0223519
0.0642059
0.107895
0.194903
0.312975
0.105503
0.0221866
0.00540944
0.0503846
0.0575986
0.253408
0.270517
0.0542298
0.0409796
0.0636441
0.043637
0.030795
0
0.0236673
0.0622909
0.10669
0.0713852
0.307925
0.480256
0.186505
0.020351
0.0187071
0.0325456
0.203541
0.291905
0.10228
0.101311
0.178487
0.17228
0.118087
0.196694
0.138467
0.171738
0.159148
0.0418956
0.0204604
0.0156819
0.0339961
0.0557183
0.305143
0.104696
0.0724306
0.0999285
0.0211228
0.0371324
0.0478231
0.0789895
0.232383
0.123909
0.0776501
0.120658
0.248498
0.0728187
0.137407
0.0223368
0.103984
0.158322
0.428342
0.0712157
0.0380014
0.0816621
0.0195486
0.104501
0.0534719
0.156687
0.456729
0.065403
0.0069864
0.0454066
0.0692943
0.0860935
0.112546
0.0648375
0.103533
0.121063
0.0212168
0.0101245
0.0333121
0.0457403
0.274013
0.35912
0.164946
0.19063
0.0145056
0.240076
0.013464
0.00800685
0.0043531
0.0887266
0.181781
0.0580054
0.101398
0.24481
0.281839
0.15436
0.0469142
0.00260663
0.406241
0.345737
0.0628038
0.124563
0.0782567
0.00390635
0.0107853
0.0552418
0.118447
0.144928
0.179707
0.0442873
0.0378903
0
0
0.0134645
0.142027
0.461876
0.196247
0.0606452
0.00208148
0
0
0.0657953
0.131699
0.26208
0.0878204
0.209799
0.124849
0.0152364
0.0208374
0.00587355
0.00993363
0.0891813
0.551267
0.335073
0.0641622
0.0423971
0.00603497
0.014153
0
0
0.00998606
0.0617863
0.273894
0.237008
0.0792288
0.0321646
0.00503405
0
0.00992623
0.0146399
0.033115
0.10766
0.424349
0.130367
0.0596252
0.0143498
0.000936301
0.00392049
0.0475865
0.319469
0.270199
0.136056
0.0449174
0.006336
0.00714388
0
0.00071186
0.0163606
0.117828
0.227945
0.542831
0.107148
0.0161288
0.00787168
0
0.0592861
0.0745248
0.0531961
0.143376
0.427545
0.103589
0.056241
0.0710183
0.0343633
0.0355716
0.0560355
0.0264371
0.0540951
0.121123
0.237777
0.0565532
0.205905
0.150609
0.0175228
0.0514069
0.0371439
0.160719
0.553557
0.127455
0.07475
0.0480841
0.00768941
0.0261545
0.0505302
0.0283213
0.0953512
0.106283
0.194254
0.13568
0.181846
0.0863706
0.0316118
0.0581885
0.0741138
0.0844664
0.0773553
0.018177
0.0262122
0.0858616
0.0867115
0.0398354
0.0916367
0.0924497
0.127285
0.0745784
0.0765266
0.0377267
0.145223
0.152575
0.277019
0.3435
0.198115
0.161224
0.0590218
0.004848
0.0112376
0.00352377
0.00887365
0.446944
0.42652
0.111172
0.115113
0.0463924
0.0392474
0.0192735
0.0604655
0.124656
0.0133738
0.0232321
0.0206552
0.0280643
0.0378917
0.17585
0.127078
0.052785
0.0385245
0.00153308
0.00126884
0.00637202
0.00421039
0.0520012
0.393227
0.58232
0.108112
0.00798644
0.0986919
0.0678426
0.0324348
0.0410807
0.0621119
0.0695114
0.0723798
0.044732
0.0804402
0.00620117
0.00211473
0.0276478
0.0495394
0.275284
0.255439
0.362862
0.056909
0.0212639
0
0
0.000229822
0.00140272
0.0202317
0.173195
0.342803
0.106814
0
0
0.000958364
0.00117133
0.00928277
0.0177532
0.194691
0.548581
0.161538
0.00183617
0
0
0.0019386
0.00656397
0.122011
0.224593
0.234409
0.102119
0.00346756
0
0
0
0.00132611
0.0220565
0.125442
0.398041
0.288281
0.015032
0
0.00200906
0.00465577
0.0193465
0.0232525
0.0588704
0.383615
0.231426
0.0258206
0.0154401
0.00120544
0.0164498
0.0541881
0.0299352
0.0309904
0.223631
0.383431
0.157805
0
0
0
0.00037623
0.0195598
0.0148443
0.312129
0.231585
0.023812
0.0155527
0.00510759
0
0.00473254
0.0342237
0.00969459
0.280168
0.482911
0.173255
0.0642908
0.00261762
0.00990321
0.0393037
0.0106294
0.0375195
0.0532426
0.202895
0.169802
0.270562
0.0363866
0.00347575
0.00986554
0.00242356
0.0221349
0.0182607
0.104781
0.25872
0.0727449
0.010415
0
0.0051281
0.0131608
0.0135931
0.091287
0.368338
0.291065
0.484121
0.0701629
0
0.000732585
0.00136052
0.00775706
0.0239783
0.150591
0.440022
0.204474
0.0996623
0.00772408
0
0.0157858
0.0260131
0.00511885
0.0340809
0.121154
0.214769
0.356505
0.0791287
0.000831133
0.0759942
0.0421613
0.0021967
0.0285541
0.057758
0.409557
0.233853
0.0199559
0.00285007
0.00348342
0
0.00102307
0.0117276
0.115349
0.237196
0.591799
0.170387
0.014894
0.00628636
0
0
0.00748794
0.022588
0.0879768
0.322339
0.297345
0.0366787
0.0776299
0.0276533
0.00200126
0.0131722
0.0173486
0.0626675
0.195163
0.432767
0.101763
0.0303083
0.0222899
0.00694661
0.030717
0.0135375
0.0604769
0.424333
0.271179
0.0474831
0.00789845
0.00632593
0.000137277
0.0134035
0.0150218
0.0826568
0.273785
0.344513
0.0890495
0.0240037
0.0105432
0.00096094
0.0204449
0.0239697
0.0330651
0.153895
0.357809
0.180547
0.0881413
0.00892052
0.00368639
0.0199983
0.0134087
0.000722552
0.0474124
0.220094
0.326671
0.38028
0.0578752
0.0351928
0.00701378
0.00598636
0.0551769
0.213794
0.260817
0.18143
0.18806
0.0164426
0.00250914
0.0164784
0.0244441
0.0107878
0.0584887
0.116997
0.24455
0.332475
0.118043
0.0502917
0.0388624
0.0198247
0.0663233
0.0394765
0.0665113
0.195765
0.321324
0.12997
0.101746
0.0271628
0.0405151
0.129508
0.113431
0.106403
0.110496
0.0882704
0.140822
0.0893804
0.0965338
0.175478
0.165979
0.0839668
0.0493472
0.104089
0.157788
0.139125
0.0941854
0.0876677
0.0930793
0.261708
0.22867
0.169948
0.276153
0.296943
0.186394
0.0716413
0.068781
0.149157
0.130897
0.180726
0.126068
0.095817
0.0886693
0.057888
0.0538819
0.030697
0.0128537
0.262183
0.229579
0.0532173
0.0239977
0.161659
0.0721059
0.0583989
0.104338
0.128944
0.0417986
0.0562506
0.064655
0.0671516
0.114737
0.101441
0.134606
0.321116
0.0780226
0.108542
0.156178
0.0274461
0.0217237
0.238867
0.11631
0.125872
0.422377
0.349242
0.0989461
0.0603282
0.0132647
0.040262
0.230353
0.15878
0.0794769
0.0949031
0.103937
0.00334909
0.0025805
0.0183632
0.0968684
0.355159
0.249235
0.1841
0.021332
0.0276205
0.0915024
0.139915
0.00253631
0.021941
0.26226
0.248181
0.165633
0.16286
0.208116
0.0385736
0.105469
0.0371242
0.140928
0.227447
0.207182
0.264621
0.0772542
0.18299
0.0252852
0.00285736
0.0119073
0.0615721
0.190592
0.179719
0.151103
0.121453
0.0323223
0.0548956
0.00476227
0.0113363
0.024649
0.0343946
0.0755574
0.327626
0.524153
0.13427
0.0662813
0.0649891
0.0795349
0.178953
0.114941
0.0570713
0.08398
0.0546713
0.105532
0.14966
0.0304983
0.0788332
0.0738418
0.0343994
0.0848881
0.190873
0.29767
0.282908
0.00830823
0.000405407
0.000845388
0
0.00845602
0.0178854
0.282162
0.272793
0.0610055
0.0677751
0.0214452
0
0.00730995
0.027669
0.0265515
0.22589
0.297627
0.223795
0.0638102
0.00754184
0.0106506
0
0.0106231
0.0468964
0.169445
0.266771
0.175511
0.199467
0.0273448
0.00788816
0.00104428
0.00817062
0.0179831
0.0932356
0.221413
0.557219
0.0934753
0.0222754
0
0.00536372
0.0113607
0.0154122
0.0301411
0.131313
0.211204
0.322874
0.027487
0
0.000766245
0.00142303
0.00811348
0.00514807
0.0688101
0.305217
0.127086
0.0152901
0.000783318
0.000766245
0.00142303
0.0030656
0.00455257
0.0474702
0.468185
0.366274
0.0110284
0
0.000109464
0.00020329
0.00115907
0.000289767
0.0339488
0.522538
0.333021
0.109859
0.0169686
0.00344158
0.00420638
0
0.000167193
0.00672711
0.108939
0.236072
0.349479
0.14233
0.02252
0.00858835
0
0
0.000610124
0.0173679
0.45341
0.0520371
0.00972851
0.00172288
0.000600911
0
0
0.00447115
0.213594
0.502375
0.267274
0.0536478
0.0113912
0.0169317
0.000279053
0.00530198
0
0.0851968
0.116411
0.417437
0.200265
0.0448432
0.00346121
0
0.000227398
0.00318165
0.00606655
0.129936
0.324538
0.326227
0.059658
0.0068639
0
0.00245784
0.0242772
0.0226234
0.314626
0.422135
0.0554973
0.0133849
0.0369422
0.00332843
0.0316772
0.00668766
0.0507911
0.204776
0.278038
0.0917603
0.00520089
0.0238565
0.00537493
0.0965553
0.0963627
0.0779498
0.166756
0.252735
0.348157
0.191756
0.216814
0.0176762
0.00769174
0.0450576
0.0511842
0.0487479
0.0702398
0.0778789
0.225976
0.370478
0.155743
0.0715343
0.074949
0.0354904
0.187945
0.109324
0.0906235
0.0607082
0.0838161
0.0149206
0.106974
0.184613
0.133371
0.0948731
0.0554002
0.0199297
0.14564
0.244558
0.10221
0.0700629
0.0829332
0.115108
0.172362
0.0622601
0.0315331
0.0598836
0.0807847
0.0987928
0.0805587
0.0964218
0.0944828
0.227416
0.0925373
0.0961489
0.28902
0.190979
0.184822
0.0829639
0.161318
0.140043
0.149388
0.0521585
0.0178396
0.0689853
0.105062
0.0628842
0.0962722
0.0950489
0.220502
0.316682
0.108601
0.112169
0.257505
0.0660932
0.0331628
0.0522009
0.140959
0.308258
0.0404755
0.0595529
0.109475
0.0596564
0.0365059
0.0261167
0.054397
0.302029
0.104702
0.0850073
0.0693892
0.0278063
0.00864208
0.0661556
0.0405452
0.112938
0.490018
0.420944
0.0812987
0.0751238
0.225867
0.0626317
0.0204898
0.0374984
0.0562373
0.0632045
0.0575773
0.160305
0.0827908
0.177454
0.0171731
0.053967
0.0995751
0.0703393
0.15352
0.217188
0.0703463
0.0746222
0.00203916
0.0162968
0.0879122
0.0980141
0.124159
0.168034
0.190344
0.0877009
0.167993
0.0307776
0.089825
0.137423
0.10374
0.117681
0.0766624
0.151208
0.0504854
0.0280197
0.0185773
0.0142727
0.126581
0.3388
0.0709095
0.0983834
0.127644
0.0670945
0.0773333
0.00739745
0.0589229
0.201295
0.611829
0.1008
0.045083
0.086379
0.137863
0.172194
0.0762656
0.131494
0.0659822
0.0453755
0.0942889
0.082288
0.146605
0.164464
0.104263
0.112845
0.0517779
0.0587778
0.12949
0.142949
0.155762
0.242781
0.121212
0.0788538
0.00752254
0.034069
0.115115
0.328774
0.175813
0.0820784
0.135657
0.0641545
0.0768769
0.102395
0.0599735
0.345929
0.307299
0.117946
0.0957281
0.0685769
0.126432
0.0797253
0.120974
0.0106989
0.0815311
0.0682212
0.0657281
0.145783
0.182833
0.311313
0.149762
0.128177
0.00900964
0.0458996
0.0175322
0.0248883
0.106252
0.547232
0.0235977
0.0846228
0.182574
0.103538
0.24812
0.0934468
0.016365
0.014071
0.0155506
0.0605887
0.145979
0.18995
0.0915846
0.171959
0.0847495
0.0446147
0.00678134
0.048736
0.147923
0.0458965
0.0176382
0.00538114
0.00061016
0.00363749
0.00108832
0.00987725
0.41089
0.460736
0.0683902
0.0139253
0.00620281
0
0.000362774
0.000155475
0.00481248
0.474412
0.0610741
0.0677106
0.0857007
0.104658
0.0659607
0.0279276
0.013773
0.00092851
0.051279
0.254696
0.24557
0.229805
0.137141
0.0336869
0.00821275
0.00284426
0.0111574
0.0768255
0.489323
0.109706
0.0460128
0.0135856
0
0
0
0.000534255
0.229839
0.409384
0.214288
0.131235
0.0796132
0.0376957
0.0119565
0.02959
0
0.123039
0.258072
0.236091
0.15099
0.039801
0.00790925
0.0169728
0.0099348
0.0137767
0.080982
0.16797
0.164962
0.242478
0.158394
0.018836
0.0295832
0.0332417
0.00434605
0.0834464
0.240971
0.224647
0.068417
0.0674835
0.109004
0.0727406
0.189372
0.00742211
0.0786822
0.171228
0.10259
0.0186548
0.00960504
0.100977
0.0765483
0.331871
0.0976652
0.123152
0.177047
0.151205
0.179138
0.162219
0.0605935
0.104749
0.188002
0.0159057
0.0416064
0.261527
0.28071
0.177172
0.0676038
0.0634059
0.125061
0.258955
0.0565351
0.089904
0.177399
0.0294986
0.00575449
0.0136136
0.0366427
0.018605
0.143225
0.133961
0.169136
0.150523
0.0184115
0.00395068
0.0812833
0.106146
0.0472471
0.0235485
0.0956705
0.214902
0.333136
0.201581
0.0805353
0.0350346
0.0150232
0.0494517
0.14089
0.115342
0.18857
0.202024
0.0222973
0.00564827
0.0305701
0.0298976
0.0503148
0.194161
0.430022
0.271995
0.0783559
0.0313978
0.0136456
0.0914299
0.134725
0.0698415
0.0225527
0.0495301
0.149908
0.226464
0.17183
0.116215
0.167792
0.0990269
0.0377152
0.0126296
0.0227074
0.161253
0.0221416
0.00500534
0.0104477
0.0665158
0.125306
0.226652
0.187366
0.287463
0.0787183
0.0364032
0.0845774
0.136239
0.255678
0.280153
0.340204
0.147943
0.0367956
0.0151365