0.0729425
0.148063
0.0628625
0.0860086
0.153618
0.03489
0.0528023
0.0766153
0.0588186
0.0969945
0.12296
0.0567857
0.45877
0.237947
0.115181
0.0978868
0.0505135
0.0160239
0.0621059
0.183929
0.155748
0.287106
0.141556
0.0599273
0.0519876
0.0338043
0.0521697
0.160817
0.10028
0.091023
0.393397
0.227047
0.137466
0.114158
0.171743
0.138357
0.132434
0.157601
0.0478183
0.287408
0.183723
0.0482436
0.0478263
0.03099
0.0169686
0.177948
0.165352
0.144654
0.238827
0.201371
0.0249322
0.0198066
0.0351069
0.0831002
0.21904
0.207787
0.122224
0.150986
0.132838
0.0643456
0.0714293
0.123158
0.0642931
0.285125
0.399244
0.262318
0.182974
0.108026
0.0205605
0.0314807
0.112387
0.164622
0.124201
0.0594592
0.1045
0.0794034
0.0348501
0.0141485
0.00924345
0.0287741
0.049746
0.242538
0.117068
0.0558196
0.0512975
0.0541118
0.0400718
0.0155295
0.0766952
0.080344
0.19272
0.316413
0.142087
0.053661
0.0289569
0.0194102
0.0147631
0.0625475
0.0542563
0.403456
0.591953
0.339014
0.0153238
0.0197819
0.0323504
0.0129656
0.0620805
0.0536346
0.161666
0.0889063
0.012827
0.0282011
0.0269622
0.0198459
0.0213356
0.0272073
0.022938
0.257708
0.138121
0.0116697
0.0234096
0.0104569
0.0133444
0.0214455
0.0157085
0.0991151
0.310273
0.476235
0.160889
0.00326851
0.0024218
0.00361672
0.00400514
0.0136879
0.0348005
0.476235
0.476235
0.0565647
0.00272033
0.00101378
0.0011468
0.00212976
0.00469431
0.104281
0.179735
0.0631077
0.0103536
0.0128321
0.00265895
0.00310885
0.00363983
0.0086645
0.199738
0.156364
0.0112783
0.00950684
0.0196863
0.0505304
0.0263495
0.00689769
0.0190743
0.375169
0.476575
0.185054
0.00147909
0.00124031
5.40943e-005
0.000152826
0.00028382
0.00404039
0.293294
0.350324
0.0339795
0.000676246
0.00128998
0.00536114
0.00927678
0.000176144
0.0913887
0.476575
0.0793963
0.0023354
0.0159972
0.0212306
0.0536167
0.0816806
0.0113049
0.0612085
0.227096
0.0736089
0.0232333
0.0526855
0.0152737
0.0117384
0.101967
0.0367143
0.102149
0.191893
0.111094
0.00262035
0
0.000458682
0.00731127
0.0279414
0.00322296
0.262777
0.487107
0.0875181
0.00517255
0.0235768
0
0.00224461
0.0209417
0.0949529
0.487107
0.487107
0.081399
0.089066
0.0583855
0.0107341
0.0215106
0.0469337
0.0509159
0.0998192
0.10997
0.0534512
0.076907
0.0319839
0.0398697
0.143532
0.10075
0.0781444
0.0935763
0.0238269
0.0670165
0.0160677
0.034778
0.00704541
0.00890126
0.011358
0.235912
0.560854
0.217611
0.077416
0.0196078
0.0419904
0.0649002
0.088139
0.0449449
0.26618
0.560854
0.101993
0.0289936
0.052816
0.0392391
0.0559667
0.265635
0.149217
0.0905367
0.113534
0.0303832
0.0458349
0.0445003
0.0126453
0.0161953
0.0790409
0.11467
0.13226
0.245689
0.108772
0.171628
0.0453975
0.0673382
0.10275
0.203896
0.0704423
0.161804
0.486553
0.226524
0.318447
0.0412697
0.0213287
0.0989316
0.146216
0.126822
0.0942009
0.22717
0.220962
0.0716726
0.0273824
0.0324808
0.0081999
0.0402157
0.0784986
0.0807937
0.232414
0.173124
0.0486198
0.0775545
0.150912
0.0646006
0.0620931
0.152327
0.222883
0.12348
0.149749
0.289156
0.0304546
0.0115965
0.0604576
0.0586815
0.118837
0.0969878
0.215982
0.205205
0.372235
0.171883
0.0532017
0.0125731
0.0130764
0.209719
0.288613
0.126304
0.313856
0.049187
0.0478919
0.0764973
0.0818872
0.0191011
0.0380542
0.0558105
0.0440796
0.0794061
0.109538
0.0642336
0.0584741
0.0735878
0.0550768
0.066476
0.0661421
0.0421074
0.192631
0.271021
0.0763269
0.228358
0.0735868
0.00293212
0.0266899
0.171999
0.188448
0.227733
0.395202
0.374613
0.189108
0.0839911
0.0162901
0.0485231
0.161629
0.120191
0.439162
0.0703695
0.0575928
0.0556211
0.0165064
0.0514602
0.0286199
0.0242778
0.0285753
0.0488021
0.0651677
0.303034
0.320769
0.0738267
0.0336714
0.00972473
0.00461311
0.0257913
0.0427319
0.211512
0.318846
0.169475
0.0308772
0.0206151
0.0173532
0.0372403
0.0736965
0.0968643
0.0819499
0.508364
0.508364
0.0486034
0.0124917
0.00431605
0.00610784
0.0457856
0.0387644
0.0515254
0.268237
0.28375
0.0475899
0.00272263
0.00127501
0.000969751
0.00853138
0.00918056
0.120129
0.392273
0.335697
0.0151099
0.00123838
0.00212501
0.000851678
0.00290822
0.0206809
0.0303269
0.338419
0.392273
0.037395
0.000175047
0.00207783
0.00296035
0.00306839
0.00310883
0.131538
0.320305
0.361077
0.0110281
0
0.0012467
0.00222504
0.00400161
0.0275269
0.142942
0.362946
0.142459
0
8.44456e-005
0.000337783
0.000559356
0.00195387
0.0630095
0.376538
0.298531
0.0272447
0
0
0
0.000407995
0.00167196
0.111422
0.211308
0.330038
0.154877
0
0
0
0.000519471
0.00440263
0.0652762
0.411451
0.404878
0.0588785
0
0
0
0.000679992
0.0029998
0.142293
0.33107
0.0861791
0
0
0
0
5.38972e-005
0.000878669
0.162857
0.22592
0.0268853
0
0
0
0
0
0.0559192
0.435161
0.435161
0.133627
0.0029915
0
0
0
8.98287e-005
0.000885217
0.258258
0.313531
0.0194241
0
0
0
0
0.00049172
0.084692
0.435161
0.0646399
0.0051037
0
0
0
0
0.0027706
0.155879
0.367347
0.026098
0
0
0
0
0
0.0734051
0.415025
0.290975
0.0625527
0.00306222
0
0
0
0.00173938
0.00811476
0.28828
0.415025
0.0220277
0
0
0
0
0.00289896
0.105987
0.415025
0.298627
0.00690997
0
0.000219699
0.000512631
0
0
0.125285
0.412331
0.0748876
0.0129283
0.00212249
0.00436497
0.00472221
0.00339643
0.00497268
0.176912
0.412331
0.0607799
0.00746855
0
0
0
0
0.00370813
0.202514
0.412331
0.0926372
0.00108554
0
0
0
0
0.0257786
0.412331
0.412331
0.0467503
0.047125
0.00619109
0.00595113
0.0108749
0.0559642
0.0258336
0.157509
0.290099
0.124132
0.113955
0.015432
0.00383835
0.0371864
0.145741
0.0632136
0.0863486
0.0634192
0.100137
0.00536045
0
0
0.00332838
0.0624129
0.113675
0.523886
0.309286
0.0694195
0.0423543
0.0531519
0.00544612
0.0184584
0.15752
0.209058
0.523886
0.107847
0.0704327
0.193648
0.0655114
0.00918054
0.0376768
0.0924162
0.0865527
0.0415054
0.0348153
0.0654041
0.278871
0.135457
0.028244
0.0367177
0.0204569
0.0645401
0.0241271
0.0268837
0.0954639
0.251116
0.171533
0.0172974
0.0348366
0.122327
0.178591
0.324185
0.067022
0.189102
0.527059
0.16811
0.074459
0.105811
0.0469086
0.0426834
0.00872373
0.0265215
0.361552
0.105485
0.0626146
0.229326
0.123967
0.0288846
0.0170886
0.125921
0.0982178
0.0621291
0.18916
0.198825
0.248279
0.146129
0.0136279
0.0168665
0.116063
0.0597961
0.149975
0.0512957
0.0861716
0.198301
0.206512
0.184913
0.0928298
0.0564367
0.0529288
0.168704
0.0476087
0.280981
0.522864
0.297568
0.104276
0.0720154
0.0642156
0.023988
0.0582306
0.136724
0.209346
0.274506
0.0846563
0.00478397
0.00203488
0.011719
0.0272986
0.0489099
0.0491365
0.334381
0.446944
0.0316307
0.0144852
0.0016336
0.00268726
0.0192145
0.0150057
0.0330919
0.117375
0.446944
0.192747
0.0450739
0.00649441
0.00684286
0.000958249
0.0109464
0.0165377
0.0968361
0.446944
0.14804
0.0787646
0.00694416
0.00427577
0.004116
0.00534687
0.015119
0.171916
0.358351
0.0183583
0.00425071
0.0026177
0.00388417
0.00661437
0.00191218
0.101433
0.328444
0.34097
0.0166016
6.54129e-005
0.00139512
0.00249277
0.00254748
0.0161036
0.00509397
0.148593
0.40729
0.0948488
0.0451961
0.00250144
0.00239994
0.00383738
0.000596404
0.0942547
0.368651
0.40729
0.211937
0.106592
0.000258847
0.000466691
0.000581409
0.00877004
0.220561
0.317009
0.196315
0.00363597
0
0
0.000164892
0.00124998
0.0350151
0.42076
0.261461
0.0625402
0
0
0
9.10334e-005
0.000465967
0.114696
0.328114
0.278014
0.221565
0.123606
0.0532199
0
0.00360869
0.0006393
0.0405805
0.42076
0.204863
0.0851907
0.0246093
0.0349849
0.0294649
0.0492582
0.00443834
0.147498
0.385687
0.0724154
0.00349599
0.0012052
0.00182682
0.0114527
0.00446647
0.000560719
0.24144
0.201709
0.0157958
0.00116118
0.0259695
0.0134661
0.0360704
0.00898249
0.0661627
0.430487
0.342095
0.05423
0.0152792
0.130958
0.0646149
0.0981544
0.0696358
0.00195486
0.267049
0.12237
0.021649
0.0166689
0.380679
0.19442
0.163833
0.0958357
0.0206648
0.2233
0.0724858
0.0227681
0.00306763
0.0278127
0.0052313
0.0155504
0.0239709
0.221102
0.270488
0.0490417
0.011218
0.00184058
0.00915173
9.41799e-005
0.0127751
0.192754
0.444766
0.174001
0.0914254
0.0379469
0.022529
0.228717
0.116555
0.0498262
0.163238
0.146896
0.0843348
0.0734835
0.0186966
0.012884
0.0704799
0.081694
0.129244
0.425487
0.444766
0.106773
0.00517874
0
0
0
0
0.00752963
0.279018
0.347485
0.0338804
0.000343997
0
0
0
0
0.0287448
0.435188
0.217077
0.00668408
0.0044203
0
0
0.00544819
0.0577184
0.116303
0.435188
0.265072
0.0145592
0
0
0
0.00412705
0.0323147
0.197703
0.435188
0.11592
0
0
0
0
0
0.00445161
0.0750919
0.423135
0.0664252
0.00200866
0.00741716
0.0120092
0.00120714
0.00551073
0.0181635
0.168872
0.423135
0.0569112
0.00611719
0
0
0
0.00309986
0.0277443
0.232214
0.423135
0.0186537
0
0.00058563
0
0
0.00516636
0.0412652
0.370965
0.423135
0.0716403
0.0016444
0.0886385
0.029882
0.00901167
0.029853
0.0523571
0.121422
0.357464
0.095699
0.0860328
0.216837
0.0924674
0.0971997
0.0453972
0.0362802
0.028134
0.0808188
0.075742
0.206473
0.0542427
0.00218914
0.0103349
0.0395491
0.0868168
0.316303
0.543343
0.219232
0.0323643
0.122715
0.0975066
0.134841
0.130153
0.121194
0.146891
0.249531
0.174571
0.073099
0.0804806
0.0802943
0.118268
0.101898
0.0763493
0.0661427
0.0255499
0.0343372
0.165308
0.0343726
0.194448
0.359377
0.378014
0.077548
0.0539091
0.0221629
0.0114879
0.0456472
0.178137
0.0888382
0.0958626
0.144863
0.0591475
0.0535126
0.151616
0.150667
0.218149
0.0814306
0.0643349
0.168134
0.508274
0.261362
0.0586768
0.0585588
0.0498669
0.0775026
0.0012086
0.0534174
0.250864
0.249824
0.086419
0.0144042
0.00541151
0
0.000245207
0.000408678
0.0501399
0.378597
0.250395
0.11115
0.00802497
0.00135659
0
0.000408678
0.00689085
0.00678574
0.101951
0.420394
0.20922
0.017348
0.00314166
0
0.000147124
0.000245207
0.0189516
0.379297
0.420394
0.221884
0.0061573
0
0
0.000245207
6.11637e-005
0.092417
0.410851
0.174193
0.121972
0.00175404
0.00064185
0
6.11637e-005
0.0222104
0.110173
0.239817
0.305908
0.374046
0.0108752
0.000592133
0
0.00128237
3.66982e-005
0.0233464
0.229274
0.243484
0.226732
0.00707813
0
0.00206239
0.000145246
0.0202719
0.0135994
0.0588418
0.220613
0.440279
0.124188
0.00400262
0.024211
0.0606857
0.0986972
0.135577
0.136922
0.260327
0.216905
0.0118368
0.0120024
0.00201654
0.00771058
0.210008
0.191129
0.136164
0.130645
0.244678
0.0790597
0.113008
0.0170768
0.0347708
0.0252098
0.0492172
0.120648
0.334877
0.335429
0.10315
0.0109801
0.0163893
0.0605812
0.0141271
0.063248
0.104439
0.261929
0.428521
0.200919
0.173114
0.0617809
0.0137959
0.0902664
0.045858
0.0334055
0.257525
0.194338
0.143626
0.087568
0.0262972
0.0715355
0.0367433
0.0166347
0.0511969
0.411519
0.196348
0.157763
0.115663
0.0893968
0.0866488
0.00321149
0.0119682
0.0258521
0.158995
0.215592
0.228712
0.262772
0.204277
0.0528401
0.136061
0.127153
0.124199
0.14945
0.0647293
0.140218
0.219451
0.279877
0.28045
0.0278633
0.0240772
0.120196
0.137779
0.136899
0.0375525
0.1715
0.112936
0.0380905
0.0118102
0.0111254
0.144494
0.131673
0.24585
0.139721
0.237684
0.191831
0.0489376
0.164927
0.230193
0.316925
0.0797508
0.0538664
0.0199136
0.0679903
0.0743958
0.131881
0.0877261
0.251414
0.427951
0.346086
0.216478
0.0505407
0.0365285
0.0324645
0.0388444
0.000715925
0
0.0278108
0.0709901
0.229517
0.174642
0.193529
0.0758299
0.013995
0
0
0.00164204
0.0130476
0.116494
0.420891
0.434298
0.0242075
0
0.00887412
0.0463695
0.208585
0.24282
0.252914
0.0718592
0.0244751
0.00569925
0.00699181
0
0
0.0132757
0.0315294
0.259048
0.434298
0.114711
0
0
0
0
1.93606e-005
0.00354069
0.0641764
0.341117
0.243553
0.00253989
0
0
0
0
0.0025441
0.101444
0.407311
0.276883
0.0170361
0.00046643
0
0
0.000135524
0.00329272
0.218861
0.413608
0.063529
0
0
0
0
0
0.00491346
0.353884
0.413608
0.0821496
0
0
0.031573
0.00592059
0.00103415
0.0420947
0.161764
0.338642
0.17549
0.045786
0.00613953
0.117024
0.0741848
0.0169581
0.105603
0.175558
0.120011
0.0812303
0.0309136
0.0108992
0.0123123
0.0051745
0
0.0259391
0.466668
0.466668
0.0466546
0.00301618
0.00161946
0.156465
0.0638711
0
0.045676
0.385991
0.269519
0.0283871
0.0242465
0.0386588
0.0926449
0.0203347
0.0258048
0.214448
0.115493
0.0436657
0.0950048
0.0991524
0.117513
0.0214434
0.00302271
0.0188026
0.422942
0.426403
0.0481694
0.0359286
0.0363545
0.0285374
0.0555355
0.00165155
0.0533229
0.262634
0.233099
0.127522
0.128164
0.0708087
0.0235915
0
0
0.0177876
0.226176
0.471303
0.198012
0.0472556
0.00710328
0.00174473
0.00255685
0
0.0176087
0.278184
0.331953
0.0122616
0.000137058
0
0
0
0
0.102043
0.384612
0.338024
0.00265295
0
0
0
0
0
0.000360806
0.138591
0.453939
0.106462
0.00678225
0
0
0
0
0.00252565
0.222867
0.453939
0.0400031
0.0218866
0.00170292
0
0.00142495
0
0.0982549
0.266409
0.374593
0.0155658
0
0.0126894
0.00209282
0.15843
0.0288708
0.0601196
0.0867983
0.392162
0.172286
0.00333293
0.11095
0.182878
0.00237491
0
0.0190735
0.120677
0.454264
0.0282325
0.0240004
0.0117496
0.00277563
0.203892
0.316487
0.230981
0.0705295
0.0577073
0.0163137
0.00109729
0.060436
0.105852
0.138666
0.0521435
0.0982073
0.118455
0.12266
0.073143
0.00240776
0.0336497
0.113337
0.138383
0.0367165
0.0604459
0.11072
0.145961
0.125029
0.156931
0.0948277
0.0651496
0.380363
0.375425
0.115811
0.0192621
0.00772431
0.00556344
0.000216739
0.0196362
0.0769904
0.557663
0.30561
0.0320457
0.00602034
0.00563775
0.0150033
0.0337763
0.047362
0.19723
0.0560977
0.00370465
0.00436032
0.0135127
0.0355087
0.0683407
0.19561
0.208062
0.10761
0.183304
0.0705877
0.0546053
0.00417196
0.00341623
0.0221086
0.126153
0.197117
0.37512
0.359312
0.0330531
0.0014623
0.000620321
0.00112751
0.00479321
0.033842
0.118606
0.33183
0.253914
0.00829551
0.00523642
0
0
0.000518845
0.0163259
0.272103
0.468296
0.310034
0.233899
0.125069
0.0187301
0.00097074
0.00256321
0.0124195
0.0305978
0.206992
0.211754
0.38815
0.326784
0.151374
0.023615
0.0021876
8.01182e-005
0.00552589
0.0500026
0.242864
0.0710495
0.00686681
0
0
6.19471e-005
0.0209631
0.284624
0.368093
0.148355
0.150711
0.0247484
0.00837827
0.00331265
0.0102539
0.0987231
0.247232
0.137929
0.0315449
0.128636
0.198338
0.180251
0.0745946
0.008034
0.00345242
0.000700916
0.00563254
0.00040176
0
0.0105648
0.0578359
0.462886
0.366109
0.00990154
0
0.00040176
0.0201208
0.052456
0.015748
0.0134612
0.0283294
0.0175845
0.0751041
0.0599971
0.026504
0.00111896
0
0.0188574
0.350501
0.591918
0.0806261
0.0083149
0.000601285
0.00111896
2.64989e-005
0
5.04665e-005
0.044827
0.35459
0.240585
0.00176292
0
2.64989e-005
0
0
0
0.0330146
0.410657
0.25915
0.00317142
0
0
4.41649e-005
0
0.00897236
0.340358
0.410657
0.0489596
0.000426602
0.000116454
4.41649e-005
0
0
0.00770576
0.268959
0.410657
0.0939749
0.000383977
0.000127992
0
0.00707785
0.00287195
0.00307416
0.00356841
0.431976
0.367261
0.00547016
0.00313665
0.00280404
0.160743
0.0777795
0.0215191
0.00184513
0.247347
0.233359
0.0310294
0.0249973
0.0411667
0.00392566
0.00419204
0.0150786
0.200876
0.47261
0.218457
0.00690754
0.00193369
0.00903536
0.0800821
0.0934124
0.0379109
0.137846
0.230671
0.239643
0.130356
0.0329222
0.0655012
0.00719522
0.00601194
0.0705496
0.0662697
0.190749
0.173792
0.207377
0.0727167
0.0230831
0
0.00360716
0.0363802
0.0328584
0.464485
0.320719
0.0852046
0.00926324
0.00659197
0.0106423
0.0476467
0.223186
0.0234635
0.125793
0.146679
0.215845
0.165706
0.164257
0
0.01562
0.118646
0.0350184
0.24343
0.434949
0.179399
0.0978939
0.0518334
0
0
0
0.0305845
0.332242
0.20599
0.0601336
0.00628563
0
0
0
0
0.0487135
0.398825
0.135754
0.19473
0.0349803
0
0
0
0
0.00974652
0.119686
0.359506
0.235141
0.0320835
0.000857515
0
0
0
0.00274176
0.0958931
0.409707
0.443675
0.0762548
0
0.000174633
0
0.0223655
0.0547947
0.151641
0.073631
0.0983367
0.018734
0.000174633
0.0214891
0.185407
0.311122
0.218165
0.0756348
0.0540994
0.00796066
0.00587791
0.0157747
0
0
0.0159998
0.0774456
0.142069
0.327055
0.42888
0.0334762
0
0
0.0411674
0.274447
0.329198
0.272133
0.292145
0.220908
0.100082
0.00450474
0.116752
0.315438
0.256354
0.0755077
0.0109893
0.0297678
0.00573927
0.0133553
0.0284726
0.424772
0.330684
0.123708
0.011786
0.000513918
0.00362886
0.00752819
0.0154043
0.14748
0.0161405
0.113116
0.288534
0.185923
0.0537735
0.0956486
0.131127
0.140132
0.043314
0.200815
0.176363
0.17037
0.0717205
0.00359743
0.00848868
0.0942574
0.1426
0.356594
0.279675
0.0581894
0.00891777
0
0
0
0.000962753
0.0306939
0.296426
0.112406
0.00315115
0.00402251
0.00329114
0
0
0.0187795
0.234968
0.427868
0.269134
0.0380691
0.0121714
0
0
0.000320243
0.00802024
0.0335346
0.409134
0.284018
0.13545
0.0717253
0.023038
0
0
0.0284434
0.127466
0.414144
0.0262434
0.00370624
0.0209306
0.0376839
0.000758603
0.00312002
0.0988477
0.341706
0.215689
0.00958157
0.000706175
0.0220709
0.0651881
0.0470254
0.0687003
0.276176
0.298203
0.0542895
0.0852517
0.180129
0.234039
0.175457
0.00531022
0.0218402
0.120795
0.173838
0.120101
0.0122918
0.104187
0.343239
0.377441
0.151095
0.204195
0.251644
0.127905
0.00633885
0.00112572
0
0.00595094
0.0231012
0.0878032
0.0581142
0.113018
0.0537638
0.00615469
0.000360065
0
0.168036
0.284
0.30897
0.0105547
0.00761635
0.00040094
0.000360065
7.13425e-005
0.0380921
0.179673
0.268006
0.21232
0.113154
0.0839328
0.022816
7.13425e-005
4.28055e-005
0.0753355
0.479807
0.479807
0.288892
0.0111904
0.00366569
5.72772e-005
4.28055e-005
6.2322e-006
0
0.115519
0.317077
0.259136
0.00509126
0.000841544
0.000259014
6.2322e-006
0
0.013984
0.0956057
0.299094
0.334178
0.019062
0.00108831
0.00036277
0
0
0.0248226
0.318552
0.282676
0.211484
0.00634105
0.000517018
0.000136505
0
0
0.124763
0.398568
0.289464
0.289163
0.00748942
0.000652986
0.000217662
0
0
0.0416665
0.14639
0.329194
0.304059
0.0421072
0.00625712
0.00333133
0.00726143
0.00149264
0.034622
0.0823537
0.187184
0.187925
0.127629
0.115546
0.0578478
0.0687766
0.0145543
0.181942
0.473656
0.317788
0.213816
0.0189427
0.00271347
0.00182408
0.00566802
0.0687928
0.130356
0.342766
0.154077
0.179316
0.0737794
0.0345849
0.0439191
0.0532014
0.0828695
0.200808
0.316812
0.0437915
0.0425474
0.08136
0.0634483
0.0854031
0.116346
0.00605338
0.0543336
0.172764
0.0386397
0.0469351
0.341594
0.215324
0.0864084
0.0331839
0.258586
0.354398
0.332316
0.0951009
0.0369607
0.113339
0.0215373
0.00673515
0.0587005
0.0354751
0.0987157
0.168257
0.172082
0.0356751
0.346398
0.18842
0.013232
0.0576074
0.000378954
0.00127078
0.00538036
0.00383854
0.0200002
0.270208
0.27368
0.0198664
0.00312355
0
0
0
0
0.00303949
0.321581
0.504613
0.0314827
0
0.00265268
0.00211796
0.0116767
0.0805164
0.00895321
0.237933
0.264413
0.0516686
0.0341674
0
0
0
0.0105747
0.0135863
0.171999
0.504613
0.14335
0.0150059
0
0
0.000625598
0.00990824
0.0322197
0.140272
0.423369
0.0336358
0
0.00065334
0
0.0222744
0.0398114
0.0725919
0.112705
0.359458
0.179235
0.00524862
0
0
0
0
0.00546306
0.0357883
0.427602
0.156802
0.000841603
0.00457338
0
0
0
0.00340149
0.014273
0.427602
0.427602
0.0207716
0.00315499
0.00437173
0.0385435
0.0502289
0.0205541
0.0427984
0.193987
0.258103
0.0747309
0.0538374
0.00728621
0.0217917
0.0254548
0.00131586
0.00741017
0.0901869
0.185635
0.44713
0.0146013
0
0
0
0.00054068
0.00609094
0.183368
0.460636
0.173816
0.072557
0
0
0
0
0.00395779
0.0355673
0.310951
0.460636
0.181446
0.00868605
0.0013456
0
0
0.000812132
0.00556151
0.0267071
0.358691
0.415001
0.17819
0.0546431
0.00790685
0
0
0.00338843
0.0102945
0.199964
0.23694
0.00538624
0
0
0
0.000487279
0.00194912
0.0370926
0.44094
0.44094
0.123047
0.00955933
0
0
0
0
0.000143733
0.291927
0.188021
0.237951
0.159143
0.0429089
0.00144205
0.00593095
0.0117712
0.0164472
0.028091
0.0602113
0.249199
0.369433
0.128965
0.0493743
0.0452102
0.0196681
0.0163377
0.00273127
0.401838
0.317224
0.0590085
0
0
0
0.000307724
0.0012309
0.0603305
0.180262
0.401838
0.390005
0.00934946
0.00786233
0
0.00110386
0.00388847
0.0199146
0.00371927
0.126981
0.356651
0.147834
0.0623224
0.021526
0.00536183
0.00234789
0.000178897
0
0.10779
0.426783
0.222694
0.0803691
0.0129099
0.00258611
0
0
0.0301873
0.347148
0.426783
0.0265255
0.013943
0.0015602
0.00473154
0.00888489
0.00251946
0.0135042
0.212438
0.426783
0.0610213
0.0380705
0.0199832
0.0173066
0.017633
0.0010023
0.00196523
0.0682513
0.229419
0.138908
0.0897858
0.0119209
0.00124621
0
0
0.00327538
0.263542
0.411918
0.202378
0.0954007
0.0107155
0.000499317
0.00373645
0
0.0273896
0.24744
0.411918
0.0603815
0.0483299
0.0220949
0.00590967
0.00445947
0.000121474
0.0342946
0.3719
0.411918
0.175076
0.0618272
0.0501027
0.00304639
0.0261552
0.00956109
0.0303168
0.24235
0.45939
0.242521
0.0817545
0.0302505
0.000631072
0.00567966
0.013504
0.115909
0.150488
0.266494
0.205082
0.122423
0.0490955
0.0263684
0.00533511
0.0510865
0.0493875
0.223533
0.348329
0.202075
0.0483474
0.0639251
0.00441751
0.0397576
0.0599506
0.114664
0.117439
0.15402
0.227277
0.131343
0.174868
0.184578
0.0720453
0.172242
0.166424
0.146133
0.316383
0.0973218
0.0702599
0.129011
0.0097642
0
0.0666809
0.0423493
0.0316182
0.10617
0.256271
0.081863
0.244638
0.0931798
0.0313706
0.129098
0.211028
0.119293
0.336701
0.195491
0.0586261
0.0629182
0.0314047
0.010559
0.125428
0.119469
0.0973013
0.250466
0.371335
0.0682086
0.0781393
0.101408
0.050367
0.321642
0.0357351
0.00729285
0.00882667
0.143168
0.0207307
0.122114
0.11553
0.138749
0.125184
0.0207022
0.00415867
0
0.0184989
0.0437955
0.0848421
0.472588
0.288164
0.0546692
0.073011
0.0803427
0.0941784
0.155527
0.0229987
0.0654985
0.141161
0.146209
0.225015
0.0402338
0.0580219
0.205889
0.0551534
0.0389553
0.103837
0.34972
0.458518
0.0810173
0
0
0
0
0.0115771
0.0131954
0.355463
0.230297
0.00450751
0.00318739
0
0
0
0
0.000111898
0.317037
0.465244
0.0295404
0.00207531
0.00669909
0.0635762
0.0137669
0.00982942
0.0265528
0.203498
0.350658
0.0633857
0.0217298
0
0.0100987
0.00676171
0
0.011832
0.207845
0.465244
0.150218
0.00748735
0
0
0
0
0
0.0675355
0.437731
0.144702
0.0558415
0
0
0
0
0
0.002912
0.275487
0.437731
0.0240754
0.00396877
0.00488201
0.00488201
0
0.000930532
0.050459
0.383025
0.227018
0.0581226
0.00661462
0.000697431
0.000697431
0
0
0.0034649
0.269136
0.437731
0.204977
0.000734193
0
0
0
0
0
0.0371742
0.402103
0.439737
0.091106
0
0
0
0
0
9.36989e-005
0.219182
0.212825
0.00163073
0
0
0
0
0
0.0525294
0.439737
0.439737
0.0688815
0
0
0
0
0
0.00209609
0.249342
0.352718
0.285618
0.0154289
0.000301366
1.58613e-005
0
0
0
0.060661
0.196649
0.42087
0.155676
0.00210956
0.000111029
0
0.000784413
0.00254796
0.0286658
0.42087
0.213055
0.0040705
0.000502276
2.64356e-005
0
0
0
0.0830631
0.298216
0.42087
0.0950534
0.00351593
0.000185049
0
0.000201074
0.000720054
0.0550199
0.0731308
0.231169
0.197147
0.00213373
0.00181179
0.000228422
0.00372079
0.00965333
0.00638068
0.050498
0.292669
0.412586
0.0048053
0.00867524
0.00279692
0.00820403
0.0179858
0.00287729
0.11716
0.412586
0.243345
0.0410947
0.00639669
0
0.000665781
0.00749175
0.010539
0.0930131
0.412586
0.412586
0.0749271
0.0162068
0.0208877
0.00172317
0.0406965
0.0165447
0.0634296
0.362946
0.432148
0.0293744
0.0163167
0.00896892
0.00271353
0.0054657
0.000771862
0.0651664
0.231565
0.381652
0.164444
0.0493875
0.0530341
0.00236913
0.0142093
0.0166718
0.106486
0.388846
0.320278
0.0523881
0.0261187
0.0285086
0.00137555
0.0470854
0.0169975
0.127686
0.218682
0.151891
0.168302
0.0664195
0.0314645
0.00743463
0.0635401
0.017668
0.100432
0.145665
0.183968
0.212719
0.0373541
0.0588135
0.00513061
0.0345471
0.110755
0.176535
0.226682
0.0630534
0.0915971
0.0276521
0.0959122
0.101956
0.16779
0.291769
0.147716
0.207671
0.192708
0.28587
0.110561
0.0618882
0.0201709
0.0651683
0.0529698
0.274332
0.376889
0.168342
0.1362
0.148669
0.0804567
0.0956014
0.218582
0.166145
0.191503
0.0810157
0.1052
0.110427
0.0303838
0.0460017
0.0385313
0.0212054
0.074619
0.120266
0.123382
0.220809
0.250903
0.135827
0.00533106
0.027827
0.0123989
0.165891
0.238916
0.103174
0.131948
0.14499
0.142213
0.0571774
0.0506097
0.060225
0.0804391
0.151106
0.218833
0.539105
0.312757
0.265646
0.0244021
0.050979
0.00990438
0.0781828
0.0178563
0.0816987
0.227741
0.118065
0.0975176
0.0221967
0.0369213
0.0148918
0.0655352
0.0091714
0.104509
0.419792
0.101136
0.0624999
0.0507416
0.0968351
0.126311
0.0438877
0.0356133
0.166599
0.407747
0.156084
0.166819
0.00449679
0.00985058
0.00906036
0.124639
0.0373501
0.347492
0.446619
0.0944629
0.107452
0.017967
0.0429775
0.0201937
0.167599
0.0258702
0.0559365
0.206276
0.0472163
0.0094943
0.0639038
0.168142
0.187102
0.097312
0.065453
0.0322037
0.0381197
0.0222663
0.0373716
0.0814703
0.222823
0.233827
0.229355
0.172927
0.37085
0.362937
0.0365448
0.023544
0.0561488
0.126754
0.0362438
0.147678
0.216057
0.281287
0.130955
0.103574
0.163024
0.130674
0.211789
0.0661195
0.252256
0.0960649
0.0383154
0.0211234
0.0201776
0.0450266
0.0504472
0.0525833
0.193782
0.212955
0.150179
0.0469754
0.00288252
0.00288252
0.00968139
0.0164044
0.0117634
0.197652
0.521186
0.12208
0.117587
0.0517702
0.198231
0.142821
0.180236
0.0700371
0.0741777
0.122344
0.262121
0.0785734
0.0643733
0.16965
0.153485
0.143541
0.0722688
0.163302
0.421864
0.165078
0.0161233
0.00700072
0
0
0
0.00564814
0.050159
0.396024
0.472033
0.0638922
0.0116679
0
0
0
0.000744089
0.0123835
0.278894
0.215868
0.0930323
0.0902669
0.0255632
0.0752217
0.0348895
0.039537
0.0784063
0.281809
0.405467
0.243805
0.10593
0.00832136
0.0828758
0.0487087
0.00520862
0.0809318
0.228979
0.405533
0.191119
0.0204352
8.09413e-005
0.00226239
0.00075271
0
0.0112639
0.066179
0.213687
0.448823
0.243571
0.00223869
0.0158367
0.0109177
0.000627634
0.0184781
0.0389276
0.293169
0.204495
0.0485367
0.0187889
0.0529538
0.0672505
0.00391435
0.0980781
0.0982579
0.127737
0.248387
0.298648
0.114561
0.120824
0.16279
0.0867592
0.178991
0.151529
0.0755915
0.428393
0.306574
0.0844118
0.0316573
0.0203439
0.00190151
0.0146851
0.0277527
0.164719
0.246583
0.232786
0.149068
0.0558704
0.100538
0.00805387
0.059613
0.0861661
0.0654792
0.163295
0.27211
0.102165
0.0706813
0.246517
0.123157
0.144697
0.140403
0.179369
0.106581
0.122434
0.20248
0.113382
0.29453
0.0890239
0.117676
0.120309
0.151748
0.182958
0.107974
0.0635129
0.0456608
0.122818
0.0153266
0.0947677
0.0827069
0.182619
0.229043
0.123417
0.121913
0.117224
0.0449589
0.0124412
0.0960146
0.0371822
0.155304
0.14187
0.094147
0.183259
0.111596
0.136032
0.183518
0.191526
0.118013
0.210932
0.457406
0.207148
0.167578
0.255251
0.0325636
0.227577
0.201238
0.111063
0.120087
0.125769
0.0884521
0.0944693
0.179687
0.0794798
0.0103777
0.0262726
0.0339874
0.146307
0.110935
0.0923445
0.0907426
0.346922
0.161301
0.054981
0.114946
0.18661
0.116325
0.209583
0.124836
0.105984
0.233602
0.103368
0.100137
0.0503277
0.0877854
0.0680706
0.0445446
0.278268
0.258949
0.366079
0.233194
0.0997174
0.18136
0.249652