0.0803807
0.0771138
0.0472642
0.175724
0.14065
0.0392885
0.0406552
0.0315581
0.054115
0.0957423
0.0822935
0.0134083
0.0455163
0.161921
0.106019
0.0376953
0.114659
0.0694306
0.189051
0.0683545
0.0624142
0.0348702
0.117357
0.103744
0.140184
0.156676
0.147273
0.286444
0.189
0.0812145
0.0793172
0.108675
0.23258
0.118318
0.256195
0.14667
0.0309827
0.0447669
0.0255133
0.0223574
0.0515073
0.0710782
0.0579512
0.124614
0.0309855
0.0286506
0.0375163
0.0301254
0.0198883
0.0432821
0.0751959
0.294586
0.388917
0.059306
0.109972
0.169554
0.112275
0.198086
0.102772
0.079431
0.0161014
0.0897421
0.0397974
0.108882
0.179388
0.191939
0.226583
0.0878956
0.0448857
0.13697
0.337515
0.152059
0.0364238
0.0093938
0.00453824
0.00171398
0.047017
0.0247377
0.0880321
0.0955358
0.0286662
0.0922387
0.090119
0.0203791
0.00731001
0.0514602
0.0251155
0.0454797
0.0432871
0.0202436
0.249912
0.117772
0.0579226
0.012578
0.009925
0.00866459
0.0451156
0.132248
0.0837395
0.753591
0.363591
0.0311104
0.004386
0.0107376
0.00361326
0.0102125
0.0355657
0.0445733
0.101562
0.0761919
0.00771501
0.00374611
0.00367004
0.0108605
0.0183891
0.0167418
0.00756745
0.231529
0.103511
0.0243026
0.0217324
0.00342103
0.0110651
0.013778
0.00967677
0.0174178
0.387353
0.358801
0.00851768
0.00140291
0.000947259
0.00128617
0.00220238
0.00028655
0.00482682
0.627141
0.347814
0.0105867
0.00216845
0
0.00104748
0.0014116
2.18992e-005
0.12883
0.184304
0.0797052
0.0382621
0.0179887
0.00291178
0.00221559
0.00210826
0.00169313
0.0408721
0.153191
0.0595269
0.026247
0.00410043
0.000373055
0.0122553
0.0239311
0.0569297
0.0894056
0.462536
0.0880792
0.00569972
0.00112621
0
9.56656e-005
0.000177665
0
0.336921
0.375237
0.0262135
0.00311201
5.1555e-005
0
0.000522111
0.0052539
0.0727491
0.562807
0.0337238
0.0131039
0.00310312
9.21603e-005
0.0011681
0.0285542
0.0454339
0.128662
0.0742695
0.0137016
0.00894612
0
0
0.00423401
0.024835
0.030394
0.141006
0.114166
0.0996088
0.00455228
0.000412583
0
0
0.0014358
0.0131206
0.251368
0.446331
0.0278365
0.00127802
0
0
0
0.000861482
0.011939
0.355703
0.648235
0.0720107
0.0463101
0.0096706
0
0.012182
0.0116305
0.0135635
0.0748008
0.145496
0.112287
0.121753
0.0161177
0.00154303
0.0191046
0.0229981
0.0137637
0.0557681
0.103301
0.104147
0.0276673
0.00138151
0
0.00642245
0.0149105
0.104293
0.329342
0.66521
0.0823325
0.0683384
0.0336094
0.0252043
0.096341
0.134559
0.204163
0.162975
0.196379
0.0990641
0.0813529
0.0118051
0.0260904
0.0491083
0.0768458
0.0862383
0.222819
0.115176
0.0525108
0.0104048
0.018699
0.0334627
0.0447217
0.0987069
0.229197
0.335012
0.0988869
0.023473
0.0751821
0.158564
0.161387
0.218681
0.207175
0.13986
0.0579327
0.0322769
0.0189121
0.0598258
0.181454
0.158823
0.185275
0.115591
0.119878
0.0937072
0.0842959
0.101098
0.0567075
0.015203
0.0241716
0.0209945
0.0250937
0.0683872
0.127634
0.075811
0.0985588
0.178145
0.131771
0.32118
0.127938
0.00510346
0.0065898
0.0334596
0.041741
0.0356052
0.0174764
0.0608844
0.0724428
0.0575623
0.0514593
0.0745451
0.0775344
0.0830338
0.0269676
0.0255657
0.217884
0.570721
0.194836
0.0391597
0.0406748
0.0256427
0.0285708
0.0594409
0.0462488
0.0648833
0.0677511
0.107983
0.0385939
0.0488849
0.120894
0.0874142
0.272018
0.200999
0.0378371
0.0248755
0.0162412
0.0399841
0.0424778
0.147419
0.133312
0.0692988
0.0577463
0.124362
0.264519
0.367978
0.0479009
0.0306824
0.059162
0.129885
0.386426
0.159523
0.0939027
0.0402509
0.0790172
0.0270384
0.0113217
0.101686
0.265101
0.0790058
0.132353
0.0344126
0.0679103
0.0212777
0.00681582
0.00232299
0.0124562
0.015105
0.0308913
0.180796
0.225147
0.114996
0.0258208
0.00119348
0.00491565
0.0358119
0.0339814
0.102814
0.106403
0.119193
0.0779092
0.0341338
0.00171338
0.00447768
0.0250852
0.0349792
0.0125745
0.251644
0.766362
0.174923
0.0214949
0
0.00257018
0.0121202
0.00470194
0.127496
0.189453
0.198144
0.0152303
0.00212565
0
0.00245572
0.0257628
0.032987
0.487618
0.265287
0.0772859
0
0
0
0.000275898
0.00626438
0.0564315
0.0299194
0.244128
0.508073
0.0507199
0.000543706
0.00197954
0.00197954
0.00198114
0.0120101
0.191579
0.264725
0.191635
0.0181275
0
0.00329923
0.00329923
0.00940393
0.116085
0.329279
0.308969
0.0276006
0
0
0
0
0.000847723
0.029857
0.330756
0.31969
0.0450728
0
0
0
0
7.02661e-005
0.13842
0.154498
0.276918
0.079537
0.00344136
0
0.000493265
0.000493265
0.00593406
0.0792465
0.284884
0.480048
0.0955814
0.00042838
0
0
0
0.000491863
0.0894224
0.196193
0.0428613
0.00528484
0
0
0
0
0
0.268165
0.191316
0.0116549
0.00388918
0.000204694
0
0
0
0.0270892
0.410964
0.343327
0.115657
0.0103376
0
0
0
0
0
0.251715
0.364927
0.0219717
0.00648197
0.000341156
0
0
0.00283041
0.0896518
0.488084
0.0754398
0.0135624
0.0124243
0.000653911
0
0
0
0.123327
0.369866
0.0327925
0.00252966
0.00745459
0.000392347
0
0
0.0112625
0.265281
0.569332
0.134948
0.0226039
0.0207072
0.00108985
0
0.000883079
0.0143715
0.215741
0.311019
0.106803
0.00737437
0.0124243
0.000653911
0.00305154
0.00618155
0.042155
0.245366
0.297338
0.0143118
0.00112441
0
0
0.00255588
0.00841967
0.119875
0.202833
0.196511
0.00459738
0.00287196
0.0124589
0.00731315
0.0257014
0.0678597
0.289204
0.174095
0.0364185
0.032704
0.00301734
0
0
0.00640306
0.00557599
0.178892
0.230264
0.0928228
0.00244261
0.000667447
0.00177985
0.000818833
0.00707335
0.0396307
0.659976
0.397969
0.00971211
0.000912826
0.0111798
0.0398799
0.021211
0.0313766
0.0666661
0.178824
0.0927709
0.00250816
0.0229598
0.0208238
0.0450099
0.0220371
0.031504
0.021222
0.0478763
0.0461015
0.0186244
0.0079746
0.00213232
0.00766059
0.00196948
0.00550924
0.0590442
0.754192
0.307776
0.00877587
0.134273
0.0394814
0.0238559
0.00538471
0.00542544
0.0240128
0.304722
0.158635
0.0759499
0.0691729
0.047665
0.0419879
0.05428
0.0201321
0.0171882
0.0276162
0.0260044
0.0369422
0.0335411
0.0718396
0.145711
0.323183
0.0859258
0.0132121
0.0167375
0.00462316
0.00947814
0.274796
0.270812
0.0660157
0.0220782
0.00270888
0.00258913
0.0291955
0.0471797
0.0745437
0.123132
0.602391
0.228188
0.152429
0.0494794
0.000843931
0.0015673
0.00115681
0.00669227
0.0735162
0.00553088
0.0248574
0.091536
0.208103
0.0408299
0.064124
0.0335126
0.155456
0.132425
0.0100018
0.0524128
0.0727731
0.110431
0.031901
0.00832412
0.037671
0.292972
0.144624
0.0723817
0.0259452
0.020081
0.0689918
0.0377497
0.0838149
0.0768284
0.264373
0.104245
0.0616901
0.355837
0.400823
0.176599
0.0223187
0.00696804
0.0324149
0.366443
0.0203456
0.00758073
0.0905828
0.152261
0.0492408
0.00630426
0.00108889
0.0114561
0.0443324
0.010002
0.0538216
0.387764
0.268096
0.0216576
0.00177885
0.000653336
0.00601641
0.00608167
0.00593387
0.00359754
0.277354
0.406829
0.0539189
0.00870304
0
0.00416942
0.0401208
0.0142839
0.0311264
0.347589
0.512799
0.0280145
0.00855075
0
0.00498768
0.00716495
0.0108619
0.0963783
0.275935
0.0852636
0.00233882
0.00783959
0.00500896
0.00776369
0.0113937
0.0464676
0.266267
0.138952
0.0293652
0.00138958
0.0100466
0.00834826
0.00764457
0.0332507
0.0154277
0.100471
0.292834
0.242152
0.0329337
0.0228198
0.00300537
0.0124397
0.0152041
0.0879762
0.623487
0.35446
0.157866
0.0317465
0.0365595
0.00500896
0.00746384
0.0425707
0.0556143
0.318796
0.0977878
0.00595076
0
0.00112218
0.00112218
0.00182702
0.0176076
0.195167
0.467152
0.142696
0.0100995
0.00541747
0
0
0.000267023
0.0258417
0.107092
0.500724
0.147221
0.0262989
0.0282921
0.0247022
0.02403
0.00354903
0.033858
0.0936428
0.37484
0.218874
0.0775105
0.0664531
0.00871185
0.0870805
0.0175591
0.0287205
0.324571
0.17057
0.0357109
0.0037959
0.00668309
0.00406353
0.00218805
0.000299533
0.159452
0.313192
0.0272524
0.00236078
0.00269969
0.0113665
0.00677255
0.0108924
0.19937
0.471291
0.15272
0.167595
0.0710873
0.0332334
0.0705084
0.0956579
0.0984813
0.0136979
0.107579
0.152912
0.0430189
0.0214032
0.0491054
0.15982
0.205091
0.124823
0.256798
0.327801
0.0506543
0.00198309
0.00181669
0.000904267
0.00323461
0.00133069
0.0370818
0.334013
0.170541
0.0222028
0.00127186
0.00109001
5.7369e-005
0.00537726
0.00501541
0.0932667
0.332081
0.0426619
0.0168663
0.031349
0.0317326
0.072227
0.0486024
0.044315
0.156854
0.394474
0.10911
0.00280876
0.0482557
0.023264
0.0399399
0.0216105
0.0201413
0.355381
0.558551
0.0127813
0.0187845
0.00127288
0
0
0.0188209
0.00680682
0.144719
0.172166
0.0242798
0.0111229
0.00018184
0
0
0.014151
0.0464884
0.495462
0.201765
0.0123415
0.0105819
0.00834377
0.00212865
0
0.0214771
0.0880411
0.431661
0.298852
0.0170087
0.0168208
0
0
0
0.0371187
0.232383
0.457801
0.0652692
0.0188394
0.0054267
6.76604e-005
0.000202981
0
0.00278383
0.0739658
0.525449
0.11952
0.00705232
0.0576823
0.016749
0.00991363
0.00212657
0.00532456
0.0485978
0.322874
0.122487
0.0576689
0.00264797
0
0
0
0.0363718
0.256612
0.388742
0.0403311
0.00646955
0.00838181
0.00786363
0.00834123
0.0524624
0.128868
0.308185
0.362551
0.077375
0.02395
0.130983
0.207699
0.123086
0.025196
0.0156317
0.0184215
0.0865904
0.0927134
0.0867368
0.0914094
0.516907
0.218312
0.046565
0.00765245
0.014228
0.00106621
0.00442822
0.0115392
0.0615786
0.0913421
0.115193
0.187978
0.213363
0.208943
0.147093
0.0853386
0.0631902
0.206183
0.189689
0.166413
0.0940623
0.0441393
0.0995963
0.00746347
0.0743013
0.15565
0.158673
0.0648299
0.0291151
0.0156622
0.00464375
0.00309232
0.00934417
0.0177222
0.0857893
0.0446243
0.0716871
0.288222
0.342792
0.0305272
0.00143093
0.0005726
0.00552101
0.0559534
0.216966
0.0559741
0.0194502
0.0465626
0.00630374
0.00364451
0.00850384
0.0885805
0.197358
0.0671518
0.0826705
0.169782
0.68805
0.0710623
0.0110145
0.0138391
0.0363558
0.0734945
0.0011467
0.00645363
0.249676
0.290976
0.0190276
0.000982555
0
0
0.0033968
0.00164459
0.00550155
0.242308
0.318864
0.0469093
0.00243495
0
0.000529954
0.000647722
0.0040419
0.0076527
0.144102
0.400899
0.0995883
0.0247439
0.0163074
0
0.00113575
0
0
0.175152
0.538945
0.288854
0.023664
0.00978446
0
0
0.00433979
0.0314836
0.228478
0.242249
0.0273201
0.00520977
0
0.00102364
0.00125112
0.0458659
0.224072
0.250832
0.186294
0.0592427
0.0688347
0.00102466
0.000614187
0.0210883
0.00423705
0.00951861
0.250959
0.5569
0.139456
0.00819115
0
0
0
0.0321031
0.0669032
0.234436
0.369134
0.188187
0.178751
0.014224
0.00576314
0.00290537
0.0815247
0.242235
0.0926697
0.0720128
0.152899
0.173744
0.0349143
0.00649079
0.0530452
0.0255118
0.0898029
0.0849445
0.113296
0.154049
0.129032
0.126419
0.0356824
0.0933774
0.0349814
0.0545774
0.0873959
0.171069
0.318922
0.398287
0.0831953
0.0426889
0.0335016
0.0436113
0.0264369
0.120402
0.226262
0.361558
0.30192
0.0812667
0.0484048
0.182779
0.0102257
0.0440796
0.0279898
0.0371064
0.124771
0.241668
0.138865
0.0185059
0.0445066
0.0131424
0.0639474
0.0683054
0.0752493
0.190126
0.429096
0.164241
0.060137
0.0340415
0.0171767
0.0106032
0.0258992
0.0512201
0.318806
0.34506
0.0783373
0.015422
0.062337
0.0310068
0.177592
0.081154
0.0741473
0.200124
0.402855
0.193741
0.0571494
0.0416632
0.00898781
0.108785
0.12005
0.178716
0.0708828
0.10523
0.099252
0.0895301
0.011258
0.0123835
0.101871
0.0667654
0.15827
0.166025
0.0473226
0.254064
0.26307
0.0157429
0.0281214
0.2007
0.201329
0.252427
0.0574597
0.0776162
0.0583116
0.0209447
0.0177257
0.0129281
0.0861023
0.221687
0.543354
0.265296
0.0487619
0.113456
0.0433824
0.00984561
0.00199688
0.00837221
0.00150064
0.022045
0.0567474
0.118414
0.296029
0.108722
0.0108023
0.00149814
0
0
0.00503354
0.043987
0.238548
0.267915
0.0228835
0.0105731
0.000896033
0.0105284
0.0294779
0.148603
0.123072
0.278277
0.266754
0.025106
0.00594203
0
0.00083149
0.00118794
0.037234
0.224813
0.607002
0.258645
0.0123778
0.0115643
0.000249584
0
0
0.00442244
0.071349
0.190335
0.109781
0.0201408
0.0137473
0.00650541
0.00879851
0.00168046
0.0886011
0.285706
0.223223
0.0759217
0.0108251
0.00534377
0
0
0
0.0400999
0.247585
0.276428
0.0742433
0.0148226
0.0156315
0.00473812
0.00861859
0.00711113
0.105181
0.721468
0.183588
0.0277234
0.00476536
0.0039983
0.0721316
0.0579732
0.0117774
0.178322
0.250886
0.101743
0.0205945
0.00749202
0.0388774
0.131798
0.0491838
0.012564
0.0337915
0.0187567
0.0222889
0.00268041
0.100966
0.2181
0.0669816
0.0531588
0.0430042
0.189587
0.703446
0.109234
0.005926
0.0147267
0.0418838
0.0902611
0.0469955
0.0326925
0.0467283
0.0661782
0.0187884
0.043835
0.179337
0.211521
0.0867825
0.0131933
0.00143602
0.0338711
0.0348359
0.0413026
0.0263556
0.0753688
0.124629
0.0488905
0.0185284
0.0159521
0.467874
0.220854
0.0616328
0.031588
0.0247232
0.0505878
0.0631005
0.0152916
0.0013515
0.0326321
0.0939865
0.0936205
0.0514062
0.0534599
0.0942213
0.0283613
0.0078452
0.000810899
0.259627
0.550376
0.379195
0.0830609
0.014995
0.0190761
0.00332966
0.0013086
0.0131875
0.182775
0.128866
0.0732802
0.0189257
0
0.00157952
0
0
0.022603
0.233552
0.409016
0.0765187
0.0111807
0
0
0.000933666
0
0
0.105624
0.235225
0.267806
0.0306602
0.00123445
0.000723002
0
0
0
0.0774802
0.6219
0.324754
0.0368981
0.00302207
0
0.000423306
0.000282204
0.0411485
0.286102
0.324922
0.0189587
0
0
0
0.00296314
0.00388339
0.0392297
0.231736
0.241987
0.0850621
0.0117519
0.00494216
0
0
0
0
0.08205
0.580775
0.194958
0.0197268
0.000862787
0
0
0.0133558
0.0285375
0.243335
0.397005
0.155515
0.0235325
0.000706023
0
0.023874
0.0227524
0.0369532
0.179845
0.25856
0.201584
0.0841241
0.0612038
0.0237929
0.0913716
0.0627178
0.0773704
0.134936
0.308401
0.129345
0.0690573
0.0689729
0.0793957
0.0262573
0.0960862
0.139123
0.415962
0.369962
0.109105
0.0709663
0.0439683
0.0228719
0.0909832
0.0865715
0.0772512
0.138373
0.33393
0.0894779
0.119623
0.0952556
0.0980078
0.0545768
0.0238113
0.0264192
0.0599145
0.320592
0.198303
0.0562912
0.037269
0.0599315
0.125374
0.106572
0.0225435
0.0552278
0.132222
0.160833
0.124469
0.0993791
0.168084
0.0555685
0.0137268
0.00580552
0.0472125
0.171014
0.0880466
0.109235
0.123193
0.281692
0.183066
0.00761802
0.00396703
0.0491019
0.093077
0.0520466
0.115615
0.185868
0.566269
0.0555026
0.0810138
0.115147
0.192735
0.0651988
0.0163598
0.0336639
0.0218028
0.0499717
0.00671799
0.0566233
0.264907
0.489005
0.113403
0.0582474
0.040681
0.000112291
0.00257038
0.0846173
0.00617048
0.0373594
0.170185
0.191354
0.111668
0.0446558
0.0534162
0.114727
0.00942708
0.0311662
0.122245
0.338651
0.342521
0.370807
0.0220223
0.00577639
0.00372759
3.86884e-005
0.016904
0.0397544
0.0903009
0.110552
0.161102
0.0597809
0
0
0
0.00229977
0.0019649
0.0267082
0.374317
0.339185
0.0495484
0.00042769
0.000997943
0
0.013914
0.037667
0.149003
0.2531
0.127283
0.00892812
0
0
0
0.00197364
0.0156889
0.288492
0.647502
0.138827
0.00512392
0
0
0
0
0
0.0289553
0.297077
0.173009
0.015416
0.000583074
0.0013605
0.000210055
0.000840221
0.00223437
0.0424252
0.513759
0.111686
0.0125475
0.00123293
0.000397235
0
0
0.00674516
0.187506
0.428166
0.0916821
0.000743519
0
0
0.00247574
0
0.00922046
0.161513
0.513227
0.0806151
0.00878622
0.00833084
0.00389587
0.0145193
0.00529302
0.0165852
0.0512129
0.551773
0.111267
0.0344402
0.0258805
0.0257645
0.0691513
0.0284828
0.0181184
0.0193995
0.0600975
0.0312153
0.0562613
0.0827932
0.100812
0.0767829
0.0101663
0.0031294
0.104626
0.539595
0.0928289
0.0491224
0.0646962
0.0631105
0.356229
0.0423075
0.00311492
0.00373362
0.0495554
0.0204356
0.0372482
0.070282
0.210896
0.0376226
0.0165811
0.00425966
0.0264668
0.0545337
0.0687556
0.0314531
0.0267951
0.0371526
0.0127237
0.00724186
0.00199468
0.0394463
0.30843
0.465485
0.0565716
0.00957119
0.00352128
0.0115862
0.017332
0.00746865
0.0503388
0.0780326
0.0942739
0.0390598
0.0207089
0.00571579
0.00262977
0.00342578
0.0029567
0.0115577
0.350019
0.643733
0.0576278
0.00497577
0.00244697
0
0
0
0.0171895
0.153247
0.309918
0.0567492
0.00271498
0
0
0
0
0.0113995
0.253109
0.349736
0.173578
0.0119729
0
0
0
0
0.00559237
0.198122
0.417726
0.0994824
0.00891659
0.000165356
0
0
0
0.0100835
0.108664
0.312734
0.49558
0.0547336
0
0.000603458
0
0
0.0116048
0.260919
0.294475
0.165968
0.00603338
0.00341961
0.00422421
0.00565363
0.0190026
0.115522
0.25594
0.233439
0.156088
0.0129333
0.0239373
0.00100576
0
0
0.0032987
0.0442741
0.257995
0.471713
0.0470313
0.00569935
0.00704035
0
0.00156443
0.0173838
0.105251
0.246827
0.44075
0.151077
0.0703306
0.0069963
0.0414992
0.11094
0.259792
0.368809
0.158638
0.125235
0.0496344
0.023713
0.0145534
0.0302857
0.0787707
0.21237
0.31769
0.0703083
0.0837312
0.0544473
0.0612056
0.00614285
0.0353471
0.0337836
0.0800379
0.235015
0.20013
0.293892
0.285476
0.107862
0.0171073
0.0589118
0.0492582
0.160101
0.195363
0.149175
0.16098
0.14859
0.0604924
0.038159
0.00423922
0.0140294
0.105043
0.145795
0.0319862
0.0486504
0.10147
0.307686
0.0873687
0.00402114
0.0134708
0.0747566
0.200951
0.0372594
0.0881641
0.220902
0.48348
0.111643
0.021556
0.024341
0.102008
0.0960057
0.0690644
0.0493163
0.0872622
0.165853
0.120943
0.0399459
0.10383
0.309943
0.270616
0.0359645
0.0336245
0.0890907
0.150952
0.0268691
0.000300839
0.0199564
0.0788334
0.218487
0.151128
0.0335099
0.065113
0.0637437
0.0344075
0.0201583
0.0825871
0.12308
0.438108
0.363172
0.0315112
0.00931291
0.00171039
0.0394801
0.00830859
0.0580599
0.203618
0.219515
0.0692349
0.0509336
0.0439178
0.0471112
0.12749
0.232171
0.283305
0.17143
0.312612
0.123376
0.16109
0.0198194
0.114311
0.0139029
0.00941018
0.129732
0.177103
0.151365
0.0566963
0.00350741
0
0
0.00198613
0.00521142
0.141234
0.39573
0.31864
0.0346107
0
0
0
0.0345509
0.104264
0.435859
0.125835
0.0540067
0.0143597
0.0216934
0
0.015931
0.00386284
0.0404602
0.527741
0.260742
0.088933
0.0263859
0
0
0
0
0.0115788
0.0923661
0.280997
0.278538
0.0557785
0
0
0
0.00375575
0.0120611
0.0927922
0.346637
0.279527
0.0266181
0.00460193
0.00528284
0.0103199
0
0.0816275
0.376679
0.208669
0.0934256
0.0474482
0
0
0
0.00188797
0.113179
0.368688
0.40286
0.0767222
0.00874609
0.00196352
0.000654507
0.0176734
0.0682763
0.0160709
0.0241876
0.283421
0.285381
0.0199619
0.037189
0.0700355
0.072621
0.272249
0.0314592
0
0.0158222
0.027693
0.00263691
0.0657375
0.160469
0.150465
0.0138237
0.0565924
0.128094
0.410341
0.098529
0
0.0360791
0.121166
0.103491
0.0389729
0.0179591
0
0.03375
0.0150412
0
0.106119
0.495401
0.182993
0.0246018
0.0450386
0.0209026
0.0516848
0.0675873
0.0596788
0.0288039
0.0202431
0.015775
0.0118567
0.0105887
0.0285501
0.0390839
0.437703
0.561037
0.0451008
0.00902596
0.00974848
0.0404236
0.0422873
0.0380269
0.0427841
0.0946858
0.0587032
0.0212262
0.0212923
0.0389196
0.0315931
0.0211417
0.115994
0.0675004
0.323962
0.39599
0.0542418
0.0276575
0.0340455
0.000541026
0.000275323
0.00255774
0.00903094
0.177743
0.295784
0.061338
0.00708147
0.000424899
0
0
0
0.00858545
0.0815147
0.210993
0.395961
0.0628698
0.00173566
0.00245088
0.00120589
0.0127313
0.007202
0.129325
0.289979
0.174561
0.00993436
0.00289882
0
0
0
0.00122649
0.0443497
0.256807
0.618681
0.0874317
0.0121496
0.000148865
0
0
0.00117727
0.00478506
0.117357
0.402249
0.0960122
0.00764435
0.00336153
0
0
0
0.0126504
0.112904
0.350698
0.240265
0.0580856
0
0
0
0.000168181
0.00131105
0.101103
0.430911
0.219884
0.0476054
0.0162364
0
0
0
0
0.0639263
0.282673
0.449429
0.0983827
0.00463278
0.00897844
0.00321595
0.00281366
0.0260255
0.0493695
0.185884
0.291988
0.0797504
0.0126015
0.0149641
0.00535992
0.00819781
0.0226383
0.0486122
0.139483
0.24992
0.106104
0.0284113
0
0
0
0.000824538
0.0194935
0.232499
0.432644
0.119279
0.0200513
0
0
0
0.00137423
0.00856035
0.180772
0.557224
0.26621
0.0929626
0.0157082
0.00786969
0.00646354
0.00718283
0.0170903
0.0393196
0.0952725
0.169541
0.142651
0.16007
0.0995955
0.104163
0.0267867
0.00254487
0
0.0111237
0.0956504
0.189211
0.0251047
0.00211534
0
0.00023719
0.00733536
0.0403193
0.266341
0.423713
0.423289
0.463194
0.0838994
0.0187671
0
0.000921159
0.000394783
0.0173651
0.243735
0.0573554
0.130319
0.0623245
0.0771084
0.0229374
0.00516512
0.0209585
0.00764675
0.0307623
0.120052
0.325737
0.186963
0.0532786
0.0198479
0.00757078
0.0564769
0.00458805
0.0827085
0.120162
0.45629
0.0655002
0.0139302
0
0.00042652
0.00241694
0
0.0164984
0.114482
0.665953
0.15369
0.0247219
0
0.000710866
0.00402824
0
0.0182777
0.0384859
0.209792
0.424157
0.078924
0.00485946
0.000966411
0.013412
0
0.0235174
0.00990178
0.0838728
0.475543
0.18327
0.00689158
0.00328895
0
0
0
0.0310532
0.333624
0.241044
0.0898932
0
9.07423e-005
0.000514206
0
0.00420545
0.0155575
0.242931
0.386375
0.164692
0.00102225
0
0
0
0
0.00445334
0.0831561
0.373347
0.267786
0.00797474
0.00505237
0
0
0
0.00166052
0.102949
0.354517
0.278466
0.0467733
0.00262511
0.00401828
0
0.00587463
0.0129766
0.127615
0.448406
0.284108
0.00364648
0
0
0
0
0.0394774
0.0309153
0.254906
0.27567
0.0431153
0.00790821
0.0154925
0
0.0219916
0.0236792
0.0922006
0.1856
0.275558
0.150567
0.0111601
0.0443414
0.0929117
0.0725903
0.0481237
0.0338442
0.0016699
0.0237572
0.0362711
0.0090452
0.0934697
0.477846
0.22446
0.119375
0.024737
0.0785435
0.129289
0.110525
0.0353142
0.0805596
0.0391258
0.191812
0.144357
0.0222664
0.0116893
0.0229378
0.0226155
0.0376323
0.108267
0.203315
0.275592
0.057211
0.0190913
0.0170469
0.0301144
0.0816682
0.09473
0.0691387
0.0946432
0.0703004
0.115842
0.0182414
0.0574504
0.027732
0.10403
0.277314
0.0929188
0.101704
0.178892
0.187416
0.134765
0.128666
0.106005
0.0247337
0.0536375
0.0784185
0.175616
0.0694594
0.297297
0.121351
0.0572992
0.0497784
0.159919
0.368318
0.279735
0.253253
0.19075
0.00980362
0.000776855
0.00738298
0.00263798
0.0304912
0.173899
0.204368
0.0153372
0.0200237
0.00146052
0
0.000856977
0.000856977
0.00597199
0.161313
0.704951
0.101628
0.0105601
0.0275688
0.0131765
0.00999806
0.00999806
0.0629913
0.1422
0.140481
0.0388854
0.0443072
0.0484585
0.0323944
0.0111789
0.00599884
0.0325036
0.0892612
0.433315
0.215775
0.0415478
0.0001527
0
0
0
0
0.0626272
0.350292
0.19927
0.0214856
0.0130762
0.0107295
0
0
0
0.0288374
0.201503
0.370868
0.0568726
0.0207002
0.012217
0.00400183
0
0.00422512
0.0284885
0.290136
0.390121
0.01391
0.049953
0.0350168
0.00057169
0
0
0.00967341
0.196511
0.51819
0.152042
0.0257846
0.0288516
0.00138482
0
0
0.00482468
0.206149
0.30076
0.0546839
0.0460936
0.0273972
0.00230803
0
0
0.0328403
0.228621
0.286902
0.10446
0.168548
0.222612
0.00969374
0
0
0.00447613
0.13943
0.253167
0.168203
0.482538
0.361588
0.0161562
0
0
0.0397572
0.185189
0.0960389
0.0978726
0.116723
0.0111708
0.000249929
0
0
0.0167681
0.0510565
0.0820602
0.128916
0.251939
0.165932
0.0193253
0
0
0.00160491
0.00293868
0.00611328
0.0892141
0.456331
0.0633746
0.0017495
0
0
0.0159635
0.0528901
0.0145093
0.137118
0.716315
0.0999267
0.00731893
0
0
0.000962944
0.00416413
0.000962373
0.123108
0.108391
0.27585
0.0357668
0
0
0
0
0
0.00637719
0.0552516
0.440998
0.0972529
0.00493687
0
0
0
0
0
0.459646
0.220502
0.0278801
0
0
0
0
0
0.0169066
0.352267
0.46948
0.109722
0
0
0
0
0
0.00041663
0.0202145
0.441504
0.177703
0.0324355
0
0
0
0
0.000936064
0.010773
0.328586
0.339366
0.0671157
0.00250823
0
0.00098775
0.00282442
0.00715272
0.212707
0.479166
0.160489
0
0
0
0
0.000365749
0.0226573
0.130875
0.256723
0.161919
0.0243826
0.00418038
0
0.00691425
0.024933
0.137815
0.025903
0.170501
0.487078
0.163522
0.0160616
0
0.0067928
0.0144273
0.00711761
0.136788
0.0875246
0.225084
0.131557
0.0230006
0.00990081
0.0146064
0.0180968
0.0566132
0.117625
0.085515
0.152836
0.0654541
0.0242664
0
0.0475496
0.108559
0.244177
0.41909
0.107849
0.0860665
0.0201794
0.0154773
0.00825697
0.0364376
0.127471
0.237826
0.120657
0.0544143
0.0325466
0.0344792
0.0182023
0.0238706
0.0168752
0.042575
0.159046
0.0720817
0.0375586
0.0139653
0.059662
0.0159653
0.0191684
0.0300594
0.140192
0.168688
0.500087
0.212098
0.0415587
0.0256392
0.016378
0.0265924
0.00270231
0.0464832
0.129198
0.479835
0.274027
0.0373161
0.0887739
0.0257057
0.0159554
0.0172875
0.059408
0.0851841
0.0980187
0.145889
0.191276
0.134495
0.046265
0.032615
0.037219
0.0358008
0.0147857
0.105526
0.0807373
0.0654204
0.0614828
0.16224
0.336057
0.421065
0.147126
0.0459224
0.136861
0.167324
0.145312
0.0518434
0.0812831
0.0680134
0.0150407
0.0132577
0.0704332
0.0773029
0.0737404
0.0605452
0.0431583
0.169247
0.217316
0.266726
0.222291
0.165876
0.0336558
0.0231215
0.00634084
0.00605446
0.0806288
0.16166
0.205374
0.133588
0.121156
0.11103
0.0809942
0.0268112
0.0091554
0.069814
0.085715
0.141718
0.200936
0.19571
0.0380229
0.0314658
0.00379108
0.00416838
0.0387359
0.0621746
0.191624
0.373411
0.24907
0.0509726
0.0352158
0.0139071
0.00920453
0.153405
0.212602
0.226134
0.383371
0.316495
0.0475101
0.0370802
0.0359908
0.0141942
0.0583647
0.0534135
0.171031
0.310049
0.0435185
0.0552331
0.0346749
0.0296549
0.0098285
0.0411927
0.0466871
0.184759
0.533924
0.236711
0.0150498
0.0210187
0.0388053
0.0302169
0.295252
0.263996
0.114034
0.0750241
0.0549601
0.0107866
0.0376326
0.0475743
0.0273139
0.220541
0.271847
0.139429
0.120403
0.0872596
0.155232
0.153459
0.00587687
0.000198834
0.013769
0.0475555
0.0379948
0.121257
0.15211
0.554725
0.297632
0.00540062
0
0.0142639
0.0433685
0.0252058
0.0100228
0.0782227
0.0625009
0.0680099
0.00471044
0.00139184
0.0328604
0.268781
0.129744
0.0401069
0.0553596
0.314531
0.14712
0
0
0.0643509
0.362481
0.21938
0.00310781
0.0251221
0.461883
0.0576074
0.000597634
0
0.00529829
0.00545102
0.00662083
0.000658675
0.103113
0.629382
0.0358791
0.000588098
0
0.000756898
0
0.000471437
0.000292273
0.11083
0.296692
0.0444857
0
0
0.0509892
0.0972058
0.0623244
0.000768848
0.0454639
0.402025
0.0295109
0
0
0.0141958
0.0220351
0.00361553
0.00296065
0.0923237
0.578203
0.105435
0.00387109
0
0
0
0
0.000561092
0.0330713
0.527429
0.229019
0.0191223
0
0
0
0.000453834
0.00391586
0.00853776
0.336779
0.0404698
0
0
0.000155729
0.00140156
0.000435666
0.00589965
0.0684309
0.302193
0.0618696
0
0
0
0
0.0062265
0.0508597
0.0402226
0.524419
0.269856
0.0442549
0
0
0
0.000888197
0.00836054
0.0563354
0.316431
0.0953052
0.032402
0.00358038
0.000982171
0
0.0045427
0.0547461
0.30331
0.332734
0.0773844
0.000253511
0
0
0
0.00841306
0.0786461
0.0808977
0.295917
0.104001
0.00177458
0
0
0
0.000888197
0.0563153
0.175995
0.172517
0.0285564
0.0094647
0.00435334
0.0032462
0
0.0172906
0.079091
0.327231
0.484883
0.0548735
0.0081202
0.000621905
0.00207045
0.00110456
0.0132499
0.06266
0.292466
0.218933
0.0954433
0.000793767
0
0
0
0
0.0617752
0.196873
0.348223
0.12535
0.00558215
0
0
0
0
0.0592392
0.274611
0.460729
0.0965162
0.00851985
0.00282851
0.00183424
0.00297819
0.000603142
0.0157132
0.100453
0.480788
0.12593
0.00928864
0.00994216
0.00287888
0.00178692
0.022927
0.00648446
0.0617486
0.286567
0.13712
0.00553695
0
0
0
0
0.0245708
0.129928
0.39258
0.148853
0.000790992
0
0
0
0.0137562
0.0128327
0.102474