0.168215
0.203348
0.0657693
0.0673604
0.125301
0.027594
0.0802437
0.0630243
0.086141
0.303022
0.18748
0.237078
0.18676
0.0631916
0.00346224
0.0578011
0.0374856
0.0631167
0.118812
0.189262
0.182102
0.083395
0.237103
0.0639124
0.0694473
0.0388246
0.0511857
0.200859
0.16379
0.301798
0.235556
0.10352
0.115198
0.0427267
0.0457378
0.0673374
0.0841631
0.0275551
0.0608954
0.0447321
0.00906037
0.00487001
0.0265229
0.00365715
0.0256121
0.0787317
0.0832154
0.100955
0.0305225
0.0057984
0.0274603
0.0285673
0.0127672
0.0241923
0.0469773
0.0753713
0.180988
0.0818199
0.012521
0.0197288
0.0233079
0.00368424
0.00829988
0.113977
0.656076
0.587993
0.0739715
0.00255195
0.0118712
0.0160313
0.0025651
0.00103346
0.0189437
0.129316
0.0676687
0.00764104
0.00863225
0.00825806
0.00490275
0.00880234
0.00565056
0.0349404
0.337136
0.122146
0.0389903
0.0128685
0.014567
0.00854343
0.00789772
0.00280644
0.0210666
0.504765
0.253267
0.00763954
0.00109002
0.00172429
0.000965149
0.000321717
8.3255e-005
0.0591456
0.65029
0.190636
0.00561077
0.00149739
0
8.49189e-005
2.83063e-005
4.9953e-005
0.088755
0.318168
0.150879
0.0297418
0.00265747
0.00905394
0.00999956
0.00977538
0.0264019
0.189994
0.188516
0.0741158
0.00219974
0.000410907
0.00796598
0.00276715
0.0589801
0.17128
0.175439
0.609496
0.0911503
0.00424882
0.000283325
0
0
0.00315931
0.0290148
0.372528
0.325906
0.0258692
0.000314249
0
0
0
0.0250501
0.143599
0.230014
0.0758735
0.00278567
0
0.000204946
0.00389395
0.00818169
0.125975
0.200921
0.290101
0.0237068
0
0
0
0
0.0375185
0.176831
0.334315
0.411924
0.111311
0.000176723
0
0
0
0.000504501
0.0640331
0.20147
0.42843
0.0104182
0
0
0
0
0.000840836
0.1032
0.369608
0.239031
0.0192368
0
0
0.00498564
0.00087982
0.030222
0.176144
0.333886
0.245759
0.0994074
0.0439677
0.0245909
0.0486184
0.0201947
0.0767156
0.238544
0.296902
0.242371
0.00569198
0
0
0
0
0.00229962
0.146779
0.33851
0.185693
0.0176598
0
0
0.00195985
0.0040487
0.0988892
0.301319
0.369875
0.090697
0.0317157
0.0753841
0.0302702
0.0362663
0.0292407
0.154157
0.102177
0.056799
0.0124347
0.00569345
0.106715
0.0305888
0.016187
0.0171176
0.21077
0.240194
0.0442178
0.0455058
0.00457692
0.00377943
0.000333833
0.00385404
0.00796176
0.256552
0.257546
0.0856461
0.00144449
0
0.00821306
0.00137668
0.00231243
0.00517574
0.403648
0.662758
0.0371171
0.0114494
0.0234586
0.0592135
0.0080906
0.00590929
0.00258798
0.0822945
0.220103
0.0967122
0.0640034
0.0871742
0.050563
0.023284
0.129325
0.0176873
0.0250167
0.144578
0.132746
0
0.00782004
0.0120065
0.00058808
0.00354558
0.0053106
0.359355
0.612927
0.0655955
0
0.02017
0.0162048
0.0291248
0.0810653
0.0751795
0.36149
0.318389
0.0417622
0.100106
0.0790601
0.0415021
0.111718
0.256436
0.0449075
0.00733821
0.0750262
0.0720878
0.265078
0.379866
0.227272
0.19821
0.200638
0.0429853
0.0055025
0.0521681
0.0593886
0.0664781
0.111778
0.0128448
0.054432
0.14577
0.098803
0.115994
0.133693
0.00674082
0.273046
0.46705
0.156451
0.0881382
0.105385
0.0391302
0.0190025
0.0441279
0.0232509
0.0427257
0.0610782
0.0971326
0.0233315
0.0712123
0.0276796
0.0209898
0.0397662
0.050658
0.0236075
0.0434329
0.148496
0.0382448
0.012575
0.108889
0.0434053
0.034424
0.0391656
0.0546223
0.0586534
0.129959
0.101659
0.0304125
0.0316573
0.0447692
0.127395
0.161892
0.0112326
0.0586051
0.793867
0.237521
0.0122998
0.16051
0.0419871
0.0409906
0.0462279
0.00305651
0.0544418
0.169481
0.0175467
0.000590289
0.0156441
0.00932773
0.00128002
0.00166442
0.0128876
0.325458
0.357003
0.0162624
6.45197e-005
0.000881678
0.0014547
0.000100748
0
0.000462122
0.0917516
0.509403
0.0603064
0.000980485
0.0230422
0.00822754
0.000559035
0.00102747
0
0.290103
0.566035
0.036577
7.21587e-005
0.00260913
0.000995379
0
0
0.00659672
0.337269
0.195735
0.00226458
0
0
3.908e-005
1.30267e-005
0
0.0326655
0.458749
0.0950106
0
0
0
0
0
0
0.000489237
0.276921
0.342869
0.0119517
6.89405e-005
0.00130986
0
0
0
0.0125712
0.53768
0.301042
0.00493141
0.00117602
0.000187123
0
0
0
0.0814664
0.312987
0.0201298
0
0
0
0
0.000108974
0.00186915
0.284281
0.248736
0.00366015
0
0
0
0
0.000981525
0.0232982
0.0944921
0.529333
0.111651
0.00168695
0.00313291
0
0
0.00158926
0.00170494
0.478045
0.408931
0.0114989
0.00101217
0.00187975
0
0
0.00264877
0.0449059
0.302471
0.0666889
0
0
0
0
0
0.00197286
0.101492
0.213411
0.00292854
0
0
0
0
0
0.0202629
0.316925
0.476167
0.0781137
0.00071823
0.000877836
0
0
0.00557364
0.00227172
0.206766
0.266409
0.0018603
0.00502761
0.00614485
0
0.00459877
0.0119577
0.0657942
0.582093
0.0601005
0.000879502
0
0
0
0
0.00110613
0.0915517
0.283278
0.0271098
0.00613852
0
0
0
0
0.0243549
0.236922
0.158881
0.0494788
0.000420336
0.00215116
0.00391226
0.00727066
0.0145393
0.0332461
0.253454
0.48403
0.0105499
0.00495742
0
0.00213843
0.0121178
0.00872357
0.0801958
0.643335
0.196678
0.0098864
0.00591646
0
0
0
0
0.0776878
0.234466
0.0376611
0.00123406
0.00229183
0
0
0
0.00189214
0.175057
0.373419
0.0200108
0.00618763
0.00762424
0
0.000336359
0.00190604
0
0.161637
0.585326
0.0318394
0.00205677
0.00381972
0
0
0
0.00396975
0.423111
0.384942
0.00702509
0
0
0
0
0
0.0057526
0.257394
0.281266
0.0144532
0
0
0
0.00216252
0.00175182
0.058655
0.366389
0.241611
0.00431366
0
0
0
0
0
0.0224194
0.366494
0.233953
0.00384489
0
0
0
0
0
0.17271
0.550933
0.248458
0.000939663
0.026568
0.044861
0.00763769
0.00935887
0.00547334
0.109583
0.273634
0.174123
0.0127911
0.110497
0.149313
0.0914328
0.0479438
0.00559873
0.03149
0.0581022
0.062815
0.0403425
0.0164968
0.0127342
0.00165008
0.0030313
0.00346006
0.284107
0.702825
0.151262
0.037647
0.103759
0.0769472
0.0331598
0.0701966
0.0408523
0.0992293
0.199075
0.11914
0.109327
0.0124293
0.0464262
0.0755874
0.0744927
0.00493609
0.00885415
0.0164001
0.0200267
0.0186316
0.0107359
0.0191841
0.427755
0.183545
0.00940858
0.0311776
0.00264708
0.00368068
0.00333461
0.00952201
0.0523176
0.125633
0.199485
0.0157902
0.0247782
0.0552031
0.015023
0.00589811
0.00644154
0.0150271
0.577
0.557646
0.0316146
0.0120026
0.0062524
0
0
0.00110127
0.042007
0.406935
0.0911681
0.00179151
0.00896177
0.000525265
2.9851e-005
8.95529e-005
0
0.0857673
0.464884
0.0562174
0.0026246
0.00339866
5.63391e-005
0
0
0.000660759
0.0125944
0.403277
0.220029
0.0115256
0.00499347
0
0
0
0
0.0217914
0.504147
0.285102
0.0225684
0.00429331
0
0
0
0.0013899
0.108221
0.340218
0.0244805
0.00108
0.00305683
0
0
0
0.017963
0.349686
0.344478
0.0182319
0.003269
0.00043669
0
0
0.00391786
0.00231651
0.0668376
0.489647
0.192746
0.0290259
0.00454649
0
0
0
0.0277371
0.20157
0.456035
0.210965
0.0721189
0.0130814
0.00355661
0
0.0209187
0.104105
0.482195
0.198444
0.0147488
0.0160768
0.00336382
0
0.00723542
0.0445157
0.394949
0.282371
0.0209267
0.00460809
0.0109606
0.00560637
0
0.0137175
0.109892
0.0901177
0.180007
0.30097
0.222321
0.0625823
0.0797515
0.01864
0.00434125
0.141325
0.222005
0.141646
0.114143
0.164272
0.102351
0.155952
0.0406841
0.0188448
0.188174
0.297708
0.0609462
0.00363035
0.00928393
0.0187804
0.0283767
0.0262272
0.0130806
0.167643
0.125237
0.00437918
0.0207257
0.071171
0.0711992
0.066866
0.0561394
0.0890997
0.328522
0.157251
0.0980861
0.0506811
0.118239
0.284478
0.0976549
0.102468
0.0358732
0.157047
0.0409499
0.0126172
0.0275733
0.281159
0.595807
0.117706
0.122153
0.0457791
0.102258
0.0167055
0
0.0133088
0.0772256
0.103205
0.0688647
0.0653727
0.202144
0.206284
0.00668396
0.000397076
0.00347097
0.0480501
0.104084
0.0390718
0.135077
0.505753
0.0860383
0.00720406
0.0125696
0.0468325
0.255363
0.434886
0.129646
0.0461325
0.0403532
0.0146941
0.0437588
0.0879871
0.0814285
0.151003
0.336442
0.142431
0.202543
0.140185
0.0361458
0.00179722
0.000673348
0.00100763
0.00617632
0.0074126
0.00249396
0.16009
0.318222
0.0269668
0.000217543
0.000404009
0.000604577
0.00241831
0.000545906
0.0230337
0.4863
0.232616
0.0109037
0.011689
0.0201928
0.0235753
0.0513349
0.0899246
0.0353279
0.211182
0.158969
0.0472745
0.00274413
0
0.00991586
0.0302435
0.0430656
0.136696
0.616962
0.176237
0.0428838
0
0
0
0
0.00150134
0.0440552
0.314481
0.0811281
0.00271073
0
0
0
0
0.000900804
0.131542
0.339924
0.0483254
0.00158789
0.000375736
0
0.000778249
0.000419057
0.00335016
0.245559
0.591516
0.0397059
0.00541921
0
0
0
0
0.00567686
0.341718
0.411363
0.0107674
0.000952733
0.00174908
0.00564452
0.00335985
0.00346945
0.00775207
0.220886
0.272804
0.0128937
0.00711935
0.0171308
0.0591174
0.032078
0.0424096
0.0313038
0.164908
0.0788747
0.0237814
0.0219508
0
0.00338671
0.00453725
0.00409755
0.0274131
0.574287
0.227577
0.00152964
0.00055204
0.02186
0.0352721
0.0348249
0.0312719
0.048265
0.592142
0.144606
0.044178
0.0353886
0.000760256
0.0325195
0.121873
0.189925
0.0121074
0.0248349
0.0493413
0.017655
0.00821444
0
0.0183387
0.267521
0.504631
0.0565731
0.00860219
0.00558207
0.000869504
0.000372645
0
0.0853484
0.320029
0.283359
0.0413135
0.0262749
0.0162432
0.0116126
0.00514837
0
0.0528471
0.278997
0.491034
0.200546
0.0299698
0.00414123
0.00284285
0.000621075
0
0.00206226
0.124021
0.23023
0.0554738
0.0106644
0
0
0
0
0.00255279
0.265137
0.440322
0.0793387
0.0070347
0
0
0
0
0.00577539
0.0388216
0.262633
0.218093
0.0116782
0.00541841
0.0029176
0
0.000124697
0.00864012
0.0967703
0.506711
0.472348
0.0167561
0.00325104
0.00175056
0
0.000354655
0.0154206
0.272763
0.340295
0.0995025
0.00530236
0
0
0
0.00424653
0.0384437
0.201533
0.296082
0.264147
0.0266665
0.0154874
0
0.00817076
0.000355571
0.0147561
0.0670135
0.3173
0.330288
0.0191935
0
0
0
0.00796343
0.0131747
0.0385992
0.22762
0.523651
0.0548055
0.0384255
0.015536
0.00836554
0.00820203
0.0230134
0.160606
0.290317
0.129257
0.0648731
0.0271802
0
0.0295538
0.02234
0.0276339
0.115645
0.241545
0.21809
0.196216
0.0445939
0.00304052
0.0309119
0.0094036
0.00524294
0.0636247
0.369248
0.351015
0.0544342
0.0526435
0.0188507
0.0101504
0.00134337
0.00295971
0.101634
0.29479
0.466028
0.225673
0.106864
0.00269296
0.00145005
0.0205754
0.0257084
0.0761577
0.13501
0.391723
0.168763
0.0948995
0.0177062
0.0317885
0.0260878
0.00332736
0.0414497
0.151859
0.514702
0.113943
0.110873
0.0609118
0.0424354
0.00878181
0.00716085
0.149893
0.101774
0.32861
0.272688
0.140674
0.020098
0.013425
0.133504
0.0160443
0.142176
0.062692
0.206802
0.184564
0.0910539
0.124183
0.132811
0.0222143
0.0137988
0.0625748
0.1229
0.22912
0.0801527
0.0274282
0.0185826
0.0176731
0.0223455
0.0965913
0.164825
0.249789
0.206956
0.120144
0.0748503
0.0186261
0.00667345
0.107655
0.0448835
0.163687
0.181201
0.108829
0.0443407
0.0193335
0.039449
0.0739657
0.0971799
0.19885
0.387449
0.607306
0.177443
0.0541837
0.0146165
0.0019659
0.00718456
0.00969818
0.0387169
0.0770105
0.239707
0.164372
0.0764066
0.110517
0.0374878
0.0223637
0.00308886
0
0.0257339
0.101038
0.0887471
0.255061
0.406411
0.0368266
0.0312487
0.0349123
0.07674
0.240463
0.51066
0.18866
0.0553456
0.0284438
0.002142
0.00579097
0.00259148
0.000808816
0.0456122
0.170885
0.159497
0.366927
0.127324
0.000306
0.00965162
0.000288059
0
0.0021237
0.00148667
0.018302
0.332635
0.236603
0.00363881
0.00271936
0
0
0
0
0.0486096
0.359164
0.140533
0.00119205
0
0.000241675
0.000205035
0.00228793
0.00493797
0.192271
0.483296
0.0640488
0.000102176
0.000900085
0
0
0
0.00168235
0.376305
0.462797
0.0346266
0.000715231
0
0
0
0.000548753
0.000548753
0.0716247
0.475667
0.115021
0.00845677
0
0.0671211
0.0337913
0.00413399
0.00384127
0.0455596
0.446139
0.169653
0.0876423
0.0435838
0
0
0
0.00439356
0.331753
0.366024
0.108814
0.0284123
0
0.0657671
0.136357
0.00204904
0.0279835
0.108587
0.253381
0.228521
0.169546
0.0173887
0.0166819
0.0342583
0.270555
0.352431
0.0912486
0.0294397
0.00967732
0.00163227
0.00580087
0.0100091
0.0212715
0.137073
0.354213
0.388423
0.0543859
0.0042868
0.00189019
0.00316073
0.0781121
0.0412821
0.107351
0.272083
0.111403
0.0854832
0.113651
0.0785984
0.0814453
0.0468673
0.0247692
0.0740687
0.219069
0.461305
0.123686
0.0461229
0.0163448
0.0371219
0
0.00207583
0.00712347
0.124684
0.273378
0.0290412
0.0052939
0.00285056
0
0.000121832
0.00456873
0.0068971
0.162057
0.503838
0.089751
0.0051892
0.00253269
0
0
0
0.00518506
0.044971
0.332302
0.140869
0.00387878
0.000664059
0
1.74046e-005
0.000330687
0.000698607
0.0328434
0.503838
0.428242
0.0101197
0.00161492
0
0.00056365
0.0153748
0.0116245
0.124652
0.448196
0.115811
0.00685793
0.00518572
7.26932e-005
0.0485934
0.0579949
0.00842342
0.135813
0.482519
0.110482
0.0248197
0.0365786
0.0154232
8.05214e-005
0.00152991
0.00323207
0.0225615
0.341196
0.424594
0.0312052
0.0221714
0.000508852
0.0713053
0.126704
0.034421
0.160413
0.213774
0.152196
0.0244864
0.109776
0.0170297
0.0891306
0.0831373
0.0131029
0.262271
0.287815
0.0581105
0.0402102
0.0314268
0.0168389
0.0712463
0.105606
0.0410384
0.207605
0.379943
0.137013
0.103347
0.00392298
0.00237574
0.213565
0.333376
0.0780645
0.218976
0.109081
0.0452716
0.015665
0.0452721
0.0275204
0.272592
0.369413
0.0753338
0.159148
0.207246
0.0556742
0.0247964
0.000560426
0.02479
0.0762819
0.0711683
0.128675
0.105037
0.291493
0.177744
0.15293
0.0156072
0.0354973
0.394744
0.0944516
0.132808
0.0549986
0.0458737
0.0879679
0.067511
0.0641239
0.170358
0.180078
0.148203
0.0620628
0.138349
0.229125
0.074395
0.0174824
0.0212658
0.0914891
0.50579
0.12107
0.0343681
0.0522501
0.051216
0.0278898
0.00739054
0.0354429
0.227013
0.186789
0.103635
0.146829
0.144855
0.0581533
0.00855865
0.00497059
0.0143736
0.055506
0.0966588
0.22662
0.452072
0.449469
0.178198
0.0310784
0.0637906
0.0104938
0.00387419
0.213157
0.118102
0.115948
0.0931251
0.0257222
0.0123163
0.00645499
0.00339458
0.0575408
0.0467265
0.0854456
0.285529
0.21823
0.132814
0.127233
0.208257
0.110039
0.0444703
0.035066
0.0841744
0.314509
0.316417
0.140885
0.0523938
0.118634
0.0235731
0.00607615
0.00924705
0.00380719
0.0524384
0.0915103
0.254692
0.237145
0.0689996
0.0145135
0.0101269
0.0118886
0.0137007
0.112225
0.0919564
0.102629
0.209297
0.408776
0.159309
0.0480128
0.00629146
0.00228431
0.0492508
0.18704
0.348764
0.215721
0.209058
0.0507628
0.0083739
0.000482857
0.000540399
0.00235178
0.0261542
0.302388
0.168768
0.00454859
0.000312067
0.000528801
0
0
0
0.0405733
0.500354
0.16105
0.00128082
0
0
0.000277569
0.000324239
0.0250057
0.248834
0.369663
0.0390705
0.00229441
0.000520112
8.65215e-005
0
0
0.0172551
0.303603
0.506656
0.0388132
0
0
0
0
0
0
0.0351403
0.315243
0.123182
0.0422638
0.00975271
0
0.0147088
0.119303
0.0272847
0.15309
0.115199
0.0824923
0.101906
0.0436728
0
0
0
0.0171856
0.266584
0.428189
0.0720322
0.010376
0.000702687
0
0.00519632
0.107889
0.107179
0.602944
0.312593
0.0665558
0.0217381
0.00510356
0.00585988
0.0511395
0.0250495
0.0193964
0.0482704
0.0827561
0.135582
0.180737
0.220071
0.136376
0.0304903
0.0142193
0.0285798
0.0449421
0.331808
0.341218
0.11073
0.044437
0.0527911
0.0122656
0.00257984
0.00428546
0.0512999
0.176357
0.175683
0.11039
0.125413
0.0575534
0.00250549
0
0.000427313
0.0355462
0.325924
0.544781
0.169608
0.0268396
0.00983655
0
0
0.00185307
0.00492336
0.156501
0.238177
0.0101007
0.000306871
0
0
0
0
0.0024145
0.213394
0.568959
0.0607498
0.000221623
0
0
0
0
0.0035401
0.0782108
0.280843
0.0569251
0.0116388
0.00314602
0
0
0
0.000505729
0.0625718
0.568959
0.270635
0.0181002
0.00524337
0
0
0
0.00984245
0.0955399
0.385508
0.107763
0.0207251
0.000162044
0.0139583
0.0716448
0.047441
0.282288
0.101218
0.0683643
0.0533463
0.0713831
0.00481982
0
0
0.00132146
0.0307314
0.0323915
0.401579
0.435134
0.0654318
0.000875009
0.0155452
0.0545141
0.0351247
0.407654
0.238842
0.124462
0.213032
0.107049
0.000533058
0.0694481
0.22285
0.0975647
0.348371
0.0910758
0.00855019
0.00288547
0.0236474
0.0142144
0.130848
0.199072
0.0733002
0.268782
0.10553
0.0278604
0.000397252
0.00357527
0.0235404
0.0515079
0.16618
0.0557336
0.486008
0.254974
0.0826216
0.0108124
0.0220002
0.00332327
0.104506
0.12245
0.0413631
0.427891
0.172427
0.0539712
0.0115102
0.0580395
0.0384888
0.205162
0.0745595
0.031917
0.123513
0.0531197
0.0289173
0.000672479
0.0156766
0.072785
0.459512
0.0466822
0.00786117
0.00686175
0.00761593
0.008849
9.60685e-005
0.0169051
0.156698
0.330052
0.0385566
0.0131961
0.140758
0.0561417
0.0241861
0.0101437
0.0687754
0.142023
0.556395
0.049548
0.00220562
0.000207075
0
0
0.000672479
0.0289898
0.339455
0.183386
0.0546981
0.0412133
0.0428492
0.0189129
0.0146523
0.0123703
0.00147024
0.0422799
0.0551765
0.0358389
0.109765
0.205851
0.0825424
0.0910421
0.0869371
0.0629902
0.121027
0.215337
0.0708959
0.0546104
0.165026
0.0334612
0.0146342
0.00731895
0.00482831
0.113882
0.0789533
0.0934391
0.206276
0.746824
0.205728
0.0582838
0.0742692
0.0103448
0.139342
0.00933576
0.00198645
0.0227922
0.0609181
0.153796
0.119733
0.0901721
0.0476116
0.0801666
0.00133368
0.00409886
0.0814712
0.211119
0.208963
0.104172
0.0471092
0.010154
0.0114524
0.00782871
0.0501438
0.118909
0.302726
0.34976
0.0768713
0.0472671
0.00713186
0.0820293
0.000800208
0.0434304
0.508424
0.402402
0.319276
0.0663364
0.00900278
0.00101884
0.0112412
0
0.00118466
0.112367
0.376634
0.116881
0.00943654
0.000781591
7.20635e-005
0
0
0
0.0738396
0.382912
0.217047
0.00477615
0
0
0
0.00283884
0.00780042
0.346232
0.456975
0.0327878
0.00456281
0
0
0.000149413
0.00473141
0.0267106
0.244157
0.431719
0.0771396
0.00191284
0
0
0.000249022
0
0
0.0431961
0.298799
0.17311
0.00857849
0
0
0
0.00275618
0.0298686
0.0705525
0.460607
0.201534
0.0113756
0
0.00777014
0.012311
0.000692093
0.0303413
0.197849
0.420052
0.112514
0.00562001
0
0
3.64261e-005
0.00438774
0.0436954
0.231358
0.500613
0.178077
0.0163052
0
0.00621059
0.00970937
0.00997901
0.001146
0.00434277
0.053057
0.0856933
0.0947251
0.0916765
0.0735449
0.0337578
0.00100084
9.3732e-005
0.000546261
0.0381954
0.124507
0.261741
0.354377
0.0458836
0.0113277
0.015269
0.0203255
0.0183715
0.0139269
0.0360076
0.0617132
0.146135
0.110659
0.0622996
0.00729313
0.00800668
0.0026245
0.00541103
0.016066
0.164332
0.755836
0.103726
0.0346197
0
0
0
0.00621327
0.0388221
0.182557
0.196797
0.0332304
0.00552162
0
0
0
0.00088761
0.0288998
0.380011
0.440553
0.0613397
0.0092027
0.000258746
0.000776237
0
0.00088761
0.00330268
0.0975607
0.486287
0.0491631
0.000788803
0
0
0
0.000126801
0.00892075
0.0949894
0.47179
0.144151
0.00726778
0
0
0.00223303
0.022428
0.00960895
0.181757
0.46983
0.0914852
0.00298992
0.0172689
0.020313
0.0168942
0.178654
0.0885431
0.145934
0.281013
0.162273
0.020024
0
0
0.000827968
0.00522499
0.00259778
0.0485506
0.424522
0.139878
0.0178109
0.00512081
0.00164453
0.00579577
0.036575
0.00716634
0.0666387
0.411101
0.342947
0.0684405
0.0901903
0.106089
0.0181785
0.240168
0.213729
0.241588
0.0481732
0.121087
0.0363645
0.144468
0.0658044
0.00769672
0.16807
0.175788
0.0948961
0.0411432
0.179624
0.127025
0.0267445
0.00858888
0.00409654
0.0258517
0.026767
0.122263
0.202315
0.474689
0.127163
0.0462328
0.00515333
0
0
0.0330855
0.0864398
0.24443
0.36342
0.199541
0.266953
0.00779328
0.00840575
0.0376883
0.0435953
0.0375074
0.0192281
0.097353
0.206642
0.360097
0.0565343
0.0192889
0.00472969
0.00285738
0.00970801
0.00296494
0.0558436
0.38626
0.114818
0.0250247
0.0110359
0.00472969
0.0371389
0.0979763
0.159146
0.161806
0.221649
0.415758
0.0887309
0.023345
0.00788281
0.0200017
0.0360528
0.0319836
0.0918879
0.35419
0.108686
0.0576969
0.0510686
0.109358
0.00936576
0.00174493
0.00235744
0.0217599
0.0932623
0.098293
0.208608
0.276258
0.408851
0.106309
0.00628485
0.0244621
0.0192376
0.0610749
0.206202
0.100765
0.0214355
0.0264091
0.000756325
0
0.00392907
0.0308695
0.0964314
0.238829
0.619635
0.237966
0.0680572
0.0196385
0
0.00235744
0.0310637
0.0469322
0.0276624
0.13726
0.168578
0.142774
0.108854
0.0134562
0.0114339
0.00131333
0.0127383
0.0103061
0.138108
0.488802
0.138988
0.0808102
0.0189921
0.00163341
4.24783e-005
0.000807085
0.0592036
0.380261
0.2212
0.0258151
0.0204726
0.00146458
0
0.00169331
0.0044445
0.0185287
0.371163
0.498469
0.0289048
0.0126385
0.00244096
0
0
0
0.00294655
0.0343377
0.372203
0.177773
0.00970844
0.00263275
0
0
0.000155082
0.00491091
0.0463706
0.356063
0.256381
0.013916
0.000730394
0
0
0.00025847
0.000420935
0.148425
0.460115
0.047272
0.00225669
0.000354063
0
0
2.21546e-005
0.000701559
0.0625584
0.540227
0.220587
0.00222868
0
0
0
3.69243e-005
0.000816029
0.051563
0.320604
0.353137
0.0328698
0.00360083
0.00224208
0.000435386
4.29491e-005
0.00851659
0.040579
0.251537
0.344464
0.0743053
0.0240242
0.00872841
0.0056887
0.00744458
0.000116576
0.0215674
0.565764
0.313453
0.0188599
0.00655497
0.0208332
0.0030477
6.13558e-006
0.0130274
0.0675354
0.219728
0.180845
0.0680133
0.0331402
0.0970693
0.00805734
0.00446675
0.0288496
0.0554636
0.0286482
0.0583731
0.0749678
0.0535113
0.080941
0.0393293
0.0410787
0.0174046
0.0574503
0.00930074
0.0290056
0.0270136
0.0725811
0.727144
0.156661
0.0309949
0.0144079
0.108099
0.171496
0.169636
0.0610472
0.0182606
0.011103
0.0128004
0.00950407
0.00715104
0.0700114
0.0717455
0.108687
0.0373748
0.0342643
0.395697
0.117895
0.0298972
0.000651558
0.00364478
0.000298255
0.000253804
1.33581e-005
0.0229587
0.422307
0.0654687
0.00202741
0
0
0
0
0
0.0191913
0.370426
0.125857
0.00679222
0.000390935
0.00464519
0.00290042
0.00253799
0.0102177
0.0365411
0.416322
0.0704752
0.00781453
0
0
0
0
0.00520474
0.0718024
0.610231
0.171086
0.00252779
0
0
0
0
0
0.023671
0.296464
0.16086
0.0399667
0
0
0
0
0.00156683
0.0130046
0.30758
0.414823
0.0783271
0
0
0
0
0.000314663
0.0512908
0.362826
0.326089
0.0377878
0
0
0
0
0
0.0104132
0.132239
0.477943
0.132586
0.000345732
0
0
0
0.00155074
0.00696644
0.131577
0.41649
0.084543
0.00972145
0
0
0
0.00331732
0.0215572
0.163554
0.391557
0.27811
0.00301109
0
0
0
0
0.000109069
0.0570164
0.345068
0.137974
0.0573545
0
0
0
0
0.00101503
0.0294426
0.352247
0.412134
0.0674738
0.00487513
0.000858686
0.000368008
0.00705074
0.0197723
0.0734539
0.123298
0.295638
0.404509
0.0430375
0.00143114
0.000613347
0.00423044
0.00641031
0.0155042
0.0464048
0.328185
0.139781
0.0062081
0.00215457
0
0
0.000446086
0.00916262
0.108156
0.382453
0.440722
0.0913951
0.0174717
0
0
3.01082e-005
0.00208378
0.0202287
0.373252
0.299378
0.149185
0.00314746
6.01894e-005
0
0
0.000470282
0.00568258
0.0677752
0.205077
0.567843
0.0719882
0
0
0
0.000282169
0.00371811
0.00783547
0.261153
0.216591
0.00575599
0
0
0
0
0.000754244
0.0794241
0.204715
0.526858
0.0217417
0
0
0
0
0.000239354
0.0240077
0.0343164
0.412287
0.148706
0
0
0
0
0.000325266
5.73999e-005
0.0115989
0.397916
0.363301
0.00152303
0
0
0
0
0
0.0873916
0.336277
0.068947
0
0
0
0
0
0.00482833
0.079316
0.467258
0.323894
0
0
0
0
0
0.000853725
0.00569343
0.180921
0.315681
0.00832885
0
0
0
0
0
0.000813348
0.101482
0.547483
0.120678
0.00222642
0
0
0.000553343
0.000830014
0.0259705
0.313908
0.369776
0.0035774
0.00129335
0
0
0
0
0.0164729
0.217869
0.449235
0.0569593
0.0104767
0.00166081
0
0.00104376
0.00596047
0
0.0295105
0.684276
0.327975
0.0432435
0.00982947
0.0230331
0.00599113
0.00543689
0.00465054
0.0695407
0.197919
0.145385
0.101667
0.0399668
0.123367
0.00611898
0.00326213
0.0121883
0.0726532
0.31783
0.183756
0.0468491
0.0127652
0.0113673
0.0104935
0.0248461
0.00735249
0.0687547
0.164044
0.208124
0.0772319
0.0192821
0.0536934
0.0210722
0.0125204
0.0198599
0.294885
0.352275
0.161389
0.0215023
0.0100735
0.0123828
0.00438923
0.00278031
0.00768609
0.0961283
0.192868
0.116399
0.0962745
0.0471233
0.193569
0.0494094
0.0276469
0.0255234
0.241795
0.285156
0.159334
0.124731
0.137296
0.0641208
0.0293432
0.0104865
0.042376
0.2234
0.231622
0.213486
0.100087
0.0406001
0.0692313
0.0394324
0.010214
0.00118679
0.0073673
0.00714622
0.00662338
0.0551124
0.0667995
0.262488
0.0626131
0.0112856
0.00326793
0
0
0.000466362
0.0282336
0.110316
0.631317
0.353196
0.0109711
0.00708254
0.0196481
0.0109714
0.0541888
0.040452
0.0241523
0.0810632
0.107492
0.0173539
0.0490395
0.00128321
0.000232555
0.00600047
0.0199626
0.0381553
0.276863
0.377728
0.0599914
0.00552678
0
0
0
0.000699714
0.0159894
0.200715
0.298646
0.0713042
0.00331607
0
0
0
0
0.00115286
0.0679259
0.431796
0.179057
0.0636406
0.00217019
0
0
0.000419829
0.00430642
0.110493
0.266316
0.132297
0.0642602
0.00216444
0
0
0
0
0.061755
0.597558
0.286616
0.0015843
0
0
0
0
0
0.0221945
0.203167
0.141374
0.0242967
0
0
0
0
0
0.00431634
0.133573
0.247393
0.053517
0.00202434
0
0
0
0
0.0168962
0.328017
0.356682
0.126219
0.0012146
0
0
0
0
0.00134701
0.181316
0.700801
0.0779498
0.00536594
0.00186229
0
0
0
0
0.0748863
0.159909
0.156914
0.0499738
0.0151016
0
0
0
0
0.0167208
0.216233
0.248485
0.000766562
0.000266041
0
0
0
0
0.0773874
0.45985
0.40336
0.00739424
0.00215737
0
0
0
0
0.0140174
0.603838
0.11135
0.0868773
0.00609655
0
0
0
0
0.00114855
0.142865
0.252232
0.220015
0.00260275
0
0
0
0
0.000689127
0.090984
0.380335
0.0278974
0.000870936
0
0
0
0
0.0012248
0.319941
0.659677
0.236719
0.01151
0.00102082
0
0
0
0.00544904
0.159241
0.182238
0.280748
0.0166005
0
0
0
0
0
0.0149738
0.135871
0.499688
0.259334
0.00157431
0.000463645
0
0
0
0.00267644
0.266686
0.38746
0.0354143
0.0196832
0
0
0
0.00449912
0.0330273
0.152738
0.464782
0.134046
0.0358069
0.0152654
0.00308427
0.00820848
0.00303619
0.0127729
0.0622081
0.464606
0.573993
0.0102824
0.005594
0
0
0.00225165
0.00480812
0.0495795
0.222379
0.320407
0.0342513
0.0256944
0.0164075
0.00861185
0.0202384
0.0404233
0.0751397
0.20826
0.244439
0.0543951
0.0912459
0.00767582
0.0139222
0.0119538
0.021856
0.0398576
0.118285
0.150328
0.0888401
0.0993383
0.0389233
0.0341927
0.0797613
0.058445
0.0663839
0.0523065
0.0931981
0.0549603
0.0482272
0.0372309
0.0432894
0.0355893
0.0689335
0.0793682
0.0710486
0.140618
0.113753
0.0624184
0.0143254
0.0945906
0.0789913
0.051821
0.337151
0.267854
0.110203
0.0605818
0.0279055
0.0449636
0.0661461
0.0928248
0.0981267
0.548434
0.199041
0.122357
0.0270843
0.011851
0.00615798
0.160225
0.185116
0.333734