0.114473
0.0895623
0.0659104
0.0992283
0.0778756
0.0708571
0.0789862
0.0486085
0.0908227
0.178335
0.0813396
0.0452812
0.0286714
0.230321
0.160397
0.0917162
0.151372
0.113178
0.0734613
0.0372074
0.034428
0.0672571
0.15643
0.139885
0.324091
0.072659
0.0347428
0.159723
0.0487007
0.0522289
0.0352327
0.361668
0.270362
0.254347
0.194769
0.108362
0.123684
0.0534568
0.0174359
0.0177881
0.18269
0.167823
0.0931157
0.16731
0.0727926
0.27214
0.0855975
0.0288672
0.0442799
0.0267166
0.0768949
0.101776
0.158113
0.178387
0.106041
0.0676953
0.0648275
0.0287756
0.347015
0.178035
0.0734223
0.186137
0.0852062
0.172867
0.246081
0.110556
0.0423164
0.111449
0.0224891
0.0353522
0.148686
0.182858
0.102829
0.0754889
0.0536518
0.0662574
0.0218183
0.0853701
0.0751607
0.0531237
0.0893169
0.0339523
0.0439566
0.0819365
0.19189
0.135854
0.176471
0.112313
0.0921703
0.0337782
0.153857
0.145359
0.0856744
0.0577907
0.0278961
0.00639744
0.018076
0.0631624
0.214778
0.355452
0.18484
0.0725421
0.136012
0.166577
0.153735
0.0431846
0.10356
0.455057
0.0226163
0.0105338
0.0234822
0.0651046
0.0476668
0.0477679
0.0238576
0.0239352
0.0108229
0.0523797
0.0445402
0.0320378
0.0312647
0.0399048
0.022241
0.0226287
0.0313161
0.0440471
0.209574
0.257101
0.0536304
0.0290416
0.0510652
0.0710945
0.0132619
0.0475729
0.130543
0.556825
0.437777
0.0776126
0.00574274
0.0304564
0.0267241
0.00392959
0.0734569
0.438588
0.0252543
0.0290245
0.030072
0.00890631
0.0168918
0.00784056
0.016221
0.0190285
0.0314898
0.065398
0.0225305
0.0365237
0.0209086
0.0131486
0.018242
0.0124982
0.0129968
0.0623764
0.302862
0.0986187
0.025788
0.00509312
0.0107134
0.00334174
0.0022534
0.0470611
0.509539
0.324884
0.0295975
0.0250684
0.0217482
0.019479
0.0101616
0.00458802
0.079497
0.634099
0.13508
0.0424206
0.0241945
0.0119818
0.029124
0.0149927
0.00576497
0.0136882
0.0973377
0.102566
0.119917
0.0672639
0.0166095
0.0356643
0.0311753
0.00211181
0.037068
0.0576829
0.403523
0.0604407
0.0486919
0.0168609
0.0263831
0.00865946
0.00403507
0.176948
0.562268
0.228416
0.134278
0.201514
0.0527618
0.0243679
0.0477895
0.0207124
0.204114
0.302785
0.0593763
0.160584
0.106594
0.0844052
0.0535066
0.0398191
0.0349053
0.114139
0.0507072
0.0234226
0.0505435
0.12924
0.151381
0.157635
0.0266782
0.0601526
0.111817
0.0437677
0.0938658
0.143899
0.233379
0.191446
0.184399
0.143921
0.109991
0.189651
0.118218
0.143784
0.123282
0.112183
0.233572
0.353384
0.110545
0.164133
0.124768
0.131359
0.0133525
0.021532
0.0809916
0.0990732
0.0750873
0.0237596
0.0502272
0.0622652
0.0541035
0.0854849
0.14841
0.0471251
0.115247
0.0521106
0.0280511
0.140272
0.0903982
0.155865
0.119168
0.0431414
0.0764338
0.0811301
0.100681
0.0616024
0.156266
0.130131
0.184325
0.22548
0.165317
0.176696
0.101733
0.0188836
0.0354338
0.293133
0.179476
0.470459
0.101353
0.156405
0.0273272
0.0310989
0.0139575
0.0464154
0.0541935
0.131114
0.155517
0.13492
0.141893
0.0267403
0.0311114
0.0249268
0.154435
0.0284255
0.119555
0.15576
0.178803
0.286439
0.219716
0.0236744
0.000465392
0.0164379
0.0962574
0.109915
0.313648
0.269285
0.301893
0.21841
0.0552727
0.00693501
0.0862773
0.0419763
0.150737
0.157354
0.0496979
0.0439988
0.026064
0.0378922
0.084949
0.0436117
0.232278
0.114947
0.0957426
0.129802
0.0247983
0.0662437
0.0452421
0.127482
0.0880139
0.238038
0.321195
0.266016
0.0489071
0.0607555
0.124864
0.11411
0.0861776
0.0201335
0.0740345
0.0972646
0.130529
0.101444
0.0410585
0.113177
0.177102
0.040848
0.00956779
0.21576
0.270428
0.261662
0.0329304
0.051234
0.0482398
0.0267362
0.0710645
0.0220896
0.0199351
0.0761924
0.0481312
0.0743173
0.160474
0.0770525
0.0717308
0.0458986
0.00259787
0.000486874
0.023765
0.0220804
0.0188356
0.0530222
0.0853191
0.118479
0.0404433
0
0.0494479
0.0752443
0.0384671
0.163499
0.625025
0.475181
0.270658
0.0614192
0
0.0187211
0.0513218
0.0247382
0.037393
0.0401789
0.0449908
0.0283648
0.00327649
0
0.000577665
0.00445993
0.0180378
0.146182
0.203432
0.0757003
0.0196827
0.00414644
0.0050852
0.00257197
0.00982
0.0769901
0.0656421
0.293756
0.307962
0.0881139
0.00539386
0
0.000559075
0.00318431
0.00696565
0.255085
0.601677
0.479516
0.0916542
0.00182539
0
0.000137539
0.00108051
0.029609
0.107733
0.252016
0.0659771
0.00216295
0.00171677
0.0046267
0.00143793
0.00638107
0.0415698
0.26
0.290152
0.0589385
0.000674116
0.000448247
0.00130567
0.000190032
0.00758583
0.121015
0.180831
0.482684
0.215783
0.0163666
0
0
1.53869e-005
0.00033611
0.0129855
0.450954
0.412867
0.0951439
0.00507195
0
0
0
3.55596e-005
0.0410261
0.253021
0.0833809
0.0065842
0.00014209
5.90431e-005
0.00010512
0
0.00888984
0.252943
0.2037
0.00767434
0.000709209
0.000994627
0.00101245
0
0
0.0791288
0.400641
0.482595
0.126323
0.00352757
0
0
0
0
0.00255962
0.16584
0.362975
0.0113475
0
0
0
0
0
0.0941584
0.429855
0.134118
0.00367892
0.00427977
0.000989462
0.00105902
0
0.00248497
0.172983
0.291481
0.0630347
0.00700587
0.0176536
0.00574963
0.00423747
0.00680637
0.0316445
0.28786
0.191636
0.12707
0
0
0
0
0
0.0107394
0.298679
0.375772
0.022234
0
0
0
0.000587023
0.000689533
0.0970129
0.568116
0.31145
0.0117029
0.00851179
0.0132135
0.0149185
0.0359665
0.0167647
0.0817934
0.212735
0.10412
0.037409
0.0400516
0.0108456
0.022231
0.0645463
0.0145466
0.0817309
0.0541654
0.102585
0.00351103
0.00575083
0.000287328
0
0.00480107
0.0173356
0.241177
0.510341
0.288474
0.0203155
0.0485655
0.0490995
0.0171572
0.0217075
0.0586441
0.553177
0.265383
0.17197
0.0730628
0.034069
0.0370092
0.0642828
0.0765442
0.0287904
0.0521841
0.0158674
0.0814306
0.236268
0.125675
0.158127
0.0741018
0.0438422
0.026905
0.0580058
0.0377151
0.063372
0.0603399
0.0511899
0.116159
0.176569
0.158542
0.0664089
0.423835
0.0851744
0.0942361
0.365464
0.193883
0.289422
0.213606
0.186163
0.0422802
0.212961
0.219184
0.142211
0.200525
0.217629
0.224949
0.0185769
0.00638385
0.00777297
0.0469613
0.0400831
0.0531036
0.14235
0.224476
0.15923
0.0435359
0.0106211
0.00523057
0.0266459
0.0561639
0.0376455
0.404058
0.300294
0.214974
0.0696139
0.0572806
0.00655177
0.18249
0.211629
0.161968
0.234354
0.267835
0.122979
0.111195
0.0675972
0.0211403
0.0839319
0.0624042
0.100767
0.0324512
0.0554266
0.0748586
0.0503469
0.15127
0.0677994
0.0501273
0.0795358
0.0827162
0.111178
0.0943634
0.111636
0.158904
0.0555483
0.0246207
0.0836057
0.115253
0.126097
0.123718
0.0509203
0.0100885
0.0121334
0.168716
0.104142
0.0928175
0.2532
0.195011
0.319757
0.196229
0.235691
0.31707
0.0437697
0.0276521
0.0945339
0.195226
0.209369
0.00468521
0.0103633
0.0547102
0.0591072
0.00339024
0
0.00682733
0.00762997
0.00298962
0.0178381
0.219664
0.342384
0.138135
0.00438726
0
0.00473576
0.00808583
0.0020924
0.0114652
0.0213387
0.172428
0.237423
0.00641642
0
0.0044049
0.00593787
0.00455093
0.0127447
0.193034
0.62755
0.476813
0.033126
0
0.000676537
0.000856204
0
0.0221284
0.237942
0.2745
0.0582112
0.000612637
0
0.000298528
0.000894678
0.000446885
0.0633783
0.350892
0.357323
0.0550429
0.000154754
0
0
0
0.000786444
0.0213634
0.19867
0.463868
0.121419
0.00721279
0
4.26469e-005
6.39704e-005
0
0.0239442
0.269735
0.463868
0.0453067
0.0018206
0
0
0
0
0.0807862
0.364848
0.211489
0.0142831
0.000315971
0
0
0
0.001057
0.297699
0.374569
0.0537036
0.00348308
0.0022118
0
0.00165538
0.000643711
0.0079976
0.0487756
0.364158
0.402443
0.0223126
0.00886322
0
0
0
0.00665966
0.223421
0.397074
0.111889
0.0131591
0.0194734
0
0.0115877
0.0047105
0.1143
0.426682
0.146012
0.000783972
0.000329946
0.000989839
0
0.00201378
0.0051533
0.0976361
0.323792
0.0121467
0
0
0
0
0.000287682
0.129036
0.40006
0.292487
0.135023
0.0080896
0.00255582
0.0116065
0.00167141
0.03313
0.0210344
0.25653
0.1898
0.0126912
0.00214056
0.00971722
0.0481977
0.00872558
0.0550213
0.1572
0.456717
0.051731
0
0
0
0
0
0.00392224
0.289986
0.243794
0.0029825
0
0
0
0
0
0.0611448
0.471617
0.140337
0.0506212
0.019463
0.00196151
0.0154373
0.0277099
0.0078418
0.0211157
0.325224
0.227943
0.0451975
0.0269178
0.00275105
0.00921602
0.00419717
0.015845
0.225889
0.572998
0.0822697
0.000155338
0.000411006
2.16319e-005
0
0
0.00881659
0.139416
0.244096
0.0682712
0.00170923
0.00457762
0.009788
0.00256818
0.0011796
0.0494264
0.413195
0.14037
0.0275629
0.00604683
0.00445015
0.0026769
0.0017846
0
0.0202431
0.427978
0.321233
0.010281
0.00373198
0.00671094
0.000382415
0.000254943
0.000544263
0.088614
0.591161
0.139329
0.00184555
0.00592365
0.0100937
0.0193109
0.0283903
0.0339661
0.0643311
0.422619
0.0765748
0.0194586
0.0726825
0.0672543
0.0466827
0.037892
0.0616517
0.0422677
0.21746
0.109232
0.0825701
0.00228627
0.0112874
0.00087434
0.000752637
0.0135089
0.211443
0.588414
0.118473
0.00252518
0.0309087
0.0643716
0.0309066
0.00745095
0.072331
0.242678
0.388128
0.14626
0.0488593
0.335771
0.224885
0.0743008
0.0354672
0.0720111
0.0176567
0.139374
0.163621
0.278526
0.312683
0.203047
0.0465649
0.0474581
0.0468735
0.0147175
0.0384363
0.0683559
0.213536
0.153267
0.143321
0.134371
0.0383021
0.134782
0.153224
0.141414
0.168373
0.206023
0.179246
0.158631
0.152923
0.0335769
0.0924486
0.048118
0.00242863
0.0418038
0.174403
0.101976
0.0426019
0.0374415
0.0086265
0.0126134
0.0190429
0.0675222
0.123893
0.109577
0.237237
0.15735
0.191645
0.241949
0.00843154
0.0149878
0.0244448
0.0454825
0.158215
0.0582627
0.103365
0.0824209
0.0367797
0.0811052
0.108401
0.133761
0.129515
0.109987
0.133332
0.250712
0.331507
0.411981
0.189296
0.231756
0.161891
0.0491926
0.150807
0.0141628
0.0399434
0.151569
0.219927
0.00972429
0.000924716
0.00131103
0.00150441
0.0108057
0.0102011
0.1132
0.416731
0.369116
0.037058
0.000821108
0
0
0
0.00867956
0.0542566
0.158584
0.288275
0.0933015
0.024388
0.00956006
0
0.0113439
0.00548966
0.120818
0.433467
0.45789
0.116199
0.0312231
0.00271908
0
0
0.0231868
0.0851933
0.349119
0.161267
0.0158359
9.29203e-005
0
0
0
0.0339132
0.108795
0.503665
0.0942914
0.0328302
0.00514889
0
0
0
0.0124778
0.0553402
0.245899
0.394969
0.0732293
0.00817827
0.000836424
0
0
0.0189597
0.0264802
0.250425
0.45693
0.138255
0.0297057
0
0
0
0.0692614
0.215285
0.419805
0.0974421
0.121386
0.0213264
0
0
0.0140715
0.179512
0.239389
0.164733
0.0500675
0.0865424
0.0258382
0.0220979
0.00366927
0.22944
0.0364492
0.0729997
0.19368
0.343101
0.29758
0.0880555
0
0
0.00420327
0.105625
0.170171
0.295145
0.207827
0.187084
0.127749
0.0956306
0.000552926
0.0713112
0.161893
0.0797364
0.0591101
0.0283011
0.0404515
0.0252032
0.107884
0.0180288
0.360736
0.0848045
0.0329848
0.0959697
0.133316
0.207923
0.0560535
0.169603
0.0797893
0.260347
0.0900389
0.0774101
0.161636
0.164142
0.155283
0.190299
0.177613
0.0274269
0.0993187
0.0984946
0.082066
0.171905
0.297872
0.388263
0.17746
0.141241
0.188861
0.0960875
0.0849244
0.0555678
0.0345923
0.0990361
0.119665
0.0907159
0.0843531
0.111351
0.0641183
0.107756
0.0645818
0.0145236
0.0429524
0.0597208
0.127628
0.416998
0.286287
0.0181553
0.123199
0.148597
0.131201
0.109606
0.246929
0.17797
0.10577
0.077575
0.0517382
0.0698044
0.121922
0.182513
0.139234
0.368434
0.217656
0.34648
0.053547
0.00717791
0.00823038
0.00631794
0.00866425
0.00460574
0.0150138
0.0831113
0.370387
0.107551
0.00038059
0.00343084
0.00682302
0.00204033
0.000657962
0.00437984
0.2169
0.424446
0.0408785
0
0.00359586
0.0104234
0.0394774
0.0603341
0.136263
0.220873
0.202961
0.028035
0
0.00049012
0.00407039
0.00796589
0.0123109
0.0314634
0.587015
0.310601
0.0134962
0
0.00153371
0.0037357
9.85971e-005
0.00232046
0.0108554
0.269969
0.26374
0.0303432
0
0.000799421
0.00621162
0.00828798
0.0276032
0.0374745
0.33613
0.232286
0.0719768
0.0117777
0.000219102
0.000406903
0.00824106
0.031548
0.0444659
0.496507
0.212618
0.0111728
0
0.00326698
0.000171946
0.0137351
0.105888
0.159401
0.515323
0.140482
0.0167232
0.00325508
0.0252094
0.0259071
0.0444692
0.0853217
0.0768428
0.309294
0.152843
0.103265
0.0636402
0.118031
0.0470303
0.0663989
0.0279716
0.0652311
0.0459363
0.013289
0.0420364
0.111706
0.0722764
0.0163383
0.0155837
0.220573
0.243982
0.624621
0.123883
0.037742
0.0456542
0.244877
0.0265684
0.0190449
0.0805368
0.0623421
0.073319
0.0527609
0.102498
0.199242
0.00584944
0.0414871
0.0182382
0.0344525
0.144524
0.10098
0.124828
0.0308353
0.0351414
0.00904155
0.0486906
0.0629599
0.168528
0.31822
0.230229
0.226931
0.0284603
0.0432033
0.00956088
0.0305662
0.0176994
0.0263186
0.135234
0.13711
0.199153
0.0465436
0.09819
0.0102827
0.0219841
0.0261197
0.063268
0.553908
0.328142
0.206287
0.0634258
0.123657
0.000712658
0.0095151
0.0383786
0.210949
0.169241
0.0588399
0.0245437
0.00191266
0.00297576
0
0.0175498
0.16667
0.410906
0.249993
0.0870108
0.00825394
0
0
0.000329151
0.000401811
0.00241674
0.117205
0.326567
0.15974
0.0280643
0.00679469
0.00710345
0
0
0.0125323
0.222744
0.57259
0.263568
0.034675
0
0
0
0.00890711
0.0820426
0.403321
0.193241
0.0283491
0.00269639
0
0
0
0.000848143
0.026379
0.421968
0.209195
0.0425023
0.00433977
0.0101909
0
0
0
0.00644721
0.170545
0.503884
0.193086
0.0115918
0
0
0
0.0058533
0.0297119
0.15402
0.37435
0.166257
0.0090822
0.0169848
0
0.0267968
0.0544466
0.0880129
0.290146
0.210457
0.129203
0.0117999
0.0520057
0
0.0868671
0.132134
0.255777
0.245069
0.100031
0.191165
0.0960424
0.0312034
0.00361145
0.0517485
0.0628471
0.278691
0.127006
0.138522
0.165462
0.0209437
0.0912971
0.00462104
0.358163
0.232241
0.40712
0.143933
0.0440296
0.117342
0.054783
0.0597074
0.0412586
0.0514153
0.0564917
0.11206
0.110661
0.0969282
0.297499
0.172789
0.0499533
0.0077585
0.201381
0.0706266
0.0719341
0.082523
0.159413
0.190047
0.127437
0.307495
0.122847
0.33343
0.172171
0.0981104
0.0379739
0.027041
0.156965
0.153976
0.0329039
0.0858352
0.367541
0.139194
0.0401745
0
0.0268987
0.100518
0.171844
0.183775
0.253846
0.243012
0.191086
0.107771
0.0271144
0.0763648
0.0404849
0.0288127
0.095478
0.0952536
0.119648
0.263742
0.273838
0.246773
0.194152
0.0434166
0.0509765
0.00643532
0.0168596
0.250624
0.234186
0.0780893
0.00823563
0.00303629
0.0117193
0.11413
0.15068
0.132539
0.129893
0.448651
0.226171
0.156415
0.0507363
0.0653518
0.157769
0.143736
0.0213708
0.00617297
0.0417525
0.0781415
0.163089
0.133919
0.169281
0.0332932
0.0041102
0
0.000180434
0.00171558
0.010127
0.0351201
0.0784087
0.671299
0.149137
0.012566
0
0.0165892
0.0963061
0.0751494
0.133717
0.103618
0.120919
0.0298778
0.0197421
0
0.00355877
0.00435811
0.112565
0.282819
0.27228
0.373814
0.0492743
0.00658025
0
0
0
0.0220346
0.0333534
0.0939818
0.446988
0.145533
0.0345865
0
0.01129
0.0028006
0.0243031
0.0618419
0.224755
0.413638
0.0991964
0.0265742
0.0138314
0.00357313
0.00357313
0.210058
0.211961
0.21663
0.291936
0.0697239
0.0326677
0
0.0173116
0.0202616
0.108535
0.0944948
0.223185
0.333523
0.207356
0.0358043
0.0191751
0.0977173
0.0271465
0.00460335
0.0339859
0.125666
0.246884
0.0596429
0.0222103
0.0679088
0.267808
0.0363881
0.00271981
0.0137057
0.0247749
0.0268278
0.0219983
0.0316771
0.198082
0.149473
0.119851
0.0096893
0.0402973
0.104643
0.188367
0.220962
0.0572943
0.121093
0.514147
0.143225
0.00104007
0.0031202
0.00928581
0.0164892
0.0580515
0.102974
0.495908
0.00324072
0.0143292
0.0248496
0.0157918
0.0453015
0.0675721
0.086282
0.0667537
0.157051
0.0021694
0.0135909
0.0321182
0.00940242
0.438688
0.327207
0.0799206
0.0334505
0.115619
0.00577479
0.0105374
0.0717905
0.0987162
0.0763806
0.0337818
0.0238726
0.0509135
0.107206
0.000883652
0.00479576
0.0465182
0.05395
0.496323
0.454841
0.0416691
0.0206029
0.0502923
5.03323e-005
0.000454008
0.00150539
0.0274972
0.25656
0.21338
0.0370797
0.00578703
0.00420517
0
0.00764969
0.0114745
0.0471384
0.327453
0.371846
0.140176
0.00534353
0
4.54442e-005
0.000246635
0.00119813
0.00366948
0.242925
0.302434
0.099522
0.0124628
0.00120919
0
0.0127495
0.0191242
0.00410124
0.164629
0.45684
0.396767
0.0208156
0
0
0.00628003
0.00942004
0.0132817
0.264717
0.334726
0.0671497
0.00166907
0
0
0.00701142
0.0452264
0.0644425
0.221269
0.270595
0.0726333
0.00992882
0
0
0.0104667
0.0157001
0.000455664
0.0709911
0.424857
0.268801
0.00708673
0
0
0.00236871
0.0206954
0.0768055
0.143625
0.376615
0.442068
0.0244764
0
0.0107877
0.0299417
0.288998
0.159596
0.137258
0.0953162
0.0330912
0.0275688
0.0118318
0.192221
0.18793
0.379874
0.108165
0.060364
0.0600601
0.00917328
0.026349
0.0678997
0
0.00817292
0.102653
0.194935
0.274454
0.277787
0.248806
0.0323646
0.0280383
0.0833391
0.108416
0.16996
0.130852
0.17051
0.356612
0.149103
0.0625129
0.161548
0.204538
0.124816
0.0583757
0.0136321
0.00858101
0.0178782
0.0169099
0.00460264
0.16734
0.186698
0.0623593
0.00441108
0.00143943
0.00848971
0.0164744
0.07109
0.067513
0.372057
0.142667
0.0709412
0.0359477
0.0184982
0.019627
0.0829332
0.0586466
0.0391001
0.362959
0.227853
0.0449021
0.0255031
0.010076
0.0235107
0.0140269
0.0838421
0.0769095
0.641723
0.06462
0.0571933
0.0181489
0.00559647
0.0181572
0.0566159
0.244398
0.139657
0.165061
0.0180913
0.102049
0.0388481
0.0143109
0.101034
0.25484
0.328478
0.139981
0.0153212
0.110887
0.0588516
0.105082
0.0635768
0.135604
0.0814337
0.231669
0.0721519
0.219329
0.0145604
0.0449025
0.247812
0.194908
0.401124
0.32601
0.241402
0.0279112
0.0142583
0.00802868
0.0200772
0.0463134
0.069053
0.0828153
0.0890079
0.0368288
0.0142626
0.00128045
0.00570552
0.00458414
0.2108
0.385529
0.105127
0.0417623
0.000924718
0
0.000768272
0.00660227
0.0151092
0.304611
0.176744
0.148786
0.0878254
0.0228536
0.00203752
0.00213409
0.00529637
0.0183135
0.562297
0.492048
0.0379286
0.0120926
0
0
0.00128045
0.00753128
0.00753128
0.245184
0.304895
0.0720183
0.029884
0.0074126
0.00923954
0
0.0105112
0.00995623
0.163208
0.237598
0.0972231
0.0564104
0.0551859
0.0153992
0.0101665
0.00451877
0.020331
0.360237
0.437415
0.0509942
0.00560437
0.000710734
0.00131993
0
0.00878433
0.00691725
0.225337
0.523055
0.16985
0.00560969
0.00301174
0.00219989
0.00663807
0.058266
0.0454498
0.0774762
0.165354
0.0672464
0.0466336
0.112852
0.0475905
0.135945
0.194463
0.0524441
0.00824914
0.0126565
0.00406462
0.00407616
0.0456828
0.0997559
0.563346
0.0502383
0.012669
0.126503
0.33122
0.150199
0.00362965
0.00974685
0.0101989
0.124508
0.106936
0.0116893
0.0243858
0.0241442
0.0211864
0.000383108
0.00663589
0.0253995
0.52464
0.013491
0.0193149
0.0749899
0.125106
0.0838425
0.0162612
0.0466706
0.0601671
0.0507419
0.00747816
0.018517
0.0372336
0.0928703
0.477066
0.466552
0.0803713
0.0440017
0.0104376
0.0515607
0.037821
0.0232724
0.0765435
0.0715396
0.0940008
0.0571004
0.081592
0.112504
0.0385347
0.0351963
0.0558325
0.189862
0.237789
0.32484
0.113232
0.0523028
0.0494148
0.000141663
0.000566652
0.000744024
0.00376037
0.124994
0.240695
0.128489
0.0100288
0
0
0.00197874
0.0029681
0
0.0605424
0.357374
0.373141
0.0463637
0.00436502
0.00297525
0.0018083
0.00609389
0.0158707
0.0406631
0.149902
0.216459
0.0184308
0.00475501
0.00619764
0
0.000460015
0.000854315
0.00925699
0.215911
0.661515
0.101367
0.0145915
0
0.00166073
0.00249109
0
0.0125156
0.248804
0.253346
0.0569774
0.00372028
0
0.000237247
0.00281067
0.0306374
0.0337292
0.233083
0.513103
0.119696
0.00977543
0.0120401
0
0
0
0.0015152
0.147784
0.338536
0.132543
0.0185433
0.00722406
0
0.000350686
0.00315618
0.000708671
0.132563
0.409853
0.364046
0.0355118
0.000470847
0
0.00375784
0.0415823
0.0528299
0.144458
0.256023
0.131816
0.0510324
0.0311394
0.0243418
0.00798115
0.0195565
0.0370149
0.14963
0.176383
0.106376
0.185768
0.0027014
0
0.000381744
0.0034357
0.00145647
0.0432947
0.27051
0.480924
0.0787053
0.0365709
0.0127548
5.45348e-005
0.000490814
0.000873882
0.0203479
0.263182
0.510456
0.275428
0.0656937
0.0234602
0.00269441
0.00267158
0.00537123
0.0346712
0.0549194
0.0450954
0.300883
0.174905
0.0612518
0.0264541
0.00317428
0.00740664
0.00178725
0.0207258
0.027959
0.4297
0.112139
0.0122928
0
0
0
0.00261245
0.0789595
0.184508
0.402618
0.40527
0.0835311
0.019523
0
0
0
0.00660107
0.0416912
0.473608
0.111762
0.0901834
0.138449
0.0436476
0.0414101
0.0122278
0.0322188
0.016038
0.110234
0.0463041
0.18833
0.345183
0.153072
0.122566
0.0404681
0.0199022
0.00552314
0.00606187
0.27051
0.219006
0.143604
0.0174941
0.0013877
0.000747225
0.00745741
0.0066835
0.121862
0.134437
0.596769
0.389917
0.0513032
0.00661652
0.00124538
0.00447445
0.00298297
0.00877532
0.00756353
0.137063
0.35387
0.1402
0.0613173
0.015593
0.00138403
0
0.000299318
0.000538772
0.0858693
0.474007
0.225804
0.0087297
0.0184375
0
0
0.000179591
0.0245074
0.396739
0.307671
0.0495582
0.00423612
0.00169701
0
0
0
0.0130785
0.228814
0.399574
0.157995
0.00607311
0.0107965
0
0
0
0
0.0622703
0.361124
0.228725
0.0212005
0.00966862
0
0
0
0.000861471
0.0180254
0.246219
0.381728
0.112269
0.00163051
0
0.000205818
0.000538712
0.00232363
0.100056
0.497935
0.204148
0.00865555
0.00788894
0.000856626
0.00104699
0
0.00675432
0.0411551
0.416471
0.224444
0.0196674
0.00485704
0.00616744
0.00876964
0.00530313
0.0286377
0.0277884
0.179872
0.568331
0.325909
0.000936397
0.00473157
0.0218343
0.0488914
0.0893954
0.0254882
0.0396584
0.0565136
0.0804144
0.00104706
0.0104803
0.0452878
0.296841
0.0493264
0.0991443
0.257147
0.282111
0.0915844
0.0380618
0.0328086
0.0429451
0.0385002
0.0657241
0.0323666
0.036444
0.0446256
0.0557251
0.108876
0.0842579
0.0397622
0.0647656
0.0405087
0.0555129
0.0965699
0.103106
0.115852
0.191217
0.156588
0.0754573
0.100123
0.0731153
0.114682
0.172603
0.259746
0.106645
0.171524
0.0657405
0.0493308
0.0947221
0.0458479
0.0421927
0.128162
0.0806432
0.24993
0.0987344
0.209846
0.0563865
0.0931019
0.153268
0.229165
0.245519
0.159228
0.117735
0.0462431
0.0452452
0.0559164
0.147804
0.0180956
0.00986821
0.0131098
0.0212223
0.00891024
0.041279
0.170381
0.0357242
0.0306009
0.0160468
0.000321287
0.000851815
0.00459575
0.00749929
0.111304
0.798046
0.142004
0.0298829
0.0336704
0.0324613
0.0223619
0.0135136
0.0165024
0.00825434
0.0443337
0.0299791
0.0465314
0.0141351
0.00786422
0.0198461
0.0271559
0.0691158
0.0895892
0.389453
0.115773
0.0320166
0.0144587
0
0
0.000669094
0.00119658
0.0620118
0.37044
0.141778
0.017583
0.00867523
0
0
0
0
0.0331572
0.307607
0.369166
0.0187774
0.00230376
0.000443127
0.00314305
0.00578008
0.016983
0.0432522
0.288526
0.228802
0.0127937
0.00214399
0
0
0
0.00101186
0.00822483
0.346976
0.524774
0.0333491
0.00650196
0.000285556
0
0
0
0.00299377
0.20247
0.353293
0.032421
0.0259997
0.0019989
0
0
0
0
0.145496
0.457502
0.266197
0.00972762
0.0019989
0
0
0
0.000296478
0.203421
0.367882
0.0982473
0.0452091
0.0139923
0
0
0
0
0.0902795
0.303901
0.412303
0.100991
0.000648053
0
0
0
0
0.0267131
0.15453
0.364955
0.446129
0.0594278
0.00534987
0
0
0
0.00132856
0.0267802
0.313081
0.0984968
0.00453637
0
0
0
0
0.00505849
0.073111
0.408529
0.428059
0.0284937
0
0
0
0
0
0.0165997
0.314054
0.354019
0.206948
0.042835
0.000339948
0
0
0.000428701
0.0041957
0.0579276
0.148223
0.464953
0.195171
0.000566581
0
0
0.000714502
0.00285801
0.00218015
0.414995
0.124419
0.00846153
0
0
0
0.00300091
0.0156698
0.0578389
0.287167
0.443129
0.108102
0
0
0
0.00500151
0.0200061
0.00336538
0.0245966
0.361315
0.185552
0.00354543
0
0
9.65737e-005
0.000386295
0
0.0181011
0.330606
0.29692
0.0937937
0.00267736
0
0
0
0
0.0835841
0.470243
0.148079
0.000357091
0
0
0.000676016
0.00270407
0.000836177
0.0203951
0.495383
0.251957
0.0212037
0
0
0.00268422
0.00162468
0.00184235
0.00796609
0.211125
0.569314
0.317973
0.00893405
0.0212187
0.00187903
0.0022966
0
0.0288244
0.0549215
0.330289
0.206653
0.00682097
0.0448344
0.0145346
0.0227475
0.0121085
0.0189363
0.348223
0.275695
0.111511
0.00957019
0.021439
0.0192593
0.00995465
0.003688
0.0493734
0.068584
0.091694
0.09247
0.0352619
0.101731
0.0197076
0.0177356
0.0117501
0.0963693
0.124221
0.12429
0.100758
0.0146526
0.131201
0.0913572
0.0904729
0.0610728
0.0487305
0.0365646
0.0178325
0.095625
0.102378
0.287442
0.175041
0.0634248
0.0414879
0.0674546
0.0728341
0.105184
0.149975
0.0942284
0.280929
0.0871431
0.0978139
0.0505278
0.00558045
0.0222715
0.0708305
0.27888
0.250162
0.266541
0.25536
0.11554
0.0250762
0.0942957
0.0521005
0.0925333
0.099647
0.163383
0.0228598
0.0383153
0.0570358
0.0926396
0.179763
0.219888
0.171679
0.110301
0.0652376
0.026703
0.0328576
0.0574567
0.129044
0.089276
0.146053
0.179358
0.241095
0.0761527
0.106017
0.0107035
0.110569
0.17517
0.111792
0.231851
0.200409
0.20666
0.0112517
0.089432
0.0304506
0.199105
0.202121
0.114491
0.139311
0.141984
0.0410684
0.0394252
0.0459063
0.0850072
0.0925418
0.101454
0.0636799
0.053067
0.116553
0.0633513
0.238019
0.130561
0.320886
0.293807
0.0684522
0.0652973
0.140273
0.233887
0.086385
0.0177797
0.0980459
0.0567657
0.0952704
0.0949931
0.0725301
0.0576957
0.119887
0.0261593
0.0987982
0.169927
0.130247
0.161099
0.0833455
0.00312783
0.00166198
0.00787242
0.00706189
0.0383778
0.0366553
0.233604
0.25418
0.0325231
0.00679517
0
0
0
0.00517601
0.0182369
0.488173
0.539927
0.242719
0.009971
0.000923509
0.0116127
0.0224151
0.0277916
0.0248506
0.0798908
0.079465
0.0405338
0.0181073
0.00536395
0.0099531
0.047486
0.0203797
0.0108806
0.168046
0.180153
0.248634
0.0132306
0.00109514
0
0
0.000204177
0.00120022
0.131596
0.303356
0.253067
0.0634091
0.00766599
0
0
0
0
0.0517709
0.303298
0.547578
0.0206395
0.00497828
0.003515
0.00745241
0.00259372
0.00195667
0.060098
0.171111
0.194794
0.109307
0.0115494
0.00877423
0
0.00137418
0.000741925
0.0386842
0.199578
0.454016
0.159403
0.00225603
0
0
0
0
0.00410201
0.0557934
0.373387
0.514918
0.0324449
0
0
0
0
0
0.00471738
0.233246
0.203796
0.0090521
0.00187947
0
0.000148774
0
0.00297261
0.0341114
0.324631
0.481273
0.051986
0
0
0
0
0
0.00868706
0.217166
0.468524
0.169859
0.00356218
0
0
0
0.0015865
0.00705905
0.0405924
0.420155
0.452589
0.0204951
0
0.000719593
0.000588758
0.00291428
0.0164994
0.0179314
0.327017
0.200956
0.00865904
0
0
0
0.00429383
0.0105598
0.0504912
0.196378
0.293088
0.0230363
0.00409002
0.0118087
0.00560416
0.0104677
0.0331007
0.0475438
0.324173
0.61072
0.0909031
0.00259179
0.0148999
0.00722183
0.00282992
0.0300096
0.0341108
0.0752591
0.467774
0.178927
0.0334097
0.0351477
0.0190997
0.0192819
0.0241609
0.0179598
0.157083
0.141374
0.0276302
0.00914458
0.0816096
0.0434818
0.0246732
0.0651318
0.0719623
0.0562954
0.0601834
0.0367014
0.0517415
0.144126
0.0631544
0.0491234
0.0421988
0.0324186
0.0413107
0.278861
0.115762
0.0744805
0.0395545
0.0478891
0.142841
0.0630096
0.0402681
0.0711471
0.0602705
0.0694135
0.0710552
0.112833
0.161256
0.147763
0.104229
0.124101
0.0516212
0.0495603
0.0226471
0.102181
0.124162
0.0580516
0.161871
0.157553
0.0990432
0.0470322
0.0272335
0.0178757
0.0645245
0.0656054
0.0782056
0.28998
0.451578
0.304756
0.0275327
0.0331475
0.0827693
0.116624
0.137936
0.139466
0.0606791
0.103915
0.0549755
0.0382118
0.0174573
0.0629219
0.184644
0.210349
0.0985755
0.185172
0.109061
0.0413493
0.086154
0.0515711
0.02303
0.0710129
0.0808779
0.0517549
0.262817
0.340879
0.134239
0.300679
0.129275
0.0773519
0.106845
0.126725
0.0426686
0.20078
0.18332
0.170393