0.235505
0.108505
0.109983
0.0259972
0.0979207
0.113176
0.22897
0.0476443
0.0678048
0.077809
0.0116951
0.0348545
0.0950435
0.148104
0.183491
0.246788
0.0543332
0.0739272
0.266561
0.218294
0.24923
0.0817439
0.0740942
0.117338
0.114404
0.0562444
0.256551
0.15173
0.0736046
0.249331
0.322862
0.213455
0.198255
0.110431
0.0144319
0.10569
0.0501864
0.00933016
0.026787
0.127203
0.168563
0.175522
0.225032
0.145474
0.095466
0.0182194
0.0269986
0.0634417
0.0439857
0.125338
0.134926
0.23283
0.206179
0.118509
0.0342489
0.0660232
0.1728
0.373204
0.264554
0.257428
0.0649563
0.0598002
0.0689058
0.103567
0.13226
0.0707456
0.0900511
0.0659157
0.147439
0.139492
0.130034
0.177101
0.0235659
0.0191927
0.0317928
0.0100973
0.0540942
0.116234
0.273926
0.106354
0.0732547
0.0447462
0.0197867
0.0237157
0.00265171
0.0112471
0.26778
0.534153
0.144134
0.0857046
0.161879
0.107705
0.0445849
0.0155798
0.0110836
0.0969232
0.167456
0.0400308
0.0642788
0.242887
0.144654
0.0670328
0
0.00995039
0.195306
0.283189
0.10159
0.0799506
0.06164
0.133545
0.0144803
0.00611826
0.00847596
0.138493
0.206807
0.091685
0.0812723
0.0791101
0.332475
0.167745
0.0226176
0.0440109
0.043214
0.038046
0.0487642
0.060275
0.193895
0.141293
0.0159422
0
0.00152342
0.0494893
0.145121
0.12289
0.213812
0.546257
0.224949
0.0345924
0.00628848
0.0043384
0.000732885
0.0434644
0.0977714
0.260287
0.0359431
0.122503
0.087873
0.0193402
0.031295
0.00854688
0.00748036
0.018506
0.03842
0.0319398
0.0580723
0.0248777
0.0635647
0.102493
0.054964
0.0236768
0.034129
0.0723867
0.442004
0.057792
0.0210597
0.0110095
0.0140252
0.000651046
0.00825288
0.0491933
0.156247
0.423086
0.018206
0.00557316
0.0536015
0.0612207
0.0412527
0.00678937
0.127069
0.615494
0.0233458
0.0225383
0.0199648
0.053349
0.0885307
0.0711747
0.0292864
0.0298509
0.0382761
0.0594554
0.0561814
0.0357173
0.0263837
0.0776304
0.0700201
0.026633
0.0276602
0.0218815
0.154397
0.0362266
0.0100325
0.0288757
0.054925
0.0729623
0.00572632
0.148548
0.697618
0.0813107
0.0785192
0.0640285
0.0155082
0.0680394
0.0838622
0.0667081
0.188932
0.446137
0.06487
0.072559
0.0469939
0.0420528
0.102087
0.103518
0.0932938
0.105915
0.0419111
0.0705372
0.0381254
0.0705658
0.0590154
0.0177053
0.0788279
0.198538
0.185021
0.0633917
0.04534
0.0627362
0.0979964
0.0927237
0.0777232
0.179733
0.224107
0.336209
0.244068
0.132531
0.144867
0.187963
0.103019
0.10056
0.156875
0.142357
0.251916
0.0656946
0.165627
0.0607367
0.0735657
0.0486601
0.0168039
0.0400553
0.12099
0.111373
0.0705692
0.270278
0.0881573
0.0384717
0.0553096
0.0799119
0.0621057
0.0787777
0.239584
0.224843
0.176608
0.154509
0.12785
0.13571
0.134764
0.0510616
0.0360805
0.0688072
0.0262238
0.125931
0.0885262
0.0516343
0.207263
0.33964
0.257614
0.0771331
0.0511886
0.0133997
0.125315
0.0817954
0.0390154
0.0788892
0.0662004
0.067973
0.0771825
0.18605
0.116138
0.110513
0.0417791
0.0591915
0.146868
0.0423022
0.140907
0.131513
0.131645
0.107534
0.0202905
0.00995295
0.0234832
0.263458
0.267847
0.227531
0.0889765
0.0505447
0.015737
0.0695781
0
0.0371184
0.203554
0.283317
0.272507
0.0957149
0.111806
0.0640079
0.259612
0.208466
0.212129
0.093719
0.0754202
0.183128
0.0696982
0.0421644
0.20428
0.319069
0.165203
0.266088
0.264658
0.0990389
0.137845
0.0463266
0.0121427
0.0682001
0.04594
0.0475955
0.107397
0.0731663
0.121167
0.277838
0.115769
0.0425603
0.0497826
0.210399
0.207066
0.0836731
0.0792067
0.0564448
0.110712
0.135132
0.0752522
0.0519568
0.162221
0.144976
0.203316
0.245045
0.0940776
0.115055
0.0180276
0.0157349
0.0280682
0.124793
0.154144
0.0846536
0.101364
0.0599904
0.0770978
0.0239721
0.0294485
0.164255
0.27119
0.264001
0.101995
0.12914
0.083631
0.072644
0.0849588
0.0437889
0.0344649
0.159334
0.273044
0.249888
0.254096
0.195713
0.132249
0.0318489
0.0118889
0.0909478
0.035964
0.0473971
0.0243957
0.00336579
0.0026805
0.0181338
0.0083891
0.0049915
0.0340658
0.0752959
0.176484
0.112679
0
0.00181232
0.039783
0.0142293
0.0104257
0.0172603
0.0411504
0.25105
0.163278
0.0264113
0.0139057
0.0126744
0.00211652
0.0020583
0.0240543
0.0857389
0.717083
0.489413
0.001368
0.000258903
0.00941005
0.00238035
0.0015634
0.00753728
0.153434
0.1284
0.0436193
0.00185336
0.002038
0.00758559
0.00797215
0.0144054
0.0415745
0.400189
0.152916
0.00336113
0.00308893
0.00252731
0
0.00417052
0.012777
0.065004
0.216006
0.401616
0.225257
0.0129735
0.0174841
0.00217526
0.000252035
0.000922565
0.00889253
0.531055
0.378143
0.0828564
0.0216225
0.0290159
0.00125831
0
0.000553539
0.044899
0.310519
0.0875143
9.8226e-005
0.000566764
0.000369001
0
0.000605691
0.00525288
0.0512966
0.326018
0.0374418
0.00016371
0.00170171
0.000729305
0.001774
0.000156037
0.0314415
0.314684
0.406306
0.202686
0.026789
0.00226564
0.00304033
0.000131847
0
8.89172e-005
0.078667
0.466554
0.08632
0.0175434
0
0
0
0.00214424
0.0321333
0.42947
0.0852873
0.00615371
0.000951195
0.000617364
0.000875499
0.00258586
0.000836368
0.100166
0.35468
0.0176636
0.00755971
0.00650542
0.00102326
0.00264151
0.00714259
0.0262682
0.256595
0.286164
0.158936
0.00584232
0.000929232
0
0
0
0.0310828
0.169962
0.422855
0.0302575
0.00904467
0
0
0
0.000611835
0.150379
0.542043
0.309196
0.00162566
0.00199405
0.00391672
0.00293247
0.00254289
0.0157832
0.0448705
0.234579
0.0784694
0.00687766
0.00997697
0.00726051
0.00436404
0.00971785
0.0181751
0.0427264
0.187959
0.0209045
0.000978153
0.00350791
0
0
0.00013982
0.00204322
0.181548
0.568085
0.0943018
0.0024508
0.00189415
0
0.000222466
0.00120121
0.0056785
0.222287
0.646146
0.0562256
0.0336905
0.0430577
0.0120057
0.0217658
0.0275752
0.0186764
0.0345705
0.125642
0.0325463
0.0242977
0.0312104
0.00748554
0.030364
0.0497466
0.109721
0.0562992
0.0155271
0.0128931
0.0307427
0.0173439
0.00121947
0.00205824
0.0286048
0.0803983
0.383526
0.717449
0.104301
0.0334722
0.0171161
0.00203246
0.00240051
0.0871826
0.192076
0.28158
0.125265
0.0663033
0.00892148
0.00826222
0.0093864
0.0939799
0.11609
0.234976
0.174733
0.0433927
0.0130107
0.0514581
0.0133018
0.0114164
0.0635018
0.149998
0.168174
0.112089
0.136592
0.0423213
0.0445299
0.00470731
0.000815454
0.00546694
0.086936
0.222236
0.305838
0.12005
0.190157
0.265288
0.0472338
0.00120358
0.00308146
0.0252896
0.0605338
0.121513
0.217689
0.359123
0.00527947
0.039789
0.17312
0.108206
0.191642
0.212073
0.0869925
0.0494171
0.0276734
0.0767797
0.124265
0.0593066
0.033799
0.0847254
0.156896
0.140598
0.111558
0.0710828
0.123199
0.0893987
0.113648
0.186669
0.30917
0.241701
0.114699
0.172097
0.0777024
0.174611
0.0549122
0.0909148
0.0748908
0.233427
0.291251
0.17886
0.107212
0.0477399
0.0227695
0.0347068
0.0163186
0.0166682
0.0129417
0.0199682
0.0189991
0.0125134
0.0194826
0.0149949
0.0622609
0.210749
0.140705
0.0259887
0.0110597
0.00382008
0.00298023
0.0197199
0.0505084
0.0214669
0.111225
0.0746943
0.0214501
0.0439167
0.0338029
0.023795
0.0430264
0.0245305
0.0300821
0.85259
0.289621
0.00929693
0.00518946
0.0102247
0.0120259
0.0610978
0.00587523
0.122893
0.174621
0.0498204
0.00366522
0.00118012
4.40204e-005
0
0.0017809
0.0144807
0.373007
0.238215
0.0190556
0
0
0.000898567
0.00359427
0.000770959
0.00015608
0.0570275
0.475861
0.140012
0.00366844
0.000683543
0
0
0.00408664
0.0476281
0.386738
0.531499
0.138398
0.00455696
0.00113924
0.00149761
0.00599045
0.00939779
0.0425784
0.269742
0.155887
0.00927209
0.0135224
0.00124028
0.00244388
0.00977552
0.000801816
0.244048
0.229265
0.126297
0.00903762
0.0225374
0.00206713
0.00146633
0.00586531
0.00704781
0.0950767
0.406872
0.366009
0.0511294
0.00784983
0.00338865
0.00656335
0.0162925
0.0195913
0.300537
0.365948
0.41813
0.0292249
0.0120546
0.0186718
0.0198754
0.00977552
0.0819599
0.290974
0.124251
0.0322371
0.00102907
0.00256623
0.000235374
0
5.83956e-005
0.0392577
0.374829
0.0380267
0.0119879
0
0
0
0.00140821
0.023119
0.249289
0.380966
0.192597
0.0907463
0.00330108
0.00137261
0.00553661
0.00819301
0.00544743
0.174468
0.475344
0.047442
0.00491064
0.000194309
0.00110109
0.0132809
0.0253979
0.0902102
0.432459
0.14211
0.00346653
0.000673123
0
0
0
0.0354267
0.160256
0.244503
0.0199487
0.0178097
0
0
0
0
0.161604
0.454539
0.101942
0.157527
0.00196757
0.00876367
0.00153759
0.00325568
0.0144462
0.0481789
0.31558
0.306876
0.0369983
0.0132222
0.0144458
0.00194981
0.00195341
0.00206374
0.239785
0.551233
0.102761
0.00142061
0.00568242
0
0
0
0.00046246
0.146803
0.305525
0.0134509
0.000159466
0
0
0
0.00900366
0.0315391
0.185797
0.315995
0.0250707
0.00813579
0.00421872
0.0016956
0.0001884
0
0.0124835
0.316907
0.478281
0.0177879
0
0
0
0
0.0150061
0.135251
0.478281
0.35232
0.0202724
0.00144297
8.68824e-005
0
0
0.0203588
0.104047
0.246262
0.179564
0.0185221
0.00176129
0.000144804
0.00418697
0.00332531
0.0253769
0.130938
0.217667
0.042035
0.0125634
0
0
0
0
0.0219952
0.21587
0.52274
0.198163
0.00627238
0
0
0.00889252
0.00657292
0.00877341
0.339664
0.531046
0.123706
0.00452479
0.0194537
7.0882e-005
0.0176637
0.0137652
0.0231864
0.114393
0.129676
0.054051
0.0988304
0.0887745
0.0192436
0.0271008
0.0104417
0
0.00724787
0.0140366
0.0494315
0.168328
0.0139683
0
0.0498012
0.0359381
0.0464632
0.683735
0.475636
0.066289
0.0599874
0.0361063
0.0280727
0.0907509
0.051909
0.0458227
0.16059
0.102236
0.0351263
0.0905753
0.126169
0.0312315
0.0076829
0.0209065
0.0566404
0.0884274
0.223787
0.157528
0.0528447
0.0598691
0.0198904
0.0150067
0.068284
0.103769
0.112748
0.144404
0.0386021
0.0165465
0.159876
0.0302384
0.0582723
0.152183
0.152554
0.273474
0.482322
0.142326
0.0353648
0.0392012
0.0417427
0.039222
0.301414
0.325255
0.244092
0.23097
0.0375408
0.0118559
0.0310653
0.006951
0.0916801
0.137743
0.0261135
0.0116365
0.01284
0.0060102
0.0108331
0.0133915
0.00758858
0.501471
0.225825
0.0124055
0.000935652
0.00254755
0.00270523
0.0111314
0.0146378
0.0102068
0.0915893
0.346224
0.11145
0.0088269
0.00589109
0.0022918
0.00315075
0.00319876
0.00564449
0.34036
0.586795
0.0911747
0
9.70691e-005
3.23564e-005
0.000353611
4.43609e-005
0.0103396
0.335658
0.0876612
0.00706615
0.00143551
0
0
0.000960077
0.0224124
0.115657
0.464171
0.148028
0.0153097
0.0124904
0.000156587
0.00062635
0.0134324
0
0.00584359
0.278822
0.30902
0.0279718
0.000861307
0
0
0
0.00256535
0.0150952
0.464171
0.432126
0.0699259
0.0193449
0
0
0.00746745
0.0747434
0.207002
0.336844
0.128897
0.0555223
0.0405503
0.0032002
0.00232004
0.0474442
0.188626
0.215867
0.186103
0.0861817
0.0787361
0.041876
0.0214844
0.010297
0.115527
0.0204991
0.0248841
0.306171
0.285512
0.344126
0.0864002
0.000374313
0
0.0276598
0.124285
0.147415
0.0862264
0.201704
0.465173
0.0814458
0.0221853
0.0148416
0.047613
0.268897
0.157225
0.0560091
0.0182807
0.0334283
0.0158491
0.0308782
0.0427306
0.278918
0.215038
0.0274951
0.00219586
0.0336751
0.141327
0.0679706
0.110393
0.146328
0.386617
0.129368
0.163017
0.08587
0.105174
0.233603
0.041597
0.0834963
0.0557245
0.0841232
0.0607902
0.0217442
0.0455445
0.161809
0.517676
0.136973
0.14446
0.0768321
0.128271
0.0494191
0.00768699
0.0331708
0.0573961
0.109692
0.0571532
0.0646965
0.165423
0.134111
0.0965746
0.0538089
0.0569062
0.0785213
0.0569015
0.0390865
0.180493
0.500222
0.044095
0.0504356
0.0261516
0.028441
0.154458
0.400535
0.121485
0.0430285
0.033555
0.101837
0.0969987
0.104098
0.069828
0.329106
0.399333
0.17868
0.0949773
0.0567403
0.0472561
0.0209672
0.0119566
0.00495072
0.00786268
0.0201575
0.0693495
0.276067
0.280291
0.0112082
0
0.000228741
0.000686223
0
0.0113478
0.170723
0.477386
0.175025
0.0053147
0.0155148
0.0196652
0.0145799
0.0931229
0.188057
0.14519
0.173217
0.0483654
0.00117928
0
0.00160119
0.00563529
0.0299535
0.0914583
0.407499
0.477386
0.0515567
0.000168469
0
0.000655955
0.00196786
0
0.00297753
0.143711
0.369431
0.102048
0.000590427
0
0.000393573
0.0024969
0.000886532
0.00863994
0.340434
0.279989
0.0580726
0.000248216
0
0.00459168
0.013775
0.00215555
0.0317523
0.421027
0.3675
0.0271915
0
0
0.00275501
0.00826503
0
0.103576
0.482166
0.171557
0.00766665
0
0.00738828
0
0.00545043
0.00413556
0.0260906
0.451532
0.181218
0.0125064
0.00216142
0.0146078
0.00320946
0.0130444
0.012918
0.0215187
0.12032
0.076338
0.0113927
0.00501431
0.00443297
0
0.00187287
0.00552925
0.19012
0.734143
0.130215
0.00693873
0.000233315
0.0134574
0.00656712
0.0259684
0.0439715
0.108844
0.24151
0.0587401
0.0111929
0.00593562
0.0229802
0.0417195
0.0332427
0.096914
0.0778529
0.102755
0.241646
0.0769996
0.0556505
0.00321094
0.00606869
0.0107633
0.161644
0.193277
0.147625
0.159898
0.0411303
0.0148318
0.0578302
0.113878
0.0635114
0.0385904
0.2544
0.225329
0.304007
0.189148
0.100683
0.00757248
0.00180315
0.0493899
0.190081
0.530141
0.280999
0.19579
0.0578642
0.0186425
0.00133203
0.00185162
0.0236977
0.230541
0.172725
0.0159895
0.00603875
0.00380051
0.00160401
0.000140412
0.000350291
0.0652806
0.472326
0.211534
0.0080161
0
0
0
0
0
0.00370775
0.217443
0.379899
0.047826
0.00475988
0.00224561
0.000962403
0.00170998
0
0.0112442
0.310904
0.540002
0.0915195
0
0
0.00170998
0
0.000507737
0.0754571
0.349524
0.113101
0.00588239
0
0
0
0
0.000304642
0.180813
0.416845
0.174972
0.00553905
0
0
0
0.0013568
0
0.0108925
0.217892
0.468501
0.0465842
0
0
0.0013568
0.000193828
0
0.0186721
0.284096
0.473746
0.0253709
0
0
0.000193828
0.00161723
0.000465636
0.127498
0.223251
0.405216
0.058592
0.0126125
0.0301884
0.00225504
0.0223816
0.052168
0.182059
0.204593
0.435843
0.0875486
0.0300879
0.0528442
0.0105738
0.00249651
0.0394117
0.0762193
0.191446
0.40255
0.0368984
0.0210209
0.0863945
0.0157852
0.11069
0.221581
0.24553
0.13937
0.194796
0.0477242
0.0350348
0.143991
0.0610123
0.0199874
0.0639483
0.136645
0.158509
0.282063
0.0661756
0.108026
0.0198166
0.00926888
0.0295055
0.0121568
0.0513372
0.111483
0.347446
0.164754
0.292749
0.0745198
0.130322
0.230075
0.175995
0.0977747
0.0886402
0.140729
0.0705748
0.142075
0.0424853
0.0796104
0.212291
0.074634
0.0129219
0.0317888
0.100448
0.132908
0.458838
0.189965
0.178434
0.101489
0.0539137
0.027761
0.0653808
0.188772
0.124477
0.0823118
0.0491738
0.221325
0.108589
0.145931
0.221327
0.301051
0.256184
0.110834
0.0117617
0.00617493
0.112733
0.14731
0.131089
0.0832598
0.0114686
0.0141284
0.0690334
0.207574
0.12011
0.218689
0.169468
0.399339
0.364828
0.110093
0.0295961
0.0417627
0.156469
0.091497
0.132849
0.00920282
0.041739
0.129027
0.183446
0.193888
0.0729224
0.0288714
0.00620695
0.00111269
7.47789e-005
0.00600915
0.0300099
0.0793139
0.229927
0.500249
0.188459
0.0109093
0
0.0244894
0.166382
0.186263
0.0941313
0.0706342
0.0534514
0.0547884
0.0181851
0.00463524
0.000523452
0.0297082
0.0432719
0.158579
0.557633
0.283745
0.0268082
0
0
0
0.00179554
0.00538661
0.00474769
0.179609
0.415872
0.102344
0.00158303
0
0
0.00107732
0.00504232
0.0173492
0.203552
0.387246
0.0662227
6.49715e-005
0
0
0
0.000255182
0.107619
0.494851
0.225431
0.0111529
0
0
0
0
0.0144587
0.169279
0.403446
0.199489
0.0211988
0
0
0.000561655
0
0.00633808
0.0550513
0.355994
0.431354
0.049447
0.000942783
0.000561655
0.0303018
0.00491807
0.0299129
0.0563114
0.252534
0.164017
0.0146717
0.00157131
0.0120424
0.00794227
0.00178486
0.0291711
0.321016
0.460786
0.198257
0.017374
0
0.00393159
0.157667
0.0339056
0.0204479
0.123381
0.310866
0.11264
0.0147995
0
0.0423186
0.109826
0.135177
0.276148
0.0542352
0.214531
0.13151
0.115402
0.0715808
0.0587594
0.0154102
0.0506586
0.211033
0.17544
0.448268
0.132285
0.058191
0.0212367
0.0192082
0.0749913
0.187163
0.42911
0.135956
0.0400685
0.0169168
0.031137
0.0362245
0.133517
0.0398751
0.0962619
0.237729
0.174536
0.19789
0.115661
0.0749485
0.0502013
0.0437199
0
0.0017145
0.00768966
0.0862021
0.297669
0.106515
0.0113495
0.00208023
0.00291096
0.00470298
0
0.00280104
0.071663
0.424645
0.288893
0.0149813
0
0.00470298
0.00598821
0.00539151
0.0075804
0.0244624
0.237243
0.314399
0.0689752
0.00924691
0.00614379
0.00282179
0
0.000504635
0.00718185
0.240249
0.564223
0.17493
0.0111165
0.00282179
0.00345172
0
0.0020558
0.0297437
0.319585
0.166048
0.018209
0
0.00345172
0.000493102
0
0.00244738
0.0903118
0.419681
0.155592
0.0266878
0
0.000493102
0.00207103
0
0.000293686
0.00141348
0.12028
0.408428
0.209558
0.022178
0.00207103
0.000295861
0.00245035
0.00132785
0.0615825
0.223133
0.421962
0.397729
0.0133068
0.000295861
0.00130717
0.0946075
0.0657842
0.211289
0.234975
0.0578273
0.0137043
0.0207054
0.00529576
0.102194
0.324754
0.177491
0.154148
0.110808
0.0151923
0.0053187
0.034509
0.0462509
0.000325879
0.090632
0.0357448
0.219421
0.304748
0.288923
0.224095
0.0736831
0.0120625
0.0537834
0.199905
0.135737
0.295803
0.331354
0.136051
0.0386689
0.235263
0.113652
0.235537
0.148232
0.0761273
0.0221161
0.0392711
0.0131803
0.0216793
0.0158823
0.147647
0.217082
0.060423
0.0165319
0.000778784
0.0105352
0.0223395
0.0907568
0.0964694
0.320082
0.177364
0.0589199
0.0902912
0.0821354
0.143247
0.0410785
0.0201471
0.14553
0.2889
0.282676
0.0393355
0.0186015
0.00532207
0.049023
0.0276885
0.0349401
0.146009
0.612577
0.0973581
0.0831239
0.0338893
0
0.0220195
0.0535966
0.152433
0.086999
0.194184
0.0840791
0.131712
0.0643455
0.00857837
0.0527797
0.170141
0.343169
0.152884
0.103548
0.176667
0.0974262
0.0305168
0.012619
0.0915477
0.101221
0.235189
0.078575
0.29924
0.106885
0.0778641
0.0806415
0.128285
0.216876
0.258765
0.488607
0.0793751
0.158766
0.0103618
0.0511672
0.0282798
0.024694
0.0670086
0.131845
0.114542
0.0366908
0.00880165
0.000176759
0.00996373
0.0242424
0.327675
0.365074
0.0746892
0.0159229
0
0
0.0208082
0.0131721
0.152783
0.136546
0.187692
0.15739
0.109028
0.0197043
0.0299397
0.00430354
0.0171177
0.454028
0.539607
0.207021
0.0523729
0.00724586
0
0
0
4.26417e-005
0.0129178
0.296656
0.348262
0.0220713
0.000893007
0
0
0
0
0.0249248
0.290371
0.249912
0.0237425
0
0
0
0
0.018284
0.243118
0.484051
0.129478
0.00112099
0.000187312
0
0
0
0.0105647
0.16564
0.484051
0.148028
0
0
0
0
0.00586039
0.0128383
0.0416045
0.409653
0.262727
0.0347202
0.00265594
0.00158809
0.00226401
0.097396
0.0704414
0.0373024
0.126818
0.119055
0.0370552
0.0185916
0.0139053
0.053447
0.00776314
0.0451883
0.133193
0.693881
0.1979
0.00154885
0.00391444
0.00633975
0.0083269
0.0426588
0.0973527
0.059881
0.180643
0.0457742
0.00258142
0.0274011
0.054669
0.185189
0.120035
0.143654
0.369383
0.208966
0.0758827
0.0651928
0.0461724
0.0575084
0.263809
0.167558
0.0994868
0.133013
0.195377
0.232175
0.217438
0.091019
0.0970116
0.094486
0.174354
0.131814
0.187654
0.196467
0.120113
0.169802
0.0859815
0.0175917
0.092017
0.135283
0.0523273
0.0509381
0.0747993
0.104288
0.187244
0.0642651
0.0569248
0.14087
0.008405
0.00391485
0.00419266
0.0093293
0.0884834
0.230664
0.0784172
0.00520623
0.00348161
0
0.000113496
0.000532935
0.00115833
0.0727236
0.518382
0.32234
0.0544053
0.000162418
0.00625754
0.00260557
0.00440269
0.00288652
0.0462256
0.169063
0.0874395
0.0114052
0.0175557
0
0.000189159
0.000602239
0.00182471
0.0644485
0.433123
0.511752
0.0895366
0.00307336
0
0
0
0
0.0164228
0.239416
0.280232
0.0888248
0
0
0.00651589
0.00162897
0.00989512
0.0367346
0.253969
0.458487
0.085572
0.00342077
0
0
0
0.00312074
0.0263032
0.2112
0.384605
0.123352
0.00605202
0
0.00390953
0.000977384
0.00187245
0.0152719
0.15307
0.458487
0.290701
0.015788
0.00315216
0.024594
0.0065166
0.0234307
0.061174
0.145678
0.266114
0.138883
0.0304288
0.0114039
0.0207688
0.0128518
0.0593678
0.0723782
0.0564532
0.0797147
0.267132
0.150487
0.00525359
0.0121061
0.00302653
0
0.00197166
0.0435034
0.427774
0.416383
0.040561
0.0341269
0.00726367
0.00181592
0.00555393
0.000796679
0.00583995
0.287511
0.462002
0.255682
0.0490305
0.00260512
0.00873621
0.0292403
0.0348715
0.0113851
0.0448052
0.140557
0.25226
0.181966
0.0184508
0.00513774
0.00788646
0.013587
0.00570113
0.0204227
0.0741673
0.387772
0.0737363
0
0
0.00629855
0
0
0.0821306
0.166511
0.490601
0.335061
0.0153011
0.00236611
0.00444895
0
0
0.0106461
0.0574989
0.521373
0.20068
0.0886735
0.0320733
0.0299202
0.0253394
0.0215804
0.0540484
0.0256956
0.188963
0.109365
0.160855
0.100177
0.136562
0.0922123
0.0564881
0.0948764
0.00182667
0.112522
0.453792
0.137064
0.026923
0.018476
0
0.0239638
0.00126126
0.0169979
0.271735
0.235139
0.586466
0.175503
0.0641801
0.0216427
0.0515588
0.0021021
0.00205569
0.118766
0.0241068
0.0894835
0.210297
0.083043
0.0698782
0.0279484
0.0124016
0
0.029945
0.0127831
0.103407
0.480703
0.219081
0.0460358
0.00562121
0.000216483
0
0.0018265
0.0290359
0.426579
0.276802
0.0296487
0.0152819
0.0119597
0.000199855
0.00144414
0.0309171
0.0323735
0.304782
0.480703
0.0838951
0.0169171
0.00116607
0
0.000206305
0.00366308
0.010379
0.0997585
0.358984
0.234071
0.0351904
0
0
0
0
0.00622738
0.0468502
0.272726
0.383802
0.0573736
0.000223892
0
0
0
0.0273253
0.190398
0.44493
0.110139
0.0212033
0
0
0
0
0.0127457
0.0931137
0.464647
0.234638
0.0302949
0.00286058
0.00136137
0.000421015
0
0.012566
0.0409318
0.202374
0.689377
0.137618
0.00296595
0.000716063
0.00376418
0.00777877
0.0580714
0.0730929
0.0285535
0.151473
0.0410502
0.010886
0.00823327
0.0300981
0.135563
0.00644344
0.0298796
0.326859
0.414585
0.0972812
0.0187122
0.0119887
0.00935799
0.0156124
0.0429761
0.0418018
0.018592
0.0689883
0.0496982
0.0303555
0.0315102
0.0294262
0.0591095
0.178839
0.147322
0.0918907
0.160423
0.0828983
0.193316
0.083868
0.0212293
0.0619347
0.0595632
0.0260044
0.0452666
0.0589738
0.0713442
0.213232
0.201576
0.0736216
0.116076
0.11334
0.235779
0.157068
0.324384
0.065288
0.11128
0.0857761
0.0911048
0.0373352
0.0673236
0.196597
0.308658
0.105506
0.0331944
0.169095
0.222722
0.197726
0.0854347
0.00932646
0.00365412
0.0157434
0.00184617
0.0600664
0.0987277
0.0935604
0.0369986
0.0402684
0.0168354
0.00354022
0.0198204
0.00332361
0.09569
0.452895
0.614877
0.213783
0.0153281
0.0150262
0.0283204
0.06401
0.0138237
0.0243517
0.0307968
0.0603099
0.0396874
0.0312858
0.0983752
0.0245944
0.0543897
0.0468538
0.0612682
0.128722
0.335403
0.289687
0.0476344
0.00514707
0.00019068
0.00108052
0.00367468
0.0245102
0.14805
0.247835
0.151641
0.0371858
0.000735296
0
0
0.00220481
0.0124939
0.0613694
0.415041
0.363468
0.0722568
0.036756
0.00433732
0.00367108
0.00820493
0.0168239
0.0451259
0.137152
0.33597
0.0788165
0.00624638
0.00195673
0.000102986
0.000614192
0.00359187
0.0210607
0.335849
0.50529
0.133981
0.000580125
0
0
0
0
0.00976516
0.28985
0.292959
0.029856
0.0108816
0
0
0
0
0.000988245
0.19197
0.376222
0.188292
0.000117438
0
0
0
0
0.00913127
0.246607
0.412051
0.136031
0.00869941
0
0
0
0
0.00128983
0.0954407
0.428357
0.36189
0.0528071
0
0
0
0
0
0.0314899
0.144885
0.354248
0.346473
0.0176851
0
0
0
0
0
0.0235833
0.357239
0.0620619
0
0
0
0
0
0.00704063
0.232314
0.39557
0.394503
0.0236137
0
0
0
0
0
0.0547647
0.428479
0.362817
0.115891
0.00777391
0.000141327
0
0.00591008
0.000311058
0.00214886
0.0884458
0.191221
0.457257
0.0951395
0.00889876
0
0.00985013
0.00051843
0.00374614
0.0288304
0.419734
0.13723
0.0158448
0
0
0
0
0.000510437
0.10391
0.34524
0.457257
0.107302
0.00474568
0
0
0
0.00224768
0.0145454
0.0380197
0.398766
0.199191
0.0242207
0
0.00147675
7.77242e-005
0.00414991
0.0164225
0.0534336
0.292883
0.315768
0.0737563
0.00393039
0
0
0.000592845
0.00227208
0.12403
0.432102
0.24729
0.0142905
0
0
0
0.00248995
0.0103128
0.0461945
0.425072
0.325493
0.0744324
0.00195018
0.00179358
9.43992e-005
0.000355707
0.00426571
0.0571453
0.309018
0.475297
0.165134
0.0201548
0.000870644
0.00130597
0
0.0002049
0.0181666
0.184602
0.416974
0.167807
0.0390155
0.0179324
0.0120596
0.00080273
0.0014343
0.0484835
0.339361
0.355084
0.182047
0.0260979
0.00585746
0.00402575
0
0.0171221
0.0406758
0.149472
0.145172
0.0815308
0.0369171
0.0263316
0.0305149
0.00600909
0.0212287
0.02948
0.123656
0.46741
0.378232
0.130876
0.104221
0.0851651
0.0282189
0.0470024
0.0583807
0.0847175
0.0653265
0.0851239
0.0881837
0.0806569
0.124748
0.0814526
0.121739
0.109943
0.182511
0.105393
0.0491181
0.0628802
0.10461
0.122265
0.0596282
0.0455157
0.047582
0.132097
0.0923707
0.0897674
0.104328
0.153427
0.167161
0.0505637
0.0273895
0.0235693
0.182224
0.135993
0.186259
0.0142198
0.00255075
0.00739781
0.0221965
0.00139651
0.0483624
0.292731
0.206326
0.0693785
0.0195951
0.00974794
0.0411625
0.0692072
0.0156409
0.0075699
0.195451
0.276917
0.15863
0.0110056
0.00964169
0.0211653
0.00538878
0.000199502
0.100914
0.535335
0.394793
0.154362
0.0305783
0.00515503
0.0378774
0.0166104
0.00253351
0.0965953
0.258808
0.169697
0.0449176
0.0198363
0.0187381
0.0778631
0.0450717
0.0178818
0.145476
0.157202
0.212096
0.173693
0.124406
0.0353614
0.129753
0.175341
0.0527972
0.194633
0.421282
0.175508
0.101753
0.0933679
0.0434533
0.112874
0.0340541
0.00763566
0.0756485
0.149098
0.344026
0.169237
0.154443
0.0727067
0.0863201
0.0279583
0.00894354
0.0332748
0.0306241
0.0334436
0.0305279
0.0363002
0.00552313
0.0417263
0.260673
0.0735591
0.012004
0.0206605
0.00802746
0.00266009
0.00626215
0.00379729
0.196976
0.816494
0.158261
0.00969717
0.0330542
0.0705546
0.0333494
0.0438491
0.0112736
0.00329163
0.0290979
0.0257437
0.0315724
0.0358035
0.017055
0.00706546
0.0179485
0.00547438
0.0269489
0.275851
0.132768
0.00059686
0.000701117
0
0
0
0.00176398
0.0838769
0.419979
0.21926
0.0320503
0
0
0
0
0.000251998
0.0172337
0.347536
0.53713
0.00766579
0.00765659
0.00666628
0.000570914
0
0.000771778
0.0136968
0.16999
0.176072
0.0364989
0.00583027
0.0217704
0.00214162
0
0.000463067
0.00279555
0.124146
0.476848
0.126616
0
0
0
0
0
0.000533759
0.13338
0.432254
0.429497
0.00822553
0
0
0
0
0
0.0380022
0.409866
0.134997
0.00233623
0.00694635
0.00077409
0
0
0
0.0255272
0.373004
0.335527
0.00864237
0.000195743
0
0
0.000807135
0.0019585
0.012585
0.320168
0.498662
0.105893
0.0214795
0
0
0
0
0.00229076
0.144484
0.442379
0.44529
0.0673507
0
3.33794e-005
0.000300415
0
0.000697322
0.0150446
0.325638
0.0707194
0.00920863
0.00175269
0.00988215
0.00267709
0.0064959
0.0104922
0.124482
0.293663
0.216097
0.0183216
0.00631109
0.0167039
0.00370916
0.00389754
0.00488125
0.0223483
0.260714
0.626523
0.198111
0
0.000158563
0.00142707
0
0.00580305
0.0181022
0.0471958
0.463544
0.287763
0.0343832
0.0032306
0.0193928
0.000641069
0.0138745
0.0219648
0.204477
0.212624
0.0172857
0.00330072
0.00500523
0.00998946
0
0.0151029
0.0426338
0.0761598
0.0854475
0.0280483
0.000270301
0.015141
0.0399604
0.00123015
0.0368224
0.0573632
0.084022
0.423856
0.488424
0.186676
0.0399431
0.0891869
0.0113421
0.0172014
0.0969328
0.13225
0.124009
0.139477
0.0960216
0.0434639
0.0754683
0.0765859
0.0279291
0.100022
0.095923
0.0903947
0.0702935
0.00102309
0.143783
0.151333
0.00864431
0.0714609
0.0857804
0.108661
0.134941
0.110024
0.0730719
0.176119
0.0597538
0.0315478
0.0278347
0.0878339
0.11601
0.0712175
0.0547544
0.0449438
0.0397726
0.0573428
0.0884872
0.103957
0.0865467
0.0940493
0.0962338
0.101275
0.102193
0.0979589
0.0968624
0.0804138
0.116182
0.0868861
0.115802
0.0749051
0.251251
0.13716
0.181578
0.0544417
0.0400236
0.0560692
0.0843091
0.183627
0.140141
0.400162
0.258703
0.165173
0.0638357
0.0298323
0.0996626
0.115898