0.0428411
0.262015
0.0697545
0.00782263
0.00556721
0.00729923
0.0181241
0.0101776
0.048105
0.0818085
0.505905
0.136882
0.0101218
0.0128889
0.0181032
2.53884e-005
0.000143867
0.0748972
0.0635531
0.505905
0.214892
0.00624061
0.00654288
0.000673294
0.012053
0.00646087
0.0133748
0.0805096
0.505905
0.12177
0.0107617
0.00375727
0
0
0
0.0156668
0.122977
0.520813
0.111843
0.00271842
0.00432794
0.00815789
0
9.48322e-005
0.0386301
0.105457
0.520813
0.284399
0.0122971
0.00410034
0.00448167
0
0.000663825
0.0160035
0.0777415
0.472386
0.057944
0.0224805
0.01161
0
0
0.000663825
0.0137093
0.0678337
0.197063
0.073478
0.0392237
0.0204583
0.00746945
0
0.00464678
0.0138218
0.0855332
0.423746
0.451194
0.0884224
0.019813
0.0178683
0.000630405
0.00421269
0.0152414
0.116759
0.0742991
0.151691
0.185468
0.0353732
0.011872
0.00441284
0.0295594
0.0195508
0.0812958
0.184797
0.265576
0.100357
0.0238602
0.0204612
0.00105068
0.0104366
0.00967605
0.14297
0.281231
0.432907
0.132754
0.00663776
0.00425437
0.00735473
0.0423273
0.00521503
0.105945
0.0739778
0.130607
0.127244
0.0390275
0.0066393
0.00237185
0.0253024
0.0144603
0.111345
0.179246
0.145904
0.0636438
0.0635537
0.00899353
0.00327689
0.00870877
0.0997429
0.247657
0.390109
0.302374
0.0544018
0.00636528
0.000946858
0.00317287
0.0200531
0.0166575
0.460609
0.435314
0.160542
0.0207653
0.0120573
0.00501032
0
0.00226301
0.148867
0.0535709
0.0615665
0.110786
0.181415
0.0448408
0.00113795
0.00795407
0.00815984
0.090549
0.0803967
0.0407696
0.147211
0.421435
0.0901518
0.0168168
0.0524868
0.029553
0.158085
0.286173
0.0846632
0.066329
0.0526492
0.00503672
0.00149005
0.00418772
0.0112328
0.239494
0.379635
0.0465873
0.0839397
0.0976752
0.0107567
0.00218016
0.0308246
0.0271176
0.53494
0.101966
0.0705826
0.171593
0.370452
0.155245
0.037755
0.0500716
0.0241077
0.0857655
0.030443
0.0514774
0.0821844
0.173693
0.155497
0.0262906
0.0794087
0.0506397
0.0234518
0.380544
0.113048
0.0878501
0.0885976
0.0224398
0.0119347
0.0433158
0.076322
0.40945
0.117709
0.0728122
0.0349266
0.0503987
0.017333
0.0224811
0.226417
0.334062
0.220499
0.0122118
0.0665223
0.0943626
0.0306424
0.0403353
0.0115955
0.0834308
0.0494624
0.012077
0.024195
0.0993081
0.178437
0.152945
0.14743
0.0209681
0.0373881
0.0161221
0.000971052
0.0124526
0.02958
0.0296592
0.0133613
0.00788908
0.0239713
0.44638
0.438066
0.100536
0.0129467
0.12389
0.160211
0.137112
0.292703
0.0961747
0.267142
0.263565
0.0467066
0.00479403
0.012092
0.124984
0.277279
0.168259
0.0857838
0.0120041
0.0023762
0
0.0228113
0.0124528
0.138316
0.376997
0.158223
0.144963
0.059388
0.0149502
0.0131681
0.00287642
0.0333838
0.225282
0.28286
0.312951
0.087375
0.0132342
0.0239534
0.00898853
0.0491663
0.00593306
0.23432
0.426007
0.231329
0.0908457
0.00747271
0.00577168
0.0247852
0.139255
0.0372517
0.0875355
0.199706
0.0929777
0.0988482
0.106041
0.041674
0.0668638
0.134002
0.150487
0.196113
0.109861
0.0994377
0.144326
0.071015
0.0707959
0.0578749
0.192141
0.0539814
0.143114
0.29473
0.0793733
0.0734295
0.0540502
0.0048042
0.0669261
0.0930088
0.0809805
0.313564
0.396442
0.216593
0.181595
0.0659429
0
0.0201795
0.0953561
0.693684
0.322774
0.0442502
0.00577726
0.000984312
0.0023581
0.00155275
0
0.0838564
0.443872
0.0732305
0.0912805
0.0117916
0.00164052
0.00134224
0
0.00142714
0.0415233
0.178652
0.115176
0.0991315
0.0097877
0.0106258
0.00563742
0
0
0.0177033
0.0474728
0.0957063
0.215001
0.0407806
0.0238569
0.0093957
0
0
0.0238657
0.148518
0.0933384
0.0662352
0.0284417
0.00024652
0.000201698
0.000472553
0.00573438
0.0211224
0.176751
0.262371
0.0644519
0.0358012
0.0019561
0
0.00330787
0.00599167
0.00173116
0.0816788
0.309295
0.156286
0.035545
0.00948677
0.00141189
0
0
0.000882734
0.276422
0.756868
0.0740152
0.0175543
0.000975077
0
0
0
0.0213682
0.21252
0.278586
0.0297685
0.00688007
0.00213003
0.000101251
0.00174804
0.0020322
0.0517374
0.35333
0.276007
0.0184521
0.000409185
0.00196667
0.000708756
0.00401628
0.00334599
0.00343773
0.252664
0.484279
0.0181171
0.00180108
0.00169701
0
0
0
0.0545726
0.458886
0.295743
0.00711445
0.0013199
0.0118791
0
0
0.00340777
0.107781
0.253026
0.087202
0.00261972
0.00488162
0.00181664
0.000262315
0.00148645
0.0101346
0.254983
0.217762
0.0179003
0.00107327
0.0107364
0.00831993
0
0.00169194
0.0609181
0.119375
0.495017
0.10991
0
0.0033756
0.00510966
0
0
0.0206361
0.392458
0.543645
0.0254991
0
0.00644186
0.00499196
0
0.00101517
0.0755432
0.275609
0.0666913
0.0034805
0.00105421
0.00236967
0.00317804
0
0.00267153
0.125016
0.309778
0.0113383
0.00245314
0.000632525
0
0
0.00322169
0.0469773
0.304614
0.453512
0.156329
0.00101093
0
0.0014218
0.00190682
0
0.00199821
0.156582
0.336626
0.0146659
0
0
0
0.000954142
0.00234193
0.0853044
0.513086
0.129559
0.00922778
0.0044648
0
0
0.00130437
0.0121567
0.109845
0.235843
0.0487625
0.00851015
0.00566533
0
0.000422507
0.0115248
0.0737716
0.199722
0.178011
0.0605792
0.000419969
0.00167988
0
0
0.00356897
0.00865038
0.270041
0.46749
0.024972
0.00386166
0.00279979
0
0.000704178
0.0151305
0.0753222
0.586504
0.332074
0.016448
0.00528231
0.000854509
0
0.00188398
0.0219164
0.16
0.235937
0.0588518
0.00254205
0.024743
0.0355839
0.0336534
0.0553
0.110467
0.248044
0.182238
0.0224112
0.0258951
0.0044063
0.00122474
0.00132236
0.00259005
0.024977
0.194358
0.519044
0.10438
0.00997146
0.00198122
0.0145172
0.0211637
0.00626353
0.0855208
0.545081
0.275306
0.0157999
0.000154868
0.0159953
0.0826346
0.1306
0.138962
0.106018
0.17023
0.0534509
0.00813474
0.0287126
0.0106556
0.0701138
0.149843
0.120618
0.0570277
0.108458
0.080997
0.0197685
0.00108407
0.00145806
0.022183
0.0391615
0.0183126
0.087197
0.628531
0.153871
0.00865928
0.0337109
0.0200241
0.0168988
0.0270299
0.0203096
0.0511731
0.427897
0.322344
0.147895
0.0777427
0.0822646
0.094694
0.117793
0.0424779
0.0435202
0.0578694
0.0661334
0.0376375
0.0301867
0.096805
0.246132
0.330884
0.0732377
0.0364214
0.0144525
0.00454691
0.00559057
0.156122
0.231593
0.118018
0.0489527
0.013427
0.035127
0.131398
0.21273
0.242299
0.17131
0.416814
0.343325
0.188147
0.0242121
0.0129889
0.0080079
0.00833336
0.0324459
0.0316247
0.0694514
0.0883796
0.174493
0.0490993
0.0235863
0.00562856
0
0.00123837
0.0507398
0.120471
0.238489
0.300426
0.150465
0.0375871
0.00761852
0
0.00206394
0.0315163
0.0193886
0.131586
0.219147
0.131261
0.0240473
0.00506077
0
0.00866856
0.0674631
0.241079
0.461852
0.48569
0.208418
0.00609764
0.000117777
0
0.0144476
0.00742288
0.099311
0.322793
0.125628
0.0343901
0.00820689
0.000507708
0
0.000138831
0.00174592
0.109957
0.571244
0.0978343
0.00758053
0.000953119
0
0
0
0.0120664
0.140046
0.339308
0.236351
0.0423728
0.00108376
0
0
0.00097182
0.00882784
0.052062
0.424037
0.265011
0.0543476
0.00013616
0
0
0
0.000890864
0.0837168
0.313752
0.025687
0.00287252
0.00070628
0
0
0
0.0187928
0.295398
0.376684
0.0271326
0.0236092
0.00494396
0
0
0.00473538
0.00251763
0.0398322
0.467094
0.131358
0.0299643
0.00104371
0
0
0
0.00426184
0.156597
0.521098
0.209441
0.137165
0.00741752
0.00211921
0
0.00284123
0.107904
0.371048
0.209914
0.0303871
0.0280018
0.00225679
0
0
0.0686059
0.284508
0.286762
0.0495385
0.00853524
0.00533609
0
0
0.00913444
0.280647
0.0701847
0.153464
0.291291
0.275267
0.153903
0.00371119
0.0071479
0
0.0627825
0.157204
0.178729
0.229463
0.168032
0.0712098
0.000225724
0.0468104
0.0487951
0.338093
0.233245
0.070104
0.000466234
0.000608775
0.0027234
0.00105536
0.00185448
0.0399943
0.342528
0.109191
0.00402127
0.000370211
0.00262285
0.042359
0.0220978
0.0143748
0.0997785
0.433613
0.103999
0.0663986
0.0827063
0.110611
0.0907927
0.00738749
0.0533748
0.14385
0.410815
0.0416078
0.0125636
0.112062
0.225466
0.305697
0.0757295
0.0327067
0.203688
0.282377
0.0197748
0.0162014
0.00121754
0.0156377
0.0433871
0.0285391
0.0155229
0.14631
0.297383
0.0503041
0.0275911
0.000730526
0.0197895
0.0105887
0.0282221
0.140156
0.469801
0.249492
0.0250487
0.0290278
0.0394467
0.203722
0.295506
0.131569
0.0456923
0.0641048
0.0750563
0.141786
0.045004
0.00121754
0.150727
0.0860595
0.211867
0.403643
0.159506
0.176075
0.0130185
0.00268467
0.000458053
0.00237325
0.000494183
0.0103073
0.203371
0.278444
0.0479147
0.0019941
0.000565157
0.00617675
0.00861883
0.000168237
0.0256373
0.365341
0.179155
0.00470938
0.0318346
0.00385369
0.001298
0.0192069
0.010057
0.102606
0.384398
0.146466
0.0517775
0
0.000853247
0.00593278
0.0164947
0.0174951
0.214006
0.630253
0.112462
0.00288188
0.000363756
0.00209986
0.0102441
0.00732549
0.000135116
0.0623559
0.392593
0.105875
0.00492561
0.0250016
0.00641387
0.00485903
0.000574286
0.0126746
0.0998438
0.324432
0.180856
0.0874578
0
0.00349977
0.0124718
0.00575249
0.0186492
0.317378
0.46564
0.0432151
0.000539339
0.0138518
0.00209986
0.00648512
0.00301987
0.0360308
0.358176
0.35138
0.0528511
0.0102569
0.1967
0.14659
0.035487
0.00671889
0.0330485
0.101052
0.176274
0.117629
0.171061
0.302135
0.341082
0.118621
0.0194168
0.00874169
0.0105288
0.00814903
0.00149388
0.030887
0.114529
0.0557201
0.0225461
0.0407875
0.091697
0.37616
0.372718
0.0732643
0.0396722
0.198598
0.178376
0.144674
0.0693697
0.0494749
0.0665411
0.03138
0.0616275
0.0445912
0.0104062
0.01359
0.115506
0.140181
0.136745
0.00855354
0.0013487
0
0.00257538
0.0120195
0.117791
0.344446
0.292304
0.233846
0.00488121
1.28724e-005
0
0.0042923
0.0462764
0.0639848
0.0779523
0.138577
0.22209
0.0211979
0.00378169
0.00203629
0
0.0257525
0.0700041
0.202022
0.272585
0.604541
0.0540939
0.00053702
0
0
0.00219928
0.0533086
0.204332
0.219997
0.0823163
0.000430463
0
0
0.000398495
0.00334498
0.0105386
0.274088
0.339137
0.113879
0
0
0
0
0
0.0134816
0.0885085
0.220901
0.281168
0.0151127
0.0010014
0
0
0
0.000353258
0.131439
0.591216
0.34002
0.00559219
0.00060084
0.00126014
0.000222377
0.00272763
0.00726314
0.391381
0.261105
0.0755261
0.00176715
0.000187167
0
0.00141706
0.00309643
0.0246523
0.225597
0.292968
0.291559
0.0104699
0.00846333
0
0.00236176
0.00236176
0.000482326
0.145845
0.36359
0.223966
0.00912303
0.00131017
0.0038314
0.00303789
0.0199349
0.0467097
0.0356164
0.175334
0.471378
0.0531744
0.0380471
0.00840198
0.0134966
0.00825957
0.0363929
0.114115
0.344371
0.215867
0.00443974
0.0210119
0
0.00523689
0.0183953
0.0926812
0.207274
0.335525
0.19488
0.0128024
0.0624489
0.0267461
0.0474993
0.0434244
0.1204
0.0301815
0.31195
0.313116
0.0363109
0.0424261
0.010492
0.00916896
0.0370087
0.0861927
0.0612493
0.423382
0.314611
0.124738
0.0773819
0.0174187
0.00123782
0.0175623
0.0392376
0.111485
0.238526
0.228211
0.0384505
0.0658618
0.0543454
0.061018
0.0123565
0.0122298
0.160069
0.367491
0.22443
0.0997887
0.0527368
0.0814099
0.0448483
0.00490614
0.00715656
0.0383858
0.186873
0.305644
0.230345
0.218639
0.0718085
0.000896478
0.0290536
0.00174712
0.0588722
0.185974
0.127785
0.239289
0.280442
0.315118
0.135226
0.0144612
0.0112332
0.0549093
0.174641
0.135214
0.117159
0.0762882
0.0344654
0.02413
0.0379055
0.0348499
0.0542064
0.183121
0.0605372
0.254335
0.294321
0.0671628
0.0609456
0.0818233
0.0961335
0.116857
0.0845573
0.0215399
0.0845204
0.103325
0.170026
0.209668
0.0552531
0.270694
0.52775
0.330385
0.0389221
0.12167
0.104087
0.04033
0.124668
0.0111528
0.0201839
0.029385
0.103575
0.101986
0.183959
0.246269
0.0555647
0.0351494
0
0.00273398
0.0075303
0.0633594
0.122732
0.358695
0.36674
0.0166803
0.00392369
0.00223938
0.10501
0.332939
0.350837
0.165663
0.0882878
0.0396626
0.0199502
0.0251213
0
0.00958934
0.0664764
0.199594
0.282498
0.312135
0.0791179
0.0162012
0.00464714
0
0.000399942
0.00155406
0.00565896
0.0456153
0.367897
0.247302
0.00269491
0.000183082
0.00092589
0.000239965
0.000719896
0.010318
0.0653898
0.300561
0.166233
0.0110548
0.000947087
0
0.000230835
0.00058922
0.00817164
0.294004
0.465822
0.093478
0.00603586
0.00106515
0
0.00161585
0.00377031
0.0190284
0.373331
0.369707
0.0639865
0.00834639
0.00130616
0.00873824
0.00686651
0.00941145
0.0728277
0.132914
0.270027
0.197939
0.0674593
0.0242269
0.0335272
0.0508631
0.0713902
0.111467
0.0881603
0.0856759
0.0285242
0.100945
0.0629657
0.0431737
0.0304984
0.00662919
0.120746
0.451817
0.351639
0.064345
0.0399169
0.016459
0.143334
0.16307
0.0811557
0.254664
0.199067
0.334529
0.0613762
0.0636066
0.0916579
0.0194428
0.0713952
0.074503
0.0996092
0.128461
0.0172321
0.00450982
0.00315886
0.00381729
0.00953589
0.0251878
0.048506
0.17748
0.54691
0.0696121
0.00274287
0.000671545
0.00229037
0.00144127
0.0340123
0.111166
0.117851
0.115812
0.0929219
0.0198589
0.0203536
0.026721
1.77927e-005
0.00904067
0.0237608
0.113727
0.612849
0.27972
0.0187901
0.00971073
0.0160326
0
0
0.00902669
0.0851837
0.299037
0.0260918
0.00476466
0.000957146
0
0
0
0.00831884
0.283141
0.416574
0.0383887
0.0028588
0.00174611
0.000206793
0
0
0.00405012
0.0273617
0.374151
0.118079
0.0168057
0.00377014
0
0
0
0.00273159
0.0639261
0.564119
0.308745
0.0157386
0.00242949
2.95419e-005
0.000475247
0.00124487
0.0189725
0.228741
0.372398
0.0484769
0.00214093
0.00605286
0.00148056
0.0368851
0.079483
0.0361907
0.0808529
0.274423
0.0654822
0.0572166
0.047766
0.038396
0
0.00272213
0.0113126
0.07308
0.476791
0.312599
0.0158588
0.00140728
0.000143617
0.0173034
0.164592
0.384786
0.241322
0.128693
0.0569044
0.0251219
0.0480898
0.0222866
0.118963
0.159845
0.0317557
0.0990524
0.107236
0.0341071
0.0353874
0.0437008
0.0288338
0.222552
0.115354
0.0170639
0.138849
0.121662
0.0893063
0.0594553
0.0350661
0.0823347
0.15092
0.351201
0.348694
0.0939899
0.0190626
0.0058855
0.00925831
0.039636
0.0286249
0.419164
0.361664
0.143786
0.0278718
0.0218726
0.0121536
0.0138227
0.041141
0.344703
0.0712349
0.004491
0.000879044
0.0229063
0.0838157
0.115512
0.160903
0.08402
0.100464
0.0530078
0.000293339
0
0.00590594
0.0197373
0.0730189
0.173642
0.278444
0.193454
0.157912
0.041311
0.00649596
0.0011302
0.0176915
0.0172956
0.0379958
0.0570001
0.495937
0.10038
0.000488899
0
0
0.00236236
0.0074968
0.0353375
0.167824
0.615703
0.0887882
0.12592
0.0551606
0.00774182
0.0012888
0.0119999
0.0399437
0.152877
0.203487
0.08882
0.423321
0.379035
0.100464
0.00758474
0.00329179
0.0265205
0.042563
0.0974282
0.0986979
0.0784203
0.00419764
0
0
0
0.102541
0.227247
0.271424
0.0934415
0.29839
0.097855
0.0110632
0.00454371
0.04107
0.365583
0.263772
0.0480597
0.0226874
0.2502
0.47472
0.269325
0.0605774
0.010931
0.0238794
0.0215426
0.0173491
0
0.0144818
0.0930082
0.185089
0.311124
0.150942
0.017627
0.0228991
0.00387112
0.0272294
0.176919
0.150214
0.0546679
0.0214519
0.0989069
0.26397
0.11328
0.00478428
0
0.00984728
0.0343907
0.249776
0.342569
0.0982609
0.0553559
0.0316427
0.00374677
0
0.000578598
0.00265344
0.0495475
0.358977
0.153415
0.00606071
0.00380389
0.000646432
0
0.00405019
0.0185741
0.0597274
0.400761
0.149042
0.00417142
0.000923665
0.000163
0
0.000719167
0.0112854
0.334876
0.39523
0.0376453
0.00477198
0.00422237
0.000434525
0
0.00243011
0.0251885
0.299353
0.462173
0.0598146
0.0033503
0
0
0.0191451
0.0273169
0.0397555
0.0606263
0.232693
0.128275
0.00425289
0.00166062
0.00186068
0.0712809
0.128928
0.113043
0.093814
0.176133
0.210792
0.02197
0.00195155
0.032138
0.00417601
0.0388848
0.0725924
0.16046
0.394354
0.0952023
0.0161358
0
0.00783271
0.0278489
0.0997544
0.155261
0.266233
0.600213
0.153111
0.0882597
0.0110853
0.0256643
0.0148532
0.0301649
0.0564139
0.0765196
0.129394
0.110807
0.0308338
0.0261377
0.0114894
0.0089119
0.0148837
0.0118625
0.0182751
0.359973
0.399795
0.141875
0.0110144
0.00689367
0.0366888
0.0945686
0.0521856
0.127729
0.211054
0.0987288
0.0339225
0.0238213
0.0119335
0.0220133
0.0476393
0.00820403
0.11139
0.290222
0.457061
0.36769
0.0307618
0.00716011
0
0
0.00178711
0.00395053
0.200384
0.200457
0.0867176
0.00535794
0.000239439
0
0
0.00107226
0.00160839
0.298594
0.43549
0.106927
0.00587113
0.000399066
0
0
0.000255301
0.0217681
0.11229
0.31495
0.241341
0.0227645
0.00167608
0
0
0.00178711
0.0046278
0.130616
0.495621
0.320075
0.0221488
0.00279346
0
0.0010218
0.00416925
0.0411655
0.170801
0.269484
0.0941218
0.000602983
5.29023e-005
0.000397001
0.0559533
0.22737
0.305154
0.158356
0.0693792
0.0390717
0.00625934
0
0
0.000135405
0.00120789
0.0457615
0.110788
0.364397
0.366704
0.0298899
0.000482672
0
0.00522884
0.0617751
0.253989
0.288082
0.251666
0.33859
0.112252
0.000786492
0.0353988
0.19211
0.331531
0.227693
0.0908929
0.0201299
0.0261291
0.00983134
0.0141282
0.170853
0.243588
0.170392
0.077057
0.0592
0.00647465
0.0156908
0.0290304
0.289403
0.00644162
0.0317645
0.101612
0.199595
0.198264
0.136765
0.221945
0.156339
0.0416116
0.107564
0.0494753
0.0653975
0.0757945
0.117876
0.0501532
0.123437
0.183135
0.46779
0.0765791
0.0298284
0.00986444
0
0.00444156
0
0.00133759
0.0222525
0.356547
0.0603311
5.39162e-005
0
0.00142351
0.000251208
0
0.0035025
0.0434987
0.509781
0.0862449
0.00613957
0.00478896
0
0.00740261
0
0.0112302
0.0455304
0.43778
0.115162
0.023603
0.00982204
0.00996457
0.00175845
0
0.00602724
0.0365789
0.560109
0.0518429
0.0054391
0.00808204
0.016398
0.00690074
0.033943
0.0971219
0.158461
0.279583
0.0219171
0.0200895
0.0411421
0.0388803
0.0623298
0.170155
0.36843
0.226284
0.0406894
0.0831268
0.0932656
0.155521
0.124658
0.0163588
0.0565716
0.0447823
0.0837963
0.293992
0.0140924
0.0723974
0.401116
0.397788
0.168012
0.200657
0.123489
0.0885541
0.0343639
0.00180313
0.00788678
0.0192627
0.0310546
0.0925178
0.145873
0.173092
0.0558923
0.00253316
0
0.00332695
0.0836995
0.256174
0.13703
0.041886
0.0259052
0.0136134
0.00408973
0.000658825
0.0236987
0.210698
0.271892
0.251259
0.13916
0.0558394
0.0177035
0.00305009
0.000269675
0.0246957
0.605712
0.401971
0.141923
0.0318084
0.00620694
0.00677925
0.00535315
0.000275035
0.00112072
0.0909103
0.4565
0.159765
0.0050501
0.00429176
0.00286746
0.000883828
0.000458392
0.00780197
0.0360753
0.341359
0.229918
0.0273614
0.00752609
0.00223294
0.000852441
0.00266934
0.0050533
0.393695
0.433408
0.072623
0.00284693
0.000566342
0.00100881
0.00336767
0.0175405
0.0937533
0.111162
0.333114
0.130277
0.0251281
0.00999744
0.0164086
0.0139732
0.0157149
0.0213584
0.0266263
0.183106
0.279117
0.040456
0.0314122
0.00847562
0.0311113
0.0503691
0.0400512
0.0416803
0.270369
0.437947
0.0930408
0.139033
0.0169896
0.0747528
0.0545035
0.1187
0.057451
0.160073
0.157616
0.0576969
0.0390785
0.0622824
0.0472479
0.0866676
0.0538389
0.126687
0.360232
0.412899
0.211204
0.0795204
0.03907
0.0652668
0.0203754
0.11093
0.107638
0.185334
0.155555
0.0469115
0.023703
0.030104
0.0159091
0.0237844
0.0578773
0.045222
0.200768
0.178801
0.234718
0.284062
0.157013
0.0124352
0.0049722
0.102519
0.226943
0.383552
0.114815
0.0231941
0.0136813
0.0165267
0.00227272
0.025128
0.0965625
0.237774
0.359852
0.130748
0.118313
0.126454
0.240163
0.00617994
0.0185237
0.00658821
0.00719815
0.0293377
0.036178
0.218423
0.2396
0.0839846
0.0067953
0.0111142
0
0.00582181
0.0110662
0.0217475
0.307223
0.372932
0.0411764
0.00992104
0.0312317
0.0190241
0.0428329
0.0357982
0.0156108
0.193375
0.213755
0.165071
0.0176963
0.0185237
0.000411805
0.00390489
0.00557299
0.00251585
0.211688
0.609291
0.137228
0.0271531
0
0
0.00156318
0.00993412
0.0180046
0.136197
0.323058
0.0603129
0.00320927
0
0
0
0.0250621
0.0618029
0.119775
0.47242
0.1896
0.00901655
0
0
0.00093791
0.00140686
0.00455051
0.0649348
0.370222
0.0987201
0.0069478
0
0
0
0
0.0027303
0.0374181
0.487522
0.356699
0.0236738
0.00153662
0
0
0.0141562
0.0379874
0.0603258
0.229324
0.199662
0.0731613
0.0419556
0
0
0.00519504
0.0181309
0.0205302
0.0739444
0.186049
0.403243
0.000687957
0
0
0
0
0.0070448
0.213387
0.420629
0.110827
0.0305149
0
0
0
0
0.00125237
0.0496059
0.392134
0.474231
0.0432563
0
0
0
0.00101701
0
0.00868738
0.0559045
0.38708
0.108193
0.0393322
0.0157236
0.0037213
0.000656701
0
0.00312187
0.0558303
0.454106
0.0699275
0
0
0
0
0
0.00378495
0.105671
0.46492
0.271192
0.054317
0.00640657
0
0
0
0.0014484
0.0858095
0.485603
0.0926306
0.154122
0.12462
0.0374788
0.00260082
0.00538673
0.00177881
0.0168179
0.146636
0.0449172
0.22035
0.36732
0.19663
0.0333072
0.0163969
0.00106729
0.00287368
0.0110158
0.242919
0.266868
0.0525055
0.00120231
0
0
0
0.0260217
0.139228
0.159125
0.613714
0.283121
0.0376343
0.000596827
0
0
0.000638914
0.0108612
0.0183905
0.130773
0.285244
0.164634
0.0569416
0.0105528
0
0.000224471
0.000274354
0.0029769
0.103851
0.508955
0.120102
0.0325231
0.00239964
0
0.000374119
0.000994418
0.0538112
0.409296
0.322712
0.0383663
0.00252142
0
0
0
0.00174944
0.011575
0.264907
0.410662
0.0383473
0.00993013
0
0
0
0.00137196
0.00465616
0.037407
0.451939
0.179606
0.0493426
0.000466501
0
9.05425e-005
0.00363614
0.0495903
0.124146
0.255589
0.179689
0.107626
0.023745
0.0120307
0.0101533
0.0309287
0.0111291
0.153723
0.5107
0.0965077
0.0219032
0
0.00131492
0.00244199
0.00156669
0.104355
0.166717
0.423096
0.0865894
0.0502281
0.0326185
0.0157567
0.018732
0.0182434
0.0323302
0.0487975
0.0416512
0.0387877
0.0656358
0.0280232
0.0206595
0.016516
0.0211775
0.0165766
0.00875604
0.100396
0.346014
0.223863
0.0517568
0.0151852
0.00990957
0.00862704
0.0470257
0.0364632
0.0598076
0.0708335
0.0761936
0.022516
0.0133384
0.00642769
0.0138953
0.0127791
0.00467506
0.132216
0.743072
0.376519
0.0158188
0.00748464
0.00159874
0.00738037
0.00711831
0.0553846
0.119272
0.344657
0.0724354
0.0160459
0.0141098
0
0
0.0143931
0.0843886
0.178621
0.313002
0.120363
0.0917124
0.0252301
0.0613997
0.000632306
0.0135839
0.0725817
0.227925
0.377349
0.0469021
0.0194502
0.0190069
0
0.00531502
0.0396478
0.0772507
0.309856
0.480846
0.0830902
0.041382
0.00526648
0.0031967
0.0311751
0.00923839
0.037456
0.0811843
0.0870017
0.0747411
0.200087
0.142075
0.0953513
0.012197
0.0156631
0.00388399
0.00880178
0.0181504
0.0517755
0.191216
0.567991
0.215592
0.0492636
0.0228681
0.0400861
0.20073
0.297494
0.124158
0.0718855
0.0339335
0.0182685
0.0244725
0.060502
0.00842774
0.103032
0.172335
0.210207
0.088266
0.241706
0.192968
0.101022
0.011144
0
0
0
0.00705095
0.0590228
0.349399
0.192559
0.0241116
0.00545678
0
0
0
0.00219311
0.0247075
0.285691
0.456496
0.0507027
0.0324043
0.00945388
0.0197235
0.0201525
0.070015
0.0587697
0.250766
0.217362
0.0540875
0.0434762
0.0147702
0.0120847
0.00144644
0.0131949
0.0474699
0.290357
0.448561
0.125314
0.00866116
0.000671022
0
0
5.55515e-005
0.00169826
0.0812714
0.402014
0.0985434
0.0453908
0.00469716
0
0
0
0
0.0208142
0.41183
0.438131
0.0580833
0.00626927
0.00128628
0
0.000388861
0.00349975
0.112834
0.320807
0.138934
0.105534
0.0336914
0
0
0
0
0.0875951
0.260567
0.370571
0.113222
0.00151361
0
0
0.00033721
0
0.00123402
0.09639
0.419671
0.438349
0.0493909
0
0
0.000562017
0
0.000339343
0.0261831
0.337404
0.151859
0.0153592
0
0
0.00236047
0
0.0207407
0.0602179
0.307918
0.45542
0.0531853
0
0
0.00393412
0
0.0023754
0.0063447
0.275628
0.38803
0.202595
0.00596419
0
7.66426e-005
0
0
0.00792136
0.0744411
0.265177
0.489565
0.0822354
0
0
0
0.00698544
0.00586595
0.0138416
0.386046
0.113568
0
0
0.000536498
0
0
0.00147091
0.115864
0.346878
0.315445
0.0468611
0
0.000979579
0
0.0116424
0.00973572
0.0584423
0.1003
0.434185
0.192665
0
0.000534311
0.000623674
0.00968011
0.00764531
0.0131224
0.0461867
0.347578
0.383588
0.0211956
0.00450559
0.00436572
0.00368567
0.00109219
0.00801604
0.191394
0.3669
0.176439
0
0.00413522
0.00436572
0.0179246
0.0208337
0.0342426
0.118192
0.271278
0.302314
0.0270762
0.020873
0.0338776
0.0186802
0.0153062
0.0316277
0.0203846
0.282543
0.598573
0.087562
0.00410708
0.0030804
0.00416371
0.00587436
0.00225894
0.0787045
0.182789
0.350915
0.103345
0.00693361
0.0114311
0.0175352
0.0346023
0.00966958
0.0640377
0.170938
0.284177
0.0778692
0.0169159
0.0388592
0.0119686
0.0127202
0.0176975
0.0567052
0.115188
0.203768
0.099946
0.0605535
0.0386947
0.00250503
0.0189107
0.021735
0.0128394
0.0147135
0.0311693
0.0890079
0.0614928
0.00422714
0.00164048
0.00311672
0.00229954
0.00248563
0.00190302
0.0747788
0.517892
0.265248
0.0121613
0
0
0.000907415
0.0041009
0.00831552
0.0464211
0.228641
0.103251
0.0195747
0.000234355
0.000925956
0.00169532
0.000156507
0.000478374
0.0692701
0.638751
0.317643
0.0216667
9.72303e-005
0
0.000156507
0.027304
0.068179
0.203182
0.244413
0.087573
0.0422027
0.00433926
0.00575447
0.017325
0.0671468
0.0403738
0.187502
0.357274
0.122316
0.0924617
0.014173
0.00322653
0.0557723
0.043431
0.113963
0.108536
0.314006
0.242723
0.0424055
0.00749811
0.0404062
0.0440708
0.0848626
0.181644
0.207912
0.429952
0.202928
0.131781
0.0229947
0.0225857
0.0332488
0.0421073
0.0281717
0.168923
0.37604
0.0758401
0.0610791
0.0137595
0.00291488
0.0274746
0.0366312
0.0330792
0.153794
0.331523
0.214686
0.0668305
0.0917844
0.0491525
0.0482051
0.047757
0.0811209
0.202573
0.361372
0.131196
0.112464
0.0341624
0.0214658
0.0449693
0.0517107
0.144237
0.144683
0.288344
0.20849
0.108333
0.0997498
0.0821326
0.142108
0.0452974
0.128532
0.0769774
0.0860849
0.16237
0.0985829
0.132272
0.0956375
0.0507954
0.143126
0.157819
0.0689619
0.0310494
0.112294
0.084645
0.212344
0.302389
0.182772
0.193907
0.282486
0.0813069
0.0850301
0.102295
0.0814703
0.0602756
0.0434907
0.156761
0.268686
0.225332
0.0765431
0.172334
0.202118
0.110557
0.224522
0.0751284
0.175024
0.112917
0.0471322
0.0152264
0.00976306
0.0417076
0.0268928
0.157795
0.290931
0.160064
0.198339
0.076345
0.0335682
0.0158584
0.0253445
0.0244897
0.187284
0.353993
0.282206
0.138744
0.113809
0.06478
0.0714173
0.118421
0.105107
0.131588
0.0807581
0.102021
0.295345
0.173542
0.0837691
0.172157
0.208469
0.18776
0.139495
0.161659
0.152794
0.220037
0.0292897
0.0489305
0.0242018
0.01983
0.0134277
0.0454553
0.0904104
0.16744
0.444957
0.0636846
0.0314968
0.0145211
0.00830077
0.0292054
0.019148
0.0128856
0.235826
0.308871
0.135497
0.0833329
0.144777
0.152109
0.0771611
0.0513527
0.0713063
0.0960845
0.450441
0.239887
0.0649693
0.0579204
0.0469551
0.0547438
0.0305857
0.0763572
0.27117
0.365135
0.0964962
0.00109425
0
0.000340601
0.0131891
0.0214821
0.0116187
0.196314
0.338826
0.267148
0.0280659
0.00174963
0.00459522
0
0.0099724
0.0184529
0.117545
0.347593
0.1004
0.00765974
0
0
0.0219818
0.0358036
0.0473257
0.294285
0.421644
0.107647
0.00210268
0.00291604
0.00275713
0
0.0120888
0.0276583
0.272923
0.263642
0.335612
0.121858
0.00809191
0.0140189
0.00352527
0.00652456
0.028076
0.046684
0.147739
0.254532
0.139855
0.0351057
0.0465219
0.0319589
0.0139485
0.0333258
0.0376971
0.393508
0.133716
0.0313954
0.0134865
0.00557683
0
0
0.0337009
0.307921
0.283073
0.199541
0.06844
0.0130576
0.00715657
0.00104028
0
0.0803416
0.284673
0.0831596
0.1132
0.089982
0.0441213
0.0222411
0.0331712
0.00810719
0.0132288
0.0193709
0.0802239
0.104677
0.137825
0.131911
0.196449
0.0332994
0.00415198
0.00880323
0.0136807
0.16046
0.112803
0.060535
0.0091197
0.0031773
0.00324878
0.0174383
0.0940896
0.200019
0.0878072
0.0790288
0.271025
0.424965
0.48545
0.104175
0.0290639
0.131522
0.142035
0.00432035
0.00700299
0.0584408
0.273851
0.123681
0.0119166
0.000121774
0.000242865
0.000247224
0.00149226
0.00126832
0.0823422
0.522449
0.219417
0.013705
0.00293101
0.00208172
0
0.00396868
0.00414081
0.140891
0.413688
0.206695
0.0359653
0.00157991
0.00793701
0.00592059
0.0260928
0.00628688
0.112262
0.466446
0.206413
0.0400122
0.00966157
0.0129269
0.00837807