0.054602
0.036634
0.0373122
0.188637
0.171458
0.0968601
0.111484
0.0410624
0.118238
0.0510508
0.00809185
0.107648
0.246875
0.512599
0.207254
0.0784397
0.0461257
0.0593022
0.179335
0.0525588
0.0109557
0.0485379
0.10069
0.146568
0.0967578
0.0537581
0.168654
0.264161
0.0733521
0.103905
0.0760044
0.0891184
0.144775
0.137163
0.0954348
0.233163
0.0253104
0.0311277
0.135273
0.20603
0.317996
0.117858
0.02093
0.0512543
0.030649
0.17544
0.195362
0.236942
0.231054
0.146282
0.0589313
0.00884813
0.0829258
0.159401
0.127068
0.123672
0.158152
0.171355
0.119036
0.0723976
0.0593501
0.0624157
0.0678446
0.194681
0.248927
0.179603
0.334624
0.245469
0.0226748
0.00948468
0.0331918
0.106379
0.155546
0.157942
0.178239
0.203268
0.0292094
0.0444731
0.00670916
0.0420014
0.122078
0.104601
0.158939
0.168917
0.285684
0.202806
0.339013
0.141058
0.00546713
0.0216205
0.212279
0.215991
0.112713
0.165773
0.0938184
0
0
0.00546713
0.095341
0.162372
0.271523
0.131516
0.168766
0.189778
0.191812
0.134567
0.00400317
0.0136201
0.0163808
0.0390387
0.080484
0.135598
0.193191
0.309804
0.201151
0.00296854
0.00297446
0.00512902
0.0282555
0.132569
0.176407
0.352516
0.263773
0.113487
0.0137575
0.0154556
0.031653
0.070057
0.0521272
0.061029
0.163164
0.232718
0.250682
0.0434886
0.0170016
0.0038521
0.0321344
0.0889282
0.063525
0.263912
0.381556
0.191481
0.0669361
0.0347414
0.0623437
0.0389283
0.0667138
0.0883791
0.209333
0.206238
0.0419262
0.0403303
0.108777
0.0989892
0.048134
0.0499256
0.105401
0.0955655
0.0996437
0.125971
0.02354
0.160652
0.0156902
0.00692948
0.0352251
0.0539425
0.218755
0.508575
0.10605
0.0276685
0.100629
0.0827368
0.00659293
0.00743293
0.0248092
0.0916145
0.27172
0.420658
0.0317321
0.144825
0.0607461
0.0511976
0.0411913
0.101754
0.149464
0.0825578
0.0811016
0.0219648
0.0449613
0.162918
0.0674368
0.0359737
0.263753
0.306023
0.114454
0.160617
0.25578
0.0939377
0.214801
0.0502902
0.0143555
0.00833467
0.049685
0.0914615
0.207284
0.0475888
0.0685215
0.338534
0.106054
0.0134881
0.0235162
0.0333075
0.0384702
0.297467
0.363297
0.169906
0.121645
0.0958429
0.0916575
0.258434
0.177007
0.0479777
0.075765
0.161611
0.111169
0.15368
0.152853
0.1605
0.198075
0.25118
0.142746
0.126605
0.169179
0.133194
0.215075
0.0891079
0.0177904
0.0345446
0.0270245
0.00877549
0.186897
0.240736
0.233406
0.151214
0.0642841
0.030158
0.109826
0.235614
0.0849893
0.186759
0.175365
0.264988
0.0346824
0.0675823
0.0596739
0.0327718
0.0925196
0.0929186
0.241415
0.209696
0.0316918
0.0135842
0.0684748
0.0551383
0.1019
0.178068
0.134389
0.337238
0.342393
0.0220963
0.0111825
0.0188764
0.0121174
0.0385574
0.127907
0.0651291
0.251719
0.124627
0.038675
0.075849
0.019123
0.0399141
0.0667827
0.126746
0.0702865
0.518519
0.269898
0.0167233
0.0254835
0.0256207
0.0858617
0.193949
0.29903
0.139322
0.081129
0.0997432
0.015814
0.0933669
0.0516103
0.135261
0.105679
0.228077
0.323599
0.131755
0.000637165
0.0382195
0.118646
0.0256534
0.165997
0.116373
0.218958
0.126551
0.205409
0.11409
0.0304873
0.213937
0.0548172
0.242295
0.114117
0.22475
0.265304
0.226114
0.0156939
0.191072
0.159921
0.044247
0.00256117
0.0186394
0.065458
0.121361
0.104303
0.0602747
0.227061
0.333343
0.109459
0.0310588
0.0737256
0.0582429
0.0166923
0.0501737
0.0597549
0.283176
0.07558
0.0202903
0.011656
0.0606151
0.120065
0.26635
0.191392
0.0995204
0.130101
0.23571
0.119933
0.07561
0.32287
0.12569
0.0942101
0.104241
0.105536
0.287158
0.174417
0.119272
0.0890424
0.0938637
0.125527
0.0421051
0.0281621
0.0261405
0.143645
0.0721122
0.10895
0.114834
0.191243
0.324683
0.0943129
0.0113204
0.00787477
0.053321
0.137688
0.125834
0.140766
0.339612
0.155917
0.0774854
0.0382875
0.0373507
0.153735
0.0803061
0.0905202
0.166111
0.379417
0.294602
0.163855
0.0287517
0.0147689
0.040678
0.0741441
0.116454
0.0915112
0.135308
0.242046
0.0549288
0.0201131
0.00517331
0.0137063
0.111169
0.342752
0.160036
0.117696
0.1943
0.111598
0.157839
0.0341832
0.00859589
0.0488976
0.041451
0.0971352
0.17676
0.249562
0.096984
0.110275
0.0713715
0.0241397
0.067227
0.207181
0.125912
0.111731
0.205109
0.119512
0.194999
0.3003
0.198003
0.0461229
0.101197
0.0379297
0.0591866
0.110821
0.132766
0.310923
0.0585676
0.0120697
0.00611535
0.0130922
0.0704202
0.0498999
0.205782
0.372148
0.316733
0.0809173
0.016907
0.0477201
0.144392
0.0696979
0.0861526
0.100701
0.1294
0.160893
0.0895143
0.0893362
0.150864
0.0933629
0.133399
0.0906703
0.145721
0.310117
0.306853
0.0762487
0.0857067
0.0105656
0.0192842
0.0455444
0.042483
0.204784
0.379613
0.131234
0.0241768
0.0140342
0.0780686
0.057896
0.0222154
0.0362491
0.0720641
0.216475
0.330277
0.0611872
0.0411533
0.134931
0.0856081
0.176477
0.210339
0.158118
0.193013
0.122292
0.0354001
0.0714276
0.135746
0.246724
0.188231
0.300012
0.0812227
0.110605
0.0908007
0.0534177
0.0242068
0.171136
0.0799589
0.0304061
0.0505583
0.00397632
0.0439689
0.128372
0.0449914
0.0419746
0.291742
0.126646
0.0822216
0.162102
0.015052
0.0249051
0.157785
0.0985978
0.0584095
0.120232
0.277035
0.2022
0.20311
0.00546892
0.0238255
0.02466
0.0287151
0.019664
0.203373
0.365093
0.374406
0.293679
0.0246428
0.0559635
0.0577196
0.050432
0.139995
0.267673
0.0776918
0.0362142
0.0692116
0.0294518
0.0474495
0.119947
0.104026
0.149838
0.147347
0.0437474
0.0342895
0.0884201
0.199143
0.144526
0.175193
0.0901375
0.209608
0.186379
0.0960898
0.109545
0.112769
0.103844
0.132518
0.0990664
0.118804
0.151443
0.0801854
0.0334998
0.064343
0.0709974
0.491106
0.331342
0.13299
0.0946826
0.0797476
0.0132712
0.024469
0.0460019
0.110851
0.249657
0.0887535
0.166257
0.042128
0.0369404
0.0859913
0.0200311
0.0274377
0.116213
0.278517
0.117183
0.387701
0.136226
0.0229085
0.0162986
0.03044
0.109275
0.08286
0.350692
0.177686
0.112684
0.0798701
0.0331788
0.0528327
0.00993795
0.0732141
0.107749
0.295114
0.199324
0.219361
0.188062
0.0672146
0.0798745
0.00795268
0.0514728
0.0378471
0.139507
0.121161
0.247184
0.100132
0.0643386
0.0964108
0.011159
0.116311
0.0773409
0.135698
0.239648
0.31181
0.149297
0.321309
0.0602947
0.00539149
0.0171086
0.0371961
0.0963094
0.0735946
0.244294
0.151757
0.0829805
0.0504477
0.0280155
0.0964545
0.087493
0.119848
0.136465
0.251051
0.242144
0.364608
0.0243659
0.0152066
0.0110084
0.0512263
0.154351
0.349742
0.168868
0.051961
0.0694645
0.17666
0.120017
0.0706596
0.185465
0.0756529
0.204077
0.173316
0.0714921
0.24316
0.0914293
0.0440333
0.00484857
0.0522458
0.179703
0.201169
0.173197
0.0658635
0.069468
0.21008
0.157758
0.0282371
0.0486714
0.0689291
0.204683
0.195646
0.137328
0.181856
0.112867
0.18805
0.184465
0.232132
0.0703532
0.0715861
0.0547129
0.0197171
0.115607
0.111142
0.151597
0.22207
0.330868
0.136811
0.0623621
0.0493032
0.0441614
0.0769843
0.15589
0.122072
0.0916836
0.100971
0.0910766
0.144868
0.101822
0.0745703
0.107169
0.177492
0.158545
0.184
0.193428
0.185115
0.21633
0.126892
0.15139
0.136311
0.078823
0.044257
0.0837808
0.147954
0.0662116
0.0516672
0.12302
0.134876
0.0948524
0.0857062
0.160792
0.0926976
0.0452441
0.0409142
0.0473253
0.12808
0.260043
0.245051
0.0852155
0.0764404
0.0766359
0.0998231
0.153611
0.250903
0.196112
0.233356
0.126028
0.0626769
0.158449
0.0436397
0.0454791
0.126597
0.182592
0.318767
0.18089
0.0910215
0.075574
0.204072
0.101338
0.064675
0.0352463
0.0865112
0.0897072
0.0910915
0.151916
0.335288
0.191928
0.122519
0.10622
0.0542707
0.119085
0.178513
0.0640972
0.178195
0.0624056
0.162262
0.0541325
0.0373227
0.0632293
0.135039
0.192026
0.130109
0.0838605
0.210159
0.182788
0.200376
0.227767
0.0274783
0.0632295
0.0851775
0.131363
0.159763
0.125616
0.0779677
0.0900725
0.0911675
0.024151
0.0158334
0.024073
0.0186849
0.0692915
0.0937409
0.21229
0.207947
0.171199
0.0193498
0.00844451
0.00218816
0.0579024
0.0202167
0.0832984
0.143015
0.135572
0.08593
0.0262057
0.00130335
0.00482799
0.0228392
0.0680247
0.081517
0.555766
0.529874
0.0424731
0.0397612
0
0.00956748
0.0724371
0.033596
0.0386333
0.192889
0.187584
0.0772392
0.00136287
0.00152984
0.000452836
0.0118953
0.00189951
0.0423268
0.324168
0.232455
0.0519854
0.00757319
0.0368758
0.0467266
0.0474166
0.110951
0.0239156
0.394491
0.400255
0.019927
0.00360257
0
0.00197998
0.0143783
0.00113971
0.0107071
0.422027
0.344397
0.0187968
0.107094
0.0603076
0.0658967
0.0521532
0.0474697
0.0277281
0.0841911
0.0424458
0.0177548
0.0589855
0.129027
0.114164
0.0778099
0.110808
0.00593121
0.00371601
0.0107163
0.0248436
0.258482
0.294366
0.0852426
0.0363451
0.0244535
0.0043641
0.0946308
0.0426316
0.00971133
0.308641
0.261356
0.103818
0.0550712
0.0468397
0.000593684
0.00551794
0.000973755
0.0149923
0.410678
0.559111
0.0658104
0.0104782
0.0112887
0.00450038
0.00659054
0.0268256
0.0448874
0.218918
0.233161
0.0767135
0.0735018
0.0466763
0.0268625
0.0015382
0.0205481
0.0685131
0.107915
0.121547
0.176092
0.212054
0.0665916
0.0133983
0.058336
0.000555792
0.0665282
0.271827
0.539012
0.120677
0.0404902
0.0264467
0.045476
0.101464
0.000638898
0.160301
0.316994
0.237804
0.153241
0.133888
0.047986
0.0545944
0.0101791
0.0111829
0.0345561
0.0717111
0.0629014
0.191984
0.173161
0.0323935
0.120113
0.0552651
0.060153
0.0623507
0.123315
0.187021
0.142919
0.155695
0.177882
0.0500495
0.0342329
0.031673
0.111107
0.335985
0.108363
0.117598
0.116156
0.0251454
0.122138
0.0847016
0.210078
0.198742
0.367867
0.263902
0.210684
0.268371
0.15601
0.0996257
0.0331302
0.00142931
0.0193061
0.138145
0.162964
0.115263
0.114434
0.0342585
0.113228
0.0542591
0.00350512
0.0133153
0.0649304
0.130867
0.216615
0.175843
0.1073
0.103489
0.0558626
0.067827
0.063676
0.224578
0.356556
0.161757
0.193388
0.0465131
0.0595218
0.098564
0.0464216
0.0298305
0.0729052
0.309623
0.305428
0.160687
0.077046
0.0500096
0.029923
0.0229353
0.0397186
0.0595841
0.108919
0.144316
0.15456
0.0856722
0.061768
0.0868191
0.175391
0.151578
0.161947
0.213329
0.155869
0.203899
0.106696
0.00879443
0.0979775
0.0189481
0.0383927
0.0410448
0.174369
0.179498
0.202202
0.0724414
0.114563
0.131602
0.123073
0.0957971
0.125528
0.122169
0.20511
0.448538
0.184116
0.0217229
0.0522513
0.0981834
0.119561
0.173934
0.132337
0.0732856
0.0921342
0.0398329
0.0117107
0.0734568
0.0800537
0.0873808
0.12953
0.0979994
0.128978
0.0825084
0.0275603
0.0947819
0.130061
0.213271
0.116008
0.146867
0.0326617
0.0473526
0.123848
0.0722821
0.0229287
0.256037
0.643722
0.147168
0.0908175
0.0319031
0.0211249
0.0419253
0.00835665
0.00950523
0.0480722
0.0665395
0.023063
0.020604
0.031924
0.0321317
0.0236144
0.0177032
0.0196624
0.0913202
0.202683
0.0771903
0.00724806
0.0113117
0.00604268
0.0168948
0.0234232
0.00511207
0.130567
0.398508
0.0418058
0.00985028
0.0142876
0.00403071
0.0041622
0.0024053
0.00375499
0.307218
0.738626
0.0867715
0.00394329
0.0051449
0.000337014
0.00044676
0.00195166
0.0132557
0.129199
0.182383
0.0430649
0.0111844
8.72009e-005
0.000528437
0.0033429
0.0105863
0.011163
0.331115
0.349834
0.00508019
0.0186407
0
0.00174001
0.00749831
0.00484434
0.0237238
0.258244
0.507262
0.0424138
0.00159778
0
0
0
0.00446181
0.111152
0.354136
0.400987
0.00490997
0.00266296
0
0
0
0.00953808
0.0135962
0.411197
0.387799
0
0.0065575
0
0.001077
0.00430801
0.00151264
0.0187657
0.2374
0.195347
0.013624
0.205915
0.0615576
0.0232387
0.0120032
0.00594835
0.280499
0.26993
0.18675
0
0.00199413
0
0
0
0.0215248
0.397619
0.129596
0.0595401
0.0158084
0.142644
0.0380425
0.00573491
0.00143373
0.119477
0.00258449
0.030119
0.0148877
0.0135475
0.313978
0.216196
0.0168164
0.00812449
0.00125292
0
0.01589
0.00272031
0.0253256
0.319368
0.405377
0.0253894
0.00116064
0
0.0796593
0.0382608
0.0234992
0.0320801
0.220987
0.26528
0.0256527
0.00263791
0.0472851
0.00446385
0.0138647
0.0172457
0.0696578
0.265281
0.519249
0.092717
0.00158274
0.00440613
0.0335356
0.0938666
0.0175202
0.0432917
0.243572
0.407862
0.0919274
0.0025124
0
0.0617851
0.150584
0.0438737
0.111946
0.280481
0.1755
0.0758484
0.0129087
0.00421596
0.0187149
0.0295976
0.0523828
0.0955361
0.344618
0.355341
0.0661161
0
0
0.0316066
0.0404995
0.0972673
0.19729
0.305897
0.146494
0.045242
0
0
0.0110805
0.0237803
0.0233958
0.115842
0.279598
0.0812854
0.0324971
0.00897371
0.00307514
0.0337091
0.0148185
0.0700125
0.195805
0.353639
0.321051
0.243018
0.0721188
0.0629343
0.0035569
0.00837099
0.0362991
0.193552
0.158218
0.11356
0.0769857
0.00710842
0.00304647
0.20056
0.060655
0.0175866
0.149817
0.182263
0.384766
0.2969
0.0150079
0.105936
0.122979
0.100141
0.138925
0.120507
0.111166
0.128519
0.0934976
0.0375096
0.112932
0.0803366
0.154795
0.154927
0.118576
0.0646738
0.155797
0.0890617
0.0253277
0.0921879
0.121335
0.12655
0.204557
0.13182
0.0501109
0.0679995
0.0982228
0.0448586
0.301272
0.074903
0.184359
0.420603
0.225437
0.0657911
0.0816103
0.0304275
0.0192106
0.220725
0.0503984
0.080802
0.0407749
0.0520102
0.032732
0.172807
0.0612013
0.0734283
0.0522752
0.14584
0.0942505
0.0748848
0.0783415
0.0987557
0.10944
0.0967649
0.178104
0.139371
0.154151
0.149831
0.145435
0.137203
0.0874988
0.123563
0.0121226
0.0671637
0.122158
0.340127
0.395112
0.180015
0.22925
0.0973104
0.0861196
0.0222009
0.160654
0.256328
0.0416365
0.0711706
0.0962931
0.0582246
0.0409623
0.00412417
0.0110453
0.0201208
0.047411
0.00853487
0.187641
0.356814
0.100028
0.0142593
0
0.000424929
0.00240793
0.0170491
0.0515047
0.184101
0.198689
0.105446
0.0215479
0.00650929
0.010854
0.0235287
0.0738815
0.0171559
0.419586
0.643784
0.0907966
0.0067379
0.00303188
0.00563064
0.00141006
0.0351099
0.00240025
0.195534
0.336686
0.0390018
0.00149543
0
4.65619e-005
0.00026385
0.000203816
0.050787
0.269236
0.466709
0.0989004
0.00532576
0
8.65509e-005
0.00164446
0
0.0132413
0.374792
0.362596
0.0365327
0.0194288
0.0116298
0
0
0.00142672
0.0973218
0.311361
0.198424
0.120772
0.12484
0.0438095
0.00435893
0.0115112
0
0.176193
0.264816
0.363861
0.073873
0.00686153
0
0.000342918
0.00651542
0.00801255
0.40721
0.281952
0.161308
0.00963845
0.00667639
0
0.000205751
0.00540181
0.031092
0.21794
0.226669
0.0722239
0.0852683
0.108454
0.0339559
0.0493764
0.0546081
0.0122202
0.324948
0.288937
0.0639231
0.0364942
0.0503937
0.0211911
0.155002
0.104772
0.0400314
0.366389
0.112111
0.0194716
0.00116065
0.00076522
0
0
0.00343604
0.0515658
0.460775
0.0772079
0.03453
0.0189042
0.0145251
0.00193616
0.0117829
0.00500735
0.149517
0.308806
0.167333
0.036316
0.026607
0.00600789
0.0115815
0.0636132
0.0558685
0.0855532
0.54821
0.145334
0.0601541
0.0489265
0.00455943
0.0016545
0.0143753
0.0216493
0.174351
0.145664
0.0488125
0.0488734
0.0563803
0.0657147
0.1794
0.0508274
0.00865621
0.092688
0.0146252
0.00702755
0.0233295
0.0712133
0.173294
0.465359
0.0927887
0.00519372
0.0148788
0.258566
0.0991603
0.0542785
0.110457
0.102964
0.123367
0.02534
0.00560257
0.094328
0.0548944
0.0277724
0.0187094
0.140404
0.441282
0.445596
0.0324141
0.00311623
0.0230238
0.00705166
0.00648599
0.0279226
0.0658084
0.216373
0.284919
0.0509414
0
0.00705166
0.00100738
0.045402
0.0334988
0.113106
0.212972
0.169575
0.0437315
0.0245202
0.00267816
0.0117528
0.01081
0.00570313
0.0751195
0.385507
0.428936
0.0407711
0
0.0117528
0.00946297
0.0857177
0.00894888
0.0518474
0.383492
0.324817
0.0689947
0.0483312
0.0044636
0.00634939
0.0534257
0.0268136
0.176704
0.0906059
0.132205
0.123075
0.0998865
0.0555407
0.342533
0.336877
0.072551
0.0980234
0.0318887
0.193275
0.217579
0.0906455
0.135536
0.0439516
0.0973348
0.0253744
0.0426422
0.162297
0.111803
0.10118
0.156477
0.0937652
0.18692
0.355817
0.137285
0.0151131
0.00481937
0.054367
0.072584
0.11274
0.182761
0.0960224
0.122945
0.114014
0.0493412
0.071238
0.0507522
0.0394684
0.0572172
0.194055
0.0306581
0.18938
0.317971
0.133977
0.0319176
0.0657327
0.0505049
0.0444652
0.129623
0.157345
0.119497
0.0342191
0.00486949
0.0353781
0.0113556
0.0426795
0.184029
0.284223
0.105166
0.152172
0.197733
0.0319936
0.00655316
0.0426652
0.0731013
0.338912
0.246552
0.0978828
0.169004
0.206669
0.146018
0.0458364
0.0240314
0.00857853
0.0210042
0.0432925
0.248536
0.403626
0.206263
0.233963
0.108965
0.0189423
0.0139385
0.104725
0.0946749
0.127473
0.113244
0.192698
0.0989967
0.00873615
0.0110446
0.0099859
0.10329
0.108343
0.172356
0.157245
0.112332
0.231987
0.154518
0.0242923
0.0383627
0.159727
0.181091
0.0330578
0.123408
0.191099
0.115057
0.0655332
0.0430895
0.0262759
0.0530418
0.0242005
0.0109988
0.213599
0.507445
0.0852631
0.0309058
0.0544712
0.0380061
0.0857119
0.0677288
0.0185115
0.0254741
0.0624268
0.0930037
0.115357
0.0747115
0.0624784
0.165323
0.0858281
0.00854189
0.0248496
0.139111
0.0535809
0.0523861
0.0925228
0.0836017
0.498179
0.338861
0.0286182
0.233629
0.292074
0.0472994
0.0368032
0.0258759
0.00877127
0.0435812
0.0760036
0.0565795
0.165061
0.0839053
0.179967
0.28314
0.0711063
0.0177676
0.0203002
0.0272673
0.0650081
0.0435315
0.0803801
0.0340544
0.0258629
0.0143628
0.0250836
0.397036
0.36729
0.118548
0.0412733
0.0499431
0.149257
0.243544
0.010158
0.0404013
0.244694
0.292461
0.0866899
0.0950979
0.0298322
0.102411
0.186328
0.0454344
0.0970713
0.0654307
0.0621268
0.101011
0.129976
0.0333471
0.027023
0.0345307
0.0598369
0.259962
0.271511
0.122273
0.159666
0.029371
0.0181129
0.0785921
0.159128
0.00649062
0.107103
0.168251
0.289608
0.232075
0.0778171
0.00265711
0.00528238
0.0117498
0.0695229
0.161367
0.248921
0.484232
0.110359
0.0937832
0.0379041
0.033847
0.00453546
0.0519485
0.139172
0.252125
0.11391
0.466906
0.0998902
0.0391977
0.0488118
0.00785794
0.0108952
0.0253915
0.126612
0.197048
0.0924626
0.0548233
0.00406852
0.00416221
0.0176131
0.0934603
0.0836862
0.236634
0.284284
0.370547
0.123987
0.0197062
0.00636401
0.0665212
0.052249
0.0220455
0.167181
0.2809
0.248428
0.0569309
0.0243373
0.0731025
0.065929
0.0443045
0.00954594
0.025893
0.0830268
0.0542768
0.0220254
0.0267225
0.150376
0.402995
0.26743
0.0103342
0.0189629
0.0324851
0.230398
0.114036
0.0254151
0.0502109
0.0751349
0.0228297
0.0184263
0.0600623
0.118852
0.0488761
0.0652025
0.0205114
0.242961
0.574301
0.168766
0.0386319
0.0604745
0.0442814
0.00158217
0.00145525
0.00461749
0.117494
0.379623
0.25152
0.0186432
0.0104645
0.0047654
0.0393387
0.0493986
0.00271494
0.0709816
0.323214
0.170845
0.0344003
0.0579063
0.0122704
0
0.00503805
0.00272454
0.179731
0.510072
0.186333
0.143492
0.0458186
0.0124999
0.0427372
0.0363736
0.000311257
0.0688269
0.155105
0.117235
0.186625
0.16232
0.115741
0.126637
0.124378
0.0588334
0.0479313
0.19785
0.0970394
0.0874539
0.112116
0.0445096
0.0971886
0.107801
0.114932
0.0253773
0.0132119
0.11324
0.106233
0.108062
0.104194
0.107971
0.0927829
0.0567473
0.0775004
0.159819
0.212407
0.21831
0.237451
0.172005
0.0328274
0.026728
0.142921
0.0682098
0.164648
0.314291
0.215843
0.191285
0.156224
0.122549
0.0533424
0.0308248
0.0227811
0.00928019
0.0127316
0.0512874
0.156246
0.246739
0.133048
0.0455012
0.0875545
0.0191502
0.0649613
0.00636105
0.0606067
0.360585
0.354846
0.0645689
0.104423
0.107662
0.0379684
0.0434672
0.0718802
0.0906386
0.0645989
0.0827723
0.0446238
0.149062
0.173487
0.0983215
0.192879
0.0289285
0.11123
0.171642
0.15013
0.132901
0.0245492
0.0628925
0.0253043
0.0262379
0.00216405
0.0470488
0.231854
0.226027
0.193339
0.00870383
0.0144866
0.0683411
0.0451031
0.00988456
0.04126
0.25293
0.332926
0.0561375
0.0341306
0.0879297
0.0956768
0.0922233
0.0198603
0.0936274
0.195484
0.135791
0.219557
0.0127755
0.0517155
0.0364194
0.105871
0.00283718
0.0364885
0.166014
0.323452
0.0429341
0.00058885
0
0.0230009
0.0334771
0.0256874
0.0388945
0.209316
0.199238
0.0497667
0.0118605
0.00145452
0.00308932
0.0139433
0.0276458
0.0532482
0.60012
0.4271
0.0763483
0.00638186
0.0218767
0.00704118
0.0339867
0
0.0302862
0.0993532
0.16948
0.139097
0.0714366
0.0237429
0.0117353
0.016306
0
0.0545806
0.168984
0.226976
0.0682794
0.0116268
0.00399307
0.00202285
0.005907
0.00183546
0.0171217
0.385282
0.283898
0.104769
0.00772486
0.00508252
0.01416
0.0514773
0
0.023153
0.295651
0.521063
0.106959
0.0510692
0.01083
0.00214421
0.0028944
0.00791991
0.0283403
0.108144
0.151301
0.10611
0.0228194
0.00726421
0
0.000413486
0.0237934
0.0428172
0.127144
0.39785
0.0547862
0.002569
0.000501602
0.0039122
0.0190308
0
0.0316886
0.098386
0.371923
0.0924308
0.00857905
0
0
0.00108666
0.014607
0.0529287
0.0736578
0.551066
0.0460429
0.0129693
0.010491
0
0.000421654
0.00929765
0.0166555
0.0522242
0.329679
0.0849772
0.0109642
0.014591
0
0.00295158
0.00248618
0.0196255
0.0705049
0.527426
0.0503339
0.00942009
0
0
0.0102087
0.0231014
0.0226002
0.044763
0.336161
0.0671803
0.0379619
0.00996667
0
0.0406933
0.0186108
0.00375584
0.0606157
0.442413
0.0898802
0.0105874
0.0108137
0
0.00342909
0.00413073
0.00678786
0.0378492
0.383274
0.119715
0.0130402
0.00987005
0.000988819
0.0133294
0.00504668
0.00157187
0.0680305
0.621754
0.0953348
0.0987246
0.0227292
0.0481111
0.043486
0.00472149
0.00322633
0.0304531
0.334755
0.0770893
0.0968146
0.0541345
0.267866
0.325443
0.0504281
0.0202513
0.0195808
0.117919
0.235425
0.0363958
0.0195386
0.0205562
0.00810906
0.000777018
0.000180228
0.0385954
0.502968
0.319281
0.0537045
0.0865081
0.136549
0.120628
0.0146987
0.0169531
0.0475563
0.251226
0.0219543
0.0195329
0.0364774
0.191694
0.459942
0.133606
0.159441
0.0310495
0.0254804
0.0356381
0.00914117
0.0303953
0.067486
0.101275
0.0976024
0.22457
0.144404
0.112361
0.210933
0.0177051
0.061484
0.121033
0.245135
0.0629478
0.0729476
0.0723769
0.173211
0.374857
0.0821763
0.0938274
0.0890483
0.0840453
0.0562096
0.0788178
0.0574706
0.173564
0.0707307
0.0191387
0.0370865
0.133419
0.120327
0.152044
0.109921
0.178121
0.136715
0.0560543
0.028264
0.080355
0.0962108
0.208535
0.295681
0.0821254
0.0956985
0.11994
0.377975
0.152081
0.111626
0.148411
0.0604205
0.051035
0.0377085
0.0806917
0.127394
0.19437
0.14262
0.0908033
0.11321
0.177831
0.156261
0.059098
0.0511068
0.138152
0.0192667
0.0639712
0.0978025
0.00716485
0.0419609
0.144974
0.159382
0.0988039
0.0298572
0.0302655
0.104773
0.164458
0.0953076
0.144125
0.1407
0.124031
0.0733738
0.0354687
0.0130908
0.0365463
0.0737118
0
0.0878291
0.136672
0.340121
0.125516
0.0154787
0.108379
0.16979
0.207669
0.0118106
0.0635364
0.117545
0.198709
0.0648111
0.0809112
0.0413679
0.035918
0.0969274
0.0991119
0.0731001
0.106901
0.0703764
0.114664
0.0877113
0.125711
0.0881895
0.163271
0.0396361
0.123201
0.0291265
0.0322358
0.106346
0.200619
0.0825363
0.117253
0.196394
0.0111133
0.0282439
0.159861
0.0586245
0.0365932
0.0930448
0.0980296
0.213408
0.365818
0.0890699
0.0810159
0.142527
0.0362423
0.0397682
0.115831
0.0880018
0.0792684
0.150859
0.0521642
0.10389
0
0.045707
0.0510347
0.127659
0.153865
0.133558
0.159095
0.0869403
0.118439
0
0.0884338
0.0519388
0.154615
0.0700721
0.174118
0.19083
0.110633
0.164221
0.0145352
0.0163878
0.0456118
0.0542558
0.0373118
0.0958856
0.175173
0.0634977
0.39017
0
0.0510701
0.0776847
0.0366537
0.130773
0.123068
0.114885
0.0422984
0.0519626
0.0307557
0.0847713
0.0332837
0.112936
0.161461
0.0563924
0.0916857
0.0327735
0.00523771
0.125718
0.206107
0.0958538
0.226385
0.020322
0.07388
0.225138
0.046354
0.220326
0.00439367
0.0703445
0.0319439
0.02002
0.0546837
0.0551782
0.191881
0.0546225
0.152947
0.131645
0.274089
0.077733
0.0544282
0.089613
0.0426581
0.0775217
0.00433121
0.00972208
0.0851037
0.168911
0.0835496
0.204261
0.148804
0.102431
0.118065
0.0256098
0.0752921
0.0152546
0.122838
0.128595
0.349462
0.0408111
0.0272917
0.0857621
0.00721868
0.100655
0.161713
0.249208
0.0604751
0.0408111
0.106617
0.0857518
0.162952
0.042683
0.119334
0.0514161
0.163222
0.0461241
0.0968427
0.155796
0.112052
0.0583262
0.0189009
0.0462319
0.0270207
0.0282737
0.0584793
0.248731
0.3449
0.101161
0.0542666
0.0139084
0.106877
0.0661169
0.028301
0.0904706
0.478303
0.109554
0.11715
0.051286
0.0315016
0.0563489
0.0204289
0.061488
0.0215374
0.0818532
0.174565
0.157881
0.0530815
0.0112252
0.115326
0.0691855
0.0396202
0.0086357
0.10783
0.404977
0.0226217
0.0512328
0.0255728
0.0568135
0.0125065
0.00917963
0.0374327
0.300152
0.456729
0.0199601
0.0827086
0.0467906
0.0682693
0.0197047
0.0536769
0.138583
0.308182
0.101808
0.0694711
0.0563705
0.0213032
0.0794859
0.0163318
0.0328203
0.0105088
0.0534959
0.0801139
0.0646874
0.0666585
0.019652
0.0842109
0.0310848
0.14631
0.0752643
0.0766434
0.280833
0.0128098
0.0271992
0.0312828
0.0671101
0.0286313
0.0542984
0.113282
0.243032
0.557359
0.154373
0.0875442
0.022615
0.0508333
0.0136087
0.0100134
0.0184326
0.179306
0.0994676
0.0496329
0.0196112
0.00157434
0.0697967
0.0336862
0.118412
0.0603344
0.0936403
0.188193
0.11672
0.0886548
0
0.116032
0.00481232
0.0692854
0.0254232
0.082306
0.393249
0.238247
0.135098
0.0307461
0.0250491
0.00403246
0.0275656
0.0262066
0.115031
0.154056
0.181119
0.140895
0.0360969
0.0988346
0.0161966
0.0910326
0.0537337
0.145591
0.123435
0.105162
0.154619
0.0251744
0.106768
0
0.0628622
0.0232081
0.0669037
0.0801937
0.0747176
0.178312
0.0555789
0.222321
0
0.089144
0.0318159
0.0836355
0.0305049
0.0468851
0.115706
0.0237316
0.11884
0.0260197
0.194277
0.0589365
0.0268657
0.110569
0.20699
0.212658
0.0395527
0.0866938
0.00741824
0.103497
0.0336673
0.0713009
0.119895
0.0691679
0.221715
0.0395527
0.127311
0
0.0613323
0.019988
0.119375
0.227176
0.0935208
0.167142
0.0659211
0.181831
0
0.0192298
0.00640995
0.215261
0.0831668
0.133495
0.124869
0.00552945
0.103757
0.103924
0.0282742
0.00325548
0.0592378
0.0930861
0.103426
0.177344
0.0907363
0.182816
0.164729
0.0821709
0.0302077
0.0862649
0.16334
0.0551629
0.0490135
0.00921575
0.168119
0.0658287
0.0447826
0.00676301
0.153409
0.11636
0.0461611
0.114607
0.0129623
0.231025
0.109715
0.206427
0.135729
0.129673
0.0492241
0.107111
0.0591624
0.0811182
0.190573
0.0193536
0.0805268
0.0994307
0.0414474
0.0473414
0.095851
0.0656498
0.0150767
0.331013
0
0.0978301
0.118908
0.0440094
0.062091
0.0807952
0.094382
0.0115883
0.120101
0.0132743
0.199437
0.185641
0.0716884
0.121471
0.110249
0.121125
0.0260739
0.134225
0
0.267605
0.146084
0.112769
0.0359228
0.0589356
0.157319
0.0153548
0.23579
0
0.0548837
0.0277253
0.0360185
0.0677707
0.0558525
0.160233
0.0144728
0.274427
0.0671886
0.112423
0.0283333
0.0677707
0.116405
0.0711445
0.170563
0.0729652
0.134104
0
0.116567
0.0382926
0.111246
0.183373
0.127843
0.142842
0.0437791
0.200975
0.00715469
0.102962
0.0199927
0.163769
0.0994777
0.0286655
0.0842805
0.00131909
0.189628
0.0992243
0.133135
0.0304028
0.0994777
0.19171
0.0545638
0.167891
0.0077996
0.06893
0.0283079
0.113091
0.0336531
0.19171
0.157424
0.0583821
0.0678575
0
0.140724
0.00848505
0.0663523
0.0151002
0.148871
0.181952
0.0505925
0.151778
0
0.04572
0.00121215
0.0769916
0.0290816
0.181952
0.157285
0.0504625
0.0803344
0.0133826
0.0138732
0.00141946
0.0935546
0.0309301
0.150764
0.167177
0.171606
0.171149
0.0471379
0.046929
0.00993625
0.0636326
0.0194274
0.136422
0.168989
0.0244586
0.0792947
0.0109924
0.0259203
0
0.108555
0.0393097
0.168989
0.22075
0.119353
0.226353
0.0769471
0.131225
0
0.12882
0.0433863
0.207056
0.0815799
0.191361
0.137095
0.0487289
0.0561223
0.00347441
0.0351207
0.0114137
0.0429775
0.0654794
0.145092
0.085332
0.0543087
0.118101
0.0203259
0.194605
0.0642778
0.0338806
0.155582
0.164988
0.187791
0.0464573
0.122787
0
0.0580119
0.0248025
0.130405
0.171137
0.190447
0.144291
0.0495503
0.265255
0.0208269
0.0860439
0.0615086
0.138715
0.0540265
0.0981446
0.0132364
0.00639057
0.0596848
0.0363423
0.188225
0.0642566
0.0315724
0.0549066
0.0982346
0.0278792
0
0.0876133
0.0186932
0.272516
0.0981127
0.0346779
0.0676343
0.084602
0.0656802
0.0185851
0.144142
0.0492241
0.181676
0.108917
0.0613432
0.0228035
0.0316526
0.0238576
0.0167436
0.13219
0.0727196
0.451033
0.227314
0.0317091
0.0510463
0.0189756
0.0473006
0.028712
0.133657
0
0.145859
0.0500932
0.0492293
0.0563771
0.0170471
0.0936628
0.0900839
0.28629
0.00945567
0.0922594
0.0294023
0.0563771
0.0837505
0.00121695
0.012892
0.0201268
0.132335
0.0472828
0.288449
0.136381
0.0892996
0.205841
0.00433129
0.0318448
0.0344638
0.164696
0.0729443
0.245847
0.117749
0.212998