0.0775898
0.102039
0.00639397
0.0276447
0.143384
0.19247
0.104838
0.197847
0.0795757
0.10772
0.0558451
0.0455067
0.0678325
0.0532199
0.125019
0.134568
0.163944
0.214536
0.294403
0.238326
0.0210872
0.0363499
0.214036
0.194178
0.0321207
0.0898762
0.11908
0.10836
0.0926071
0.0623734
0.0697429
0.0796533
0.244737
0.100007
0.163543
0.218921
0.095792
0.0733828
0.0838668
0.0954303
0.00520025
0.0498194
0.142154
0.172791
0.104356
0.293241
0.140034
0.0701875
0.110084
0.0169274
0.0639403
0.0643795
0.121698
0.220041
0.110152
0.0299367
0.0882929
0.10813
0.0105387
0.0715721
0.101325
0.230086
0.152431
0.177544
0.0713964
0.105524
0.100038
0.0271842
0.0959598
0.12319
0.38
0.2004
0.19402
0.0529263
0.0225597
0.0414279
0.0194483
0.0521474
0.012577
0.0896495
0.267104
0.170138
0.0589239
0.0720676
0.0721697
0.0204197
0.0392835
0.0828041
0.0985721
0.285918
0.215327
0.0892868
0.019962
0.0345012
0.0320277
0.088861
0.0479892
0.242832
0.234341
0.254659
0.170971
0.0436748
0.0445559
0.0195202
0.097178
0.221543
0.172475
0.28313
0.0666379
0.0415145
0.024388
0.0348153
0.0502731
0.0783078
0.144187
0.0720744
0.0945132
0.0716135
0.0385203
0.0440623
0.0406536
0.0806048
0.10506
0.174522
0.107913
0.0664826
0.131046
0.0587326
0.0377037
0.0326411
0.0331369
0.0780405
0.258114
0.159671
0.196632
0.457896
0.0920497
0.0141131
0.0447216
0.0534737
0.0442782
0.233716
0.241523
0.316559
0.0761053
0.0552529
0.033717
0.00632642
0.0471605
0.0355162
0.0387912
0.0372917
0.0522913
0.115337
0.1321
0.0279792
0
0.063954
0.0741546
0.0227308
0.017588
0.0609002
0.427859
0.210944
0.0132366
0.00439319
0.0273494
0.0100817
0.0516689
0.0839276
0.180571
0.419892
0.311365
0.0176932
0
0.0325163
0.0612386
0.225087
0.185468
0.30359
0.0869618
0.111949
0.024789
0.00189999
0.0930762
0.087786
0.0292596
0.00479803
0.0433988
0.0350226
0.0587418
0.0212304
0.00868425
0.143301
0.233077
0.0991734
0.00220953
0.032197
0.186958
0.138905
0.0223617
0
0.072681
0.075184
0.307758
0.217019
0.235433
0.213258
0.122848
0.0328552
0.000788229
0.099794
0.156531
0.283361
0.123528
0.408388
0.0480196
0.0641661
0.0363643
0.0174397
0.037611
0.113847
0.0824671
0.0241581
0.0407522
0.180994
0.0799146
0.0348009
0.0101731
0.0190799
0.0601697
0.041835
0.094767
0.116675
0.312709
0.151149
0.0412357
0.00242218
0.0171569
0.0836765
0.143914
0.0498573
0.347074
0.392341
0.118988
0.0520553
0.00145331
0.0111127
0.043525
0.141782
0.237075
0.319273
0.131742
0.0242496
0.0167877
0.00497018
0.0552797
0.0995457
0.0448785
0.146978
0.112671
0.11142
0.108463
0.033992
0.0336876
0.0416768
0.112216
0.0676842
0.13697
0.0765388
0.221889
0.109692
0.0843667
0
0.0307299
0.0747604
0.12529
0.217929
0.258571
0.229909
0.150034
0.065524
0.0110917
0.0207244
0.0871016
0.253859
0.301904
0.286038
0.0900482
0.149445
0.0413519
0.0625598
0.00641026
0.0142105
0.0364057
0.0303591
0.0568866
0.121863
0.153924
0.10646
0.088644
0.0289978
0.00927162
0.0302175
0.0236612
0.0637583
0.292866
0.135009
0.0100162
0.0293297
0.00207386
0.015309
0.115425
0.131936
0.28443
0.370097
0.189185
0.0228163
0.0175978
0.00307706
0.00556297
0.0286627
0.133518
0.400397
0.112653
0.13121
0.029535
0.0236904
0.0210014
0.0123129
0.00343974
0.0191181
0.0495389
0.155812
0.166515
0.0199391
0.029941
0.017638
0.0283584
0.0109088
0.0403702
0.085143
0.238948
0.414676
0.0946275
0.0142143
0.00589761
0
0
0.0441389
0.0274212
0.31851
0.629819
0.0866403
0.0160373
0.0260291
0.00826903
0.000161762
0.0280564
0.0391038
0.204768
0.0868699
0.0792469
0.0491818
0.0187398
0.0154185
0.0177843
0.0611357
0.0738251
0.157909
0.0876413
0.178339
0.0439825
0.00973972
0.0112758
0.0485188
0.147035
0.0906589
0.291481
0.457288
0.173046
0.0312391
0.085875
0.0352578
0.0121737
0.00953431
0.0301575
0.349533
0.269969
0.23643
0.0500323
0.0493609
0.0211547
0.0512123
0.0317661
0.124014
0.103906
0.0971658
0.0521295
0.00395359
0.00170847
0.00504817
0.0119512
0.0560305
0.0422883
0.120309
0.196518
0.0556942
0.00237678
0.000627788
0.00976473
0.0238577
0.0227004
0.0498392
0.146728
0.253125
0.129163
0.00895122
0
0
0.00877714
0.00845913
0.0495356
0.161284
0.758743
0.276102
0.000894714
0
0
3.61166e-005
0.00117132
0.0208818
0.0433753
0.0792181
0.0308011
0.00116201
0.000409389
0.00465654
0.015447
0.0160821
0.0545416
0.195529
0.11858
0.0204372
0.00159207
0.000682315
0.00106141
0.0101497
0.0223399
0.0873512
0.171373
0.46848
0.0973423
0
0
0
0
0.00236827
0.0199332
0.525211
0.545996
0.0329686
0
0
0
0
0.00737767
0.0459616
0.229301
0.104007
0.00927693
0.000204914
8.78202e-005
0
0.00226732
0.0134192
0.0661346
0.204855
0.0775264
0.00500531
0
0
0.0121609
0.0619025
0.084718
0.18359
0.529973
0.197712
0.00716314
0
0
0
0
0.00719403
0.0883896
0.529125
0.0550489
0.0027694
0
0
0.00173727
0.0121482
0.0384394
0.373448
0.0842188
0.01959
0.00122985
0
0.00134637
0.0122399
0.0649638
0.0876069
0.209438
0.0890988
0.0249342
0.00258052
0
0.00224395
0.00488493
0.0289677
0.0937988
0.30462
0.190457
0.00448831
0
0
0
0.00169412
0.0121764
0.118023
0.468932
0.0753125
0.00460317
0.00320456
0.01019
0.00632964
0.000242017
0.0206156
0.417415
0.537899
0.141289
0.0405211
0.004306
0
0.00326559
0.00432643
0.036959
0.0971288
0.284965
0.154995
0.0393406
0.00621728
0.00194137
0.0264498
0.0128171
0.0763305
0.11786
0.14201
0.0483591
0.0122212
0.00594285
0.0528129
0.0663712
0.0261052
0.167067
0.525374
0.370603
0.0562667
0.0197756
0.00156422
0.0658945
0.154988
0.137479
0.352056
0.210964
0.0957935
0.143241
0.086971
0.0232005
0.00880552
0.0241814
0.0231221
0.0808734
0.0790051
0.163558
0.190079
0.0698343
0.0197637
0.0184339
0.00473244
0.063135
0.130849
0.111465
0.325392
0.107052
0.0841791
0.00653107
0.07115
0.11983
0.0933896
0.263189
0.176857
0.157638
0.253183
0.235654
0.0367938
0.0589008
0.0253342
0.106138
0.124595
0.163214
0.427799
0.216497
0.0317588
0.0013162
0.0416651
0.0320351
0.031304
0.0495993
0.0832481
0.316571
0.204241
0.0799991
0
0.0661796
0.0518577
0.0121476
0.0051976
0.106432
0.328787
0.164509
0.166054
0.0810557
0.0910479
0.0918371
0.122644
0.0464278
0.102971
0.279267
0.293971
0.176309
0.107464
0.159476
0.126198
0.088109
0.0414804
0.188543
0.192315
0.155999
0.273918
0.0901073
0
0.00273172
0.00647002
0.00254286
0.071866
0.0566799
0.26788
0.4796
0.0668809
0
0.00736887
0.00315809
0
0.0267774
0.0625646
0.1708
0.171552
0.0812684
0.00206798
0.00455287
0.0148839
0.0328585
0.0986614
0.0835359
0.426571
0.339886
0.162339
0.0127749
0.00874886
0
0.00238105
0.0303147
0.089981
0.201927
0.234101
0.0680441
0.00184804
0.0191243
0.00819612
0.0111105
0.00284847
0.0588527
0.284254
0.163407
0.133158
0.0236814
0.0114746
0.00491767
0.0261169
0.0108235
0.0859004
0.4035
0.133008
0.0992654
0.0311765
0.0289065
0
0.0122865
0.00750069
0.127355
0.420347
0.235681
0.367813
0.131624
0.0570291
0
0.0550117
0.0470353
0.0942929
0.0643903
0.146797
0.114545
0.00897133
0
0
0.0024987
0.00141679
0.0194401
0.0591337
0.412215
0.300621
0.00219094
0.00173595
0
0
0
0.00301622
0.0533059
0.231324
0.359039
0.0381701
0.00745903
0
0.00767682
0.00721605
0.00395128
0.0168082
0.368949
0.540826
0.0633807
0.0166545
0
0
0
0.000388627
0.151852
0.391496
0.150132
0.00105172
0.0019532
0
0
0
0
0.332365
0.375037
0.017047
0.000150246
0.000279028
0
0
0.0184372
0.04895
0.0831979
0.343728
0.275201
0.0675104
0.0155362
0
0
0
0
0.2745
0.389541
0.0895824
0.020267
0.0019532
0
0.00724369
0.0563092
0.137031
0.335365
0.1405
0.00229738
0
0
0
0
0.0600664
0.125398
0.343466
0.106444
0.012969
0
0
0
0
0.0501306
0.206724
0.177588
0.124388
0.0102855
0.00221359
0.0074429
0.00608964
0.0267154
0.283919
0.307704
0.181518
0.373144
0.0549033
0.00144823
0.0124048
0.0147291
0.0228989
0.301098
0.278497
0.19088
0.0533672
0.00392129
0
0
0
0
0.0550716
0.229252
0.177691
0.0528652
0.0204673
0.0301112
0.0187039
0
0.0202603
0.266514
0.291648
0.302635
0.27427
0.0583102
0.00323557
0.00137981
0.00489302
0.0111273
0.0378936
0.128343
0.568449
0.191247
0.0690345
0.0200081
0.0112223
0.0104798
0.0444915
0.05415
0.251352
0.0984617
0.0868883
0.0634651
0.0946354
0.165644
0.042602
0.12003
0.291604
0.126686
0.0164867
0.0257348
0.0313486
0.0706965
0.215873
0.159468
0.281718
0.150001
0.0173238
0.46254
0.182369
0.0960657
0.0458633
0.132378
0.066451
0.121593
0.106992
0.17136
0.113116
0.062564
0.0534538
0.0213865
0.185429
0.186597
0.25806
0.132448
0.0320295
0.0282722
0.0194507
0.000996033
0.0268626
0.0659195
0.0785362
0.243614
0.259973
0.0793412
0.120637
0.180651
0.0477242
0.0375143
0.0200615
0.0477141
0.142847
0.192038
0.18225
0.124092
0.0431427
0.00213956
0.001134
0.086023
0.139145
0.281048
0.188364
0.0728693
0.182229
0.0701525
0.0398087
0.0455929
0.127685
0.120084
0.497407
0.153951
0.134128
0.0290794
0.074344
0.0546139
0.0373806
0.0543357
0.0580164
0.0252857
0.0218999
0.0316766
0.142617
0.105976
0.116878
0.142072
0.109572
0.060108
0.0195431
0.0475037
0.0292929
0.0188511
0.0213043
0.0365513
0.104495
0.232151
0.079711
0.104044
0.0213954
0.0319762
0.0674235
0.111803
0.102755
0.401323
0.717035
0.0619475
0.0123043
0.00905014
0.0236839
0.253644
0.094499
0.0962604
0.00793245
0.000869486
0.00487271
0.0400565
0.0839683
0.0644792
0.345769
0.202985
0.26791
0.0512522
0.0123458
0
0.00476359
0.0400205
0.108807
0.316521
0.0672837
0.0360647
0.00475947
0
0.0129285
0.0653861
0.103797
0.123575
0.450769
0.208273
0.1188
0.0451507
0.00176368
0.00308105
0.0699198
0.0654477
0.192881
0.0930588
0.0373083
0.0869728
0.0565413
0.0242014
0
0.0015164
0.00187866
0.0437121
0.0594166
0.0557505
0.374416
0.211196
0.045682
0
0.0100714
0.0100714
0.0192288
0.113457
0.0551393
0.0697709
0.201833
0.0343732
0.000170399
0.00378097
0.00382448
0.0503759
0.0289391
0.0138024
0.397918
0.672488
0.074913
0.00201944
0
0.000106462
0.00951157
0.0107203
0.136933
0.448657
0.146818
0.0246169
0.00728928
0.00524609
0.00387984
0.000852369
0.000493126
0.161954
0.373218
0.232571
0.100119
0.0211793
0.00227707
0.000740731
3.8986e-005
0.000236446
0.0152798
0.278624
0.325033
0.0623965
0.0351313
0.0105632
0.00399801
0
0.000394077
0.0270241
0.103076
0.218808
0.339095
0.241256
0.0414209
0.0294919
0.000272902
0.0183128
0.198526
0.251893
0.239801
0.0668215
0.0082217
0.000295062
0.00192788
0.000101468
0.156625
0.384188
0.156295
0.144163
0.0368487
0.002692
0.0339234
0.0542516
0.114542
0.00178772
0.0642685
0.0986001
0.237975
0.300797
0.199875
0.081229
0.0688761
0.0010732
0.155946
0.24323
0.133163
0.259781
0.215417
0.108685
0.196993
0.125231
0.0703597
0.122293
0.120428
0.0183319
0.0379624
0.0448211
0.0373496
0.13512
0.209572
0.214607
0.100746
0.166253
0.0376663
0.0354448
0.0748549
0.0749734
0.134512
0.243565
0.252355
0.173908
0.147667
0.203926
0.241988
0.169202
0.0579938
0.196343
0.1224
0.0929386
0.0725703
0.0450739
0.282808
0.240998
0.22072
0.083404
0.230759
0.214455
0.0745172
0.219298
0.237332
0.0962739
0.043679
0.0603423
0.037888
0.072627
0.097458
0.108733
0.383
0.17996
0.0876438
0.0132879
0.0747102
0.164689
0.223113
0.0942289
0.128442
0.14857
0.0414387
0.108436
0.0907314
0.127319
0.039144
0.171059
0.269277
0.0475533
0.137593
0.150341
0.0937588
0.0915265
0.244945
0.278062
0.182347
0.111478
0.0372187
0.133209
0.0418704
0.017996
0.0127622
0.0518365
0.111403
0.151074
0.0622203
0.0594368
0.0641662
0.0529148
0.119872
0.0496966
0.0627467
0.0921347
0.140623
0.0683231
0.027604
0.0246568
0.102446
0.18371
0.129019
0.150223
0.156566
0.08478
0.0130811
0.0136727
0.0296465
0.182677
0.737539
0.238111
0.118673
0.0473294
0.0540432
0.0220326
0.0147192
0.109207
0.102152
0.105046
0.0169464
0.0284581
0.0531431
0.10016
0.0334735
0.0495768
0.104879
0.0605894
0.0284317
0.0211388
0.13089
0.111424
0.267942
0.0402919
0.0699909
0.0533352
0.192179
0.449562
0.0687212
0.0359412
0.0660339
0.119888
0.0236623
0.0280616
0.0426128
0.080611
0.0819047
0.0401089
0.29556
0.397942
0.431707
0.0297098
0.0373472
0.00576451
0.000511935
0.00967531
0.0491906
0.164467
0.0421396
0.0672097
0.00987005
0.00967968
0
0.0082288
0.0106856
0.105094
0.518611
0.0234357
0.00615414
0.00131019
0.00279929
0.00191988
7.31335e-005
0.00519183
0.0422851
0.294959
0.130481
0.0971416
0.00316822
0.00279585
0
0
0.0031151
0.0339624
0.699435
0.0916941
0.01822
0.00247958
0
0.126126
0.0185478
0.00237858
0
0
0.020662
0.0514471
0.0830243
0.134627
0.25684
0.0941406
0.0265509
0.00376649
0.000487084
0.00476309
0.053447
0.0531242
0.0987399
0.48759
0.0228622
0.000339798
0
0
0.0163964
0.0351942
0.061398
0.328675
0.514503
0.0572223
0.0159645
0.00883094
0.0113821
0.109414
0.204589
0.0851764
0.194152
0.0896951
0.0465135
0.0284489
0.183929
0.0552291
0.00537396
0.00643909
0.00849174
0.0208323
0.0163138
0.0199343
0.089144
0.548306
0.148666
0.00784745
0.000789018
0.000716992
0.00285905
0.0840992
0.023457
0.0234788
0.0977708
0.245606
0.0860349
0.0796384
0.0263889
0.0224029
0.00515249
0.0175067
0.0216574
0.23888
0.605373
0.0659248
0.00940566
0.00320688
0.00108779
0.00122894
0.0130752
0.0908711
0.370565
0.13965
0.0502041
0.0118008
0.0115206
0.000684023
0.00204824
0.0112969
0.00941093
0.0518419
0.317364
0.438641
0.25644
0.0933142
0.00162045
0.00141026
0.0214542
0.0173401
0.133024
0.326928
0.0691182
0.00900248
0.0141993
0.00231303
0.00504036
0.0517894
0.0887087
0.00529443
0.0610733
0.158953
0.3188
0.112729
0.00587422
0.000131961
0.00536566
0.00471434
0.0254065
0.1253
0.197888
0.282833
0.12312
0.00132022
0.152175
0.084196
0.0664045
0.0575917
0.0803571
0.113259
0.321907
0.214245
0.0387081
0.00231657
0.0543887
0.167533
0.0144092
0.0102608
0.0693723
0.383649
0.145893
0.00123455
0.10593
0.163667
0.285902
0.0702492
0.0437791
0.123435
0.392403
0.208047
0.0307561
0.223103
0.231823
0.259699
0.161189
0.0747648
0.0319281
0.103502
0.0977459
0.0640018
0.04929
0.127846
0.347553
0.197025
0.0811317
0.0221456
0.165536
0.199382
0.05925
0.223545
0.254941
0.15644
0.071085
0.0616631
0.0675345
0.0837659
0.100514
0.12908
0.150563
0.151531
0.0997259
0.0362691
0.00880902
0.0147377
0.117727
0.2272
0.280312
0.0548378
0.0246484
0.0711132
0.0246117
0.0184481
0.00607342
0.110029
0.194797
0.0628369
0.0790742
0.242623
0.241133
0.0524631
0.0476129
0.0351224
0.0231666
0.0712568
0.068297
0.0396136
0.0808609
0.0790962
0.0542044
0.00149057
0.0265809
0.100426
0.184359
0.128742
0.0326025
0.465893
0.557281
0.237233
0.00248428
0.0288098
0.0694473
0.112051
0.0757765
0.016661
0.2043
0.343777
0.0687281
0.0333627
0.0220146
0.00108258
0
0.00607401
0.0102309
0.169613
0.530572
0.104056
0.0270427
0.00689799
0
0
0.000396399
0.00727317
0.294342
0.463236
0.0854118
0.000309936
0.00245205
0.035629
0.0286838
0.00568604
0.0112417
0.132734
0.312995
0.0330612
0.014202
0.00639303
0.0193649
0.0102567
0.00382927
0.00292981
0.0811012
0.228694
0.0374267
0.04978
0.0484056
0.0281576
0.00207589
0
0
0.0178631
0.0267809
0.0193389
0.323159
0.41111
0.123679
0.00345982
0
0.00558115
0.0315699
0.05683
0.0108486
0.090712
0.0357555
0.00296331
0.00272779
0.00203825
0.000262156
0.00458934
0.00420612
0.0694946
0.652169
0.311241
0.00433657
0.00171841
0.000303249
0
0
0
0.0383367
0.268755
0.195423
0.0346118
0.00030543
0
0.000991253
0
0.000666479
0.0365748
0.468379
0.132849
0.0202178
0.0168559
0.0100923
0
0
0
0.0771014
0.46653
0.203445
0.00220668
0.0001517
2.67706e-005
0.00923175
0.00187607
0.00880171
0.0633638
0.53203
0.141221
0.0127858
0.023473
0.0211044
0.303244
0.016128
0
0
0
0.00711558
0.0141398
0.0457671
0.274082
0.268495
0.0412653
0.0457577
0.014148
0.0240604
0.134162
0.125306
0.0168841
0.166431
0.194825
0.0542474
0.0461324
0.0384473
0.0279263
0.0217404
0.00802421
0.0894661
0.497229
0.281074
0.0907079
0.0852089
0.0173632
0.0227867
0.0706745
0.0314392
0.0526382
0.418853
0.0447676
0.0117557
0.0450969
0.033504
0.254069
0.153114
0.0742722
0.0101186
0.0253954
0.00267099
0.00289331
0.0104338
0.0360484
0.574769
0.161824
0.0075205
0.00121533
0.00242871
0.0867729
0.0213771
0.086721
0.0555201
0.158251
0.17684
0.0579507
0.018011
0.13124
0.0163661
0.00663555
0.0449474
0.0802663
0.40199
0.378684
0.162484
0.0237735
0.0282291
0.00142806
0.00854146
0.01768
0.0166937
0.129423
0.0447671
0.00117905
0.00308384
0.00111849
0.00244743
0.0906821
0.235115
0.0196389
0.0047249
0.00828576
0.0230547
0.0146652
0.0015983
0.00457642
0.0374981
0.180144
0.0533823
0.115977
0.101059
0.0533936
0.0191757
0.00491838
0.0106838
0.216408
0.82427
0.174379
0.0228218
0.00358117
0.00175121
0.00313479
0.00251029
0.00345187
0.142512
0.349758
0.021522
0.000282091
0.00544561
0.053048
0.0280656
0.000399021
0.0584239
0.252337
0.321701
0.0600959
0.0151851
0.03016
0.066911
0.0537181
0.00914242
0.0238723
0.23013
0.566015
0.106312
0.0168376
0.00814141
0.000151842
0.00580876
0.000313095
0.182335
0.267256
0.301584
0.0851975
0.0116649
0.0215904
0.000572914
0.0410092
0.0208702
0.155321
0.12712
0.0527422
0.03188
0.0173649
0.0146091
0.0132076
0.0312366
0.057281
0.251703
0.118133
0.000187585
0.0029761
0.0024807
0.00595255
0.0185428
0.0363217
0.146844
0.338221
0.212764
0.0744707
0.0269686
0.00596879
0.00623607
0.000241018
0.0193068
0.0422386
0.463758
0.602533
0.10226
0.00673585
0.000751251
0.00261329
0.00343629
0.00298117
0.0767217
0.170548
0.0860108
0.0247961
0.0422892
0.00338646
0.0470367
0.0445446
0.0435026
0.108244
0.0874955
0.115218
0.148388
0.192193
0.0056441
0.0694697
0.202717
0.155897
0.0792869
0.402115
0.339641
0.0469323
0.00690401
0.00609415
0.0319696
0.0288751
0.0545481
0.220057
0.220181
0.0447903
0.00932255
0.043762
0.0566631
0.208952
0.337469
0.277352
0.263616
0.0154435
0.100199
0.158737
0.111204
0.00530521
0.0547055
0.28633
0.149787
0.0114013
0.00346223
0.0404168
0.0706181
0.0231657
0.021508
0.0676265
0.13261
0.0454915
0.00566557
0.0265026
0.0152222
0.00546939
0.0379692
0.134048
0.369142
0.518941
0.188437
0.037544
0.00582634
0.017855
0.0148151
0.027689
0.226127
0.358165
0.233561
0.0402266
0.000809367
0.00261247
0.0220103
0.0126975
0.0121696
0.058493
0.0230049
0.00707123
0.00459421
0.00240042
0.000727627
0.00872168
0.00918205
0.23987
0.496194
0.0863131
0.00180094
0.00476953
0.000841682
0.00505529
0.0236418
0.0537618
0.0957087
0.088633
0.0639985
0.00513188
0.00196453
0.000573778
0.00591208
0.018559
0.194813
0.63054
0.342043
0.0361434
0.0150567
0.00857848
0.000505009
0
0.00010295
0.00180694
0.190999
0.37826
0.0722326
0.0034606
0.000456292
8.05222e-005
0.00972154
0.0149678
0.0211555
0.139262
0.433278
0.0586744
0.00594065
0.00571059
0.00644097
0.00945288
0.00426135
0.055937
0.33984
0.255223
0.0442872
0.032587
0.0112588
4.83134e-005
0.00980991
0.0208733
0.0324182
0.227066
0.52677
0.0730468
0.0240028
0.00705927
0.00046825
0.0931565
0.0361567
0.0405703
0.0455994
0.0445753
0.0233201
0.00772402
0.0616012
0.274238
0.249791
0.0400896
0.0254201
0.00933146
0.00330966
0.00592447
0.0124037
0.0727065
0.353019
0.179886
0.0117241
0.0141745
0.0163104
0.0252623
0.0206073
0.0160315
0.0828399
0.396162
0.393374
0.0153381
0.0212537
0.00471991
0.00573476
0.00907392
0.00911353
0.0968134
0.500277
0.165416
0.00976736
0.0514505
0.0557214
0.0176405
0.0495002
0.0610355
0.0531355
0.23119
0.0512137
0.0286618
0.0611077
0.0706754
0.0685231
0.14857
0.255194
0.15465
0.201412
0.243187
0.00974017
0.028433
0.0255539
0.0112549
0.0195108
0.0752864
0.188732
0.369172
0.0820651
0.0338011
0.0271291
0.0623315
0.0348093
0.0348597
0.184278
0.35376
0.464041
0.0268459
0.106007
0.25177
0.0379962
0.0327096
0.0561443
0.0983372
0.0968163
0.102246
0.0230667
0.148608
0.637505
0.203944
0.0877974
0.059011
0.00740721
0.0184982
0.0170045
0.0509527
0.0973557
0.118079
0.0257099
0.0187742
0.0420762
0.0687642
0.201524
0.289441
0.0243846
0.0793878
0.198868
0.0690911
0.0963912
0.222371
0.0764129
0.139598
0.0851911
0.0364326
0.119147
0.382911
0.197595
0.103136
0.122082
0.0343838
0.0121719
0.00455911
0.142546
0.10678
0.18074
0.15626
0.126234
0.192679
0.0651485
0.0182366
0.0156975
0.125045
0.0984634
0.0660096
0.0706078
0.0920474
0.249467
0.111258
0.155684
0.0789771
0.405894
0.161048
0.0822145
0.144669
0.207251
0.213637
0.131244
0.0912532
0.122988
0.144883
0.126983
0.131797
0.0617987
0.100533
0.054835
0.0170247
0.00975541
0.0221213
0.264054
0.439122
0.221492
0.0280375
0.0442382
0.0256782
0.00435041
0.0125967
0.0936046
0.169162
0.0468153
0.0781715
0.081089
0.190359
0.0692013
0.0714745
0.0532595
0.143786
0.376065
0.059871
0.101064
0.0268077
0.0773489
0.042797
0.0392651
0.068757
0.466687
0.235431
0.206863
0.0661687
0.00234694
0.0130946
0.00891087
0.0107672
0.0441486
0.143147
0.139109
0.12207
0.0795267
0.0736067
0.124827
0.135214
0.116464
0.10382
0.115345
0.435832
0.098079
0.0314765
0.00140816
0.0100363
0.00594349
0.00232625
0.0185371
0.276326
0.355867
0.428214
0.238848
0.0770065
0.0695458
0.0160994
0.00993744
0.0100092
0.0820583
0.0138997
0.0577131
0.101334
0.129694
0.186823
0.203521
0.130631
0.0336593
0.0111216
0.00538681
0.0197116
0.0697768
0.12599
0.271145
0.17273
0.0549702
0.00408308
0.0046345
0.069478
0.260593
0.384185
0.241047
0.0955898
0.0211577
0.00703626
0.000808838
0.00230048
0.0140462
0.0843616
0.456792
0.344359
0.149197
0.0168342
0.00209469
0.00193104
0.00772416
0.00257388
0.00610542
0.0947114
0.109092
0.0581229
0.0246671
0.000170777
0.000792197
0.00316879
0.0183139
0.026823
0.283548
0.298935
0.0640279
0.0057367
0.00468651
0.00389317
0.00288119
0.00101108
0.0282592
0.472165
0.14914
0.0321123
0.00413961
0
0.00132033
0.00528132
0.0331055
0.103041
0.63689
0.243299
0.00911847
0.00146318
0.000231429
0.000728618
0.0101246
0.0525296
0.0305306
0.11326
0.140888
0.100924
0.0455897
0.0237245
0.0110643
0.00710838
0.0315178
0.0103856
0.0117878
0.0812692
0.430531
0.13534
0.0249086
0.00663856
0.00426503
0.0848785
0.102833
0.168283
0.0815372
0.148226
0.0769175
0.00668147
0.00158061
0.0274268
0.0477693
0.020824
0.00642217
0.0508683
0.713473
0.24828
0.0104132
0.000948365
0.0164561
0.189572
0.0279216
0.0407351
0.0252956
0.0628736
0.117127
0.0345613
0.142173
0.394903
0.380888
0.0504341
0.103474
0.0250057
0.0445373
0.0712773
0.024506
0.157962
0.417382
0.0173362
0.0258022
0.0509783
0.081305
0.177466
0.102819
0.0162587
0.0781164
0.0647758
0.050083
0.0707271
0.109285
0.0844207
0.06759
0.0723736
0.0578894
0.0583401
0.124411
0.0921399
0.0154535
0.0236399
0.0165674
0.0773367
0.104382
0.0920269
0.1149
0.13639
0.0682091
0.0153281
0.00146492
0.105175
0.235383
0.208823
0.136129
0.161261
0.211346
0.0290249
0.0239218
0.0309914
0.0500354
0.192028
0.10787
0.0283564
0.0108391
0.0386579
0.116111
0.0452366
0.00933091
0.150689
0.635153
0.274836
0.0256166
0.00702356
0.0440637
0.0680335
0.0250043
0.0137029
0.0703342
0.0892391
0.138031
0.069241
0.129784
0.175837
0.0190427
0.0594468
0.0629695
0.0569214
0.147162
0.257786
0.15769
0.252282
0.0767928
0.210049
0.0604899
0.05762
0.123108
0.246263
0.181758
0.0631807
0.0279178
0.0432251
0.10497
0.145975
0.228313
0.0883712
0.325602
0.293548
0.225129
0.225328
0.0210493
0.118348
0.107069
0.0648173
0.0385884
0.0651728
0.0631188
0.0568394
0.0924087
0.0583822
0.424898
0.13665
0.0681181
0.0435447
0.0356914
0.0178316
0.0277907
0.0383078
0.245563
0.065551
0.0896212
0.1191
0.0522638
0.148117
0.0668981
0.148548
0.191277
0.0936723
0.27242
0.073141
0.0861293
0.0290549
0.0208868
0.00716498
0.0828824
0.233433
0.555724
0.236294
0.0236316
0.00757741
0.0133914
0.0274922
0.00570649
0.0193154
0.0172486
0.219559
0.303934
0.00229584
0
0.00200132
0.00899393
0.00430579
0.0148795
0.0245028
0.355797
0.227927
0.00743242
0.00553257
0
0
0
0.00155525
0.0467849
0.434318
0.430426
0.00525728
0
0
0
0
0.00093587
0.0039
0.404739
0.307968
0.034585
0.0020319
0
0.000382704
0.000574056
0.000891439
0.00408988
0.226647
0.304468
0.296019
0.0736301
0.0104403
0
0
0
0
0.0945671
0.381296
0.0740598
0.000666343
0
0
0
0.000127348
0.000395763
0.223282
0.392677
0.455205
0.0205822
0.00726764
0
0
0
0
0.114018
0.0715455
0.217856
0.125289
0.0437042
0.00368782
0
0
0
0.00558523
0.0212384
0.201828
0.351184
0.0978355
0.00891958
0
0
0.000158431
0.000633724
0.135164
0.441728
0.102744
0.0085824
0.00045255
0
0
0
0.00823179
0.0347637
0.522977
0.431353
0.0274491
0.00087842
0
0
0
0
0.00408056
0.101781
0.572203
0.0987912
0.00266243
0
0
0.000262911
0.00133917
0.0330055
0.0869675
0.477418
0.121692
0.00140315
0
0
0.000431883
0.0070654
0.0101604
0.229781
0.449536
0.0574963
0.000569949
0
0
0.000402539
0.00362286
0.0396005
0.0684497
0.215697
0.0662926
0.0155341
0
0
0.00281778
0.02536
0.0475829
0.0898436
0.106905
0.0760483
0.181162
0.0531467
0.00192055
0.000194039
0.0135899
0.0159116
0.0179691
0.0057779
0.0492009
0.626518
0.341181
0.0823136
0.017418
0.0244652
0.0266095
0.0465601
0.0372376
0.0582491
0.137078
0.0442119
0.0134438
0.00206659
0.0200751
0.0234187
0.0143466
0.00708395
0.0505941
0.275958
0.29435
0.20889
0.0922089
0.255688
0.0338748
0.0179658
0.0569055
0.0910017
0.257526
0.111788
0.00952196
0.0787846
0.0629979
0.0464737
0.0863569
0.0987667
0.145159
0.0848827
0.0871911
0.0863938
0.109057
0.097392
0.025354
0.090093
0.135041
0.09869
0.290459
0.154094
0.00136028
0.134431
0.129647
0.0915565
0.197852
0.244111
0.13136
0.171367
0.0522152
0.012342
0.17033
0.143331
0.0122853
0.0189871
0.0119222
0.0439703
0.135456
0.0226144
0.0105258
0.00616287
0.012147
0.0394607
0.0201845
0.013473
0.103534
0.518949
0.0474003
0.000670641
0.000575692
0.0061859
0.0198741
0.0410532
0.0392078
0.0835313
0.162373
0.0287483
0.00150369
0.00774955
0.0111176
0.00568851
0.0105623
0.0409307
0.232466
0.686555
0.0437876
9.58059e-005
4.10597e-005
0.000587451
0.0857498
0.0299335
0.0447643
0.0644624
0.29887
0.115341
0.028537
0.00172991
0.00542834
0.0541084
0.11192
0.112666
0.0281385
0.170549
0.258503
0.102068
0.0888447
0.0130407
0.00763782
0.00610139
0.0403242
0.202598
0.54713
0.108516
0.00510413
0
0
0.00828107
0.0584584
0.0699275
0.243387
0.341956
0.256111
0.0364184
0.0521654
0.00660887
0.016139
0.0693004
0.0551692
0.0156362
0.064733
0.078326
0.142278
0.291677
0.0790255
0.133437
0.0552788
0.0220943
0.0149684
0.00795612
0.0225843
0.113494
0.392012
0.527577
0.00457142
0.0531609
0.0373031
0.100759
0.133268
0.149436
0.11404
0.15796
0.0250495
0.125653
0.139859
0.0993601
0.1553
0.0824619
0.140941
0.147582
0.189
0.194594
0.16024
0.0200053
0.00436183
0.00315046
0.00113514
0.0105019
0.00860893
0.0739632
0.486993
0.378478
0.0160543
0.0149317
0.00377625
0.00794601
0.0230877
0.00337203
0.0127513
0.405222
0.128511
0.0780877
0.0741925
0.0620403
0.0915061
0.0879528
0.057544
0.0954092
0.252358
0.178603
0.071958
0.131809
0.0861626
0.220516
0.128384
0.0417441
0.0619913
0.263237
0.381619
0.105257
0.00886832
0.0073857
0.0166776
0.0173198
0.00815675
0.0024677
0.135699
0.340702
0.503827
0.0218506
0.0427716
0.0318459
0.0260551
0.0129341
0.00161393
0.045357
0.178704
0.0946151
0.0772814
0.0507679
0.126617
0.131712
0.0601975
0.0256039
0.147257
0.140168
0.198634
0.0594397
0.112286
0.287612
0.258728
0.0925311
0.0193017
0.0731123
0.1968
0.579773
0.124515
0.0257418
0.0126026
0.00716074
0.00215598
0.0016582
0.00293778
0.0549991
0.47739
0.342962
0.0360889
0.029914
0
0.00329642
0.00209373
0.000175575
0.0759319
0.199782
0.126711
0.0887961
0.125771
0.0787744
0.0155353
0.0176097
0.016581
0.0296315
0.108521
0.155664
0.0418318
0.0913873
0.00505481
0.00576008
0.0149579
0.0123727
0.0389004
0.430942
0.506946
0.105279
0.0385248
0
0.00955038
0.00383955
0.00641974
0.103247
0.166563
0.169236
0.0941419
0.0695916
0
0.00136434
0.00504741
0.0466006
0.0741279
0.169311
0.178615
0.0707967
0.132066
0.00155205
0.0165825
0.00687458
0.0127968
0.149992
0.202774
0.0895222
0.0474154
0.0502935
0.0108643
0.00693004
0.000757967
0.0639893
0.0491399
0.0652794
0.0341618
0.0489021
0.139563
0.0397818
0.0154795
0.0037809
0.054337
0.125072
0.0919946
0.0132364
0.0354853
0.118447
0.158864
0.15894
0.108585
0.667297
0.085312
0.130548
0.0854481
0.0486255
0.0497884
0.00690345
0.00818944
0.002518
0.0559954
0.139393
0.151035
0.0839017
0.0992829
0.0366992
0.00533967
0.0344012
0.0117345
0.212074