0.0266369
0.0255458
0.158362
0.0561455
0.184523
0.165411
0.0557927
0.0346566
0.0366953
0.177226
0.073066
0.100741
0.0290981
0.135827
0.188921
0.12471
0.0916256
0.0982003
0.156135
0.0669432
0.0198665
0.0132528
0.337523
0.185497
0.0812242
0.0588194
0.0632446
0.209828
0.11034
0.0555094
0.0381211
0.492078
0.181188
0.0739358
0.058673
0.135916
0.304099
0.160472
0.0543863
0.0173199
0.052917
0.0455088
0.0620475
0.0510304
0.114697
0.249247
0.217779
0.12864
0.110807
0.0725613
0.0171754
0.0646511
0.0273195
0.168996
0.210612
0.152927
0.108982
0.0718782
0.312176
0.0559189
0.133367
0.0541075
0.12484
0.20446
0.178915
0.149801
0.127897
0.24786
0.0364676
0.225302
0.104528
0.107146
0.101588
0.0558792
0.0740967
0.109847
0.0359595
0.050767
0.0981593
0.0214348
0.082384
0.117519
0.0630817
0.0373427
0.129182
0.0801416
0.0814113
0.102264
0.0269348
0.101188
0.19255
0.128584
0.226364
0.122969
0.0884642
0.0421765
0.144673
0.0468239
0.0622694
0.383494
0.449527
0.289857
0.142945
0.0725533
0.0894661
0.0928771
0.0518817
0.159351
0.0546719
0.0672013
0.0173665
0.054232
0.0531332
0.0267683
0.0192102
0.0305978
0.0473879
0.109765
0.0868008
0.0124035
0.0396621
0.0587093
0.0579724
0.0360668
0.0556821
0.0938054
0.350868
0.237495
0.0265944
0.0253774
0.0318545
0.0229476
0.0174518
0.0536195
0.102249
0.689279
0.198191
0.00207432
0.0109072
0.0309598
0.0100015
0.0105642
0.0453979
0.311935
0.0621516
0.0448735
0.00786808
0.0124896
0.0150498
0.0483587
0.0821357
0.0417585
0.0575196
0.0331839
0.0201236
0.0147695
0.0323136
0.0230835
0.0943696
0.123711
0.0968811
0.111467
0.409262
0.0733144
0
0.00606299
0.00692467
0.011551
0.0275009
0.0361359
0.292052
0.236983
0.0286741
0
0.00373669
0.0202018
0.0436343
0.0498782
0.15521
0.689635
0.0377263
0.0130655
0.0545255
0.067671
0.046567
0.0857188
0.0639588
0.0499206
0.0877144
0.0766053
0.0248505
0.0788328
0.0863192
0.135567
0.0931598
0.0571319
0.0450844
0.0479008
0.139281
0.0129065
0.0245063
0.0134998
0.0306777
0.0395621
0.0293417
0.152824
0.663852
0.15295
0.0335802
0.0469447
0.0188665
0.0378274
0.031022
0.17063
0.328187
0.352127
0.103462
0.0431009
0.105725
0.0569703
0.158043
0.152353
0.121916
0.0586075
0.0350339
0.045792
0.0267535
0.085936
0.0545547
0.133336
0.188639
0.119731
0.0964005
0.0254036
0.152457
0.0693874
0.0709415
0.0143413
0.0578281
0.0510259
0.48459
0.333123
0.118148
0.14172
0.0503277
0.104331
0.0317939
0.105961
0.164601
0.310536
0.110282
0.0509042
0.0937166
0.0321024
0.0155791
0.0221996
0.136527
0.10895
0.125284
0.0923826
0.052196
0.203676
0.290176
0.0626563
0.0225253
0.102773
0.0351992
0.0498789
0.0289267
0.0800881
0.069076
0.0487205
0.0595613
0.0214126
0.278981
0.212524
0.129512
0.0891329
0.0547922
0.0944727
0.256426
0.0828778
0.122186
0.413233
0.137691
0.118994
0.119822
0.0484657
0.0661833
0.150363
0.0533904
0.0386456
0.0156614
0.00923764
0.00493601
0.0113968
0.0468223
0.090448
0.123039
0.0664456
0.0424135
0.0196601
0.0601172
0.0377014
0.0582465
0.241554
0.0764971
0.204257
0.146025
0.157186
0.149536
0.0472362
0.0330796
0.027159
0.0322447
0.280977
0.357706
0.235282
0.146939
0.0753471
0.0318528
0.0257182
0.167986
0.498827
0.167848
0.0709846
0.0279747
0.0415525
0.186811
0.0720002
0.0757778
0.0442797
0.0829849
0.100703
0.070053
0.0200889
0.101693
0.478692
0.131418
0.142874
0.0472905
0.149408
0.137961
0.0971182
0.0721313
0.0815335
0.10731
0.0418239
0.0528712
0.083507
0.114631
0.169911
0.040815
0.0575133
0.143604
0.248559
0.146198
0.194575
0.175807
0.226163
0.0402458
0.0165709
0.022338
0.034528
0.128519
0.0369189
0.0915336
0.0801455
0.103129
0.0647197
0.0757977
0.128707
0.0900301
0.103147
0.0190627
0.0785247
0.14651
0.0717283
0.0789582
0.098509
0.124651
0.0906239
0.0446297
0.044464
0.0714596
0.127003
0.0807246
0.0430915
0.262279
0.723228
0.245763
0.0424157
0.0178352
0.028125
0.124586
0.0351845
0.0568459
0.114435
0.151566
0.0453585
0.0255352
0.00408392
0.0108227
0.0268034
0.0146149
0.101537
0.243796
0.222175
0.0413471
0.00483917
0.00654252
0.0154394
0.0315225
0.0428604
0.0354348
0.271301
0.388647
0.0875238
0.0101566
0
0.00068164
0.0237791
0.0124519
0.0593284
0.616845
0.346532
0.039071
0.000789362
0
0.00747651
0.0292637
0.0278927
0.20193
0.196146
0.0754338
0.0131796
0.000480962
0.00223513
0.0132304
0.0260707
0.0680925
0.492534
0.138678
0.00722008
0.000550255
0
0.000186691
0.00186921
0.0061972
0.175739
0.151872
0.4208
0.146517
0.011526
0
0
0.00751464
0.0155099
0.0611241
0.450051
0.201573
0.0183536
0.000917092
0
0
0.00345408
0.0284662
0.234224
0.360325
0.0258242
0
0
0
0
0
0.00437285
0.222731
0.228241
0.00377532
0
0
0.00193197
0.00104029
0
0.0651054
0.540889
0.296923
0.0234296
0.00223056
0.00539951
0
0
0.00467992
0.0306744
0.225327
0.264393
0.0371135
0.0124142
0.00899919
0
0
0.00239598
0.0425521
0.410085
0.0600743
0.00107993
0.00106115
0.000454778
0.001999
0.00107639
0.00552938
0.156768
0.430389
0.0254799
0.00381814
0.00176858
0.0023559
0.00325317
0.00015377
0.166629
0.337056
0.233365
0.136985
0.0311899
0.00666826
0.00126017
0
0
0.0152222
0.183423
0.357839
0.0601362
0.108493
0.0701263
0.0498818
0.0427394
0
0.202908
0.463762
0.190054
0.0153423
0.00836652
0.00213062
0.00659526
0.0160441
0.0375912
0.358654
0.22694
0.0436632
0.037364
0.0080817
0.0092814
0.00420767
0.0342216
0.091529
0.309071
0.129458
0.0171882
0.00754531
0.0771248
0.0902249
0.115747
0.213504
0.0553992
0.312651
0.316385
0.0273485
0.00410532
0.0050835
0.015253
0.0492992
0.1953
0.0970479
0.434483
0.241296
0.0107481
0.0282998
0.00845226
0.0116648
0.0146914
0.113456
0.0986995
0.146662
0.111279
0.0627462
0.0487901
0.0655134
0.1011
0.106285
0.235984
0.0789161
0.0394324
0.0789968
0.0509456
0.0124333
0.000138429
0
0.0169446
0.0881756
0.103182
0.533924
0.326075
0.066941
0.0686222
0.0902438
0.0929332
0.0671766
0.157373
0.190621
0.232858
0.279048
0.11361
0.0208145
0.0746943
0.103548
0.121854
0.134059
0.0330173
0.0440118
0.0121686
0.00611199
0.0806167
0.222955
0.290745
0.15439
0.0847912
0.0265719
0.0588462
0.0586995
0.0860686
0.0140567
0.0539663
0.0768007
0.0973056
0.183426
0.138943
0.102778
0.0686309
0.0355531
0.0137384
0.135444
0.291327
0.371136
0.521994
0.171165
0.128109
0.0211217
0.0159294
0.101122
0.0347486
0.0249762
0.0209229
0.023452
0.0149498
0.0288185
0.154698
0.108297
0.112933
0.0286262
0.162746
0.118711
0.0611734
0.0324068
0.0566961
0.116129
0.128066
0.101316
0.0261873
0.0251022
0.0357548
0.148644
0.0423677
0.0953054
0.279689
0.177441
0.0624947
0.0656001
0.447917
0.298518
0.426589
0.0700859
0.0941932
0.0698602
0.0469758
0.0360566
0.0818506
0.170292
0.0857688
0.014311
0.00499425
0.0150251
0.0438766
0.0169361
0.0154101
0.22349
0.455617
0.140366
0.0112174
0.00147578
0.0105926
0.0311248
0.00103673
0.0281182
0.0617105
0.314257
0.163334
0.0997506
0.021289
0.039429
0.0260575
0.00371902
0.0172116
0.189412
0.573711
0.265532
0.0617197
0.0109796
0.0326656
0.0462314
0.00155475
0.00501052
0.221057
0.339895
0.0700362
0.00702323
0.00212227
0.000985913
0.00463007
0.00138646
0.027836
0.433433
0.263924
0.0264678
0.00826409
0.00353712
0
0.00220866
0.00220866
0.00188046
0.1411
0.33185
0.141564
0.0571982
0.00559402
0.00428206
0.0131688
0.00143648
0.00916452
0.205172
0.508473
0.124658
0.122719
0.00973666
0.00118733
0.00137963
0.000205211
0.128454
0.388372
0.116184
0.00753012
0.00136395
0.000599098
0
0.00286037
0.0395805
0.240532
0.154395
0.0178865
0.000144106
0
0
0.0226082
0.13729
0.227937
0.123414
0.337329
0.398963
0.089109
0.0504301
0.00231147
0.000789172
0.0121728
0.0354224
0.204879
0.233426
0.101117
0.0270078
0.0182953
0.0425042
0.113105
0.26381
0.263105
0.164142
0.0593779
0.00842064
0.0080359
0
0
0.0375561
0.218984
0.164474
0.280789
0.288914
0.0562512
0.0172351
0
0
0.0123535
0.0816986
0.160725
0.172367
0.0919753
0.0170014
0.00114799
0.0495872
0.102992
0.173744
0.348804
0.193908
0.330188
0.387472
0.150205
0.0409412
0.0827709
0.0935794
0.0784988
0.139713
0.083707
0.230154
0.200711
0.0280234
0.0103551
0
0
0.00512521
0.0409224
0.189404
0.207209
0.434078
0.111614
0.0614834
0.03784
0.00630001
0.0544675
0.1296
0.128667
0.212423
0.27935
0.118405
0.0905288
0.0841915
0.0400809
0.0107423
0.0217813
0.0811105
0.253257
0.45281
0.125818
0.0704782
0.0806164
0.0983326
0.0486024
0.025072
0.0782566
0.0734053
0.349801
0.177722
0.150006
0.218716
0.0309761
0.0840481
0.156531
0.0380754
0.0178459
0.0286613
0.0418601
0.0642944
0.217831
0.0435942
0.264231
0.180309
0.0336437
0.127541
0.328008
0.146782
0.0577148
0.130657
0.190283
0.0573282
0.0587574
0.0455328
0.123491
0.225021
0.233715
0.0712253
0.150293
0.127408
0.132797
0.0977667
0.0943327
0.0285904
0.00464433
0.000438276
0.00229781
0.0536674
0.0745039
0.231487
0.0939597
0.0182628
0.0235695
0.0163374
0.00398503
0.0160492
0.0431199
0.163794
0.272023
0.166592
0.0588431
0.225888
0.101211
0.0949237
0.00973109
0.055992
0.0726626
0.248098
0.0409951
0.130468
0.146715
0.0172733
0.0167764
0.0301791
0.0818431
0.159823
0.587816
0.311004
0.132359
0.00113077
0.00677494
0.00353925
0.0334571
0.136589
0.0620569
0.0428062
0.055927
0.0257773
0.000592349
0.00608456
0.0163027
0.112403
0.501145
0.0559777
0.0145803
0.0106257
0.00737992
0.00117459
0.00325428
0.00759332
0.0553331
0.2579
0.0380515
0.0920764
0.123049
0.0154124
0
0.00195257
0.00455599
0.110756
0.723786
0.0250615
0.00502118
0.0160393
0.00225
0.0364026
0.0392532
0.0703329
0.0503437
0.0771915
0.0118866
0.027126
0.105874
0.0529751
0.00874631
0.02998
0.211801
0.266482
0.329426
0.0396603
0.0306244
0.00826222
0.00445022
0.0408137
0.0417551
0.113173
0.173173
0.0943018
0.0307655
0.0397985
0.0615913
0.0725796
0.00559913
0.0156371
0.306846
0.512614
0.420404
0.119388
0.0254405
0.00353207
0.00861032
0.0104454
0.0274502
0.242506
0.243067
0.215322
0.0368783
0.0390512
0.00377004
0
0.015088
0.0614467
0.393868
0.242821
0.103732
0.0219525
0.0265642
0.0161961
0.00490676
0.0013712
0.00474304
0.186991
0.408642
0.379706
0.0718196
0.00537891
0
0
0.0299818
0.0302747
0.149016
0.266053
0.227435
0.0218099
0.00349991
0.0014288
0.00294406
0.0101218
0.0288682
0.16638
0.12092
0.150745
0.0321579
0.00684585
0.0128427
0.00563048
0.00226059
0.0295637
0.338249
0.198908
0.385779
0.114473
0.0458167
0.00525781
0.000804354
0.0274417
0.0183983
0.0292146
0.0487135
0.18589
0.112356
0.0354732
0.00169724
0.00337829
0.0033414
0.00149694
0.0280679
0.0834957
0.385232
0.358336
0.392859
0.0828559
0.000482612
0.0449159
0.0918702
0.248556
0.165422
0.140823
0.0471969
0.0730475
0.0406665
0.0171877
0.0869126
0.167861
0.151423
0.0818189
0.0428477
0.106488
0.138894
0.186988
0.129522
0.0270527
0.038451
0.0352217
0.0827924
0.141009
0.154067
0.35644
0.182671
0.0491587
0.132152
0.454375
0.260624
0.0971885
0.0456622
0.0955371
0.161023
0.205502
0.121207
0.0605125
0.0987722
0.140911
0.050772
0.0954663
0.191775
0.129579
0.127997
0.0829587
0.151216
0.122819
0.227245
0.0550439
0.119145
0.162004
0.0718925
0.108256
0.0649246
0.10912
0.375663
0.410664
0.170852
0.0634574
0.110422
0.0277683
0.0665241
0.0663496
0.217937
0.121244
0.26384
0.104242
0.0533214
0.193357
0.0769918
0.12767
0.153591
0.0965975
0.0934397
0.162676
0.0969988
0.143066
0.0801132
0.0207303
0.0507083
0.0402545
0.0625241
0.0904332
0.168566
0.171311
0.150865
0.125358
0.0495339
0.0249362
0.0302296
0.216446
0.0966399
0.159125
0.0613883
0.0457758
0.0920443
0.0651552
0.0594156
0.0781356
0.130491
0.289475
0.611158
0.284653
0.0682596
0.0436385
0.015993
0.00600905
0.00919562
0.00947843
0.0273662
0.128406
0.0616386
0.0384737
0.0660724
0.0115848
0.00356336
0.00351009
0.0358716
0.162237
0.300848
0.0485882
0.0226447
0.041988
0.00873314
0.00592921
0.0216915
0.00737034
0.147728
0.522939
0.119877
0.0163789
0.0194643
0.00105811
0.000228801
0.000428728
0.0234362
0.23014
0.635462
0.0755199
0.0112016
0.0194511
0.00663316
0.00420448
0.0102898
0.135623
0.15523
0.195427
0.00802368
0.0242273
0.0587586
0.156433
0.0220621
0.0850408
0.0834208
0.0183984
0.0304933
0.00950618
0.161052
0.181893
0.343831
0.18383
0.0638501
0.053871
0.15047
0.224
0.00851973
0.0881371
0.15794
0.0957848
0.017403
0.0306666
0.0236128
0.0157122
0.0871744
0.0967525
0.31748
0.521788
0.217788
0.0608601
0.0180464
0.000392711
0.00295757
0.0120318
0.0168423
0.214538
0.0493822
0.0623441
0.0878923
0.00316779
0
0.00177454
0.00487357
0.0484956
0.568059
0.0323903
0.0123377
0.0118063
0.000284236
0
0.000422511
0.0437923
0.0587373
0.269324
0.126126
0.0687752
0.0323722
0.00177198
0
0.00161022
0.00806343
0.0355954
0.664555
0.0559785
0.0389373
0.0188432
0.0122167
0.0251899
0.0262698
0.0397956
0.0784078
0.0973053
0.053759
0.0207095
0.0159064
0.0425815
0.00408163
0.00406331
0.0735738
0.185737
0.39236
0.183182
0.0124257
0.00626374
0.00597436
0.0307627
0.0480855
0.045304
0.0497177
0.141463
0.09546
0.0267264
0.0194108
0.0152774
0.012786
0.010365
0.00381172
0.0436064
0.687924
0.366967
0.0388324
0.0094321
0.00172826
0.00134371
0.00108291
0.0511398
0.18553
0.40283
0.100258
0
0
0
0.0169589
0.0169117
0.0304057
0.102048
0.218489
0.0187389
0.000563857
0.000140964
0
0.000365256
0.00164753
0.0038211
0.044514
0.681849
0.245771
0.0100822
0
0
0.00306117
0.0161277
0.0311743
0.0439542
0.295202
0.106094
0.000939761
0.00023494
0
0.0160052
0.0193351
0.00914983
0.0128253
0.0758817
0.0760927
0.0414004
0.00297585
0.00311464
0.00429456
0.0190147
0.0276524
0.0195206
0.093397
0.198246
0.416046
0.170246
0.0218025
0.0048133
0.0483516
0.10282
0.0293027
0.0320553
0.0332885
0.0198579
0.00495976
0.00519106
0.0194585
0.366216
0.640504
0.0322136
0.0222302
0.0330599
0.13742
0.122526
0.0363374
0.0149508
0.0391172
0.0451143
0.0713707
0.0513132
0.0634532
0.24013
0.155762
0.0436143
0.0772163
0.237119
0.188222
0.168758
0.0599796
0.0320282
0.072486
0.0742235
0.0766673
0.01688
0.364949
0.476528
0.118408
0.0405166
0.0134137
0.0782369
0.0855749
0.0148087
0.0611896
0.307282
0.320312
0.229115
0.0562838
0.0133892
0.02277
0.0256937
0.0742138
0.125986
0.239187
0.242926
0.164287
0.0296781
0.0128867
0.00424529
0.0685017
0.105839
0.156989
0.0597315
0.0716719
0.0629182
0.0115465
0.0660834
0.0550931
0.201254
0.271462
0.213744
0.125316
0.103673
0.1066
0.0155776
0.00288128
0.000579511
0.0470619
0.239795
0.419414
0.125494
0.0969837
0.0584741
0.0100787
0.00159991
0.00778969
0.124792
0.394429
0.0777949
0.0692092
0.0919719
0.0143724
0.00171268
0.0178843
0.0245177
0.0389548
0.0676351
0.0643347
0.326356
0.510006
0.0505253
0.00137815
0.00272885
0.00670047
0.00504624
0.00765049
0.0955868
0.0930309
0.227792
0.0807376
0.0390734
0.0122798
0.0141638
0.0277259
0.0882897
0.0262476
0.286227
0.562161
0.0852325
0.0523343
0.0180887
0.111841
0.078798
0.0190528
0.00986557
0.308423
0.646776
0.0548454
0.00147392
0.00260652
0
0.00350391
0.00255247
0.0178772
0.151483
0.408547
0.0344719
0.0256152
0.0236762
0.00650808
0.004492
0.00648089
0.00789975
0.20847
0.332935
0.027583
0.0097589
0.008539
0.107415
0.0763586
0.0140632
0.0150689
0.0534063
0.101876
0.0309776
0.0271268
0.0226446
0.0256449
0.0232652
0.00822067
0.0161876
0.0398815
0.0521202
0.00520672
0.0989018
0.126617
0.019676
0.0110054
0.00403917
0.00469273
0.00713084
0.0388348
0.136582
0.223044
0.518918
0.0659762
0.0149673
0.0036454
0.00809396
0.0181225
0.0160435
0.0624478
0.125862
0.07247
0.00488902
0.0148613
0.00434453
0.00257391
0.00777077
0.0196396
0.269023
0.471661
0.447703
0.034626
0.0169833
0.00368204
0
0
0.0247035
0.0888327
0.181472
0.154134
0.041001
0.0148066
0.00482174
0
0.00764384
0.01001
0.0552484
0.509012
0.0525757
0.0245952
0.0223449
0.0163461
0
0.000533369
0.0191116
0.0976287
0.288031
0.188732
0.0242019
0.00997991
0.00289304
0
0.00836954
0.0160957
0.0915384
0.670713
0.0677854
0.0156067
0.0073455
0.00750353
0.0311524
0.0247304
0.0189304
0.0366284
0.0744699
0.105542
0.0381311
0.0201997
0.0204313
0.0186914
0.00922923
0.00470853
0.00937926
0.493325
0.386301
0.0865981
0.0073183
0.00749118
0.0285324
0.0203164
0.0467454
0.05622
0.0454512
0.105757
0.0393555
0.0285726
0.0277647
0.0171195
0.0107389
0.0574268
0.0436758
0.48748
0.423416
0.143221
0.0425245
0.0138011
0.000904161
0.00243913
0.00268618
0.00139433
0.451311
0.278327
0.0346563
0
0
0.00632913
0.0390208
0.0628083
0.0216369
0.194051
0.134677
0.0156202
3.00837e-005
0
0.0202439
0.00300493
0.00725755
0.00366671
0.390133
0.360876
0.248995
0.0556669
0.00667793
0.141707
0.142892
0.259429
0.00683793
0.146108
0.158507
0.225392
0.0609226
0.0374863
0.00189646
0.0459847
0.16662
0.0221896
0.00703664
0.0047206
0.00176217
0.000282548
0.000295725
0.00299744
0.221546
0.512755
0.0228609
0.00323413
0.000240279
0.00138282
0.0042885
0.00207008
0.0328737
0.136903
0.409903
0.0574028
0.0226319
0.00538617
0.0148475
0.00533083
0.0083306
0
0.1794
0.580872
0.133597
0.0890197
0.0202347
0.0133291
0.00325268
0
0.0377639
0.386035
0.467972
0.0289133
0.00767549
0
0.00102075
0.00550033
0.00182954
0.137831
0.310595
0.156704
0.0316403
0.00515546
0
0.000124984
0.00344166
0.0390608
0.0359863
0.217743
0.318727
0.121104
0.0933927
0.0501161
0.0206221
0.0018558
0.000389083
0.143496
0.364714
0.218238
0.109308
0.0195947
0.032923
0.00903282
7.8392e-005
0.00588423
0.113036
0.166295
0.0486885
0.00572619
0.000602842
0
0
0.00346866
0.0649619
0.266138
0.285434
0.103872
0.0142298
0.00160248
0
0
0.00929507
0.092173
0.101738
0.409565
0.246415
0.0344314
0.00488574
0.001043
0
0.000181397
0.0115516
0.264528
0.56781
0.231609
0.00719228
0.00251424
0
0
0.0247104
0.0982674
0.238206
0.169704
0.164467
0.0606165
0.0451121
0.0277595
0.038407
0.071851
0.0935633
0.0514581
0.0499885
0.179627
0.0540516
0.0724354
0.0948807
0.326527
0.241105
0.0425028
0.254018
0.241633
0.0673975
0.0310011
0.036025
0.0418753
0.0674538
0.162083
0.190715
0.0478098
0.0220716
0.0453305
0.0863325
0.18888
0.312516
0.282076
0.320245
0.0802621
0.00364766
0.0314023
0.0626114
0.0121259
0.0367557
0.121564
0.363797
0.203145
0.007954
0.0153368
0.0184644
0.0260788
0.0353217
0.0510843
0.0964804
0.100561
0.0423536
0.00847082
0.00078712
0.00900705
0.0254718
0.0643536
0.296265
0.467206
0.271818
0.206518
0
0.0170888
0.025072
0.031243
0.0871283
0.281668
0.323358
0.103695
0.0293542
0.00411732
0.0203853
0.0106545
0.0324364
0.0978528
0.0945453
0.0182765
0.00467314
0.00249101
0.0110229
0.0128622
0.0338087
0.140257
0.348379
0.311801
0.11206
0.116211
0.0213864
0.00661375
0.0243562
0.0290101
0.17146
0.209722
0.110469
0.0434416
0.0219367
5.44022e-005
0.0077352
0.114125
0.229512
0.431334
0.442791
0.190983
0.121661
0.127339
0.0205105
0.00464112
0.000238995
0.00934457
0.0409087
0.109753
0.19418
0.0584146
0.0621929
0.0108753
0
0.00257718
0.0054228
0.0170486
0.0834692
0.483751
0.0324545
0.0169638
0.00319933
0.00932571
0.0517566
0.0775452
0.0870232
0.182548
0.248593
0.0299329
0.0628218
0.0110862
0
0.0114501
0.0188441
0.0258989
0.17184
0.694753
0.014576
0.0100917
0.00257117
0.00559543
0.0304135
0.0234876
0.0665807
0.0739721
0.0361114
0.0571716
0.0804863
0.0676747
0.0418338
0.0340477
0.018884
0.0707183
0.0438239
0.271123
0.274388
0.390949
0.219684
0.04613
0.0488439
0.015861
0.0260259
0.0462135
0.101124
0.0284304
0.107096
0.104316
0.128233
0.0655318
0.03002
0.0440756
0.0286086
0.110443
0.157409
0.533235
0.192886
0.105085
0.0419936
0.00189889
0.00478771
0.00144075
0.0941954
0.162774
0.370489
0.139629
0.0362385
0.273953
0.114476
0.20595
0.00175756
0.0244406
0.0613213
0.241826
0.12778
0.11399
0.0327833
0.0094017
0.00898035
0.00469372
0.0275097
0.106973
0.476872
0.135477
0.0468263
0.183355
0.0756208
0.0539801
0.0123029
0.0470088
0.0887587
0.345398
0.16824
0.118763
0.134834
0.188283
0.476915
0.0717001
0.0925435
0.0238264
0.0324233
0.0308194
0.0573669
0.0185371
0.0816966
0.342224
0.174208
0.269639
0.0790243
0.09672
0.105831
0.0135085
0.0938944
0.0851048
0.139126
0.0349273
0.126433
0.0822912
0.0936427
0.105485
0.0654243
0.253786
0.0687606
0.164897
0.126454
0.157038
0.0839408
0.177233
0.222507
0.0703274
0.0383705
0.0284877
0.0681297
0.102305
0.145866
0.0980727
0.0419614
0.0449903
0.0102313
0.0645522
0.140696
0.197967
0.195587
0.143587
0.0828965
0.046261
0.00345167
0.0205743
0.459807
0.0640408
0.0443721
0.0761315
0.0951185
0.0536182
0.0466645
0.074769
0.106956
0.582767
0.0567487
0.0539947
0.102054
0.193935
0.0558509
0.0614496
0.00575279
0.235377
0.0726492
0.184517
0.196054
0.0881679
0.0395676
0.00619345
0.030178
0
0.0815046
0.215901
0.194317
0.11336
0.0185713
0.0076555
0
0.00431114
0.0217197
0.258091
0.251103
0.0203747
0.0407064
0.0484656
0.050078
0.00693492
0.0502967
0
0.298787
0.375013
0.0102304
0.0110106
0.0111428
0.0045933
0
0.00718524
0.00695915
0.587755
0.162649
0.0899191
0.0651269
0.0396555
0.0243947
0.0144002
0.0147277
0.0498988
0.195514
0.0514715
0.0966786
0.209417
0.187135
0.140251
0.118695
0.0348509
0.0591374
0.0483446
0.403787
0.0997511
0.0510242
0.0203719
0.00324638
0.001024
0
0.00790561
0.33356
0.249584
0.413692
0.373269
0.13987
0.0183658
0.00716797
0
0.00112937
0.0658708
0.000377375
0.0273783
0.139035
0.115893
0.148608
0.0983777
0.015267
0.0192104
0
0.00169545
0.0266374
0.153069
0.107488
0.13973
0.0713272
0.0200475
0.00223865
6.76611e-005
0.0303894
0.210343
0.357342
0.119081
0.0356028
0.0049201
0.00117803
0
0.00297566
0.00783588
0.141193
0.746429
0.130855
0.0454848
0.00522323
0.00824624
0
0.0017854
0.001669
0.0464263
0.185349
0.115713
0.0338697
0.0158749
0.00725952
0
0.000128013
0.0523805
0.089266
0.259743
0.177198
0.0755898
0.069617
0.0110775
0.000963226
7.68078e-005
0
0.105068
0.589305
0.067474
0.00995412
0.00293262
0.00211146
0
0
0.00714548
0.0953342
0.610292
0.10276
0.0574008
0.0379726
0.0238868
0
0
0.0463251
0.0463376
0.0745446
0.0855863
0.19872
0.027886
0.00811595
0.000881274
0
0.00706869
0.0114268
0.0129805
0.0688908
0.567748
0.012706
0.00115942
0.000125896
0
0.00653754
0.0231292
0.160541
0.0508131
0.271549
0.0511253
0.0218545
0
0
0.000933934
0.00379522
0.0235758
0.0318642
0.662886
0.0538777
0.00591203
0
0
0.0341452
0.0622061
0.0689493
0.108978
0.145052
0.092312
0.110254
0.130147
0.13186
0.0849584
0.109351
0.0801095
0.0665776
0.138937
0.218769
0.38975
0.125418
0.129817
0.0771015
0.153687
0.133777
0.0908482
0.0625112
0.108994
0.0545309
0.14939
0.0731463
0.127679
0.134582
0.0474223
0.119555
0.091583
0.112381
0.104784
0.312153
0.200703
0.0138507
0.0220102
0.0109248
0.0146797
0.0370905
0.0769675
0.310039
0.0889593
0.0158261
0.0166485
0.0335038
0.00788127
0.0100628
0.0419156
0.0883214
0.494261
0.305389
0.031308
0.0177369
0.0144759
0.00869178
0.0621098
0.0428473
0.0267978
0.100939
0.1163
0.0444539
0.0108758
0.00743216
0.015315
0.0376947
0.0282215
0.0242782
0.380029
0.473219
0.0421955
0.00442678
0.0164106
0.0141038
0.0191028
0.0240669
0.0411732
0.13394
0.177405
0.0290721
0.124792
0.0386931
0.0983759
0.120851
0.0356599
0.0868263
0.131669
0.164503
0.0465339
0.00376884
0.00381725
0.00660063
0.0104545
0.00592702
0.0243071
0.253221
0.357905
0.0545041
0.0235034
0.00618434
0.0401271
0.0604091
0.0328469
0.119711
0.282179
0.661088
0.150099
0.22234
0.0359397
0.0524085
0.0419993
0.0124475
0.0208872
0.0448799
0.0567069
0.105721
0.307912
0.0171665
0.00623991
0.00314453
0.0149704
0.0019895
0.00989487
0.0245938
0.259274
0.0461212
0.00548275
0.0273256
0.0206594
0.0089814
0.0310006
0.0781044
0.376401
0.269057
0.104767
0.00171722
0.00374395
0.000935987
0
0
0.00890129
0.208403
0.6408
0.193487
0.00438563
0
0
0.00454175
0.000555076
0.00555099
0.00471053
0.229283
0.247465
0.00503581
0
0
0
0
0.000792998
0.000402978
0.33456
0.174301
0.00356724
0
0
0
0
0
0.0452865
0.482969
0.501532
0.0194861
0
0
0
0
0
0.00282085
0.374242
0.243777
0.0436107
0.00405178
0.000606196
0
0
0
0
0.149248
0.232154
0.294565
0.0644455
0.00644277
0
0
0
0
0.0281521
0.438027
0.121662
0.000196964
0
0
0
0
0
0.114544
0.470783
0.50447
0.0264948
0
0
0
0
0
0.0160423
0.0540221
0.288486
0.11914
0.0116065
0.000513229
0
0
0
0.00211248
0.039872
0.251735
0.443936
0.0292011
0.000855381
0
0
0
0.00126749
0.180673
0.474813
0.0899006
0.00436298
0.000739159
0.00306162
0.00364341
0
0.00406758
0.0896163
0.449118
0.299114
0.0440428
0.014122
0.00931321
0.00843825
0
0.00244055
0.0147105
0.102303
0.593926
0.0468009
0.000142839
0
0
0
0
0.00163746
0.0585301
0.503656
0.090972
0.106844
0.0280649
0.0110593
0
0
0.0257651
0.168483
0.377455
0.0592664
0.0249
0.0044142
0.00478823
0.00191589
0.000191738
0.0114623
0.0627626
0.220766
0.0912182
0.187284
0.0642564
0.0181878
0.0102108
0.00134216
0.000500692
0.00904145
0.1214
0.0562979
0.288081
0.0635539
0.0091922
0
0
0
0.000372642
0.0318562
0.0391344
0.604355
0.113675
0.0117356
0
0
0.00350484
0.0103663
0.0351069
0.108507
0.308892
0.147952
0.0395313
0.0115854
0.00357452
0.0335213
0
0.0132074
0.126959
0.424415
0.310786
0.0984382
0.0178517
0.0873735
0.0709439
0.123777
0.0848442
0.0383612
0.17451
0.0646989
0.0326531
0.0658002
0.0411237
0.0509623
0.0321304
0.0333207
0.0511446
0.170479
0.0577711
0.0834826
0.24847
0.125198
0.128678
0.213818
0.0719412
0.112609
0.320121
0.0478486
0.100533
0.0225007
0.0292419
0.146674
0.119206
0.264629
0.245972
0.313215
0.0800114
0.0921945
0.0665486
0.111455
0.0329107
0.00715204
0.0235991
0.084209
0.106033
0.0439089
0.097634
0.167064
0.117245
0.0532156
0.0340033
0.0824257
0.140166
0.14253
0.0479341
0.227119
0.386914
0.0821356
0.208947
0.102292
0.209816
0.101598
0.139514
0.0450637
0.0743154
0.0540851
0.168815
0.177677
0.108187
0.195266
0.152364
0.221662
0.0301761
0.0635295
0.150996
0.165213
0.0146009
0.011021
0.0220424
0.0320216
0.014407
0.0139881
0.149918
0.229621
0.0595357
0.0141182
0.00157443
0.00297792
0.0132818
0.00725968
0.0354642
0.188205
0.755331
0.20067
0.0337964
0.0200103
0.0253584
0.0651816
0.0347194
0.0174026
0.0511149
0.0768113
0.0556226
0.0522348
0.00519951
0.0108426
0.0345837
0.0295946
0.0293921
0.10668
0.281045
0.180804
0.00749859
0
0
0
0.00108033
0.00542323
0.030101
0.362029
0.230459
0.0288831
0
0
0
0
0
0.00262024
0.238088
0.612892
0.0314816
0.00106134
0.00469086
0.00406449
0.00479675
0.0053361
0.0168792
0.152219
0.20233
0.043806
0.0217354
0.00296628
0.0135264
0.00341148
0.0123897
0.00134621
0.202066
0.440972
0.136229
0.0036624
0
0
0
0
0
0.0575439
0.451277
0.501568
0.0189847
0
0
0
0
0
0.00499244
0.323608
0.117898
0.0484159
0.00194589
0.0047596
0.0045227
0.00401396
0.00248353
0.11989
0.289548
0.420662
0.0933653
0.0078213
0.00672202
0.00549569
0
0.0166235
0.0332261
0.198194
0.484593
0.0865541
0
0
0
0
0
0
0.0946068
0.454923
0.316138
0.0471288
0
0
0
0
0.000321553
0.0199179
0.42122
0.0712799
0.00438667
0.00254207
0.000764566
0
0.00652319
0.00584098
0.0884745
0.385698
0.128266
0.0334877
0.00205184
0
0.00903703
0.00880645
0.01703
0.0601566
0.368625
0.509982
0.129077
0.00993538
0.00384482
0.0276254
0.0461603
0.00173402
0.0422521
0.131894
0.375388
0.168974
0.149888
0.0734533
0.0731909
0.0921887
0.00104041
0.0245382
0.24736
0.151314
0.0904971
0.0338243
0.0163098
0.0714072
0.0672685
0.0224872
0.0693697
0.0897077
0.0824573
0.0581562
0.214171
0.107829
0.155268
0.0976385
0.00759242
0.032139
0.0230478
0.195952
0.256711
0.208814
0.182489
0.0463606
0.0517539
0.0110306
0.00063304
0.0216893
0.11041
0.122864
0.109253
0.317185
0.173304
0.124324
0.0782242
0.0179205
0.0289231
0.113809
0.0702427
0.35624
0.223829
0.0874017
0.040419
0.0049785
9.04342e-005
0.0614172
0.161472
0.11904
0.172045
0.315363
0.0636467
0.0653932
0.0802487
0.126792
0.0060395
0.0103494
0.00894157
0.0901683
0.132782
0.136477
0.123263
0.102114
0.0465986
0.094841
0
0.00150354
0.114046
0.116712
0.235519
0.15495
0.160549
0.415208
0.0279617
0.0160406
0.0325093
0.026956
0.0541481
0.0249098
0.0707286
0.141979
0.206569
0.0827233
0.000815301
0.00437654
0.0233332
0.0490387
0.0512721
0.0885129
0.264602
0.590456