0.128361
0.0490348
0.053154
0.059339
0.0674652
0.0656542
0.123086
0.129865
0.0834323
0.184138
0.0385506
0.100447
0.11856
0.206452
0.03278
0.0499395
0.0761204
0.139079
0.284857
0.0960852
0.00742965
0.0112021
0.0326423
0.0398997
0.0653392
0.176131
0.238401
0.189516
0.0174058
0.0343539
0.0629341
0.325598
0.138482
0.0454085
0.0983001
0.256688
0.111029
0.030416
0.0478752
0.148373
0.215215
0.0202969
0.0126536
0.0596778
0.0999623
0.0805447
0.00669446
0.0205009
0.173423
0.205305
0.0171964
0.0869612
0.104929
0.0803678
0.0551853
0.00696522
0.0390441
0.0935734
0.33062
0.157282
0.0502412
0.0399051
0.100348
0.240556
0.0154098
0.0207225
0.0738252
0.161204
0.128873
0.080148
0.150809
0.266952
0.0798565
0.00131586
0.00923313
0.0298017
0.0877769
0.0180929
0.13172
0.124856
0.0853308
0.0895157
0.0215186
0.0662687
0.0181324
0.208793
0.15625
0.119201
0.203207
0.190504
0.229441
0.0111435
0.0223162
0.0214561
0.0599995
0.021199
0.130195
0.196049
0.214502
0.112004
0.0743492
0.219195
0.11237
0.13267
0.0532284
0.105802
0.184474
0.121074
0.0381177
0.0407286
0.134503
0.0494711
0.129889
0.0942087
0.0283534
0.16529
0.173507
0.0805278
0.107952
0.168326
0.0818226
0.095418
0.0146332
0.0548823
0.107803
0.145699
0.0666776
0.0707347
0.18194
0.0982508
0.0902597
0.0458334
0.0089332
0.14344
0.137996
0.118745
0.0419796
0.110487
0.131211
0.0983726
0.0867729
0.119729
0.330716
0.236611
0.0599268
0.107548
0.0590934
0.0265227
0.0399641
0.0165565
0.0493307
0.0901018
0.097888
0.0316653
0.184169
0.125365
0.0590335
0.049347
0.0188738
0.0483011
0.168812
0.107367
0.0570644
0.101582
0.0434747
0.0740349
0.0763202
0.15767
0.252516
0.237322
0.0931729
0.0425533
0.250515
0.143586
0.167998
0.0742067
0.160823
0.237361
0.175266
0.135457
0.0276407
0.116043
0.103961
0.0696051
0.0453161
0.00321761
0.0518814
0.0962217
0.0635636
0.059148
0.113043
0.161056
0.0902954
0.0867081
0
0.0376746
0.195774
0.0939451
0.0614395
0.124117
0.108668
0.107852
0.0366656
0.0244726
0.101276
0.192511
0.187794
0.097751
0.0692842
0.0502974
0.0619927
0.0805114
0
0.144629
0.462164
0.256756
0.0123459
0.0285184
0.0312339
0.04611
0.0350818
0.00179507
0.0122323
0.0269948
0.0099866
0.00314852
0.0165896
0.0302131
0.290048
0.395793
0.00299178
0.017051
0.0145987
0.00233107
0.0175617
0.0290022
0.0187993
0.0360592
0.0396152
0
0.0525387
0.0704598
0.0265438
0.00486683
0.0153998
0.0161786
0.405144
0.654855
0
0.0393511
0.0317838
0.0115455
0
0.00143417
0.0109276
0.283791
0.355584
0.000229001
0.00130514
0.00111743
0.000120421
0
0.0174675
0.0358085
0.221322
0.256887
0.00290873
0.00064495
0
0
0
0.000204881
0.000877707
0.342434
0.520032
0
0.00172655
0.00185941
0.000787056
0.0012789
0.00365508
0.0350557
0.294725
0.332403
0.00172386
0.00373104
0.000176526
0.0012789
0.0601621
0.156033
0.225848
0.185602
0.163016
0.0364126
0.00807375
0.000973511
0.0103689
0.162619
0.208678
0.183492
0.0361751
0.025897
0.0218476
0.00484425
0.00681457
0.0407396
0.0985976
0.0419952
0.211426
0.453845
0.188932
0.00793884
0.021373
0.00686472
0.0558335
0.258055
0.140418
0.0834951
0.0875432
0.00290691
0.00113412
0.00608391
0.0211633
0.160995
0.0972727
0.0747094
0.0316635
0.0552067
0.0885803
0.0604236
0.0226277
0.0787226
0.117581
0.0297763
0.0271554
0.0294395
0.171552
0.348234
0.0782574
0.0263462
0.0424578
0.089494
0.058038
0.123959
0.0883148
0.123887
0.124623
0.127317
0.0595279
0.100912
0.185115
0.0243369
0.128755
0.0876274
0.378143
0.300829
0.113722
0.0719093
0.0620657
0.131526
0.0327798
0.0291104
0.0329325
0.109676
0.178342
0.112584
0.055336
0.0247427
0.0582002
0.276339
0.0539523
0.0259723
0.0662092
0.0585748
0.117644
0.101897
0.0778889
0.188802
0.0414598
0.0591232
0.0644889
0.230433
0.185268
0.160086
0.090672
0.0238018
0.0387673
0.16402
0.119535
0.0423987
0.137109
0.275818
0.223928
0.229395
0.0625542
0.0383673
0.170476
0.0217307
0.0126219
0.0379182
0.0703761
0.0425426
0.119667
0.103409
0.0987193
0.081021
0.0353471
0.0817625
0.0692713
0.0838433
0.0711225
0.0804157
0.134543
0.07364
0.101066
0.119231
0.0163675
0.154187
0.22439
0.132159
0.105138
0.0504353
0.0175007
0.148589
0.502465
0.0401698
0.192521
0.148985
0.177704
0.0346702
0.0969512
0.0628414
0.0412012
0.0220462
0.0175129
0.0175471
0.0127072
0.0281646
0.00123706
0.0439113
0.0451656
0.0933659
0.0330599
0.00272486
0.0303169
0.0106189
0.0568097
0.0314951
0.0968899
0.0653072
0.148704
0.361617
0.00640509
0.0340188
0.01365
0.0452143
0.000355549
0.0308685
0.0228233
0.625164
0.475712
0
0.00810952
0.00456436
0.0462748
0.0110103
0.037306
0.0816899
0.0461552
0.0152323
0.00199259
0.0127825
0.00691743
0.0331485
0.0667464
0.056662
0.072327
0.0846844
0.0438605
0.0342126
0.0304468
0.00715148
0.0228092
0.0575404
0.0319563
0.110124
0.384306
0.090635
0
0.0014726
0.000552042
0.0104676
0.0223379
0.0272216
0.295646
0.372399
0.033584
0.0138952
0.00530323
0.000163753
0.00268363
0.0154345
0.0549059
0.661668
0.0978688
0.0359163
0.0466669
0.0214222
0.0057586
0.00747081
0.0521303
0.05875
0.0962551
0.0346702
0.00531933
0.00769042
0.00492983
0.0126888
0.0214695
0.138165
0.1491
0.0771813
0.235495
0.029502
0.0203264
0.00488076
0.000616174
0.00866387
0.13182
0.235054
0.470369
0.0387676
0.00348984
0.00290377
0.00045806
0.00369636
0.0438313
0.459233
0.404069
0.124042
0.00506612
0.00247628
0.00793528
0.0234713
0.0150175
0.00479542
0.0646786
0.0561272
0.0227362
0.00601975
0.00148577
0.021312
0.360682
0.360851
0
0.0284772
0.0212955
0.0235869
0.0055099
0
0.0174255
0.0498555
0.0195719
0.00927806
0.128806
0.106152
0.0181195
0.00918317
0
0.058133
0.671389
0.348903
0.00103959
0.0203217
0.027886
0.0215115
0.00238831
0.00202646
0.0073386
0.361303
0.363383
0
0.000633629
0.00350451
0.00503467
0.016945
0.00388767
0.0112849
0.260315
0.193874
0.00513361
0.0111109
0.0542983
0.0350838
0.0159691
0.0205021
0.0452978
0.524938
0.340785
0.00216247
0
0.00474216
0.00647896
0.125068
0.0732797
0.0917251
0.231441
0.181208
0.00437765
0.00666655
0.11564
0.0828336
0.0756068
0.00137339
0.0154581
0.110985
0.0417008
0.00956651
0.0257551
0.0955337
0.0975837
0.191712
0.0204117
0.00362999
0.0127211
0.00128865
0.00136664
0.00733127
0.0313986
0.193268
0.304676
0.049276
0.106006
0.0662081
0.0582585
0.00573991
0.015453
0.200222
0.219069
0.541673
0.00908454
0.0320038
0.013599
0.00586952
0.000819987
0.00439876
0.0454343
0.474287
0.0868332
0.0647973
0.0426946
0.0281508
0.0505752
0.0481227
0.112776
0.101106
0.176773
0.0340456
0.0816378
0.0660014
0.117097
0.314304
0.124104
0.134599
0.0579662
0.105707
0.0560115
0.0667675
0.0940944
0.0177643
0.0609798
0.00896539
0.157767
0.201981
0.100483
0.0462464
0.131318
0.170721
0.107025
0.496101
0.045052
0.108088
0.0651303
0.0383919
0.0228671
0.0317963
0.055929
0.0853952
0.22586
0.103694
0.071382
0.0215519
0.0141473
0.0362112
0.0674087
0.0675406
0.065015
0.295476
0.182402
0.1167
0.0705027
0.00829318
0.126881
0.101388
0.0801585
0.0784625
0.294681
0.0600648
0.0516133
0.0235577
0.041224
0.139396
0.0755642
0.137513
0.303682
0.333158
0.170782
0.0597519
0.0869503
0.0539384
0.00571764
0.0563167
0.0434282
0.0292088
0.0486653
0.0309578
0.0134129
0.013954
0.0016058
0.0294203
0.334825
0.142841
0.0267619
0.0181375
0.0220592
0.00117903
0.00389435
0.00372432
0.00430053
0.0453332
0.224118
0.150483
0.0624369
0.0171564
0.00684026
0.0185048
0.00359247
0.0119941
0.363362
0.713217
0.132347
0.00972919
0.00259211
0.000707419
0.0025508
0.000263771
0.0742854
0.365876
0.0548577
0.00590373
0.00145323
0.00392679
0
0.00148899
0.00119473
0.361108
0.373253
0.0118735
0.000712414
0.000273522
0.00174929
0
0.0034501
0.0186865
0.0510146
0.407403
0.279063
0.0184603
8.07091e-005
0.000188321
0
0
0.000408243
0.302256
0.373632
0.0952651
0.00362253
0
0
0
0.0173043
0.0478969
0.386525
0.0933243
0.00125839
0
2.38389e-005
0.00021455
0
0.00362573
0.132375
0.344023
0.0259911
0
0
0
0
0
0.0501122
0.416901
0.364347
0.108873
0.0173006
0
0
0
0
0.0178052
0.11981
0.403137
0.248261
0.0114451
0
0
0
0
0.0330475
0.209648
0.11402
0.0254537
0.00661298
0
0.00285695
0.00850852
0.078346
0.234696
0.325003
0.00684579
0.0108432
0.0110216
0
0.0239617
0.101055
0.307951
0.352367
0.0875896
0.209381
0.341559
0.0689464
0
0.0196873
0.0120629
0.0709669
0.133386
0.161828
0.111433
0.216819
0.0867561
0
0.164635
0.228832
0.232593
0.205437
0.0647963
0.000753485
0.0111708
0.0134195
0.0506223
0.0414768
0.0659003
0.154992
0.126361
0.00560289
0.00202897
0.0191521
0.0276402
0.537747
0.279751
0.00935142
0.0264684
0.0350327
0.00283151
0.0472123
0.0656416
0.0311411
0.0493377
0.110414
0.176632
0.115696
0.115652
0.0274861
0.0536147
0.0772899
0.0437643
0.487326
0.346487
0.0767907
0.0391878
0.053936
0.020055
0.0113411
0.0227236
0.0360504
0.451142
0.293006
0.007968
0.00224897
0.00978671
0.000958688
0.0743986
0.0942665
0.19243
0.220299
0.198705
0.0160402
0.00233928
0.0399456
0.0251332
0.0280279
0.0618423
0.0310249
0.360525
0.293617
0.0603545
0.0155464
0.0149932
0.00291807
0.0180365
0.0558636
0.142519
0.345832
0.263533
0.0905047
0.00592398
0.0166144
0.00265422
0.166689
0.0896753
0.286815
0.130341
0.0822696
0.0176856
0.0047085
0.0692967
0.105469
0.384793
0.0368987
0.0750984
0.025487
0.00754613
0.00233256
0.0028251
0.024305
0.315849
0.0435423
0.0469367
0.23432
0.335115
0.174156
0.123799
0.00946352
0.0362381
0.0420166
0.244735
0.0609149
0.106563
0.0786692
0.034059
0.0163279
0.00567811
0.0647
0.29707
0.0028567
0.0559413
0.102231
0.0379786
0.077412
0.0498355
0.116001
0.207306
0.0537663
0.0273995
0.102207
0.17558
0.124592
0.214864
0.0208458
0.0902224
0.104126
0.0258357
0.00979345
0.0774807
0.19677
0.214565
0.224647
0.154518
0.0906991
0.117238
0.0154818
0.0131143
0.0516386
0.158863
0.0945413
0.316043
0.159643
0.103974
0.161103
0.0151978
0.027193
0.0294219
0.0523972
0.0413955
0.0442231
0.0177801
0.0129372
0.00967448
0.0176122
0.0248486
0.0177551
0.0887859
0.297628
0.101923
0.0371457
0.00881478
0.010509
0.0210843
0.00305558
0.0356936
0.0856532
0.0525913
0.0650063
0.0344884
0.0172667
0.0219126
0.00616025
0.000726715
0.0513293
0.214302
0.794601
0.122253
0.0217627
0.0046168
0.00827475
0.00442026
0.00111871
0.0052042
0.16223
0.246577
0.0390732
0.00418038
0.00123886
0.00207916
0.0014659
0.00866519
0.0718667
0.417836
0.217002
0.0121894
0.00095801
0.000537721
0.0104526
2.62174e-005
0
0.0103597
0.1435
0.573488
0.0705608
0.0010681
0.000337162
0.000101111
0.000183196
0.00519911
0.059481
0.253094
0.395237
0.108003
0.0422193
0.00510738
0.0173081
0
0.0473861
0.212161
0.418125
0.117915
0.0194897
0.0018775
0.00105382
0.0200225
0.000738093
0.228614
0.243198
0.242825
0.0579983
0.0139209
0.00976857
0.00586872
0.0143697
0.119289
0.0480503
0.104502
0.224807
0.214011
0.236463
0.141222
0.0251673
0.0479036
0.0104436
0.176986
0.210952
0.19299
0.230444
0.177446
0.142142
0.0298939
0.0286518
0.0893991
0.268958
0.0920676
0.0543473
0.0250846
0.0156765
0.0252522
0.0151991
0.0112542
0.221146
0.369015
0.362816
0.0745625
0.0437459
0.020852
0.0234038
0.00911944
0.00420755
0.168123
0.155627
0.13385
0.187866
0.211135
0.126052
0.0793595
0.0266864
0.00316078
0.112909
0.1826
0.263551
0.224397
0.238349
0.102197
0.0559122
0.0162893
0.0230466
0.152
0.219759
0.373539
0.118439
0.0164248
0.0581575
0.0306723
0.0145138
0.0160867
0.034967
0.18904
0.258713
0.103821
0.0368723
0.195907
0.134285
0.0424974
0.0822612
0.0457037
0.105519
0.177736
0.108584
0.0453296
0.118018
0.0811288
0.0211795
0.038219
0.104846
0.0732592
0.230355
0.468255
0.186919
0.187959
0.117196
0.0349383
0.0593283
0.0540545
0.141649
0.0865497
0.0666358
0.0600434
0.121339
0.0890859
0.0214663
0.0682042
0.0723557
0.171748
0.0689538
0.0713867
0.213831
0.177522
0.110198
0.0635987
0.0467469
0.130316
0.174138
0.131486
0.519902
0.194246
0.090125
0.0384876
0.0246334
0.0341607
0.0721499
0.260961
0.0704936
0.213842
0.087186
0.0616138
0.215021
0.183728
0.108834
0.187902
0.0553625
0.0712028
0.0360681
0.151178
0.139864
0.104428
0.0575694
0.0275962
0.0560171
0.032142
0.0404548
0.0376343
0.333636
0.327705
0.0636093
0.00977766
0.0291935
0.0298785
0.0511214
0.0535288
0.0187465
0.0707074
0.118567
0.201318
0.130025
0.0945673
0.086892
0.0482157
0.0362125
0.0138781
0.172183
0.597374
0.222061
0.0165103
0.0819458
0.0453388
0.0285945
0.0045322
0.0517755
0.289886
0.280016
0.0781505
0.00536296
0.0202283
0.0192379
0.0784561
0.0274084
0.0948603
0.0889747
0.171527
0.0766671
0.00321778
0.0363562
0.220793
0.152832
0.0264798
0.0275693
0.179045
0.450782
0.204443
0.00377315
0.0216267
0.0380358
0.133695
0.0449651
0.0789759
0.163694
0.312392
0.242099
0.00795186
0.0114308
0.13021
0.110035
0.122961
0.105368
0.108195
0.165192
0.112617
0.012858
0.032008
0.0629172
0.0921684
0.107701
0.10252
0.0423211
0.270994
0.133485
0.0148888
0.0732219
0.019175
0.22279
0.237952
0.0474856
0.0667265
0.120858
0.103367
0.0299459
0.0769445
0.205362
0.194044
0.204381
0.0852673
0.0666175
0.26645
0.15687
0.026503
0.0810666
0.024372
0.00602869
0.048928
0.0490627
0.0426627
0.0668146
0.0250675
0.00694262
0.0161685
0.00559507
0.000417604
0.0681603
0.121174
0.532011
0.224885
0.0254545
0.00762853
0.00661449
0.00158487
0.0144069
0.0363403
0.0299093
0.0433902
0.0932294
0.0739026
0.0538397
0.0564584
0.00649678
0.000250562
0.0293699
0.0389629
0.25678
0.506571
0.32329
0.148537
0.0618853
0.00247082
0
0.00959507
0.0529522
0.458514
0.224579
0.00822708
0.00184915
0.00031888
0
0
0.0265
0.0667565
0.274402
0.197673
0.0716913
0.0368656
0.00511087
0
0.00217557
0.00349631
0.00854258
0.17154
0.529602
0.193924
0.0274613
0.00478434
0
0.015229
0.0130085
0.057914
0.129998
0.345392
0.101684
0.0459372
0.00270495
0
0.0152131
0.0182854
0.0277263
0.0765118
0.148653
0.159475
0.117877
0.0356089
0.00822461
0.072323
0.100443
0.110838
0.14895
0.147117
0.128258
0.104531
0.052165
0.0194069
0.0081674
0.010369
0.211384
0.210925
0.0796065
0.0749874
0.142144
0.0198366
0.00117494
0.0160592
0.0526648
0.56262
0.476589
0.0963718
0.0473477
0.126069
0.030991
0.00195824
0.0659662
0.126296
0.294583
0.230736
0.0833713
0.049295
0.0153925
0.00870447
0.0109118
0.0407098
0.134212
0.25676
0.21687
0.0502532
0.0403911
0.00730294
0.0233486
0.0563819
0.0274006
0.10027
0.434771
0.359145
0.0525927
0.0254681
0.0158863
0.00522268
0.00222684
0.0622917
0.178169
0.325297
0.233232
0.03846
0.0386547
0.00549589
0.0134222
0.0180571
0.0219828
0.117351
0.0920326
0.0526389
0.055372
0.0267255
0.00832264
0.0260319
0.0505636
0.00964821
0.288705
0.529702
0.109856
0.0589115
0.026575
0.0103016
0.0167871
0.0215396
0.0314788
0.144441
0.22304
0.155164
0.0995409
0.0614159
0.0351832
0.0249994
0.0106934
0.00687956
0.229021
0.416725
0.192542
0.177798
0.133782
0.194707
0.0202837
0.0041527
0.0433086
0.119081
0.484975
0.098891
0.029816
0.0308513
0.0274419
0.00667208
0.0182168
0.0680186
0.0200151
0.131886
0.0465041
0.161185
0.285566
0.0953319
0.0316253
0.0384251
0.00844611
0.0903113
0.238048
0.065148
0.121052
0.102171
0.11064
0.00353081
0.00213959
0.00713942
0.00678986
0.038761
0.0856165
0.497921
0.310389
0.0327305
0.000715517
0.00323711
0.00706643
0.00910966
0.00217824
0.0528558
0.175559
0.184606
0.0344906
0.0191196
0.00954455
0.0145184
0.00973506
0.00979207
0.0429053
0.372851
0.169747
0.00530686
0.0157236
0.00535801
0.000348291
0
0.015111
0.0808602
0.444553
0.196367
0.00677094
0
0.000348291
0.0108868
0.00233261
0.030276
0.104615
0.620136
0.106137
0.00319152
0.00110993
0.0117994
0.118391
0.0345769
0.0565276
0.0466663
0.327086
0.194201
0.00948213
0.0150217
0.0375287
0.109575
0.0373308
0.0686589
0.105755
0.167753
0.168638
0.0608363
0.0196028
0.0556532
0.0716534
0.0414059
0.0762244
0.110039
0.493022
0.0916289
0.0120817
0.0243145
0.100529
0.0535428
0.0548945
0.0877298
0.0295924
0.430142
0.183288
0.0878555
0.0353312
0.0961471
0.121133
0.243149
0.0997601
0.091362
0.0875748
0.0311817
0.0155466
0.0489675
0.0763044
0.107777
0.137827
0.120091
0.132308
0.171844
0.138193
0.030872
0.0317448
0.0089159
0.101384
0.169836
0.127438
0.114438
0.0439445
0.0212244
0.0376814
0.104831
0.252822
0.0631089
0.104564
0.192683
0.233452
0.330336
0.120551
0.0421863
0.0435791
0.070398
0.0106236
0.0117547
0.0228014
0.016357
0.0390576
0.0827674
0.0551677
0.0560124
0.00336886
0
0.000249039
0.00908934
0.020791
0.273603
0.479405
0.167717
0.0725376
0.00194129
0.0035609
0.00511312
0.0196401
0.0264957
0.149672
0.0862118
0.0378381
0.0223317
0.00131589
0
3.5577e-005
0.00511206
0.00633816
0.260134
0.615495
0.134159
0.0338678
0.000277328
0.0039808
0.00727942
0
0.0109447
0.308364
0.373846
0.0625607
0.00969527
0
0.0278656
0.0564535
0.162638
0.0441943
0.183903
0.172151
0.0481177
0.00682789
0
0.00865052
0.0242693
0
0
0.153358
0.496827
0.196228
0.0831588
0.00438485
0.0605536
0.174181
0.3017
0.0833918
0.0619282
0.209799
0.203894
0.124942
0.030694
0.00854459
0.0284827
0.326079
0.114966
0.0148495
0.00877742
0.0144668
0.000825448
0
0
0.0488579
0.477375
0.224965
0.00810997
0.00157319
0.00891474
0
0
0.0217607
0.0859448
0.46663
0.127939
0.0239918
0.00751274
0.0170912
0.0134992
0.0153927
0.0143748
0.11851
0.465233
0.137357
0.105633
0.00395616
0
0
0.00996812
0.00701575
0.144208
0.301537
0.164045
0.00731632
0.00225136
0.00139872
0
0.000194398
0.107086
0.315738
0.26658
0.08304
0.00790256
0.00556444
0.0147854
0.0342455
0.0083733
0.00847597
0.197764
0.374542
0.146167
0.180456
0.0109847
0
0
0.00193064
0.106596
0.408331
0.319877
0.0946571
0.1306
0.0330251
0.043759
0.0497466
0.0136934
0.119233
0.153686
0.172797
0.0787114
0.0471365
0.0833125
0.129263
0.117881
0.0141963
0.0170492
0.0350105
0.0792347
0.0897215
0.137279
0.285355
0.430274
0.0989514
0.00548555
0.152887
0.179354
0.0898606
0.0434996
0.0450227
0.146662
0.186423
0.138928
0.0358932
0.0538371
0.0752337
0.0548065
0.144401
0.195375
0.321164
0.307628
0.112716
0.0240565
0.00101345
0.0109885
0.0202411
0.0374292
0.147687
0.217609
0.161913
0.0113364
0
0.000608068
0.00100277
0.013667
0.175846
0.482895
0.147681
0.0275909
0.00305448
0.000917138
0.0157824
0.0260994
0.0805997
0.170771
0.237775
0.226493
0.0766905
0.0144689
0.00145733
0.0285306
0.0220867
0.165816
0.428758
0.308395
0.0902991
0.0303042
0.0192599
0.00953367
0.0112143
0.00326737
0.0335661
0.137127
0.357834
0.101792
0.0461633
0.0064788
0.00639617
0.0368459
0.0115426
0.0514196
0.246898
0.457576
0.0503609
0.027698
0.00439954
0.0232975
0.0745851
0.0301878
0.0767462
0.21865
0.148352
0.0340459
0.06778
0.0453516
0.0615763
0.091684
0.0310109
0.0648317
0.51071
0.210842
0.0817356
0.0468942
0.0272109
0.0863749
0.0818401
0.0500494
0.0314264
0.224301
0.284274
0.0342766
0.0137351
0.0182767
0.0771056
0.0513836
0.0551457
0.0260154
0.0242134
0.298931
0.201743
0.0758741
0.0520427
0.0613518
0.0499696
0.0616331
0.03669
0.44607
0.197517
0.188425
0.0450625
0.0123994
0.0401865
0.0225983
0.0395604
0.00676264
0.039321
0.150311
0.36322
0.175844
0.190164
0.0870578
0.0360363
0.036695
0.0430753
0.0875706
0.0129943
0.0736455
0.0370159
0.0850798
0.230899
0.0195585
0.0419095
0.0890763
0.271495
0.193825
0.0141078
0.0231564
0.0777284
0.10344
0.0164435
0.156812
0.163623
0.085893
0.118553
0.103641
0.0329379
0.0750955
0.109165
0.0230251
0.316196
0.291947
0.355088
0.115947
0.00617139
0.00327372
0.0478395
0.0526081
0
0.00491405
0.0245864
0.162538
0.276621
0.0381679
0.039864
0.02875
0.00534094
0
0
0.0036981
0.0520655
0.315065
0.49345
0.21681
0.068341
0.000317362
0.00902685
0.0963569
0.100962
0.243654
0.127423
0.0241305
0.0393372
0.0197534
0.00320457
0.00686951
0.0157259
0.0355237
0.100665
0.144649
0.148289
0.189769
0.0848104
0.00685495
0.0105454
0.0161828
0.000477736
0.000887224
0.0584042
0.259226
0.225768
0.228405
0.0292502
0.0738179
0.129089
0.202651
0.0886623
0.0326334
0.0991929
0.196376
0.380568
0.179312
0.00873456
0.00522524
0.00374411
0.00621057
0.018875
0.0435246
0.0894126
0.215812
0.0508391
0.0146505
0.0188141
0.0367419
0.0106848
0.0277424
0.0623568
0.171393
0.473601
0.208137
0.0418599
0.0806121
0.277065
0.125877
0.0881514
0.0360401
0.0207754
0.0750754
0.0811053
0.145433
0.218398
0.295188
0.1034
0.219454
0.0266246
0.00118183
0.00459613
0.0452485
0.0194624
0.0324135
0.106059
0.0190257
0.146226
0.153519
0.223816
0.199558
0.0792643
0.18081
0.261707
0.270531
0.0435662
0.197631
0.119285
0.170692
0.273076
0.174388
0.119115
0.166108
0.184472
0.106036
0.246358
0.0178664
0
0
0.0069576
0.109336
0.187843
0.101019
0.0834836
0.211105
0.0548687
0.0153751
0.012011
0.0362217
0.251737
0.233351
0.113157
0.0483342
0.0712968
0.0114037
0.0181741
0.108039
0.269699
0.508179
0.194488
0.0113235
0.0283618
0.0677012
0.0258522
0.00566804
0.00651949
0.256408
0.101192
0.0761691
0.0222873
0.0329952
0.045375
0.0580997
0.0295921
0.0150218
0.0511841
0.0850831
0.141925
0.119497
0.114242
0.0718026
0.0569073
0.0280638
0.0100076
0.0353018
0.396061
0.187241
0.00941661
0.00853032
0.018571
0.0148898
0.0119422
0.00511808
0.0723564
0.405121
0.64115
0.109859
0.0303145
0.0287788
0.0156031
0.0126242
0.0249066
0.0240418
0.0537469
0.13675
0.157267
0.148819
0.0837183
0.0381088
0.00554671
0.00176026
0.00684495
0.0892552
0.139168
0.171896
0.273372
0.0444853
0.0192857
0.00509677
0.00652066
0.0354981
0.236536
0.530371
0.173501
0.0814116
0.0701401
0.0615392
0.0140107
0.0265825
0.0104262
0.185247
0.405246
0.184462
0.140948
0.0408004
0.0687535
0.0401585
0.0303786
0.0681158
0.149314
0.129246
0.0856754
0.169906
0.0504434
0.0104634
0.0125868
0.024129
0.0866694
0.106244
0.0428787
0.0409713
0.389295
0.264781
0.13182
0.0302814
0.0187751
0.0876392
0.147493
0.256271
0.107602
0.0693721
0.0903739
0.0673795
0.0977781
0.0783135
0.0673122
0.0508115
0.0505005
0.0378051
0.173347
0.417849
0.232513
0.224179
0.124807
0.0660723
0.0122885
0.017931
0.0137507
0.235772
0.231207
0.195951
0.0595321
0.0290064
0.0203741
0.032422
0.0447467
0.000982634
0.0177377
0.0749129
0.163363
0.118131
0.151412
0.127002
0.0597674
0.00944835
0.000752542
0.11724
0.22759
0.167564
0.188724
0.13331
0.205516
0.33814
0.0625827
0
0.01179
0.0317286
0.044351
0.0732451
0.124925
0.477118
0.0794297
0.126218
0.153405
0.0932141
0.133325
0.0197715
0.0234438
0.0353234
0.0878963
0.0492126
0.283859
0.269247
0.24485
0.0968742
0.000983284
0.00618965
0.00607726
0.0206106
0.129912
0.0491149
0.0796738
0.118182
0.116404
0.0728744
0.130578
0.0862819
0.102339
0.129626
0.152445
0.222922
0.243598
0.0430363
0.002577
0.149394
0.149291
0.059628
0.0322995
0.207798
0.151735
0.164666
0.0648096
0.038215
0.0323584
0.00532685
0.00284626
0.029279
0.0737291
0.0821765
0.0561628
0.177719
0.151914
0.131278
0.0344987
0.0189179
0.177338
0.226657
0.141141
0.104647
0.0400608
0.0165445
0.0886513
0.0578767
0.0782518
0.163283
0.174111
0.165204
0.0699386
0.221643
0.111937
0.154895
0.0510818
0.139517
0.0309672
0.0366515
0.0187783
0.0255524
0.0810139
0.0437835
0.062353
0.10113
0.0639941
0.0249365
0.0313174
0.0726903
0.0421288
0.0303462
0.0570755
0.2421
0.416518
0.212416
0.174384
0.164438
0.0793913
0.0924491
0.120432
0.0465654
0.0751104
0.0252186
0.0871337
0.280345
0.176089
0.193596
0.109713
0.0604414
0.0165169
0.0641706
0.162461
0.238256
0.00234301
0.00276602
0.0207558
0.00358262
0.0336307
0.0583358
0.172442
0.20116
0.0554234
0.0204579
0.0346106
0.0529399
0.00666886
0.0475399
0.052529
0.150555
0.530653
0.266502
0.0392314
0.00643877
0.024714
0.00674178
0.00435964
0.00339296
0.034564
0.149806
0.125552
0.0359296
0.00162676
0.00250153
0.00535414
0.00287368
0.00409977
0.0281523
0.492252
0.354771
0.0716144
0.0265088
0.0136785
0.00173478
0.00414422
0.00262082
0.0108058
0.161923
0.317321
0.405177
0.0947282
0.000396244
0
0
0
0.00120985
0.0110707
0.262469
0.104451
0.00354399
0.000212936
0.00378597
0.000873491
0.000308622
0.0017323
0.170124
0.372538
0.463579
0.115064
0
0.000540853
2.84659e-005
0
0
0.0166579
0.350587
0.420044
0.185092
0.00261857
0
0
0
0.00319537
0.00178911
0.0344071
0.376865
0.390204
0.0218412
0.0148757
0.0748506
0.0312409
0.01271
0.0469306
0.0055511
0.395474
0.168762
0.00146435
0
0.0010069
0
0.00185659
0.00762954
0.0918445
0.290618
0.170201
0.0102504
0.0943368
0.260746
0.0594129
0.00957
0.0489114
0.0406013
0.142448
0.190973
0.0498058
0.120031
0.214952
0.0596748
0.0138753
0.0501755
0.00735558
0.0639046
0.108362
0.0701451
0.152068
0.148301
0.0538909
0.0426264
0.0367968
0.0425989
0.0588274
0.047229
0.0145441
0.394762
0.533424
0.0711454
0.00788457
0.0379552
0.0101584
0.0130035
0.0345729
0.0247045
0.360741
0.32869
0.0375235
0.0467249
0.0336586
0.0391862
0.0528759
0.0968878
0.0458188
0.0438239
0.0463725
0.0826521
0.222245
0.165108
0.0542109
0.0177328
0.0678035
0.0137034
0.0371409
0.152271
0.100069
0.340094
0.236794
0.126489
0.0366894
0.0394875
0.0125691
0.0597145
0.0477495
0.0523406
0.202363
0.221458
0.126144
0.0406079
0.0984535
0.0126501
0.0368938
0.0426754
0.0955567
0.239781
0.452289
0.261352
0.0752324
0.0589878
0.00685677
0.0290829
0.0653188
0.0626491
0.129673
0.0952783
0.219581
0.298107
0.0432711
0.02337
0.00956649
0.0134312
0.0377628
0.0358571
0.0693076
0.39983
0.0435262
0.104593
0.103006
0.137042
0.0846433
0.11273
0.0639306
0.151681
0.150998
0.143363
0.237649
0.4602
0.182309
0.0532719
0.0677075
0.0351631
0.0544079
0.132669
0.0783727
0.041387
0.014441
0.0249257
0.103019
0.125572
0.168945
0.120198
0.0680644
0.205699
0.142759
0.0708655
0.0473619
0.0184949
0.00891755
0.216878
0.297565
0.0912641
0.0919604
0.0381706
0.02023
0.0331434
0.137542
0.0765688
0.0900935
0.102453
0.0995811
0.186788
0.222796
0.0211103
0.0272142
0.0984874
0.0256777
0.0939604
0.187118
0.103445
0.161353
0.122977
0.0290161
0.00882874
0.00817561
0.0248984
0.0640839
0.0680822
0.0793827
0.0997371
0.0912714
0.0604192
0.0829694
0.137911
0.231536
0.0878257
0.0385855
0.0941399
0.191536
0.198883
0.0347637
0.0161829
0.0321264
0.0357283
0.0397785
0.046303
0.0641122
0.193531
0.119903
0.0277819
0.0447301
0.242585
0.489703
0.20637
0.0340172
0.0724012
0.126788
0.113836
0.0497602
0.119376
0.123252
0.139192
0.0424786
0.0109624
0.0395679
0.228715
0.125932
0.0740113
0.0648345
0.093441
0.0629527
0.01782
0.0297282
0.106737
0.0542485
0.0430617
0.0132117
0.0984239
0.235204
0.463382
0.171984
0.010426
0.0157196
0.0534757
0.0672019
0.0539945
0.106792
0.22041
0.345348
0.0706066
0.0315385
0.016782
0.139264
0.0326965
0.0778273
0.0191945
0.0401146
0.0202254
0.00665274
0.0811967
0.208472
0.143303
0.0206486
0.0519932
0.082912
0.0646274
0.00637894
0.0028767
0.277824
0.465351
0.0481634
0.0509169
0.0760798
0.0848654
0.123674
0.203305
0.0418127
0.0825721
0.050547
0.138872
0.0586308
0.0830185
0.113711
0.242806
0.0833121
0.0361922
0.0795786
0.14275
0.187323
0.0149913
0.00444382
0.0348325
0.0221589
0.0028614
0.00122632
0.0804399
0.343614
0.447701
0.0706509
0
0.00423997
0.00200226
0.0028934
0.00560009
0.0448904
0.443562
0.191261
0.0455218
0.0183546
0.0263957
0.062451
0.0200298
0.00858421
0.00823046
0.119962
0.298207
0.0576549
0.0018184
0.00254398
0.00309907
0.031229
0.103899
0.0707065
0.196305
0.12333
0.0432295
0
0.00445179
0.00554131
0.00115366
0.010121
0.0303233
0.104383
0.0853048
0.0353612
0
0.163329
0.440344
0.0258853
0.0125123
0.0242619
0.0390895
0.0351531
0.0105752
0
0.0246065
0.0211977
0.021928
0.0636133
0.0406749
0.0412103
0.00847116
0.0123487
0
0.33801
0.702572
0.0108577
0.0239565
0.0153829
0.00821518
0.00868235
0.00456648
0.000820565
0.23661
0.427994
0.0203428
0.00271596
0.00275519
0.00186044
0.00476112
0.013352
0.0125998
0.16236
0.228813
0.0216178
0.0193018
0.0106949
0.0139812
0.000922077
0.00123873
0.00103739
0.28465
0.633092
0.00931601
0.00676533
0.000935008
0.000146948
0.00163047
0.0136524
0.028862
0.130956
0.300072
0.0541823
0.0585805
0.00739914
0.00601855
0.0797221
0.0695242
0.0528036
0.0305236
0.0574306
0.0414836
0.0767652
0.129458
0.116167
0.0807814
0.0545865
0.036045
0.0613604
0.0485321
0.318048
0.180285
0.321502
0.146105
0.0748121
0.115162
0.142589
0.0123159
0.0528177
0.140218
0.167388
0.02963
0.0702703
0.116512
0.091271
0.0465366
0.024349
0.0530509
0.386364
0.281343
0.185917
0.121783
0.0452163
0.0446189
0.073323
0.142632
0.0456138
0.15342
0.0523339
0.105017
0.0285635
0.0765813
0.138986
0.433953
0.315143
0.0391035
0.0255264
0.0104944
0.0349937
0.00684386
0.16917
0.0415117
0.031905
0.0585975
0.0321457
0.140766
0.102598
0.184734
0.0924231
0.32181
0.0902049
0.293696
0.35109
0.0544127
0.0141021
0.0158088
0.0943754
0.0847705