0
0
0
0
0
0
0
0
0
0
0
0
0
0
0
0
0
0
0
0
0
0
0
0
0
0
0
0
0
0
0
0
0
0
0
0
0
0
0
0
0.00389812
0
0
0
0
0.0503311
0
0
0.0129122
0.0450263
0
0
0.00409416
0.0626136
0
0
0.00360533
0.00841243
0.0313956
0
0
0
0
0.0838852
0.312113
0.399962
0.389205
0.413029
0
0
0.0286591
0.169863
0.0160719
0.000499416
0
0.00269521
0.0235087
0.00314947
0
0.00287142
0.0260935
0.0310056
0.0506626
0.0352093
0.00222481
0.137266
0.119631
0.0045663
0.0279914
0.0404935
0.109058
0.17007
0.129408
0.0639977
0.0414063
0.000784184
0
0.0200999
0.112031
0.497976
0.674667
0.281771
0.0258751
0.107711
0.0174693
0.000318047
0.0266024
0.140069
0.0204851
0.0829996
0.0412884
0.000163469
0.0417927
0.0748514
0.0255597
0.0716435
0.0597984
0.0543229
0.0946739
0.0793022
0.0645502
0.0339483
0.0707354
0.133172
0.0997348
0.139034
0.22639
0.483488
0.165506
2.33527e-005
0.0421506
0.0145269
0.00612638
0.0257956
0.078777
0.448258
0.483488
0.157017
0.0562908
0.0207543
0.0125989
0.0389858
0.0388732
0.252055
0.0452496
0.0966445
0.211714
0.152477
0.0926776
0.0946718
0.0953368
0.0271587
0.0616861
0.0771863
0.118111
0.237067
0.130042
0.0890294
0.0618066
0.0360288
0.0238076
0.0288962
0.405515
0.43294
0.247471
0.107929
0.039989
0.012564
0.0221599
0.0103591
0.158234
0.335297
0.222092
0.166323
0.039033
0.0298133
0.00803497
0.031174
0.0255211
0.27337
0.101575
0.136579
0.145475
0.074979
0.0484158
0.0789516
0.0534678
0.0646469
0.0301513
0.289454
0.281038
0.128247
0.0711119
0.0203595
0.0693088
0.199087
0.0840644
0.0721343
0.296824
0.201464
0.0764512
0.0113703
0.0163291
0.0277945
0.0402305
0.0429717
0.276881
0.364661
0.456084
0.110409
0.0151059
0.00530595
0.0387886
0.0261766
0.0889215
0.194748
0.294884
0.300755
0.149605
0.0341313
0.0969393
0.056075
0.237726
0.0651074
0.0751731
0.0895316
0.20306
0.124719
0.0170925
0.222764
0.139094
0.227159
0.131107
0.0653221
0.36192
0.339026
0.0894125
0.021114
0.017402
0.031216
0.0216576
0.0685498
0.113521
0.241646
0.241288
0.109499
0.0244855
0.0416657
0.0821033
0.0604425
0.0741486
0.0663342
0.0985896
0.104418
0.0881888
0.0589546
0.19637
0.0988867
0.34501
0.258714
0.078807
0.0882617
0.110987
0.144966
0.107423
0.191791
0.041249
0.169686
0.11218
0.013884
0.35027
0.203933
0.150202
0.0895419
0.103677
0.0625355
0.128613
0.151415
0.100345
0.19028
0.121614
0.110618
0.131894
0.165741
0.129084
0.0888505
0.154877
0.0744362
0.00340038
0.00627476
0.0110891
0.0389835
0.104521
0.00703866
0.0112878
0.00703342
0.000565191
0.000985677
0.000965206
0.00378373
0.355019
0.547749
0.00920728
0.00368655
0.00286402
0.000339115
0.00824552
0.00572
0.0045268
0.0481603
0.176947
0.0207472
0.00410371
0.0130762
0.00937679
0.00187164
0.00120727
0.0180393
0.414825
0.547749
0.00468819
0.0010791
0.0043181
0.00149457
0
0
0
0
0
0
0
0
0
0
0
0
0
0.0100182
0
0
0
0
0
0
0
0
0
0
0
0
0
0
0
0.402968
0.458227
0.161239
0
0
0
0
0
0.00764566
0.0248526
0.00191511
0.00244916
0
0
0
0
0.000950767
0.175661
0.334788
0.0362845
0.0192908
0
0
0.00088297
0.00359968
0
0.0550159
0.331725
0.0785023
0.0131298
0
0
0
0
0
0.472502
0.66322
0.0829111
0.00723515
0
0
0
0
0.0407153
0.24996
0.29641
0.0294148
0.00892446
0
0
0.00353487
0.0172489
0.253396
0.444514
0.214043
0.0117826
0.00561472
0
0
0.00420751
0.0226139
0.00817724
0.333908
0.444514
0.00931823
0.000725504
0
0
0
0
0.100624
0.340955
0.242594
0.00211019
9.17486e-005
0
0
0
0.0013009
0.296231
0.501311
0.084734
0
0.00546676
0
0
0.00340344
0.0174599
0.435371
0.337759
0.0381568
0.00445698
0.000684993
0
0
0.00462588
0.0686037
0.200662
0.258567
0.04123
0.000206946
0
0
0
0
0.0054904
0.377648
0.201911
0.00402711
0
0
0
0
0.000181027
0.031271
0.399042
0.192385
0.0325804
0.00659986
0
0
0
0.00198756
0.092816
0.271783
0.0609424
0.01534
0.000942837
0
0
0.00455922
0.0230187
0.274227
0.442973
0.0720966
0
0
0
0
0
0.00116504
0.152924
0.306903
0.00441172
0
0
0
0
0
0.0602511
0.502904
0.178645
0.0546982
0.00495301
0
0
0
0.00576634
0.0753402
0.308426
0.0915024
0.120885
0.0203431
0.00465195
0.00116299
0
0.00698591
0.235211
0.223113
0.102161
0
0
0
0
0.00184168
0.00567442
0.24682
0.462864
0.0167044
0
0
0.000664565
0.000166141
0.00306947
0.0508828
0.543667
0.273646
0.0663456
0.0645781
0.0171205
0.0212595
0.00497889
0.038463
0.0667156
0.258562
0.099463
0.106405
0.07331
0.0593862
0.0224674
0.00298733
0.0947963
0.150776
0.117083
0.0616434
0
0
0.000767945
0.00303707
0.00071127
0.0171987
0.185714
0.52624
0.129897
0.010016
0.00487261
0.0130278
0.00305095
0.000426762
0.0600548
0.474276
0.406284
0.0826087
0.182101
0.105064
0.0954231
0.0155401
0.0124868
0.0562218
0.0900023
0.0933318
0.100642
0.130041
0.0505074
0.040689
0.0217523
0.0642766
0.101946
0.050177
0.162177
0.151717
0.0368198
0.0140438
0.038354
0.00083246
0.0192324
0.129468
0.447545
0.365448
0.11344
0.143115
0.0099713
0.0210145
0.00113199
0.153056
0.232414
0.220988
0.285727
0.255624
0.00689501
0.0012455
0
0.0383055
0.146294
0.011595
0.00427426
0.0133515
0.0247423
0.000983411
0.000137953
0.0100681
0.266854
0.584213
0.00265606
0.00163934
0.00261696
0.00596149
0.0226197
0.000179229
0
0.0609109
0.21275
0.0144332
0.0204168
0.0338583
0.0467905
0.00559399
0
0.000885275
0.332798
0.584213
0.00293342
0.0099262
0.00940895
0.0129309
0
0
0
0
0.00357336
0
0
0
0
0
0
0.218048
0.125688
0.0440535
0
0
0
0
0
0
0.00754654
0.0267397
0.0391232
0
0
0
0
0
0
0.704358
0.52854
0.29614
0.00573311
0
0
0
0
0.0405528
0.379374
0.147637
0.0173953
0
0
0
0
0.000509134
0.184295
0.455068
0.132671
0.0103534
0
0
0
0
0
0.0168014
0.455068
0.342198
0.122074
0.0221433
0.00856714
0
0
0.000848557
0.0467968
0.34404
0.238104
0.0987804
0.0379378
0.0142786
0
0
0.00450712
0.213798
0.551605
0.0294661
0.00407678
0
0
0
0
0.0395905
0.291821
0.254733
0.00259601
0.000209597
0
0
0
0.00174501
0.00538667
0.07626
0.379059
0.0873929
0.0367035
0.01362
0.00351127
0
0
0.0275083
0.279331
0.446888
0.0251815
0.00194613
0.00431061
0
0
0.00599303
0.110627
0.36838
0.109581
0.000410066
0.00153043
0
0
0.000312643
0.00704049
0.309599
0.336643
0.0213609
0
0.00255072
0
0
0.00301857
0.0512993
0.074243
0.389511
0.149073
0.00243403
0.00277845
0.0020496
0
0.000521071
0.0148746
0.152044
0.587066
0.0889949
0
0.0042512
0
0
0.00414554
0.0345687
0.246435
0.136738
0.0176574
0
0.000311901
0
0
0.00160238
0.10385
0.272541
0.153609
0.0349812
0
0
0
0
0.0363858
0.297368
0.110725
0.456596
0.12535
0.0110229
0.00390752
0
0
0.00166239
0.0309811
0.274175
0.537492
0.206803
0.0229572
0.00564614
0
0
0.00717643
0.0970405
0.155645
0.0476296
0.00896111
0
0
0.00417169
0.020675
0.172438
0.232847
0.039898
0.00214891
0
0
0
0.00695282
0.175053
0.433938
0.144652
0.238686
0.176429
0.0593
0.00461451
0.00195867
0.00814395
0.0568825
0.140023
0.202111
0.0670657
0.0111048
0
0
0.0118854
0.0861935
0.479738
0.392039
0.169625
0.0019872
0
0
0
0
0.00158753
0.183681
0.271559
0.0521713
0.00119232
0
0
0
0.00623196
0.00944423
0.248654
0.189061
0.0204984
0.0139104
0
0
0
0.0162035
0.11814
0.49816
0.228565
0.0423379
0.00857184
0.00127842
0
0
0.0298249
0.163882
0.602545
0.132578
0.0155695
0.00113345
0.000283362
0
0.0025597
0.0321548
0.0501484
0.318869
0.135078
0.014326
0.0805368
0.00047227
0.043029
0.0363589
0.157197
0.116584
0.242459
0.110279
0.0885966
0.00252327
0.00683609
0
0.00426617
0.0749346
0.234013
0.45588
0.0530116
0.00287114
0.0595711
0.00516298
0.071715
0.0630722
0.224311
0.3766
0.382012
0.164181
0.0571554
0.0340764
2.00054e-005
0.0134681
0.085685
0.149652
0.0123656
0.0322371
0.0270435
0.0360964
0.0116399
0
0.00192401
0.318557
0.519055
0.00165444
0.0140477
0.0074734
0.0128553
0.0316338
7.02462e-005
0.0224468
0.141504
0.178215
0.0455239
0.0733706
0.0640982
0.0359703
0.0145238
0
0.00320669
0.453442
0.519055
0.0177734
0.0217086
0.0219889
0.0184147
0.00135639
0.000138811
0.0256006
0.0340937
0.064893
0
0
0
0.000107087
0.00101094
0.00182884
0.400563
0.349589
0.212153
0.0031758
0
0
1.52982e-005
0.136179
0.0648329
0.108817
0.100323
0.146931
0
0
0
0.0291908
0.0725902
0.113161
0.456726
0.483898
0.300332
0.00764343
0
0
0.0171718
0.000929214
0.00477454
0.431327
0.386008
0.23148
0.052183
0.0206092
0
0
0.000754655
0.00262214
0.194321
0.186515
0.175084
0.106255
0.0343487
0
0
0.0290071
0.0722181
0.347602
0.393901
0.169734
0.029288
0.00721343
0
0
0.0174042
0.0472307
0.198924
0.228383
0.159173
0.0599268
0.0125609
0.00013464
0
0.000923441
0.019228
0.425045
0.178928
0.0758256
0.0425188
0.00801107
0
0
0.0185997
0.213759
0.39878
0.167266
0.0607468
0.0108638
0.0109702
0
0.00358928
0
0.00687619
0.251602
0.328194
0.181672
0.0474575
0.00532684
0.00134056
0.00165628
0.0590086
0.166184
0.176144
0.367515
0.192296
0.0860893
0.0783051
0.00534729
0.0634547
0.0324462
0.310016
0.0965784
0.0349448
0.010823
0.00349514
0.00720152
5.83107e-005
0.00410732
0.0746175
0.54364
0.104513
0.00214256
0.0009549
0.0103983
0.0116845
0.000408175
0.0229884
0.070906
0.381259
0.12374
0.0860703
0.027632
0.0268913
0.0504107
0.00119997
0.0370321
0.103661
0.545912
0.131354
0.00488579
0.00805048
0.0768541
0.0728636
0.000495446
0.0337499
0.0944079
0.379316
0.125171
0.0382752
0.0235945
0.0569631
0.0355496
0.00243249
0.0379745
0.174623
0.307834
0.248804
0.0797151
0.0372351
0.092673
0.0663845
0.0344262
0.060918
0.0796203
0.175813
0.0532751
0.0235464
0.0428786
0.266622
0.238199
0.0582425
0.0472938
0.123256
0.0379957
0.0853362
0.047829
0.0479005
0.255803
0.343286
0.354147
0.136838
0.148475
0.139062
0.108193
0.0291831
0.0115521
0.0382344
0.0919037
0.116594
0.135781
0.0403336
0.0295577
0.0695051
0.103459
0.0767962
0.210164
0.35768
0.182653
0.0959791
0.224964
0.172663
0.112384
0.0356611
0.0120635
0.0478963
0.11053
0.205732
0.153726
0.122862
0.33443
0.437821
0.247707
0.0961027
0.106915
0.0803146
0.0397229
0.0445707
0.00601696
0.00207363
0.0215311
0.0731265
0.106258
0.233653
0.284854
0.0502562
0.0109855
0.00387544
0.00150317
0.00159791
0.0260975
0.0929812
0.308062
0.516541
0.0226767
0.00400729
0.00202451
0.07868
0.239978
0.252378
0.162803
0.115072
0.0410756
0.0023157
0.000441275
0.000773353
0.00416408
0.0292419
0.123529
0.21921
0.343469
0.217646
0
0.000735458
0.00419343
0.00704356
0
0.000656634
0.0602438
0.253587
0.320243
0.00965046
0.000513966
0.0111699
0.00660398
0.00799949
0.0322828
0.107542
0.279183
0.179005
0.0664138
0.00848731
0.00224495
0.00229793
0.000817899
0.012123
0.199017
0.493074
0.20645
0.00492053
0.000973885
0.00341666
0.00264188
0
0.0659967
0.332915
0.407481
0.105203
0.0125702
0.00142768
0.00582287
0.00020078
0.00796445
0.118625
0.164016
0.0610195
0.0494259
0.0384903
0.00832885
0.00331302
0
0.00840667
0.284251
0.52628
0.0381577
0.00810982
0.0160122
0.00496954
0.000180702
0.000120468
0.0333915
0.190851
0.265088
0.13696
0.0324354
0.00410171
7.71523e-005
0
0
0.0556524
0.33989
0.52628
0.12777
0.00798436
0.00195504
0
0.184761
0.117774
0.117393
0.0837779
0.176326
0.00429185
0.00965997
0.0758094
0.0861783
0.101404
0.182841
0.209606
0.279999
0.147177
0.063409
0.0176004
0.0506285
0.0845479
0.0852205
0.0580007
0.0454717
0.0322189
0.298345
0.0739672
0.0803891
0.261684
0.272418
0.0429621
0.0865529
0.0610055
0.0875101
0.457018
0.246978
0.136483
0.173027
0.207571
0.0380903
0.101546
0.184782
0.301595
0.151459
0.11459
0.00903614
0.00569897
0.0160174
0.0228542
0.0561425
0.088137
0.311591
0.226238
0.0426261
0.00469663
0.000559966
0
0.00953323
0.0398242
0.0670623
0.165173
0.464655
0.279022
0.0507413
0.030401
0.0266957
0.0109183
0.0214356
0.0345716
0.176404
0.316678
0.351132
0.0121063
0.000335979
0
0
0.0119359
0.0727708
0.38214
0.346748
0.0400231
0.0169309
0.00794531
0.00979856
0.117
0.0849307
0.0385392
0.203679
0.178606
0.126138
0.0656302
0.0341591
0.215644
0.00364778
0.0111743
0.00691613
0.158648
0.443946
0.320386
0.0261796
0.0128171
0.0129744
0.0528768
0.108861
0.222333
0.0315864
0.113545
0.0440332
0.0279576
0.0452151
0.137734
0.132344
0.213807
0.0481204
0.0380865
0.0177326
0.0310795
0.0311813
0.00813147
0.113559
0.166282
0.271252
0.0625622
0.0067546
0.00978685
0.0719461
0.0761752
0.0028032
0.0757754
0.159895
0.27453
0.182324
0.00533797
0.0100014
0.00372293
0.00186968
0.0101055
0.0718105
0.649794
0.32366
0.0732762
0.00394863
0.00110721
0.00855945
0.017684
0.00230122
0.184198
0.0592102
0.0309767
0.00816371
0.00130251
0.011107
0.104344
0.165933
0.0828895
0.0521667
0.0969962
0.0015798
0
0
0.00616211
0.0687325
0.196077
0.316157
0.228288
0.383994
0.0294954
0.00206925
0.000781506
0.000771872
0.0122414
0.046585
0.0538353
0.238551
0.420211
0
0
0
0.000110267
0.00628624
0.0465963
0.155941
0.510339
0.219904
0.121974
0.0225848
0.0041682
0.000953175
0.00538915
0.0332411
0.135989
0.219985
0.195351
0.383235
0.234245
0.0607093
0.0143799
0
0
0.0226894
0.071295
0.351876
0.0404229
0.000806919
0
0
0
0.00661363
0.120941
0.393925
0.23231
0.185625
0.0404875
0.00337526
0.00238662
0.00340801
0.0845111
0.312225
0.237157
0.0496016
0.287069
0.375319
0.209956
0.0800278
0.0110841
0.000905353
0.0169558
0.0169171
0.0066004
0.0215505
0.0669898
0.153219
0.322703
0.257462
0.0324848
0.00131799
0.0064861
0.0741186
0.17575
0.0864497
0.0204113
0.0277967
0.0257364
0.221854
0.295985
0.0875441
0.0153501
0.0345909
0.0337533
0.1882
0.391549
0.0883297
0.0781644
0.0222012
0.0124781
0.000413131
0.00107944
0.0027177
0.0291766
0.243415
0.266427
0.0150508
0.000723934
0.000429746
0
0.00073076
0.00219228
0.0347658
0.382898
0.217568
0.0147272
0.00203878
0.000167027
0.0015185
0.00446029
0.0100093
0.208429
0.372146
0.0944057
0.000455187
0.00107517
0.00078841
0
0.00121793
0.0080134
0.177191
0.607468
0.0796444
0.00196614
0.00752616
0.00171769
0
0.000114144
0.0116339
0.0850382
0.246229
0.12181
0.0102285
0.000225003
9.59777e-006
0
0
0.0188192
0.167709
0.494978
0.154433
0.0100235
0
0
0
0.00019024
0.00057072
0.188703
0.403534
0.0468182
0.00370732
0.00117558
0.000268302
0
0
0
0.347559
0.494978
0.0652248
0.00566702
0
0
0.0135765
0
0
0
0.176265
0.0865974
0.0433583
0.0715427
0.108018
0.0019395
0.00186019
0.00471388
0.0362804
0.451601
0.317291
0.116243
0.0470072
0.0637934
0.0019395
0
0
0
0.159648
0.0655063
0.0423239
0.000258617
0.00685321
0.000277072
0.00111611
0.00171276
0.00997239
0.416045
0.451601
0.404206
0.00478097
0.0032253
0.00318751
0.0151375
0.0218566
0.0645534
0.288766
0.217494
0.04618
0.00662
0.0022791
0.00548656
0.0176118
0.0153606
0.0207106
0.0947035
0.296472
0.0213032
0
0
0.000876511
0.00893091
0.00784155
0.0210224
0.230257
0.574587
0.353146
0.00712999
0
0.00148571
0.00999622
0.00541468
0.013659
0.0982608
0.418032
0.118521
0.00101857
0
0.00191603
0.00576896
0.000958375
0.0095509
0.104985
0.310286
0.0381487
0.0044173
0.00197033
0.00406243
0.0569441
0.197807
0.080992
0.156925
0.0597248
0.014235
0.0106382
0.00881402
0.000426406
0.001977
0.000241234
0.00785056
0.111934
0.520874
0.183532
0.00726724
0.00054771
6.51781e-005
0.0177664
0.110228
0.138396
0.459698
0.399759
0.122888
0.0135137
0.00137478
0.0543903
0.223854
0.289901
0.0959953
0.0642819
0.00384609
0.00113386
0.00254662
0.00559795
0.435799
0.321349
0.158603
0.0410381
0.00895057
0.000371454
0
0.000104861
0.0936985
0.0172108
0.0784594
0.199294
0.235223
0.287264
0.168295
0.117842
0.0182945
0.00762528
0.301506
0.174139
0.158397
0.154356
0.0875771
0.0380693
0.126358
0.0706757
0.133986
0.357509
0.052253
0.0102952
0.00123814
0.000530632
0
0
0.0032471
0.209145
0.422821
0.00101769
0
0
0
0
0
0.00931428
0.35823
0.326111
0.0452533
0.0143716
0.00866698
0.00371442
0.00109142
0.0127214
0.0204042
0.203757
0.426611
0.00464157
0
0
0
0
0
0.00574402
0.346462
0.300217
0.00158973
0
0
0.00255548
0.00692559
0.020707
0.138907
0.301147
0.0768552
0.00723294
0.000144005
0
0.0315068
0.0819398
0.265052
0.407897
0.166524
0.313149
0.0531021
0.0184419
0.00407312
0.0178884
0.0173838
0.0427738
0.0933431
0.278197
0.102215
0.117045
0.151983
0.0863668
0.23994
0.170659
0.255972
0.185469
0.0925339
0.00595774
0.00553481
0.00117264
0.00255525
0.0760919
0.116188
0.256746
0.159275
0.0194305
0.00321396
0.014418
0.0322164
0.187399
0.221715
0.0681961
0.0764009
0.0116465
0.00184021
0.00524955
0.0465086
0.116028
0.169024
0.3498
0.183394
0.170819
0.0477445
0.00092567
0.000885172
0.0625191
0.412088
0.41179
0.355551
0.0851996
0.0371891
0.00293184
0.000713336
0.000635987
0.0062521
0.0298248
0.277407
0.171418
0.00681177
0.000387175
0.000838481
0.00032831
0
0.000671016
0.0232532
0.282548
0.290745
0.00470059
0.000397118
0.00586936
0.00146734
0.00150853
0.0302767
0.22518
0.309541
0.143873
0.00429007
0.00168917
0.000119783
0.00149085
0.000876541
0.00598881
0.169698
0.66164
0.159642
0.00648626
0.00277983
0.000838481
0.00108616
0
2.39262e-005
0.0137951
0.169079
0.319189
0.00296823
2.48245e-005
0.000997346
0.000249336
0
0
0.00810538
0.241217
0.453878
0.00576208
0
0
0
0
0.00285938
0.133006
0.380383
0.247055
0.00889137
0.00472377
0.000142478
3.56195e-005
0
0.00175087
0.071234
0.353765
0.453878
0.0186852
0.00758333
0
0
0
0
0
0
0.0760913
0.0369703
0.0215591
0
0
0
0
0
0.000308066
0.271543
0.552923
0.519839
0.0198185
0
0
0
0
0
0.0193133
0.00711806
0
0
0
0
0
0
0
0.110003
0.368062
0.370425
0.0127323
0
3.8404e-005
0.000153616
0
0.00116421
0.0573021
0.354285
0.362871
0.0130807
0
6.40067e-005
0.000256027
0
0.00698937
0.0284218
0.213162
0.183409
0.00574227
0.00090047
0
0
0
9.42444e-005
0.0250425
0.286171
0.489715
0.0452182
0
0
0
0
0.00410753
0.0133333
0.175933
0.489715
0.124972
0.00630329
1.82898e-005
7.31591e-005
0
0.00825285
0.0605472
0.276089
0.175566
0.0197308
0.00233059
0
0
0.00340946
0.0193744
0.162567
0.35607
0.289348
0.0708814
0.0085831
0.00207526
0
0
0.00825028
0.0278405
0.165945
0.487617
0.174906
0.0252742
0.0181191
0.00193428
0
0.00424666
0.0191866
0.175018
0.371415
0.312698
0.122531
0.00293362
0.00196974
0.0120453
0.0499391
0.121903
0.192517
0.302719
0.0899975
0.0183291
0.137048
0.012721
0.0145514
0.042133
0.0428341
0.038496
0.220494
0.204189
0.149921
0.0135548
0.00205668
0
0.00125433
0.0103162
0.0864405
0.342046
0.354377
0.133429
0.18275
0.00188196
0
0
0.0031791
0.0123777
0.19991
0.37734
0.392915
0.239918
0.00932158
0.00156052
0.00287137
0.00123059
0.0009829
0.0168959
0.0490458
0.141659
0.377703
0.00793881
0
0
0
0
0
0.00182796
0.214573
0.287684
0.00354713
0
0
0
0.000140414
0.00929308
0.063769
0.357948
0.534405
0.0165156
0
0
0
0
0
0.00184012
0.410943
0.246658
0.0860387
0.0213774
0.00300331
0.00485232
0.00304925
0.00718979
0.00655186
0.150273
0.113152
0.258849
0.233545
0.0724994
0.0765985
0.0266646
0.0232536
0.00985345
0.0403825
0.416444
0.173816
0.0182669
0.000429045
0
0
0
0
0.188565
0.20177
0.600654
0.22559
0.0214628
0.00260204
0
0
0
0.0462753
0.00860935
0.13569
0.268971
0.145737
0.109835
0.0230833
0.00908107
0.00136397
0
0.00709123
0.0733872
0.456363
0.207903
0.0930707
0.0106991
0.000802026
0
0.00371391
0.0283534
0.36642
0.362861
0.0548397
0.00677388
0.00182443
0.00390047
0.000975116
0.00438149
0.0366688
0.259918
0.444463
0.0783097
0.0156745
0.012771
0.00650078
0.00162519
0.00528313
0.00684425
0.0246315
0.178953
0.0976158
0.0340419
0.00150379
0.000436451
0
0.00447154
0.00226905
0.0183119
0.200252
0.457866
0.0348136
0.00511657
0.00686252
0
0.00193009
0.0307439
0.255704
0.238189
0.0387159
0.00528733
0.00339782
0.000636277
0.000159069
0.00443952
0.0480643
0.38366
0.538951
0.293782
0.00540229
0.00890878
0.0150402
0.00219483
0.0152567
0
0.011023
0.169116
0.38449
0.137628
0.031445
0.0295694
0
0
0
0.00604998
0.0745959
0.233051
0.476632
0.0461376
0.0344631
0
0
0.0389741
0.103696
0.199964
0.28724
0.153292
0.0341396
0.0431807
0.00492479
0.0164847
0.0130061
0.009772
0.0355645
0.222722
0.497708
0.0361415
0.0359706
0.00295487
0.00600998
0
0
0
0
0.00738994
0.00345221
0
0
0
0
0
0
0
0.0772519
0.530481
0.662762
0.00605315
0
0
0
0
0
0
0
0
0
0
0
0
0
0
0.016288
0.0151895
0.0359917
0.000864736
0
2.41407e-005
0
0
0
0.00859275
0.0733235
0.412274
0.0511075
2.41407e-005
4.02345e-005
0
0
0.000541714
0.00485843
0.0483711
0.540962
0.278849
0.00273231
0.000168985
0
0
0
0.00430336
0.00572334
0.100795
0.0204375
0.000168985
0.000281642
0
0
0
0.00258201
0.0147349
0.540962
0.303879
0.000281642
0.000898997
0
0
0.000961638
0.00107641
0.0151854
0.378445
0.203314
0.00703021
0.0104731
0.00226691
0
0.00381881
0.00316585
0.00816425
0.115225
0.186226
0.0535789
0.000157705
0
0
0.000322125
0.000263557
0.00421097
0.449256
0.449256
0.0185189
0.00342071
0.00136014
0
0.00225488
0.0018449
0.000454613
0.288786
0.449256
0.17445
0.0133004
0.00346855
0
0.00211539
0.00173078
0.00328109
0.0523931
0.180103
0.100037
0.0516987
0.000495507
0
0
0
0.000468727
0.0309806
0.171652
0.233648
0.00755297
0.00208113
0
0.00126924
0.00103847
0
0.0803603
0.527376
0.404222
0.0424933
0.000297304
0
0
0
0
0.0126874
0.29451
0.527376
0.116909
0
0
0
0
0
0.00216934
0.0517663
0.306112
0.325507
0.0214024
0
0
0
0
0
0.00510344
0.300314
0.147907
0
0
0
0
0
0.000282085
0.0683855
0.487929
0.438498
0.0124016
0
0
0
0
0
0.00367714
0.42321
0.237892
0.132984
0.00543144
0
0
0
0
0
0.0940801
0.137917
0.338022
0.0473679
0.00178671
0
0
0
0
0.0278787
0.406804
0.10624
0.00181187
0
0
0
0
0
0.169046
0.470073
0.541345
0.0504948
0.000478884
0
0
0
0
0.043727
0.0361279
0.173273
0.0667323
0.00385235
0.000314828
0.00038479
0.00223619
0.000559046
0.00682823
0.0358672
0.287834
0.196543
0.00429644
0.00220379
0.00269353
0.00372698
0.000931744
0.00126992
0.220469
0.546527
0.0588923
0.000949402
0
0
0.000319456
7.98638e-005
0.00848743
0.235513
0.546527
0.287007
0.000569641
0.00096357
0
0.000532426
0.000133106
0.00790276
0.0251452
0.343433
0.210688
0.0015148
0.00179586
0.00144017
0.000430531
0.000107633
0.00025134
0.082273
0.447681
0.245045
0.0175891
0.00772697
0.0143979
0.0244026
0.0102196
0.0239149
0.0881545
0.447681
0.299667
0.00172398
0.0120698
0.0044173
0.00493746
1.53761e-005
0.00406968
0.135498
0.395004
0.188627
0.0028733
0.0643052
0.0799137
0.0449204
0.0221227
0.049711
0.109884
0.23797
0.134747
0.180254
0.13414
0.034271
0.0639395
0.0318302
0.0601249
0.0236537
0.0187896
0.036953
0.28497
0.572564
0.0194766
0.0231886
0.0138544
0.0200313
0.162981
0.22674
0.065965
0.16382
0.0980427
0.133497
0.0890525
0.079014
0.107072
0.0487253
0.0698314
0.0488954
0.296939
0.330428
0.0553296
0.0298817
0.0389808
0.0535395
0
0
0
0
0
0
0
0
0
0
0
0
0
0.00149199
0
0
0
0
0
0
0
0
0
0
0
0
0
0
0
0
0
0
0
0
0
0
0.000461224
0
0
0
0.000403988
0.00466783
0.0233982
0.0108745
0.000461224
0.000768706
0
0
0
0.000242393
0.0326748
0.684525
0.568434
0.000768706
0
0
0
0
0
0
0
0
0
0
0
0
0
0
0
0.0157789
0.0359597
0
0.00282793
0
0
0
0
0.00235908
0.222156
0.40685
0.0511597
0.00901212
0
0
0
0
0
0.231294
0.637661
0.400772
0.00467918
0
0
0
0
0
0.00774085
0.0499718
0.02579
0.0169901
0
0
0
0
0
0.0248623
0.215568
0.219798
0.00904601
0
0
0
0
0
0.0554842
0.441442
0.322341
0.127276
0
0
0
0
0
0.0151761
0.302919
0.441442
0.0256113
0
0
0
0
0
0.0171449
0.192997
0.197918
0.220187
0
0
0
0
0
0.00808433
0.174812
0.441442
0.183731
0
0
0
0
0
0
0.035175
0.390649
0.36971
0
0
0
0
0
0
6.46319e-005
0.390649
0.240333
0
0
0
0
0
0
0.0185343
0.363231
0.376534
0
0
0
0
0
0
0
0.390649
0.394457
0.0405626
0.000102948
0
0
0
0
0
0.233222
0.414329
0.339473
0.0524284
0
0
0
0
0
0.0991744
0.357982
0.0189886
0
0
0
0
0
0
0.297072
0.414329
0.162743
0.0321291
0
0
0
0
0
0.178657
0.345107
0.532588
0.0931696
0
0
0
0
0
0.0264817
0.270838
0.532588
0.124192
0.00153504
0.00334096
0
0.000462901
0.000884211
0.0298035
0.252221
0.23894
0.0534506
0
0
0
0
0
0.0486611
0.125804
0.137406
0.0222035
0.00255841
0.00458408
0
0.000771502
0.00160455
0.0287368
0.234902
0.738705
0.228931
0.0247659
0.0471907
0.00557743
0.0168804
0.0124953
0.0227096
0.268533
0.244654
0.142505
0.0304587
0.162485
0.100312
0.0425683
0.051143
0.113595
0.0907781
0.0898446
0.0116294
0.0256772
0.0296212
0.000114408
0.00494744
0.02169
0.0231573
0.119143
0.0522107
0.0157867
0.0247659
0.0771379
0.00750013
0.00577312
0.0338221
0.0316393
0.375111
0.184802
0.0623672
0.125316
0.218357
0.211237
0.0505074
0.174788
0.301934
0.152855
0.0894613
0.0337493
0.259795
0.302965
0.128292
0.0231351
0.100988
0.23634
0.121738
0.0278288
0.0115738
0.00743884
0.149042
0.0458026
0.00455178
0.0319658
0.127536
0.0511402
0.00112883
0.00174818
0.0801942
0.236568
0.078872
0.00885737
0.0162807
0.161832