0.0212194
0.0157697
0.0375536
0.0326367
0.0883332
0.0778631
0.0109407
0.040953
0.0730002
0.00835137
0.00879067
0.054518
0.131344
0.512199
0.475028
0.0280378
0.0325663
0.0212774
0.0454279
0.0306493
0.106255
0.0503047
0.0572276
0.0369013
0.00510315
0.0351191
0.0232641
0.0148341
0.0146871
0.124407
0.267002
0.20822
0.270659
0.230933
0.0674323
0.0411766
0.031829
0.0281089
0.0307754
0.0910023
0.394994
0.312921
0.053571
0.0408547
0.0279112
0.0639573
0.0478619
0.075624
0.0981268
0.128225
0.0669789
0.0537421
0.0559954
0.0484797
0.0369634
0.0175305
0.0333489
0.101907
0.146407
0.254206
0.26419
0.110642
0.167614
0.119039
0.323463
0.248965
0.0211216
0.0621694
0.189415
0.141278
0.127261
0.172495
0.0121172
0.00694754
0.0133905
0.0103436
0.0160274
0.00846072
0.00895163
0.00684419
0.012307
0.092116
0.0631299
0.0300007
0.00999815
0.0224669
0.00878677
0.00772102
0.00158625
0.0252757
0.0740156
0.321338
0.181127
0.00276276
0.00987925
0.0173448
0.0159279
0.0109322
0.0295447
0.396964
0.698822
0.349413
0.00305197
0.00825215
0.00294523
0.00770633
0.0025379
0.0642393
0.155387
0.048629
0.0149909
0.00169727
0.0137242
0.00579751
0.0042121
0.000856609
0.0212598
0.324085
0.0659062
0.0019546
0.00470098
0.0294285
0.0109696
0.00789278
0.00542474
0.112341
0.494481
0.411679
0.113758
0.000625958
0.00336145
0.000452043
0.00072314
0.00054146
0.043463
0.543139
0.194959
0.0155513
0
0.00425912
0.000895413
0.00141622
0.00360864
0.183783
0.23266
0.0252436
0.00042752
0.00408112
0.0133707
0.00554629
0.00345856
0.0017546
0.173532
0.204996
0.00396966
0.000712534
0.000583017
0.00205692
0.00420082
0.00329743
0.028944
0.369658
0.491005
0.0407712
0.000756339
0
0.00158825
0.00100904
0.00133135
0.00135413
0.279582
0.350075
0.00466556
0.00240631
0
0.000127049
0.000968287
0.000588806
0.0472587
0.491005
0.0744618
0.000541592
0.000869569
0.000119259
7.87136e-005
0.00200773
0.00563297
0.0727357
0.26586
0.0203682
0.000186259
0.00128417
0.000198765
0.000437271
0.00188697
0.0265907
0.104112
0.236596
0.1046
0.000452905
0.0012738
0
0
0.000115291
0.00512371
0.168817
0.496879
0.0336588
2.92794e-005
8.78381e-005
0
0
0.00061941
0.142003
0.496879
0.496879
0.0101068
0.000854537
0.000552585
0.00282843
0.00120988
0.00321566
0.028534
0.0617352
0.115608
0.00767385
0.00255905
0.00262536
0.0134957
0.00510608
0.00346981
0.0052822
0.016628
0.0272208
0.0182751
0.000757101
4.18972e-005
0.00152434
0.000717159
0.000924178
0.279439
0.599756
0.386851
0.0243407
0.00495632
0.00463645
0.00778219
0.00394051
0.0003502
0.261984
0.484174
0.172951
0.0451732
0.0116691
0.017806
0.0404281
0.0274966
0.0210784
0.0248052
0.0235791
0.0433918
0.0485873
0.00967786
0.0330557
0.0228217
0.0333236
0.033934
0.0441034
0.0583716
0.0551198
0.0911089
0.0187709
0.0329892
0.0298021
0.0367517
0.0131698
0.50415
0.611049
0.220207
0.0900607
0.0521878
0.0361927
0.00991883
0.0721657
0.0472737
0.0760236
0.0751006
0.0441672
0.0735415
0.0318252
0.0971766
0.039693
0.0692596
0.0557367
0.063868
0.064629
0.143838
0.0390541
0.0626659
0.134173
0.0855316
0.251174
0.187464
0.066779
0.0664761
0.118904
0.187424
0.207333
0.133572
0.0274829
0.0854948
0.067745
0.0273819
0.0309775
0.0824911
0.119374
0.2041
0.140216
0.049531
0.150955
0.17685
0.0462651
0.03504
0.152201
0.0545228
0.0550893
0.132203
0.0260503
0.029278
0.0314846
0.0178454
0.0707785
0.0274387
0.00694522
0.0126612
0.0932316
0.125457
0.0651512
0.177907
0.340016
0.136512
0.113321
0.0482136
0.0585683
0.0889758
0.0253291
0.128664
0.0410736
0.0165852
0.0947024
0.0902807
0.0132378
0.06161
0.243726
0.391062
0.304937
0.135422
0.102819
0.182899
0.123499
0.000757258
0.00708842
0.0460746
0.00912998
0.0118105
0.0207379
0.030433
0.0168084
0.0328893
0.012774
0.21611
0.385974
0.0134364
0.0176061
0.0314436
0.00947243
0.0147031
0.0259587
0.00131034
0.0428382
0.408361
0.134685
0.03128
0.00946137
0.0057298
0.0140187
0.0165445
0.00231453
0.32615
0.647417
0.135099
0.0250619
0.00842736
0.000789783
0.00432019
0.00912728
0.029542
0.37401
0.296957
0.00296099
0.00287606
0.00685715
0.00186431
0.00233723
0.00663397
0.133701
0.477741
0.204514
0.00017405
5.90882e-005
0
0.0010204
0.000460583
0.0127787
0.00863152
0.331521
0.462692
0.0148925
0.00230666
0.00126793
0.000763509
0.00038087
0.00177272
0.0436182
0.30265
0.133441
0.00228782
0
0
0.00120177
0.000400589
0.00524876
0.355192
0.454785
0.0981733
0.000116098
0
0
0.00226973
0.000750702
0.0309789
0.544662
0.146263
0.0168961
0
0
0
0.00629583
0.00408221
0.133144
0.144026
0.246761
0.0886431
0.000524637
0
0
0.00366537
0.00122179
0.0207086
0.243856
0.303325
0.0341296
0
0.00209455
0
0.005185
0.00503432
0.102784
0.422544
0.0362144
0.0041312
0
0
0.00295625
0.00695281
0.00551818
0.204936
0.296994
0.0108203
0.0136932
0
0
0.00492708
0.0048395
0.0451105
0.524165
0.277739
0.165931
0.00369273
0
0.0023932
0.00177375
0.00417169
0.0183794
0.16028
0.322781
0.0320904
0.00821594
0
0.000341886
0.00295625
0.0151637
0.194543
0.254626
0.0706449
0.00220571
0.00592734
0
0
0.000542508
0.00704179
0.127368
0.395169
0.0317112
0.000137776
0.000848275
0.000807759
0
0.00039376
0.100166
0.558197
0.448581
0.0822233
0.00378777
0.00355641
0
0
0.000325505
0.0246973
0.238349
0.157266
0.0596578
0.000332824
0.00329262
0.00565431
0
0.00275632
0.0790067
0.330941
0.163032
0.00552688
0.000149312
0.000234715
0.000474149
3.82505e-005
0.000577604
0.135193
0.398091
0.135308
0.00514473
0.00104518
0.00116702
0.000823695
0.000267754
0.000346562
0.405369
0.452377
0.0696696
0.0112795
0
0.001643
0.00305129
0
0.00404323
0.0793004
0.181067
0.0425699
0.00188802
0
0.000264801
0.000491774
0
0.00647807
0.452377
0.374392
0.0206253
0.00286304
0.000741212
0.00187396
0.00158431
0.00101355
0.00533818
0.316826
0.235746
0.0171037
0.00377446
0.00552367
0.00400054
0.000915437
0.00192635
0.0107865
0.0886278
0.0556325
0.00195094
0.000326329
2.4496e-005
0.00010249
0.000190338
0
0.0690958
0.554029
0.331191
0.00302241
0.00149146
0.00482513
0.00338731
0.000276968
0.00334429
0.167239
0.554029
0.146756
0.00409451
0.0441868
0.0861238
0.046365
0.0141249
0.00849427
0.0212063
0.0386454
0.0253367
0.0121011
0.0455768
0.0838885
0.040694
0.0434906
0.0265624
0.0259339
0.00646379
0.0257786
0.0471372
0.0472872
0.0660119
0.0539385
0.0111351
0.0296346
0.412376
0.693003
0.13894
0.0542939
0.0588383
0.0557118
0.072147
0.0514579
0.0208043
0.0549552
0.0339386
0.0541811
0.0490441
0.00452012
0.00205111
0.00339504
0.00547401
0.0211818
0.00635056
0.00916752
0.0109912
0.00772117
0.0017603
0.0259366
0.20736
0.16914
0.0863735
0.00840129
0.00649039
0.00790887
0.00850557
0.00205997
0
0.00439859
0.0364799
0.0620329
0.0136415
0.0242777
0.0168549
0.00196687
0.000251472
0.0438917
0.554726
0.653358
0.333232
0.00991578
0.0158661
0.00497239
0.00245469
0.000927411
0.041149
0.369779
0.218414
0.0322896
0.000659146
0.000617568
0.00233321
0.0022872
0.000820212
0.0731401
0.452335
0.191635
0.00814628
0.000390631
0.000904814
0.000601768
0.000387638
0.000132487
0.0354189
0.42592
0.440066
0.0983813
0.000943637
0.00102788
0.000337883
0.000535806
0.000644456
0.0214378
0.260812
0.256274
0.0340621
0.00379238
0.00215939
0.000139276
1.89267e-005
0.00683716
0.145585
0.423319
0.0723065
0.00137047
0.000943196
0.00497486
0.00152354
0.00139232
0.0360639
0.248949
0.327851
0.020358
0
0.000134742
0.00302177
0.000988007
0.00349607
0.00202257
0.057479
0.402116
0.161209
0.026894
0.00738043
0.00575812
0.000914126
0
0.0346511
0.195217
0.555648
0.0765143
0.0150309
0.00396963
0.00204965
0.000548476
0.0054411
0.103361
0.27518
0.211567
0.00208516
0
0
0.000725294
0.000642664
0.0118565
0.223189
0.312668
0.0732785
0
0.00832474
0
0.000435177
0.00360553
0.0783913
0.125655
0.283432
0.244092
0.00719939
0.0046142
0.0013403
0
0.000668165
0.0145904
0.279758
0.589856
0.192909
0
0.00499485
0
0
0.0108754
0.0370437
0.18541
0.18041
0.0425301
0
0.00715917
0
0
0.00966306
0.0779955
0.348127
0.165687
0.0493058
0
0.00102274
0
0.00542879
0.0829871
0.14084
0.193528
0.435736
0.158131
0.00657449
0.0269537
0.00653162
0
0.0165932
0.0258743
0.367906
0.466811
0.22885
0.0245853
0.056539
0.010886
0.000317738
0.0103428
0.0660215
0.204085
0.0469995
0.00596968
0
0
6.46107e-005
0.0307014
0.17439
0.18338
0.0807952
0.00263254
0.0014429
0.00267967
0.00176114
0.00319948
0.290155
0.326618
0.160758
0.277749
0.184788
0.0553328
0.0132134
0.0217644
0.0142042
0.0689637
0.100062
0.19502
0.0966612
0.0172178
0
0.00808122
0.0583915
0.13842
0.543542
0.246845
0.186778
0.0141344
0
0.00123674
0.0022968
0.00410328
0.00714468
0.277965
0.160745
0.0191398
0.00386314
0
0.000176677
0.000328114
0.00462564
0.0215034
0.452881
0.167645
0.00810735
0.00390822
0
0
0.000894229
0.0608173
0.13761
0.499264
0.131878
0.0134142
0.00158664
0
0
0
0.0726607
0.151448
0.517264
0.0942498
0.00158664
0.000255491
0
0
0
0.0018697
0.0739056
0.404547
0.078361
0.000469276
0.000290405
0.00192279
0.00175038
1.7576e-005
0.0110285
0.246032
0.470101
0.0736533
0.00104452
0.00141105
0
0
0
0.0260986
0.10633
0.181074
0.0177094
0.00141105
0.000824728
0.000344375
0.000535485
0
0.0566339
0.470101
0.470101
0.0300992
0.000824728
0.00348405
0.00494387
0.00812801
0.000879989
0.0251464
0.206452
0.287191
0.0293657
0.00425963
0.00491292
0.00439231
0.0109529
0.00640643
0.0126635
0.0310429
0.0145711
0.00519982
0.00519122
0.000372351
0.00244213
0.00528236
0.000567746
0.14788
0.63008
0.586053
0.0247895
0.000254647
0.00448083
0.00686602
0.00796007
0.00566646
0.0910797
0.177736
0.081438
0.0031006
0.00249645
0
0
0.0208584
0.0557535
0.056395
0.00970044
0.0074638
0.00445074
7.30738e-005
0
0.00720781
0.225898
0.522353
0.239708
0.0037094
0.00370692
0.00177764
1.04391e-005
0
0.045532
0.140008
0.136236
0.125763
0.0278576
0.00361365
0.00348012
0.000804497
0
0.0754895
0.386103
0.522353
0.274733
0.00947125
0.00295081
0.00850578
0
0.000150774
0.0101289
0.238919
0.541064
0.215267
0.00284453
0.00443173
0.00109774
0
0.000374979
0.00713865
0.15078
0.199869
0.105712
0.00615162
0.00720289
0.00135522
0
0.00268286
0.0167085
0.137728
0.530851
0.249382
0.00264868
0.00631997
0.00542715
0.00162744
0.00447144
0.00589436
0.108752
0.171166
0.259639
0.0105549
0.00824852
0.00327681
0.00296694
0.000341885
0.0291944
0.358673
0.2458
0.11509
0.00646555
0.00535793
0.00105224
0
0.0480344
0.17581
0.389852
0.114773
0.177259
0.0121997
0.00348467
0.00193946
0.0238625
0.00131194
0.0044926
0.241714
0.234942
0.330638
0.0102709
0.0104603
0.0131665
0.00280188
0.0892504
0.141789
0.206774
0.0793754
0.374758
0.0155235
0.0250924
0.0203789
0.152166
0.114568
0.289916
0.198092
0.00605729
0.0391245
0.00311032
0.000319932
0.000796631
0.0191444
0.210768
0.54625
0.181738
0.00122131
0.00917414
0.0130475
0.00164552
0.0150115
0.0383933
0.172179
0.28122
0.19105
0.00757993
0.0840161
0.00406176
0.00503017
0.00624175
0.115736
0.207474
0.406018
0.15418
0.00854915
0.0221425
0.0464779
0.017763
0.010938
0.0672047
0.130964
0.310873
0.0945719
0.0215505
0.0578923
0.0488563
0.0314922
0.0533987
0.0514393
0.114158
0.195141
0.17162
0.0755961
0.123516
0.0384317
0.130398
0.107708
0.0421794
0.063374
0.13745
0.0362439
0.0218137
0.0605671
0.152892
0.230472
0.0852017
0.0563767
0.105865
0.0174099
0.0246029
0.0466267
0.0747148
0.101662
0.559481
0.428234
0.0517796
0.116565
0.14834
0.0852045
0.0504981
0.0642431
0.0185643
0.107366
0.100516
0.0876329
0.0534823
0.0735038
0.107851
0.102563
0.178482
0.172139
0.267172
0.0887177
0.0718934
0.277381
0.155081
0.0734266
0.0421859
0.0361653
0.00529927
0.165031
0.268888
0.073084
0.227667
0.388973
0.411982
0.208211
0.142007
0.0322557
0.0301782
0.0313541
0.0362057
0
0.00812909
0.0445868
0.0954807
0.178312
0.202158
0.244339
0.040867
0.00409108
0.00236189
0
0.00272892
0.0451637
0.177522
0.321624
0.436861
0.0284901
0.00236189
0.025694
0.127565
0.248931
0.23727
0.191288
0.0516409
0.0361714
0.00381774
0.00254644
0.00205488
0.00919816
0.029818
0.115919
0.339054
0.304791
0.19596
0.00597711
0.00132733
0.00377684
0.000192423
0.000357357
0.000485361
0.0625662
0.137119
0.14457
0.00350374
0.00377684
0.0022661
0.000320705
0.000595594
0
0.173218
0.590075
0.331083
0.00723665
0.0022661
0.00154079
0.00166335
0.00345066
0.00457482
0.211713
0.163265
0.0964149
0.0021096
0.00154079
0.000924475
0.00224493
0.00416916
0.00225953
0.361925
0.42367
0.126421
0.00357333
0.000924475
7.78247e-005
0.000426931
0.000267636
2.16566e-005
0.166152
0.421688
0.247094
0.00354227
0
0.00133103
0.00246214
0.000418326
0.000356236
0.133326
0.156472
0.0965764
0.00113134
0.00102661
0.00293164
0.000247845
0.000377695
0
0.411198
0.446769
0.155298
0.031428
0.0106757
0.0539566
0.000311299
0
0
0.361691
0.276356
0.098145
0.0575683
0.131917
0
0.0459788
0.129175
0.0721268
0.192838
0.0388444
0.0450671
0.0456157
0.00142865
0
0.0762304
0.247504
0.293952
0.266309
0.117606
0.077665
0.0897232
0
0
0.0065684
0.0400293
0.0184167
0.210275
0.101049
0.167508
0.0781122
0.00114316
0
0.01089
0.0666909
0.0372531
0.427002
0.505437
0.283292
0.128038
0
0.00252195
0.0183764
0.0711423
0.212887
0.232951
0.0868527
0.022746
0.0293632
0.00203617
0.00420325
0.00242889
0.0249295
0.078253
0.358602
0.0571954
0.00558073
0.00302335
0.00371207
0.00288117
0.0037798
0.0148018
0.0199277
0.405145
0.505478
0.0787103
0.0347482
0.00242691
0.00480195
0.00227133
0
0.0246617
0.472067
0.160795
0.0579017
0.00382082
0.00409034
0.00247005
0.00179659
0.0614568
0.098509
0.512038
0.0714347
0.0152801
0.0213471
0.00458225
0.105632
0.0493438
0.0364771
0.0258218
0.171439
0.0224411
0.0396038
0.0271088
0.117536
0.00552635
0.00602845
0.00645676
0.0258966
0.600237
0.256752
0.131525
0.0120099
0.00440959
0.0529218
0.0809144
0.201733
0.113268
0.113838
0.0467389
0.0367298
0.0140816
0.0160502
0.143204
0.102022
0.0432787
0.00501694
0.0290013
0.00410643
0.00795301
0.00668821
0.0910276
0.220342
0.134426
0.0484865
0.00425829
0.0114003
0.0235996
0.0146894
0.00614656
0.108537
0.132889
0.241199
0.276747
0.0723783
0.0129427
0.00153707
0.00285455
0.00289119
0.02158
0.581481
0.420898
0.218315
0.013547
0.0040948
0.0015322
0.00231158
0.00351592
0.245692
0.0999584
0.0173089
0.00646691
0.00259946
0.00969126
0.0439002
0.10705
0.0478672
0.0767542
0.164683
0.000113144
0.000264002
0.000371352
0.0032783
0.0286954
0.238952
0.215601
0.150445
0.404669
0.0597744
0.0131434
0
0.002053
0.00270685
0.0175166
0.0184782
0.27375
0.472953
1.61634e-005
3.77145e-005
0
0.000293285
0.00162411
0.0501778
0.062067
0.521623
0.2549
0.0649488
0.0146439
0.00298047
0
0.000567642
0.0675877
0.127779
0.157821
0.253871
0.242569
0.140138
0.0380845
0.01254
0.00110366
0.0136054
0.0479944
0.094863
0.29319
0.0175724
0.000710375
0
0
0
0.0431082
0.123068
0.486016
0.178052
0.0622129
0.0108483
0.000362731
0.000673643
0.0328146
0.240802
0.372271
0.283947
0.0901741
0.176127
0.174173
0.0874021
0.06114
0.0099025
0.0326382
0.0357452
0.0351123
0.00420289
0.013677
0.0266433
0.0718502
0.454995
0.109484
0.0603711
0.0115984
0.00258127
0.0669597
0.0443366
0.0171262
0.00364838
0.0163384
0.130457
0.307149
0.29721
0.0840018
0.0116116
0.00899712
0.0109047
0.184307
0.553679
0.0784942
0.0831161
0.0294298
0.00588872
0
0.00122222
0.00314
0.0306287
0.354357
0.0606944
0.0170005
0.0018913
0
0
0.00225986
0.00700759
0.0292089
0.453867
0.141219
0.0305172
0.00478432
0
0.00119656
0.00168941
0.00502841
0.129787
0.453619
0.00265672
0.00544217
0.00193223
0.00053454
0.000890899
0.00832634
0.0203154
0.180059
0.558805
0.0173966
0.0162357
0.00695818
0.000890899
0.0419001
0.00290052
0.00091454
0.00489307
0.275699
0.137081
0.0195924
0.0702053
0.0392442
0.210448
0.00441458
0
0.00156788
0.177573
0.120754
0.0155855
0.11929
0.383532
0.135577
0.0531554
0.036494
0.100822
0.292039
0.0161277
0.00476024
0.0425658
0.0659014
0.46516
0.0873668
0.0554835
0.0508662
0.151936
0.0138307
0.00363067
0.0694709
0.46516
0.000631533
0.000312418
0.000381844
0.0119024
0.103084
0.0818987
0.0723146
0.0238381
0.00116154
0
0.000520696
0.000636406
0.0169732
0.339139
0.540479
0.177268
0.0213408
0.000230445
0.00105256
0.00218692
0.00267291
0.0171263
0.0578523
0.0615622
0.020765
0.0205745
0.00553073
0
0.00364487
0.00445484
0.0259241
0.288031
0.540479
0.316127
0.0073051
0.00186878
0.00233862
0.00264646
9.33429e-005
0.00316726
0.251052
0.418262
0.0668016
0.00282436
0.00152225
0.00389771
0.00428347
0
0.0050201
0.180137
0.152126
0.0680208
0.00256616
0.00275213
0.000725721
0.00207665
0.000653401
0.00376631
0.201647
0.550433
0.357641
0.00112901
0.000493955
0.00160042
0.00257008
0
0
0.0910871
0.370069
0.161069
0.0135551
0.00271948
0.00313215
0.00579742
0.0031203
0.00662755
0.190933
0.231688
0.136548
0.00645171
0.00198907
0.00830833
0.0233556
0.186843
0.133465
0.178882
0.081429
0.0321548
0.00377568
0.00176094
0.00185443
0.00366037
0.00239424
0.0036642
0.147321
0.341455
0.353679
0.0494123
0.002619
0.00124217
0.0051632
0.0793492
0.133871
0.36976
0.296589
0.436674
0.0589937
0.000349257
0.0447803
0.133536
0.356152
0.134496
0.0801526
0.0195079
0.0106983
0.000107719
0.00461553
0.307859
0.307196
0.279948
0.0322122
0.0220606
0.0118043
0.017444
0.00103386
0.144851
0.0059365
0.0402755
0.180787
0.130441
0.223424
0.194007
0.285891
0.0677721
0.00730541
0.150306
0.122858
0.183453
0.0310206
0.072341
0.0987728
0.281908
0.160146
0.185912
0.329985
0.0709219
0.0257965
0
0
0.00168052
0.0031035
0.00449114
0.245025
0.377139
0.00247737
0.000482817
0
0
0.0011184
0.000479313
0.00940183
0.466983
0.245855
0.0401409
0.0220313
0
0
0.0117637
0.046366
0.0493662
0.246387
0.364028
0.0173416
0.00337972
0
0
0.00782878
0.00335519
0.0208361
0.352994
0.163432
0.00201783
0.00268465
0.00364211
0
0.00531567
0.0673747
0.0886633
0.402535
0.0402555
0.00113362
0.0143694
0.0240663
0.0336723
0.113938
0.42745
0.281577
0.198397
0.220076
0.0603053
0.0598642
0.0254948
0
0.0111776
0.0579996
0.042491
0.252443
0.0805671
0.125733
0.323359
0.199339
0.0886905
0.115265
0.269679
0.0673903
0.0908542
0.00648496
0.00252164
0.00894329
0.0274965
0.0887356
0.179132
0.300591
0.113488
0.0176062
0.00625694
0.0134305
0.0825639
0.173286
0.264572
0.0871425
0.0752785
0.00853004
0.00140273
0.0105882
0.0615217
0.261587
0.238263
0.203396
0.153364
0.158939
0.0150394
0.000919425
0.0130277
0.0914226
0.472153
0.316571
0.304476
0.0744955
0.0400345
0.000542455
0.00392722
0.0023504
0.00702504
0.0496847
0.11861
0.194261
0.00174207
0.00236361
0.000970293
0.00181314
0.00234569
0.00338751
0.0518286
0.296175
0.277805
0.00974122
0.0141406
0.00606025
0.00234569
0.00871473
0.0277824
0.182306
0.145638
0.128386
0.00278715
0.000918992
0.000393854
0.0068878
0.00525495
0.0110346
0.376454
0.646513
0.286633
0.0144411
0.00643294
0.00275698
0.00462377
0.0547276
0.0496827
0.112711
0.291115
0.273686
0.00287681
0.0033764
0.00144703
0.0230531
0.261988
0.0861965
0.110401
0.144012
0.224532
0.00491893
0
0.00101053
0.293735
0.00202594
0.0111911
0.309488
0.489224
0.271968
0.00517755
0.00317165
0.000658296
0.00170307
0.0253601
0.0163539
0.129585
0.203012
0.240925
0.0143017
0.00297696
0.00894527
0.0327641
0.000296311
0.00182135
0.0107473
0.0235812
0.0386796
0.0328197
0.0153562
0.0186242
0.00994081
0
0.00382404
0.0114083
0.0269668
0.214183
0.634672
0.551777
0.00555164
0.00185728
0
0.00248894
0.0353058
0.0619196
0.0232494
0.00690136
0.0116354
0.00731397
0.00646228
0
0.00874006
0.0424841
0.0245309
0.109625
0.2589
0.268391
0.0129061
0.000154824
0
0.00028281
0.00059811
0.00127115
0.0417045
0.339179
0.368875
0.00205329
7.434e-005
0.00102693
0
0
0
0.0160253
0.232357
0.277375
0.00681788
0.00154731
0
0.00131657
0.00431194
0.00118648
0.0317087
0.213874
0.479937
0.018159
0
0.00114755
9.00303e-005
0.000300618
5.66924e-005
0.00940645
0.192618
0.493771
0.0932779
0.00114755
0.00274596
0.000177597
0.00053279
0.000606333
0.035397
0.0914076
0.228872
0.0330927
0.00332275
0.00100424
0.000295994
0.000887983
0.0124408
0.0827651
0.0965392
0.432541
0.114188
0.00256277
0.00451825
0.00222543
0.00429475
0
0.0118259
0.0542767
0.642835
0.153305
0.00587831
0.0102365
0.00865696
0.00715792
0
0.00834988
0.0159659
0.396246
0.242769
0.0278409
0.000696788
0.00141429
0.00561476
0.0114022
0.0503796
0.0830604
0.346993
0.162355
0.0121624
0.0850973
0.00264886
0.00914598
0.00217133
0.0143866
0.0335048
0.216862
0.24309
0.213307
0.0162347
0.0049795
0.0010251
0
0.00192312
0.0128616
0.314711
0.360435
0.0528352
0.134537
0.00193335
0
0
0
0.0026247
0.164729
0.476593
0.336043
0.178508
0.00276508
0.00137401
0
0
0.00293381
0.0257949
0.0508704
0.236068
0.315181
0.00432492
0.000842888
0
0
0.00195246
0.000836771
0.00298067
0.295359
0.244122
8.32797e-005
0
0
0
0
0.0162187
0.111242
0.379714
0.460939
0.0168352
0
0
0
0
0
0.00506934
0.482922
0.258584
0.0734
0.0411713
0.00713055
0
0.00168799
0.00364289
0.00274792
0.212732
0.141537
0.245057
0.307958
0.078679
0.0166831
0.00901358
0.0125103
0.00137068
0.0652681
0.377002
0.152032
0.033533
0
0
0
0
0
0.329538
0.246028
0.418442
0.319534
0.0103584
0
0
0
0
0.120561
0.0184248
0.161947
0.375215
0.125939
0.0403756
0.0122724
0.00508332
0.000166529
0.000741774
0.0121636
0.11567
0.417366
0.116947
0.0776655
0.00650471
0.000625968
0
0.00522991
0.0642067
0.260675
0.41039
0.0333977
0.00183365
0
0
0
0.0144131
0.0248045
0.212147
0.496302
0.0317181
0.0236188
0
0
0
0.0134298
0.00510571
0.0165626
0.116539
0.0678543
0.0290284
0.000221077
0
0
0.00395188
0.00220821
0.015492
0.440352
0.35036
0.0783535
0.00143084
0
0
0.00181998
0.00467998
0.0937243
0.467019
0.0733922
0.0109535
0
0
0
0.00332962
0.000928434
0.0833401
0.509584
0.326507
0.0403844
0.00124103
0.00142148
0
0.000747539
0.000509056
0.0224708
0.519445
0.457635
0.214667
0.00435261
0.00270631
0.000421166
7.43236e-005
0.00577596
0.0117363
0.0913755
0.123369
0.140569
0.0108986
0.00558585
0.00775569
0.0117995
7.27223e-005
0.0312067
0.512733
0.279298
0.106003
0.00470074
0.00413439
0.00294817
0.000520265
0.0132177
0.0137343
0.0489982
0.0745606
0.0666875
0.00438971
0.00281418
0.00533515
0.00520926
0.00961597
0.0359845
0.148802
0.266487
0.161836
0.0800735
0.0278858
0.0383028
0.0293574
0.0398972
0.0742101
0.27694
0.0810314
0.157
0.273763
0.184002
0.0477339
0.0161405
0.0742486
0.0359845
0.0616567
0.0714601
0.20322
0.179689
0.0606625
0.096391
0.203661
0.112315
0.0736458
0.243375
0.082359
0.0894489
0.108475
0.0866749
0.0527133
0.128612
0.00144643
0.00229575
0.0111561
0.0092699
0.016258
0.089256
0.292083
0.0216367
7.61282e-005
0.000284986
0.000151769
0.00170927
0.00791648
0.00658853
0.0999901
0.682877
0.274062
0.00230487
0.00336092
0.00346372
0.020281
0.025756
0.00891824
0.0184306
0.0463751
0.00602748
0.00208576
0
0.000354828
0.0101117
0.0400797
0.0122946
0.0347283
0.474395
0.234467
0.0174415
0.00054521
0.000899058
0.00158173
0.00052888
0.000506349
0.0083773
0.435964
0.228925
0.00220012
0.0051159
0.00470903
0.00243149
0
6.00154e-005
0
0.1668
0.260655
0.0207646
1.47414e-005
0.000106983
0.00122178
0.00626117
0.00295032
0.00485602
0.364999
0.360883
0.03005
0.00118124
0.00109832
0.000240084
0.000282231
0.00032411
0.000286196
0.350057
0.465833
0.105736
0.0180689
0.0111359
0.000474818
0
0
0
0.0506923
0.198093
0.0521993
0.0602594
0.014636
0
0
0
0
0.0328589
0.18856
0.157726
0.0087229
0.0108877
4.68834e-005
0
0
0
0.14196
0.552422
0.275897
0.0318299
0.0204189
0
0
0
0
0.0241558
0.355466
0.552422
0.114681
0.00414164
0.000138182
0
0
0
0.00895012
0.0799433
0.252151
0.266683
0.0231216
0.000967275
0
0
0
0
0.0100893
0.290882
0.0827998
0.00690384
0.000967275
0
0
0
0.00199754
0.11719
0.566364
0.393032
0.0327207
0.00677092
0
0
0
0
0.0233124
0.449705
0.179635
0.0776979
0.0151506
0
0
0
0.00283953
0.00317247
0.117509
0.143063
0.172023
0.074983
0
0
0
0.00473254
0.00236294
0.0490527
0.454978
0.110121
0.00597478
0
0
0
0.00473254
0.0059545
0.108125
0.572967
0.51811
0.0651501
0
0
0
0.00788757
0.00393823
0.032846
0.0451176
0.126435
0.0576484
0.00096965
0.00011579
0
0.000434569
7.66887e-005
0.00695465
0.0199692
0.343202
0.26623
0.00191762
0.00129217
0
0
0
0.0030888
0.204193
0.486157
0.151244
0
0
2.15339e-005
0.000918087
0.000127815
0.00635006
0.102152
0.486157
0.440155
0
0
0.00138639
0.00259229
0.000614421
0.00368091
0.00253918
0.290927
0.500909
0.0273959
0.00181617
6.62969e-005
0.000155562
0.000328724
0.00171647
0.000516032
0.118641
0.500909
0.119966
0.0162483
0.00176228
0.00199602
0.00104169
0.00128824
0.0192546
0.404141
0.368717
0.00502141
0.000538556
0.00276631
0.00389698
0.00385508
0.00644772
0.00367892
0.0875077
0.16292
0.017197
0.00528632
0.00574238
0.0124668
0.00693623
0.00637379
0.00263899
0.0558571
0.389791
0.22598
0.0878634
0.0118204
0.0109243
0.00441338
0.00185457
0.0396071
0.0877477
0.112962
0.333155
0.10486
0.00903738
0.0107459
0.00517604
0.00929021
0.0203538
0.0473999
0.0735529
0.0837054
0.0827933
0.0149661
0.0301273
0.0100861
0.0224903
0.0311839
0.17906
0.148485
0.556408
0.292216
0.112932
0.0989163
0.00077813
0.0267612
0.0960443
0.0333208
0.00807452
0
0.15803
0.158992
0.0493157
0.102812
0.162482
0.0852253
0.115948
0.150522
0.0239687
0.155581
0.198449
0.0537219
0.067563
0.116006
0.107489
0.0683626
0.0296677
0.0831403
0.147317
0.1658
0.0630428
0.106453
0.133437
0.167195
0.182462
0.203869
0.0567705
0.162487
0.322113
0.0592078
0.105537
0.138044
0.0174317
0.0473256
0.121214
0.0851074
0.0654677
0.0969897
0.0158814
0.0254309
0.0413095
0
0.0263069
0.0636229
0.288812
0.13403
0.115553
0.255008
0.281197
0.0881672
0.0611582
0.102549
0.139049
0.129571
0.107478
0.103195
0.0137176
0.024493
0.0412446
0.00414496
0.061081
0.0699814
0.472683
0.248551
0.100012
0.0454702
0.0153762
0.0377178
0.00298699
0.00692383
0.00310992
0.0223149
0.0121323
0.0106805
0.14941
0.239092
0.0626778
0.0138002
0.00802024
0.00527351
0.00167856
0.00180974
0.00423541
0.3285
0.795073
0.245453
0.0066944
0.0129887
0.0178605
0.036478
0.0155257
0.0163644
0.0208025
0.0134111
0.0196008
0.0279378
0.0235098
0.0367115
0.00504088
0.00509903
0.00587877
0.039713
0.140919
0.0982469
0.0253889
0.00275508
0.00175108
3.26493e-005
0.00109484
0.00107439
0.0917321
0.47768
0.218379
0.0641938
0.00263472
0.000202171
0
0.0020909
0.00179065
0.0259815
0.450852
0.501266
0.0427947
0.0049571
0.00724627
0.000285122
0.0108588
0.0140149
0.0197404
0.139876
0.0782347
0.0943352
0.000811753
0.00125155
0.00253956
0.0264886
0.0290068
0.0111009
0.226974
0.340333
0.0996085
0.000605915
0.000206127
0
0.000480232
0.000201697
0.00129423
0.116082
0.444239
0.410869
0.0241904
0.00144289
0
0
0
0
0.0120424
0.444239
0.0970395
0.000224265
0.000877424
0.00489395
0.00931921
0.00604261
0.000776539
0.078858
0.346919
0.335776
0.0181572
0.00106255
0.00571019
0.00250156
0.00271566
0.00085521
0.0136981
0.344936
0.466186
0.15325
0.0044717
0
0.00018853
0
0.000457758
0.000737885
0.137527
0.466186
0.466186
0.0587921
0.000112467
0.000852905
0.000328278
0.00076293
0.000380928
0.0367533
0.342475
0.0914698
0.00332478
0.0011574
0.00155292
0.00190848
0.000929551
0.00292475
0.127575
0.263623
0.200345
0.0246951
0.00203437
0.00475609
0.00081977
0.000132793
0.00203155
0.0497154
0.363916
0.632253
0.184091
0.000595982
0.00274763
0.00184646
0.00142798
0.000144293
0.01903
0.172016
0.478205
0.242461
0.00318271
0.00404092
0.00667464
0.00912223
0.00125755
0.00867271
0.159381
0.144572
0.0322589
0.00633093
0.00944389
0.00349844
0.00394961
0.00137207
0.0196004
0.0585332
0.0404974
0.018651
0.0131842
0.0187216
0.00872215
0.0105619
0.00242565
0.00488597
0.15574
0.697611
0.391852
0.0209039
0.0131236
0.0486189
0.0341768
0.0233146
0.0303903
0.0266714
0.122651
0.0672921
0.0335172
0.0209203
0.0523992
0.0997232
0.044407
0.0583749
0.0571757
0.0504612
0.0396228
0.069536
0.0684702
0.0527127
0.0263948
0.0118358
0.0236641
0.0785394
0.0806186
0.058457
0.0848578
0.0403087
0.050744
0.0702598
0.0208203
0.0694172
0.0255106
0.0269088
0.0474574
0.0980175
0.0894069
0.0303244
0.0456876
0.0260568
0.0509765
0.100341
0.109162
0.105521
0.322151
0.2681
0.162278
0.103043
0.095407
0.158371
0.0704723
0.0400255
0.0594176
0.0693367
0.0639546
0.0431311
0.0303983
0.0654692
0.074742
0.267038
0.0386304
0.197352
0.166422
0.367497
0.0829454
0.0291345
0.220459
0.384688