0.0284017
0.0716784
0.0758595
0.180274
0.107585
0.0151058
0.0139751
0.0215519
0.0150144
0.0302927
0.0898927
0.0238977
0.124507
0.134052
0.0492336
0.0689055
0.0591541
0.0159448
0.0222471
0.035249
0.303696
0.515316
0.104141
0.0119265
0.0039454
0.0090812
0.00668352
0.0280646
0.0608847
0.188357
0.559129
0.17659
0.0345668
0.0226837
0.0042852
0.000226895
0.0283523
0.0433598
0.0335147
0.0945659
0.198924
0.0579188
0.0478103
0.053047
0.0267741
0.0582599
0.153936
0.10759
0.0741919
0.110759
0.0873427
0.0561312
0.0386
0.0511389
0.0211158
0.0613072
0.227905
0.406923
0.140216
0.0224588
0.013921
0.00389018
0.00759936
0.0339054
0.371493
0.459028
0.295396
0.0313987
0.025077
0.0497852
0.00530229
0.0245866
0.0703734
0.129994
0.0267217
0.00941789
0.0131494
0.0571379
0.0451604
0.0293522
0.0929657
0.12178
0.28264
0.104476
0.0268256
0.00185069
0.0125391
0.0267443
0.0565524
0.200659
0.13101
0.389221
0.130408
0.0574511
0
0.0153819
0.0344577
0.00432013
0.0936398
0.318744
0.526256
0.142487
0.0163972
0
0.00219742
0.00491688
0.00874087
0.277939
0.0341363
0.225562
0.316194
0.147119
0
0
0.00557522
0.0174066
0.0576764
0.0134984
0.182376
0.299851
0.169858
0
0
0.00418573
0.0589192
0.0469515
0.150442
0.431795
0.288533
0.019883
0
0
0
0.00360995
0.0904452
0.27001
0.285456
0.233821
0.0196339
0
0
0.000397179
0.0221964
0.145117
0.013588
0.0800595
0.077721
0.0279083
0.0258994
0.00879764
0.024149
0.125267
0.0611527
0.027033
0.0157862
0.024616
0.0232746
0.125983
0.0323068
0.0707132
0.18611
0.174498
0.264434
0.0769693
0.0592171
0.00202043
0.00276794
0.00121222
0.0094237
0.0865767
0.288647
0.273318
0.00700567
0.0127926
0
0.0114737
0.00202037
0.0327739
0.182616
0.673286
0.0535446
0.0133861
0.00112579
0.00497085
0.0367181
0.0162197
0.0283493
0.135194
0.197967
0.195256
0.0130413
0.000694139
0
0
0.00198031
0.0271341
0.173514
0.203142
0.20262
0
0
0
0.00316348
0.000237196
0.00933472
0.107974
0.50828
0.278983
0
0
0
0
0
0.0595035
0.299005
0.465839
0.0783474
0.00420443
0.00328846
0
0
0.0027873
0.0630164
0.186907
0.0649628
0.00959101
0.0133413
0.0107622
0
0.00197273
0.0314771
0.183563
0.206246
0.0182893
0.0632228
0
0
0
0
0.000398185
0.091335
0.458819
0.158926
0.000748148
0
0
0
0
0.00480575
0.278122
0.648118
0.0526765
0.0220889
0.00745411
0.00733935
0.00802486
0.0174679
0.041177
0.146077
0.167291
0.0296415
0.0197807
0.00571579
0.0234925
0.0680411
0.0781201
0.0210697
0.0296375
0.0817474
0.0213579
0.00201126
0
0.00150937
0.00546628
0.00610539
0.00693225
0.431117
0.5925
0.0171539
0.0293784
0.0276071
0.0456623
0.0507749
0.0153487
0.00981835
0.28183
0.347331
0.0312466
0.0449882
0.0254552
0.0446423
0.065932
0.126225
0.00756738
0.00947559
0.0897516
0.0395488
0.0674329
0.0400812
0.0529933
0.0269336
0.117235
0.00421139
0.0393468
0.157689
0.101835
0.159677
0.115344
0.153276
0.0538838
0.0152775
0.00615628
0.115754
0.18909
0.190988
0.199023
0.145688
0.107586
0.0297099
0.0478721
0.0538298
0.12188
0.279138
0.499407
0.00456395
0.0106946
0.221244
0.311684
0.0321036
0.00328575
0
0
0.00334887
0.00327283
0.0189961
0.207845
0.368291
0.0375565
0.00426344
0
0
0
0.00511321
0.023389
0.245211
0.376767
0.0890043
0.00225227
0
0
0.00047841
0.000840357
0.0380606
0.429649
0.424312
0.0215488
0
0
0
0
0.00371833
0.0224552
0.205592
0.172709
0.0141979
0.000585284
0
0
0
0.00594031
0.165022
0.35459
0.103699
0.000679602
0.000288152
0.00259337
0
0
0.000491474
0.0271402
0.475372
0.268886
0.0111946
0
0
0
0
0.0228085
0.190914
0.550286
0.16864
0.00750684
0
0
0
0.000319422
0.0662965
0.217523
0.182463
0.0412786
0
0.000335551
0.00301996
0
0.0234232
0.20394
0.272555
0.118055
0.0286613
0
4.79359e-005
0.000431423
0
0.0815855
0.0762144
0.18111
0.35059
0.0567196
0.0190815
0
0
0
0.00341102
0.151252
0.41448
0.551623
0.0521328
0.0114489
0
0
0
0.0161847
0.105522
0.282669
0.0758207
0.00325367
0
0
0
9.90131e-005
0.0242267
0.314818
0.232226
0.0313737
0
0
0
0
0.00278017
0.0481958
0.135785
0.481112
0.210756
0.00599489
0
0
0
0
0.00516607
0.441626
0.400598
0.0423646
0.00116703
0
0.00441106
0.000778423
0
0.016739
0.405299
0.0534465
0.00297999
0
0.000965586
0.000241396
0
0.0170119
0.150008
0.339296
0.00186712
0.00135079
0.00189183
0.00969983
0.00168977
0
0.0522949
0.453592
0.452041
0.120625
0.0146224
0.0005287
0.0219743
0.0202595
0.00260575
0.0214967
0.0774277
0.260143
0.0537049
0.0845009
0.0135312
0.0932575
0.0270276
0.00156345
0.0817776
0.234091
0.184959
0.000103142
0.00313682
0.00302088
0.00677014
0.000775445
0.0050178
0.089298
0.464862
0.141193
0.000171903
0.00188209
0.000909546
0.000524051
0
0.0904794
0.359803
0.337961
0.0965683
0.0237743
0.0759626
0.0215059
0.0516721
0.00649839
0.0336004
0.174167
0.214962
0.0658478
0.00266721
0.0182352
0.0124337
0.00366836
0.00764201
0.189886
0.425247
0.135993
0.0142722
1.6504e-005
0
0
0
0
0.104759
0.324377
0.0735055
0
0
0
0
0
0
0.199633
0.420767
0.0221838
0.00546017
0.000115528
0.00128889
0.0116
0
0.00992616
0.202062
0.330947
0.0297039
0.00072057
0
0.000773336
0.00696003
0
0.0251207
0.453668
0.448629
0.0269392
0
0
9.84564e-005
0.000182848
0
0.000586445
0.199859
0.332669
0.00432663
0.00485578
0.0065041
0.0177531
0.00456948
0
0.0125907
0.217803
0.30449
0.0313433
0.000107628
0
0
0
0
0.0252892
0.333953
0.371494
0.0163796
0
0.000342631
0.0024377
0.000469935
0.00103929
0.0678271
0.419941
0.408036
0.0275149
0.0327351
0.0503812
0.0761006
0.0078323
0.0353002
0.0539905
0.148143
0.192953
0.10098
0.0551425
0.0689403
0.052927
0.00580105
0.0856852
0.0839428
0.0777042
0.0930654
0.191509
0.00871471
0.0159994
0.0138281
0.00275072
0.101359
0.393305
0.383971
0.341153
0.0588316
0.0616678
0.0556228
0.0694064
0.0246372
0.189855
0.370605
0.0924039
0.0490739
0.101214
0.0105217
0.0234955
0.0853613
0.213587
0.076339
0.00321421
0
0
0
0.0015031
0.0108148
0.308316
0.335048
0.0235694
0
0
0
0
0.00919792
0.0374338
0.0821769
0.247821
0.0953705
0.0168423
0
0
0.00288489
0.0026328
0.00533287
0.494213
0.570346
0.0351021
0.00186236
0
0
0.00173093
0
0.00612726
0.328127
0.1971
0.00352157
0
0
0.000562436
0
0.0163307
0.0409987
0.331742
0.121942
0.0220258
0
0
0.00393705
0.000628895
0
0.00190732
0.43153
0.337611
0.0100673
0
0
0.00393705
0
0.00716937
0.0133512
0.405279
0.424609
0.0702397
0
0
0.0275594
0.000377337
0.020383
0.0401558
0.290443
0.0474647
0.0266203
0
0
0.00131944
0.000666794
0.035927
0.205744
0.422221
0.0259024
0.00874552
0
0.000309444
0.002785
0.000739004
0.00684076
0.0319683
0.463804
0.324541
0.0413965
0
0
0.00923605
0.000343748
0.0317439
0.17563
0.494221
0.131361
0.0228897
0.00512245
0.00216611
0.019495
4.91069e-005
0.143875
0.491492
0.323456
0.00902314
0
0
0.000743556
0.00669201
0.000580909
0.285699
0.326544
0.130601
0.00864537
0.00301551
0.00839521
0.00136972
0.000956001
0.00389131
0.0863276
0.291834
0.271268
0.123571
0.0531317
0.0123086
0.00520489
0.047325
0.00192384
0.0532663
0.241079
0.174972
0.0775838
0.054429
0.0265402
0.000924055
0.0100587
0.0134669
0.202176
0.183114
0.0735667
0.0519465
0.0383054
0.0345929
0.00414646
0.0142264
0.0222061
0.145317
0.21994
0.181737
0.131685
0.103867
0.0335429
0.00248787
0.0551136
0.0482859
0.047188
0.157479
0.086519
0.267303
0.153402
0.082192
0.00621415
0.0167394
0.0174774
0.129282
0.164249
0.113446
0.542011
0.276156
0.163387
0.0540805
0.118163
0.0828068
0.0854523
0.093216
0.121627
0.0686881
0.0500582
0.0104903
0.0438146
0.136842
0.0685772
0.041489
0.0278948
0.038303
0.0470276
0.0645601
0.0797503
0.20925
0.322489
0.0905193
0.0699825
0.096745
0.148469
0.226904
0.211754
0.12304
0.0697447
0.122173
0.0728038
0.0566294
0.0913421
0.403724
0.357261
0.236855
0.130519
0.145803
0.178539
0.06728
0.00202335
0.0246635
0.0208845
0.0225783
0.0284542
0.058047
0.126715
0.136025
0.033212
0.00199884
0.0374999
0.0163378
0.0104108
0.0037316
0.0825316
0.475921
0.173261
0.0440516
0.0230651
0.101752
0.228246
0.213149
0.0705209
0.0714893
0.0893928
0.0452057
0.0189709
0.00439152
0.125576
0.142979
0.109796
0.00987242
0.235746
0.591168
0.0788466
0.023167
0.000252143
0.00468862
0.00123791
0
0.00451043
0.0730331
0.373108
0.106852
0.00953534
0
0
0
0
0.00860712
0.0915043
0.366517
0.145007
0.00249484
0.00132332
0.0153314
0.0102948
0.00235401
0.077151
0.359001
0.454659
0.0457596
0.00298408
0.00820426
0
0
0
0.144288
0.28041
0.355172
0.11614
0.000431805
0.000613687
0.000752855
0.00139816
0.00222111
0.0251877
0.261602
0.202933
0.0722955
0.00162423
0.0147017
0.0225863
0.0312204
0.0313002
0.073304
0.282752
0.0603011
0.00695062
0.00511616
0.00336358
0.000107551
0.000199737
0.00133266
0.151511
0.412438
0.223323
0.0614132
0.000177031
0.00536441
0.0101415
0.0132728
0.0270845
0.243542
0.609386
0.092841
0.0133863
0
0.00855271
0.0184721
0.0753979
0.161949
0.0791831
0.0149445
0.000443212
0
0.00789245
0.00466909
0.00658808
0.329528
0.499217
0.0789649
0.00313491
0
0
0.00466909
0.00696677
0.0263416
0.0396994
0.127949
0.20141
0.01468
0.000738686
0
0.00544355
0.00280145
0.00953039
0.111356
0.481269
0.455116
0.0628467
0
0
0.00280145
0
0.000151248
0.163364
0.249734
0.039436
0.00492545
0.000684696
0.00110855
0
0
0.00105874
0.151563
0.433841
0.10653
0.00767372
0.00114116
0.00775986
0
0
0
0.0393076
0.277372
0.213025
0.0302758
0.00114116
0
0
0
0
0.0370587
0.532519
0.462238
0.0304409
0.00190193
0
0
0.000971927
0.0162081
0.254517
0.497129
0.0626137
0.0014277
0.000212313
0.00392445
0
0.0104223
0.069299
0.218004
0.221933
0.0439556
0.00999524
0.000920392
0.00828354
0
0.00216542
0.00876244
0.0706901
0.524432
0.354265
0.0218205
0.000440152
0
0
0.0067192
0.0196909
0.0676308
0.239282
0.180987
0.0291715
0.000143827
0
0
0.0267832
0.132989
0.126997
0.358914
0.147926
0.0536539
0.00290424
0.0268676
0.00821448
0.0472418
0.185674
0.0686082
0.174746
0.142976
0.059133
0.000414891
0.00884051
0.0292534
0.065718
0.062464
0.0928376
0.452882
0.299065
0.102387
6.14199e-005
0.000104214
0.018561
0.177301
0.166543
0.0774852
0.284641
0.207644
0.0606603
0.00092269
0.000729498
0.0331582
0.0194556
0.0494297
0.0257875
0.170211
0.221663
0.0570248
0.00417663
0.00703737
0.00829211
0.0136361
0.0298487
0.091686
0.314332
0.318114
0.12883
0.0436772
0.0484301
0.0219944
0.0350439
0.0527468
0.027149
0.177555
0.36016
0.0485857
0.0369914
0.00231967
0.00305494
0.0138624
0.0422104
0.0879128
0.303829
0.517929
0.101455
0.0811054
0.00736351
0
0.00562446
0.0191487
0.095048
0.135952
0.164811
0.0941923
0.0471147
0.0339531
0.00951431
0.0281257
0.0321286
0.301656
0.360087
0.210164
0.0335127
0.0298507
0.0146347
0.00344245
0.0303075
0.0308492
0.0554377
0.19042
0.221274
0.0668304
0.0325131
0.00438866
0
0.0220317
0.0151787
0.160276
0.510973
0.388583
0.101978
0.011199
0.00157487
0
0.0195466
0.0419051
0.150784
0.344473
0.11604
0.00957346
0.0305604
0.0030994
0.000338153
0.00279237
0.0450219
0.0744775
0.191693
0.0735401
0.22632
0.301145
0.0188027
0
0.00279237
0.00433855
0.0775358
0.414646
0.347389
0.0465861
0.013759
6.9788e-005
0
0.000398911
0.00937348
0.0239204
0.187796
0.357527
0.269092
0.143232
0.000488516
0
0.00215009
0.00416264
0.00458789
0.00722513
0.115019
0.320383
0.14171
0.0083551
0.000113163
0.0150506
0
0.00327822
0.0152451
0.186132
0.24354
0.0943573
0.0268844
0.000792143
0.00129006
0.00189024
0.00392362
0.037835
0.404279
0.341143
0.0621573
0.000499291
6.78979e-005
0.00903039
0
0.0054637
0.0829753
0.556622
0.288112
0.051708
0.00259039
0.000475286
0.00747059
0
0.00162719
0.00756709
0.177019
0.245993
0.090691
0.0160891
0.00039319
0
0
0.00107271
0.00187531
0.19218
0.416917
0.0651238
0.00856669
0
0.00448235
0
0.00271198
0.0278557
0.288435
0.332298
0.0685699
0.00128577
0.000235914
0
0
0
0
0.274909
0.562504
0.0566483
0.0011352
0
0.00073375
0.027259
0.0225229
0.0563898
0.227029
0.0312481
0.000987983
0
0.000337131
0
0.00335468
0.006116
0.144886
0.584274
0.163295
0.0055157
0
0
0
0.0327118
0.0353897
0.0487514
0.204917
0.136131
0.0345838
0.0133138
0.0018099
0
0.00164964
0.00230511
0.0532179
0.490474
0.375549
0.0963282
0.0102064
0.000258558
0
0
0.000642574
0.0915988
0.26956
0.0575341
0.00911165
0
0
0
0
0.000316225
0.231865
0.547417
0.0878329
0.00873519
0
0
0
0.00301449
0.00839944
0.0364007
0.246942
0.123666
0.0576592
0.0050699
0
0
0.00502415
0.0139991
0.0960934
0.550737
0.305648
0.0448495
0.000724271
0
0.00194249
0.00205059
0.00410882
0.197012
0.46379
0.143764
0.0184287
0.0017015
0
0.00323748
0.00508335
0.042973
0.121363
0.23196
0.0874087
0.0164006
0.00283584
0
0.000277498
0.00126288
0.00900435
0.0567105
0.390639
0.420699
0.144946
0.0190448
0
0.000462497
0.0030845
0.109198
0.363741
0.14218
0.130285
0.137241
0.0317413
0
0.0283123
0.017197
0.150234
0.158502
0.202474
0.0720233
0.0247446
0.000599717
0.016123
0.0602966
0.0347382
0.12418
0.118579
0.114801
0.0730439
0.050003
0.00178182
0.031126
0.00469758
0.0118574
0.29606
0.563359
0.193705
0.151933
0.0777473
0.00739309
0.00923803
0.0102048
0.00827919
0.179458
0.182315
0.147991
0.313926
0.223056
0.0252823
0.0958923
0.0204189
0.0254948
0.0300551
0.122644
0.272931
0.156232
0.157066
0.0156607
0.0124711
0.0426499
0.0246237
0.018203
0.174654
0.334635
0.192228
0.311005
0.0543426
0.0126779
0.0370347
0.00975312
0.0201767
0.0859784
0.109895
0.265427
0.232077
0.0565661
0.189697
0.130677
0.0428558
0.0284992
0.0669233
0.0584685
0.196159
0.287417
0.145115
0.191335
0.0787805
0.0373652
0.0334672
0.140257
0.124836
0.0798474
0.113275
0.0270818
0.0129873
0.037214
0.0188209
0.0980031
0.376976
0.333993
0.243269
0.0602555
0.0346397
0.00384901
0.100326
0.0427896
0.0861822
0.100173
0.00908162
0.041138
0.122758
0.0746081
0.12332
0.0233962
0.0906309
0.24245
0.231108
0.304849
0.27339
0.238626
0.0714329
0.036361
0
0.00193126
0.0364523
0.168859
0.29277
0.180258
0.0143886
0.00655349
0
0
0.0135188
0.0374443
0.119794
0.369229
0.192971
0.0227078
0.00213148
0
0
0.0194375
0.0529774
0.0487055
0.377603
0.27853
0.0955316
0.0148956
0
0
0.0278474
0.245732
0.306271
0.344034
0.208079
0.0346132
0.00412006
0
0
0.00246639
0.0106024
0.122912
0.336187
0.0768747
0.00617452
0.000369453
0
0
0
0.00164152
0.162047
0.454357
0.0834503
0.0055922
0
0
0.000594711
0.00580737
0.113072
0.390221
0.248792
0.0125822
0.00274832
0.000615755
0
0.00416297
0.00508808
0.0340136
0.42949
0.385283
0.021004
0
0
0
0
0
0.00037297
0.0901996
0.304273
0.163417
0.0149601
0
0
0
0
0
0.0430499
0.3521
0.306879
0.0159272
0
0
0.00246982
0.00301867
0.00627135
0.396236
0.304466
0.0392638
0.000972739
0
0
0
0
0.00153594
0.28957
0.447598
0.158991
0.00650194
0
0
0.000660017
0.0111227
0.0216021
0.0259264
0.0909786
0.207357
0.0487266
0.0236054
0.00279918
5.55185e-005
0.000132957
0.000310234
0.0119574
0.178146
0.500342
0.141886
0.0135057
0.00037422
0.00317272
0.00899958
0.0180051
0.0125755
0.110635
0.202578
0.0226678
0.0145693
0.00529359
0.000388629
0.000742072
0.00198598
0
0.198194
0.653906
0.100808
0.00851679
0.000434158
0
0.0150034
0.0238687
0.0268902
0.127269
0.218901
0.110846
0.00928285
0
0
0.0250057
0.0397812
0.0450247
0.408014
0.458985
0.124927
0.00154364
0
0
0.00900205
0.0130921
0.010535
0.0836573
0.288682
0.163221
0.0165888
0
0
0.0150034
0.0218202
0.0175583
0.161448
0.404375
0.338302
0.0181002
0
0
0.00314668
0.0147637
0.0245712
0.159181
0.330476
0.232092
0.0357045
0
0
0.0004035
0.0927938
0.427081
0.0479625
0.0703322
0.193889
0.0589211
0
0
0.00334261
0.0194303
0.0269728
0.0554126
0.269189
0.376867
0.101184
0
0
0.0101822
0.120239
0.36499
0.105858
0.0738522
0.240707
0.149989
0
0
0.0017401
0.116562
0.57154
0.118828
0.0768382
0.0408261
0.0113288
0
0.0138355
0.00271023
0.0882768
0.190999
0.107928
0.165755
0.121037
0.0313901
0.078441
0
0.00548751
0.0872081
0.430401
0.238379
0.114183
0.0891327
0.0434921
0.00844791
0.0171521
0.00303729
0.0985539
0.191387
0.182512
0.104515
0.0974771
0.0953382
0.167443
0.107408
0.0217873
0.0344877
0.0460051
0.0289824
0.0993834
0.0941522
0.0626908
0.24219
0.205429
0.0614079
0.021133
0.0155384
0.00208591
0.0444478
0.0413246
0.0734412
0.259935
0.120683
0.0156461
0.0687267
0.0560827
0.0495874
0.0236854
0.0266579
0.166163
0.415888
0.379572
0.110734
0.00589418
0.00235534
0
0
0.0127314
0.187354
0.398941
0.0500751
0.0318423
0.0555905
0.0690617
0.0335009
0.0238719
0.0226638
0.0311232
0.102331
0.00551683
0.139079
0.198096
0.14692
0.349017
0.128363
0.0864091
0.0180723
0.028314
0.142491
0.11315
0.0634438
0.0576117
0.123753
0.0308969
0.0299764
0.0799799
0.110525
0.0391816
0.159063
0.230251
0.24147
0.599739
0.133523
0.0692241
0.090065
0.0310201
0.00943194
0.044917
0.0582165
0.0307742
0.306585
0.0980592
0.0529658
0.00244124
0
0.0157199
0.0555981
0.361427
0.188103
0.165216
0.0646271
0.0319276
0.000552606
0
0.034145
0.127332
0.103972
0.0908044
0.305802
0.0843028
0.0224709
0.0355277
0.0167274
0.0450363
0.226994
0.601962
0.16268
0.118109
0.0423615
0.0159095
0.0164505
0.0100364
0.00285813
0.0162976
0.30693
0.38957
0.110145
0.0124898
0.00363931
0.00112683
0.00123096
0.00597894
0.010062
0.138674
0.423706
0.199524
0.0165406
0
0.00167858
0.00205159
0.005012
0.0467896
0.422622
0.261971
0.0510975
0.0119086
0.00196815
0.00705002
0.0184759
0.000854135
0.0289749
0.30299
0.258417
0.07367
0.018779
0
0.01175
0.0307931
0.00326766
0.00549916
0.0900078
0.461304
0.15234
0.00514735
0.000294113
0.000435526
0.000412487
0
0
0.0445167
0.394055
0.266568
0.0707474
0.0146214
0.000686263
0
0.00361916
0.0333627
0.367979
0.357055
0.04595
0.00442605
0.00474244
0.00526228
0.00619116
0.00525391
0.0175088
0.176456
0.295352
0.121319
0.0521496
0.0752689
0.020299
0
0.00183392
0.00995849
0.0246454
0.0267654
0.100276
0.177131
0.0222829
0.0165581
0.00565798
0.000246887
0.00235072
0.00592446
0.0349029
0.158479
0.680632
0.188248
0.0483386
0.000448207
0
0.0140734
0.0360559
0.0780802
0.0984528
0.124032
0.0234093
0.0181376
0.00259469
0.027835
0.00220963
0.0519891
0.119077
0.104682
0.292888
0.284336
0.161206
0.0281706
0
0
0.00131325
0.00486898
0.0413281
0.222826
0.253867
0.0624697
0.000185878
0
0
0.00218876
0.00267515
0.059072
0.193723
0.380443
0.136803
0.0162431
0.0192333
0
0.0112217
0.0126571
0.0123905
0.0887961
0.412649
0.1712
0.0249461
0.00274762
0
0
0
0.00723828
0.0484129
0.413699
0.391057
0.113465
0
0.00511485
0.00788012
0.0137211
0.018992
0.116807
0.314221
0.202733
0.0157222
0.00047235
0.035804
0.0532653
0.136472
0.0653214
0.0869457
0.243158
0.212475
0.0175797
0
0.00306891
0.00117258
0.00134652
0.0024059
0.0230247
0.289332
0.378544
0.0808137
0.00330645
0.0214824
0.00820809
0.0108069
0.0055249
0.0698264
0.369465
0.454524
0.0739172
0.0006236
0.0174635
0.0300827
0.122681
0.120955
0.146835
0.188718
0.133444
0.027628
0.00253988
0.000520332
0.0205774
0.0531079
0.0755203
0.0775654
0.16829
0.316454
0.297915
0.0043652
0.0104335
0.00398648
0.0172545
0.0109118
0.0982239
0.186846
0.378578
0.0863719
0.00923919
0
0
0.0183492
0.00707156
0.0307188
0.159163
0.473312
0.256449
0.0538749
0.00153213
0.0103404
0.0113377
0.0115241
0.00386774
0.0225255
0.166632
0.397387
0.356714
0.109651
0.00415131
0.00056328
0
0
0.00513319
0.0727112
0.299042
0.0860261
0.00656787
0.00164197
0.00240373
0.000801243
0.000552534
0.0781912
0.181319
0.379232
0.330953
0.157238
0.0293211
0
0
0
0.0465698
0.0474191
0.316584
0.285251
0.259377
0.0722766
0.0295397
0.0422724
0.00539294
0.0132543
0.0341943
0.0554141
0.124774
0.230389
0.23755
0.151913
0.162811
0.0284944
0.0601487
0.100537
0.0211344
0.241992
0.323215
0.106859
0.00344036
0
0
0.0167155
0.00976947
0.0769293
0.155382
0.483873
0.218978
0.0448385
0
0
0.0116443
0.0487273
0.0263632
0.0714039
0.150566
0.147983
0.0756354
0.0795283
0.0268662
0.0147672
0.0657236
0.0340289
0.048416
0.276873
0.514097
0.0769869
0.0332469
0.0142911
0.000118577
0.0253828
0.0204173
0.0847018
0.27345
0.170014
0.0293255
0
0
0.00337443
0.0334206
0.017077
0.0436766
0.371509
0.460669
0.0242098
0.00103205
0
0.000197628
0.00705919
0.0102462
0.00753267
0.109178
0.402202
0.12431
0.0284753
0.00268436
0
0.00456565
0.0229361
0.0103047
0.10087
0.413879
0.153663
0.0205848
0.00447393
0
0.00760941
0.0382269
0.0420153
0.314134
0.35019
0.0203695
0.00601142
0.00630657
0
0
0.00959613
0.108058
0.277121
0.342599
0.203665
0.0112916
0.010511
0
0
0.018844
0.0222223
0.0704848
0.485612
0.229454
0.00662269
0.0120646
0.00890341
0.00512815
0.0135224
0.0354197
0.0438874
0.196865
0.147744
0.0754929
0.0806282
0.0922511
0.0272972
0.0134602
0.0538638
0.0749601
0.414744
0.3507
0.0414571
0.0718017
0.0156839
0.000486236
0.0157869
0.0468704
0.0185391
0.148702
0.138993
0.151795
0.270092
0.0731696
0.0197168
0.0336947
0.0336055
0.0678155
0.106932
0.117506
0.130067
0.135178
0.0211538
0.0116913
0.0381841
0.108289
0.027966
0.281097
0.212742
0.103608
0.121171
0.254717
0.13131
0.110144
0.061956
0.1022
0.157038
0.159964
0.0941112
0.147691
0.0352828
0.0267922
0.0812725
0.0793683
0.0932792
0.279886
0.240522
0.188809
0.127467
0.0865701
0.0439407
0.103761
0.0414147
0.00115551
0.0375386
0.0206274
0.00443045
0.0388256
0.336732
0.110943
0.0578412
0.00588726
0
0
0
0.000183429
0.0285871
0.384407
0.343711
0.18362
0.026711
0.0136622
0.0373541
0.0291611
0.0509946
0.0581972
0.151308
0.102481
0.0457324
0.00583713
0.014677
0.00344118
0
0.0192311
0.0394339
0.316671
0.482725
0.155698
0
0
0
0
0
0.00773674
0.179608
0.26301
0.0800798
0.00128341
0
0
0
0
0.0135301
0.194017
0.464302
0.0740526
0.000229227
0.00169338
0.000920336
0
0.000541424
0.00778304
0.197704
0.366436
0.0729403
0
0
0
0
0
0.014938
0.1684
0.533466
0.13318
0.00271515
0
0
0.00360187
0.00120062
0.0126775
0.0469725
0.409659
0.0983551
0.0380848
0
0
0.00600312
0.00200104
0.00487469
0.0445249
0.328542
0.252762
0.0196741
0.00342863
0
0
0
0.00972905
0.0888319
0.3991
0.178613
0.238514
0.0258969
0
0
0
0.00120208
0.0301575
0.234647
0.4418
0.0943827
0.00230928
0.000577321
0.000845159
0.00028172
0
0.0371627
0.10797
0.322528
0.141318
0.0532143
0.0255087
0
0
0
0.0303662
0.0815651
0.322011
0.237682
0.0124231
0.0113888
0
0
0.00207067
0.00906167
0.135539
0.472754
0.186713
0.0766279
0.0338686
0
0
0.0144947
0.0483132
0.261628
0.432022
0.0751274
0.161698
0.075332
0
0
0
0.0119347
0.0186972
0.0894912
0.132907
0.422351
0.0898643
0.00662322
0
0
0.00147032
0.00443047
0.0167505
0.132031
0.293847
0.0737828
0
0
0.00464953
0.0161883
0.0558278
0.10379
0.248837
0.65522
0.0943028
0
0
0
0.00017989
5.99633e-005
0.00900744
0.126801
0.324646
0.0609601
0.00634771
0
0
0.000192442
0.00365638
0.00133648
0.091856
0.386261
0.229216
0.00303023
0
0
2.74917e-005
0.00052234
0.000801889
0.253079
0.406339
0.0301513
0
0
0
0
0
0
0.222788
0.485589
0.17957
0
0
0
0
0.00118074
0.000208366
0.0725451
0.362225
0.28097
0.00119951
0.00963185
0.0224743
0.0108033
0.0108033
0.013112
0.165831
0.258699
0.252664
0.128669
0.0284374
0.0374572
0.0192041
0.0227997
0.0255903
0.130993
0.452061
0.240373
0
0.00826579
0.021499
0.0384709
0.0243085
0.0324392
0.203234
0.268273
0.154485
0.0271467
0.0303821
0.0358316
0.0775243
0.0577842
0.0935602
0.0743089
0.0848337
0.330801
0.284383
0.0956422
0.0866781
0.0296111
0.0233193
0.00927959
0.012415
0.0148857
0.105106
0.119506
0.193536
0.389337
0.119799
0.0349775
0.01218
0.0968922
0.128802
0.20573
0.0921547
0.0911793
0.0309895
0.0534554
0.0544848
0.0569843
0.0211398
0.033578
0.108978
0.148666
0.243228
0.313116
0.163217
0.0243349
0.0237402
0.0329894
0.0762857
0.210247
0.0995987
0.0212509
0.0547681
0.017423
0.00751354
0.034376
0.0378955
0.104009
0.16516
0.1084
0.118329
0.0337479
0.024574
0.0264296
0.0550127
0.0485911
0.111243
0.462387
0.288059
0.0653289
0.0770159
0.0353009
0.0132613
0.0314823
0.0804368
0.179364
0.290202
0.306773
0.0966219
0.0718461
0.0687067
0.024367
0.0519962
0.0250739
0.0710239
0.0514072
0.0313914
0.132855
0.0404666
0.0690546
0.104966
0.0503338
0.0164236
0.11222
0.0339909
0
0.0704276
0.02697
0.268446
0.570331
0.0880547
0.0410495
0.134896
0.0752601
0.059051
0.11675
0.0616581
0.0988977
0.0599076
0.045641
0.0581999
0.242536
0.0822644
0.0101628
0.0596594
0.0436902
0.155679
0.151924
0.0368018
0.00223138
0.0139593
0.00531958
0
0.00237182
0.00694899
0.213241
0.350107
0.0409046
0.00185806
0.000387977
0
0
0
0.0338862
0.363748
0.448665
0.101224
0.0165173
0.0479371
0.023539
0.000665224
0.00352302
0.0486575
0.202949
0.0931575
0.0128524
0.0364006
0.0144844
0.00569035
0
0.0146995
0.106312
0.415826
0.240596
0.0369299
0.0522258
0.0102732
0
0
0
0.0174124
0.162656
0.23143
0.168299
0.389869
0.0620914
0
0
0
0.00209581
0.0385126
0.0936359
0.296777
0.180501
0.0547789
0.0135838
0
0.00496132
0.026115
0.124266
0.200033
0.131515
0.511696
0.125516
0.0639714
0.00354612
0.0191754
0.0125941
0.0478122
0.0902997
0.247502
0.323302
0.0365669
0.0539722
0.033104
0
0.0154447
0.0469512
0.113246
0.238265
0.207846
0.163166
0.110772
0.0551733
0
0.0682806
0.113044
0.202962
0.171113
0.271893
0.0564981
0.0907443
0.0593303
0.0611039
0.117209
0.17909
0.0793945
0.148734
0.25143
0.296425
0.198519
0.139447
0.0366624
0.179892
0.181974
0.0514469
0.0527112
0.0983674
0.260868
0.0906779
0.00459477
0
0.0139256
0.0203283
0.0258756
0.0235769
0.16457
0.500904
0.123083
0
0
0
0
0.00420508
0.00367918
0.0888823
0.310721
0.239784
0.0701434
0
0.0180051
0.0125608
0.00196707
0.00572872
0.104671
0.479241
0.276865
0.0552118
0
0
0
0.0294355
0.0135673
0.319622
0.414522
0.0543924
0
0
0
0
0.00820747
0.0132453
0.239379
0.426152
0.234871
0.0160092
0.00454874
0
0.00418016
0.0105452
0.0186667
0.189709
0.319719
0.0946179
0.0321537
0.000812603
0.00237062
0.0166614
0.0596156
0.0386116
0.123239
0.219635
0.129587
0.0730065
0.0580683
0.00395104
0.0347359
0.035068
0.0358314
0.12494
0.452366
0.278905
0.02979
0.0255102
0.0590096
0.0751624
0.0558819
0.0395719
0.135243
0.16415
0.0537223
0.0361324
0.0610772
0.126034
0.176203
0.128075
0.142378
0.0366235
0.141679
0.151364
0.0834556
0.119255
0.0935029
0.0546046
0.085147
0.0328258
0.0133829
0.0281881
0.0762229
0.077405
0.179453
0.253635
0.0937207
0.173425
0.0806112
0.033995
0.0382447
0.0336869
0.064502
0.0500113
0.027397
0.0453018
0.0326246
0.0449136
0.0326162
0.0280232
0.0396091
0.17609
0.299403
0.0875212
0.0600635
0.00393878
0.0204813
0.0253458
0.0268679
0.0273804
0.0634986
0.140258
0.0680417
0.0292341
0.048468
0.0283448
0.0347459
0.0425746
0.0329303
0.216344
0.747812
0.0380194
0.0282105
0.0142131
0.0109932