0
0
0
0
0
0
0
0
0
0
0
0
0
0
0
0
0
0
0
0
0
0
0
0
0
0
0
0
0
0
0
0
0
0
0
0
0
0
0
0
0
0
0
0
0
0.00105815
0.00280403
0.00014758
0
0.00162828
0
0
0
0.00105815
0.00479496
0
0.016061
0.00401526
0
0
0
0
0.00479496
0.241864
0.730685
0.312746
0.0281068
0.011398
0
0
0
0.0306059
0.00891408
0.00334664
0.00091675
0.000464037
0.000223108
0
0
0
0.00322352
0.0786596
0.0756961
0.010776
0.00324826
3.18726e-005
0
0
0
0.0156374
0.10108
0.390039
0.108342
0.00219017
0.00156176
0
0
0
0.0198845
0.433353
0.712637
0.214464
0.00541376
0.000223108
0
0
0
0.0381627
0.0978122
0.0603081
0.00849959
0.000676038
0
0
0
0
0.0482262
0.281282
0.0580034
0.00434645
0
0
0
0
0
0.121824
0.37887
0.49865
0.0735389
0.00112673
0
0
0
0
0.0692652
0.49865
0.371786
0.0304252
0
0
0
0
0
0.218189
0.249797
0.0249084
0
0
0
0
0
0
0.101872
0.27491
0.00888201
0
0
0.000823129
0
0
0
0.263009
0.467281
0.0766586
0
0
0
0
0
0
0.272783
0.467281
0.0158122
0
0
0.00011759
0
0
0
0.467281
0.16687
0.0280994
0.00670221
0.0191887
0.00745491
0
0
0
0.212586
0.161548
0.0578967
0.090055
0.122981
0.031535
0.0100951
0.0372921
0
0.173376
0.443218
0.0173651
0.00199325
0.00358872
0.000715927
0
0
0.000552663
0.448746
0.439667
0.0318271
0.0330947
0.0228383
0.00392324
0.00605706
0.0223752
0.0102239
0.448746
0.117195
0.047717
0.202087
0.200651
0.140024
0.0464777
0.084055
0
0.0788869
0.0213394
0.0210445
0.137959
0.345306
0.288547
0.0551824
0.0292366
0
0.00527012
0.3603
0.0619213
0.133726
0.0739095
0.0828577
0.024984
0.0506231
0.0302686
0.475774
0.11424
0.0720709
0.212399
0.262831
0.209467
0.0271143
0.0215168
0.0357734
0.116222
0.000697805
0.00528596
0.0274564
0.176435
0.177291
0.0347634
0.000611527
0
0
0.00116301
0.00435294
0.00836642
0.296628
0.526357
0.0173581
0.00101921
0
0
0.00710391
0.0274012
0.0779518
0.157719
0.175646
0.0213558
0.00428297
0.0112296
0.012102
0.00330731
0.013103
0.0100935
0.272445
0.609658
0.0202126
0.00209212
0.00247022
0.00386901
0.00013368
0.000311921
0.00783999
0.278268
0.368698
0.00924537
0.0006424
0
0
0
0
0.012444
0.146595
0.328142
0.0727281
0.00367673
0
0
8.02083e-005
0.000187153
0.0020425
0.217509
0.531866
0.0179881
0.000752595
0
0
0
0
0.00576125
0.131228
0.492539
0.0948283
0.00390139
0
0
0
0
0
0
0
0
0
0
0
0
0
0.0241097
0.00636596
0.00509549
0
0
0
0
0
0
0
0
0.00491494
0
0
0
0
0
0
0.629874
0.516685
0.133444
0
0
0
0
0.0010968
0.0177834
0.0404745
0.00231994
0.000412686
0
0
0
0.0010968
0.0213797
0.273177
0.298114
0.00727003
0.000411797
0
0
0
0.00360264
0.000658079
0.0682918
0.411317
0.0869833
0.00904629
0
0
0
0.000658079
0.00590287
0.53021
0.560113
0.0490732
0.00114589
0
0
0
0.00134745
0.0343806
0.393087
0.244652
0.00186192
0.000270418
0
0
0
0.0042625
0.157505
0.428675
0.168946
0.000344848
3.86312e-005
0
0
0
0.00620227
0.0141586
0.402877
0.428675
0.00297549
0
0
0
0
0.000305861
0.0870134
0.3445
0.179791
0.0017591
0
0
0
0
0.00189153
0.339562
0.503575
0.0602199
0.000199556
0
0
0
0
0.0158032
0.521518
0.241573
0.0147612
0
0
0
0
0
0.0790943
0.16969
0.261252
0.0579784
0.000415265
0
0
0
0
0.00845296
0.318
0.183516
0.0184622
0.00144844
0
0
0
0
0.0576465
0.447019
0.0570041
0
0
0
0
0
0
0.179717
0.477348
0.017552
0
0
0
0
0
0.00384102
0.408717
0.316881
0.0885715
0.00302595
0.000607237
0
0
0
0
0.0956232
0.353073
0.0511696
0.0042065
0
0
0
0.00101969
0.0222293
0.262012
0.318413
0.00401069
0
0
0
0
0
0.0244261
0.401432
0.261871
0.00498668
0.00490902
0
0
0
0.00260378
0.0756765
0.540509
0.144758
0.0125354
0.000615044
0
0
0
0.00580677
0.140226
0.281138
0.0474533
0.00325116
0
0
0
0
0.0772896
0.335828
0.263695
0.213653
0.0322316
0.053533
0.0144402
0.0122312
0
0.00708646
0.143614
0.517481
0.0933995
0.0492309
0.166485
0.099379
0.0487206
0
0.0543527
0.234403
0.199719
0.0203364
0.0114933
0.00150624
0
0
0
0.172083
0.364928
0.209121
0.0124686
0.027908
0.0105437
0.00202689
0.00372604
0.00600338
0.221158
0.407792
0.0795881
0.00686386
0.0109405
0.0453513
0.0629783
0.080368
0.00611078
0.0272472
0.063016
0.0170926
0.00261161
0.00422473
0.0148994
0.199776
0.62823
0.0155105
0.00683636
0.015994
0.00636136
0.00216853
0.00496816
0.00868516
0.0292251
0.0854699
0.067348
0.103831
0.115048
0.00745222
0.000373087
0
0.0107627
0.185069
0.62823
0.122371
0.0577579
0.0287679
0.00296779
0
0
0.00125274
0.0953207
0.506592
0.0162292
0.000438887
0
0
0
0
0
0.044733
0.387814
0.0642091
0.00199286
0
0
0
0
0.00106753
0.0768683
0.506592
0.0349408
0.00260825
0
0
0
0
0
0.0351968
0.506592
0.0762977
0.000170257
0
0
0
0
0
0.00338268
0.00869659
0
0
0
0
0
0
0.263307
0.189215
0.0670699
0
0
0
0
0
0
0.0322537
0.0406011
0.0615166
0
0
0
0
0
0
0.617929
0.617929
0.24351
0
0
0
0
0
0.03347
0.43964
0.167361
0.016098
0
0
0
0
0.00160909
0.165069
0.43964
0.0940724
0.000706445
0
0
0
0
0
0.00653498
0.43964
0.384123
0.0666862
0.00013811
0.000782623
0
0
0.00022987
0.0273498
0.359715
0.168403
0.0246087
0.000966771
0.00547836
0
0
0.0132267
0.224042
0.511223
0.0245507
0
0
0
0
0
0.0412139
0.317165
0.273211
0.0123447
0
0
0
0
0.000528978
0.00168079
0.0628183
0.429987
0.0990269
0.00865973
0.000716011
0.00432051
0.000789339
0
0.011764
0.264386
0.42076
0.0565223
0.00472946
0
0.000438522
0.00131557
0
0.0795166
0.362572
0.122916
0.00192374
0
0
0
0
0.00512397
0.24298
0.27722
0.040515
0.00671
0
0
0
0
0.0544768
0.0616813
0.395202
0.151009
0.00727887
0.000818317
0
7.58755e-005
0.000227626
0.00208477
0.166187
0.635273
0.138161
0.004026
0
0
0
0.00249326
0.018379
0.178514
0.178209
0.0239926
0.00213206
0
0
0
0
0.0553769
0.246952
0.28122
0.0561601
0
0
0
0.00131708
0.0118448
0.117601
0.0958183
0.491378
0.109669
0.0228415
0.00345819
0.00115273
0
0.00585373
0.0274556
0.193598
0.607405
0.171138
0.0882396
0.0384258
0.00806912
0.000188155
0.00395127
0.0250907
0.225819
0.125851
0.0203941
0
0
0
0.00833261
0.0941737
0.187119
0.10729
0.0147884
0.000508957
0
0
0
0.158558
0.353688
0.265924
0.29218
0.334906
0.0909934
0.0347932
0.0286179
0.00337893
0.0170633
0.0540754
0.16414
0.16564
0.0616856
0.00846589
0.00867451
0.0430283
0.0388786
0.314241
0.347989
0.302246
0.00551369
0.00164354
0
0
0.00189995
0.00569986
0.227912
0.295174
0.0763632
0.00165799
0.00676272
0
0
0.00456078
0.0167976
0.312111
0.276671
0.0109305
0.00473941
0.00253241
0.0015205
0.00818077
0.0725612
0.112222
0.353562
0.279409
0.0516793
0
0.00151945
0.00369744
0.0277704
0.084387
0.188223
0.516159
0.282615
0.000537309
0.00039334
0.00157336
0.000356245
0.00481794
0.0955424
0.0622577
0.116008
0.0539771
0.000432434
0
0
0.000593741
0.0614675
0.616275
0.122941
0.0419221
0.0066556
6.4294e-005
0
0
0.000758584
0.0192813
0.154794
0.105507
0.242954
0.0661315
0.00145444
0
0
0
0.0628464
0.616275
0.149792
0.065358
0.0101822
0.00242406
0
0
6.30744e-005
0.0428125
0.492524
0.0458217
0.00189103
0
0
0
0
0
0.0367837
0.419749
0.0654863
0
0
0
0
0
0
0.0408974
0.492524
0.108208
0.000224511
0.000600864
0.000257513
0
0
0
0.0369521
0.492524
0.151988
0
0
0
0
0
0.045104
0.0649868
0.0768207
0
0
0
0
0
0
0.374846
0.447772
0.186947
0
0
0
0
0.0351178
0.0534314
0.199495
0.167161
0.104467
0
0
0
0.0202236
0.0046101
0.0466444
0.400483
0.447772
0.348376
0
0
0
0.00248236
0
0
0.332581
0.496361
0.149623
0.000234477
0.0013287
0
0
0
0.00092177
0.169259
0.231392
0.103288
0.00164134
0.0093009
0
0
0
0.00824824
0.145991
0.43188
0.280482
0.00392788
0.000189814
0
0
0.000734812
0.000489875
0.0385393
0.363076
0.229448
0.00855924
0.00178286
0.000113541
0
0
0.0151339
0.363462
0.281737
0.0682161
0.00117272
0.00781682
0.00351425
0
0.0106036
0.208071
0.368446
0.160162
0.0855343
0
0.00517133
0.015514
0
0.00387937
0.00276945
0.099066
0.461547
0.255039
0.00972059
0.0116695
0.00347834
0.000332471
0.0309652
0.156126
0.178988
0.170762
0.301961
0.00948406
0.0726848
0.0802709
0.0756194
0.021577
0.325367
0.139909
0.0162182
0.0164596
0
0.00224105
0.00672315
0.000193201
0.0858534
0.567545
0.119239
0
0.00227587
0.00122547
0.00568089
0.0130554
0.0201902
0.0470414
0.351147
0.128254
0.0177737
0.0602
0.00114161
0.0255811
0.0477875
0.0496971
0.113426
0.541171
0.0730801
0.00169502
0.0159311
0.016159
0.0123839
0.021068
0.0437857
0.0784893
0.387744
0.0822676
0.0282779
0.0269775
0.0415293
0.0357422
0.045455
0.0781874
0.0815691
0.240146
0.116365
0.123732
0.152331
0.10484
0.12527
0.0636596
0.0675624
0.0853012
0.207899
0.0149676
0.00489664
0.0771559
0.149651
0.180394
0.0830398
0.0808971
0.0319145
0.0186948
0.012824
0.0234689
0.134975
0.264708
0.507482
0.333028
0.0918037
0.169414
0.15937
0.0822642
0.0543527
0.0997096
0.0286818
0.0932454
0.0767809
0.118339
0.13014
0.113563
0.114572
0.0634765
0.147634
0.0490736
0.215571
0.147997
0.161517
0.196872
0.065929
0.0236073
0.0153117
0.0614462
0.0605205
0.230546
0.308469
0.160814
0.275849
0.44576
0.320143
0.0959234
0.0885802
0.00701051
0.0393501
0.0922194
0.124709
0.00727821
0.0604667
0.0917504
0.0878341
0.222697
0.128079
0.187576
0.0921585
0.0199272
0
0.0231339
0.0349964
0.104286
0.262499
0.265307
0.274992
0.0816539
0
0.0376957
0.338342
0.42143
0.193481
0.150113
0.0211411
0.0136325
0.00529743
0.00771478
0
0.113849
0.23608
0.238136
0.22818
0.127686
0.0531743
0.0021841
0
0
0
0.00153567
0.0216749
0.106332
0.125794
0.166943
0.0252263
0.00406286
0
0
0
0.0627367
0.607572
0.140159
0.0813458
0.017218
0.00677143
0
0.00111311
0.00903771
0.0299349
0.116229
0.151971
0.0970157
0.00568799
0.00243771
0
0
0
0.0427094
0.607572
0.235559
0.103735
0.00947999
0.00406286
0
0
0
0.0396091
0.464151
0.0904589
0.00215718
0.00155295
0.000665549
0
0
0
0.0184934
0.412929
0.152816
0
0
0
0
0
0
0.0458771
0.464151
0.137392
0.00822852
0.000931767
0.000399329
0.00182354
0
0
0.0222261
0.443663
0.317583
0.00658661
0
0.000455884
0.0408307
0.11449
0.254164
0.0969333
0.0810121
0.0787848
0.0434148
0.0514632
0.0253765
0.00528415
0.114139
0.326845
0.201819
0.30136
0.0646861
0.0505625
0.0279198
0.00307641
0.0109937
0.0548632
0.0906779
0.024028
0.140035
0.250359
0.203721
0.180078
0.02227
0.000925669
0.0601848
0.113393
0.0134678
0.481139
0.324691
0.238586
0.0873399
0.00253656
0
0.0274677
0.0769301
0.158837
0.328202
0.0297564
0.00842559
0
0
0.000900207
0.000600138
0.00144942
0.192108
0.362651
0.0310531
0.00151243
0.000378106
0
0
0.0164806
0.0293072
0.0291723
0.558118
0.144889
0.039992
0
0
0.000128601
8.5734e-005
0
0.0493387
0.488152
0.224303
0.00121656
0.000226864
0
0.0066832
0.00495633
0.00856206
0.240597
0.464136
0.0371918
0.024131
0.00593736
0.00348953
0.0509042
0.0588978
0.0300393
0.0489636
0.186849
0.016058
0.0947689
0.0772936
0.148659
0.00785096
0.00380651
0.0141554
0.0448092
0.597303
0.282258
0.0119841
0.00390718
0.00998774
0.0390011
0.0799217
0.230688
0.0671582
0.0985839
0.0309822
0.0190467
0.0262925
0.0721181
0.102117
0.161121
0.0278954
0.00452495
0.0335502
0.00178413
0.0259209
0.0425075
0.101878
0.22182
0.24924
0.0221919
0.00720076
0.00974593
0.0167792
0.00517967
0.00815911
0.0754329
0.128789
0.282952
0.197121
0.0346595
0.0118502
0.000254876
0.00281853
0.0110937
0.0404629
0.604326
0.466578
0.0781494
0.00872178
0.000977812
0.00169247
0.000298672
0.00136013
0.122262
0.120843
0.0422241
0.00241212
0.0019889
0.0198771
0.0526379
0.1035
0.0395912
0.0761556
0.134907
0.0010355
0
0
0.0131891
0.0681526
0.255766
0.253823
0.139183
0.475329
0.0740921
0.00106558
0.00119334
0
0.00345418
0.0229427
0.0119465
0.190631
0.555635
0.00648093
0
0
0
0.00207251
0.0496168
0.0841112
0.363379
0.207196
0.026231
0.00191489
0
0.000291953
0.0126997
0.0825598
0.181015
0.170908
0.264031
0.28447
0.12324
0.0146909
0
0
0.00376847
0.0698118
0.123082
0.337836
0.00891796
0
0
0
0
0.0114492
0.0713924
0.409066
0.19215
0.0949152
0.0179672
0
0
0
0.0717685
0.346394
0.408803
0.0847562
0.389881
0.34183
0.0826608
0.00893178
0
0.00130969
0.0641978
0.0424014
0.0106743
0.12501
0.215254
0.142255
0.0505275
0.0255441
0.00520393
0.0255934
0.0106204
0.0627541
0.126685
0.0583735
0.00811242
0.00818666
0.0695719
0.241997
0.549098
0.164849
0.0177906
0.0375365
0.0399778
0.0570311
0.0947689
0.132271
0.165299
0.193753
0.0240615
0.000501525
0.00216802
0.00654652
0.0248124
0.0946036
0.0801291
0.0172762
0.000864051
0.0001162
0
0
0
0.0237991
0.5599
0.277301
0.0308306
0
0
0.000835875
0.00105926
0.00699766
0.094689
0.112368
0.0446939
0.00474299
0.00253654
0.000193667
0
0
0.00924747
0.160954
0.473248
0.511638
0.0340755
0
0
0
0
0
0.0245677
0.391638
0.19019
0.00831718
0
0
0.0053261
0
0.00137396
0.0225535
0.255167
0.322424
0.019591
0
0.00133152
0
0
0.000932085
0.089032
0.327026
0.390317
0.0277183
0
0
0.00319566
0
0.00228993
0.0824671
0.356125
0.438262
0.020238
0
0.000798914
0.0023917
0
0
0.000558188
0.198402
0.124552
0.0769044
0.047354
0.00823314
0.000152154
0
0
0.0016155
0.459472
0.28236
0.102802
0.021626
0.000986645
0.000152154
0
0
0.00390732
0.276271
0.0944189
0.0497181
0.00487614
0.000456462
2.17363e-005
0
0
0.00252733
0.459472
0.459472
0.281558
0.01821
6.52088e-005
0
0
0
0.0140953
0.412118
0.192102
0.0247227
0
0
0
0
0
0.0177491
0.210971
0.278812
0.0452564
0
0
0
0.000924944
0.000163225
0.0107196
0.264377
0.578109
0.215454
0.00951306
0
0
0.00647461
0.00114258
0.0169555
0.151975
0.303125
0.203466
0.000685792
0
0.00330608
0.00106728
0.00649387
0.0100568
0.157015
0.298825
0.0840279
4.50707e-005
0.00348637
0.00969926
0.0293702
0.188411
0.130408
0.125513
0.0742146
0.0213656
0.000315495
0.0087236
0.00118699
0.00387256
0.00238953
0.00760053
0.108918
0.365314
0.452653
0.0139119
0.00212176
0.00197832
0.00380258
0.0867251
0.124265
0.410197
0.30863
0.286758
0.0323839
0.00852169
0.0372775
0.20494
0.300751
0.119135
0.0592475
0.0178663
0
0.000113176
0.00285819
0.343172
0.425905
0.184787
0.0243047
0.0202456
0.0165702
0
0
0.0692564
0.00284037
0.0609066
0.1918
0.130834
0.285557
0.20348
0.157746
0.0421172
0.00260834
0.16596
0.224025
0.185214
0.0362784
0.14543
0.12948
0.195229
0.126229
0.12053
0.391487
0.0872533
0.0116232
0.000436122
0.00330643
0.00159243
0
0
0.120831
0.489707
0.00988109
0.00010043
0
0
0
0
0
0.267547
0.294945
0.069669
0.0223578
0.000726871
0.023145
0.011147
0.0292465
0.0311084
0.18127
0.470312
0.0262013
0.000703009
0
0
0
0
0
0.305375
0.270209
0.00338868
0
0
0.000827585
0.000677114
0.00121832
0.029488
0.375211
0.0839608
0.00240338
0.00537055
0.0139189
0.0105926
0.0557655
0.135064
0.333089
0.373151
0.316802
0.0323613
0.00621254
0
0.0057931
0.0047398
0.00852827
0.0226509
0.344714
0.143829
0.145802
0.168892
0.108921
0.0619084
0.118221
0.0895486
0.17585
0.259658
0.00585494
0.00088974
0.00571062
0.0215099
0.0412393
0.170363
0.282259
0.279961
0.0743117
0.00165287
0.00414262
0.0244301
0.0565142
0.157364
0.216654
0.193771
0.0761705
0.00356826
0.0113515
0.0806632
0.210185
0.219242
0.166403
0.194664
0.161222
0.0972018
0.0346306
0
0.0550964
0.336096
0.298605
0.392389
0.169611
0.120454
0.0116598
0
0.000109084
0.00214385
0.0589589
0.128921
0.0635668
0.0272669
0.00816665
0.000653725
2.52739e-005
0
0.000305444
0.0674492
0.333057
0.260776
0.278972
0.0121476
0
0
0
0.0212957
0.236725
0.210731
0.102807
0.0153094
0.00607814
0
0
0
0.0027293
0.151725
0.580451
0.425187
0.0625752
1.34658e-005
0
0
0
0
0.00496643
0.198041
0.242386
0.198275
0.00856046
0
0
0
0
0.00027742
0.105726
0.351403
0.248068
0.00250922
0
0
0
0
0.0147171
0.448767
0.307789
0.0765325
0
0
0
0
0
0.00505184
0.175552
0.448767
0.295978
0
0
0
0
0
0
0.00194611
0.10984
0.0906834
0.0656127
0.0135472
0
0
0
0
0.00116767
0.166901
0.543827
0.426928
0.0390162
0
0
0
0.000282155
0.00628335
0.042417
0.0513363
0.0209932
0.00695822
0
0
0
0.00197509
0.039064
0.125827
0.543827
0.304387
0.0587908
0
0
0.000559312
9.87022e-005
0.00128529
0.0381737
0.39587
0.236859
0.0193779
0
0.00014151
0.00391518
0.000690916
0.00214215
0.0248707
0.154587
0.163362
0.017055
0.00014151
0
7.99017e-005
0.000571163
0.0107437
0.0288693
0.401981
0.467405
0.163356
0
0.000990569
0.000559312
9.87022e-005
0
0.00284387
0.13575
0.467405
0.207474
0.000990569
0.000711177
0.0026629
0.000561039
0.000748593
0.0236547
0.117085
0.315805
0.0408949
0.0025198
0.000426706
0
0.00351357
0.00966191
0.115047
0.173701
0.395171
0.124868
0.0130871
0.00497824
0.000380414
6.71319e-005
0
0.00268818
0.0506774
0.491637
0.167148
0.00606341
0.00405405
0
0
0.00279597
0.0057157
0.0663521
0.450444
0.351549
0.0225284
0
0.0013853
0.0112438
0.0153751
0.0840044
0.134188
0.29975
0.118997
0.0112913
0.0555976
0.0121851
0.0159288
0.00674917
0.0418418
0.046132
0.251042
0.229457
0.140942
0.00294938
0
0
0.00346377
0.00296347
0.0514183
0.369413
0.357398
0.0722027
0.0677933
0
0
0.000943835
0.000521566
0.00706294
0.192614
0.496676
0.317912
0.17506
0.00909918
0.00387839
9.27819e-005
0.00803078
0.00386776
0.0358481
0.0637014
0.218773
0.351063
0.00878064
0.000243928
0
0
0
0
0
0.29964
0.221035
0
0
0
0
0
0.012717
0.182893
0.338404
0.505809
0.00727096
0
0
0
0
0
0.0302169
0.426423
0.270654
0.0296059
0.00548098
0
0.00160775
0.00131543
0.00236684
0.00203818
0.182412
0.21583
0.237073
0.157757
0.0462114
0.0174627
0.0178907
0.00707121
0.0100595
0.0756383
0.442697
0.0842143
0.00135737
0
0
0
0
0
0.204879
0.474946
0.459066
0.0809238
0.0103354
0.00024318
0
0
0
0.0603695
0.0372326
0.181144
0.250685
0.113489
0.0440573
0.0172537
0.00697149
0.00335928
0.00426367
0.00429586
0.1682
0.408948
0.154602
0.103509
0.00931265
0.0060246
0
5.50339e-005
0.156027
0.419007
0.235906
0.0286644
0.00138201
0
0
0
0.00750664
0.0340951
0.37382
0.441145
0.0369882
0.00548788
0
0
0
0.00230541
0.00065945
0.0422295
0.168629
0.0895536
0.055969
0.000672941
0.000438067
0
0
0.000255358
0.00446424
0.0584292
0.4981
0.346404
0
0
0
0
0.00283173
0.0657169
0.143898
0.0989706
0.063831
0.0014741
0
0
7.66008e-005
0.000425596
0.00733332
0.0513115
0.4981
0.4981
0.0103187
0
0
0
0
0
0.00887033
0.389277
0.241194
0.0493983
0
0
0
0
0
0.00478229
0.0962857
0.329891
0.253054
0
0
0
0
0
0.00339253
0.374912
0.397727
0.0986965
0.016398
0
0
0
0
0.000683184
0.0931132
0.357938
0.342024
0.0366593
0
0
0.0177229
0.00134131
0.0019307
0.0197593
0.0726823
0.0290854
0.00316759
0.0107136
0.0421949
0.00633176
0.0377484
0.0399503
0.172134
0.171179
0.533633
0.282918
0.156319
0.0285072
0.043152
0.00938917
0.0188478
0.0400174
0.131807
0.0510682
0.0221193
0.156369
0.234631
0.0581728
0.148281
0.166478
0.291507
0.280163
0.106677
0.0844931
0.195358
0.221226
0.0010753
0.0238178
0.0205956
0.0343816
0.021659
0.162924
0.318823
0.15106
0.00193497
0.00675035
0.0136778
0.0132689
0.00939545
0.00935206
0.0857411
0.512208
0.322182
0.0046386
0.0364586
0.0707345
0.0720878
0.111037
0.0718293
0.0501726
0.0864692
0.0613166
0.0708224
0.091672
0.0620526
0.0634129
0.0626546
0.0218397
0.0750993
0.484086
0.321607
0.0989121
0.0030875
0
0.000593208
0.000593208
0.00103814
0.0120369
0.346504
0.209118
0.00256915
0.00219953
0
0
0.00364848
0.000414076
0.00277707
0.143354
0.207738
0.0134298
0.0244067
0.014216
0.0207748
0.0138376
0.00193697
0.0340445
0.459152
0.360397
0.020735
0.000957138
0.00159498
0.00778601
0.00800018
0.0024001
0.0407827
0.412619
0.459152
0.0122827
0.0115146
0.00057348
0.00143299
0.00770397
0.000855996
0.0041789
0.105325
0.306098
0.0994033
0.0548011
0.00146683
0.00238831
0.00110057
0.000122285
0.000572339
0.0365288
0.409781
0.281685
0.012502
0.000955801
0.00238831
0.00462238
0.00218905
0.0350873
0.239756
0.492932
0.104099
0.087221
0.00244472
0.00398051
0.00066034
7.33711e-005
0.00241821
0.0256132
0.359953
0.332507
0.142575
0.000453389
0.000585869
0
0
0
0.000789161
0.218186
0.292638
0.444905
0.0144169
0.00173444
0
0
0
0
0.0538464
0.364718
0.119804
0.00119614
0.00229793
0
0
0
0
0.15137
0.352223
0.33908
0.014217
0.0121411
0
0
0
0
0.042797
0.398896
0.421072
0.130103
0.00066806
0
0
0
0
0.00105627
0.15526
0.393193
0.434625
0.0136879
0
0
0
0
0.00168165
0.0684319
0.343185
0.0777285
0.00467642
0
0
0
0
0.00312321
0.187583
0.345648
0.215088
0.01176
0
0
0
0.00235187
0.00557989
0.176197
0.235261
0.440651
0.0955397
0
0
0
0
0.000307545
0.0292109
0.115308
0.377879
0.281722
0.00325317
0.00772345
0
0
0
0.0094289
0.240839
0.242784
0.127612
0.00944765
0
0
0.00863917
0.00591547
0.0844129
0.139254
0.375941
0.322651
0.0306736
0.0342807
0.00267174
0.0051835
0.00623468
0.0137545
0.00835601
0.0490453
0.093171
0.0625949
0.0726486
0.00900928
0.0051441
0
0.00022811
6.30994e-005
0.00892127
0.0453306
0.363469
0.570281
0.0384273
0.00857349
0
0
0.0195809
0.0643618
0.0735332
0.0540131
0.140282
0.0198414
0.00857349
0.00124372
0.00165697
0.0039522
0.0108225
0.0254235
0.318026
0.570281
0.0443183
0.0142892
0.000177675
0.000217158
0
0
0.00190273
0.207539
0.457292
0.0913974
0.0212306
0
0
0
0
0
0.0612854
0.329238
0.243857
0.064425
0.00458004
0
0
0
0.000211565
0.157687
0.487388
0.0635108
0.0160129
0
0
0
0
0
0.0594135
0.407252
0.25598
0.115605
0.00952226
0
0.0514127
0.00964162
0.0379429
0.0430665
0.0798434
0.0596817
0.0310504
0.1032
0.0896437
0.0877688
0.0897682
0.229649
0.271447
0.0754591
0.0543067
0.0275282
0.0862995
0.12308
0.0816175
0.0765815
0.0852829
0.122993
0.0874287
0.0440444
0.0982407
0.111055
0.0322798
0.112149
0.155821
0.423941
0.628173
0.11641
0.0771161
0.0481753
0.0777664
0.0428272
0.110649
0.066536
0.0875672
0.139843
0.0338085
0.0137082
0.00496819
0.0693007
0.16627
0.268004
0.086867
0.0623879
0.0523925
0.00630627
0.0314602
0.116215
0.167829
0.311086
0.129905
0.0339205
0.109014
0.254755
0.089675
0.0479506
0.0119115
0.105306
0.14084
0.536464
0.0438094
0.0312853
0.0424485
0.0611151
0.029221
0.0240246
0.176495
0.419476
0.170869
0.0513307
0.0791631
0.0517579
0.0102728
0.0651925
0.265476
0.182525
0.120203
0.0392838
0.0278119
0.119642
0.0581782
0.0232443
0.158968
0.375282
0.316995
0.0363873
0.441173
0.0827612
0.0719484
0.0501166
0.0221032
0.0390146
0.0574198
0.0714532
0.263862
0.168487
0.123445
0.311544
0.139856
0.0294002
0.101219
0.0853493
0.0579478
0.140872
0.00468212
0.0537117
0.0964549
0.0400709
0.0164824
0.125417
0.283628
0.425652
0.0785016
0.0316035
0.0184479
0.0151218
0.039601
0.0365689
0.0224519
0.0660171
0.343201
0.370303
0.140553
0.143171
0.336451
0.127089
0.0395623
0.076727
0.0700767
0.115343
0.090542
0.167387
0.057037
0.0606205
0.0835967
0.13062
0.051754
0.0945995
0.131579
0.241286
0.0435133
0.00865722
0.00117191
0.00935474
0.0164967
0.0419048
0.0644655
0.132234
0.446559
0.19628
0.0330623
0.0165949
0.0128676
0.0055147
0.025211
0.0286469
0.0551631
0.427628
0.0689015
0.0171785
0.00788275
0.0266785
0.0565875
0.119291
0.246218
0.153193
0.262243
0.116728
0.114961
0.0165716
0.0914498
0.0389209
0.0732049
0.176754
0.220715
0.373903
0.272126
0.0827217
0.0149908
0.0139007
0.00595744
0.000345765
0.0105916
0.0369468
0.221746
0.315636
0.186268
0.0244844
0.0035253
0.000851062
0.00512829
0.050363
0.108796
0.188504
0.116724
0.187803
0.0251246
0.0973048
0.0417021
0.00242036
0.0870702
0.200864
0.293059
0.0901068
0.13077
0.0436422
0.0246771
0.00595744
0.0707647
0.350552
0.441033
0.149113
0.216301
0.193832
0.145077
0.0615218
0.00040037
0.0152335
0.0924099
0.135334
0.0986119
0.0960828
0.288574
0.311123
0.119461
0.0301834
0.0678675
0.0464078
0.0734307
0.0617205
0.0595786
0.0616871
0.111961
0.107558
0.00369163
0.117916
0.324147
0.34848
0.0402347
0.0914724
0.0912619
0.218236
0.219684
0.0321666
0.1119
0.101956
0.167124
0.184986
0.0136461
0.0249442
0.0203556
0.0565114
0.127904
0.0154914
0.00128725
0.00456966
0.0101785
0.0047122
0.00323039
0.0041367
0.292631
0.570904
0.0125164
0.00184601
0.00063899
0.00156084
0.0232726
0.00879213
0.0102652
0.0739241
0.221492
0.0109636
0.00125756
0.0114495
0.0349059
0.0101719
0.00273738
0
0.357737
0.570904
0.00384578
0
0.00177296
0.00706019
0
0
0
0.126065
0.49706
0.0228507
0.00746985
0
0
0
0
0
0.0436946
0.348829
0.187918
0.0596524
0.0019743
0
0
0
0
0.150574
0.49706
0.0160985
0.000616653
0
0
0
0
0
0.0474567
0.413756
0.280979
0.0501137
0
0