0.00450992
0.0051734
0.135753
0.24307
0.238137
0.0443777
0.00590168
0.0195896
0.0261906
0
0.000154773
0.0833116
0.370809
0.292616
0.0104682
0.00234709
0.000545937
9.63419e-005
0.0161473
0.0351293
0.0904274
0.379996
0.271075
0.0875446
0.027667
0.0143274
0.0228761
0.00331655
0
0.0553479
0.413635
0.398854
0.0350224
0.018805
0.00151262
1.37631e-005
0.0379339
0.0156413
0.0228148
0.390076
0.377065
0.0171926
0.000617451
0.0140676
0.0180385
0.072786
0.0407337
0.0317788
0.103237
0.105077
0.0392165
0.009425
0.0329261
0.0301815
0.0385436
0.0182541
0.0483913
0.342508
0.491851
0.0365154
0.0258815
0.0254883
0.00394112
0.073385
0.0444066
0.0637141
0.186578
0.290487
0.0594827
0.0337153
0.0384775
0.00761884
0.0562789
0.0204759
0.00765538
0.026712
0.0333049
0.0128513
0.0143435
0.0253278
0.0348019
0.106268
0.024018
0.0127323
0.0106739
0.0247722
0.00224034
0.0285407
0.0684544
0.129505
0.154987
0.0750468
0.0552357
0.110112
0.318802
0.0709761
0.0265343
0.0787041
0.0519384
0.30977
0.123125
0.112552
0.0766612
0.25672
0.139292
0.145064
0.610763
0.320594
0.0381332
0.00854716
0.0140879
0.0040539
0.00512864
0.00318343
0.00733191
0.0270657
0.0743437
0.0431677
0.0504789
0.0940339
0.00618465
0.0159016
0.0174446
0.0457335
0.00817649
0.0464909
0.149693
0.0427927
0.16174
0.119815
0.0181094
0.0440355
0.0644276
0.269301
0.27288
0.140859
0.389343
0.678701
0.14363
0.0105429
0.0320092
0.0854588
0.027958
0.141503
0.0655827
0.0373874
0.05798
0.00677517
0.02766
0.0200689
0.116321
0.00733657
0.0622398
0.0782544
0.0115845
0.0225348
0.0153086
0.0304218
0.0184555
0.239028
0.0199031
0.081476
0.0528191
0.225903
0.440027
0.0178247
0.110682
0.0633273
0.255973
0.0467675
0.0432461
0.0466723
0.0369915
0.143691
0.0113412
0.181221
0.102099
0.638825
0.156937
0.0552422
0.0375701
0.0102135
0.0115949
0.00833078
0.0173563
0.00489234
0.11842
0.0362892
0.0421857
0.0597847
0.0177844
0.0107118
0.007906
0.0632481
0.00780312
0.0150969
0.026286
0.0491386
0.0586586
0.00962561
0.00547582
0.00292903
0.0367138
0.106529
0.754991
0.215201
0.0810276
0.167052
0.0213775
0.00462241
0.000457659
0.00495338
0.0417128
0.269284
0.190095
0.333614
0.0703968
0.00953892
0.0063403
0.0108712
0.106293
0.025069
0.0151671
0.0130345
0.0521241
0.0595974
0.00795939
0.0028331
0.017896
0.141407
0.0614633
0.0104911
0.00252329
0.0824881
0.320124
0.040335
0.0128929
0.00706172
0.0394681
0.00587504
0.0420917
0.0698182
0.461319
0.451475
0.0316229
0.0829576
0.0561466
0.191178
0.0700838
0.0235587
0.00242339
0.496903
0.0743351
0.0801573
0.0233346
0.0288931
0.0891691
0.0307308
0.00541773
0.00988442
0.0392215
0.175078
0.1271
0.0411838
0.0341489
0.0383639
0.0391141
0.0830907
0.0631153
0.145414
0.143364
0.120621
0.252333
0.189622
0.283559
0.0898022
0.0411487
0.0158497
0.15278
0.12462
0.197423
0.28268
0.270155
0.288367
0.196619
0.305932
0.25823
0.245805
0.0879752
0.0386157
0.0190164
0.00601256
0.00147821
0.035357
0.0827927
0.0378774
0.137744
0.055585
0.0167633
0.0117321
0.00502036
0.00775798
0.023999
0.0334573
0.0191896
0.127546
0.0814855
0.0385524
0.0368371
0.0527046
0.0562285
0.14535
0.256997
0.336814
0.439828
0.0603189
0.00533431
0.00245906
0
0.00605645
0.0411578
0.148497
0.32575
0.539767
0.0221208
0.0150998
0.160809
0.321877
0.190608
0.0380673
0.0204085
0.0087187
0.0108723
0.0105336
0
0.0688863
0.309062
0.254771
0.0181184
0.0111434
0.00501847
0
0.0481563
0.0560637
0.17998
0.387944
0.357547
0.031935
0.159577
0.0990643
0.0200964
0.0100372
0.00529683
0.0578994
0.323025
0.368896
0.0102252
0.0182533
0.0249501
0.00264903
0.00279639
0.0013351
0.0275843
0.146441
0.171245
0.0143657
0.0213985
0.0275892
0.00241074
0.00540298
0.0552326
0.0875545
0.115806
0.276781
0.0500552
0.0173632
0.0189298
0.00408768
0.0184371
0.0178146
0.0133629
0.134759
0.159584
0.0260945
0.0202115
0.0533162
0.0175766
0.0168575
0.181675
0.0919638
0.125985
0.780932
0.061015
0.00775921
0.0688878
0.0519618
0.0215623
0.0622021
0.0805336
0.0419775
0.161328
0.0816273
0.029077
0.0256044
0.00505882
0.0498185
0.135795
0.245016
0.049976
0.172902
0.176775
0.110579
0.202142
0.0672455
0.00972545
0.18555
0.143608
0.0626282
0.23883
0.058806
0.0481611
0.0601091
0.0442019
0.0523054
0.496257
0.492755
0.0798324
0.156864
0.123261
0.110145
0.0897433
0.124648
0.0396661
0.0861768
0.246633
0.117712
0.058266
0.0709976
0.0566415
0.0943772
0.0712268
0.0510208
0.255581
0.40708
0.118742
0.0272485
0.0167569
0.0138046
0.00683728
0.0282771
0.0305762
0.292741
0.478766
0.0648877
0.0792216
0.0560843
0.0369841
0.0173012
0.038766
0.0257802
0.267494
0.430045
0.0502272
0.0320645
0.0143489
0.00382516
0.00062412
0.00264188
0.023795
0.263495
0.512982
0.0199006
0.0487289
0.0263437
0.084073
0.0410103
0.00283781
0.0040768
0.0360142
0.156153
0.00401907
0.0763624
0.119717
0.514722
0.12946
0.0031142
0.071926
0.226077
0.241788
0.00560401
0.00174688
0.00307117
0.0193611
0.00784388
0.0638591
0.0993436
0.0569166
0.0344823
0
0
0.0606518
0.331622
0.0396426
0.106364
0.00753477
0.000505888
0
0.000305519
0.00580487
0.110761
0.375292
0.0674219
0.0289526
0.0902516
0.011431
0
0
0
0.114514
0.383548
0.0928951
0.221552
0.00816475
0
0
0
0.000471918
0.103613
0.395094
0.0470681
0.0219408
0.0723557
0.0111567
0
0
0.00330342
0.165239
0.514719
0.290199
0.113868
0.190312
0.024812
0.00110662
0.000176501
0.00100017
0.0288908
0.121607
0.0434213
0.212092
0.225259
0.0137152
0.0579858
0.0459003
0.0203979
0.0643092
0.0982962
0.034224
0.172412
0.153507
0.0191064
0.000496105
0.0207927
0.00215631
0.0812442
0.500529
0.295135
0.125824
0.139307
0.0079362
0.0908493
0.299342
0.0884123
0.29279
0.342873
0.172827
0.0836652
0.0765833
0.0112793
0.145138
0.137974
0.114355
0.0899913
0.0956635
0.0448856
0.0739349
0.0608613
0.0435675
0.112166
0.148576
0.178339
0.0898025
0.106171
0.128461
0.0766607
0.0387307
0.00464688
0.194104
0.424436
0.338957
0.234111
0.150194
0.0816925
0.0206627
0.112152
0.0714936
0.227804
0.325612
0.352501
0.119861
0.0710295
0.060888
0.0358874
0.103255
0.0532633
0.0385944
0.0363133
0.0490822
0.0400888
0.0895292
0.250924
0.240788
0.0754958
0.0250622
0.0199045
0.00563572
0.0224222
0.0580145
0.121768
0.324729
0.380831
0.150731
0.158287
0.230917
0.177825
0.157602
0.0421715
0.0775318
0.150096
0.11416
0.109619
0.0853316
0.189699
0.178276
0.205885
0.137026
0.208331
0.251374
0.215211
0.0341309
0.0606815
0.0607136
0.180885
0.339774
0.0549402
0.163593
0.0999577
0.0457275
0.0102437
0.0102142
0.0266779
0.156081
0.325439
0.0220116
0.0124106
0.0212486
0.01148
0.00604043
0.0236342
0.0522494
0.368541
0.500565
0.108375
0.0917208
0.0391667
0.0336607
0.030302
0.035721
0.0567625
0.187335
0.380858
0.0672671
0.00148735
0.0375925
0.0400382
0.0318794
0.02389
0.0141323
0.0368837
0.0617619
0.0169686
0.00332691
0.0178023
0.0214363
0.0287047
0.185239
0.133135
0.0473718
0.291516
0.0175412
0.00534383
0.0566117
0.0358664
0.0624947
0.0791925
0.269042
0.0470135
0.0573854
0.0264458
0.00200347
0.0576019
0.0610535
0.0409683
0.281027
0.757372
0.0935028
0.081979
0.0190134
0.0212248
0.0658456
0.0267925
0.0124901
0.239905
0.167204
0.0667688
0.169537
0.0180958
0.0343212
0.0782781
0.0429992
0.0276269
0.375275
0.4128
0.0690012
0.0439266
0.025737
0.0493383
0.0629146
0.123895
0.00684206
0.283813
0.346599
0.0521106
0.0518972
0.0124732
0.0277263
0.0575138
0.00613187
0.00426864
0.289597
0.422602
0.0155919
0.0104801
0.0135564
0.0277067
0.0330138
0.0164415
0.0105487
0.183815
0.272163
0.00750086
0.0117609
0.00558705
0.00517728
0.0040348
0.034036
0.0046642
0.198268
0.300464
0
0.00440879
0.0015547
0
0
0.0012883
0.00602255
0.170457
0.33149
0.00107155
0.000694215
0.00156262
0.00234393
0.000238102
0.00702336
0.00837579
0.499391
0.562979
0
0.00130195
0
0
0.000105531
0.00399775
0.0529348
0.200858
0.188882
0
0.000250336
0.000150271
0.0536628
0.0160257
0.0594965
0.0867941
0.0955799
0.0591629
0
0
0.00675301
0.359901
0.072046
0.0985781
0.0231182
0.33152
0.514277
0
0.000417226
0.00154761
0.1001
0.0238978
0.0265866
0.0366356
0.0971187
0.129375
0
0
0.0240819
0.514277
0.135656
0.0434376
0.0123827
0
0
0
0.000593982
0.0185822
0.307574
0.0512688
0.015239
0.00666314
0.00101862
0
0
0.00415788
0.0335113
0.51215
0.233975
0.00410118
0.00520357
0
0
0
0.000241421
0.0335418
0.515817
0.115275
0.00620534
0.000508938
0
0
0
0.00168995
0.0274229
0.483523
0.133348
0.000508938
0.0145145
0.000891099
0.00115067
0.0242879
0.00207136
0.024067
0.44556
0.278008
0.00859383
0.0265804
0.0001273
0.0466881
0.240438
0.0493212
0.117681
0.29212
0.290656
0.0196843
0.016532
0
0.000690401
0.00820389
0.00125959
0.0126227
0.293857
0.215653
0.0024473
0.112671
0
0.0167864
0.101662
0.0844491
0.15916
0.294341
0.393693
0.0267584
0.0117891
0.000587372
0.127953
0.316417
0.177016
0.104713
0.0650203
0.0892545
0.013473
0.0213367
0.0132283
0.126483
0.371685
0.243034
0.0598426
0.0170781
0.0111523
0.0031832
0.0596154
0.00337682
0.0451283
0.222315
0.214246
0.208646
0.233282
0.23043
0.0247674
0.00844204
0.00562803
0.028884
0.388935
0.355818
0.0716923
0.119594
0.0913697
0.00452018
0.0236392
0.0432002
0.10611
0.329983
0.256914
0.0357031
0.0222821
0.0234287
0.00852466
0.014027
0.02646
0.122256
0.273527
0.290834
0.0683986
0.0540202
0.0402455
0.0214055
0.00186337
0.00345163
0.00733304
0.327848
0.47909
0.043402
0.01019
0.00940104
0.00226354
0.00269516
0.0176708
0.0328015
0.214219
0.401331
0.0602926
0.018445
0.0181492
0.0282482
0.00500122
0.0014413
0.0187753
0.152002
0.271883
0.0694002
0.068416
0.0175206
0.0310956
0.0334493
0.0711808
0.113643
0.13465
0.151135
0.0236347
0.0303543
0.00989807
0.0628965
0.00824578
0.0336234
0.171109
0.38734
0.348338
0.0710281
0.0937962
0.02612
0.063682
0.0407782
0.154314
0.489615
0.383638
0.0943196
0.0457773
0.0592728
0.00266267
0.174752
0.0435064
0.153212
0.328443
0.0561851
0.0200185
0.00765589
0.00148655
0.03478
0.0471131
0.015878
0.224734
0.457946
0.0493806
0.00604137
0.0127183
0.0111289
0.0422913
0.0144426
0.0424893
0.248683
0.511655
0.113518
0.00510017
0.0511492
0.0129348
0.013545
0.0948744
0.0147147
0.264021
0.332327
0.0262143
0.0289785
0.00908685
0.00330403
0.022575
0.017366
0.000245025
0.170087
0.191538
0.0234277
0.00572583
0.003843
0.00475864
0.0106399
3.77754e-005
0.000673923
0.221649
0.359551
0.00378443
0.00150662
0
0.000968623
0.0038745
0
0
0.163744
0.258805
0.0476473
0.0517501
0.000549
0.000449181
0.00250944
0
8.58726e-005
0.467346
0.610985
0.0609607
0.0294535
0.00152939
0.000275482
0
0
0.00255629
0.219223
0.436599
0.00249858
0.000293034
0
0.000243508
0.000297509
0.000765253
0.00310383
0.321921
0.479554
0.00182381
0.00112778
0
0.000405846
0.00279
0.0017745
0.000171254
0.274285
0.479554
0.026057
0.0028738
0.00305004
0.00225394
0.00195671
0.000889238
0.000532596
0.141472
0.232396
0.0137465
0.00839232
0.00183002
0.00317056
0.0090428
0.00310609
0.00181246
0.252044
0.479086
0.000295755
0.00197296
0.00333862
0.0519886
0.0174435
0.00297912
0.00274359
0.0297844
0.0621597
0.000440078
0.000802193
0.0371914
0.766823
0.0975909
0.00562825
0.00407683
0.0461041
0.0549154
0.00306929
0.0141341
0.00207083
0.0101982
0.0229685
0.0108997
0.0110049
0.0134221
0.0023168
0.00997378
0.0391751
0.0129186
0.117233
0.0402113
0.0171554
0.000398533
0.00043491
0
0.000511955
0.00158114
0.0207801
0.505391
0.0844125
0.00125636
0.000174837
4.02618e-005
0
0.000307173
0.00207658
0.0279114
0.505391
0.10823
0.000298659
0.0454307
0.00963118
0.0263472
0.00890489
0.0491588
0.00700209
0.268457
0.0463157
0.043113
0.133666
0.0112599
0.0439121
0.00481068
0.118396
0.0197057
0.505391
0.16103
0.148424
0.0100491
0
0
0
0.00238286
0.0231182
0.285958
0.132887
0.00104366
0.068488
0
0
0.0143436
0.103788
0.158596
0.245056
0.297332
0.00828539
0.0709565
0.00244024
0.00976097
0
0.138233
0.0240557
0.636741
0.187223
0.105996
0.00777266
0
0
0
0.0330964
0.0384898
0.366778
0.183425
0.0236545
0.0215548
0.00289604
0
0.0376478
0.0921374
0.125441
0.319542
0.210686
0.00370272
0.0072401
0.00482674
0.000102644
0.108387
0.187434
0.0692013
0.30421
0.204052
0.000950403
0.00062058
0.00041372
0
0.00281559
0.0135748
0.0620307
0.32718
0.179806
0.000625137
0.0010343
0.00200495
0.0120098
0.0384957
0.130339
0.235466
0.479851
0.382493
0.000375082
0.00208323
0.00392987
0.0156472
0.172172
0.390089
0.0387579
0.0699997
0.0809492
0.000464987
0.00819062
0.0157828
0.0373328
0.178293
0.258893
0.0236527
0.00782567
0.00788202
0.0194528
0.0483534
0.0307945
0.144018
0.207882
0.290847
0.262972
0.26134
0.245793
0.0129204
0.128261
0.0469053
0.290677
0.334076
0.238011
0.0329383
0.0135311
0.0284032
0.0502759
0.00605213
0.0389884
0.210145
0.367207
0.254987
0.0139032
0.0277885
0.0417189
0.0505436
0.0240311
0.0990575
0.351296
0.234204
0.0489565
0.105189
0.0754492
0.102844
0.188669
0.0228367
0.0237206
0.113245
0.216488
0.424023
0.0361508
0.0634014
0.0601129
0.0494232
0.0372797
0.0336742
0.0936909
0.090233
0.193561
0.0749163
0.206275
0.265276
0.131329
0.0174292
0.103115
0.195717
0.034142
0.000277477
0.151097
0.176594
0.0769052
0.0936741
0.00265081
0.0655508
0.0879426
0.0145409
0.0976534
0.0433247
0.09559
0.0115452
0.00259206
0.0364667
0.0146187
0.0171962
0.00404152
0.0177057
0.135036
0.560555
0.278687
0.0695489
0.00466427
0.00372873
0.00428953
0.0033833
0.0877931
0.11741
0.565004
0.163525
0.00456267
0
0.0517827
0.170396
0.0658048
0.150016
0.033014
0.0934689
0.0104948
0
0
0.179012
0.507749
0.0913845
0.0850997
0.0347675
0.203249
0.0248295
0
0
0.00504737
0.0403261
0.0301059
0.124152
0.0687072
0.359031
0.0536159
8.76217e-005
0
0.0195146
0.0867429
0.0445516
0.0720787
0.0712231
0.565857
0.17978
0.000146036
0
0.161557
0.384786
0.0465763
0.00873568
0.0285399
0.0938286
0.0156064
0.00547685
0.00203098
0.0348691
0.0411988
0.0187782
0.0181929
0.0123433
0.00704451
0.0129656
0.0114017
0.000273047
0.0156616
0.0378463
0.0150868
0.0140363
0.0656714
0.810681
0.205285
0.00833179
0.00500277
0.00864381
0.00182775
0.0180438
0.026483
0.0299667
0.141382
0.0458187
0.0151649
0.0148333
0.0369455
0.0127349
0.00961663
0.0229187
0.00890958
0.00668432
0.0168594
0.0178401
0.025878
0.0302809
0.0127369
0.0635056
0.353373
0.017113
0.0124173
0.0223223
0.0253764
0.0170989
0.0393276
0.00747639
0.0205853
0.0373069
0.0458969
0.00928611
0.0084727
0.0117905
0.0176347
0.0404749
0.0341833
0.135271
0.828203
0.0429664
0.0297676
0.0119887
0.0239214
0.0467333
0.019136
0.0711872
0.0235377
0.229895
0.00206763
0.0255461
0.00533183
0.0508917
0.153578
0.0294437
0.117407
0.0143926
0.367502
0.0157527
0.312461
0.0613384
0.229622
0.00918301
0.0117247
0.0451422
0.0410705
0.499027
0.00332813
0.0374859
0.0014237
0.0183723
0.0633507
0.0176393
0.0705678
0.0235696
0.499027
0.0280548
0.160669
0.0419726
0.128722
0.0604741
0.00725918
0.0290367
0.00116133
0.224399
0.016496
0.431975
0.0874816
0.125371
0.0123044
0.00566032
0.0226413
0.00467577
0.157222
0.0101049
0.31783
0.0595756
0.0371092
0.106151
0.0260911
0.104364
0.00549804
0.387328
0.0267478
0.304102
0.10052
0.136114
0.0848205
0.0396222
0.16188
0.036135
0.363372
0.00739943
0.290628
0.0691057
0.0891862
0.0020714
0.00250692
0.00766922
0.00245171
0.0746223
0.0388764
0.122681
0.0374919
0.00214014
0.00345233
0.011503
0.0684816
0.124352
0.124133
0.376064
0.221347
0.114527
0.00275707
0.0233776
0.0460417
0.178807
0.0521845
0.185033
0.0167181
0.0465844
0.00397511
0.0186528
0.0476589
0.256798
0.543731
0.443163
0.136456
0.170886
0.0256735
5.32429e-005
0.0187862
0.0414249
0.028342
0.101522
0.195402
0.12622
0.215171
0.0907542
0.0436401
0.0320126
0.152035
0.0408561
0.140606
0.127277
0.0984664
0.028647
0.00887803
0.0464543
0.163413
0.134883
0.112544
0.298289
0.476486
0.157187
0.0992269
0.0202277
0.0273181
0.103387
0.283504
0.0592063
0.181966
0.155909
0.109
0.0202935
0.0172933
0.119022
0.404494
0.0106203
0.0251439
0.0287606
0.141312
0.55475
0.0165746
0.030279
0.0227251
0.0237518
0.0138554
0.0142741
0.00545431
0.0557458
0.28219
0.0144291
0.180587
0.0825292
0.0213604
0.122642
0.122606
0.0357809
0.197387
0.55475
0.002663
0.00303758
0.0208872
0.112007
0.0118097
0.0198841
0.00569741
0.0990453
0.283282
0.0201593
0.0846862
0.0132793
0.0322551
0.0108426
0.00262635
0.00134613
0.00770495
0.0313128
0.0462674
0.320496
0.1201
0.0210643
0.00145526
0
0.0004455
0.00696804
0.0490181
0.0932368
0.510622
0.224211
0.00834708
0.00296036
0.00264453
0.00555968
0.0121807
0.0274731
0.0348915
0.268422
0.0323366
0.0179319
0.0016195
0.00107967
0.0031185
0.0126317
0.0688395
0.128925
0.59718
0.210263
0.010366
0
0
0
0.00188177
0.0157257
0.0388426
0.259979
0.091182
8.36686e-005
0
0.000416085
7.34269e-005
0
0.00662735
0.026011
0.506906
0.147474
0.000139448
0
0
0
0.00313628
0.0238749
0.0758358
0.503032
0.210589
0.000406854
0
0
0
0
0.0044392
0.038332
0.506906
0.175219
1.99211e-005
0.000305557
0.000558305
6.25766e-005
0.000557589
0.00384218
0.0156706
0.506589
0.128143
0.000869935
0.00370492
0.00254918
8.93951e-006
0.00390312
0.00588811
0.0126097
0.302053
0.0696226
0.00148241
0.000183334
0.000122223
0
6.88189e-005
0.00206458
0.0174035
0.506589
0.125775
2.29763e-006
0.00217509
0.00145006
0
0.000481732
0.000895749
0.0129903
0.506589
0.225358
0
0.00602047
0.0064396
0.000480767
0.00412584
0.00941699
0.0122633
0.0770136
0.0199536
0.00235957
0.0019242
0.0209728
0.017593
0.0207848
0.199465
0.0131172
0.0163146
0.0068069
0.0105126
0.00717018
0.0120254
0.0137256
0.00184253
0.00469725
0.00721641
0.732961
0.205595
0.00343728
0.0072798
0.289689
0.446082
0.0184186
0.0619236
0.00749516
0.105348
0.0383288
0.00876977
0.000952164
0.018998
0.0311469
0.0171335
0.385862
0.0299464
0.10705
0.000919222
0.00957912
0.0325957
0.0203452
0.0402637
0.00921358
0.467123
0.0484177
0.184809
0.0120087
0.0736858
0.000986901
0.252804
0.422955
0.012969
0.105414
0.0437361
0.0709775
0.00053855
0.00569475
0.0109416
0.216597
0.364863
0.00666292
0.258227
0.0682441
0.116099
0
0.0363889
0.169598
0.0238697
0.0811693
0.00359915
0.306174
0.019314
0.13044
0.056311
0.16694
0.152569
0.0323656
0.269286
0.0610203
0.181076
0.00138984
0.0774338
0.0347717
0.132076
0.0397562
0.0811092
0.173258
0.00360082
0.185632
0.0159752
0.0279105
0
0.0419946
0.0336847
0.0959575
0.702744
0.120789
0.0160484
0
0
0
0.0191463
0.0100531
0.0472464
0.334024
0.0675979
0.0406833
0.000454275
0.00250668
0.000131931
0.0085048
0.0370986
0.237411
0.456356
0.217026
0.0204548
0.00317993
8.89621e-005
0.00169027
0.00711538
0.00977581
0.126465
0.456356
0.107466
0.0055149
0
0
0
0.00650652
0.0600973
0.272783
0.439427
0.116536
0.00383827
0.00044267
0.00238711
0.00342102
0.0197322
0.187089
0.189852
0.354938
0.328675
0.0529131
0.00869999
0.00877422
0.0292766
0.0774258
0.21924
0.0374244
0.132126
0.152361
0.172125
0.059869
0.058383
0.114634
0.262123
0.123024
0.16607
0.143554
0.0944447
0.0492174
0.0193295
0.0105751
0.0255004
0.0578757
0.05115
0.0146965
0.0411802
0.279501
0.464862
0.163248
0.0363176
0.0340295
0.0730477
0.40055
0.133419
0.0316978
0.238076
0.435556
0.0142096
0.0106158
0.0415701
0.486055
0.055309
0.0219011
0.00506823
0.139374
0.204483
0.061672
0.051215
0.0257073
0.12443
0.114312
0.00254974
0.0313452
0.0450733
0.0983806
0.0346483
0.0220992
0.0410157
0.275304
0.0610239
0.0242837
0.000729233
0.0153752
0.0274305
0.0582215
0.0456385
0.0253003
0.126853
0.015343
0.0064704
0.00376114
0.00518767
0.0123395
0.0262695
0.157462
0.0171075
0.0365254
0.00765413
0.00359251
0.00359702
0.00561228
0.0254067
0.122508
0.853372
0.198661
0.0255645
0.033312
0.0285024
0
0
0.0157504
0.0281594
0.024603
0.0112714
0.0618183
0.0187615
0.0116533
0.00938238
0.0327865
0.0112075
0.0391527
0.247714
0.143464
0.060703
0
0
0.000480861
0.000984576
0.0060147
0.0392906
0.425792
0.14882
0.00229428
0
0
6.86945e-005
8.39599e-005
0.000941314
0.0358197
0.515864
0.204031
0.000618036
0.00292428
0
0.00336603
0.0117625
0.000493271
0.0174996
0.308418
0.103817
0.0122613
0.00127189
0
0.000480861
0.00168036
0
0.0745927
0.515864
0.238268
0.0067822
0
0
0
0
0.00031517
0.0214169
0.302288
0.0996786
0
0
0
0
0
0.000150826
0.014088
0.504054
0.166018
0.00124087
0
0
0
0
0.000486025
0.0393867
0.504054
0.197218
0.000681705
0
0
0
0
0.00106009
0.015296
0.504054
0.13313
0.00884564
0.040717
0.016077
0.0328434
0.000282743
0.000322033
0.00673259
0.482356
0.137591
0.0334568
0.0706389
0.240004
0.466856
0.0025662
0.000653726
0.00097719
0.151943
0.0399389
0.0519591
0.103023
0.0152097
0.0350493
0
0.000380095
0.00823051
0.356323
0.0891203
0.112574
0.191145
0.163603
0.347716
0
3.77491e-005
0.000982072
0.132198
0.0367608
0.160905
0.0116282
0.298977
0.510318
0.00259625
0.0037736
0.00652238
0.00250538
0.000221128
0.00753322
0.00786019
0.229237
0.289038
0.00106965
0.0317948
0.0106591
0.00355302
0
0
0.0374779
0.18512
0.324628
0.00259029
0
0
4.5595e-005
1.51983e-005
0.0222826
0.0364498
0.348953
0.444306
0.00431715
0
0
0
0
0.0130024
0.0358204
0.129759
0.208958
0.0116578
0.0171463
0.00151111
0.000503703
0
0
0.0427747
0.15421
0.530677
0.0934679
0.00547447
0
0.000161521
0.00130065
0.00108534
0.0631709
0.291538
0.456789
0.0159608
0
0
0
0
0.0130952
0.0646191
0.257833
0.441044
0.0774866
0.00261489
0.00131686
0.00508124
0.00505299
0.0108265
0.0381382
0.259126
0.736092
0.19301
0.02493
0
0.000913574
0.00599991
0.0223946
0.0829322
0.246283
0.196377
0.0939796
0.0227116
0.00551589
0.010773
0.00699483
0.0524718
0.0416688
0.165734
0.287608
0.113146
0.01483
0.00274007
0.0146152
0.0190833
0.0236556
0.070813
0.0497221
0.0675754
0.0741058
0.0249473
0.0372893
0.0157489
0.010257
0.0314641
0.0362652
0.0337898
0.00901508
0.029031
0.0491275
0.01001
0.00829088
0.00770981
0.0229028
0.0104732
0.00489245
0.00565253
0.289194
0.459282
0.0491072
0.00243214
0.00666897
0.0174287
0.0217363
0.00922224
0.0138372
0.102679
0.0682316
0.0239371
0.00906014
0.00171942
0.00705932
0.00455342
0.00347456
0.0168068
0.60478
0.499407
0.0374702
0.00361186
0.000869765
0.000940152
0.138293
0.0187368
0.087939
0.0985313
0.139882
0.12125
0.0692569
0.0229781
0.218354
0.158207
0.0668967
0.0543831
0.0130152
0.156131
0.144944
0.134931
0.0166331
0.241015
0.192411
0.116789
0.0664041
0.13557
0.0921505
0.0891213
0.137489
0.0737825
0.220267
0.23843
0.0923145
0.152961
0.0231936
0.160869
0.141559
0.209935
0.0985681
0.252218
0.107395
0.0885372
0.0432417
0.000230594
0.114329
0.149765
0.0702392
0.0168923
0.246555
0.115345
0.0639146
0.02099
0.114227
0.035625
0.210403
0.113009
0.105291
0.260423
0.146524
0.10992
0.112531
0.00161416
0.0696897
0.106954
0.0959975
0.127484
0.242622
0.2233
0.190559
0.0648484
0.0136226
0.00903919
0.1673
0.142981
0.180897
0.263798
0.0193992
0.00707555
0.00382422
0.0236031
0.00136703
0.0263727
0.154015
0.0387235
0.0287827
0.0135009
0.00548317
0.00202022
0.00613189
0.00129375
0.0694555
0.849454
0.265123
0.0298755
0.0403323
0.024874
0.0125462
0.00811145
0.00132972
0.011758
0.0300648
0.0267795
0.0366786
0.0320939
0.0394859
0.0348574
0.0228593
0.00825392
0.0223609
0.241886
0.131961
0.0699041
0.00138225
0.000574348
0.000103624
0.000164377
0.000243201
0.0127375
0.478679
0.1782
0.00382984
0.000115837
0
0
0
0.000944639
0.00413445
0.492096
0.178471
0.00345668
0.00674382
0.00597404
0.00422758
0.00285782
0.00678637
0.0181928
0.269845
0.153131
0.0187357
0.000810857
0.000279086
0.00113029
0.00339086
0.00439541
0.0256565
0.492096
0.276282
0.00239723
0.0367376
0.00586544
0.00703945
0
0.0010366
0.00264283
0.316762
0.0723972
0.0459734
0.0712893
0.0847858
0.180962
0.00172448
0.000139791
0.000362143
0.0500918
0.0104861
0.0631427
0.0880706
0.049266
0.0295022
0.0137342
0.00184721
0.0369533
0.596047
0.149474
0.00319868
0.14957
0.306668
0.482909
0.0225939
0.00890447
0.0202468
0.195241
0.0387218
0.00702429
0.0226081
0.121487
0.301843
0.0082782
0
0
0
0
0.00662162
0.0745369
0.250565
0.479375
0.011687
0
0.00140395
0.000755973
0
0.0156545
0.0394098
0.182898
0.507433
0.0188094
0.00260548
0.00111664
0
0.0176339
0.00340954
0.0846763
0.17972
0.460081
0.0112666
0
0.0136332
0.00909737
0.00339724
0.0124941
0.12501
0.389418
0.642135
0.0192524
0
0.0033885
0.00203031
6.85782e-005
0.034283
0.0789634
0.24323
0.329912
0.0389028
0
0.00345457
0.0115506
0.00939515
0.0318192
0.120139
0.213756
0.252766
0.0129438
0
0.0329044
0.0233971
0.00127596
0.0474874
0.0879781
0.0823428
0.0457244
0.019184
0
0.00512498
0.0144908
0.0171904
0.0708938
0.15198
0.31059
0.260095
0.105831
0
0.0119815
0.0511589
0.048527
0.0987316
0.222743
0.178488
0.151286
0.121358
0.0314891
0.138339
0.062728
0.0553896
0.0741626
0.185502
0.124899
0.0242709
0.0319327
0
0.00171164
0.024744
0.135195
0.245154
0.21373
0.101595
0.0196279
0.0210586
0.00365837
0.034353
0.063721
0.322642
0.215879
0.014978
0.00589087
0.00810109
0.098524
0.0873707
0.0213205
0.00640077
0.00720788
0.0121877
0.00359208
0.000898021
0.0102567
0.517948
0.28808
0.0683465
0.00314465
0.00495893
0.0212784
0.0104882
0.00253352
0.000788753
0.121703
0.174732
0.0053226
0.00785531
0.0367862
0.020504
0.0020243
0.000128289
0.00104714
0.538419
0.468346
0.0464521
0.00305269
0.0140941
0.0335866
0.0433169
0.0462331
0.0105966
0.00872035
0.00664677
0.013704
0.0368124
0.0898792
0.150999
0.0990263
0.086366
0.0247733
0.0019958
0.00794763
0.0167991
0.053938
0.0853799
0.119244
0.0603581
0.0337024
0.00204839
0
0.00127305
0.0124115
0.0178916
0.367314
0.541352
0.155566
0.199961
0.0101757
0
0.000763832
0.0084645
0.0271574
0.294365
0.407728
0.078259
0.0792584
0.0373806
0.00223975
0.00127336
0.00509095
0.0147525
0.145466
0.126376
0.148527
0.0773687
0.130876
0.0131273
0
0.0196245
0.0431906
0.134831
0.175778
0.133841
0.140461
0.0307667
0.00312554
0
0.000278409
0.0178199
0.2946
0.37327
0.124103
0.0862818
0.166987
0.0218788
0
0.0295405
0.0550608
0.293438
0.484551
0.20102
0.0703253
0.0898411
0.023632
0.000733296
0.0455631
0.123611
0.0742444
0.160105
0.105186
0.202659
0.169621
0.112287
0.0267597
0.0667691
0.148903
0.121464
0.170706
0.185652
0.082624
0.0898266
0.016465
0
0.104543
0.14943
0.143457
0.346511
0.274989
0.219444
0.0738657
0.0419038
0.00364822
0.0717657
0.209295
0.181616
0.177432
0.0149387
0.02661
0.0163055
0.00975118
0.0164801
0.0294659
0.161055
0.0871164
0.0315097
0.0177732
0.00326456
0.0115275
0.0229315
0.00986458
0.0521087
0.826526
0.265389
0.0928445
0.0547148
0.0341449
0.0230386
0.00452484
0.00234871
0.00624926
0.0451832
0.0438718
0.0266691
0.0770058
0.0160029
0.032216
0.0150904
0.00140923
0.0136234
0.22931
0.102857
0.1894
0.188055
0.0433803
0.0337603
0.0472843
0.00433626
0.0460898
0.476583
0.0978865
0.123701
0.40176
0.218465
0.362908
0.0368684
0.0303538
0.0335881
0.138179
0.0466337
0.0795353
0.1404
0.0198955
0.0138578
0.0285085
0.00277468
0.013696
0.14947
0.0503114
0.221084
0.361443
0.0754886
0.099216
0.0180357
0.0185005
0.0154044
0.0684142
0.0279251
0.137981
0.17322
0.228307
0.710984
0.0220279
0.0182547
0.00782343
0.018107
0.0490876
0.0203797
0.1042
0.122319
0.375964
0.0090154
0
0.0191272
0.016936
0.0129079
0.0469876
0.222915
0.102894
0.170658
0.00453745
0.0110166
0.00560503
0.0409781
0.0193462
0.0529709
0.17787
0.0833349
0.0467266
0.00272247
0
0.00140124
0.00637072
0.00920292
0.0821327
0.236204
0.0973039
0.0810342
0.00364002
0
0.0498918
0.0401491
0.00690555
0.148985
0.263357
0.0676431
0.00769813
0.0163934
0
0.0071274
0.0158553
0.0175151
0.21498
0.455602
0.127482
0.0056388
0
0
0.00521968
0.00656082
0.0143877
0.165378
0.400963
0.0745141
0.0332045
0.0185088
0
0.0114748
0.0208627
0.0541407
0.381824
0.126813
0.036519
0.0157896
0.0321036
0
0
0.00516756
0.0733207
0.222537
0.123735
0.0231906
0.0140934
0.0187148
0
0
0.0154936
0.257828
0.256491
0.16987
0.0626898
0.0934675
0.0559047
0
0.00447713
0.0184435
0.0577902
0.37101
0.321669
0.224233
0.0900603
0.0779954
0.0825548
0
0.0591858
0.227265
0.359562
0.0165079
0.00692249
0.00254496
0.120314
0.113063
0
0.00335552
0.0314017
0.0164175
0.00717025
0.00377626
0.00152698
0.373531
0.390677
0.0286007
0.00126101
0.00637096
0.00559943
0.0896512
0.0797322
0.0234923
0.232726
0.0767091
0
0.00432316
0.0215317
0.0190675
0.0481737
0.0490073
0.0201514
0.592479
0.427293
0.0269802
0.000175915
0.00160067
0.00145632