0.0558404
0.138843
0.107297
0.27051
0.154894
0.119487
0.151227
0.0836858
0.0128706
0.0787431
0.0508027
0.0852611
0.242123
0.121761
0.0807724
0.190691
0.177625
0.0593039
0.217713
0.038635
0.142698
0.236095
0.213247
0.138924
0.275804
0.12676
0.100126
0.160425
0.122453
0.231543
0.332797
0.230261
0.115734
0.0671436
0.110126
0.0864693
0.108288
0.050402
0.0155134
0.0529815
0.0375655
0.0474178
0.147144
0.22265
0.206042
0.181014
0.0853815
0.0163316
0.0456249
0.037319
0.0356158
0.111877
0.386201
0.369414
0.146893
0.278095
0.108246
0.180842
0.201223
0.0883267
0.00601437
0.109211
0.109194
0.100576
0.171836
0.0734951
0.207075
0.255613
0.129773
0.0421407
0.147606
0.195585
0.0693947
0.0266444
0.00645558
0.0149943
0.0474111
0.0842064
0.127196
0.425781
0.185193
0.254066
0.0312729
0.0895846
0.0299269
0.068067
0.128472
0.136295
0.323429
0.25678
0.0178423
0.0226958
0.0872319
0.140672
0.199975
0.161404
0.0776288
0.139912
0.0611162
0.115507
0.0405726
0.141691
0.160095
0.272965
0.3163
0.109656
0.151763
0.0362065
0.149627
0.0829934
0.110502
0.0586273
0.0569039
0.0436432
0.0565306
0.0660428
0.0911352
0.150274
0.0880907
0.0590488
0.153572
0.0689107
0.0485987
0.142944
0.168228
0.261085
0.20454
0.0603149
0.0833502
0.0257883
0.0845493
0.122635
0.08871
0.126729
0.116966
0.457907
0.0539218
0.104786
0.0303158
0.110239
0.0915845
0.141725
0.142236
0.541421
0.116832
0.0188634
0.021931
0.100658
0.0468413
0.0541885
0.18256
0.127232
0.241572
0.190542
0.0823514
0.112469
0.0560946
0.0478775
0.109758
0.258653
0.137289
0.247996
0.172941
0.00887447
0.0664212
0.0885716
0.164208
0.0580495
0.209109
0.0991502
0.360154
0.0792473
0.0730792
0.200487
0.0945912
0.104059
0.126841
0.386343
0.270699
0.135307
0.186243
0.101467
0.136598
0.0209879
0.126796
0.088127
0.082451
0.158791
0.193444
0.218673
0.146643
0.107012
0.0252914
0.204823
0.0847932
0.0892745
0.105532
0.12059
0.0992353
0.152307
0.271685
0.050095
0.0666246
0.198737
0.201674
0.154552
0.196377
0.174723
0.139421
0.142056
0.0442362
0.105677
0.179424
0.284487
0.202676
0.352181
0.0811937
0.0600721
0.0193649
0.00667186
0.136712
0.15387
0.130799
0.0469217
0.0467038
0.0602776
0.0360773
0.03453
0.0741292
0.226241
0.296352
0.196616
0.105704
0.103791
0.162723
0.0577344
0.0360579
0.00710203
0.117626
0.220091
0.206637
0.109382
0.0882641
0.167764
0.172815
0.1553
0.0954246
0.341617
0.474073
0.239479
0.0417356
0.0786766
0.0940964
0.121688
0.129791
0.0735944
0.097761
0.0955335
0.152314
0.137286
0.138863
0.148459
0.292266
0.248566
0.155973
0.200654
0.0208067
0.107842
0.0929554
0.0933957
0.140434
0.140138
0.162365
0.10375
0.197661
0.195907
0.233603
0.0855132
0.146875
0.190776
0.184732
0.196417
0.070119
0.110242
0.124208
0.361727
0.140684
0.127247
0.0771426
0.0935115
0.180895
0.231336
0.262228
0.0545653
0.0279455
0.0352499
0.0214542
0.383539
0.0958254
0.175934
0.232762
0.179886
0.107164
0.0464694
0.029805
0.0419649
0.0736471
0.0797839
0.109615
0.0747302
0.14489
0.101991
0.226628
0.143264
0.0564832
0.203
0.215962
0.113346
0.117201
0.316011
0.158422
0.117317
0.178657
0.227885
0.247069
0.0146817
0.0501746
0.100066
0.16564
0.112498
0.159487
0.214833
0.159809
0.155354
0.0990018
0.161812
0.370188
0.297585
0.0903442
0.0423946
0.0698947
0.138086
0.054057
0.0785644
0.00755647
0.0128052
0.157391
0.180421
0.0474253
0.294191
0.105148
0.0616912
0.0582865
0.0355923
0.161677
0.219252
0.188656
0.120165
0.221093
0.163425
0.104222
0.182914
0.085099
0.239807
0.288905
0.0896072
0.00896361
0.0321532
0.100076
0.0699084
0.130529
0.0439403
0.234029
0.38763
0.296939
0.0117379
0.0166238
0.0866271
0.108759
0.0432282
0.0236128
0.138852
0.176866
0.0723685
0.0647955
0.162465
0.199758
0.145191
0.0840909
0.0407506
0.120872
0.306026
0.269302
0.020067
0.100158
0.154242
0.00690768
0.0196199
0.0477443
0.0808727
0.198108
0.236833
0.00898863
0.00045287
0.011266
0.0520857
0.0438686
0.103627
0.116427
0.208612
0.301717
0.0392627
0.0143684
0.00976386
0.0447482
0.0473737
0.0205165
0.0441081
0.226044
0.370368
0.0064861
0.00937904
0.0386474
0.0881104
0.0815462
0.101508
0.179346
0.269436
0.578068
0.0279459
0.0337822
0.0897061
0.123344
0.0531466
0.0888171
0.0275689
0.0626663
0.134162
0.0875103
0.0326834
0.0678099
0.267192
0.121834
0.340731
0.0353254
0.0471841
0.105581
0.104269
0.0231091
0.193228
0.134444
0.162132
0.184892
0.117686
0.052768
0.170227
0.0652327
0.0135227
0.100151
0.209594
0.390136
0.514126
0.066371
0.00889582
0.0607747
0.0473697
0.00191508
0.0910205
0.118357
0.110154
0.359904
0.173911
0.157738
0.0640723
0.117608
0.0453013
0.142663
0.0250561
0.0463996
0.156574
0.153964
0.104904
0.16321
0.294254
0.249433
0.0631964
0.111496
0.286294
0.456036
0.1064
0.0338229
0.0135667
0.0204634
0.0149476
0.0368853
0.036549
0.0711926
0.102646
0.0939898
0.0248521
0.125309
0.259713
0.0981723
0.0379615
0.0290286
0.0438038
0.0472081
0.0126808
0.00182509
0.146426
0.236896
0.0847109
0.123172
0.0938641
0.0655082
0.0181642
0.00570311
0.000332137
0.112915
0.404796
0.21753
0.189734
0.00512948
0.025009
0.00393696
0.00420276
0.000645286
0.110711
0.387921
0.0890903
0.0403931
0.131917
0.121293
0.0221687
0.00658208
0
0.0798913
0.498348
0.279332
0.184202
0.233914
0.0753054
0.0786815
0.0118388
0.012896
0.0880883
0.288875
0.228196
0.0664663
0.231761
0.217244
0.258825
0.0264877
0.0978763
0.109431
0.136322
0.0834934
0.0744264
0.242558
0.14008
0.132723
0.127047
0.00478252
0.0368579
0.262282
0.259391
0.13652
0.232766
0.162078
0.18512
0.183993
0.0231447
0.0292588
0.0961953
0.124388
0.242522
0.110088
0.0846363
0.109804
0.0189155
0.124045
0.107071
0.0816684
0.0364838
0.102442
0.0810643
0.0375525
0.0627406
0.0661316
0.158567
0.191992
0.177437
0.0754954
0.11883
0.191368
0.0563421
0.0432155
0.0259682
0.0788148
0.28031
0.0711523
0.037429
0.212012
0.0895869
0.182016
0.0299752
0.0536012
0.236533
0.633743
0.128315
0.143797
0.113145
0.0186552
0.0360887
0.0415614
0.118652
0.13114
0.105605
0.203234
0.149848
0.068872
0.00783867
0.108326
0.0638905
0.13649
0.401328
0.113991
0.124221
0.197203
0.155036
0.0368474
0.266488
0.0570668
0.172083
0.144552
0.198404
0.0978874
0.250481
0.0539569
0.0772555
0.229825
0.133193
0.227947
0.314386
0.0582311
0.137888
0.191607
0.0317215
0.0978136
0.0919247
0.0168178
0.0154262
0.148666
0.118388
0.0469989
0.225501
0.113559
0.159452
0.223617
0.0273726
0.0215521
0.13575
0.163529
0.0657197
0.218216
0.136253
0.206552
0.134258
0.0620757
0.130565
0.116494
0.149281
0.31244
0.161306
0.142307
0.26134
0.337966
0.0297583
0.0866182
0.130983
0.153301
0.197186
0.120824
0.177195
0.155127
0.113199
0.0136665
0.0216929
0.043409
0.0486202
0.04372
0.19093
0.190332
0.249877
0.184999
0.0683974
0.0427206
0.0739437
0.0478036
0.0122744
0.135079
0.204055
0.141747
0.161936
0.0654468
0.136779
0.11014
0.0300308
0.0562509
0.100995
0.186533
0.279133
0.44338
0.264823
0.237969
0.129746
0.0705602
0.0336042
0.130218
0.180788
0.0905206
0.0941252
0.0530038
0.0504443
0.111358
0.212639
0.00859413
0.0603891
0.0597873
0.156255
0.134115
0.175813
0.143539
0.169589
0.478882
0.035065
0.179661
0.142797
0.141836
0.264791
0.128115
0.0574767
0.0337305
0.0859293
0.0618467
0.12402
0.0409434
0.138562
0.315844
0.308099
0.117159
0.0245266
0.0961806
0.0839723
0.199441
0.066016
0.141992
0.200418
0.253098
0.128188
0.0283741
0.101336
0.0152007
0.0496581
0.0706276
0.111582
0.336482
0.341924
0.0657612
0.00390433
0.0080892
0.00743999
0.00354848
0.0226898
0.0789443
0.222966
0.280684
0.0578629
0.00305786
0.0158529
0.0162702
0.0414469
0.0238314
0.0213707
0.35417
0.506428
0.0118816
0.0023426
0.00191667
0.00696137
0.00257994
0.00126587
0.108759
0.20112
0.215615
0.00863831
0.0054018
0.00461717
0.0155151
0.0174464
0.0592973
0.103106
0.052321
0.0642567
0.00855784
0.00158544
0.0222231
0.218112
0.107779
0.109206
0.0839941
0.315262
0.45728
0
0.00292067
0.00742509
0.0387571
0.0141288
0.0398988
0.126264
0.133303
0.154333
0
0.000417238
0.0474645
0.565942
0.141849
0.0854853
0.0120331
0.0192241
0.0019798
0.000920797
0.00065203
0.0431939
0.316486
0.12311
0.0351877
0.139937
0.141662
0.0259567
0.00435208
0.00243997
0.0529919
0.35544
0.343108
0.153129
0.0157733
0.0150607
0.00245724
0.00173338
0.000916199
0.0549742
0.494011
0.137297
0.0213236
0.0501569
0.0279987
0.00319208
0.0121337
0.0121934
0.106068
0.400456
0.233237
0.0403598
0.207035
0.111537
0.115096
0.17508
0.0264908
0.0322603
0.125018
0.300967
0.16556
0.249337
0.133265
0.103244
0.279177
0.0532928
0.0880401
0.061513
0.124539
0.197854
0.122937
0.0195224
0.0275979
0.123659
0.0660608
0.117201
0.2279
0.230892
0.102377
0.320177
0.0773984
0.0373596
0.243298
0.17513
0.109028
0.136014
0.175812
0.103111
0.103616
0.0466246
0.00653239
0.0247454
0.0405101
0.221471
0.10424
0.0387436
0.0839345
0.0541272
0.101942
0.00523626
0.0393439
0.185917
0.453239
0.283145
0.158341
0.0275129
0.0873389
0.0599911
0.0244633
0.057583
0.107495
0.095306
0.133768
0.0798525
0.0679583
0.0543038
0.104184
0.195172
0.258137
0.428569
0.14231
0.306374
0.0941906
0.0613961
0.0654263
0.126206
0.0474537
0.0675341
0.124212
0.111319
0.100274
0.171501
0.0148417
0.1148
0.236173
0.131813
0.0913494
0.171978
0.0319444
0.0515828
0.0641776
0.0088013
0.0886022
0.0878169
0.218673
0.234617
0.332962
0.0684566
0.0884028
0.0719827
0.0121945
0.127324
0.315133
0.320006
0.262585
0.415153
0.0742683
0.00573979
0.0224994
0.0108252
0.064363
0.120733
0.136096
0.126663
0.0835129
0.148733
0.363518
0.0553956
0.0297255
0.0504544
0.130303
0.118959
0.104962
0.134005
0.132891
0.224635
0.0697891
0.0501002
0.0507948
0.156925
0.205942
0.116145
0.165288
0.203649
0.219026
0.028059
0.0250702
0.0271731
0.243231
0.443544
0.101953
0.192854
0.120526
0.0868362
0.00908352
0.00358146
0.0121038
0.0587392
0.112995
0.116708
0.111777
0.020014
0.0574066
0.0338341
0.0381439
0.0387009
0.152479
0.290507
0.215212
0.149473
0.0560107
0.0245991
0.100753
0.091537
0.00247279
0.178356
0.40782
0.0687241
0.0743603
0.0121959
0.0227638
0.00736873
0.00517966
0.00712826
0.199961
0.61708
0.156104
0.0661206
0.0101037
0.00500459
0.0534059
0.0517935
0.0469065
0.219417
0.168953
0.0678441
0.0290203
0.0507731
0.0527144
0.0759425
0.0405193
0.0322325
0.374613
0.259597
0.0579324
0.00179254
0.00717018
0.0386756
0.0334099
0.00262684
0.0434826
0.167024
0.262724
0.142313
0.0164764
0.00751928
0.00678299
0.0347517
0.0352923
0.0522934
0.582931
0.348347
0.129606
0.012591
0.00146755
0.00489295
0.00687369
0.00831881
0.0113978
0.225081
0.305124
0.0268667
0
0
0.00249045
0.00312818
0
0.0122603
0.304331
0.514961
0.00766382
0
0
0.00106557
0.000587844
0.000284357
0.0262015
0.370017
0.368799
0.022292
0.00279645
0.00102901
0.00283483
0.00141986
0.0024735
0.0425743
0.193445
0.328428
0.00965162
0.00096671
0.00287306
0.0026863
0.0103358
0.010121
0.0605458
0.401719
0.511978
0.00564976
0.000596155
0.0056146
0.0228925
0.00406138
0.0164608
0.0858735
0.186021
0.105444
0.00567728
0.00279879
0.0724768
0.520611
0.103494
0.0573477
0.0493331
0.150634
0.169448
0.018268
0.0097709
0.0145529
0.0106685
0.0207065
0.0304335
0.0528727
0.0810556
0.0155369
0.0398923
0.0229502
0.056637
0.101529
0.0680978
0.0740572
0.00655467
0.0101945
0.000945974
0.00303411
0.000728788
0.0546251
0.379882
0.109766
0.0120471
0.00237393
0.0042132
0.000674214
0.0129093
0.00440336
0.082652
0.431884
0.160258
0.0148214
0.00848934
0.00887412
1.37595e-005
0.00869011
0.00675801
0.0710933
0.188311
0.0875744
0.0250124
0.00271697
0.00158092
9.63163e-005
0.00252426
0.00458561
0.0796367
0.64852
0.263493
0.015827
0.0206343
0.00219312
0.00316825
0.0323788
0.0171326
0.0776792
0.255901
0.136968
0.0388913
0.141525
0.0427362
0.00477493
0.0734072
0.0669539
0.0872511
0.244222
0.194778
0.0480269
0.00404871
0
4.33269e-005
0.000823211
0.000709619
0.0657218
0.563188
0.256317
0.00858603
0.0478354
0.0229231
0.00237605
0.0240735
0.0297874
0.212766
0.411888
0.269402
0.0281364
0.0480325
0.0954646
0.0516002
0.0314456
0.0633366
0.0332955
0.0825664
0.0558344
0.0470154
0.0248195
0.229218
0.424494
0.18768
0.17053
0.0266137
0.0606359
0.0294094
0.0491873
0.0476337
0.0998635
0.0440378
0.0342719
0.12139
0.147972
0.123988
0.0542101
0.0339458
0.138008
0.307525
0.560776
0.12918
0.240607
0.154209
0.0629022
0.0394569
0.0522991
0.0133743
0.11751
0.269781
0.120629
0.0697991
0.0115334
0.00807491
0.00922452
0.00309307
0.0310876
0.287323
0.326027
0.0900007
0.0814067
0.0166523
0.000439263
0.00131779
0.0106015
0.0300867
0.237845
0.455262
0.108841
0.0373974
0.0165137
0.00671506
0.0179957
0.0083063
0.0215849
0.39022
0.455262
0.0673084
0.0129437
0.00120109
0.000841164
0.00317785
0.0129032
0.105136
0.0522329
0.140458
0.0583014
0.0970611
0.102659
0.0877568
0.0527771
0.0856924
0.101282
0.115782
0.297653
0.0849092
0.211717
0.0908304
0.0512017
0.0100951
0.039885
0.285701
0.150706
0.16098
0.213976
0.144607
0.0408903
0.0955418
0.114065
0.116665
0.274327
0.387787
0.192886
0.156064
0.206619
0.0749204
0.0621978
0.163036
0.203429
0.0278039
0.12577
0.323417
0.0551247
0.113966
0.0357693
0.0473431
0.0252074
0.0357112
0.0705394
0.186886
0.391079
0.0672508
0.0247884
0.00391565
0.0264151
0.0244743
0.070659
0.133394
0.106418
0.0857306
0.0398391
0.096245
0.0579666
0.109288
0.281428
0.292014
0.309158
0.0782821
0.0934966
0.047053
0.055451
0.0691195
0.10942
0.153102
0.410993
0.0965789
0.126312
0.152689
0.164946
0.0267104
0.00284491
0.0170327
0.0287576
0.0735177
0.0860477
0.388534
0.182216
0.282967
0.0538272
0.0293942
0.0994495
0.021085
0.0357624
0.219144
0.0592626
0.0516876
0.0957338
0.092348
0.10002
0.132219
0.0272
0.177482
0.112462
0.0589989
0.0218958
0.14295
0.0859395
0.212282
0.545775
0.039127
0.0421669
0.0506603
0.446781
0.299826
0.118757
0.0384913
0.0366785
0.101984
0.0217842
0.0100847
0.0810026
0.114073
0.143304
0.0113488
0.00514604
0.0137377
0.0405337
0.0467179
0.0409695
0.0613323
0.0485511
0.0298404
0.0814883
0.065162
0.179472
0.585507
0.0846871
0.0277286
0.0675446
0.026021
0.0235301
0.0565156
0.0492892
0.0243086
0.145511
0.111931
0.0812011
0.138764
0.0866024
0.122271
0.0367983
0.0342857
0.0697414
0.051185
0.0764534
0.121897
0.114408
0.097805
0.0781673
0.0758616
0.0589047
0.163082
0.11111
0.0998038
0.187688
0.129906
0.0805815
0.068192
0.0618196
0.101437
0.135056
0.119068
0.169028
0.135998
0.141518
0.160521
0.121536
0.0746128
0.20838
0.30703
0.103888
0.0673893
0.0919842
0.0217245
0.0150231
0.00421421
0.00874487
0.0204641
0.0650163
0.0745792
0.0566924
0.0438278
0.0106109
0.00700174
0.0151259
0.00533087
0.0292267
0.127807
0.691349
0.295615
0.0329169
0.0446946
0.0589102
0.0341922
0.0112209
0.0233859
0.02584
0.018475
0.0321396
0.0379542
0.0299047
0.210881
0.380308
0.0365556
0.0214545
0.0799563
0.184325
0.110943
0.0383516
0.00286956
0.00324559
0.0266315
0.00317043
0.0121026
0.135947
0.476301
0.153574
0.00382007
0.0228907
0.0124801
0.034852
0.0311857
0.0599596
0.234385
0.33188
0.113884
0.0267856
0.00166111
0.136652
0.401065
0.0286613
0.0271632
0.148451
0.188711
0.0378791
0.00303138
0.0139946
0.115822
0.291744
0.0923825
0.139994
0.202532
0.195139
0.0596935
0.0146924
0.0489337
0.0292977
0.0169503
0.0393629
0.128388
0.191508
0.166357
0.0582911
0.0662209
0.221071
0.298578
0.376482
0.14338
0.222456
0.21858
0.15056
0.0934811
0.187397
0.0234574
0.0754619
0.0771054
0.073978
0.099017
0.0736644
0.131104
0.069613
0.0423867
0.0386243
0.226037
0.217814
0.327922
0.151107
0.115144
0.178275
0.100744
0.114593
0.0617092
0.313997
0.517526
0.209232
0.0452783
0.0337403
0.0187257
0.0232996
0.0476382
0.0540541
0.250948
0.473192
0.16902
0.0273862
0.0248064
0.00547118
0.00660794
0.0206107
0.00874207
0.137284
0.167734
0.253189
0.0740778
0.0788388
0.0549744
0.029444
0.0301504
0.042317
0.0359537
0.0771841
0.152701
0.0681858
0.133506
0.0545424
0.0280612
0.0148024
0.139839
0.15642
0.0740617
0.129661
0.274348
0.0970838
0.0388973
0.0756049
0.0987196
0.131787
0.259308
0.0716129
0.107007
0.181648
0.0906913
0.0678947
0.116731
0.104535
0.0642237
0.253393
0.0379894
0.127513
0.300012
0.222864
0.0193278
0.0428243
0.25865
0.0489083
0.185004
0.0516668
0.132431
0.274119
0.303946
0.149382
0.0211277
0.147553
0.0938241
0.078087
0.0219888
0.0191764
0.0201477
0.0463355
0.147205
0.24725
0.190448
0.16061
0.0176864
0.0215132
0.0754723
0.14144
0.141366
0.188169
0.153341
0.236641
0.0145823
0.0639409
0.0510057
0.117997
0.10754
0.13554
0.202652
0.0844493
0.0488199
0.0123811
0.0616945
0.175771
0.449253
0.359949
0.187448
0.217735
0.12476
0.0382273
0.0729646
0.0185803
0.0163221
0.0727935
0.213311
0.144857
0.121182
0.0194574
0.0644115
0.0205891
0.00682573
0.00203084
0.0268631
0.106414
0.167487
0.468705
0.0808276
0.0105323
0.00304486
0.051285
0.136849
0.260328
0.28369
0.140383
0.15452
0.133273
0.0369965
0
0.00732642
0.0174436
0.117014
0.11294
0.131878
0.434846
0.247419
0.0422996
0.00865364
6.49735e-005
0.00136775
0.00662888
0.0141286
0.0613562
0.355971
0.0864424
0.0102571
0.0142699
0.00168908
0.0025265
0.0172287
0.0232327
0.0669985
0.187512
0.0589538
0.0207279
0.000738484
0
0
0.0180546
0.026
0.0929158
0.462398
0.162025
0.0225281
0.00516939
0
0.00172848
0.00862929
0.0239225
0.153111
0.646377
0.182147
0.0136863
0.0105851
0.00773952
0.00541832
0.0214267
0.0564385
0.0882645
0.0764484
0.0348979
0.014621
0.0302244
0.0767555
0.0564163
0.0200521
0.0775897
0.0861377
0.0307125
0.0202462
0.00477524
0.0239846
0.0563548
0.05297
0.0479291
0.0838275
0.104846
0.394253
0.167945
0.00526707
0.0505239
0.489646
0.576014
0.0456603
0.0725594
0.0312867
0.0356208
0.0510298
0.000405502
0.0266503
0.1188
0.0874655
0.00283118
0.00621139
0.00932412
0.00538549
0.00651063
0.00559585
0.019251
0.289899
0.370201
0.00800203
0.00170766
0.00453278
0.00336542
0.00632993
0.00455605
0.021594
0.319318
0.395554
0.00736046
0.00530995
0.00306694
0.00225091
0.00302225
0.000500702
0.0541398
0.421839
0.48057
0.00838537
0.021179
0.00193722
8.71355e-005
2.90452e-005
0.000300421
0.0121584
0.198392
0.388796
0.0145448
0.00869354
0.0160812
0.00703979
0.0030594
0.000303757
0.0457392
0.227252
0.249405
0.0427299
0.035476
0.0273573
0.0274208
0.0225702
0.00789559
0.0481425
0.264317
0.347013
0.00562848
0.026267
0.00543089
0.00023791
0.000194653
0
0.127261
0.437672
0.445396
0.0270963
0.0130341
0.00958914
0.00715893
0.00519327
0.0276984
0.0793973
0.313934
0.156972
0.0572238
0.0654312
0.0236296
0.038918
0.0349728
0.0312769
0.0688207
0.227493
0.175398
0.246074
0.125588
0.0913886
0.209901
0.0847038
0.0298983
0.177993
0.433826
0.25431
0.106861
0.0892099
0.0348672
0.0267832
0.0143363
0.0527038
0.117437
0.18162
0.0983859
0.225272
0.169696
0.0967295
0.219499
0.132882
0.0502008
0.0102758
0.0231275
0.0440347
0.108731
0.0602533
0.0972229
0.186346
0.115644
0.0219189
0.00857163
0.00591759
0.00699294
0.0413551
0.0610406
0.147655
0.164726
0.210396
0.0437522
0.0327976
0.0162019
0.0238727
0.0444801
0.0366402
0.0495553
0.254539
0.253634
0.0929961
0.032448
0.0141486
0.00218055
0.00439385
0.0317738
0.0520657
0.486043
0.572438
0.136304
0.0480313
0.136079
0.021966
0.247147
0.18038
0.225176
0.0231388
0.0282075
0.149092
0.0537626
0.0926881
0.0343197
0.234421
0.202006
0.337666
0.0996018
0.0136547
0.136727
0.171522
0.0756377
0.102122
0.236054
0.206736
0.179246
0.110468
0.0750243
0.10777
0.160921
0.102473
0.167246
0.261738
0.177266
0.293358
0.0954742
0.0432876
0.0967943
0.0162827
0.0269884
0.0247216
0.0759754
0.155888
0.129835
0.0722427
0.0130059
0.0170122
0.00332717
0.0242644
0.0823125
0.241421
0.38309
0.210827
0.0710977
0.035864
0.0324712
0.0481436
0.0240297
0.0494808
0.112211
0.192407
0.153749
0.0905565
0.0127366
0.0146141
0.00809951
0.00708422
0.15576
0.45925
0.398719
0.293805
0.178366
0.0254623
0.0458302
0.00444795
0.0188751
0.0793915
0.17907
0.226805
0.110683
0.124616
0.102691
0.108279
0.00266877
0.00773611
0.0115263
0.075937
0.0932227
0.0710027
0.31399
0.164739
0.0945619
0.0241467
0.0321379
0.163327
0.281098
0.205247
0.165975
0.274119
0.0820813
0.156783
0.229143
0.120474
0.110297
0.050588
0.17206
0.0678741
0.421387
0.135823
0.132296
0
0.000715771
0.000126313
0.0120405
0.0382928
0.0789469
0.295104
0.0803347
0.0241832
0.00116496
0
0.000618423
0.0026353
0.0198537
0.0590879
0.525848
0.216986
0.0288837
0.14455
0.0454281
0.0173599
0.010705
0.125911
0.0929561
0.349844
0.140401
0.0201214
0.0391289
0.00260179
0
0.00187543
0.0552958
0.076548
0.455086
0.264607
0.0464671
0.0356986
0.0878976
0.0542726
0.00878544
0.0226889
0.0102682
0.272059
0.209295
0.0438734
0.0634733
0.397435
0.39635
0.010605
0.0137532
0.00035835
0.0230523
0.0628653
0.0261396
0.0939138
0.132645
0.0360865
0.00414998
0.0135226
0.0139705
0.227735
0.197459
0.124088
0.163031
0.43554
0.281306
0.0332413
0.0039096
0.00213544
0.0205154
0.0584609
0.0850296
0.0255105
0.266428
0.338992
0.0128172
0.00633891
0
0.000237554
0.000441173
0.00305311
0.0550942
0.243833
0.312492
0.0687486
0.0268666
0.000824131
0
0
0.00183186
0.149806
0.361137
0.241258
0.0356072
0.00298056
0.0002641
0
0.000134069
0.0308286
0.202209
0.391759
0.271444
0.226111
0.131901
0
0
0
0.0595865
0.075034
0.242723
0.272186
0.0883425
0.0364412
0.00311148
0.00256947
0
0
0.156313
0.339747
0.34827
0.126833
0.0491435
0.00541939
0.0349371
0.0186134
0.0675774
0.138254
0.204017
0.144463
0.262953
0.220923
0.00526449
0.0179863
0
0.0230832
0.291843
0.213707
0.121833
0.234386
0.184373
0.00877415
0.150405
0.0363339
0.095997
0.187927
0.20503
0.175466
0.139948
0.121429
0.0265558
0.0522233
0.0570823
0.141816
0.115972
0.0741096
0.200303
0.23515
0.156823
0.0523495
0.0638409
0.0809781
0.0924738
0.322165
0.155509
0.156532
0.149002
0.147182
0.0102994
0.122434
0.100939
0.179809
0.250262
0.0666659
0.302879
0.153322
0.151285
0.0255157
0.0382062
0.0779161
0.259716
0.0810772
0.0484631
0.147023
0.105098
0.046147
0.045952
0.128897
0.110544
0.0565832
0.0496958
0.0504134
0.0527621
0.0465668
0.0710938
0.161692
0.441175
0.42697
0.0936397
0.14184
0.113747
0.24069
0.16068
0.072413
0.0466575
0.0425841
0.00999467
0.101761
0.117473
0.276634
0.210094
0.143234
0.0679638
0.234878
0.100456
0.0882939
0.0653147
0.160029
0.0367867
0.120209
0.0876948
0.160921
0.115202
0.126282
0.140202
0.0774362
0.115439
0.0482358
0.139244
0.0813186
0.246527
0.164898
0.100971
0.0768851
0.0731976
0.251162
0.0639352
0.109352
0.174613
0.198912
0.214382
0.140055
0.222626
0.146616
0.140552
0.0517958
0.0869382
0.257575
0.416512
0.209828
0.0969219
0.062615
0.062551
0.0121127
0.00323465
0.0196751
0.0776267
0.171222
0.054427
0.0286794
0.00539319
0.00803694
0.00531472
9.38126e-005
0.0776574
0.329391
0.299219
0.102212
0.0867295
0.0287101
0.0127025
0.000769684
0.00245502
0.00699974
0.112049
0.323484
0.0861345
0.00851264
0.00200585
0.00248977
0.0278463
0
0.0118278
0.261193
0.629174
0.283203
0.0238669
0.0666355
0.0172233
0.0334443
0.0231186
0.15689
0.170261
0.101045
0.088442
0.160852
0.0588641
0.0468863
0.216703
0.165528
0.258504
0.0271743
0.0569976
0.0345188
0.175103
0.047116
0.0346513
0.127693
0.0141034
0.129842
0.158389
0.313264
0.210283
0.0687212
0.17008
0.0781838
0.298937
0.306189
0.42128
0.098063
0.0324128
0.0975717
0.0841616
0.100341
0.0685958
0.170916
0.137293
0.157305
0.022352
0.148278
0.0507684
0.18339
0.138065
0.00443591
0.0388379
0.0212548
0.04626
0.0126955
0.0988522
0.121252
0.319918
0.18905
0.0171083
0.166503
0.44144
0.313974
0.0527219
0.088076
0.0813554
0.119769
0.0744877
0.0248539
0.0728848
0.146712
0.123141
0.0207482
0.0779539
0.17316
0.36483
0.144828
0.0414537
0.0497505
0.0602537
0.0406268
0.013829
0.0153999
0.0601465
0.180999
0.0602366
0.053259
0.11547
0.203685
0.368893
0.0909298
0.0647437
0.0103975
0.0192539
0.0151382
0.0562222
0.0739039
0.145231
0.131719
0.0284513
0.039671
0.1143
0.248794
0.100786
0.0592456
0.120588
0.386685
0.502485
0.195965
0.171045
0.0452254
0.0426898
0.0612223
0.0920626
0.159845
0.190379
0.172912
0.0824011
0.0356562
0.000501693
0.00462842
0.0134511
0.0473719
0.215692
0.238181
0.0922057
0.260581
0.138397
0.00198993
0.00771404
0.0154199
0.0940455
0.265391
0.189256
0.194853
0.163075
0.0772342
0.00353514
0.023044
0.0680111
0.105352
0.402776
0.279457
0.177744
0.345197
0.0879368
0.0127877
0.0342389
0.061125
0.144291
0.151532
0.117469
0.0677387
0.356229
0.332203
0.0127142
0.0103214
0.00403656
0.0613213
0.341631
0.0740426
0.0379183
0.133584
0.151165
0.0456413
0.0765844
0.053115
0.111351
0.178729
0.174111
0.196372
0.381
0.206169
0.0275501
0.0229742
0.0386242
0.0885639
0.178128
0.0520261
0.0773992
0.14633
0.11209
0.083754
0.0907122
0.129169
0.0802098
0.226512
0.10408
0.071678
0.0680872
0.0326701
0.042223
0.0446976
0.0775386
0.0983426
0.19101
0.131725
0.106693
0.0830232
0.11313
0.0394188
0.0148274
0.095468
0.163858
0.106019
0.139457
0.0677059
0.21386
0.0930521
0.10338
0.12378
0.108027
0.05141
0.309138
0.439202
0.135346
0.347734
0.140663
0.127143
0.0616103
0.235693
0.0835187
0.156536
0.0825443
0.0553812
0.0486421
0.0509085
0.0241802
0.0165365
0.0366356
0.0833448
0.155646
0.197879
0.0941202
0.0770705
0.0171572
0.0364729
0.027722
0.0345263
0.0604512
0.325372
0.434345
0.119433
0.113035
0.0499211
0.0754
0.0283762
0.101833
0.103136
0.261251
0.396074
0.118895
0.114415
0.148496
0.303582
0.185317
0.0946833
0.126721
0.188733
0.129533
0.0885632
0.152078
0.0850237
0.0943817
0.0733576
0.138065
0.15158
0.105682
0.211161
0.162934
0.307541
0.239004
0.0634599
0.0230827
0.0155706
0.0324592
0.029064
0.0620446
0.0614454
0.193646
0.209391
0.218995
0.143199
0.0480146
0.0649437
0.0160873
0.237641
0.142977
0.295034
0.329319
0.160396
0.12568
0.00683571
0.0400434
0.00035407
0.0326419
0.0166477
0.123736
0.191369
0.063854
0.00798068
0.00186865
0.00116628
0.0251779
0.00279786
0.00818906
0.195286
0.51501
0.318951
0.0932301
0.0555214
0.0349345
0.000477716
0.055479
0.0275701
0.112968
0.161207
0.0847831
0.0614504
0.0129539
0.00999366
0.00869802
0.00580676
0.0365757
0.155327
0.218926
0.416614
0.370861
0.118758
0.0790074
0.0760579
0.00639496
0.0990128
0.141996
0.204171
0.198376
0.0872228
0.084537
0.0949833
0.121449
0.145583
0.317695
0.169922
0.0131446
0.0933163
0.0638124
0.0498342
0.0695037
0.0234036
0.00907394
0.14204
0.171989
0.0779145
0.274751
0.281015
0.205604
0.19692
0.0285682
0.0746012
0.281063
0.188139
0.0522098
0.242107
0.254432
0.216959
0.151477
0.138081
0.291879
0.236
0.0735932
0.00664086
0.0915493
0.135891
0.0945001
0.0488934
0.112894
0.115349
0.0929732
0.0601124
0.020611
0.111775
0.264242
0.112033
0.0556387
0.0849824
0.196378
0.206896
0.111606
0.0840861
0.180012
0.253495
0.172613
0.090216
0.283074
0.375591
0.109056
0.120066
0.0350043
0.0763714
0.139451
0.135517
0.118709
0.108058
0.0931138
0.110356
0.0658557
0.0604485
0.145309
0.127364
0.0668095
0.0662196
0.149997
0.251154
0.1708
0.165133
0.148233
0.119362
0.0583583
0.218481
0.10708
0.227962
0.127428
0.0503103
0.0878369
0.0915089
0.156465
0.13974
0.126097
0.16595
0.143515
0.0373645
0.070688
0.0913688
0.17333
0.129384
0.179098
0.459589
0.215297
0.237206
0.163942
0.10861
0.131665
0.0924072
0.0606785
0.0915983
0.211178
0.114912
0.368094
0.174963
0.12049
0.103828
0.0845592
0.155409
0.135734
0.12736
0.160455
0.0823501
0.0246656
0.0465304
0.0488238
0.104281
0.106318
0.112077
0.365495
0.162714
0.0943753
0.0211456
0.0270746
0.0142252
0.144653
0.24973
0.192356
0.221568
0.145741
0.167831
0.0890311
0.0921767
0.0791794
0.069768
0.0830268
0.11091
0.0731807
0.124917
0.178739
0.0757127
0.0869851
0.0914622
0.0854858
0.0384133
0.120759
0.116522
0.0746241
0.244576
0.0225164
0.00726902
0
0.0913205
0.13958
0.218505
0.151669
0.235457
0.486658
0.127984
0.105106
0.152245
0.243173
0.053206
0.130773
0.13669
0.217228
0.0416926
0.0645583
0.0568524
0.117886
0.0899277
0.0669435
0.124868
0.0552324
0.0106769
0.132558
0.196961
0.148877
0.309976
0.174283
0.146514
0.111761
0.161897
0.0388072
0.106849
0.18555
0.125388
0.113231
0.115999
0.099793
0.121799
0.117179
0.0865523
0.154609
0.220345
0.171572
0.194906
0.257622
0.23759
0.214161
0.316913
0.187773
0.0910172
0.186507
0.124334
0.096118
0.0783744
0.0780173
0.0262999
0.0783646
0.0796789
0.0487332
0.121799
0.101694
0.0862096
0.303976
0.305789
0.123441
0.0460695
0.0834125
0.0808979
0.0624333
0.0914123
0.118824
0.182746
0.154935
0.0436535
0.115475
0.154752
0.044353
0.108418
0.161705
0.17277
0.507475
0.317281
0.0722493
0.0399933
0.180198