0.113929
0.0299112
0.0235113
0.0191853
0.0269508
0.0360594
0.0908825
0.116971
0.102628
0.0509079
0.0477559
0.0164157
0.019737
0.0249228
0.0746495
0.112204
0.0830178
0.0689603
0.239019
0.0346635
0.062145
0.159481
0.237474
0.282422
0.332868
0.162255
0.112667
0.0782467
0.0840441
0.0554205
0.263361
0.354093
0.264067
0.239514
0.125932
0.0772755
0.0570465
0.0457261
0.0113966
0.0327157
0.0578163
0.0301595
0.0274163
0.00809075
0.0873357
0.277084
0.099737
0.0747506
0.195396
0.201511
0.0229134
0.103721
0.06691
0.136041
0.0999091
0.14782
0.0113352
0.239082
0.119085
0.0329144
0.0562095
0.0738554
0.237474
0.297615
0.138215
0.00142174
0.119458
0.049455
0.0205809
0.190647
0.391494
0.390735
0.330757
0.107883
0.116731
0.138655
0.191355
0.0403892
0.130671
0.078122
0.096766
0.164383
0.0939696
0.150146
0.0263661
0.31505
0.119563
0.0966593
0.0559139
0.0542674
0.244423
0.0703662
0.0302634
0.0276955
0.0326101
0.0390639
0.135136
0.393014
0.196783
0.146455
0.0480778
0.0751102
0.00823528
0.0710429
0.0698414
0.118105
0.276081
0.201882
0.00843404
0.0326401
0.118307
0.0262541
0.307559
0.150325
0.0826615
0.0396644
0.0299549
0.00506042
0.0031601
0.0457921
0.0635124
0.390409
0.158543
0.139468
0.0728605
0.080968
0.089685
0.0274422
0.0732288
0.0202898
0.111353
0.10135
0.169625
0.131204
0.16859
0.0481318
0.0444909
0.0939392
0.217261
0.390891
0.115664
0.106983
0.0163864
0.100513
0.000169734
0.0039575
0.0838795
0.129475
0.358971
0.0875163
0.0881757
0.0622526
0.0634768
0.00794347
0.0344544
0.14389
0.194112
0.234906
0.0857626
0.0827863
0.0183404
0.0100713
0.00487586
0.0196292
0.0768041
0.233401
0.34439
0.166346
0.155345
0.0460589
0.0563911
0.0184323
0.0720239
0.0661691
0.127454
0.185285
0.22655
0.208244
0.1237
0.0549974
0.0413869
0.11822
0.0789474
0.0869085
0.0882083
0.0873862
0.0887245
0.0211391
0.0199102
0.077177
0.0982258
0.105556
0.0319387
0.153476
0.142221
0.112086
0.0380171
0.138285
0.0898852
0.159794
0.0325226
0.0362107
0.0971415
0.117116
0.0992727
0.106913
0.0964456
0.151754
0.139493
0.101562
0.0172189
0.412643
0.0869707
0.169843
0.0813014
0.22986
0.0878479
0.029634
0.0606817
0.0310753
0.0796196
0.0415723
0.0826443
0.0305316
0.195333
0.159775
0.0874159
0.0905719
0.12902
0.173291
0.190963
0.070198
0.0656556
0.203911
0.112874
0.0673063
0.10754
0.0220383
0.202312
0.038417
0.225651
0.0384597
0.241566
0.185167
0.180569
0.292528
0.137112
0.0561676
0.0600885
0.188198
0.10061
0.285026
0.0706921
0.0460133
0.16741
0.130344
0.259152
0.337624
0.0378055
0.0293189
0.0510232
0.038515
0.0166554
0.171585
0.0929916
0.213325
0.300141
0.0441019
0.0349085
0.0391343
0.0920938
0.107102
0.248377
0.121678
0.076316
0.1026
0.0769681
0.0935601
0.0929855
0.066501
0.065556
0.150218
0.0334039
0.159716
0.205523
0.0718323
0.0634315
0.0505363
0.0187506
0.0237564
0.0678037
0.0708995
0.132702
0.180656
0.0744911
0.0812766
0.0168488
0.0554459
0.122955
0.0517965
0.114004
0.161026
0.174484
0.115515
0.102915
0.023261
0.0574107
0.0848316
0.0744473
0.0904125
0.195773
0.183426
0.0656488
0.0433994
0.0137701
0.0575185
0.0975612
0.0793839
0.249753
0.38423
0.264959
0.103289
0.0430843
0.00605899
0.0983463
0.0897916
0.114751
0.140685
0.279446
0.230341
0.165874
0.0853244
0.0877549
0.0367933
0.0716155
0.130675
0.312571
0.375307
0.172754
0.103269
0.0867279
0.061074
0.174907
0.246792
0.107406
0.0641736
0.0961386
0.047756
0.0324845
0.0467926
0.116299
0.0839325
0.119574
0.111183
0.126427
0.188128
0.198287
0.0449211
0.082499
0.0581978
0.0351094
0.0551211
0.0257082
0.273133
0.0950446
0.0174771
0.0899063
0.127032
0.185599
0.107703
0.0655645
0.00420729
0.153868
0.0475615
0.0643298
0.205166
0.389534
0.293053
0.0220701
0.00558058
0.0585547
0.0854343
0.0678541
0.0894394
0.0654053
0.11433
0.174245
0.0489591
0.0354199
0.0595898
0.228019
0.270396
0.250498
0.141162
0.195427
0.230079
0.0895433
0.0238091
0.000892902
0.046314
0.0407161
0.0635765
0.0745019
0.299267
0.209589
0.076851
0.00330475
0
0.0459481
0.0516263
0.141595
0.131157
0.329096
0.285027
0.114046
0.0874845
0.0240579
0.15918
0.242921
0.192561
0.063042
0.0886729
0.144257
0.145645
0.127259
0.142329
0.270011
0.216534
0.255366
0.110405
0.144138
0.194193
0.0518705
0.0185395
0.010098
0.0216919
0.0477105
0.110742
0.124914
0.138432
0.139483
0.1214
0.133249
0.092843
0.0954649
0.0731056
0.0255036
0.0229631
0.0332986
0.0900163
0.0533807
0.115107
0.235828
0.173794
0.14913
0.199761
0.122653
0.108001
0.0948478
0.279502
0.450142
0.433584
0.0801087
0.0534931
0.0732836
0.0482133
0.0785646
0.114953
0.0718182
0.0994809
0.0739073
0.0921805
0.0501798
0.0440668
0.0867685
0.101359
0.0689726
0.0400595
0.037358
0.0116022
0.0186709
0.0191666
0.0620302
0.222238
0.257558
0.121639
0.232877
0.269057
0.20521
0.0389237
0.0789636
0.114732
0.106056
0.138089
0.0989364
0.0853926
0.106158
0.0814405
0.00581428
0.0452454
0.129047
0.400169
0.429363
0.138197
0.10709
0.0443379
0.00125515
0.00310963
0.0144898
0.0210675
0.0810711
0.132476
0.156985
0.183866
0.0618195
0.0079747
0.0135295
0.0569082
0.00781263
0.0405911
0.0640784
0.238693
0.135765
0.0438975
0.0164969
0.0188849
0.0462444
0.138777
0.313876
0.366287
0.18944
0.289046
0.0308655
0.0316271
0.173502
0.1542
0.140997
0.155546
0.173993
0.302415
0.13899
0.0592011
0.0182932
0.00792171
0.041057
0.00853772
0.102244
0.0602423
0.225352
0.176684
0.116685
0.0981636
0.0445311
0.026718
0.0154618
0.0945541
0.0614528
0.182743
0.25927
0.0349788
0.0217606
0.0915218
0.0440312
0.0267456
0.0340336
0.199039
0.403833
0.257888
0.0777856
0.0754504
0.102498
0.0847366
0.105045
0.0732262
0.158463
0.41217
0.0970913
0.0886652
0.116759
0.0808795
0.089693
0.057221
0.0781743
0.0597993
0.0869774
0.047415
0.0514335
0.0533775
0.0376706
0.203727
0.175981
0.0429388
0.0492048
0.0384253
0.114975
0.062426
0.186462
0.292745
0.239843
0.167646
0.100944
0.055399
0.164855
0.0262401
0.0227092
0.131344
0.175152
0.326787
0.208462
0.0627273
0.0382469
0.0257442
0.0249655
0.0432489
0.0192643
0.04365
0.244038
0.157164
0.0307287
0.0290552
0.00903366
0.0483423
0.0651934
0.0565831
0.137842
0.360907
0.17985
0.0509984
0.00876038
0.00434884
0.00637625
0.0173189
0.0462875
0.134435
0.279315
0.222335
0.0451719
0.0175268
0.00404396
0.0844389
0.103813
0.0717132
0.161741
0.286927
0.246755
0.0278597
0.00394801
0.0254191
0.152093
0.187345
0.118728
0.0852219
0.0894689
0.0578496
0.0667519
0.0295356
0.0444823
0.0688166
0.0761291
0.157583
0.080013
0.206394
0.374752
0.129498
0.0769573
0.0315513
0.0525997
0.0458321
0.0554505
0.161568
0.135616
0.0876587
0.171904
0.0425757
0.0287725
0.106538
0.0171847
0.162291
0.0867319
0.140546
0.199695
0.271365
0.0443505
0.108501
0.00897807
0.0228067
0.178825
0.0506743
0.081016
0.149842
0.0826323
0.0553912
0.0483865
0.0610375
0.110713
0.182542
0.29416
0.368988
0.198199
0.16662
0.0870211
0.134203
0.0284687
0.0235893
0.170729
0.0716648
0.0347356
0.0867216
0.205901
0.0343958
0.0331569
0.165085
0.120344
0.143279
0.186016
0.165883
0.0867209
0.264809
0.0993783
0.145473
0.159463
0.262914
0.0413046
0.144529
0.186904
0.123748
0.0721049
0.015465
0.0662555
0.208663
0.376853
0.228544
0.237208
0.161494
0.122255
0.0413024
0.00641261
0.0388265
0.189377
0.233937
0.0304009
0.058063
0.089053
0.0442148
0.0672442
0.0468984
0.103568
0.143442
0.267807
0.0679944
0.203256
0.122869
0.134692
0.0861225
0.0959285
0.123794
0.0251432
0.0779046
0.274667
0.181203
0.0787949
0.085641
0.0357523
0.0108733
0.00926624
0.0540414
0.134667
0.436259
0.154596
0.0443463
0.0927775
0.0498931
0.0364217
0.0554019
0.0137345
0.032521
0.139944
0.233326
0.0754001
0.174267
0.0835922
0.130727
0.151951
0.00097174
0.045279
0.319728
0.161513
0.0328833
0.174611
0.159306
0.164671
0.344664
0.0823468
0.124033
0.274502
0.105935
0.11491
0.16137
0.0762767
0.0535609
0.0847801
0.0435212
0.0959752
0.137737
0.0535678
0.0915517
0.17093
0.202686
0.143868
0.0893103
0.0179734
0.184749
0.358657
0.118879
0.07593
0.107601
0.13363
0.0654104
0.235417
0.102857
0.198819
0.162128
0.0813668
0.0865629
0.0678924
0.213597
0.104102
0.279155
0.017789
0.0205789
0.0159025
0.0180968
0.0247194
0.144739
0.210364
0.131786
0.043073
0.0647852
0.0240733
0.0266962
0.0793796
0.0827851
0.161791
0.28384
0.160028
0.0581548
0.0287744
0.0195578
0.0254508
0.0229811
0.0128796
0.0760483
0.277719
0.182733
0.0887525
0.0312546
0.0401222
0.0345114
0.013535
0.0106223
0.184882
0.598509
0.280143
0.0293272
0.211843
0.0484081
0.0338397
0.0535815
0.0304009
0.0408
0.0969946
0.138886
0.108133
0.272447
0.115608
0.123811
0.102252
0.0366311
0.0629924
0.0375188
0.0645849
0.1225
0.204257
0.0733557
0.032521
0.00625861
0.00405576
0.0891228
0.47468
0.214939
0.0306266
0.410325
0.169461
0.0969229
0.0413026
0.00841644
0.0392351
0.16926
0.131096
0.100374
0.102725
0.123757
0.23576
0.24677
0.0913859
0.082844
0.0301898
0.0327509
0.0684923
0.0159618
0.0380261
0.145624
0.103613
0.0778284
0.0978083
0.0757433
0.117406
0.0272801
0.302221
0.206543
0.169935
0.121547
0.0437819
0.0529794
0.0595222
0.143503
0.223188
0.0920877
0.0739165
0.183162
0.147746
0.104341
0.141847
0.118377
0.259378
0.120773
0.00408786
0.0287964
0.110496
0.121508
0.1161
0.144215
0.0826261
0.0664494
0.0034029
0.0342241
0.0607191
0.120292
0.160756
0.141898
0.166203
0.0317856
0.00190374
0.0206477
0.0248364
0.0468823
0.219826
0.158669
0.220292
0.271128
0.0816813
0.0891817
0.00593343
0.0308209
0.0653486
0.238076
0.177516
0.222171
0.215411
0.0291709
0.00114225
0.0308209
0.113087
0.0847171
0.021165
0.076616
0.111035
0.0725211
0.128436
0.0882227
0.031849
0.248639
0.127863
0.0824512
0.0230446
0.043007
0.035814
0.162499
0.0611453
0.103578
0.144299
0.091609
0.0850441
0.106526
0.188084
0.075042
0.0449472
0.105383
0.0549599
0.319412
0.188198
0.120374
0.0394819
0.18998
0.0161537
0.03682
0.143593
0.0770428
0.0745156
0.0490659
0.0466338
0.0333011
0.0197433
0.103942
0.158472
0.0566579
0.058388
0.149186
0.0641898
0.068773
0.138717
0.0787549
0.316943
0.20884
0.101723
0.0892911
0.13297
0.0700179
0.0258421
0.0118574
0.128555
0.126242
0.0730274
0.070702
0.0636418
0.168642
0.131041
0.0716559
0.0351248
0.152574
0.445363
0.194101
0.0712358
0.118891
0.10655
0.0903409
0.0540392
0.0323107
0.0527953
0.0951837
0.0728306
0.116989
0.0748219
0.0599105
0.0699407
0.0612655
0.0908799
0.125997
0.205797
0.223365
0.222693
0.142544
0.0872277
0.179097
0.142264
0.0401082
0.0666267
0.13567
0.122072
0.0778258
0.0665716
0.136141
0.170632
0.177566
0.204743
0.273979
0.378113
0.240299
0.145702
0.0437551
0.0151055
0.00781404
0.0521735
0.14154
0.0497439
0.177875
0.105315
0.203176
0.196921
0.00472373
0.0421752
0.157257
0.12981
0.0324426
0.195044
0.169004
0.209367
0.409516
0.0802881
0.0367989
0.073451
0.162273
0.147779
0.251178
0.101713
0.12614
0.0681309
0.0472636
0.113743
0.181129
0.173029
0.130893
0.17456
0.116939
0.155688
0.217034
0.0328196
0.218368
0.188243
0.0991798
0.0322677
0.0956962
0.150704
0.065409
0.222548
0.142987
0.245699
0.0933131
0.0532061
0.0186662
0.00822859
0.218247
0.182055
0.219572
0.0669312
0.214183
0.152593
0.162882
0.0692551
0.0669853
0.249084
0.105901
0.12264
0.149585
0.124384
0.0362542
0.0946582
0.0526998
0.0475448
0.282209
0.178023
0.103853
0.0334793
0.01504
0.00901152
0.00394106
0.00388856
0.0278238
0.224786
0.178623
0.0392451
0.00472761
0.00454334
0.0057857
0.00133126
0.00150436
0.0890811
0.447899
0.172227
0.00411615
0.0389047
0.00901154
0.00123795
0.00262457
0.0275281
0.0656856
0.236579
0.12225
0.0175354
0.00598979
0.000158675
0
0
0.0132229
0.148615
0.644623
0.164304
0.00618145
0.023496
0.0082476
0.0029161
0
0
0.0582035
0.373197
0.187654
0.0246343
0.110492
0.0314005
0.023874
0.00394828
0.0116955
0.105715
0.201589
0.179516
0.11158
0.0102733
0
0
0
0.0115943
0.135551
0.437002
0.171919
0.0351876
0.0186324
0.00118625
0.0386838
0.0103674
0.0299865
0.306791
0.412328
0.222411
0.0725708
0.131339
0.0453042
0.0523811
0.0788237
0.0588856
0.0697746
0.0896991
0.10531
0.136071
0.0706962
0.0629589
0.0687172
0.139249
0.126244
0.0988326
0.0769242
0.0887523
0.0624779
0.0247095
0.0476439
0.137238
0.166725
0.057348
0.251354
0.317972
0.235452
0.0709264
0.126484
0.388994
0.185046
0.271765
0.116693
0.132801
0.140731
0.1251
0.0504733
0.0186497
0.0311083
0.05499
0.07433
0.127494
0.175351
0.0619206
0.0113524
0.00522833
0.0259282
0.0225722
0.0725072
0.129964
0.117975
0.10196
0.047473
0.00246094
0.00864526
0.135204
0.202435
0.0908481
0.0776583
0.120358
0.193161
0.283803
0.1879
0.0148398
0.486461
0.0527345
0.0260933
0.0979031
0.103051
0.131045
0.259688
0.219515
0.116911
0.116012
0.0439815
0.0879819
0.0896663
0.16182
0.0119029
0.034302
0.0601985
0.0958649
0.116082
0.070455
0.1387
0.119448
0.174101
0.0190108
0.046681
0.154116
0.0729126
0.164358
0.100646
0.0581238
0.10191
0.204355
0.0284268
0.0614766
0.0910588
0.135851
0.138823
0.127822
0.123117
0.128552
0.156475
0.0144472
0.198925
0.103659
0.0724538
0.0839192
0.0453324
0.0632113
0.0471387
0.115242
0.0614853
0.0700412
0.0687801
0.0463951
0.158156
0.205527
0.117497
0.14133
0.1643
0.178382
0.148025
0.0352969
0.0967925
0.0812437
0.047239
0.0990712
0.0406351
0.104432
0.0507149
0.0809172
0.0664772
0.0737013
0.16047
0.194964
0.168288
0.214562
0.187199
0.294852
0.104181
0.103741
0.107734
0.0523684
0.202379
0.17589
0.0884575
0.0557074
0.0454292
0.0371999
0.0114206
0.0235097
0.0754758
0.224733
0.267658
0.305603
0.142907
0.205706
0.0563905
0.0351777
0.0104385
0.0734809
0.17297
0.140265
0.121703
0.0366499
0.0825238
0.0613295
0.130959
0.076579
0.256637
0.182724
0.230851
0.285602
0.0488976
0.178196
0.0600834
0.16948
0.182525
0.069235
0.0779231
0.135322
0.216863
0.173157
0.260999
0.0710631
0.0809665
0.0519651
0.12648
0.13043
0.0969005
0.115162
0.133216
0.172303
0.122839
0.120711
0.207248
0.248147
0.0525634
0.172937
0.223132
0.0845284
0.24052
0.0476528
0.0516839
0.150872
0.240902
0.0923265
0.0860775
0.0791665
0.0614538
0.191047
0.162235
0.106577
0.174391
0.0921417
0.130952
0.0458167
0.0387926
0.0288953
0.0801127
0.304711
0.105782
0.0761151
0.0599029
0.0388932
0.0240849
0.0282464
0.0803577
0.218423
0.357919
0.107141
0.0130758
0.160143
0.150842
0.117035
0.0421334
0.0305387
0.102077
0.230272
0.10885
0.0576001
0.0761847
0.112403
0.266224
0.112801
0.206764
0.292063
0.234148
0.0566705
0.00379843
0.0377752
0.0160397
0.0037042
0.00631811
0.0739921
0.126827
0.199241
0.0359216
0.00905353
0.0217426
0.00712888
0.000675325
0.00125418
0.0244348
0.187152
0.671775
0.18849
0.0446077
0.0435191
0.042552
0.0910614
0.0650517
0.118138
0.136199
0.0807199
0.00954525
0.00832986
0.0543555
0.0678734
0.0467228
0.0143811
0.0399508
0.14485
0.262389
0.162552
0.0646041
0.00501131
0.000197033
0
0.000620885
0.0204993
0.137337
0.330694
0.221585
0.0560798
0.00234835
0
0.00977973
0.0075705
0.0655334
0.203614
0.340327
0.26638
0.0502312
0.0157303
0.0655131
0.0478453
0.029637
0.101588
0.199371
0.199575
0.213073
0.0532114
0.00739502
0.0428242
0.0414218
0.0725747
0.334142
0.275862
0.199224
0.182928
0.036247
0.0015124
0.0253527
0.0371978
0.0404106
0.0322487
0.131671
0.325453
0.208821
0.0274795
0.0932178
0.210328
0.135325
0.125684
0.0452604
0.0954
0.231264
0.138311
0.0346306
0
0.0155838
0.0359974
0.0533934
0.139314
0.102291
0.318049
0.144771
0.0295832
0.0840967
0.115799
0.189909
0.223514
0.146881
0.0809248
0.404152
0.126333
0.0480823
0.138
0.0814856
0.0744527
0.0490318
0.0343138
0.0720923
0.134753
0.143854
0.02803
0.400705
0.0174611
0.0192915
0.0388876
0.0133871
0.0440607
0.113265
0.173045
0.210649
0.218947
0.0760059
0.108768
0.129971
0.0693052
0.0467838
0.0866296
0.0652406
0.13102
0.480583
0.0171614
0.0443022
0.0863279
0.0267081
0.0567636
0.034498
0.102331
0.372756
0.0462648
0.0249536
0.0255152
0.0517931
0.074832
0.0512776
0.109822
0.077754
0.0861221
0.0503961
0.0393159
0.0465392
0.0469025
0.123977
0.00732537
0.119417
0.0503187
0.0319331
0.195635
0.0303548
0.0434411
0.0652964
0.137497
0.257132
0.290978
0.195027
0.403785
0.124594
0.0899869
0.0848316
0.0436064
0.16606
0.152976
0.115898
0.0506568
0.116631
0.0414077
0.0200695
0.0309818
0.00892108
0.114767
0.0344445
0.0392182
0.037537
0.0349541
0.0657893
0.108633
0.0923527
0.0698731
0.166699
0.13812
0.0691106
0.0901429
0.038276
0.0964802
0.0651395
0.0216349
0.0117763
0.0914668
0.0758698
0.0408164
0.075618
0.0602392
0.0629734
0.150477
0.0768131
0.087169
0.623073
0.303099
0.0462373
0.0937937
0.0486083
0.0741784
0.0692195
0.0267463
0.0313262
0.0311377
0.0268228
0.0342558
0.0880179
0.0775833
0.181979
0.0494356
0.0237192
0.0501466
0.018286
0.0346022
0.0585656
0.155897
0.170367
0.188943
0.136947
0.127466
0.0474171
0.351047
0.0839953
0.033886
0.10741
0.073616
0.314416
0.192136
0.250482
0.0377106
0.262982
0.068557
0.197628
0.441465
0.142051
0.169697
0.0102407
0.0362835
0.0688527
0.0151466
0.0714971
0.0608333
0.113998
0.170295
0.124542
0.0402908
0.0164339
0.0335035
0.0145921
0.0866562
0.202921
0.0722018
0.117617
0.0947736
0.077206
0.17823
0.127609
0.254207
0.174921
0.165839
0.359251
0.141633
0.0261063
0.00834351
0.0467687
0.267736
0.283251
0.260189
0.237883
0.0922974
0.0793037
0.0841602
0.107618
0.0757652
0.0954587
0.0533542
0.0893594
0.175751
0.0347401
0.0235778
0.041014
0.101505
0.215948
0.180952
0.188446
0.0891356
0.0442159
0.00453043
0.0015202
0.010206
0.0145582
0.0676346
0.341435
0.266099
0.207862
0.204724
0.0213345
0.00378376
0.00347729
0.0294986
0.139409
0.349919
0.328206
0.127963
0.0498556
0.0252511
0
0.0138679
0.0320075
0.0914854
0.064114
0.0798152
0.0257938
0.0119615
0.00217468
0.00684727
0.0370836
0.153932
0.186053
0.0364777
0.0472962
0.0502559
0.0385709
0.0349842
0.0171966
0.0112344
0.10865
0.210507
0.0995764
0.110598
0.0140833
0.0110518
0.00520081
0.00972689
0.0471785
0.501299
0.594139
0.138208
0.0459053
0.00357111
0.00397369
0.00384037
0.0162115
0.0543861
0.19067
0.190397
0.0481755
0.0940731
0.0660067
0.0372696
0.0343382
0.00792866
0.0494225
0.131046
0.157652
0.0642739
0.296476
0.087831
0.0286975
0.0295347
0.00964605
0.0635278
0.304515
0.424448
0.0756953
0.0299042
0.00107956
0.00102094
0.00259471
0.00497981
0.0823895
0.321319
0.426576
0.05405
0.0980777
0.00106685
0.000578755
0.006902
0.00685425
0.00348754
0.0629665
0.166023
0.0428758
0.100336
0.0274937
0.0440886
0.0312357
0.0117719
0.0243991
0.115697
0.34203
0.184528
0.0851985
0.0134725
0.080841
0.0241409
0.0151166
0.0314357
0.20988
0.444446
0.05301
0.0315513
0.00163409
0.000700324
0.00649293
0.00278571
0.0119134
0.151672
0.572178
0.13498
0.0112847
0.00484521
0.00207652
0.00136211
0.00267829
0.156374
0.0847508
0.235207
0.273484
0.0620728
0.0228534
0.038513
0.0171072
0.108704
0.272229
0.0105036
0.104131
0.214473
0.0678834
0.101341
0.0204302
0.0658319
0.24763
0.0230175
0.0706888
0.3535
0.201008
0.0100592
0.0189998
0.0584533
0.0211595
0.0157199
0.0467771
0.0110168
0.133032
0.20941
0.045999
0.0617989
0.174435
0.168698
0.221288
0.0843289
0.0534769
0.0577703
0.0703178
0.198378
0.298923
0.214667
0.0956589
0.168403
0.0353531
0.0441921
0.0309941
0.0115321
0.165582
0.219937
0.080976
0.0193299
0.0422673
0.0392827
0.0786585
0.0818285
0.118102
0.249703
0.246668
0.24634
0.196453
0.176045
0.0228114
0.0276532
0.0421648
0.0900364
0.266706
0.255387
0.0896541
0.0333688
0.0426543
0.0801637
0.0642695
0.013521
0.00615631
0.0383126
0.0961523
0.0442241
0.0509263
0.0591915
0.0676619
0.0497081
0.061631
0.104091
0.436888
0.409042
0.0410513
0.0443595
0.0600035
0.0648043
0.0364215
0.0237151
0.0453804
0.0870971
0.0912289
0.0702603
0.0715853
0.096731
0.0775799
0.0316483
0.169948
0.180006
0.18162
0.280904
0.0699525
0.0712801
0.09907
0.0605147
0.0590631
0.140288
0.085127
0.260798
0.103448
0.0256866
0.124029
0.109252
0.11828
0.223781
0.254932
0.0632862
0.22343
0.0535598
0.136434
0.363614
0.237659
0.0282631
0.0267475
0.104389
0.101333
0.0778118
0.0837983
0.0266225
0.104861
0.135148
0.136341
0.144645
0.103812
0.079939
0.0837181
0.0417213
0.04798
0.312584
0.330844
0.0664403
0.13348
0.134892
0.106759
0.251171
0.0903576
0.0735429
0.161762
0.0996753
0.0417987
0.0241008
0.174653
0.25514
0.267102
0.0933509
0.0264131
0.0188167
0.0147075
0.177832
0.170292
0.0852631
0.0583057
0.169329
0.0644077
0.0196775
0.128501
0.139405
0.096058
0.0889546
0.486042
0.230582
0.199371
0.0668703
0.0112356
0.00133866
0.0190585
0.0644333
0.00132465
0.186595
0.26927
0.113466
0.0682502
0.0528312
0.0282677
0.00956447
0.0641654
0.0428685
0.185346
0.229753
0.0912797
0.0803857
0.0594886
0.0465799
0.0423726
0.16221
0.0159633
0.400915
0.196876
0.0396657
0.0838749
0.123429
0.0447174
0.0617184
0.306568
0.0591572
0.285879
0.218751
0.0141599
0.114207
0.185749
0.0745291
0.168664
0.00866969
0.116594
0.236439
0.0842623
0.0225133
0.011042
0.00752689
0.00508475
0.0115498
0.0238477
0.249846
0.364685
0.0853466
0.00644347
0
0.00034101
8.52524e-005
0.00144459
0.0618348
0.130583
0.325318
0.16058
0.00366744
0.0116902
0.0180353
0.0073101
0.0373791
0.0121033
0.253687
0.593117
0.0751844
0.000267822
0
0
0
0
0.0222035
0.15988
0.235615
0.0329729
0.00517701
0
0
0
0.000497854
0.0342998
0.284283
0.320081
0.0367602
0.00616973
0
0
0
0.00052935
0.0128072
0.235649
0.488956
0.0110085
0.000671191
0
0
0
0
0.0354088
0.332356
0.43606
0.0350365
0.00242921
0
0
0
0
0.113453
0.386527
0.404495
0.0467489
0.00296262
0.00841667
0.00515661
0.000541406
0.000140923
0.0684051
0.146965
0.355617
0.0852521
0.0309228
0.0589167
0.0274338
0.00183514
0.0102431
0.131884
0.304461
0.255269
0.0460442
0.0146009
0.0209356
0.0201622
0.00472764
0
0.15026
0.1179
0.133374
0.033056
0.0781191
0.146549
0.0654934
0.014409
0.0613802
0.0265058
0.0523185
0.265648
0.0884529
0.0345506
0.0272176
0.0447194
0.0175213
0.0249449
0.157145
0.0464694
0.181633
0.0748378
0.0808076
0.0357656
0.104705
0.148343
0.256584
0.132951
0.0711896
0.290685
0.102346
0.0764466
0.0851437
0.024406
0.0106193
0.0825221
0.236757
0.123774
0.265235
0.228477
0.314496
0.122063
0.00869407
0.0597818
0.150254
0.0553267
0.038518
0.0452191
0.081548
0.12718
0.12819
0.205484
0.24348
0.11892
0.0465107
0.0469
0.0906701
0.0969756
0.17193
0.173254
0.0841779
0.0558896
0.0588044
0.0315204
0.018466
0.0671918
0.0424099
0.247121
0.169223
0.216087
0.0982796
0.0272418
0.0804639
0.270809
0.25643
0.193238
0.101165
0.0805737
0.0914693
0.0257957
0.0510534
0.0535012
0.0286393
0.0300881
0.0468973
0.0695824
0.0488734
0.0386069
0.088216
0.138328
0.0490397
0.0214726
0.117814
0.267035
0.140943
0.0884012
0.0738652
0.104207
0.138051
0.126933
0.303023
0.199659
0.100066
0.0346713
0.0125598
0.00818075
0.0449966
0.137647
0.0959985
0.137413
0.172745
0.279152
0.144143
0.126161
0.169088
0.133753
0.170566
0.0373458
0.0245453
0.108029
0.102159
0.135751
0.0734258
0.0491301
0.0507959
0.0377963
0.126615
0.0680433
0.102952
0.11774
0.308472
0.0859585
0.10333
0.234233
0.0925885
0.0338155
0.0606713
0.0472159
0.149126
0.174958
0.134133
0.134877
0.0595723
0.0606608
0.0695981
0.374784
0.0916681
0.19059
0.445309
0.137296
0.161325
0.0956732
0.0929023
0.0881522
0.0531586
0.0362485
0.055999
0.281827
0.12684
0.0468489
0.0901009
0.0311298
0.0281788
0.0355205
0.214374
0.137349
0.202359
0.180487
0.190598
0.0234414
0.00785678
0.0278194
0.185503
0.0823891
0.0637668
0.331545
0.139515
0.0712445
0.0423899
0.0227831
0.0124643
0.0402625
0.053668
0.0261263
0.131288
0.209653
0.508121
0.118571
0.0291269
0.0483329
0.0210491
0.128989
0.0809001
0.0370768
0.0784045
0.21274
0.0567975
0.0485442
0.156114
0.0746362
0.136588
0.0584487
0
0.0345346
0.114297
0.0724743
0.131694
0.0177917
0.0301967
0.00924673
0.00989913
0.0201774
0.111594
0.605683
0.136251
0.033053
0.11008
0.300521
0.213794
0.00233002
0
0.0305727
0.280216
0.134926
0.0565245
0.0362468
0.097108
0.214803
0.0520734
0
0.00233618
0.00642594
0.00785999
0.0251968
0.000459565
0.176923
0.511863
0.0411536
0.00379805
0
0
0
0
0.0298158
0.241622
0.375345
0.00717093
0
0.00145744
0.00864024
0.0139521
0.00964584
0.0103349
0.170689
0.533263
0.0523848
0.0268555
0.0102021
0.00437233
0.00127691
0.00861311
0.0073894
0.262314
0.627679
0.0302625
0.0115159
0
0.00130292
0.00222158
0.00640624
0.0371551
0.219431
0.314182
0.0463582
0.0150716
0
0.00912042
0.00744504
0.0132854
0.0189007
0.103652
0.329987
0.0803317
0.0819609
0.0096778
0.00888516
0.0289039
0.0451819
0.0201859
0.0550052
0.108985
0.0694845
0.0916997
0.0192995
0.0277486
0.0551893
0.061711
0.0963597
0.188681
0.247045
0.0910292
0.0379018
0.0185687
0.047334
0.0258082
0.0238653
0.218025
0.137434
0.14645
0.0720114
0.0549662
0.129981
0.137371
0.0446541
0.0784323
0.0515433
0.0845942
0.169429
0.151366
0.120472
0.0672086
0.050661
0.103006
0.0620469
0.124037
0.178767
0.150586
0.108493
0.040954
0.0852288
0.177157
0.100506
0.0728537
0.215852
0.111702
0.128131
0.0778624
0.0353576
0.0765584
0.0479557
0.0167264
0.0723498
0.195818
0.266181
0.136378
0.262536
0.181088
0.102543
0.00565737
0.106899
0.121507
0.0960035
0.0966644
0.0651739
0.0445897
0.041706
0.0419399
0.139812
0.0421774
0.0533986
0.134999
0.179226
0.125145
0.139901
0.0717966
0.0974433
0.114364
0.104083
0.199648
0.0414455
0.0225144
0.0695245
0.0508703
0.132714
0.0800081
0.0706005
0.022179
0.0327265
0.114875
0.204524
0.195586
0.252545
0.0330474
0.0539292
0.0328255
0.0065695
0.0575836
0.103546
0.103162
0.187554
0.0362068
0.0910347
0.141027
0.0325679
0.0757155
0.10306
0.223963
0.140995
0.115215
0.216757
0.233392
0.293862
0.0245007
0.0552222
0.254459
0.118574
0.268397
0.275603
0.12646
0.0254849
0.0254679
0.00385617
0.00292216
0.0384255
0.0529675
0.160488
0.232821
0.0962231
0.116567
0.0675561
0.0773294
0.121431
0.0613006
0.173088
0.130102
0.156349
0.136326
0.190669
0.14237
0.0629032
0.0551752
0.0957142
0.124499
0.101036
0.136743
0.049459
0.197771
0.0761178
0.0561578
0.184382
0.157888
0.0594431
0.0656587
0.0213359
0.0684603
0.0847185
0.110307
0.116059
0.138648
0.184847
0.136191
0.367889
0.0672595
0.0691534
0.134541
0.0777213
0.147096
0.0863703
0.320422
0.134486
0.0651958
0.0221196
0.00516599
0.0566437
0.0198308
0.0494421
0.144978
0.27464
0.136606
0.111751
0.0757767
0.0385095
0.0491762
0.0245799
0.135246
0.113488
0.338447
0.087687
0.271585
0.167691
0.0266255
0.104107
0.0391548
0.0598729
0.041008
0.114286
0.0689247
0.129726
0.108108
0.00673772
0.0210435
0.111592
0.484599
0.195442
0.0901288
0.0664653
0.0894733
0.130322
0.047252
0.0523618
0.0594322
0.105838
0.0548554
0.122818
0.113037
0.156147
0.0899792
0.00675028
0.0478012
0.145684
0.22153
0.124278
0.101599
0.0410919
0.0331261
0.00263107
0
0.00516775
0.0628218
0.418341
0.164203
0.0662227
0.237184
0.385851
0.130239
0
0.00297752
0.0227454
0.217538
0.169199
0.0824187
0.0899742
0.0420487
0.0162534
0.00792989
0.0353005
0.0426542
0.144847
0.122361
0.099566
0.366292
0.220804
0.0341746
0.0132165
0.0316557
0.00702921
0.0675459
0.117203
0.148088
0.125743
0.505421
0.342042
0.00257673
0
0.00296254
0.0137985
0.0272912
0.0245663
0.0556346
0.259337
0.30472
0.0319973
0.0212325
0.0207378
0.016541
0.0286105
0.0463285
0.202357
0.319817
0.0676312
0.00325293
0.0130251
0.00042322
0.0247724
0.029151
0.0473675
0.0539115
0.18738
0.096014
0.00917391
0.00756943
0.00296254
0.0462484
0.086866
0.0466785
0.0564335
0.143742
0.165108
0.0963832
0.0954589
0.0311757
0.0580773
0.115726
0.104645
0.0198874
0.0919364
0.156305
0.106329
0.136583
0.0878588
0.0980108
0.171147
0.0908362
0.0427166
0.159603
0.133981
0.0167617
0.0846726
0.0393324
0.109209
0.190357
0.0586023
0.132229
0.177474
0.154125
0.0646262
0.116891
0.112387
0.122743
0.246356
0.0928363
0.0286952
0.132463
0.0965277
0.0904082
0.0920102
0.0715323
0.0456665
0.0878224
0.0268816
0.128713
0.180628
0.0955121
0.0551288
0.0555546
0.0690218
0.0694743
0.045267
0.111778
0.183025
0.328153
0.086651
0.0772322
0.0537696
0.0346714
0.043165
0.107929
0.0802022
0.258936
0.272478
0.0860765
0.0913266
0.0931679
0.00986025
0.0874571
0.0368989
0.186782
0.0881915
0.108098
0.0738778
0.0113594
0.0578929
0.0487757
0.0873452
0.0249702
0.06998
0.11026
0.134624
0.112397
0.0741155
0.0632693
0.165757
0.158554
0.0415184
0.0956721
0.105871
0.10521
0.0500813
0.029908
0.186362
0.0134005
0.109125
0.0325186
0.0805733
0.230467
0.276755
0.0624314
0.0370674
0.350216
0.0687074
0.120644
0.0313732
0.0548351