0.218431
0.00297783
0
0
0
0
0.0151519
0.0641091
0.299055
0.131934
0.00559251
0.00294265
0
0
0.031702
0.171088
0.170211
0.359903
0.337303
0.0208448
0
0
0
0
0.00658585
0.0609438
0.278635
0.310788
0.059624
0.0222133
0
0
0.00452886
0.0540065
0.0843073
0.479882
0.0766123
0.00849048
0.00483529
0.0208076
0.0244241
0.0296939
0.111721
0.127354
0.172084
0.326685
0.00863313
0.00722643
0.0346794
0.0577719
0.0118574
0.062977
0.191343
0.479731
0.130636
0.0942992
0.0864116
0.0718207
0.090859
0.00442069
0.0261508
0.0400774
0.158768
0.276098
0.0642564
0.105086
0.119701
0.353113
0.00294484
0.0121332
0.218768
0.347045
0.235074
0.089795
0.103726
0.0603721
0.0230419
0
0.00407154
0.0824457
0.24444
0.19342
0.334734
0.294326
0.194642
0.132949
0.0206058
0.0328892
0.0228183
0.0993894
0.174629
0.0857019
0.0875174
0.0453798
0.0972283
0.0063038
0.005694
0.208054
0.285496
0.0916362
0.229682
0.205432
0.240648
0.349097
0.0489858
0.0228149
0.0692611
0.117309
0.136338
0.167225
0.114742
0.106049
0.0798144
0.150627
0.0775423
0.00784289
0.0499509
0.0582591
0.0670827
0.0445248
0.0494663
0.0619022
0.366783
0.247008
0.047181
0.0186162
0.0235667
0.0823766
0.0572088
0.226635
0.381449
0.191115
0.0595476
0.00470573
0.00224024
0.0103106
0.0203444
0.0210753
0.0979665
0.145889
0.491621
0.251453
0.170796
0.0237852
0.0206407
0.0888554
0.076213
0.0458936
0.119473
0.339903
0.16934
0.0467942
0.00549402
0.0576454
0.095433
0.0739614
0.0740764
0.154293
0.277963
0.132223
0.0590502
0.0258803
0.0262789
0.0335695
0.055439
0.0303918
0.055398
0.475891
0.178131
0.228878
0.048774
0.0612852
0.0866911
0.0853673
0.11434
0.214884
0.397675
0.184451
0.0998882
0.0327933
0.014327
0.02683
0.0780666
0.0661606
0.117339
0.0985746
0.088082
0.0813773
0.0227074
0.00657366
0.027789
0.113443
0.308289
0.303875
0.138196
0.0670681
0.0697823
0.0349982
0.0126375
0.05296
0.110572
0.218897
0.254785
0.0622926
0.0679279
0.0253187
0.00351196
0.000653436
0.0413093
0.128782
0.614017
0.351801
0.0399765
0.0335214
0.00635351
0
0.0640305
0.0437297
0.079673
0.349953
0.352986
0.0681614
0.0331376
0.0148714
0.111105
0.23961
0.0878863
0.0489096
0.0491845
0.0460062
0.00523232
0.00271729
0.00328329
0.266994
0.0180958
0.0207324
0.0589937
0.545756
0.375892
0.0644328
0.0548807
0.000307959
0.00331063
0.0584495
0.0540026
0.0626211
0.0717533
0.0843679
0.0859443
0.0579494
0.00566518
0.0193934
0.293265
0.0826753
0.0175811
0.000851051
0.00554098
0.0421377
0.0596579
0.0486544
0.184183
0.139934
0.0521986
0.011246
0.0140473
0.154091
0.433363
0.467737
0.187913
0.0703135
0.0508892
0.0359748
0.0279955
0.0172775
0.0184655
0.073614
0.0864374
0.0387844
0.035301
0.0361911
0.0181608
0.000907491
0.0143334
0.0566904
0.208086
0.389263
0.180429
0.058788
0.0732582
0.014266
0.00331341
0.0245157
0.104245
0.185286
0.232511
0.18027
0.131088
0.418396
0.269013
0.215669
0.0668517
0.055482
0.076543
0.102371
0.173057
0.211892
0.0976389
0.060184
0.000583473
0.0164665
0.0159445
0.0633199
0.13886
0.125059
0.156055
0.423209
0.172547
0.0475775
0.0362202
0.0407648
0.0388253
0.0335469
0.110768
0.276657
0.269498
0.00523382
0
0
0
0
8.82963e-005
0.00649796
0.228434
0.279823
0.0415422
0.00627409
0
0
0
1.26138e-005
0.0144646
0.363151
0.199714
0
0
0
0
0
0
0.00118935
0.399614
0.200304
0.0129023
0.000157443
0
0
0.000627911
0.00556598
0.0405267
0.579361
0.143808
0.124337
0.102717
0.0287503
0.0611729
0.0113065
0.0293094
0.0370446
0.159324
0.100305
0.100158
0.151464
0.053778
0.376144
0.0410403
0.0569937
0.097818
0.0932248
0.100266
0.0404765
0.0291975
0.00334759
0.0856292
0.12097
0.0871545
0.120758
0.286332
0.0290232
0.0396196
0.0481673
0.0372096
0.606481
0.281077
0.13264
0.0822218
0.0562459
0.0718348
0.0293143
0.028393
0.0163362
0.146047
0.044121
0.0189655
0.0790577
0.0961344
0.0517557
0.0321676
0.0364524
0.131052
0.482279
0.103677
0.00876271
0.0330276
0.051618
0.0157954
0.0087636
0.00427529
0.0188741
0.29899
0.133814
0.0263077
0.00946038
0.0121032
0.0110322
0.00120017
0
0.0373942
0.578791
0.411848
0.043728
0.00525954
0.0131867
0.00705802
0.00680614
0.0101535
0.127574
0.50017
0.129496
0.0118015
0
0.00121256
0.0156396
0.0414662
0.0204823
0.052114
0.220483
0.249345
0.0597542
0.090055
0.0193496
0.00828011
0.0295313
0.0214935
0.0353322
0.51255
0.345426
0.050721
0
0.00507062
0.110022
0.178785
0.0912713
0.021224
0.190315
0.209274
0.0345611
0.00773675
0.0342059
0.102992
0.161959
0.0785057
0.020391
0.0550873
0.175529
0.048733
0.175403
0.0622491
0.240974
0.215528
0.0916008
0.0566353
0.084504
0.0979917
0.121609
0.13133
0.132158
0.219431
0.433293
0.157377
0.00939277
0.0364698
0.051265
0.00396711
0.0165592
0.0474821
0.368141
0.339221
0.116942
0.00177752
0.00548948
0.0128531
0.0903715
0.124458
0.231583
0.0426024
0.0522528
0.033615
0.103174
0.116346
0.0730834
0.107427
0.0601884
0.0357164
0.00209829
0.0112012
0.0220962
0.353093
0.156186
0.164505
0.161606
0.0372488
0.0054097
0.0671335
0.033115
0.00749159
0.0134977
0.0109291
0.17172
0.243628
0.104389
0.0874471
0.00154418
0.00280883
0.000456042
0.0863327
0.0211753
0.378412
0.640523
0.0784764
0.0130885
0.00144811
0.00149441
0.00940497
0.279482
0.143882
0.127651
0.123166
0.0199841
0.0111383
0.00691002
0.00304241
0.0136347
0.0415921
0.0648177
0.0911657
0.0860129
0.0224826
0.00719456
0
0
0
0.0810682
0.0340949
0.196724
0.77725
0.141427
0.0199326
0.0292324
0.00385123
0.017143
0.0301444
0.0413807
0.0613869
0.220821
0.153696
0.0259961
0.0392122
0.030753
0.0288312
0.081225
0.105173
0.152578
0.202073
0.0698595
0.00493142
0.125863
0.0857872
0.0393691
0.059297
0.232598
0.255612
0.198578
0.140744
0.0437427
0.240678
0.0744018
0.0847879
0.0560996
0.0737909
0.0840816
0.171568
0.229255
0.0942905
0.308387
0.115033
0.121249
0.0689538
0.141274
0.0817962
0.0598488
0.173368
0.174853
0.197336
0.153917
0.0344438
0.10298
0.0874354
0.108799
0.0801136
0.0820446
0.0939709
0.305547
0.173289
0.0434295
0.193472
0.350744
0.164115
0.0593464
0.0756246
0.177753
0.144155
0.0417707
0.0794071
0.160556
0.118319
0.0494467
0.0297116
0.0453497
0.0510577
0.0649844
0.0462922
0.10682
0.224349
0.35066
0.158117
0.088029
0.0175728
0.0101734
0.0636832
0
0
0
0
0
0
0.00693835
0.271594
0.0389038
0.00481814
0.000253586
0
0
0.00109108
0.00746626
0.0352947
0.326552
0.162111
0.00361334
0.0044163
0
0.00798769
0.003107
8.27072e-005
0.0414648
0.510672
0.045403
0.00854642
0.00105354
0
0.00621296
0.00583299
0.0185426
0.276283
0.618615
0.0239724
0.0171941
0.000904949
0.0165197
0.123596
0.0715341
0.0392222
0.0571875
0.164934
0.00737139
0.010633
0.00897599
0.0989061
0.488724
0.14359
0.0369499
0.0276483
0.024093
0.00658347
0.0327685
0.0385137
0.06125
0.159304
0.0202393
0.0338198
0.284767
0.336778
0.0346647
0.0421586
0.0997981
0.200933
0.545847
0.0558101
0.0192013
0.0914812
0.0896333
0.0128407
0.0095033
0.0289025
0.0721892
0.298941
0.109959
0.0190667
0.0120303
0.0339364
0.0262149
0.020097
0.0173415
0.0127162
0.307187
0.490507
0.146425
0.0313984
0.112421
0.048797
0.102706
0.186879
0.1526
0.225905
0.035262
0.00972409
0.0285316
0.0501626
0.118421
0.331946
0.238953
0.0440799
0.077021
0.188376
0.106223
0.0628363
0.250451
0.0175412
0.0614224
0.0385643
0.00394037
0.232227
0.37456
0.212923
0.0251871
0.0310679
0.0600888
0.256206
0.180328
0.0135995
0.0636878
0.114372
0.129828
0.025059
0.0164404
0.0932009
0.252947
0.182673
0.00871577
0.117349
0.148215
0.200545
0.0453932
0.0813648
0.0293163
0.293452
0.471706
0.0472733
0.107314
0.0265554
0.135808
0.0417651
0.00124156
0.0907421
0.266892
0.118827
0.00534502
0.00325265
0.00397001
0.00299805
0.00271534
0.0252093
0.160511
0.154438
0.0649149
0.000456647
0
0.0108135
0.0659039
0.0974421
0.161356
0.0627054
0.296921
0.481118
0.0330086
0.0128375
0
0.00452556
0.00452556
0.0504311
0.15945
0.235853
0.300964
0.0151681
0
0.00550847
0.22096
0.210817
0.374645
0.0255614
0.00654021
0.00326007
0
0
0.0695277
0.180907
0.0756605
0.0482633
5.00304e-005
0
0
0
0
0.138391
0.588665
0.0775872
0.00357458
0.0253504
0.0148042
0.0114979
0.000381462
0
0.0178992
0.332479
0.172778
0.0877787
0
0
0
0
0
0.0395141
0.588665
0.162671
0.00179016
0
0
0
0.000424196
0.000698433
0.0298259
0.460947
0.091372
0.00154717
0.00446436
0.00127414
0.00683395
0.00162269
0.00180578
0.00717463
0.257824
0.0822206
0.00886868
0
0
0
0
0
0.00974958
0.556931
0.13289
7.79481e-005
0.000123056
0.000492226
0.000976278
5.1383e-005
0
0.0094167
0.556931
0.108274
0.00416315
0.0298791
0.0114294
0.0232701
0.00547522
0.0018376
0.0120322
0.150356
0.0716135
0.0441562
0.0327879
0.0104011
0.05273
0.0506112
0.0198355
0.0148528
0.0233064
0.0469221
0.0549548
0.00625742
0.0038691
0.00555279
0.00437492
0
0.033709
0.85067
0.17379
0.0426585
0.0118867
0.00232146
0.0409268
0.0525645
0.00540683
0.0957594
0.218299
0.160183
0.0728953
0.0497875
0.0353799
0.136669
0.237911
0.134887
0.0586997
0.0328313
0.0210719
0.0554042
0.0440634
0.129066
0.187824
0.206066
0.165019
0.104369
0.0344529
0.00671529
0.026464
0.0759532
0.0729912
0.110131
0.141527
0.0442801
0.301005
0.201087
0.0896548
0.21447
0.186135
0.221482
0.216279
0.160758
0.0435865
0.153678
0.0561626
0.00286085
0.204814
0.189564
0.032694
0.0224915
0.0209129
0.0499792
0.022144
0.000397732
0.0584555
0.336284
0.0568231
0.0237872
0.0518927
0.094537
0.0534101
0.0280858
0.0328294
0.460668
0.43548
0.0869009
0.0418917
0.0313813
0.0717242
0.12511
0.0644276
0.00423273
0.0563798
0.0848312
0.126383
0.144764
0.211847
0.294675
0.290952
0.0456339
0.0120856
0.148319
0.0562482
0.035104
0.0313803
0.0802651
0.045093
0.042389
0.00493308
0.0236479
0.283859
0.173577
0.0460105
0.0405907
0.136137
0.131674
0.196765
0.0179847
0.0230147
0.126333
0.107745
0.119556
0.172326
0.334901
0.102595
0.0639322
0.00315179
0.00749805
0.092925
0.0552907
0.0744234
0.232844
0.648198
0.142797
0.0946189
0.00184271
0.012853
0.0560125
0.067105
0.0153084
0.0596914
0.173361
0.133302
0.0707164
0.0059167
0.0066275
0.014662
0.0134168
0.0335209
0.284992
0.275769
0.0528797
0.00498401
0.00705623
0.00370004
0.0074823
0.0396619
0.00481706
0.122194
0.464686
0.182505
0.0438208
0.000606225
0.0039765
0.00751548
0.00670465
0.00486569
0.328267
0.576616
0.094028
0.00599543
0
0
0
0
0.0209636
0.174055
0.192595
0.00398945
0.0139955
0.00543793
0.00933105
0.0040045
0.0122929
0.00576582
0.191508
0.400622
0.0186374
0.0205638
0.000776848
0.00728393
0.00315003
0.000254544
0.00257297
0.286684
0.404867
0.00444958
0.00037729
0
0
0
0
0.00862921
0.354281
0.553936
0.0210509
0
0
0
0
0
0.0185444
0.286077
0.539139
0.0324124
0.00452399
0
0.000586706
0.000586706
0.0214621
0.0756429
0.152624
0.297029
0.0219721
0
0.00932761
0.235524
0.0950205
0.153038
0.0237608
0.299652
0.440154
0.0443996
0
0
0
0
0.00339574
0.084272
0.124711
0.126216
0.0186081
0.00174124
0.023774
0.123709
0.0439123
0.0237702
0.0156007
0.00687949
0.013411
0.00104766
0
0.015489
0.367256
0.087976
0.0354891
0
0
0
0
0
0.0204108
0.578506
0.109903
0.00024478
0.0169718
0.00497739
0.00459201
0.000665187
0.00106411
0.033679
0.293425
0.0631837
0.00534399
0
0
0
0
0.000152016
0.0489539
0.578506
0.150259
0
0
0
0
0
0
0.011569
0.406567
0.0711938
0
0
0
0
0
0
0.0131355
0.509933
0.10482
0.000287
0
0
0
0
0
0.0308434
0.468173
0.0726768
0
0
0
0
0
0
0.0196135
0.509933
0.148766
0
0.00026985
0
7.36542e-005
0.00017186
0
0.00585199
0.391034
0.161055
0.00430173
0.00323414
0
0.000963409
0.0020347
7.46781e-005
0.0182569
0.15526
0.179856
0.0401943
0
0
0
0
0
0.00331196
0.536971
0.250556
0.00030649
0.00212845
0
0
0
0
0.0020201
0.517277
0.299882
0.0326403
0.0801359
0.0232083
0.00343689
0.00392618
0.000745466
0.0519533
0.0933314
0.1351
0.193175
0.223073
0.0719261
0.0206921
0.0324456
0.00249373
0.0198229
0.0124045
0.00753296
0.214402
0.116783
0.0270372
0.00278939
0
0
0.0105911
0.595065
0.295479
0.181014
0.331333
0.12211
0.0200146
0.00418083
0.000172255
0.00467101
0.13304
0.0554532
0.261742
0.0260361
0.0217477
0.053642
0.0755756
0.109127
0.0222233
0.00438097
0.0243912
0.0258209
0.259518
0.197673
0.181503
0.128784
0.237812
0.0207758
0.00614434
0.0144886
0.0655927
0.0174464
0.0267091
0.0569506
0.161672
0.247247
0.0693963
0.0421222
0.0232626
0.0188171
0.321186
0.219739
0.159966
0.196037
0.512685
0.125087
0.215662
0.0346375
0.215928
0.241946
0.190516
0.244227
0.0371036
0.0524047
0.00624718
0.016905
0.00915691
0.105869
0.0925183
0.229103
0.515116
0.0240572
0.0106661
0.00325449
0.0247007
0.0110836
0.059797
0.304472
0.190514
0.104147
0.045397
0.0976821
0.0450677
0.180657
0.0411591
0.277056
0.106318
0.13282
0.216831
0.0276926
0.00177299
0.0236328
0.238495
0.136895
0.12626
0.00625359
0.139499
0.383143
0.0806206
0.0524323
0.00549045
0.0058617
0.00530486
0.00229182
0.00115636
0.182465
0.526165
0.195538
0.0795887
0.0297922
0.016962
0.00365016
3.74804e-005
0.0143606
0.0582854
0.140432
0.0491439
0.122506
0.0464984
0.132896
0.105347
0.00587363
0.00399579
0.051126
0.199027
0.245591
0.204763
0.238546
0.319851
0.144387
0.000262363
0.0021596
0.248967
0.520641
0.0902365
0.0124167
0.0128092
0.0229708
0.00432928
0
0.0144483
0.291144
0.399352
0.0351983
0.000905678
0.00358015
0.00864118
0.00204415
0
0.00027612
0.0523879
0.215105
0.141661
0.0317073
0.156989
0.393795
0.115287
0
0.00265872
0.0537656
0.128351
0.0398468
0.00662138
0.101871
0.202352
0.0422675
0
0.0580143
0.483943
0.567363
0.0863535
0.00159401
0.00314245
0.00186125
0.00738914
0.00811657
0.135411
0.147879
0.151788
0.0222159
0.0220088
0.0612461
0.11606
0.058534
0.0318118
0.0137044
0.125671
0.138659
0.0342466
0.0216722
0.0823997
0.0866655
0.0768469
0.0128194
0.042747
0.0696898
0.0844424
0.0127947
0.0286757
0.008243
0.0426975
0.0437956
0.0421354
0.0122106
0.00396412
0.00238765
0.000206625
0.00600878
0.0413956
0.169206
0.0577207
0.00269901
2.35346e-005
9.41385e-005
0.00255021
0.00311692
0.000858397
0.101653
0.799312
0.174579
0
0.0134856
0.0220025
0.0122802
0.00526603
0.00416977
0.0149101
0.0594547
0.0180121
0.00696217
0.0132723
0.0898359
0.217374
0.0332814
0.000515038
0.0617536
0.353286
0.0677846
0.00612434
0
0
0.0045027
0.0126833
0.00910421
0.0759004
0.526573
0.108915
0
0
0
0.00270162
0.01717
0.0424419
0.105613
0.524694
0.136502
0
0.00109923
0.0864672
0.221067
0.0981457
0.0502095
0.0782512
0.270062
0.056953
0.000538362
0
0.0551117
0.166906
0.171925
0.204476
0.154558
0.227913
0.0455375
0
0
0
0
0.00217032
0.0138938
0.0336754
0.415471
0.122156
0
0.000140061
0
0
0
0.000375195
0.0788294
0.622322
0.179382
0.010584
0.000362289
0.00945798
0.0739132
0.0467859
0.0718853
0.0854867
0.20076
0.0267988
0.00688347
0.112269
0.00980213
0.0649448
0.0269336
0.0280409
0.223473
0.392567
0.14522
0.138648
0.0112436
0.00311615
0.00108926
0
0
0.0507408
0.312845
0.15433
0.0462266
0.029095
0.0181142
0.00762483
0
0.00630553
0.0119693
0.115919
0.156801
0.0743578
0.159035
0.00137456
0.0298734
0.00531802
0.0103008
0.1201
0.263308
0.350781
0.292636
0.0561201
0.00108926
0.0397249
0
0.0997192
0.161116
0.415947
0.429473
0.22241
0.0202073
0.0361046
0.0266175
0.108447
0.109833
0.0486463
0.0338161
0.0190917
0.0362077
0.128051
0.136082
0.109959
0.13162
0.21482
0.0853768
0.191089
0.0570824
0.224643
0.170544
0.133862
0.180762
0.142215
0.0361437
0.00559123
0.00425325
0.00821175
0.148195
0.134948
0.312549
0.577007
0.298223
0.069656
0.0226126
0.038352
0.0309324
0.14532
0.17422
0.163524
0.0560611
0.0435429
0.0507038
0.0313214
0.142832
0.0706962
0.319392
0.055761
0.0622568
0.0267842
0.0440639
0.00662135
0.0201966
0.254229
0.23818
0.166296
0.150137
0.246657
0.194719
0.132646
0.132526
0.0543302
0.101127
0.0561048
0.271354
0.0550862
0.037511
0.00365525
0.203705
0.27816
0.0855832
0.295167
0.257869
0.199935
0.00332286
0.00426794
0.00756408
0.0119155
0.0378887
0.0281592
0.23105
0.155694
0.014769
0.0013987
0.00148905
0.00481612
0.0292892
0.0598592
0.149309
0.415954
0.170192
9.18386e-005
0
0
0.000133844
0.0563712
0.058381
0.039455
0.39306
0.245366
0.0207194
0.00154053
0.000513509
0
0
0.0024949
0.103117
0.5967
0.176899
0.000254666
0
0
0.00561965
0.0133162
0.00673257
0.117032
0.389871
0.10132
0
2.61592e-005
0.000350268
0.0049422
0.00381521
0.00184928
0.102844
0.341016
0.097459
0
0.0032777
0.00109257
0.000799089
0.000342467
0.000264284
0.0915584
0.421131
0.0931971
0
0.00196662
0.000761123
0.00164857
0.000570778
2.84637e-005
0.163046
0.610312
0.183765
0
0.00231762
0.00472326
0.0155423
0.00165512
0.00490772
0.07145
0.153047
0.0760272
0.00217469
0.0166352
0.0257183
0.043709
0.0167503
0.00519358
0.00955288
0.0128629
0.0133765
0.0066291
0.0116899
0.0065848
0.0251964
0.000206862
0.000504243
0.16819
0.712223
0.335699
0.00818375
0.0790966
0.269162
0.276697
0.0337506
0.00074194
0.0187966
0.151423
0.158223
0.0165203
0.0136863
0.0459779
0.0589638
0.0229417
0.000336829
0.000896536
0.00496904
0.00257525
0.00307291
0.0147735
0.231294
0.313722
0.0257091
0
0.00430222
0.0234313
0.0070945
0.00365427
0.0284315
0.260335
0.318293
0.0471385
7.38716e-005
0
0.0035175
0.00357595
0.00182479
0.00940589
0.465803
0.621417
0.0444305
0.000180272
0
9.91159e-005
3.30387e-005
0.000522039
0.00774808
0.20528
0.344299
0.0404207
0.0162811
0.00980645
0.0236029
0.00384426
0.000501193
0.00971258
0.115907
0.295125
0.0917471
0.0648167
0.0232349
0.0154083
0.00122935
0
0.0106358
0.300325
0.378877
0.0100295
6.72089e-005
0
0
0
7.1599e-005
0.0161876
0.264046
0.595845
0.0153199
0.000269017
0.00080705
0
0
0
0.00185989
0.0408192
0.201021
0.0343054
0.0290038
0.0213907
0.0260809
0.00245027
0.00861958
0.160134
0.0350052
0.157663
0.0354903
0.0597556
0.0508538
0.151438
0.0417659
0.195877
0.0058354
0.193699
0.526976
0.0100416
0.00525113
0.00065729
0.0143875
0.00253897
0.019819
0.224418
0.222158
0.365804
0.0156462
0.0352555
9.38986e-005
0.136016
0.0234215
0.454996
0.239606
0.0148966
0.0552995
0.00742257
0.0193523
0.0334773
0.108481
0.0962085
0.234623
0.173942
0.0570606
0.0725854
0
0.0887619
0.164363
0.212815
0.132719
0.118083
0.404218
0.0959724
0.0563366
0.00377021
0.0116114
0.00899064
0.066502
0.026073
0.417931
0.474132
0.208276
0.0502076
0.00483589
0.0635902
0.0732644
0.0489206
0.0291604
0.151167
0.276409
0.126049
0.151487
0.0610999
0.0145026
0
0
0.000928712
0.2091
0.110531
0.194327
0.38112
0.237923
0.0953391
0.0384067
0.022921
0.00870171
0.0522587
0.370803
0.0776555
0.0427037
0.0217257
0.00687208
0.000692289
0.00191632
0.0087123
0.417233
0.204617
0.104155
0.0828717
0.129913
0.0634658
0.029904
0.0196266
0.0954348
0.300411
0.0221456
0.079703
0.0878269
0.157895
0.168439
0.0790623
0.0683351
0.0297218
0.0528439
0.0524131
0.0124183
0.00140961
0.171188
0.281877
0.125287
0.143256
0.171172
0.140813
0.0579552
0.0143261
0.0141405
0.106166
0.089884
0.0704181
0.0430018
0.130549
0.21462
0.264174
0.00440194
0.000201374
0.0694681
0.107899
0.105742
0.0709994
0.216867
0.642352
0.115124
0.0215925
0
0.0368737
0.0555266
0.0417476
0.186375
0.152313
0.08817
0.133369
0.0687318
0
0
0
0.035574
0.322445
0.119034
0.0258621
0.455344
0.0534567
0
0.00656504
0.0178969
0.0229576
0.04927
0.0929348
0.394863
0.46855
0.143001
0
0
0
0.0246465
0.185472
0.128772
0.199391
0.0445443
0.0449657
0.00437832
0.00133465
0
0.059814
0.268501
0.0876471
0.012209
0.0150323
0.00607171
0.0140392
0.00222442
0
0.113135
0.58756
0.150002
0.00972566
0.116416
0.0777436
0.0039754
0.00080079
0
0.0655335
0.330956
0.222485
0.0817125
0.0212251
0.0105582
0.0178624
0.00133465
0
0.0790304
0.448264
0.239158
0.0280563
0.0141394
0.0148409
0.0211432
0.000311505
0
0.0399618
0.48987
0.233308
0.0261922
0.0753319
0.247165
0.310543
0.0381746
0
0.0025914
0.180762
0.1752
0.0415447
0.0641813
0.0259796
0.0136152
0.000186903
0.000533821
0.0220656
0.318444
0.222398
0.081321
0.265346
0.224388
0.221828
0.049792
0.000889701
0.00386915
0.124932
0.166176
0.128132
0.0254907
0.270877
0.32279
0.0449684
7.29109e-005
0
0.00472268
0.0119011
0.00452616
0.00159058
0.270986
0.40383
0.030573
0.000510376
0
0
0
6.50512e-005
0.0721848
0.16133
0.260942
0.0576213
0.00315075
0.000372494
0.00196321
0.0118777
0.0144283
0.00409823
0.176367
0.614599
0.0716977
0.0214034
0
0
0
0.000455358
0.00094159
0.16158
0.204104
0.00438279
0.000130869
0
0
0
0
0.00156932
0.270221
0.406805
0.0059832
0
0
0
0
0
0
0.194272
0.457366
0.0356961
0.00548819
0
0
0
0
0
0.398816
0.484607
0.0196512
0
0
0
0
0
0.00266933
0.234134
0.575454
0.0238555
0.000717358
0
0.00243838
0.000430303
0.00874159
0.100386
0.253872
0.360625
0.032859
0.00277069
0.0040435
0.0329089
0.0139618
0.218309
0.000117759
0.217192
0.428543
0.0504873
0.0149395
0.00053097
0.00410996
0.00100278
0
0.00648534
0.0686094
0.210521
0.0861877
0.0427354
0.0198808
0.0417845
0.0129803
0.0137126
0.379384
0.194626
0.0825553
0.0119679
0.00360557
0.0177219
0.0751213
0.0793355
0.487664
0.531053
0.239415
0.0530511
0.0620981
0.0267063
0.0142078
0.0349662
0.0735556
0.20244
0.0233688
0.0538367
0.0434352
0.0395961
0.0688649
0.0764774
0.0897758
0.0537528
0.0453723
0.0689559
0.0833921
0.0368147
0.0660993
0.0627916
0.0501759
0.0490305
0.0667224
0.0414112
0.235676
0.0198795
0.00166682
0.00287809
0.000784648
0.00498771
0.0151959
0.0290767
0.373373
0.163818
0.0291026
0.00358591
0.0236923
0.00354568
0.00906757
0.0264687
0.170549
0.40802
0.25631
0.0057443
0
0
0.00130775
0.00418939
0.0139124
0.0128161
0.348459
0.286889
0.00964728
0
0
0
0.00915084
0.0290356
0.0591311
0.42729
0.117375
0.0154193
0.00272119
0.0148426
0.00740615
0.0130806
0.0173641
0.114603
0.26068
0.356228
0.02337
0.00433359
0.00734581
0.00444369
0.0150258
0.0144546
0.0720852
0.621874
0.210322
0.0248751
0.00597244
0.0121889
0
0.00258682
0.0119278
0.0263684
0.202432
0.308624
0.0496671
0.0151032
0.0203148
0
0
0.000840659
0.00241942
0.31657
0.439721
0.0259302
0.000749628
0.000363038
0
0.00183051
0.00288678
0.0136964
0.370491
0.405736
0.0488209
0
0
0
0.0302728
0.201166
0.107554
0.239287
0.277265
0.0110833
0.00334197
0.00254127
0
0
0
0.00158052
0.219688
0.246735
0
0
0
0
0.00882515
0.0888122
0.0701744
0.315129
0.0394002
0.0100024
0.000236205
0
0
0.0320106
0.319197
0.149669
0.0430206
0.00266941
0.0025087
0.00165343
0
0
0.0532443
0.444132
0.186163
0.00780581
0.0600479
0
0
0
0
0.0262371
0.24327
0.103432
0.119556
0.0622335
0.000221401
0
0
0
0.0702931
0.640186
0.247317
0.0431052
0.049874
0.0129507
0.00284275
0
0.0020536
0.0723759
0.26653
0.175127
0.0509442
0.197811
0.0894115
0.0780155
0.0645034
0.00342267
0.0448578
0.0561417
0.0641531
0.0951695
0.0430457
0.00467347
0.00176344
0.0133562
0.00123216
0.154073
0.572969
0.331593
0.123051
0.132866
0.114991
0.122208
0.284503
0.00744025
0.145415
0.160774
0.115358
0.211209
0.0488301
0.0558214
0.113926
0.0474153
0.012531
0.0148228
0.00348897
0.0285914
0.022736
0.0121112
0.0636963
0.362783
0.132347
0.159813
0.091966
0.00417653
0.0444589
0.0130568
0.071518
0.115322
0.0933191
0.125411
0.0426893
0.0804008
0.0441621
0.0779946
0.0524202
0.0335019
0.0711468
0.104294
0.111969
0.629401
0.46671
0.0621345
0.126073
0.0295066
0.00490041
0.105826
0.440414
0.151602
0.124376
0.0476398
0.00115439
0.00892379
0.00105081
0.00931354
0.203119
0.35682
0.0771704
0.0177898
0.00425354
0.000843914
0.00358879
0.00262024
0.00870223
0.0296003
0.101322
0.132193
0.60007
0.287223
0.0197276
0.0357943
0.00228623
0.022527
0.0336851
0.0895557
0.0839504
0.126621
0.0652955
0.019492
0.028221
0.00811117
0.0133064
0.324039
0.517828
0.138222
0.0680872
0.00591435
0.0516611
0.0295862
0.0248045
0.0100677
0.0240935
0.139403
0.141204
0.152778
0.0710117
0.197317
0.170268
0.0685795
0.0747272
0.0401106
0.14478
0.101776
0.0566806
0.068264
0.0762404
0.104917
0.0665564
0.0786014
0.043006
0.0529249
0.0181641
0.0328017
0.0908147
0.177598
0.320263
0.108001
0.0148515
0.0167929
0.00709217
0.0561511
0.200894
0.229097
0.163343
0.130935
0.0749731
0.0595034
0.0876089
0.00920558
0.0470052
0.26016
0.193417
0.143074
0.0748408
0.0584772
0.0719616
0.0450615
0.00809366
0.00458084
0.0838384
0.246917
0.186608
0.223865
0.0633185
0.0500398
0.0168693
0.00269257
0.0234574
0.282135
0.230583
0.270786
0.209648
0.0325247
0.212652
0.000183038
0
0
7.66193e-005
0.000109558
0.000438945
7.04223e-005
0.299702
0.266473
0.000713778
0
0
0
0.000536137
0.00144436
0.000790385
0.376477
0.246647
0
0
0
0.00202195
0.00523468
0.0121121
0.0178043
0.483707
0.311241
0.0298948
0
0
0.0141537
0.0133461
0.0304256
0.0277097
0.438627
0.209459
0.00235052
0.000834584
0.00244118
0
0.000190593
0.000787529
0.000665704
0.255716
0.275017
0.00568901
0.00242223
0.00406864
0
0
6.19386e-005
9.29078e-005
0.373912
0.241006
0.0435783
0.0103035
0.0167369
0.0219761
0.00310847
0.00699885
0.00574597
0.291619
0.460796
0.11948
0.0387674
0.0533229
0.0663829
0
0
0
0.480307
0.17866
0.00106462
0.000422831
0.000362333
0
0
0
8.29016e-005
0.179222
0.19727
0
0
0
0
0
0.00273043
0.00332543
0.285046
0.38911
0.0672642
0.00778958
0.00985564
0.0135722
0
0
0
0.318186
0.504153
0.0117331
0
0
0
0
0
0
0.504153
0.113912
0
0
0
0
0.00449244
0.0234573
0.0101089
0.227603
0.141807
0
0
0
0
0.0123583
0.117189
0.104341
0.202361
0.335219
0
0
0
0
0
0.000315517
0.000473275
0.514302
0.393635
0
0
0
0
0
0.00835438
0.0393004
0.514302
0.076382
0.00436606
0.000230942
0.0043879
0
0.0136522
0.0793282
0.110412
0.159839
0.133898
0.0584895
0.0215808
0.0706935
0.00176968
0.0146589
0.0237583
0.0384756
0.177722
0.329038
0.00466491
3.29917e-005
0.000626843
0
0
0.0079011
0.0477694
0.492549
0.492549
0.0422147
0.00691417
0.00919132
0.000252811
0
0.00190062
0.0153735
0.492549
0.0875893
0.0896893
0.0504707
0.0660883
0.0341381
0.0336832
0.0201752
0.0143035
0.101825
0.0355531
0.0631317
0.0616915
0.0596456
0.476979
0.19107
0.0306619
0.0231263
0.0381364
0.48678
0.0753609
0.0444533
0.0166951
0.0206807
0.00455107
0.00198065
0
0.308573
0.328986
0.102611
0.145282
0.118483
0.349395
0.044332
0.00598649
0
0.129046
0.00423795
0.0117227
0.0236552
0.0550738
0.674301
0.182991
0.0151741
0.0188896
0.00116179
0.00538328
0.00425892
0.0106283
0.0214948
0.173567
0.0666868
0.0218482
0.029199
0.00411133
0.0787422
0.0323413
0.0786769
0.149149
0.554202
0.113431
0.0209256
0.0231267
0.0166738
0.000858232
0.0059392
0.010553
0.0313109
0.169414
0.094976
0.0371559
0.0634755
0.0109342
0.0641414
0.0539872
0.0669537
0.0399954
0.0717689
0.144276
0.0921378
0.129433
0.0443868
0.135613
0.168739
0.0638899
0.0474755
0.0841569
0.0762517
0.110475
0.165598
0.0593348
0.0484188
0.09305
0.0463958
0.0408929
0.132125
0.11887
0.175394
0.238486
0.0823112
0.103728
0.169955
0.15762
0.258605
0.490792
0.0705454
0.126454
0.0873342
0.0487159
0.105319
0.0869993
0.017711
0.0355576
0.0748932
0.0620074
0.0876553
0.102327
0.0106545
0.0575351
0.0246568
0.00435063
0.02671
0.0823107
0.0774101
0.290602
0.222003
0.0116922
0.0699514
0.0699439
0.0583688
0.170563
0.337963
0.0959625
0.0640454
0.0556621
0.00617131
0.0414021
0.0225427
0.00650323
0.0544585
0.283585
0.336851
0.415697
0.131508
0.013584