0.149872
0.135477
0.0999592
0.0635445
0.0926152
0.0288072
0.0274119
0.0176045
0.0178463
0.102616
0.213233
0.244637
0.150179
0.281291
0.230054
0.0898445
0.316959
0.174383
0.222958
0.164613
0.189879
0.105737
0.0695167
0.0565943
0.0690245
0.0796142
0.0151093
0.138454
0.141246
0.24081
0.122164
0.110304
0.167641
0.109303
0.126754
0.0563455
0.144186
0.0816084
0.0682363
0.0417812
0.041726
0.0635862
0.0196258
0.216892
0.288685
0.313827
0.123438
0.027818
0.0631149
0.119551
0.0447687
0.0460962
0.30339
0.572493
0.0874177
0.0831697
0.0541671
0.040878
0.0170825
0.0367447
0.0155302
0.0579806
0.0819908
0.0820556
0.114289
0.070562
0.234554
0.225631
0.0993618
0.0205235
0.0504206
0.0977214
0.0812605
0.0367486
0.109133
0.13303
0.168842
0.0615468
0.108576
0.180705
0.171625
0.036736
0.0450789
0.21757
0.23251
0.262427
0.088097
0.118579
0.0946523
0.0550108
0.0104322
0.0220235
0.0310187
0.273073
0.398701
0.0882659
0.0352919
0.0191331
0.0172806
0.0583527
0.116819
0.0661843
0.20928
0.499958
0.0701057
0.0255088
0.0110808
0.0157761
0.0888421
0.0859679
0.0862233
0.0885842
0.172062
0.139095
0.112545
0.137985
0.093083
0.201432
0.223676
0.0377868
0.0482791
0.0969983
0.279431
0.0922803
0.0857907
0.119787
0.180489
0.24143
0.105374
0.0582159
0.141917
0.0609743
0.0119032
0.0261632
0.0602557
0.30336
0.482944
0.310268
0.0803427
0.0198963
0.0414672
0.0101331
0.0310419
0.101241
0.100386
0.150531
0.0353067
0.0715351
0.0721511
0.139598
0.0163651
0.0035887
0.0292709
0.145938
0.086375
0.0272435
0.0567256
0.0929019
0.0613492
0.0204554
0.0271785
0.106872
0.216595
0.426977
0.263367
0.0712524
0.0258905
0.012188
0.00126917
0.002663
0.0551422
0.439576
0.28393
0.137846
0.0308038
0.0310097
0.00972718
0.0727163
0.125775
0.425356
0.0837146
0.0819437
0.0727836
0.0226245
0.0278417
0.0330226
0.00994388
0.0726091
0.104075
0.175543
0.169924
0.128448
0.0358843
0.0207958
0.0324768
0.000115913
0.0812462
0.0979837
0.220851
0.0854572
0.160535
0.0176508
0.00718319
0.0232529
0.210686
0.324953
0.384724
0.273099
0.177867
0.345098
0.102325
0.126838
0.152527
0.130454
0.259069
0.185074
0.20553
0.141363
0.10536
0.0366289
0.0496059
0.0736723
0.00041284
0.117372
0.100025
0.157887
0.101947
0.10997
0.0329496
0.034318
0.0524467
0.00844606
0.118344
0.0823427
0.238253
0.12914
0.23805
0.132075
0.439898
0.326866
0.00946361
0.153382
0.123522
0.176489
0.11975
0.186238
0.0813683
0.267384
0.141352
0.00120658
0.0374941
0.0958282
0.0854636
0.0587939
0.0456414
0.0652784
0.0159636
0.0380688
0.0311238
0.0459902
0.0388559
0.0739731
0.0517349
0.111553
0.126415
0.12351
0.244743
0.224158
0.245197
0.0841898
0.0869326
0.123079
0.158329
0.230508
0.0365584
0.0105286
0.00322928
0.00882444
0.0414269
0.144897
0.103385
0.353701
0.558039
0.120765
0.123564
0.077186
0.0781512
0.125863
0.0644902
0.0534751
0.017014
0.0512992
0.086982
0.135507
0.120388
0.259759
0.139885
0.200253
0.112705
0
0.0260923
0.0946764
0.0903481
0.0999118
0.380829
0.518907
0.071233
0.0168271
0.0575323
0.151758
0.0770472
0.102143
0.0552586
0.0897484
0.151844
0.0659045
0.0112553
0.0141495
0.0770307
0.0691344
0.0701932
0.107087
0.134829
0.406595
0.149678
0.0666741
0.211022
0.108006
0.0618585
0.124028
0.0775224
0.0901703
0.0385264
0.0797226
0.0902464
0.162503
0.0244401
0.0459075
0.165889
0.0873431
0.1253
0.0657927
0.10275
0.0121367
0.0865833
0.0298513
0.0751191
0.343425
0.293199
0.16942
0.0671468
0.147281
0.0547949
0.0308908
0.0359644
0.157065
0.413678
0.189614
0.166073
0.106811
0.0493042
0.0593093
0.068223
0.0274166
0.0140121
0.0421204
0.0210396
0.0353452
0.0645516
0.024471
0.0497706
0.0772456
0.188771
0.427713
0.202553
0.0282043
0.0527251
0.0400363
0.0690372
0.048431
0.0396795
0.0424677
0.0533172
0.0973469
0.0276924
0.0458193
0.0867689
0.0635773
0.0518105
0.146877
0.150626
0.684359
0.109075
0.017922
0.0403696
0.068039
0.000328282
0.00231784
0.0106839
0.0924817
0.346587
0.0787402
0.00415829
0.00696116
0.00048249
0.0665087
0.0399479
0.0189651
0.107069
0.419155
0.025823
0
0.00393803
0.0178361
0.00800751
0.00350543
0.0211596
0.0779134
0.516089
0.0444369
0.0154557
0.00993525
0.00237864
0.083195
0.142523
0.099343
0.11175
0.520449
0.0265513
0.0499005
0.018518
0.0254374
0.0622136
0.0746856
0.0942252
0.0212076
0.0690137
0.00277956
0
0.00913464
0.0249979
0.0335296
0.210242
0.398661
0.0235818
0.00287928
0.000293293
0
0.00727428
0.0186378
0.045196
0.262096
0.298542
0.0207311
0.0805129
0.00459023
0.0107159
0.00773788
0.0221268
0.00736888
0.44898
0.586045
0.0128484
0.00195529
0.000488821
0
0.0030835
0.00712367
0.0448496
0.306674
0.374051
0.0162213
0.00187165
0
0
0.00190085
0.0268119
0.139463
0.224849
0.17851
0.00151514
0.000267378
0.0104511
0.140929
0.08949
0.207295
0.016926
0.366262
0.509428
0.00881999
0
0
0
0.00380938
0.0243885
0.0527121
0.209766
0.169943
0.000821435
0
0.0156469
0.194124
0.0802272
0.130083
0.0563823
0.0222101
0.0324221
0.00168753
0
0.043372
0.289473
0.125651
0.101672
0.124051
0.0126462
0.0661203
0.0329075
0.0326058
0.0847364
0.280683
0.10049
0.0532239
0.0207074
0.0141048
0.0094762
0
0
0.050358
0.517291
0.0983869
0.0466206
0.055471
0.00160518
0.00359574
0.00519314
0.00423974
0.102354
0.621112
0.138367
0.0113422
0.116863
0.00738089
0.0590593
0.0650619
0.132934
0.116571
0.118204
0.0401043
0.042421
0.044145
0.0429075
0.0446329
0.0512363
0.0923437
0.0693625
0.0188743
0.00716986
0.034007
0.0649088
0.00101856
0.00992892
0.0229574
0.0273478
0.151444
0.692691
0.238437
0.119071
0.0371992
0.0210185
0.0316904
0.0490184
0.0357158
0.122442
0.134383
0.287281
0.348957
0.0744704
0.113682
0.116536
0.156488
0.0603458
0.0724689
0.0193782
0.00165914
0.0213266
0.0676504
0.138565
0.165588
0.466944
0.235912
0.189023
0.0753045
0.00548899
0.0311001
0.0724365
0.0835208
0.128742
0.0817494
0.0730882
0.170291
0.0485485
0.151146
0.242074
0.121664
0.325979
0.191925
0.178863
0.174669
0.211672
0.112467
0.0350863
0.099748
0.0301436
0.068359
0.0539077
0.328943
0.173552
0.0924432
0.046641
0.00839541
0.0387303
0.016133
0.0197482
0.0611663
0.196365
0.109519
0.050797
0.0911419
0.0242765
0.073584
0.131743
0.229142
0.0676268
0.1695
0.119335
0.0407219
0.0832951
0.0318112
0.288854
0.165712
0.113827
0.0472751
0.107826
0.0598546
0.0043774
0.0474461
0.186656
0.602082
0.0136095
0.000517903
0
0.0106709
0.0351144
0.0906536
0.115203
0.115442
0.231434
0.0319199
0.00552201
0.000812867
0.0403235
0.146765
0.162038
0.0845582
0.0529173
0.104744
0.0243489
0.00304564
0.00203043
0.00751575
0.114467
0.137142
0.134562
0.297531
0.542733
0.0590469
0.191163
0.0728442
0.0366747
0.353667
0.256663
0.136078
0.114285
0.164281
0.0305891
0.0086002
0.00944664
0.0600161
0.124508
0.0883181
0.0182704
0.0253528
0.0501888
0.0374864
0.00870694
0.0596802
0.199428
0.331571
0.0635626
0.00171221
0.0351265
0.0728631
0.186665
0.291803
0.0574734
0.0648846
0.254609
0.0967032
0.0193634
0.0499831
0.124805
0.298409
0.258332
0.200612
0.374742
0.247356
0.063671
0.00258094
0.134727
0.253028
0.0420874
0.0100398
0.0182038
0.163866
0.256326
0.0186898
0.0256337
0.0155839
0.0151774
0.180187
0.24299
0.180576
0.0874406
0.169364
0.013053
0.0695397
0.0270706
0.0217425
0.115463
0.11672
0.18159
0.346448
0.127939
0.0133228
0.0134049
0.0275351
0.045839
0.278726
0.45757
0.385538
0.170099
0.0516821
0.00171521
0.0252837
0.0121323
0.0236995
0.043056
0.29373
0.238744
0.00376814
0.0165152
0.0014408
0.011287
0.00365415
0.00599923
0.0066684
0.354965
0.376983
0.00905466
0.000233679
5.84197e-005
0
0
0.000682453
0.0609389
0.313309
0.271862
0.00858874
0.000589633
0.000147408
0.00293159
0.00123234
0.00203677
0.0164719
0.367592
0.472228
0.0282221
0
0
0
0
0
0.0703797
0.218282
0.285318
0.0124613
0
0
0.000817515
0.00835093
0.0372289
0.120913
0.100804
0.0778371
0.00178018
0
0.00487573
0.0989234
0.121812
0.166608
0.0944747
0.394171
0.479763
0.0247447
0
0.000622438
0.0108276
0.0261538
0.0299087
0.153124
0.243558
0.149591
0.0029071
0
0.0261535
0.338168
0.28226
0.147363
0.0179225
0.00552237
0.000957728
0
0
0.015458
0.258663
0.0819963
0.0490164
0.000442852
0
0
0
0.000293733
0.0350576
0.549433
0.109941
0.00795517
0.0186035
0.0146414
0.0006313
0
0.00026463
0.0483355
0.441572
0.142611
0.042568
0.000265711
0
0
0
0.00185241
0.0691667
0.549433
0.164857
0.00740028
0.0305801
0.000691513
0
0.000570804
0.00122672
0.0274313
0.354533
0.212692
0.113951
0.0642056
0.0066099
0.00661651
0.00336613
0.00292031
0.0213297
0.0609005
0.383026
0.365202
0.0579536
0.00484059
0
0
0.000781213
0.0185589
0.296009
0.277802
0.0814216
0.135435
0.0341369
0.00700322
0.00232464
0
0.0169878
0.11133
0.423248
0.285448
0.0492752
0.0278244
0.0306852
0.0110296
0.00721748
0.0173328
0.0401478
0.295709
0.195408
0.0898792
0.14849
0.155901
0.0551289
0.0159111
0.0121949
0.0442483
0.115069
0.0549694
0.0814885
0.100277
0.0241586
0.00541086
0.000840995
0.0177681
0.112449
0.482877
0.193171
0.207669
0.447443
0.266212
0.0609129
0.00588697
0.0171857
0.120343
0.304372
0.0522581
0.0824304
0.130894
0.129075
0.0351051
0.00727585
0.00170185
0.0138132
0.0394327
0.186821
0.0975998
0.0636907
0.0371232
0.00736295
0.00242165
0
0.00690076
0.234099
0.488712
0.0902478
0.269392
0.262427
0.053227
0.00183461
0.0338114
0.0468145
0.0741122
0.145999
0.134768
0.123747
0.102083
0.169426
0.011315
0.0202868
0.0225418
0.309291
0.451972
0.00447973
0.00570233
0.00842152
0.0242481
0.123711
0.0816515
0.0432839
0.0730409
0.0727527
0.032395
0.164241
0.166533
0.184124
0.193805
0.103691
0.0278659
0.0206297
0.0138137
0.064823
0.0467043
0.0351325
0.126728
0.179594
0.0634914
0.0331523
0.0345499
0.011162
0.157319
0.127416
0.292447
0.639355
0.393018
0.0835648
0.0146273
0.0245024
0.000120196
0.128646
0.243054
0.186048
0.116069
0.0589074
0.0333666
0.0437096
0.0269278
0.0783179
0.183372
0.241964
0.187869
0.0658772
0.0233449
0.0503394
0.0863204
0.0933618
0.172955
0.077112
0.137711
0.351062
0.342061
0.198793
0.0973416
0.0938812
0.0861101
0.0393065
0.0616254
0.226084
0.394435
0.0480462
0.0332095
0.115587
0.179417
0.154295
0.0889994
0.0505837
0.187931
0.229968
0.107211
0.020044
0.0166055
0.0175004
0.0287203
0.0399023
0.055219
0.31027
0.308635
0.074171
0.0106933
0
0
0
0.00266521
0.0265134
0.257716
0.261288
0.0515306
0.00712014
0.0255986
0.0380635
0.0386368
0.0204388
0.0376466
0.47439
0.511322
0.0585266
0.00427208
0
0
0
8.24824e-005
0.0170444
0.200346
0.243937
0.0150179
0
0
0
0
0.000279045
0.0118777
0.227823
0.521977
0.0334514
0
0
0
0.000132755
0.00199202
0.0105004
0.303599
0.428213
0.012924
0
0
0
0
0
0.0237979
0.21986
0.444592
0.0163719
5.80101e-005
0.000696783
7.48679e-005
0.000929287
0.00656404
0.0595839
0.352266
0.632737
0.0451243
0.00131697
0.00527211
0.013506
0.0157984
0.0212272
0.0822653
0.177717
0.126451
0.00635249
0.00219495
0.0806182
0.409319
0.147335
0.0538993
0.0644782
0.117152
0.267685
0.0212865
0.00237051
0.00843053
0.0047366
0.0237693
0.0505135
0.0520517
0.022713
0.0256836
0.00458807
0.00398385
0.0504244
0.104723
0.0711518
0.0959453
0.0065655
0.005587
0.000248526
0
0.00043022
0.0614312
0.417639
0.055267
0.0122151
2.49539e-005
0
0
0
0.0019823
0.0735805
0.555071
0.105768
0.00169742
0.00681134
0.00361656
0.00110159
0.000481758
0.000341376
0.0411348
0.237024
0.0511737
0.0251559
0.000174678
0.000457925
0.000325252
6.88226e-005
0.000283185
0.0567138
0.583938
0.17572
0.0032124
0.0146257
0.00190303
0
0
0.000834854
0.0256544
0.296322
0.157055
0.0111318
0.0435956
0.0133212
0.0181411
0.00675291
0.00960426
0.0551734
0.195273
0.166709
0.0554589
0.000242946
0
0
0
0.000119265
0.0339712
0.618939
0.188865
0.000699293
0.00170062
0
0.0108847
0.00405174
0.0160071
0.0998414
0.541557
0.165531
0.00684852
0.0559854
0.109339
0.053904
0.0151313
0.055688
0.0676742
0.0964871
0.139512
0.0725111
0.225516
0.389943
0.198697
0.0202611
0.0587028
0.0469844
0.129513
0.134007
0.0546652
0.0252026
0.0580455
0.046425
0.0219904
0.0956896
0.101678
0.341354
0.090809
0.09845
0.186661
0.399177
0.335596
0.131972
0.117971
0.0469275
0.208998
0.114176
0.163316
0.10134
0.158937
0.178647
0.019618
0.00420672
0.0683238
0.0944212
0.0328108
0.0459434
0.0859419
0.0913358
0.135103
0.272217
0.0536382
0.0956188
0.115844
0.0701053
0.0984109
0.252117
0.229102
0.293761
0.0709381
0.0128374
0.045585
0.0999671
0.0315031
0.0759623
0.403759
0.220278
0.32004
0.166223
0.154654
0.251277
0.195815
0.00593701
0.121742
0.10796
0.127343
0.0369666
0.17012
0.0949795
0.0295663
0.0158176
0.0154293
0.0227244
0.288916
0.174929
0.126574
0.290359
0.253163
0.0343474
0.0258505
0.0278377
0.023007
0.1486
0.15262
0.0455485
0.185737
0.0957404
0.067814
0.062398
0.0691978
0.168272
0.416171
0.223983
0.0241666
0.153159
0.137205
0.0652161
0.14727
0.123592
0.38586
0.126109
0.0767218
0.190083
0.209468
0.319386
0.0934502
0.102408
0.0990387
0.0119739
0.0273207
0.135187
0.29674
0.0489474
0.103368
0.0851536
0.105962
0.100235
0.00357023
0.190961
0.0711861
0.0175148
0.0778624
0.183299
0.0992295
0.363589
0.208658
0.183532
0.0172379
0.0463891
0.0360955
0.0339125
0.119217
0.106816
0.399748
0.213571
0.00975165
0.015925
0.123957
0.137932
0.117317
0.115567
0.0397553
0.0172149
0.0152307
0.00197362
0.0231635
0.381583
0.393917
0.146178
0.134356
0.0787308
0.0210942
0.0273778
0.000281946
0.00490156
0.0213291
0.0254625
0.0700833
0.193332
0.151848
0.149811
0.0853037
0.00322935
0.00542135
0.0860083
0.125668
0.0837756
0.224358
0.257196
0.405661
0.330769
0.00357779
0.0175355
0.38613
0.529398
0.04485
0.0258179
0.0359496
0.0178527
0.024434
0
0.027947
0.180825
0.252002
0.0296415
0.00132202
0.00754322
0.00582192
0.00470381
0.00881658
0.00813022
0.075102
0.142323
0.0358011
0.044383
0.128458
0.482384
0.238587
0.000699694
0.0119953
0.0263747
0.0458272
0.0416785
0.00573836
0.0434285
0.166018
0.0279939
0.00415
0.174085
0.205041
0.191846
0.0329782
0.00839637
0.0698495
0.0546975
0.105851
0.163641
0.100187
0.0670969
0.0574875
0.0196363
0.0100762
0.0904304
0.10139
0.309115
0.25238
0.0637087
0.0674968
0.0970884
0.0812445
0.01993
0.101405
0.182005
0.0557479
0.0448763
0.0615749
0.112698
0.148828
0.0235703
0.0286781
0.0767886
0.177103
0.159671
0.0631599
0.00890376
0.0156804
0.00856033
0.00331702
0.000468632
0.0230243
0.111006
0.0583427
0.0198257
0.0190589
0.0191358
0.00908748
0.00047386
0.00489066
0.0677585
0.786003
0.258065
0.00337927
0.0205747
0.0608129
0.0282498
0.00306966
0.00557944
0.0130332
0.0203646
0.015941
0.0153756
0.0550382
0.32447
0.179302
0.000438523
0.00986064
0.0510113
0.162252
0.092089
0.0175196
0.00355709
0.00690105
0.00786191
0.0103774
0.00772665
0.102567
0.499307
0.137505
0.000164878
4.77844e-005
0.00243119
0.00617806
0.0324686
0.0214909
0.206075
0.480808
0.10211
0.00210405
0.0102248
0.189905
0.219239
0.0732169
0.0174668
0.127263
0.163497
0.0451727
0.00134591
0.000334491
0.116351
0.252301
0.232335
0.0792916
0.240678
0.195069
0.027946
0.00172919
0.00289258
0.0128295
0.0188649
0.0323794
0.0442935
0.0959722
0.340581
0.132039
0.079877
0.0500883
0.197163
0.291635
0.183841
0.0965689
0.0319659
0.31637
0.200363
0.156172
0
0.052433
0.145045
0.129466
0.0775971
0.107512
0.146481
0.0691691
0.0114193
0.0560768
0.243203
0.381438
0.103904
0.071096
0.109532
0.250566
0.187084
0.0871182
0.103357
0.151393
0.233863
0.0838889
0.0334923
0.0136814
0.0802919
0.0629388
0.0626159
0.322533
0.240963
0.289318
0.0854788
0.123801
0.0950031
0.0468215
0.0757054
0.13313
0.113804
0.186544
0.237413
0.0763771
0.0423276
0.0210959
0.0630316
0.118464
0.135214
0.213798
0.215748
0.157895
0.096637
0.339111
0.0576085
0.092797
0.303727
0.194146
0.134491
0.172799
0.0568126
0.115008
0.102033
0.0566083
0.0372984
0.0721797
0.170492
0.263959
0.192704
0.053005
0.0684439
0.0451037
0.110387
0.262458
0.190386
0.465398
0.0454283
0.10394
0.127883
0.285791
0.25633
0.0131442
0.00750879
0.019167
0.0451054
0.0696283
0.149375
0.181128
0.156934
0.148521
0.0765946
0.169082
0.125992
0.150048
0.0367627
0.0137788
0.00453206
0.00586731
0.0114619
0.0628704
0.266525
0.211741
0.104844
0.000192314
0
0.000726164
0.00332928
0.0101903
0.0333343
0.436333
0.229266
0.0140376
0.0186551
0.0191007
0.0559904
0.00475586
0.00547377
0.0623112
0.21609
0.219056
0.121673
0.00733685
0.00290573
0.0196573
0.000298026
0
0.0626952
0.579334
0.323701
0.0626981
0
0
0.000637067
0.00239682
0.0230337
0.0492058
0.24629
0.0879723
0.00396061
0
0
0.00344881
0.000323651
0.0247644
0.075324
0.387279
0.207906
0.00660102
0
0.000372505
0.00149002
0
0
0.0239377
0.576983
0.210866
0.00237637
0
0
0
0
0.00347651
0.0591897
0.50097
0.199381
0.00396061
0.000289281
0.000236446
0.00374463
0.00154023
0.00369097
0.061458
0.416108
0.122653
0.000938896
0.0046182
0.00312035
0.00435181
0.00445357
0.00103744
0.0558668
0.246044
0.0561003
0.000588408
4.13258e-005
2.75506e-005
0
0
0.00365375
0.104141
0.493465
0.122545
0.000563338
0.0017123
0.000631295
0.000722097
0.000607263
0.000521964
0.0914758
0.604676
0.195404
0.000220129
0.010331
0.00987707
0.0168493
0.00923105
0.00196273
0.0268961
0.0872508
0.0413251
0.00319136
0.00650713
0.0588594
0.0481346
0.00837355
0.0133157
0.00810149
0.0161138
0.0175759
0.004148
0.0207272
0.0232733
0.0253781
0.00819086
0.00510632
0.0556259
0.668167
0.244674
0.0202633
0.0285381
0.41174
0.412464
0.0114319
0.0156823
0.014081
0.0983339
0.0541413
0.0321475
0.00359095
0.0636649
0.0727283
0.000938906
0.00661707
0.00605074
0.00153576
0.00276841
0.00504427
0.00976409
0.283581
0.276856
6.94602e-005
0.00259005
0.00613771
0.00256239
0.00425024
0.00710419
0.0017143
0.287857
0.346667
0.00090072
0.00440618
0.00393526
9.54848e-005
0.000287757
0.00234152
0.00402126
0.465891
0.593906
0.000547423
0.0012559
0.00212709
0
0.000328686
0.000986059
0.00495755
0.301372
0.317329
0.0263779
0.0035105
0.0139224
0.00456081
0.00236955
0.00103351
0.000945065
0.196119
0.323717
0.0917292
0.0235545
0.0259936
0.00780265
0.000812516
9.20421e-005
0.00995782
0.335289
0.349625
0.00108604
0
0
0
4.75635e-005
0.000142691
0.00906092
0.405314
0.438285
0.0143134
0
0
0
0
0
0
0.0872872
0.164367
0.0275443
0.0107006
0.00780747
0.00639709
0.00156648
0.000181797
0.0448228
0.23142
0.321975
0.0158781
0.00438009
0.0182381
0.0120268
0.0127957
0.0327277
0.00236057
0.276941
0.426329
0.0170563
0.000643771
0
0
0
0
0.021738
0.452142
0.532554
0.0462953
0.00505246
0
0.00308105
0.0147819
0.0309712
0.208789
0.201921
0.161756
0.0188402
0.0054513
0.00724577
0.0151263
0.0399858
0.194273
0.279458
0.24445
0.0408766
0.0893852
0.243887
0.0229273
0.084708
0.12832
0.237535
0.161006
0.274031
0.246887
0.038744
0.00282442
0.00783463
0.0182402
0.0456202
0.218514
0.256242
0.266217
0.0885956
0.164303
0.0680916
0.0287674
0.0297842
0.0378862
0.338651
0.0371525
0.0163707
0.153342
0.276843
0.144825
0.0479896
0.0880112
0.0326991
0.0535499
0.0584
0.0926556
0.203124
0.196718
0.0929552
0.0407528
0.126013
0.0566765
0.036169
0.183648
0.0938355
0.192629
0.174033
0.0337269
0.120685
0.264325
0.0797368
0.0594593
0.151958
0.347576
0.342424
0.199217
0.0227114
0.164253
0.31982
0.0654397
0.00600402
0.0412125
0.0322296
0.11584
0.0301185
0.00691629
0.0255636
0.0703855
0.0581888
0.0584283
0.0729479
0.0350918
0.067277
0.0161531
0.00745737
0.067658
0.417758
0.182107
0.13456
0.115421
0.184353
0.293125
0.0880072
0.0349031
0.0223779
0.0326279
0.020795
0.0551699
0.35387
0.136602
0.234874
0.0768214
0.0522016
0.0927479
0.180486
0.110239
0.508109
0.0159872
0.00654637
0.00325087
0.000570896
0.000697762
0.0260404
0.373273
0.160299
0.0595198
0.000118389
0
0
0
0.00102651
0.0328949
0.467364
0.142822
0.00775989
0.0877274
0.0356393
0.0193103
0.03192
0.00581881
0.183863
0.318379
0.116378
0.233345
0.001235
0.00365651
0.00378639
0.0253763
0.00155746
0.167701
0.528352
0.127274
0.0249299
0
0
0
0
0.00120914
0.0354509
0.303247
0.0719573
0
0
0
3.98086e-005
7.39302e-005
0.000172735
0.0247736
0.498832
0.137996
0.00090669
0
0
0
0.00223453
0.000248281
0.0332167
0.558279
0.0969758
0
0
0
0
0
0
0.0343687
0.489672
0.121968
0.00649709
0.0531614
0.015598
0.0291878
0.000558933
0.000947179
0.00967747
0.458729
0.142005
0.0355288
0.0908464
0.267961
0.369431
0.00147388
0.00175494
0.00202754
0.122337
0.0389399
0.0554639
0.123206
0.0273015
0.0281056
0
0
0.0131858
0.376453
0.151535
0.080992
0.221883
0.28423
0.335282
0.00493661
0.00123415
0
0.115611
0.0571853
0.10811
0.0115581
0.269042
0.32467
0.00186103
0.000561726
0.000141709
0
0
0.00585375
0.0029367
0.278206
0.335368
0.00237515
0.000233116
0
0
0
0
0.0301623
0.248065
0.279638
0.0110024
0.00271969
0
0
0
0.0102026
0.00287676
0.380966
0.534835
0.0150489
0.00163181
0
0
0
0
0.00253521
0.165131
0.178541
0.00334094
0
0
0
0
0
0.00442119
0.357634
0.316722
0.00655104
0
0
0
0
0
0.000579618
0.290274
0.407916
0.0264504
0
0
0
0
0
0.0146018
0.445853
0.460241
0.0414235
0
0
0
0
0
0.00424709
0.38978
0.456627
0.0113783
0.00628755
0.000447046
0.000559094
0.000139773
0
0.00205865
0.324044
0.418422
0.0789592
0.0459333
0.00312933
0.0277235
0.0401746
0.00865643
0.0281878
0.376313
0.272028
0.0185343
0.00806418
0.000745077
0.00509614
0.00373753
0
0.0429335
0.19998
0.133938
0.0460187
0.0576016
0.00521554
0.042617
0.0582065
0.0247445
0.0463961
0.24197
0.168469
0.103182
0.0314748
0.0200482
0.135166
0.141103
0.0800636
0.089994
0.181716
0.171566
0.225438
0.0222141
0.0342573
0.133601
0.0810939
0.154727
0.0556893
0.280024
0.152367
0.0667412
0.03721
0.0095308
0.136014
0.121059
0.0844596
0.120819
0.541057
0.295233
0.0967387
0.112051
0.0536129
0.124247
0.0768162
0.0543099
0.0909431
0.0803217
0.0662061
0.0717728
0.0608556
0.0286175
0.0436215
0.0126438
0.0158001
0.103113
0.3989
0.15658
0.12211
0.039511
0.041763
0.0467608
0.00875824
0.00180473
0.0472629
0.0650096
0.0296922
0.138396
0.260505
0.225725
0.0684642
0.00875655
0.0213561
0.156396
0.431552
0.161489
0.316369
0.210828
0.4041
0.0742777
0.0336561
0.00723196
0.080361
0.278198
0.171383
0.0729282
0.0275723
0.00593038
0.0306085
0.00819826
0.0454406
0.20259
0.211136
0.150249
0.0864268
0.0363557
0.0315308
0.075555
0.0260884
0.226128
0.120414
0.298902
0.299374
0.285208
0.0520237
0.0755772
0.0593192
0.019552
0.0282
0.169884
0.265204
0.40622
0.30198
0.0431557
0.0032897
0.0339159
0.0088876
0.0939749
0.143408
0.196379
0.0557139
0.129604
0.0108995
0.167841
0.179063
0.0419926
0.153006
0.0122675
0.0423503
0.0213305
0.118492
0.00583829
0.162143
0.591982
0.0709113
0.00970216
0.223323
0.286584
0.177852
0.16412
0.0118824
0.0200387
0.0402113
0.0312867
0.122841
0.0830191
0.0826457
0.0589506
0.100307
0.00350298
0.0507915
0.340657
0.122828
0.0836105
0
2.56203e-005
0.000486786
0.00780036
0.000599923
0.0568453
0.467016
0.0534863
0
0
0
0
0
0
0.0883496
0.388372
0.0759272
0.00243855
0.0105376
0.00452502
0.0034075
0.00724135
0.000359954
0.081068
0.436452
0.11507
0.0181754
0.00115294
0.000620811
0
0.00262413
0.00612296
0.119457
0.530754
0.228018
0.0111407
0.0519149
0.0141586
0.0133865
0.00288208
0
0.0330002
0.226953
0.0854481
0.0266502
0.0952174
0.161495
0.222908
0.0102026
0.000491151
0
0.0429044
0.0294367
0.0321406
0.0674208
0.0283298
0.0339243
0.0171885
0.0355702
0.0462858
0.557103
0.17174
0.0266863
0.113833
0.194609
0.591746
0.0818343
0.0670775
0.0131215
0.0936512
0.0400033
0.0321141
0.00927116
0.171493
0.207365
0.00438873
0.000780881
0
0
0
0.00199752
0.00123015
0.331525
0.430963
0.01994
0.000468528
0
0
0
0
0.0109629
0.244686
0.420395
0.0591612
0.0166255
0.00309511
7.84945e-005
0.000706451
0.00199156
0.0268996
0.414176
0.406086
0.0499577
0.00581137
0.000971522
0.003397
0.0102334
0
0.0052885
0.363406
0.535069
0.050337
0.00252065
0
0
0
0
0.0306243
0.327984
0.352762
0.0840263
0.00559586
0
0.00110438
0.00331313
0.0007323
0.0804832
0.244141
0.307407
0.0789609
0.0182505
0.000201981
0.0046849
0.0278341
0.0182538
0.102674
0.135525
0.171865
0.17018
0.0719001
0
0.00246554
0.0369052
0.0951088
0.0408985
0.148737
0.093121
0.0499351
0.00227411
0.000119931
0.00856715
0.0190193
0.0116782
0.0820504
0.150439
0.150369
0.0448312
0.00755568
0.000839519
0.0156701
0.0357287
0.0291636
0.0862978
0.227947
0.185219
0.122605
0.041416
0
0.00734666
0.0292972
0.112404
0.332337
0.699454
0.303314
0.0742112
0.00472185
0.0247068
0.0201584
0.0247322
0.128357
0.0528643
0.194596
0.21628
0.0485333
0.00901665
0.000650204
0.00920117
0.0240367
0.0307881
0.0626408
0.296461
0.174492
0.056088
0.18317
0.0538997
0.0176022
0.0626476
0.0674326
0.235234
0.463351
0.247117
0.187956
0.0392171
0.0629593
0.0346553
0.0070974
0.0318224
0.117208
0.320511
0.150767
0.268751
0.201716
0.16832
0.0632977
0.0452018
0.109421
0.0115219
0.00527559
0.00484029
0.0913412
0.28683
0.244355
0.0878808
0.0206835
0.0242318
0.258365
0.106299
0.0997108
0.123223
0.15402
0.400601
0.150926
0.096199
0.0866415
0.14767
0.0309522
0.073345
0.062796
0.225342
0.143782
0.07294
0.0651817
0.231458
0.376261
0.0494742
0.081617
0.0523344
0.0710387
0.144434
0.137893
0.146819
0.270017
0.251702
0.145261
0.390831
0.189633
0.0277864
0.0984236
0.0590215
0.0365919
0.0550819
0.120166
0.132488
0.492755
0.272756
0.0719329
0.0266545
0.0100979
0.0136285
0.0426661
0.322629
0.110813
0.20163
0.0512015
0.0346649
0.0301991
0.0354536
0.0340058
0.0884495
0.118917
0.111088
0.214628
0.117927
0.137322
0.0453639
0.0549485
0.0983324
0.0503983
0.156251
0.0803578
0.10804
0.112127
0.0781602
0.0842344
0.0448509
0.0947334
0.094487
0.183717
0.0704806
0.0383753
0.0180066
0.0308226
0.123971
0.155744
0.206735
0.123054
0.0779232
0.0583212
0.0466861
0.0770967
0.138622
0.171994
0.135803
0.310505
0.0661359
0.230414
0.207045
0.1487
0.0213408
0.0528096
0.213534
0.240663
0.523772
0.171561
0.0998998
0.0285507
0.0152601
0.00199704
0.00565453
0.0543382
0.171061
0.103515
0.112825
0.0294577
0.00382978
0.00186979
0.00735645
0.0600275
0.16571
0.449745
0.133956
0.0850701
0.254999
0.079046
0.101241
0.0213452
0.0674504
0.0659544
0.211636
0.189633
0.231842
0.114552
0.00808962
0.0130885
0.0243522
0.25619
0.366987
0.391029
0.0784505
0.156259
0.0314197
0.0135036
0.00898317
0.0336595
0.109725
0.157941
0.269198
0.0511749
0.0544189
0.0523662
0.051291
0.248128
0.190029
0.185752
0.080478
0.0391723
0.0136853
0.0769467
0.0442083
0.0101683
0.0102756
0.0530837
0.174657
0.40463
0.261324
0.0197638
0.151573
0.0980397
0.0640358
0.176329
0.39335
0.261259
0.234332
0.0742693
0.00650378
0.242121
0.0119681
0.118801
0.37082
0.230977
0.111735
0.0260746
0.00089405
0.00359655
0.0198806
0.0357422
0.194322
0.17046
0.136608
0.0706514
0.014483
0.0103449
0.0290086
0.0247743
0.0665113
0.099985
0.271267
0.364382
0.255317
0.10403
0.00116346
0.0075379
0.107516
0.225481
0.134813
0.144311
0.236544
0.187735
0.0490966
0.0649743
0.132672
0.330894
0.0778699
0.0910904
0.0618951
0.10547
0.0712727
0.0093666
0.00599753
0.0394832
0.0374204
0.10652
0.0805002
0.110492
0.222985
0.142995
0.00972949
0.00178132
0.106612
0.180728
0.152799
0.0834341
0.0917058
0.23175
0.25763
0.095278
0.111691
0.12601
0.151662
0.325819
0.168391
0.121523
0.404059
0.36402
0.134091
0.107274
0.185991
0.167102
0.0351076
0.171687
0.16154
0.162471
0.0956932
0.00441939
0.00260959
0.0385866
0.0697344
0.19572
0.534446
0.216383
0.0579438
0.0289235
0.0173325
0.0105587
0.0098033
0.0501713
0.160358
0.165227
0.0856991
0.246218
0.17587
0.0374356
0.0337684
0.146098
0.0934761
0.271024
0.391651
0.196087
0.0918569
0.0501066
0.00680527
0.0252821
0.0735124
0.0606963
0.301147
0.380782
0.180368
0.154379
0.0783793
0.0685099
0.0368899
0.000341127
0.0427717
0.178708
0.234976
0.135032
0.234406
0.146293
0.100389
0.0485278
0.0102365
0.0655796
0.325047
0.237446
0.215034
0.108736
0.0774236
0.00978713
0.0083291
0.0020394
0.0499754
0.265523
0.226009
0.1738
0.123259
0.158207
0.0610756
0.015248
0.00146236
0.0379696