0.00130436
0.0465565
0.0709296
0.171224
0.165455
0.135924
0.0645791
0.0241019
0.0275763
0.0133064
0.0633751
0.0424536
0.149568
0.135139
0.0890104
0.0388997
0.109047
0.0534202
0.201728
0.0851543
0.12486
0.179412
0.276547
0.108696
0.302239
0.120341
0.0336127
0.0587405
0.0537718
0.0332154
0.161854
0.199506
0.0817084
0.345814
0.25132
0.0820816
0.058114
0.0085183
0.00339925
0.0598078
0.0441498
0.027607
0.0439301
0.0498896
0.0812824
0.183915
0.00713248
0.0069666
0.00927816
0.00427562
0.0115401
0.0573482
0.0551689
0.207668
0.121022
0.0517825
0.00234084
0.0364432
0.0296088
0.0362498
0.100231
0.146429
0.201395
0.207614
0.0270792
0.00140451
0.00219405
0.00089949
0.0192336
0.0812416
0.286516
0.663121
0.137354
0.0136394
0.0441152
0.0247957
0
0.0119786
0.0386396
0.0327506
0.116722
0.0465814
0.0282451
0.079288
0.0557403
0.0403132
0.262746
0.172118
0.0456323
0.0301222
0.110278
0.0234282
0.0384429
0.00514304
0
0.00529026
0.0175063
0.177692
0.584912
0.162587
0.208598
0.15943
0.109471
0.0584435
0.11395
0.0346554
0.0898138
0.333022
0.0182256
0.0106003
0.022769
0.049396
0.0622137
0.368481
0.143474
0.0510233
0.0169551
0.0311378
0.0214976
0.145896
0.231914
0.0972303
0.183143
0.0707694
0.0621721
0.0361446
0.0800792
0.210924
0.155947
0.197874
0.0668846
0.199825
0.0397772
0.0400914
0.0422164
0.0603764
0.154123
0.307701
0.418677
0.0490323
0.111668
0.0636131
0.0607621
0.0390191
0.0116146
0.0398231
0.105103
0.0681138
0.0245598
0.017447
0.00877319
0.0056275
0.0147244
0.0174683
0.0545206
0.174012
0.157297
0.121374
0.0433866
0.014704
0.000782033
0.010523
0.0180476
0.0732867
0.278895
0.0874078
0.0113532
0.0103409
0.0329896
0.0100698
0.0240429
0.0120934
0.127579
0.796097
0.183439
0.048356
0.00874448
0.0145706
0.00275219
0.016909
0.0251209
0.0303309
0.176753
0.188784
0.103463
0.0513757
0.0141829
0.0341181
0.0186573
0.0353195
0.0283852
0.0805296
0.15762
0.113434
0.118033
0.0623898
0.0568636
0.0243547
0.00286871
0.077982
0.551937
0.200315
0.0497964
0.0635738
0.0342029
0.0590507
0.0305152
0.000206389
0.0211998
0.138893
0.175834
0.441093
0.274099
0.130254
0.0957232
0.0355896
0.00675252
0.0197588
0.0594293
0.277878
0.176667
0.0422213
0.0278405
0.0100958
0.00472393
0.0538236
0.104792
0.1208
0.193708
0.0813054
0
0.00264738
0.0213518
0.0499678
0
0.00814119
0.0509742
0.338475
0.582695
0.152368
0.0485745
0.0243121
0.0130507
0.0416346
0.0997297
0.132832
0.27252
0.197048
0.0404706
0
0.0704795
0.123024
0.090089
0.0657415
0.0342418
0.0213762
0.0118231
0.027911
0.0342371
0.117102
0.129949
0.0293811
0.00495136
0.00603764
0.0839931
0.206203
0.166086
0.146883
0.183115
0.0795903
0.126212
0.158873
0.10018
0.056043
0.0303315
0.0439429
0.0107321
0.0645493
0.179504
0.0753749
0.124887
0.143207
0.335751
0.562734
0.156267
0.0468477
0.0424039
0.101563
0.0342968
0.0346083
0.0550336
0.13471
0.118027
0.0431556
0.0274369
0.0177473
0.00993816
0.165618
0.102841
0.0937127
0.133526
0.0679018
0.0700959
0.0720404
0.0536276
0.0614877
0.00612393
0.0216618
0.0569872
0.385199
0.402273
0.0286181
0.007467
0.00311734
0.00463944
0.0365639
0.0708051
0.0729106
0.438393
0.441675
0.213066
0.0601936
0.0146884
0.00460574
0.166683
0.0258327
0.0348
0.00731335
0.0306267
0.02003
0.160241
0.17353
0.125668
0.0455627
0.0358058
0.0111324
0.00715903
0.0208243
0.0113425
0.178165
0.23886
0.103268
0.0993457
0.00330293
0.00482236
0.00942567
0.110416
0.20813
0.245238
0.359958
0.233704
0.030239
0.0303113
0.0309942
0.037401
0.110346
0.0875091
0.180031
0.509642
0.205984
0.112757
0.147017
0.0196358
0.00164895
0.00330609
0.00362724
0.0297568
0.0859911
0.12198
0.213853
0.182273
0.0117815
0
0
0.00150417
0.00635353
0.0818135
0.420787
0.0861382
0.245092
0.128254
0.0953249
0.0179485
0
0.0292765
0.216496
0.140279
0.360595
0.406066
0.109544
0.0800802
0.00411414
0
0.0166566
0.0616481
0.238046
0.0821999
0.027515
0.00187763
0
0
0.000379142
0.00195334
0.120427
0.422529
0.116377
0.107676
0.0382345
0.0196565
0.00412847
0.00341483
0.0193588
0.188748
0.297347
0.170007
0.0653159
0.00581299
0.00435157
0
0.00343067
0.07024
0.217434
0.289072
0.080006
0.0461403
0.0054813
0
0
0.0240147
0.181343
0.504474
0.238928
0.0650902
0.187514
0.0797673
0.0495144
0.0110729
0.0226041
0.049302
0.0927941
0.0726895
0.0609414
0.176935
0.207193
0.105775
0.0413348
0.053656
0.0551161
0.0399596
0.0422339
0.164411
0.113817
0.0196745
0.00127989
0.00347839
0.0291699
0.137592
0.278782
0.238332
0.375255
0.400448
0.314677
0.0089592
0.0243487
0.0449797
0.0565449
0.0454356
0.27953
0.0216943
0.0989374
0.251511
0.0190624
0.00787356
0.00883164
0.0136398
0.0050046
0.00979564
0.018797
0.19317
0.498035
0.0239795
0
0.000789915
0.00585924
0.00834895
0.0115506
0.0652252
0.292753
0.375205
0.00173826
0.00487746
0.0060115
0.00283148
0.00169175
0.0240701
0.0439665
0.328969
0.453222
0.00113474
0.00182277
0.00542222
0.0166094
0.0125067
0.0113511
0.0212289
0.138384
0.271257
0.0347924
0.0222986
0.0479545
0.057251
0.0449473
0.0390863
0.00301149
0.0233595
0.0409478
0.0631992
0.400749
0.249125
0.0991506
0.0441638
0.0271029
0.0584238
0.149351
0.131826
0.00220557
0.0374814
0.085825
0.135843
0.0640647
0.035421
0.00955234
0.01293
0.00312341
0.00748045
0.432946
0.427958
0.295613
0.0591519
0.0236145
0
0.00443756
0.00981243
0.0726237
0.387111
0.213941
0.0348523
0.0100929
0.00367163
0.0238756
0.140019
0.0835553
0.0588744
0.128354
0.122302
0.0247507
0.0457486
0.0358633
0.000180158
0.0109175
0.038678
0.00653137
0.302918
0.374405
0.261795
0.0420304
0.00300873
0.0340516
0.292518
0.380635
0.0111664
0.0517438
0.198017
0.163691
0.0936145
0.0334462
0.130568
0.227675
0.0896037
0.0210061
0.0108338
0.0129359
0.00334847
0.0205957
0.0511595
0.196823
0.223507
0.125753
0.178291
0.137541
0.00868736
0.000199219
0.000133149
0.0355526
0.218617
0.354838
0.254489
0.00564868
0.00216334
0.0133044
0.0392609
0.0915308
0.122949
0.450407
0.359884
0.108374
0.0689388
0.0252977
0
0.0176418
0.053397
0.105313
0.0365197
0.0514398
0.0505628
0.310209
0.221592
0.00162235
1.88889e-005
0
0.00331792
0.0048733
0.0112619
0.0344624
0.432762
0.373126
0.0894581
0.00381571
0
0.00617686
0.108289
0.152917
0.10813
0.223048
0.0901549
0
0.000391194
0.00117358
0.0109905
0.0336002
0.11831
0.238525
0.44447
0.185241
0.0152538
0
0
0.043238
0.00606393
0.00222802
0.0252055
0.0903662
0.252641
0.235018
0.0870573
0.105023
0.046694
0.0255212
0.00957073
0.0303569
0.102547
0.207199
0.114336
0.0671053
0.187232
0.0708866
0.0169878
0.0633538
0.394616
0.4452
0.225998
0.0908459
0.0142335
0.00750162
0.00793726
0.129942
0.05099
0.244759
0.281641
0.160894
0.100048
0.0541765
0.0389319
0.0872485
0.0347736
0.0691943
0.0935239
0.177001
0.121072
0.0647611
0.0580756
0.158253
0.0574504
0.174895
0.165187
0.107189
0.154013
0.116374
0.0462392
0.0870849
0.0849126
0.0386436
0.0881615
0.0186755
0.0499777
0.128956
0.166924
0.223935
0.343821
0.0593499
0.0831738
0.0661002
0.0430004
0.0584776
0.0743111
0.184568
0.171339
0.505592
0.21011
0.0228972
0.13847
0.0580571
0.0260309
0.0163737
0.0659788
0.0521905
0.208093
0.199597
0.0661658
0.0921141
0.0586668
0.0166897
0.0114291
0.0401825
0.0851586
0.373454
0.39699
0.0977324
0.0990536
0.0593959
0.155449
0.0474556
0.11919
0.0826472
0.203064
0.179739
0.0251299
0.127488
0.162949
0.269682
0.205584
0.0725056
0.0648949
0.186865
0.0908979
0.0686195
0.194257
0.125075
0.012521
0.00273034
0.0017135
0.0173037
0.0751017
0.135342
0.121634
0.442979
0.354405
0.153704
0
0
0.00307285
0.0078281
0.019962
0.137276
0.151217
0.247445
0.129944
0.0469038
0.00285584
0.00736323
0.0332697
0.0321578
0.0432717
0.362488
0.374383
0.146264
0.0226365
0
0
9.11769e-005
0.0041483
0.0186308
0.162394
0.36001
0.31598
0
0.000747397
0.00217798
0.000434058
0.000676732
0.0321523
0.0822361
0.239333
0.306925
0.0021284
0.00888513
0.0193294
0.0194957
0.00991221
0.0723581
0.216485
0.319943
0.15605
0.0235132
0.000448438
0.00104635
0
0
0.0246796
0.280224
0.333579
0.0956014
0.00463606
0.00533108
0.00970835
0.0635645
0.0884755
0.215258
0.0437095
0.0412826
0.0580698
0.00206135
0.0266775
0.0798319
0.0986959
0.0404171
0.0677317
0.0083888
0.00147473
0.00166871
0.000294479
0.154842
0.353729
0.378966
0.0991033
0.0333053
0.0901281
0.0572579
0.0130108
0.00123681
0.00871082
0.055539
0.263101
0.131753
0.186405
0.00360621
0
0.00100123
0.000176687
0.0209382
0.214409
0.513074
0.275878
0.0397561
0.000503564
0.00284753
0.0458867
0.00415881
0.0662996
0.221257
0.354419
0.0992017
0.00451192
0.0253253
0.134344
0.389538
0.0314665
0.00875122
0.101999
0.223267
0.117423
0.0140702
0.00126596
0.00400877
0.0406616
0.00540117
0.0142054
0.156782
0.383684
0.199178
0.00291286
0.0200447
0.0746094
0.317927
0.104927
0.0351392
0.0902399
0.303136
0.102317
0.00729174
0.099628
0.214475
0.300276
0.0280034
0.0227773
0.0544522
0.157068
0.154815
0.0792826
0.19054
0.272556
0.0891454
0.0464921
0.0385454
0.0465872
0.105331
0.111572
0.0879524
0.0285886
0.10075
0.262101
0.254231
0.169178
0.100442
0.172153
0.0639694
0.00863449
0.0260905
0.113936
0.161558
0.211586
0.310103
0.174915
0.157626
0.0874162
0.02252
0.0582403
0.195098
0.128304
0.0811141
0.0537687
0.00333629
0.00391667
0.00473079
0.0274079
0.0292489
0.199848
0.418059
0.226633
0.0908621
0
0
0
0.0452027
0.0163244
0.103408
0.262981
0.131119
0.144106
0.0577469
0.0194547
0.0150587
0.0332795
0.0496119
0.111329
0.539316
0.262658
0.0725347
0.00610171
0
0
0.108788
0.00784594
0.0896671
0.484824
0.302092
0.0195199
0
0.00195688
0.00376967
0.00845951
0.0461553
0.0619184
0.211928
0.211278
0.0288794
0.0194535
0.0589472
0.0272391
0.0699321
0.0257241
0.0682124
0.443258
0.405927
0.0685976
0
0.00199926
0.00883205
0.0138811
0.0433937
0.0603277
0.151241
0.176234
0.0877737
0.0465764
0.0458413
0.0623352
0.0971679
0.0235015
0.0108576
0.0181444
0.0890899
0.0402465
0.118749
0.290447
0.0247074
0.0416449
0.0313843
0.00438527
0.0164809
0.0269621
0.0690333
0.173412
0.374688
0.0934165
0.0161097
0.0077286
0.0101201
0.00579491
0.080311
0.220289
0.248155
0.173593
0.0326564
0.0458042
0.00439006
0.00030697
0.0200019
0.145224
0.480378
0.371087
0.190167
0.0210735
0.00692797
0.0473049
0.031421
0.137293
0.0691332
0.071197
0.0451937
0.078853
0.0645885
0.0195036
0.0252069
0.0875463
0.368837
0.164905
0.0265334
0.00448098
0.00790332
0.00648637
0.0130929
0.00692515
0.0373873
0.256508
0.284145
0.29604
0.0977145
0.0331595
0.0157716
0.00885789
0.00998697
0.16574
0.55194
0.182353
0.117724
0.0225631
0.0352762
0.0102521
0.0277086
0.0236575
0.105735
0.181734
0.0451257
0.00874152
0.000335616
0.00210268
0.00109773
0.00663999
0.0591393
0.222788
0.255467
0.0237815
0.00504354
0
0
0.000141008
0.00193513
0.0156634
0.104841
0.235433
0.108578
0.143568
0.0106794
0.0276522
0.00690941
0.0207282
0.0216912
0.429694
0.629906
0.131035
0.0927644
0.00136894
0.00395032
0.000987059
0.00296118
0.0497077
0.256925
0.205173
0.0161712
0
0
0
0
0.00262166
0.157375
0.337219
0.0815496
0.00231018
0
0
0.0674723
0.113405
0.0803033
0.0247496
0.378995
0.483041
0.0268483
0.00162672
0
0
0
0
0.130666
0.38012
0.201841
0.0194664
0
0.00820308
0.102467
0.134364
0.0506424
0.040699
0.0473814
0.00155757
0
0
0.00892272
0.228143
0.113087
0.0579764
5.13843e-005
0
0
0
0.00597406
0.040312
0.35525
0.125064
0.00885908
0.0346947
0.0550465
0.00785071
0.00254621
0
0.0190374
0.382126
0.133492
0.0380231
0
0
0
0
0.0124782
0.0838183
0.710586
0.125512
0.00653137
0.00362183
0.00554174
0.0131907
0.00113623
0.0341125
0.101534
0.32992
0.204132
0.00738879
0.0253528
0.0429217
0.120595
0.185712
0.066559
0.0672501
0.200453
0.126288
0.027613
0.00420688
0.0014696
0.00964116
0.0169249
0.0673377
0.173007
0.554261
0.192901
0.00845136
0.0294481
0.0102872
0.0372647
0.167239
0.223416
0.189364
0.199889
0.166016
0.0189786
0.00736053
0.0258456
0.0892953
0.272045
0.125184
0.0262888
0.0394734
0.0206436
0.00736053
0.000478992
0.0308762
0.130399
0.164147
0.190423
0.147272
0.107902
0.0356557
0.00143698
0.00854949
0.00978122
0.0325358
0.199237
0.424191
0.176314
0.0400884
0.028675
0.00441631
0
0.0165399
0.0797381
0.255754
0.510365
0.243053
0.0900572
0.00905903
0
0.00402193
0.0500454
0.254563
0.059187
0.0869024
0.109743
0.0347895
0.012015
0.00548187
0.0490675
0.093864
0.370643
0.127355
0.0437163
0.0145189
0
0
0.0477616
0.0076198
0.050584
0.168577
0.193261
0.246207
0.132198
0.0303467
0.00305264
0.00114237
0.0267446
0.0927527
0.320442
0.459146
0.384528
0.027892
0
0
0.00949466
0.0222661
0.0180104
0.111137
0.412649
0.323411
0.0575409
0.0193374
0.00955616
0.00627704
0.0371101
0.0250939
0.0384883
0.124982
0.206969
0.111033
0.0547108
0.0668931
0.0439392
0.00194958
0.00286142
0.0230642
0.184243
0.462788
0.250422
0.116833
0.00668744
0.00286384
0.0126441
0.0111445
0.026232
0.13943
0.267225
0.18202
0.185128
0.0279991
0.0200469
0.00291897
0.00194346
0.000277264
0.026425
0.221231
0.114883
0.0173656
0.0143025
0.00939473
0
0
0.00710175
0.10911
0.486146
0.131913
0.00912752
0
0
0.00571587
0.00559791
0.0189484
0.153081
0.28096
0.0536663
0.0155197
0.00519197
0.00428625
0.000780041
0.000780041
0.00994481
0.170217
0.643991
0.17613
0.00511066
0
0
0.00264231
0.0136218
0.0873305
0.201394
0.336239
0.0901065
0.0164995
0.00188417
0
0.0184962
0.0776702
0.140066
0.121635
0.194761
0.0993245
0.0794034
0.0155914
0.00720646
0.00158539
0.0025941
0.0076562
0.0894881
0.431893
0.386972
0.0875349
0.0137405
0
0.0110977
0.0167911
0.0103256
0.116576
0.2398
0.324571
0.273722
0.103043
0
0.00689838
0.0385971
0.0680401
0.129919
0.262933
0.0438085
0.0357356
0.00590892
0.00587004
0.00225979
0.173608
0.287087
0.163102
0.255317
0.0468483
0.0221529
0.000279526
0.000838577
0.0033255
0.00603616
0.0107016
0.119777
0.370371
0.194178
0.120686
0.0351719
0
0
0.034487
0.0744768
0.0899755
0.381758
0.359163
0.317294
0.00613624
0
0.00770192
0.281295
0.468942
0.0846224
0.072336
0.0303408
0.0228066
5.9972e-005
0
0.0439534
0.190998
0.254642
0.0774352
0.0133579
0.0301078
0.0889749
0.0593311
0.0160178
0.00362847
0.0689876
0.134097
0.0540082
0.134331
0.324257
0.391553
0.0128717
0.00103955
0.0253993
0.0768731
0.220108
0.0638623
0.0506034
0.135478
0.112176
0.0203046
0.00727686
0.00932724
0.0244166
0.0296479
0.0126906
0.0293148
0.0448753
0.262217
0.0417589
0.00949516
0
0.000378182
0.0195027
0.0313731
0.187845
0.206049
0.527458
0.0293071
0.00155951
0.00553895
0.0365351
0.255091
0.0378241
0.0511316
0.028045
0.0592065
0.00341155
0.0015869
0
0.0154943
0.383477
0.323392
0.322383
0.115859
0.111864
0.000227589
0
0.00403603
0.00450306
0.0190959
0.0509609
0.250885
0.194308
0.199302
0.0240889
0.000620306
0.0282522
0.0315214
0.0461754
0.107503
0.272008
0.128528
0.0479685
0.0309992
0.000372184
0.00242162
0.0344001
0.167887
0.297523
0.4392
0.124605
0.0323985
0.000239896
0
0.0169513
0.234786
0.272877
0.242111
0.319704
0.0876667
0.00198782
0.00167927
0
0.00914943
0.0102082
0.0194053
0.0961246
0.354587
0.126426
0.00926507
0.00711362
0
0
0
0.0286681
0.233189
0.428873
0.101543
0.00639174
0
0
0.00548965
0.133557
0.250673
0.2384
0.252659
0.056449
0.00536421
0.000543829
0
0
0.054352
0.187817
0.231173
0.364366
0.242991
0.0404464
0
0
0.00161764
0.00530365
0.0207919
0.142897
0.242185
0.0305013
0.00179544
0
0
0.00269606
0.00995507
0.0427061
0.226158
0.497834
0.0939315
0.00272363
0
0
0
0.00450995
0.0182554
0.118601
0.254491
0.139764
0.0212195
0
0
0
0
0.00158684
0.0866584
0.529561
0.354107
0.0941575
0.00397698
0
0.00880176
0.00247249
0.0216799
0.0384283
0.252328
0.256132
0.213476
0.0620171
0.0251199
0.109606
0.073535
0.0612734
0.099262
0.0930655
0.11182
0.215345
0.09765
0.108455
0.0922529
0.00208296
0.00237411
0.000442599
0.0767067
0.156828
0.233479
0.208329
0.232454
0.422555
0.206288
0.0600856
0.0141498
0.00464947
0.0255903
0.107152
0.199307
0.236344
0.0680017
0.0812047
0.104648
0.249726
0.196211
0.0100157
0.0185062
0.0128507
0.0312081
0.00775654
0.0254936
0.0659367
0.268599
0.54512
0.237182
0.0240178
0.000155089
0
0.182434
0.262552
0.166954
0.105603
0.0488232
0.00233157
0.00532382
0.0220749
0.0371684
0.0311062
0.15374
0.1367
0.152947
0.235301
0.142272
0.0611442
0.0152917
0.0122917
0
0
0.00114083
0.0236118
0.157275
0.310324
0.142778
0.00949046
0
0
0
0
0.0238606
0.0601312
0.220769
0.409036
0.0824869
0
0.00523179
0.0131716
0.00587749
0.0147948
0.0639783
0.157182
0.235295
0.0542481
0.0129854
0.000402642
0
0
0
0.00837837
0.090112
0.560723
0.316928
0.0149918
0
0
0
0.0193411
0.104156
0.12289
0.19153
0.0585952
0
0
0
0.000682309
0.00483119
0.084975
0.232081
0.457641
0.0656599
0
0
0
0
0
0.0152063
0.0309932
0.266486
0.29039
0.00241844
0
0
0
0
0.0091238
0.0721467
0.586436
0.236996
0.00163369
0.0133835
0.00157053
0.00337155
0.00187565
0.0141717
0.149774
0.40471
0.085689
0.00376644
0.0936845
0.106072
0.0947172
0.00826794
0.00905704
0.0634397
0.125796
0.0939754
0.0188439
0.0302086
0.000170247
0
0
0
0.0617448
0.55816
0.261617
0.0323939
0.222971
0.22848
0.10585
0.000965963
0
0.0160082
0.184548
0.299571
0.12668
0.0285083
0.141264
0.253346
0.0159476
0.00620874
0.00352038
0.00382387
0.00931665
0.00528212
0
0.102064
0.441422
0.177214
0.0491465
0.00286377
0
0
0
0.0738686
0.298478
0.278001
0.0109629
0
0.000379288
0.00281144
0.0286322
0.0335743
0.00136016
0.206302
0.596214
0.0991363
0.00136341
0
0
0
0
0
0.0397305
0.200201
0.111025
0.0589982
0.00754652
0
0
0
0
0.15193
0.342397
0.0473081
0.0379787
0.0111952
0
0
0
0
0.077878
0.447113
0.0554089
0.00283963
0
0
0
0
0
0.167757
0.695971
0.00916419
0.00170378
0
0
0
0
0
0.183827
0.378254
0.0652308
0.0277689
0.0163349
0.0124233
0
0
0
0.108671
0.188505
0.0447221
0.0584521
0.24495
0.128248
0
0
0.00873897
0.169967
0.575309
0.00173129
0.00052965
0.0233562
0.0129579
0
0.00208972
0.0145649
0.0980743
0.205808
0.00180352
0.00539859
0.363276
0.213969
0.00164875
0.00348286
0
0.0127191
0.0120716
0.0384626
0.0805252
0.234808
0.140561
0.00293973
0
0
0
0
0.0240181
0.153776
0.324161
0.264586
0.0191963
0
0.00217209
0.0113982
0.00758909
0.00229069
0.00637645
0.345978
0.36445
0.00983819
0.000519404
0
0
0
0.00137441
0.00908528
0.333208
0.496455
0.0332756
0
0.139036
0.00563945
0.000110835
0
0.00346474
0.0181026
0.0444136
0.0877479
0.319256
0.367492
0.092665
0.0124252
0.000419719
0
0.000344988
0.00610652
0.0400026
0.267978
0.206777
0.0507782
0.00293561
0
0
0.00025184
0.00230169
0.0327686
0.373161
0.320348
0.02943
0.000552804
0
0
0
0
0.0145738
0.469186
0.319843
0.264925
0.0706967
0.0182085
0.00602938
0.000400784
0
0.0062059
0.0839315
0.167405
0.213677
0.0656259
0.0285842
0.0429549
0.0280839
0.0377306
0.0246858
0.124856
0.410852
0.109444
0.00368731
0
0
0
0
0.00237425
0.285509
0.318613
0.0982533
0.00779771
0.00836845
0.00814612
0.000557905
0.00296276
0.0191251
0.384402
0.0712271
0.0247031
0.00442448
0.00336662
0.0146736
0.034618
0.13241
0.10908
0.117196
0.0400947
0.00312829
0
0
9.64958e-005
0.0145469
0.301884
0.600624
0.120291
0.11963
0.0274285
0.0158484
0.05518
0.0199637
0.00136726
0.00849201
0.0548817
0.289202
0.117396
0.0800615
0.0175998
0.0700909
0.0119782
0.00191046
0.130263
0.326633
0.221479
0.00274703
0.000639011
0
0
0
0.00115867
0.197896
0.3482
0.0142806
0
0
0
0
0
0.0497635
0.473825
0.213108
0.00517158
0.0225531
0.0176121
0.002829
0.00729861
0.000697332
0.00480512
0.226637
0.229423
0.0308884
0.00429636
0.000357744
0.00265303
0.00492705
0.00488133
0.169084
0.536342
0.188561
0.00520709
0.0227535
0
0
0
0
0.0754357
0.409978
0.220749
0.0924125
0.187636
0.160097
0.0936821
0.00627699
0
0.0162848
0.108556
0.258231
0.283259
0.00906332
0.000420533
0.001784
0.000970168
0.00261272
0.335325
0.379557
0.0973091
0.0663546
0.0619646
0.0443203
0.11437
0.12433
0.0162824
0.161094
0.113432
0.108866
0.188651
0.0593844
0.135464
0.212436
0.025249
0
0.00026537
0.000970708
0.020208
0.0508586
0.00401112
0.0753352
0.54839
0.14026
0
0
0
0
0
0.0233643
0.0342707
0.223513
0.188953
0.0110629
0.00629993
0.0080536
0.0155033
0.0321666
0.00263517
0.0134194
0.487217
0.420021
0.0151729
0.015764
0.00146629
0
0.00434142
0
0.0546327
0.493492
0.0893774
0
0
0
0.000477288
0.000583352
0.00794446
0.111571
0.576717
0.0306388
0
0
0
0.00334102
0.0229905
0.00382411
0.012344
0.352718
0.219279
0.00840802
0.0278869
0.00369996
0.00505209
0.0442484
0.0932865
0.0309085
0.274282
0.0779177
0.000839472
0.0135685
0.00221998
0.0262389
0.193123
0.067334
0.0868237
0.426063
0.00416837
0.00132903
0.0228687
0.00269907
0.00197437
0.0570954
0.0999537
0.0368869
0.116325
0.000846727
0.00930319
0.300289
0.181403
0.0311678
0.0570134
0.330741
0.0264227
0.121407
0.0107095
0.00056433
0.00580736
0
0.0144406
0.26788
0.373045
0.0246073
0.0189583
0.000508037
0.00395031
0.0694907
0.122392
0.108528
0.378953
0.0136877
0.00488269
0.00158023
0
0.00266316
0.204378
0.332761
0.0461908
0.0109648
0.00193833
0.000646111
0
0
0
0.202133
0.476489
0.0719888
0.000590582
0.069963
0.00699518
0.00169133
0
0.0220439
0.134116
0.276777
0.119228
0.163362
0.0371207
0.0300429
0.0125593
0
0.0493427
0.351436
0.424754
0.0915818
0.0372878
0.221309
0.0389967
0.00297946
0
0
0
0
0.0253817
0.258292
0.310361
0.0082374
0
0
0
0
0
0.013811
0.34543
0.277802
0.00763376
0.000375954
0
0
0
0.000184242
0.0290426
0.311253
0.453201
0.0196486
0
0
0
0
0
0.00559713
0.343351
0.23328
0.010988
0
0
0
0
0
0.0386658
0.337718
0.144776
0.0780517
0.0248085
0.0123044
0.00887376
0
0
0.0833712
0.322406
0.235129
0.00862409
0
0
0
0
0
0.128035
0.40962
0.069727
0.16457
0.0641825
0.00406362
0.00126768
0
0
0.315775
0.32686
0.0421096
0.110371
0.131023
0.107702
0.0270694
0
0
0.0275704
0.160299
0.106595
0.2109
0.164025
0.139466
0.0162416
0.00147811
0.0512416
0.0382778
0.0913061
0.0351332
0.307019
0.323324
0.0510189
0.00386706
0
0
0.0859621
0.0636181
0.220973
0.400106
0.394887
0.071809
0.00232023
0.000211158
0.00190042
0.00321049
0.0201731
0.112792
0.0916798
0.0310793
0.0324701
0.00862426
0.0175089
0.153272
0.0884682
0.0558349
0.0444464
0.00945394
0.0157866
0.0341616
0.074135
0.47207
0.395237
0.119109
0.0388884
0.269939
0.132189
0.0570824
0.0232075
0.0124081
0.0101916
0.00915433
0.0181204
0.0989199
0.14374
0.0181407
0.0162192
0.087443
0.148333
0.388862
0.0568787
0.0267877
0.132753
0.00940113
0.00211173
0.00582397
0.00458955
0.0287155
0.506788
0.205055
0.0402108
0.00864119
0.061111
0.0194953
0.110459
0.200641
0.0301955
0.243927
0.119401
0.050724
0.0169995
0.0435859
0.0087091
0.00888029
0.0405502
0.077053
0.430358
0.109041
0.0890044
0.0323154
0.214689
0.0705333
0.196856
0.140268
0.0258624
0.184344
0.106766
0.135292
0.0392184
0.0194367
0.00972577
0.156839
0.4175
0.0383994
0.0131713
0.0160527
0.0100341
0.00429153
0.00586014
0.00129612
0.194248
0.571699
0.0935339
0.0515789
0.00861034
0.00570149
0.0537711
0.0731944
0.0338094
0.184925
0.302157
0.0559714
0.0142453
0.01542
0.034929
0.0142265
0.0287491
0.0034403
0.0471823
0.279017
0.126375
0.0407178
0.0430184
0.0874429
0.139053
0.0348744
0.000158493
0.110394
0.208413
0.0437673
0.0751066
0.00923265
0.0118888
0.219563
0.272671
0.0034811
0.0534945
0.0464049
0.00264182
0.0286923
0.00417208
0.0300158
0.477961
0.127154
0
0.00197964
0.0417892
0.0399752
0.0292923
0.0188954
0.050129
0.283596
0.350156
0.00515233
0.000819648
0.00123213
0.001147
0.0064077
0.00498994
0.0292958
0.439297
0.324629
0.0140137
0.0048883
0.00289237
0
0
0
0.0235864
0.25706
0.352256
0.0186843
0
0
0
0.000565695
0.0176872
0.111737
0.393497
0.270797
0.0141221
0.00187199
0
0
0
0.000971668
0.0332355
0.259484
0.331037
0.013085
0.00112319
0
0
0.00349158
0.0172628
0.0918874
0.372984
0.189874
0.0138953
0.00733107
0
0.0333476
0.0766222
0.0758628
0.173089
0.361096
0.189576
0.108807
0.0524657
0
0.102734
0.332561
0.135163
0.0680193
0.136911
0.235519
0.0416025
0.00519952
0
0.00476394
0.0103002
0.0207982
0.130114
0.353683
0.365474
0.209885
0.0365607
0
0.0320711
0.0543664
0.0163863
0.0520177
0.161779
0.16061
0.0141198
0
0
0
0
0.000658597
0.0486848
0.218857
0.341947
0.0444542
0
0
0
0
0
0.0132377
0.210497
0.219869
0.0245154
0
0
0
0
0.000395158
0.0623465
0.389323
0.386096
0.0450661
0
0
0
0
0
0.0309675
0.438435
0.210363
0.0214841
0
0
0
0
0
0.075911
0.202126
0.104044
0.146611
0.0529386
0.00984762
0
0
0
0.190039
0.220628
0.405738
0.0278307
0
0
0
0
0
0.029374
0.293941
0.309803
0.0970862
0.0271496
0.0164127
0
0
0
0.073802
0.432579
0.0412109
0.237137
0.154799
0.0274955
0
0
0.00924058
0.0656819
0.0565139
0.168979
0.265829
0.144144
0.0208032
0
0
0.015401
0.0637188
0.123222
0.174113
0.114516
0.0551645
0.0390979
0
0
0.015401
0.0793996
0.23049
0.371264
0.0930432
0.0323861
0.0234587
0
0
0.0256683
0.130464
0.533655
0.191147
0.0517204
0.0117595
0.00217023
0.00169231
0.000394098
0.00167017
0.0371743
0.121635
0.202318
0.0114384
0.0148281
0.0453943
0.0336386
0.0552742
0.00733296
0.0384264
0.128786
0.361817
0.0187365
0.000410353
0
0
0
0.00278362
0.0362657
0.360614
0.558807
0.00972755
0.00889688
0.00956333
0.00141908
0.0018755
0.00138123
0.0222468
0.357778
0.0796542
0.00819402
0.013404
0.0352722
0.0259046
0.0862082
0.0237185
0.0580546
0.133126
0.205255
0.0595154
0.0703667
0.0231503
0.0103238
0.0395347
0.020311
0.068424
0.165839
0.270096
0.00297951
0.00804239
0.00864483
0.00160647
0.00460849
0.00339398
0.0192578
0.403329
0.436557
0.0164782
0.00610064
0.00188337
0.00125606
0.00276509
0.00203639
0.0152611
0.537454
0.171043
0.0401955
0.0761522
0.0642847
0.0258713
0.00432471
0.00382133
0.0278643
0.057535
0.176643
0.00873679
0.0137482
0.0678348
0.0326365
0.00720785
0.017259
0.0761611
0.115082
0.471499
0.0151837
0.00522176
0.00841967
0.00261698
0
0
0.00376047
0.264629
0.608019
0.0103592
0.000745966
0.0200518
0.00235966
0
0
0.0167992
0.257921
0.162525
0.000876505
0
0.0107913
0.0057735
0.0011036
0.013663
0.0521017
0.187481
0.1888
0.0124068
0.0027268
0
0
0
0.0146177
0.044588
0.2678
0.344308
0.00286989
0
0.00566234
0.000298017
0
0.0038879
0.0312995
0.351658
0.264548
0.0100485
0.00163608
0
0
0
0.00877062
0.0335091
0.569513
0.178799
0.0236333
0.00724279
0
0
0
0.00375942
0.0180876
0.182321
0.252338
0.0123627
0.00434567
0
0
0.013509
0.036153
0.0564064
0.225549
0.300653
0.016725
0.00434567
0
0
0
0.00225565
0.00738926
0.364558
0.401058
0.00778117
0.0026074
0
0
0.00810543
0.0135409
0.0257121
0.49582
0.105043
0.0436027
0.00231281
0
0
0.0127281
0.031196
0.0639864
0.165327
0.164611
0.14601
0.0161897
0
0
0.00202196
0.0060512
0.0439234
0.170461
0.205812
0.0179014
0.00138769
0
0
0.00763685
0.0110379
0.0416727
0.383
0.164479
0.0480116
0.00971382
0
0
0.00109098
0.00143382
0.0521247
0.690828