0.0686347
0.122332
0.158768
0.178559
0.0413148
0.0800382
0.231407
0.154769
0.179549
0.187977
0.1501
0.19606
0.174327
0.0229274
0.0854566
0.216412
0.0529304
0.0584399
0.0546066
0.181997
0.281933
0.140317
0.151394
0.149472
0.068877
0.1274
0.186077
0.203779
0.378033
0.132879
0.252543
0.134909
0.119772
0.0664841
0.0841151
0.093745
0.198361
0.111894
0.213886
0.129562
0.0114817
0.0172653
0.0279514
0.0353668
0.0734526
0.159558
0.171337
0.119541
0.0981072
0.0544054
0.112308
0.0859639
0.163276
0.216049
0.196814
0.289297
0.180287
0.287465
0.0943218
0.0379046
0.0224637
0.0339274
0.0610241
0.344003
0.22735
0.15942
0.204573
0.198036
0.100144
0.0793743
0.160291
0.249777
0.0650836
0.134168
0.0308741
0.0826436
0.0553198
0.176571
0.0887808
0.0831663
0.115689
0.136167
0.0388748
0.0337564
0.200061
0.0793685
0.174779
0.0542061
0.0802622
0.205413
0.200598
0.144143
0.0342965
0.0353331
0.0928803
0.111071
0.0786058
0.30878
0.418145
0.141346
0.0413345
0.0248704
0.121305
0.148648
0.13822
0.0768794
0.325185
0.379704
0.145144
0.0334238
0.0064185
0.0904332
0.124356
0.160677
0.0455876
0.0659386
0.122512
0.289012
0.200138
0.0576828
0.0802368
0.132334
0.204053
0.0488352
0.0746438
0.351846
0.0772871
0.0426282
0.0334954
0.0791047
0.158516
0.27776
0.0446175
0.0500281
0.0885214
0.202948
0.109474
0.134396
0.0910326
0.127152
0.441863
0.08315
0.101681
0.302495
0.189401
0.233796
0.142975
0.0485075
0.0285803
0.0402942
0.109297
0.0885528
0.227706
0.16545
0.284018
0.2136
0.13722
0.124329
0.0232763
0.209054
0.17054
0.0842633
0.270192
0.0986151
0.114935
0.0731054
0.0358515
0.0905994
0.0891421
0.125081
0.242612
0.208533
0.237314
0.145843
0.173744
0.226402
0.0264732
0.187527
0.204921
0.126925
0.139332
0.20068
0.142592
0.223716
0.239859
0.119517
0.0687635
0.0756575
0.0624739
0.17938
0.0580013
0.0225073
0.170414
0.230961
0.143947
0.0309614
0.0608669
0.126273
0.103823
0.184484
0.126659
0.158621
0.288838
0.109363
0.124164
0.197925
0.0549614
0.416284
0.0876601
0.0757682
0.0700655
0.133619
0.197307
0.0398453
0.122751
0.226654
0.0830631
0.0399378
0.0669353
0.0686977
0.13356
0.0564053
0.0347315
0.11889
0.133794
0.192352
0.150006
0.200783
0.112267
0.0440769
0.00665184
0.0132822
0.0823949
0.233208
0.244932
0.0488936
0.134299
0.103105
0.128358
0.149719
0.0286695
0.0557473
0.232529
0.086978
0.209252
0.511269
0.29043
0.128389
0.025756
0.113734
0.160595
0.158187
0.250546
0.0696242
0.050246
0.0862138
0.0556946
0.00606463
0
0.0208667
0.156275
0.287276
0.156104
0.0737366
0.0755207
0.164213
0.034853
0
0.00927433
0.232332
0.266536
0.140624
0.15055
0.16067
0.132501
0.0164406
0.0215356
0.0617365
0.182705
0.375859
0.18856
0.112771
0.143689
0.381521
0.0633603
0
0.0239949
0.286891
0.0784508
0.132364
0.0903231
0.0330956
0.0811845
0.011118
0.000205298
0.00197768
0.0736409
0.184357
0.0694343
0.0710778
0.0153846
0.0344264
0.0106907
0.0390845
0.00939616
0.151881
0.131486
0.0749892
0.170778
0.0813123
0.302745
0.0672675
0
0.039046
0.12418
0.480162
0.0543818
0.227343
0.117547
0.31565
0.120643
0.167256
0.0719572
0.4629
0.0721069
0.121825
0.14305
0.111064
0.162318
0.0914049
0.0856322
0.0488543
0.0407443
0.158783
0.279816
0.0369799
0.176098
0.142315
0.0693278
0.0081839
0.0680192
0.0782599
0.155628
0.0842937
0.0790908
0.196737
0.167628
0.170173
0.171856
0.0588422
0.0445298
0.237647
0.287342
0.0401286
0.366733
0.413489
0.183405
0.0500938
0.0693094
0.113012
0.0993153
0.141008
0.0358766
0.123489
0.048429
0.0279966
0.0340682
0.0602013
0.131781
0.154898
0.042974
0.0358374
0.139482
0.136036
0.173911
0.230462
0.106717
0.236314
0.119257
0.201915
0.010346
0.135998
0.219919
0.175981
0.142486
0.144579
0.237761
0.0888084
0.0936681
0.0926922
0.139429
0.148803
0.219114
0.379346
0.15911
0.347493
0.148444
0.0365189
0.0072146
0.0283685
0.0818709
0.143168
0.195751
0.264027
0.274954
0.131224
0.079712
0.0625802
0.0384694
0.144507
0.149658
0.145469
0.26422
0.199329
0.236747
0.162239
0.139838
0.0335287
0.0607658
0.105571
0.205103
0.141993
0.196279
0.277423
0.28859
0.263263
0.00345657
0.150018
0.108693
0.0972469
0.105804
0.0831607
0.0847471
0.244383
0.209188
0.0551543
0.147069
0.182327
0.0457455
0.0516833
0.0598073
0.171767
0.321935
0.340863
0.0350459
0.0345257
0.176415
0.0417862
0.0516139
0.115048
0.0873039
0.404311
0.303567
0.0089363
0.11208
0.0674646
0.0310319
0.0125474
0.0161314
0.135942
0.327986
0.173613
0.0110429
0.0146053
0.0179618
0.0250268
0.020993
0.0748285
0.213141
0.122884
0.150371
0.0237498
0.00820975
0.0716334
0.146377
0.0814628
0.0962601
0.161817
0.122951
0.0725118
0.0567818
0.0944726
0.0304204
0.440539
0.250328
0.133575
0.128539
0.0648281
0.0352494
0.0055988
0.0047887
0.0333917
0.126413
0.0986596
0.0940827
0.0318287
0.00227745
0.00526317
0.0146289
0.0262589
0.0272565
0.525065
0.343521
0.0713205
0.0692554
0.0520301
0.0944015
0.0351242
0.106882
0.0152659
0.158965
0.160472
0.0633737
0.351872
0.0890594
0.142992
0.0464411
0.153191
0.160943
0.0424392
0.0902948
0.23909
0.110858
0.0281807
0.051477
0.025018
0.102091
0.0193971
0.274706
0.178686
0.0425562
0.509156
0.188308
0.085795
0.0720753
0.226443
0.153863
0.161608
0.152465
0.131059
0.23358
0.0535366
0.0581383
0.0931033
0.228796
0.227881
0.0257919
0.030941
0.185921
0.0749302
0.0549305
0.124618
0.0976527
0.144007
0.0484688
0.125409
0.187038
0.129499
0.371067
0.213506
0.0441925
0.116824
0.277846
0.217216
0.125008
0.0806242
0.0958331
0.306763
0.147434
0.0440439
0.0492458
0.151315
0.0717325
0.102274
0.144901
0.225691
0.264741
0.137872
0.0903265
0.0510295
0.0650049
0.0296389
0.0545252
0.144311
0.146173
0.325693
0.208064
0.0972129
0.07028
0.238531
0.0424124
0.00532894
0.0705988
0.126041
0.242908
0.073986
0.04361
0.0320591
0.150244
0.128403
0.0468152
0.115119
0.146032
0.255483
0.0617654
0.114373
0.178674
0.439407
0.168419
0.0169779
0.177351
0.108859
0.0677781
0.0376973
0.078127
0.0562068
0.2333
0.0736817
0
0.120857
0.0991138
0.207314
0.0758467
0.169809
0.145269
0.34354
0.128255
0.0783612
0.192346
0.497649
0.150091
0.0151171
0.0434925
0.0771981
0.250192
0.0855998
0.000749696
0.158923
0.0983777
0.0932147
0.0971015
0.145707
0.0891905
0.241837
0.0641338
0.00524787
0.140874
0.223146
0.118453
0.0357074
0.0549419
0.0903664
0.118798
0.0805757
0.0612587
0.0362033
0.146465
0.124424
0.133151
0.0966244
0.191515
0.490034
0.329417
0.115422
0.0667123
0.0503724
0.0819447
0.128102
0.106834
0.0312905
0.0567121
0.0550497
0.00562704
0.0345715
0.193333
0.237819
0.139862
0.181153
0.146146
0.274679
0.33163
0.09628
0.0859607
0.044026
0.0637917
0.142941
0.143462
0.117268
0.271218
0.234875
0.143953
0.0856822
0.0523325
0.042124
0.166761
0.298977
0.145112
0.14974
0.100966
0.125476
0.0626843
0.0923323
0.165714
0.124447
0.276064
0.215712
0.242968
0.173785
0.0836176
0.0684756
0.00104722
0.0616506
0.201462
0.392159
0.170978
0.154493
0.0678103
0.022881
0.0192015
0.00802555
0.109133
0.264309
0.29532
0.0334347
0.0264339
0.0109739
0.043517
0.0262749
0.0644437
0.1333
0.312176
0.228689
9.93476e-005
0.0237207
0.00655918
0.00422186
0.00786769
0.0215629
0.0280095
0.270876
0.221598
0.0249365
0.0196573
0.00900839
0.00575707
0.00437763
0.0041975
0.061121
0.600924
0.313366
0.000695433
0.00324853
0.000410976
0.000581251
0
0.00149201
0.0339006
0.217161
0.0884259
0.00160938
0.00844639
0.00257461
0.00515974
0.000473635
0.00684266
0.141726
0.320519
0.0800137
0.00304034
0.00381748
0.00214586
0.0173295
0.0425495
0.0790725
0.0508314
0.539391
0.274897
0.0007447
0.000925457
8.23161e-005
0.000466457
0
0.00146305
0.0863486
0.545207
0.25172
0.00398671
0.00566074
4.93896e-005
0.02909
0.0649617
0.0738956
0.13522
0.0881556
0.0171934
0.000793366
0.00117069
0.00134274
0.0943204
0.17626
0.0992733
0.0227476
0
0
0.00138007
0.0088748
0.01333
0.259534
0.242269
0.0483522
0.0638897
0.118852
0.0502675
0.00151568
0.00222596
0
0.237263
0.255494
0.0839694
0.00912052
0
0
0
0.0106626
0.0121766
0.641802
0.411186
0.0285932
0.0410657
0.0057385
0
0.00405769
0.0237724
0.0247326
0.243581
0.140942
0.0278341
0.187352
0.0659791
0
0.0115111
0.0361477
0.0798878
0.342019
0.254461
0.0459768
0
0
0
0
0.0123747
0.0167411
0.468639
0.255066
0.0251023
0.0108226
0.00582753
0
0
0.00417591
0.0275744
0.509855
0.266308
0.0299947
0.148002
0.102605
0.0228288
0.0388704
0.0614217
0.0758816
0.225596
0.158813
0.0386359
0.183789
0.164115
0.0387315
0.0927947
0.12856
0.0594261
0.123267
0.106989
0.170814
0.0357845
0.0397232
0.00326125
0.0164319
0.0450385
0.0309459
0.483894
0.23138
0.021183
0.0594981
0.204131
0.0227635
0.114004
0.171458
0.186121
0.453199
0.174201
0.0807648
0.0648412
0.0553375
0.0104697
0.0652569
0.136502
0.0983435
0.0323478
0.0397269
0.0907432
0.101462
0.0110578
0.0208293
0.155532
0.389159
0.199052
0.0710256
0.17425
0.0709033
0.0301816
0.130135
0.0358381
0.0947568
0.116698
0.172796
0.126079
0.0426469
0.120589
0.0858579
0.0753463
0.0310565
0.100794
0.287601
0.462659
0.312656
0.239229
0.214619
0.121416
0.00238953
0.0248862
0.0970665
0.253371
0.0923371
0.0610083
0.173037
0.0914444
0.0782418
0.0309224
0.12291
0.135968
0.168029
0.0347784
0.0363282
0.0626041
0.104401
0.214265
0.0177799
0.0304905
0.181582
0.24455
0.260796
0.194609
0.244904
0.18954
0.221667
0.0421259
0.161518
0.411026
0.275592
0.0571874
0.0611734
0.100451
0.204212
0.0639629
0.140285
0.108379
0.0622051
0.0342258
0.0359302
0.0309626
0.0424195
0.0882313
0.118755
0.0629961
0.0908464
0.308411
0.309436
0.104013
0.0181101
0.0261678
0.0344259
0.0758309
0.121675
0.111841
0.105367
0.10345
0.0430865
0.0883452
0.0324256
0.0207001
0.0211185
0.00937317
0.037794
0.508226
0.549658
0.0874598
0.0393144
0.00647879
0.029772
0.0647974
0.0363217
0.0643233
0.274462
0.259346
0.0331084
0.00724237
0.0102722
0.00108242
0.0473981
0.161023
0.136663
0.129039
0.132107
0.0209002
0.00718769
0.00754027
0.00952981
0.0351602
0.0814744
0.0894882
0.350157
0.328569
0.0148328
0.00143571
0.00492801
0.0433682
0.0898097
0.522768
0.385259
0.10966
0.122512
0.00414246
0.0032401
0.00392144
0.0294791
0.0224496
0.272064
0.174219
0.00524293
0.00712008
0.00443736
0.00339112
0.0020906
0.00434532
0.0363068
0.526198
0.30465
0.000195876
0.00091498
0.00028672
0.00028672
0
0.00283243
0.0553491
0.451505
0.293366
0.00215607
0.00401963
0.00140343
0.00227525
0.000684684
0.00444736
0.0565001
0.372328
0.183312
0.00544884
0.00109168
4.096e-005
0.00155846
0.000505834
0.00909428
0.101859
0.690132
0.387273
0.00107279
0.00160919
0
0
0.0029318
0.021632
0.0571919
0.352532
0.194207
0.0107245
0.0126422
0
0.0194454
0.0434608
0.053812
0.0777682
0.236482
0.0983392
0.0096279
0.00496708
0.00300725
0.00297437
0.0165709
0.0402427
0.0472391
0.100959
0.0568294
0.012671
0.0100664
0.00501209
0.00443161
0.0378356
0.0415413
0.0103605
0.0470274
0.0258821
0.00510493
0.00471567
0
0.15775
0.121609
0.0352517
0.00300223
0.00330211
0.000101444
0.00039223
0.00250221
0.00233411
0.739257
0.411639
0.0179942
0.0329355
0.0646807
0.0337596
0.010032
0.0129538
0.00132666
0.0317999
0.0339896
0.0296769
0.0170908
0.0278173
0.00544492
0.00708936
0.0317568
0.0085973
0.307669
0.208723
0.039959
0
0
0
0
0.00149913
0.00203135
0.364902
0.221596
0.00598818
0
0
0
0
0.00203891
0.00834751
0.346919
0.193701
0.00986167
0
0
0.000458126
0.00143887
0.00473557
0.00433177
0.325458
0.205797
0.00284389
0
0
6.54465e-005
0.000121544
0.00026611
0.0108368
0.579805
0.343329
0.00466154
0.000602326
0.00542094
0
0
0.00452773
0.0113249
0.27536
0.116885
0.00906881
0.00421628
0.045787
0.0112429
0.017739
0.0424234
0.0812074
0.44595
0.135858
0.00508324
0
0
0
0
0.000112002
0.0165723
0.507908
0.193853
0.00917563
0
0
0.0103029
0.0104795
0.00441867
0.0258711
0.538033
0.185434
0.00408961
0.0236095
0.0938918
0.0385858
0.0422963
0.0447282
0.0975589
0.298216
0.116254
0.0360789
0.165324
0.164373
0.0584785
0.0460238
0.0512031
0.219044
0.275132
0.127265
0.159194
0.0135813
0.0357115
0.0284801
0.0480162
0.0276062
0.0397708
0.489295
0.176618
0
0.20116
0.299777
0.0903384
0.0793075
0.0949703
0.0750432
0.361785
0.10009
0.0278668
0.34282
0.130824
0.0473494
0.0836046
0.0728537
0.127367
0.0976198
0.093609
0.141697
0.321507
0.118504
0.11776
0.200601
0.155536
0.0474079
0.0305191
0.0592083
0.0992941
0.312324
0.313237
0.141301
0.117794
0.0695231
0.0310728
0.0514143
0.0236941
0.0432209
0.301923
0.218459
0.170456
0.26028
0.145801
0.0398419
0.0509748
0.0422737
0.137341
0.0193924
0.088839
0.0839559
0.0542853
0.0956022
0.0317425
0.0639108
0.00757763
0.0201944
0.00486146
0.0181704
0.0503742
0.296058
0.366803
0.0620355
0.0316834
0.0124392
0.0292717
0.0296091
0.0755259
0.0826637
0.0446145
0.149908
0.0525963
0.0752467
0.0181309
0.0437316
0.0187248
0.0390546
0.0494888
0.283122
0.724476
0.0732101
0.0248388
0.0190107
0.0268517
0.019163
0.0742485
0.141698
0.205997
0.176237
0.014035
0.0282718
0.0564031
0.0656387
0.0405975
0.316428
0.311644
0.0401478
0.0285757
0
0.0816233
0.0878254
0.0432594
0.0378787
0.0132791
0.0672181
0.181828
0.338792
0.0257843
0.121491
0.142874
0.056234
0.025878
0.0456797
0.0856944
0.0327797
0.0369283
0.00158563
0.520017
0.367182
0.0360661
0.0775178
0.378839
0.263585
0.0023851
0.00156714
0
0.0658128
0.0494859
0.0143696
0.0658714
0.143729
0.0520003
0.0155141
0.00651782
0
0.0160518
0.00716607
0.0145314
0.0131014
0.036572
0.0408381
0.00586818
0.000507666
0.00743539
0.688985
0.31973
0.00771625
0.0235454
0.0326715
0.0244516
0.0137048
0.0035938
0.017385
0.220026
0.0540565
0.0115902
0.0582361
0.107295
0.0228588
0.0436166
0.0261093
0.00837478
0.021402
0.0234247
0.0222479
0.0704752
0.237367
0.246515
0.163501
0.0522995
0.013958
0.0123386
0.0439439
0.0163326
0.0466633
0.0900698
0.0598799
0.0862747
0.0961019
0.0188148
0.0547927
0.0145885
0.0164724
0.109418
0.224385
0.343175
0.455555
0.409826
0.0281005
0.00887449
0.00482275
0.0472892
0.0983069
0.169643
0.199596
0.141502
0.0878896
0.00348296
0.0184949
0.0202337
0.0200639
0.057245
0.056661
0.0507453
0.137061
0.219179
0.0247982
0.15052
0.0793277
0.030746
0.0980588
0.146888
0.431091
0.365329
0.173501
0.00716648
0.00192657
0.00218733
0.0350615
0.0434124
0.0789879
0.279653
0.282779
0.210016
0.00515332
0.0115791
0.00389598
0.0166791
0.00209728
0.000628471
0.00456293
0.0186865
0.0266146
0.0147214
0.169714
0.113477
0.00497129
0.00349547
0.000745596
0.00654137
0.00862683
0.000843552
0.0407456
0.758667
0.349465
0.014792
0.0111269
0.0417761
0.0313896
0.0274827
0.0291079
0.00643485
0.0216287
0.0136433
0.00796757
0.0420806
0.293575
0.114614
0.033868
0.00140592
0.0243319
0.205453
0.109333
0.0289575
0.00029175
4.80595e-005
0.00595501
0.0154258
0.00492144
0.0206623
0.536645
0.177831
0.0037724
0
0
0.031885
0.0608178
0.0433923
0.0551223
0.408385
0.153358
0.00219152
0.018108
0.225946
0.148823
0.107981
0.0358296
0.0181531
0.281749
0.086774
0.00594088
0.00942907
0.141256
0.210431
0.237102
0.188616
0.0908955
0.262682
0.0802114
0.0114848
0.00414549
0.00966641
0.115531
0.158721
0.111633
0.0684482
0.262727
0.116012
0.0138399
0.133028
0.155964
0.152717
0.172641
0.228317
0.0968515
0.158819
0.107958
0.0729913
0.0624794
0.102381
0.31589
0.185459
0.195621
0.105599
0.0639395
0.0625475
0.0378252
0.274549
0.258309
0.385979
0.136587
0.122174
0.0564314
0.00945003
0.125977
0.119472
0.143509
0.162717
0.142417
0.124864
0.107149
0.0375534
0.0107795
0.0332713
0.0484545
0.18547
0.322644
0.171455
0.215563
0.0980915
0.0176561
0.114302
0.123795
0.200015
0.129147
0.134213
0.193587
0.154551
0.105401
0.0652452
0.0133347
0.0617552
0.126589
0.112059
0.306786
0.246979
0.276933
0.188192
0.152823
0.099
0.173789
0.260154
0.0501424
0.0492704
0.0374883
0.0633696
0.106715
0.0493204
0.0350754
0.0111628
0.0120199
0.0112124
0.013126
0.0188337
0.125835
0.647984
0.0962898
0.0181564
0.00349332
0.00583317
0.0779667
0.126524
0.0858271
0.150997
0.0962568
0.0406947
0.0200548
0.0104767
0.0632869
0.0152766
0.128155
0.148432
0.200813
0.509145
0.236935
0.0455404
0.00292726
0.0198405
0.0141566
0
0.00775604
0.070182
0.423704
0.0730963
0.0810924
0.0573469
0.0127641
0.00849397
0
0.00438136
0.0197313
0.074588
0.0151629
0.485183
0.22949
0.00765847
0.00158311
0.0787314
0.0630081
0.0370483
0.316591
0.252925
0.185964
0.0326744
0.00391316
0.00181749
0.0095822
0.00578894
0.00565854
0.0688275
0.0769886
0.451158
0.128927
0.00269804
0.000438787
0.000367914
0.000604552
0.00108178
0.000646508
0.00365843
0.408944
0.135414
0.000362524
0.003665
0.00617848
0.00363585
0.00222631
0
0.0110582
0.265493
0.0948138
0.00415177
0.0095799
0.00724698
0
0.000428403
0.00285003
0.00425213
0.414061
0.179043
0.00355988
0.0125382
0.0207397
0.00679261
0.000121678
0
0.00915908
0.48772
0.485275
0.029139
0.0209866
0.0338395
0.0283579
0.0214017
0.0234373
0.0179116
0.10673
0.072318
0.00964614
0.0783002
0.0712839
0.0987771
0.0755824
0.128175
0.032792
0.00371819
0.00812168
0.0238436
0.0456218
0.0923581
0.0583086
0.0198368
0.011966
0.0758066
0.470522
0.676126
0.0533221
0.10837
0.139319
0.116334
0.128209
0.0462383
0.113365
0.148481
0.143
0.0433426
0.0464181
0.0520052
0.121759
0.0517218
0.0372931
0.0104745
0.000263246
0.00288741
0.0217675
0.0166077
0.0993232
0.10858
0.0390113
0.0164785
0.00394869
0.000438743
0.00261543
0.0228653
0.0745633
0.210066
0.0945455
0.0420264
0.0123192
0.0319702
0.00757847
0.0217077
0.0267057
0.104615
0.837422
0.288445
0.0130657
0.00946092
0.0276408
0.0030712
0.00545751
0.0259198
0.00428278
0.129044
0.0606523
0.00335849
0.00317033
0.000269539
0.000392827
0.00189477
0.0034138
0.020648
0.425194
0.170492
0.00628599
0.000401553
0.00014994
0.00412995
0.0063996
0.00267303
0.0289098
0.474203
0.257078
0.00163333
0.00204138
0.00245753
0.000832238
0.000481478
0.0029832
0.0304558
0.57107
0.306577
0.00776777
0.00416618
0.000951262
0.00103766
0.000345599
0.000430021
0.0384198
0.463026
0.217008
0.0447573
0.0186839
0.00525952
0.0215621
0.00864278
0.00125711
0.0306766
0.220054
0.220142
0.0945852
0.128195
0.0873618
0.0447972
0.00972696
0.00455802
0.0363369
0.390785
0.186987
0.0136567
0.0073103
0.00392691
0.000433516
0.0046407
0
0.0523573
0.418644
0.393305
0.00602596
0.0620027
0.0698289
0.0274692
0.00762756
0
0.0456667
0.0786915
0.151177
0.0851273
0.0999266
0.0909904
0.0346683
0.0117162
0.00679566
0.196211
0.248764
0.173301
0.127385
0.0424238
0.0300328
0.0128455
0.021079
0.0116102
0.12625
0.35388
0.328145
0.0798504
0.0889194
0.0709325
0.0380309
0.0649
0.0119095
0.287428
0.529275
0.166043
0.185721
0.0591932
0.0448114
0.0591622
0.117339
0.0308459
0.129676
0.181231
0.148539
0.124368
0.0464766
0.051933
0.0169649
0.0279715
0.0598873
0.0857571
0.187102
0.242742
0.250543
0.210273
0.157056
0.0523839
0.142238
0.110726
0.18569
0.27834
0.0774761
0.148329
0.089637
0.100684
0.0347275
0.03557
0.0472607
0.103745
0.220468
0.123779
0.28565
0.462822
0.15344
0.0247715
0.0774638
0.0580129
0.0688864
0.0754947
0.0906973
0.0923654
0.0514268
0.075696
0.0544506
0.0391117
0.123818
0.0761611
0.24946
0.250985
0.115312
0.188052
0.14485
0.0934092
0.0126438
0.0622348
0.176212
0.15967
0.263482
0.0727383
0.069133
0.146553
0.110134
0.106546
0.127413
0.144577
0.181821
0.258549
0.101723
0.3023
0.283315
0.378101
0.113334
0.0704897
0.0375645
0.127848
0.0802176
0.0186197
0.0758257
0.132667
0.191885
0.0690368
0.0207249
0.00927711
0.0169864
0.0112995
0.00488373
0.0271702
0.0683098
0.362675
0.127568
0.0194428
0.0755272
0.101102
0.0449731
0.0406317
0.239497
0.224851
0.304336
0.136513
0.0242837
0.0209394
0.0323436
0.0137885
0.0466413
0.168311
0.183259
0.591274
0.204014
0.025332
0.0344918
0.0426788
0.030601
0.0148987
0.00327474
0.022421
0.249573
0.123747
0.0147485
0.0435303
0.0672017
0.0379808
0.0126073
0.017657
0.0435073
0.320563
0.454155
0.0869311
0.0206951
0.0439702
0.0587448
0.0363669
0.022841
0.122548
0.500034
0.164335
0.0235885
0.0283928
0.0737886
0.111547
0.0408224
0.046464
0.0898778
0.320508
0.282059
0.0975673
0.0104754
0.0210194
0.0149392
0.00990918
0.0212821
0.0774091
0.38158
0.313029
0.0421155
0.0279428
0.146031
0.0443124
0.0440448
0.00943326
0.0590939
0.268043
0.192871
0.0349545
0.0143834
0.012135
0.0328186
0.0265019
0.0682064
0.0774787
0.408687
0.176259
0.0608104
0.13332
0.287594
0.0563012
0.0090938
0.0390961
0.0438515
0.360905
0.231883
0.18416
0.0354424
0.301988
0.102401
0.0130818
0.00103596
0.00754856
0.0178864
0.03827
0.0124474
0.0903214
0.588419
0.203763
0.00440464
0.00467451
0.00549756
0.000610839
0.000580578
0.0069818
0.0938979
0.415994
0.149005
0.00276028
0.0119985
0.00260199
0.0281428
0.0481942
0.0564299
0.0893265
0.420353
0.210882
0.011584
0.012612
0
0
0
0.00846349
0.0716638
0.400532
0.19278
0.00627957
0.00782605
0.00292925
0.00212443
4.83923e-005
0.0074587
0.0394914
0.278334
0.199867
0.00648024
0.0109527
0.00959022
0.00337305
0
0.00628558
0.0610275
0.300216
0.18952
0.0152949
0.0114455
0.0012143
0.0012143
0
0.00962185
0.0322581
0.4841
0.49111
0.0378869
0.0148033
0.045544
0.00202383
0
0.00884952
0.00989167
0.146542
0.130105
0.0320481
0.00663256
0.0111388
0.00030669
0.000370527
0.000405343
0.0477808
0.425728
0.336907
0.0483724
0.00834728
0.0152723
0.010752
0.00248593
0.004206
0.00877139
0.205726
0.26949
0.138154
0.0301639
0.0778361
0.0705911
0.0602037
0.000675572
0.0570316
0.406358
0.30158
0.211593
0.0428708
0.125002
0.348634
0.120207
0.0593232
0.132355
0.316867
0.198335
0.0173675
0.0059383
0.00976576
0.0683931
0.0485289
0.0231612
0.149307
0.202825
0.0493006
0.0331762
0.00844369
0.0249638
0.228519
0.146879
0.0579437
0.120621
0.234727
0.197659
0.090112
0.0103957
0.064885
0.242813
0.134723
0.117659
0.141322
0.178937
0.192532
0.143833
0.0265922
0.0225179
0.390465
0.379213
0.149117
0.0753249
0.0976578
0.032158
0.0817604
0.0611949
0.106959
0.120225
0.128872
0.0542148
0.0185635
0.0535685
0.0350958
0.202368
0.345561
0.168679
0.0140198
0.0246907
0.0132616
0.0724861
0.201424
0.202927
0.25839
0.13775
0.0500526
0.203166
0.36334
0.18507
0.0190502
0.154254
0.118882
0.305458
0.312563
0.184546
0.0235536
0.0916514
0.127861
0.128086
0.138869
0.118763
0.0247592
0.0429566
0.0993067
0.116838
0.0756185
0.0465375
0.0561688
0.165384
0.0946579
0.0570617
0.161312
0.161313
0.170453
0.07763
0.0387054
0.172148
0.178917
0.11227
0.133437
0.0751603
0.119639
0.228073
0.267712
0.0749144
0.13057
0.477883
0.292622
0.272982
0.174058
0.210886
0.0967874
0.0587165
0.0575932
0.0521862
0.146111
0.0493793
0.0544593
0.164849
0.100343
0.118463
0.0633124
0.065943
0.0299105
0.0823479
0.0748111
0.0963502
0.134685
0.0935549
0.199887
0.0919188
0.0431334
0.0886849
0.363755
0.320555
0.174817
0.213102
0.215721
0.0181153
0.00861255
0.106691
0.0696743
0.254456
0.395209
0.205654
0.27123
0.179094
0.0286568
0.0225597
0.0941962
0.0510851
0.0263973
0.0744497
0.0576357
0.0449279
0.104922
0.333865
0.143848
0.0256966
0.0329876
0.0105798
0.0444484
0.014926
0.0251787
0.0758867
0.324556
0.256788
0.0670203
0.145019
0.133832
0.30829
0.123169
0.133426
0.151518
0.124605
0.145748
0.0985462
0.148719
0.00777513
0.0660597
0.094025
0.144829
0.206017
0.282644
0.334953
0.245305
0.0189792
0.00750257
0.0409207
0.0163126
0.0647851
0.0521069
0.284922
0.22852
0.0669676
0.182285
0.145206
0.0411779
0.0061382
0.05795
0.0412916
0.158327
0.115343
0.184817
0.0587425
0.0151435
0.0720496
0.0893133
0.0955279
0.108886
0.363801
0.408279
0.194577
0.0656099
0.251097
0.180186
0.0164983
0.0151797
0.0351225
0.270988
0.202296
0.164807
0.0860468
0.163484
0.0606302
0.00305626
0.014381
0.00275297
0.00939539
0.0100304
0.0416145
0.0501295
0.351257
0.213543
0.00750842
0.00830295
0
0
0.000261136
0.00508418
0.0474888
0.282109
0.252973
0.0164892
0.00380142
0.0031974
0.0188418
0.0190097
0.0425647
0.0573348
0.616102
0.434249
0.0215527
0.01326
0.0183434
0
0.00912037
0.0196102
0.0255203
0.345575
0.227418
0.0122581
0.00222304
0
0
0
0.00137189
0.0251483
0.418403
0.314648
0.0748005
0.0164189
0.0304292
0.00115128
0.0103615
0.00100477
0.0333514
0.435294
0.287202
0.0218442
0.0101954
0.00636066
0
0.00110791
0.00304543
0.035494
0.326669
0.290413
0.10299
0.0628691
0.0332268
0.013639
0.0193375
0.00538336
0.0059426
0.142403
0.168806
0.105959
0.0399146
0.0675326
0.144489
0.137435
0.00242246
0.0514097
0.0814114
0.121273
0.127126
0.0473175
0.155825
0.593675
0.259658
0.211117
0.0113034
0.0759685
0.14061
0.0634745
0.0751395
0.0573143
0.077094
0.0951467
0.0278007
0.116056
0.00530672
0.165358
0.119284
0.123622
0.151248
0.264742
0.182036
0.228317
0.108628
0.03838
0.104118
0.0595901
0.0172347
0.0633648
0.201569
0.115439
0.223534
0.208948
0.178196
0.194755
0.198013
0.0933151
0.064925
0.130222
0.189708
0.167461
0.250983
0.00229088
0.118956
0.103047
0.100349
0.0875554
0.125643
0.0852002
0.228964
0.319228
0.082691
0.11277
0.236217
0.256778
0.170163
0.188361
0.181852
0.21498
0.123521
0.216521
0.128592
0.204983
0.174979
0.0411478
0.0340989
0.0886708
0.10645
0.0653892
0.138918
0.0394937
0.149279
0.240979
0.0799605
0.00488837
0.0335217
0.112541
0.231131
0.17399
0.0532938
0.204334
0.328938
0.119899
0.177477
0.121704
0.102076
0.183449
0.124952
0.0270696
0.187256
0.457171
0.0954146
0.169632
0.049145
0.107835
0.154895
0.159825
0.104315
0.0957314
0.0281573
0.0357653
0.053042
0.141441
0.109302
0.156886
0.263621
0.263557
0.268283
0.0502461
0.0833384
0.0190396
0.016516
0.041081
0.238927
0.349495
0.158425
0.0965693
0.0297677
0.101409
0.0197349
0.0543357
0.253743
0.276101
0.256175
0.232767
0.200576
0.0507573
0.0930989
0.0838897
0.101335
0.211387
0.125224
0.207142
0.305909
0.181525
0.135188
0.0981516
0.00964132
0.00796059
0.0229728
0.0670998
0.231927
0.367027
0.154296
0.213482
0.0948463
0.031614
0.0294072
0.0366595
0.169155
0.174916
0.187531
0.122052
0.117962
0.112444
0.10607
0.0918491
0.0846979
0.0963745
0.298885
0.240928
0.126503
0.156074
0.216791
0.137146
0.19027
0.0308511
0.0965539
0.1232
0.171443
0.0832257
0.119037
0.118673
0.0482682
0.074624
0.0478272
0.161662
0.0976066
0.037526
0.147521
0.248265
0.180242
0.0500009
0.127531
0.122634
0.176579
0.171214
0.114692
0.0736196
0.0908366
0.308097
0.141833
0.121061
0.0452831
0.399044
0.308248
0.0953625
0.154787
0.249289
0.22999
0.144958
0.0828161
0.102602
0.0678227
0.0618624
0.0673226
0.106501
0.142828
0.100391
0.0895542
0.0949933
0.0888388
0.0381547
0.241594
0.194791
0.0360915
0.013892
0.0201969
0.0959005
0.0613646
0.0808588
0.322607
0.31162
0.107576
0.202712
0.202595
0.0970327
0.0991362
0.0669685
0.139414
0.272687
0.408812
0.185774
0.221913
0.172692
0.0187576
0.0650798
0.0788468
0.185656
0.037175
0.28506
0.252451
0.0334451
0.0119526
0.00830236
0.0117609
0.022904
0.0497958
0.0449277
0.28117
0.25889
0.0333675
0.0879554
0.0616716
0.00310632
0.0236919
0.0615186
0.167639
0.369025
0.17689
0.129297
0.180449
0.012701
0.0349394
0.111765
0.14132
0.214432
0.216338
0.173904
0.071467
0.232583
0.0912781
0.0992885
0.221257
0.299494
0.0308274
0.25091
0.30028
0.0456716
0.0586952
0.0525588
0.03021
0.0116462
0.029981
0.0695762
0.274017
0.327826
0.155418
0.0437021
0.0271846
0.0558668
0.0169864
0.0388169
0.0988836
0.0686266
0.157613
0.0836275
0.2236
0.143917
0.151086
0.14365
0.180823
0.359325
0.243292
0.188638
0.159631
0.0384146
0.0700488
0.15172
0.0691208
0.219452
0.0221587
0.0675212
0.152039
0.0770041
0.0475868
0.0244796
0.0245381
0.0196065
0.0275811
0.0696351
0.0102135
0.137644
0.262467
0.234818
0.161543
0.0617939
0.0363673
0.0568246
0.164978
0.115707
0.127256
0.0978943
0.101321
0.0358669
0.0484355
0.00708361
0.116457
0.0455428
0.0236925
0.0866889
0.46331
0.577922
0.227957
0.0459268
0.0379444
0.0530243
0.087459
0.0149623
0.0976847
0.21647
0.211507
0.0877879
0.0491808
0.0599721
0.0580043
0.137163
0.0795979
0.164168
0.189537
0.159037
0.101257
0.189053
0.235435
0.138412
0.00516875
0.0249372
0.0754733
0.331419
0.327815
0.15762
0.0699268
0.0752963
0.0158974
0.0639563
0.106843
0.286099
0.304508
0.190989
0.236908
0.15935
0.12398
0.0725643
0.141517
0.0662989
0.0516824
0.0687715
0.174766
0.100286
0.235253
0.255943
0.136301
0.0917681
0.04564
0.0782252
0.0859128
0.406134
0.103801
0.193343
0.150104
0.0994566
0.093568
0.0460461
0.116355
0.137373
0.098258
0.148992
0.132284
0.186379
0.244079
0.0517911
0.0171823
0.124833
0.201148
0.286691
0.10274
0.120158
0.19436
0.279854