0.0686299
0.0500236
0.163565
0.0260531
0.073306
0.0264567
0.123573
0.23157
0.243521
0.205196
0.0660414
0.205331
0.0131152
0.0793019
0.123683
0.194852
0.358469
0.333272
0.0910615
0.0317994
0.0312357
0.0388925
0.0630557
0.0375345
0.103913
0.121459
0.208837
0.22585
0.0604848
0.0672388
0.00321408
0.0726383
0.0348646
0.157217
0.253667
0.332394
0.289316
0.262821
0.128052
0.142002
0.131858
0.175758
0.149846
0.114223
0.135469
0.163187
0.237167
0.10208
0.260344
0.182808
0.0789724
0.0647272
0.275373
0.102261
0.289499
0.19334
0.0380705
0.0555601
0.0430571
0.0419874
0.0741943
0.124052
0.16742
0.16953
0.189449
0.0501423
0.106381
0.0654856
0.0482688
0.0635591
0.206559
0.0814665
0.231575
0.0676144
0.0256143
0.0723048
0.0459441
0.0606701
0.126597
0.378388
0.228924
0.286904
0.0538278
0.00264803
0.00589392
0.0289426
0.0960486
0.183662
0.235541
0.336942
0.176711
0.0715041
0.0788781
0.0673742
0.0287449
0.0495157
0.0572854
0.22103
0.169926
0.223295
0.110545
0.0551647
0.0412575
0.0192252
0.102031
0.0308533
0.11295
0.228445
0.272426
0.0630049
0.00907478
0.00412263
0.0356904
0.0344996
0.102286
0.116773
0.274461
0.269267
0.0861554
0.0179875
0.0137034
0.0496617
0.074033
0.122143
0.254756
0.352235
0.221802
0.12097
0.0241486
0.0154707
0.0304446
0.114484
0.0335206
0.0494593
0.159766
0.288399
0.0794252
0.00400981
0.00221011
0.0242417
0.103522
0.0678185
0.22495
0.324646
0.0641613
0.0229443
0.00682315
0.00707473
0.0188847
0.0379515
0.089696
0.320794
0.112425
0.161984
0.0637492
0.0351532
0.0689952
0.00721589
0.0163641
0.0917452
0.275009
0.135083
0.193049
0.0509923
0.00087527
0.000581886
0.00122334
0.00835534
0.0435313
0.231666
0.201125
0.417673
0.116263
0.021972
0.0263936
0
0.00164649
0.0576924
0.196886
0.508224
0.22707
0.109631
0.0423282
0.0663
0.00645629
0.0168636
0.0366355
0.0863521
0.12668
0.309545
0.179984
0.122282
0.108897
0.00699928
0.0107847
0.0108462
0.0480934
0.172224
0.300943
0.205053
0.059021
0.0287709
0
0.0015202
0.0472409
0.0734204
0.347013
0.373345
0.290337
0.0482611
0.0158901
0
0.00354598
0.0610886
0.175487
0.26883
0.181906
0.202165
0.121571
0.0995828
0.0170943
0.0251035
0.0213781
0.0593175
0.0883353
0.29612
0.240654
0.066611
0.0179003
0.0156717
0.0199211
0.058059
0.0660518
0.101464
0.289024
0.222187
0.0211307
0.0112962
0.0419643
0.0244203
0.0759759
0.233978
0.1833
0.368229
0.35672
0.031962
0.03706
0.106294
0.0917972
0.040667
0.0905572
0.199442
0.185744
0.141141
0.10575
0.0195175
0.0128946
0.00107421
0.0252031
0.016115
0.102862
0.240228
0.198913
0.24842
0.0244666
0.0105788
0.000479692
0.039925
0.0916674
0.201257
0.258877
0.207961
0.0586786
0.0281759
0.0260881
0.0257723
0.0454689
0.0722122
0.239997
0.252121
0.104915
0.180261
0.00510415
0.0016817
0.00335784
0.110391
0.268841
0.464398
0.163709
0.102201
0.106019
0.0261001
0.00685581
5.35383e-005
0.0357401
0.168497
0.108535
0.133953
0.392059
0.261551
0.0439862
0.0325214
0.00682371
0.0342116
0.159024
0.0557415
0.108623
0.047215
0.0984241
0.00256406
0
0.000374768
0.033757
0.282606
0.313864
0.097809
0.188482
0.170916
0.0348489
0.0475506
0.0666919
0.064548
0.327635
0.365209
0.0917541
0.0254224
0.0319473
0.109511
0.115023
0.0897114
0.154491
0.125916
0.134227
0.145005
0.0582697
0.0603174
0.0412723
0.0780805
0.0666857
0.396051
0.35182
0.237171
0.112778
0.0316808
0.0648633
0.173494
0.0762043
0.172918
0.0895251
0.074699
0.173262
0.176634
0.164041
0.119632
0.109504
0.0095724
0.0750769
0.131576
0.149179
0.235484
0.086958
0.085598
0.0217862
0.0447547
0.0428018
0.035102
0.117337
0.231559
0.173374
0.0597004
0.106381
0.0787307
0.0786582
0.117974
0.0651316
0.0377441
0.29376
0.145617
0.13114
0.152063
0.136768
0.0278889
0.00555557
0.0140407
0.0373697
0.164531
0.186583
0.336124
0.145859
0.183706
0.0421154
0.044621
0.0227606
0.00192814
0.375136
0.350849
0.0580006
0.0395627
0.0727164
0.0188844
0.0344612
0.0202202
0.0129317
0.0985665
0.0974204
0.115618
0.0703369
0.0572707
0.0112929
0.0078506
0.0278154
0.0125295
0.0589512
0.187708
0.24083
0.0237679
0.0365195
0.00634298
0.0179494
0.00524087
0.000235563
0.177432
0.373197
0.302704
0.180435
0.0355158
0
0.00210246
0.000388554
0.00164894
0.180127
0.635541
0.0373858
0.0419585
0.015365
0.00330304
0.00379349
0.0150384
0.00762851
0.0171064
0.0415735
0.0734365
0.0977946
0.0996816
0.0120365
0.00310607
0.0137905
0.0146845
0.0208629
0.0245549
0.0829033
0.265384
0.121742
0.00281084
0.000240054
0.000748103
0.00108979
0.0372722
0.119459
0.0638756
0.627539
0.631519
0.0212796
0.000144032
0.000771303
0.00207437
0.00658888
0.0251764
0.1095
0.161995
0.0654054
0.0031576
0.000152495
0.000956993
0.00281641
0.0120383
0.0426109
0.196017
0.164537
0.0247207
0
0
0.00353831
0.0616325
0.0727586
0.252744
0.10862
0.407358
0.500139
0.0098708
0.000707263
4.95733e-005
0.00265867
0.0162042
0.0283062
0.20684
0.281941
0.171098
0.00429943
0.00117877
0.0247682
0.305005
0.201773
0.228169
0.0933543
0.0708375
0.0233269
0.000423911
0.0118346
0.019587
0.0983973
0.0852969
0.199503
0.136826
0.0825205
0.0370854
0.0238945
0.0266668
0.0291447
0.0591422
0.0793013
0.108506
0.0843872
0.0613665
0.013907
0.00337693
0.0628821
0.0936715
0.586268
0.220463
0.172272
0.247322
0.0899391
0.0455775
0.0435923
0.117336
0.202381
0.484701
0.0832856
0.0665614
0.150648
0.0544275
0.0577201
0.105992
0.117461
0.0480294
0.107926
0.155348
0.0876464
0.102837
0.110276
0.0130386
0.137178
0.219017
0.132798
0.121019
0.065099
0.0526914
0.424024
0.108989
0.0945119
0.185535
0.203682
0.214399
0.211909
0.0765197
0.0381116
0.325548
0.0932247
0.0135017
0.171793
0.266513
0.13015
0.177373
0.143409
0.0301976
0.120572
0.0683296
0.00349545
0.0408558
0.038466
0.0254652
0.0539743
0.0635562
0.142952
0.226844
0.0331313
0.00993581
0.00761447
0.00228107
0.000616398
0.0261731
0.115664
0.411342
0.292923
0.0554264
0
0.0293327
0.0353385
0.0197911
0.0798751
0.0848021
0.156896
0.425784
0.0838676
0.00861134
0.00701344
0.00136864
0
0.0108939
0.114704
0.556536
0.110868
0.0194528
0.0241441
0.00689714
0
8.94895e-005
0.00623031
0.172862
0.309788
0.0352901
0.0406781
0.0830517
0.0834813
0.0527216
0.0718094
0.0476787
0.307376
0.224349
0.195475
0.0882231
0.0315021
0.0111391
0
0
0.00155154
0.210628
0.492619
0.158307
0.222256
0.156366
0.149724
0.0830105
0.0465609
0.0466775
0.276069
0.264035
0.062273
0.00463927
0.0167454
0.0334298
0.0103735
0.0191503
0.0101247
0.024148
0.142095
0.102507
0.0653629
0.0429561
0.0141495
0.00148192
0.00456969
0.00244441
0.00518125
0.114848
0.208194
0.00192521
0.00916292
0.0176978
0.00589536
0.0137587
0.0243626
0.130175
0.601415
0.298434
0.0614741
0.0310691
0.00768097
0.0332622
0.0342882
0.0903008
0.0964931
0.589255
0.123864
0.17006
0.12304
0.0113522
0.0131663
0.00181342
0.00027779
0.0113145
0.082378
0.188788
0.124175
0.133017
0.0134493
0.038796
0.00953246
0.0415626
0.0624725
0.159963
0.282569
0.216263
0.101254
0.0222232
0.144044
0.0315991
0.055596
0.0391299
0.51464
0.211979
0.255426
0.200759
0.0750497
0.306328
0.0667272
0.069271
0.0712807
0.221903
0.0707139
0.0208207
0.018951
0.00124884
0.00747277
0.0133752
0.0305868
0.0388921
0.132869
0.0832923
0.245189
0.111958
0
0.00153698
0.0139702
0.0193371
0.0458005
0.162386
0.0369437
0.211893
0.220721
0.0132701
0.0576491
0.0587022
0.050978
0.0268921
0.0581295
0.0379468
0.587842
0.587842
0.000218467
0.0107589
0.0395838
0.0322285
0.0118855
0.0572166
0.0404892
0.322318
0.131075
0.000202163
0
0.000903415
0.00135512
0.00785759
0.0291913
0.0135124
0.424791
0.378244
0.00226743
0
0
0
0.000632124
0.00601692
0.0246433
0.424791
0.310129
0
0.00229205
0.00150569
0.00225854
0.000490389
0.00851544
0.0435988
0.394536
0.273819
0.012265
0.0160444
0
0
0
0.0185069
0.0406345
0.345827
0.508005
0.00754594
0.00272676
0
0.0032658
0.0111915
0.0186598
0.0740604
0.0865875
0.142954
0.00609793
0.00454461
0.0129232
0.260881
0.13485
0.0614698
0.249458
0.209307
0.231069
0.0244961
0.0130889
0
0.00644456
0.00540788
0.135872
0.314486
0.034452
0.0417181
0.00423719
0.0120079
0.0341375
0.194397
0.0584449
0.334605
0.0136063
0.00597119
0.000674533
0.00105962
0.0156284
0.0642628
0.406173
0.0862776
0.017229
0.061259
0.0166457
0.00361157
0.00497603
0.0289978
0.237322
0.487696
0.117274
0.00861725
0.0399331
0
9.63618e-005
4.12979e-005
0.0160786
0.0556853
0.291824
0.0363801
0.0675104
0.00995914
0.000330686
0
0
0.0110015
0.166024
0.487696
0.315048
0.0268965
0.0892063
0.0159771
0.00440688
0.00958516
0.019506
0.130934
0.168156
0.159791
0.0521754
0.0986681
0.0131755
0.000629554
0.00752042
0.020422
0.0260809
0.0315431
0.142523
0.153597
0.0285967
0.00202167
0.00832342
0.000332965
0.00853223
0.114339
0.347614
0.528952
0.170737
0.0429388
0.00815954
0.1027
0.0534096
0.0582646
0.104613
0.115314
0.429583
0.371697
0.231721
0.0459239
0
0.0020682
0.0196002
0.0272189
0.0528293
0.157281
0.235868
0.255697
0.112322
0.00411917
0.00085962
0.00720274
0.0101442
0.0120455
0.124402
0.345956
0.0651495
0.0265958
0.18174
0.159601
0.154947
0.272905
0.163358
0.299583
0.354783
0.234319
0.0690957
0.035054
0.0365368
0.0948315
0.138058
0.0401375
0.0841202
0.1907
0.117297
0.0854235
0.0106068
0.00264482
0
0.00137796
0.00769293
0.207398
0.377248
0.147378
0.153473
0.076987
0.046463
0.0247734
0.0176409
0.0852907
0.216514
0.262407
0.248293
0.0709202
0.020522
0.00120863
0.00975868
0.0110328
0.0126806
0.0709359
0.270841
0.294715
0.0506741
0.0346195
0.00403048
0
0.0352102
0.0834549
0.0845128
0.508737
0.107045
0
0.000579542
0.0513047
0.0718271
0.0549585
0.0507326
0.111957
0.408525
0.10683
0.0058539
0.0186162
0.0127312
0.241987
0.154915
0.104986
0.0908301
0.292125
0.181089
0.00922838
0.0165443
0.125531
0.165137
0.11397
0.0550625
0.0599896
0.151459
0.0963569
0.00179438
0.0731804
0.0651823
0.524163
0.348725
0.0556841
0.0285539
0.083513
0.0592799
0.0619668
0.0583721
0.0171905
0.15899
0.0502501
0.0247832
0.014313
0.122673
0.0693972
0.20552
0.266935
0.053156
0.0941708
0.0128184
0.00370842
0.00501126
0.0422741
0.0161962
0.133503
0.295569
0.0844685
0.31204
0.13065
0.00690037
0.00298947
0.0113983
0.0263727
0.512621
0.512621
0.0740647
0.0595206
0.0128751
0
0.000197474
0.0043901
0.0134512
0.234944
0.324908
0.0170793
0.0232845
0.0131446
0.00475861
0.00226976
0.000678433
0.0030847
0.408916
0.384743
0.000409606
0.0065413
0.00712651
0.00300841
0.000661866
0.00229979
0.00687966
0.326276
0.443928
0.0127273
0.00692727
0
0
0
0
0.0273744
0.277694
0.308692
0.0366776
0.0127949
0
0
0
0.0126717
0.0155961
0.276204
0.248563
0.00829424
0.016414
0.000291372
0.000437057
0
0.00966425
0.080202
0.284322
0.291325
0.0648656
0.0308236
0
0
0
0.0220244
0.0668858
0.284683
0.307089
0.0949409
0.0263761
0
0
0
0.022268
0.137273
0.425724
0.45797
0.177834
0.0234717
0
0
0
0.0302879
0.264866
0.212382
0.300766
0.0877866
0.0127746
0.00619322
0.0176628
0.0129021
0.107383
0.291509
0.0526008
0.0780298
0.0191908
0.0123699
0.144216
0.322885
0.137073
0.306428
0.163273
0.239022
0.297733
0.110235
0.00615131
0.010322
0.0105977
0.0181337
0.0769085
0.0907539
0.030535
0.0639035
0.0213761
0.00718575
0.150248
0.254318
0.220888
0.190741
0.035727
0
0
0
0.0226533
0.0953936
0.272193
0.129948
0.0858752
0.01319
0
0
0
0.0296107
0.0409741
0.360766
0.228806
0.0307571
0.00996222
0.000177119
0.000531357
0
0.0117976
0.1644
0.351294
0.2729
0.101548
0.0190721
0
0
0
0.0404376
0.166002
0.508945
0.353071
0.0621648
0.00479417
0.000874373
0.00786936
0.000855718
0.0224372
0.0842865
0.287898
0.257244
0.0502599
0.00369904
0.00612061
0.103165
0.0831643
0.119994
0.172311
0.356387
0.228486
0.0835004
0.0146788
0.00012491
0.00112419
0.000513431
0.0370307
0.0939311
0.36548
0.125005
0.0208825
0.00500201
0.000874373
0.0191261
0.035506
0.0791701
0.162918
0.568047
0.140069
0.00500201
0.0120255
0.00515183
0.087814
0.121505
0.092489
0.132402
0.249201
0.0645866
0.0296882
0.0625007
0.0265249
0.0293856
0.0337982
0.0780408
0.0954474
0.0804594
0.0112332
0.0187414
0.00650059
0.000735975
0.0181832
0.0544105
0.0505169
0.146972
0.660797
0.185772
0.00382879
0.0899855
0.0275468
0.0419392
0.0176371
0.0793344
0.143421
0.447617
0.224211
0.057208
0.139433
0.0867419
0.0310719
0.00120434
0.0299001
0.0601546
0.0262466
0.0192896
0.0889531
0.322531
0.116544
0.0160488
0.000365328
0
0.0234972
0.0269025
0.0379111
0.309369
0.269042
0.0734745
0.0814417
0.000691289
0.0393189
0.135871
0.0617189
0.0938683
0.249556
0.491714
0.126355
0.0439118
0.0119182
0.00760914
0.142512
0.0684842
0.112401
0.433451
0.127333
0.0134941
0.021794
0.0680248
0.152228
0.0694592
0.0132593
0.041911
0.108613
0.0443922
0.00102063
0.0549588
0.147155
0.525165
0.164879
0.0097843
0.0107762
0.0533921
0.228265
0.0227001
0.0690596
0.0718199
0.260883
0.0923073
0.00288973
0.0406176
0.175425
0.0918329
0.000258996
0.0140374
0.203479
0.536385
0.184661
0.0528833
0.0102777
0.0696954
0.00064301
0.0407297
0.234614
0.164774
0.287896
0.101092
0.007858
0
0
0.00125233
0.199556
0.45658
0.117562
0.0776986
0.0341901
0.00614797
0
0.000180646
0.0170361
0.00401958
0.0603437
0.138404
0.381158
0.288032
0.225985
0.0197143
0.00917327
0.00369825
0.0335415
0.109793
0.0869534
0.131562
0.227623
0.332281
0.0570232
0.00257499
0.0142354
0.20964
0.306644
0.0329211
0.0453229
0.00930113
0.000667181
0
0.000271715
0.0471304
0.303506
0.426851
0.142764
0.0603367
0.0325653
0.000676546
0
0.00789009
0.0128516
0.0537453
0.105369
0.0396422
0.213046
0.0731013
0.147531
0.059568
0.0046043
0.0208541
0.224733
0.315916
0.106183
0.255821
0.294748
0.233116
0.188428
0.00477555
0.0991203
0.378945
0.47879
0.178653
0.0400669
0.0185012
0.000837537
0
0.0194629
0.133515
0.277268
0.336998
0.167138
0.0289907
0.00122988
0.000202056
0.000295647
0.036324
0.0284465
0.170934
0.268964
0.107545
0.0909254
0.249447
0.224806
0.106005
0.0106757
0.0389366
0.0510374
0.0924587
0.0627494
0.0469633
0.0602689
0.0625318
0.0319289
0.0213703
0.272421
0.213031
0.306365
0.193613
0.0198002
0.0239917
0.00179752
0.0294397
0.214776
0.101506
0.0299293
0.0599395
0.0109554
0.0123764
0.170179
0.167775
0.352536
0.403646
0.0538745
0.0301632
0.102305
0.0556915
0.0280704
0.0612641
0.034941
0.0337571
0.104731
0.0915712
0.0717834
0.107047
0.00546733
0.00590791
0.104411
0.0565909
0.092447
0.147454
0.004533
0.00202155
0.00282519
0.000310901
0.00679789
0.104102
0.190056
0.162222
0.0746208
0.00708655
7.53506e-005
0.000384054
0.0021763
0.0314778
0.254882
0.598771
0.420732
0.0700606
0.0190639
0.022367
0.0150869
0.0167855
0.0137179
0.0500032
0.0494732
0.0390865
0.0241327
0.0126862
0.117844
0.172903
0.134622
0.0954305
0.207841
0.31484
0.161876
0.0247269
0.0117967
0
0.000112098
0.000635224
0.0562164
0.109426
0.351642
0.19467
0.0215963
0.0117761
0
0
0
0.0750449
0.0503443
0.580185
0.115316
0.0117761
0.0075445
0.146773
0.162482
0.0552987
0.22841
0.113265
0.239209
0.172394
0.00957149
0.0120095
0.0844831
0.109278
0.00537989
0.355843
0.0286087
0.215248
0.104487
0.0120095
0.0102199
0
0
0
0.0183779
0.0443688
0.497092
0.14884
0.00523308
0.109165
0.0240558
0.078151
0.0266481
0.028775
0.0686094
0.376563
0.231092
0.0456211
0.00883119
0.0144447
0.0769573
0.0526223
0.08811
0.0593311
0.244943
0.0825059
0.00512552
0.0613396
0.0270434
0.237408
0.362743
0.182382
0.220192
0.28122
0.128491
0.0144943
0.225006
0.0597939
0.146561
0.0405172
0.01796
0.0527587
0.0590964
0.0675193
0.188035
0.289692
0.0599283
0.0859943
0.0172018
0.0265121
0.206254
0.0401748
0.0358172
0.292249
0.161431
0.142137
0.288848
0.354863
0.15383
0.103876
0.0716699
0.0311995
0.0955528
0.284998
0.283919
0.235146
0.0790836
0.0677153
0.132266
0.0235403
0.0110388
0.19855
0.110754
0.0127776
0.0571871
0.090342
0.155595
0.0805217
0.0038867
0.0478132
0.0583595
0.0469746
5.49742e-005
0.00145982
0.192328
0.484211
0.0975377
0.0519534
0.00979426
0.0222404
0.148568
0.0581221
0.0567936
0.252863
0.131444
0.107013
0.00711899
0.0358625
0.0992239
0.0469539
0.0522531
0.0549829
0.478295
0.484211
0.0323394
0.0167868
0.00587656
0.0191488
0.0199597
0.000225591
0.000275722
0.0706554
0.201047
0.147571
0.303986
0.048218
0.00923782
0.00491491
0.00157914
0.00193006
0.00948343
0.0325363
0.16168
0.540322
0.114239
0.00194769
0.0299199
0.0204608
0.0136993
0.139089
0.23682
0.0512178
0.216277
0.0420581
0.00632311
0.0165471
0.0103946
0.00111721
0.00711751
0.020274
0.139494
0.540322
0.107464
0.00568215
0.00578647
0.00276008
0.00542472
0.00335127
0.0646509
0.0563711
0.34151
0.0580581
0.00578647
0.0106695
0.0165974
0.0188185
0.00583083
0.0879943
0.159215
0.322773
0.174989
0.0119626
0.00316993
0
0
0
0.0085279
0.122669
0.549402
0.0649779
0.00375496
0.017829
0
0
0
0.0392512
0.110112
0.549402
0.109956
0.0199841
0.00321847
0.00826625
0.011485
0.0061647
0.0270538
0.168049
0.309199
0.17959
0.0139514
0.000276161
0.0014478
0.00468406
0.00625452
0.0230575
0.0952228
0.178481
0.109812
0.0182301
0.0169358
0
0
0
0.035016
0.142695
0.432258
0.22417
0.0285475
0.00632091
1.96133e-005
4.57644e-005
0
0.0296435
0.231842
0.528462
0.374405
0.0525482
0.00582136
0.00794829
0.012717
0.00462215
0.0136985
0.0448173
0.0522181
0.0284966
0.01787
0.0370544
0.0651611
0.0648743
0.0115478
0.00123293
0.010848
0.0070637
0.0109057
0.0217129
0.0298614
0.0827192
0.0585724
0.00399873
0.0125199
0.175264
0.37517
0.27492
0.0684163
0.101444
0.668346
0.419513
0.0226134
0.000176133
0.0314141
0.0384502
0.0424218
0.0180356
0.0269899
0.0908476
0.0938273
0.0175751
0.00812983
0.00975277
0.00377919
0.0025605
0.00560946
0.0428438
0.262778
0.312512
0.128623
0.0342824
0.0208278
0.0153003
0.00681678
0.00248445
0.0419987
0.392194
0.359301
0.0399836
0.00372133
0.000675112
0
0.000181229
0.00388628
0.0682072
0.441591
0.49808
0.0977863
0.0274785
0.000405067
0
2.32395e-005
0.0151518
0.0197405
0.219414
0.281709
0.0935174
0.0946218
0.0169541
0.0188766
0.0187805
0.00892161
0.0120021
0.189769
0.227374
0.0123222
0.140098
0.00620789
0.0129536
0.012263
0.0120021
0.0355629
0.267938
0.3315
0.0529348
0.032189
0
0
0
0.0202805
0.0102841
0.405119
0.579494
0.0204223
0.0181034
0
0
0
0.0102841
0.00169173
0.138233
0.202328
0.0549967
0.0273365
0.015592
0.0122828
0.00528268
0.00169173
0.002345
0.108831
0.46182
0.261365
0.0744096
0.0607061
0.021679
0.00811462
0.000428737
0.000586299
0.303138
0.462219
0.0277152
0.000902201
0
0
0
0.000586299
0
0.239241
0.462219
0.0968585
0.016779
0.00401449
0.000558764
0
0
0.0292256
0.145442
0.560817
0.337739
0.124143
0.0452958
0.0121
0.00244698
0.0124324
0.0873163
0.213273
0.258898
0.0740958
0.0432575
0.0164792
0.0161756
0.00291406
0.0704296
0.00423162
0.125571
0.511588
0.139298
0.0529655
0.0289155
0.003772
0
0.00330248
0.0216413
0.0825101
0.104387
0.0658738
0.0305572
0.0327696
0.00485669
0.00818039
0.0523505
0.362405
0.122485
0.0414902
0.141482
0.0433841
0.0381391
0.00969045
0.00445447
0.266369
0.132914
0.168517
0.15586
0.383035
0.231713
0.00215281
0.00426059
0.0014202
0.0662463
0.329038
0.155649
0.0863193
0.0233021
0.00660119
0.00825717
0.0723544
0.0206681
0.233721
0.220349
0.299534
0.229614
0.142027
0.0721633
0.00452951
0.0434127
0.0103423
0.0755091
0.0361973
0.101139
0.0943803
0.182379
0.174892
0.0198949
0.0815203
0.0517849
0.0181646
0.0205598
0.0485266
0.0109694
0.00970707
0.0398107
0.134379
0.715263
0.13209
0.028256
0.109877
0.223264
0.21577
0.108665
0.107019
0.0118145
0.016441
0.0419889
0.0261572
0.0895023
0.161146
0.120785
0.0158155
0.149596
0.15016
0.211061
0.0772563
0.0637639
0.00247903
0.00106244
0
0
0.00431483
0.146101
0.481586
0.0443373
0.0019378
0.00442
0.000151777
0
0
0.00960911
0.156342
0.481586
0.0659281
0.0043228
0.0259641
0.0354858
0.0111791
0.0193121
0.0540014
0.184156
0.251025
0.0157813
0.0126502
0.0035988
0.00692796
0.00131487
0.0579798
0.0519474
0.278553
0.481586
0.133181
0.015774
0.0128675
0
0
0
0.0269472
0.063997
0.326674
0.0957867
0.0149704
0.020703
0
0
0
0.0393833
0.151193
0.452399
0.275361
0.0628875
0.00455319
0
0.00148924
0.0261912
0.0181032
0.139245
0.482561
0.216033
0.0162712
0.0436955
0
0.000212748
0.000850991
0.0421509
0.119155
0.410827
0.147631
0.0852707
0.0683311
0.105136
0.0515857
0.00034079
0.0113843
0.131474
0.276955
0.192804
0.11301
0.128424
0.492104
0.357625
0.010732
0.00265942
0.026984
0.0363888
0.0512187
0.0659342
0.171844
0.0783309
0.0226534
0
0.0187951
0.0769357
0.184685
0.0799175
0.228545
0.26114
0.302016
0.227656
0.0177562
0.0147594
0.0102264
0.0214154
0.0302415
0.184723
0.0413144
0.335169
0.295735
0.0234979
0.00900041
0
0
0
0.00701021
0.0283977
0.287102
0.320815
0.034501
0.0248204
0
0
0
0.0124867
0.0643317
0.215577
0.275438
0.0380713
0.0138854
0
0
0
0.0209211
0.0451719
0.37752
0.5235
0.094693
0.00900041
0
0
0
0.00617434
0.0116884
0.196467
0.274273
0.0337244
0.0260192
0.00370549
0
0
0.00825754
0.00500898
0.235129
0.520264
0.0948267
0.0861062
0.0279703
0
0
0.004781
0.056921
0.249714
0.298562
0.0701097
0.0506795
0.0274412
0.00120469
0.0108422
0.0185115
0.0418231
0.0921009
0.236392
0.14308
0.431989
0.227833
0.00200782
0.0180704
0.0268788
0.000642381
0.196729
0.6172
0.117387
0.063462
0.0186354
0
0
0.000642381
0
0.13119
0.384879
0.114563
0.0534019
0.0131288
0.00221773
0.000615896
0
0.00449667
0.034334
0.158183
0.180542
0.422298
0.189096
0.00195532
0.00365091
0.00449667
0.00663409
0.0226923
0.0599226
0.120832
0.141412
0.0896025
0.0142539
0.0039673
0
0.00169986
0.0963458
0.317249
0.258148
0.259882
0.106623
0.0329081
0.0194706
0.0332613
0.0211057
0.0579266
0.0522269
0.116098
0.193663
0.150897
0.0231775
0.0593738
0.115464
0.122345
0.0996317
0.0588902
0.153485
0.198406
0.158361
0.0722504
0.0545214
0.14679
0.27849
0.10821
0.025726
0.0367225
0.144466
0.0880617
0.0898833
0.192982
0.350398
0.0716478
0.108158
0.203481
0.0608631
0.00641659
0.0125138
0.0610534
0.0221864
0.112192
0.144955
0.241762
0.319438
0.133794
0.0661746
0.00541119
0.0293409
0.00567111
0.0578625
0.01452
0.103636
0.334137
0.233203
0.0626898
0.0288323
0.0433447
0.019137
0.0814297
0.0874718
0.314565
0.487973
0.323256
0.081003
0.00818033
0.00231908
0.000781197
0.0438623
0.103401
0.170728
0.330457
0.121991
0.093387
0.00319187
0.0278511
0.00616397
0.0274
0.0832759
0.149459
0.329111
0.149643
0.0870465
0.0389956
0.0582954
0.0102733
0.0548587
0.0545257
0.175643
0.432785
0.24636
0.118522
0.0498373
0.0393371
0.00996821
0.0271482
0.0304702
0.0725572
0.343005
0.302806
0.148354
0.107922
0.127145
0.0783915
0.0370365
0.0468954
0.0973906
0.0819046
0.114753
0.168365
0.079584
0.0641916
0.0039882
0.0367305
0.0134475
0.0713111
0.0502712
0.188964
0.246481
0.155592
0.298929
0.225138
0.0834571
0.0348327
0.119837
0.157606
0.209315
0.217861
0.0515229
0.0512209
0.0380286
0.0362167
0.0255416
0.163803
0.31857
0.247436
0.462835
0.0756776
0.122321
0.109675
0.0517775
0.0180206
0.0242957
0.0178204
0.049064
0.0497151
0.139166
0.330318
0.25553
0.0281156
0.0293597
0.00858686
0.00159489
0.00281573
0.0391749
0.19659
0.40106
0.165358
0.0247939
0.0533975
0.0867854
0.164982
0.0419677
0.120418
0.113008
0.188995
0.124907
0.0424136
0.0762294
0.0505625
0.0380043
0.0166297
0.0544109
0.189129
0.482049
0.316481
0.0895347
0.0543867
0.023197
0.0139271
0.0138531
0.0108586
0.0456134
0.147302
0.0569482
0.0624931
0.0859144
0.201624
0.225264
0.0720938
0.0150033
0.000279496
0.0110103
0.0189339
0.0593144
0.0238645
0.112346
0.10426
0.0646224
0.010844
0.0561753
0.307928
0.290071
0.144779
0.0589569
0.487892
0.515226
0.173081
0.0221535
0.0305586
0.032389
0.107943
0.0899839
0.0385731
0.217611
0.353479
0.0801933
0.00594813
0
0
0
0.00843897
0.0434649
0.303439
0.48732
0.106482
0.00670995
0.000674572
0
0
0.00418754
0.0514159
0.220309
0.434359
0.144535
0.037326
0.0322013
0.00259977
0.00306509
0.00141819
0.0224912
0.120658
0.345826
0.111152
0.0473357
0.0536837
0.0168884
0
0.00420144
0.0594439
0.150489
0.137213
0.0558517
0.0694791
0.0232226
0.00145765
0.0131189
0.016191
0.0370216
0.0332298
0.019685
0.119087
0.604511
0.170271
0.00242942
0.0218648
0.0168795
0.0318602
0.0599802
0.0818217
0.0686375
0.109196
0.0366956
0.0301874
0.002975
0.0101647
0.0239359
0.0208079
0.0182393
0.203248
0.604511
0.183806
0.0451874
0.00495834
0.00703854
0.00484559
0.00104273
0.000608053
0.104068
0.555106
0.149453
0.00366971
0.00636295
0.00964172
0.0462994
0.0557589
0.0131744
0.0406525
0.134209
0.0738394
0.0233542
0.0115456
0.0174299
0.0553411
0.00871201
0.00179067
0.12187
0.630923
0.206562
0.0374508
0.0040691
0.0578583
0.157549
0.206793
0.0588316
0.0232126
0.0943197
0.0614392
0.0288934
0.00949106
0.117302
0.11391
0.149115
0.0510493
0.00852057
0.0198806
0.029584
0.0274553
0.0390962
0.059905
0.162633
0.0825776
0.0297179
0.0028652
0.00477403
0.00971519
0.0835689
0.148683
0.206696
0.226056
0.419173
0.160744
0
0.00260472
0.00427433
0.0166615
0.0495074
0.0981837
0.418662
0.19482
0.113219
0.0397398
0.000128765
0.00426938
0.0714451
0.176068
0.477712
0.00194142
0.191399
0.265261
0.255518
0.195329
0.0532421
0.0513519
0.0540327
0.0192783
0.0277265
0.257888
0.400595
0.319591
0.0911947
0.0406382
0.00267001
0.00684771
0.017963
0
0.223365
0.256007
0.148436
0.142838
0.0317788
0.0748521
0.131075
0.0247638
0.0023594
0.125427
0.258813
0.264053
0.119487
0.0615575
0.0254798
0.0315819
0.00589708
0.0181648
0.0624402
0.130719
0.0986041
0.0963602
0.117527
0.0695489
0.0109775
0.014548
0.0101972
0.0438193
0.0562762
0.0689557
0.176999
0.321885
0.221803
0.0819765
0.0249441
0.00207829
0.00522545
0.0349624
0.0820493
0.136398
0.137082
0.0495778
0.00273176
0.00207829
0.00195971
0.0300908
0.0176655
0.0239407
0.381436
0.663443
0.159595
0.0136502
0.00356345
0.0282875
0.127655
0.0934023
0.0899905
0.159819
0.154776
0.0874644
0.0459615
0.0245039
0.0539919
0.193613
0.394348
0.128391
0.220842
0.0417329
0.0471402
0.0212536
0.00916754
0.0453183
0.0958685
0.070756
0.055323
0.286122
0.459707
0.0747721
0.0132619
0.0118811
0.237662
0.251055
0.252792
0.0921514
0.145313
0.159494
0.0485369
0.0160074
0.0413662
0.0644148
0.146097
0.251664
0.0251375
0.057181
0.0248588
0.0380713
0.0528961
0.0552636
0.140665
0.202091
0.0617097
0.0570891
0.0170199
0.0494962
0.195377
0.223275
0.158296
0.245123
0.248343
0.16795
0.0239544
0.0446901
0.0345136
0.00747718
0.0473051
0.0474365
0.339763
0.582385
0.0814864
0.086775
0.0216546
0.0186268
0.0578533
0.0800538
0.0936586
0.0771602
0.15442
0.071466
0.0442979
0.020676
0.0417768
0.142282
0.198066
0.217356
0.0611417
0.250972
0.223676
0.0783839
0.0381312
0.0895578
0.06971
0.137974
0.229109
0.162441
0.310526
0.044507
0.0648367
0.0365727
0.040029
0.168652
0.100967
0.171609
0.28194
0.160451
0.0547409
0.0353589
0.0297234
0.0732389
0.257895
0.226996
0.38011
0.0368393
0.0611618
0.106186
0.0671656
0.039895
0.0509493
0.018719
0.054018
0.148605
0.0425385
0.0222564
0.0617036
0.045925
0.0307204
0.0582202
0.0306563
0.0533814
0.225951
0.179271
0.0609059
0.0210298
0.0279913
0.0109497
0.0252623
0.0538817
0.130039
0.514053
0.135767
0.0379989
0.00966927
0.0121726
0.00436651
0.0173263
0.0478415
0.320224
0.612155
0.0668086
0.114162
0.0455894
0.0532759
0.0486057
0.0259525
0.038371
0.0162903
0.0855306
0.0682323
0.208043
0.0705958
0.167677
0.3744
0.187533
0.0489841
0.00305589
0.0105762
0.200035
0.200437
0.114788
0.0281757
0.0122934
0.00412632
0.024238
0.198602
0.344845
0.208936
0.492958
0.257781
0.13598
0.122549
0.0564764
0.00741095
0.0318797
0.0487419
0.143796
0.0826442
0.0588918
0.11457
0.391005
0.276505
0.0511139
0.00220153
0.106483
0.233765
0.198857
0.0812431
0.0168917
0.09456
0.0548804
0.0257616
0.00983466
0.280282
0.184714
0.237766
0.163862
0.207405
0.212331
0.0862667
0.00730199
0.00221236
0.0635912
0.230362
0.146245
0.0863809
0.124805
0.147899
0.0320946
0.00414914
0.0407116
0.312554
0.141272
0.264707
0.119735
0.00324177
0.0178122
0.000463334
0.000531364
0.0090339
0.0831552
0.236318
0.316049
0.173301
0.102014
0.0176916
0.00468745
0.0232851
0.0367773
0.155225
0.139698
0.184084
0.0760237
0.0340383
0.165313
0.0955708
0.0043561
0.0284799
0.133837
0.138496
0.362765
0.277231
0.188353
0.401228
0.175943
0.127982
0.0277973
0.0231724