0.0989731
0.29346
0.0562251
0.0952677
0.134173
0.0527737
0.119625
0.0631194
0.139208
0.132589
0.161068
0.0931016
0.0789412
0.0978013
0.0793024
0.114477
0.141118
0.0998611
0.121104
0.444556
0.082332
0.0126928
0.0533769
0.165423
0.0387187
0.15945
0.119883
0.128092
0.307941
0.0917968
0.0638339
0.208149
0.326975
0.0735259
0.182266
0.103302
0.0422405
0.0919432
0.0809062
0.12071
0.100605
0.0190573
0.140708
0.180855
0.0290891
0.130561
0.184857
0.120305
0.162941
0.190403
0.00630309
0.187982
0.196861
0.0727611
0.0296673
0.11312
0.0574126
0.0914905
0.138668
0.083725
0.194444
0.268941
0.0303552
0.0806869
0.113079
0.0516041
0.0921602
0.167109
0.019032
0.4403
0.40334
0.174799
0.11266
0.160272
0.114621
0.0646856
0.160248
0.0381237
0.107853
0.0771791
0.152978
0.0894703
0.1575
0.0797338
0.0441307
0.140442
0.187817
0.107253
0.0709052
0.140669
0.17562
0.0814826
0.0454695
0.0472044
0.112719
0.108652
0.384106
0.184735
0.28617
0.251385
0.0812641
0.034556
0.100354
0.085358
0.303728
0.263342
0.150755
0.200568
0.0669273
0.086548
0.100468
0.0623458
0.114416
0.180218
0.0741907
0.14572
0.0394881
0.101284
0.117
0.135306
0.085814
0.155548
0.145353
0.0641016
0.162895
0.0314801
0.141715
0.045359
0.0764927
0.117252
0.068613
0.217056
0.141041
0.172061
0.0474271
0.158564
0.406244
0.467405
0.152091
0.111802
0.1271
0.13148
0.161913
0.0901804
0.0180074
0.0475258
0.0350884
0.0389692
0.0408043
0.0162239
0.0182932
0.0645598
0.0427519
0.0376776
0.070419
0.0231611
0.0270897
0.0110224
0.0101401
0.0693474
0.104665
0.138823
0.0429055
0.389236
0.289119
0.0543679
0.0330142
0.00612945
0.0198408
0.100347
0.0837785
0.0660125
0.38569
0.16678
0.0284045
0.00910845
0.02346
0.431274
0.438479
0.25311
0.0332967
0.0338923
0.00382096
0.0104765
0.0195609
0.0527238
0.0803988
0.064742
0.0963508
0.0253283
0.00558476
0.022254
0.0186025
0.0553894
0.113491
0.0315984
0.0356214
0.0734929
0.03264
0.0685668
0.0188205
0.0208548
0.0258056
0.108348
0.796234
0.281708
0.140559
0.0455142
0.0193412
0.0547247
0.0475216
0.0522879
0.135416
0.281472
0.0451237
0.0800655
0.0870423
0.0292322
0.100024
0.0250994
0.190816
0.18288
0.0971312
0.102611
0.132973
0.0768714
0.177085
0.125443
0.0176144
0.202193
0.175664
0.174863
0.114106
0.0812098
0.175297
0.0779174
0.146595
0.0662136
0.245556
0.13246
0.0860837
0.12314
0.111695
0.0922006
0.201835
0.255859
0.0366794
0.332911
0.171538
0.149512
0.180675
0.0696485
0.064726
0.158537
0.156332
0.0570408
0.0863241
0.0460814
0.0379338
0.0426222
0.0362029
0.0709298
0.127129
0.172159
0.196059
0.147217
0.0993349
0.0266769
0.00863416
0.0510545
0.0302935
0.208313
0.445186
0.0824759
0.154429
0.0520266
0.0316991
0.103048
0.0579848
0.06332
0.153751
0.414812
0.31282
0.18991
0.0572671
0.0255522
0.0543372
0.0888912
0.0833444
0.0793525
0.0745394
0.154721
0.113409
0.149157
0.0685458
0.0213
0.0640646
0.193486
0.255882
0.119531
0.13122
0.0518955
0.0645442
0.128519
0.0803737
0.0857861
0.0613649
0.152176
0.117393
0.284528
0.125671
0.119923
0.0820393
0.0562563
0.0997813
0.152858
0.349164
0.187204
0.296624
0.138579
0.107729
0.198273
0.0650268
0.0925642
0.0491951
0.314229
0.126937
0.0362878
0.0449208
0.13261
0.0193697
0.0740485
0.0865802
0.0273452
0.267529
0.114675
0.0581316
0.160261
0.239179
0.0177569
0.0764813
0.103412
0.119277
0.361482
0.238786
0.0807369
0.126645
0.0987004
0.149473
0.170296
0.0882658
0.0782805
0.264039
0.158266
0.0765412
0.181323
0.163128
0.105294
0.265517
0.167041
0.0129725
0.142404
0.110846
0.102502
0.122281
0.115584
0.0760991
0.126034
0.0424334
0.0562952
0.153355
0.108624
0.0988908
0.0837464
0.0486306
0.335808
0.247893
0.175392
0.0196284
0.161712
0.115442
0.107318
0.128975
0.12624
0.110634
0.258356
0.101375
0.0842242
0.273129
0.155912
0.10394
0.0880177
0.175536
0.389038
0.200564
0.130475
0.0411709
0.0585339
0.0466767
0.0219524
0.0260231
0.0860264
0.300447
0.0991248
0.107435
0.0930544
0.0803506
0.0545097
0.078542
0.05664
0.152979
0.23579
0.079167
0.0961381
0.0210048
0.0757604
0.137274
0.0248221
0.0356366
0.108141
0.270172
0.120545
0.085188
0.0435391
0.244062
0.617817
0.116599
0.0410846
0.0666398
0.1828
0.164074
0.125934
0.0526228
0.0807072
0.0504051
0.0431904
0.0182322
0.0216088
0.0237613
0.0276516
0.0274305
0.0522343
0.326524
0.279131
0.0456825
0.01176
0.00462414
0.0136526
0.0171113
0.0212397
0.0613878
0.32166
0.337884
0.0526769
0.010464
0.00752514
0.0130064
0.0270491
0.0381512
0.0525924
0.506363
0.506363
0.0244016
0.00630577
0
0
0.00203452
0.00937763
0.0264168
0.425152
0.299921
0.0179561
0.00400189
0.00113167
0.0154654
0.031253
0.0173438
0.0256446
0.295862
0.113393
0.00830106
0.0019248
0.032199
0.438489
0.229741
0.043369
0.0277676
0.328363
0.306467
0.00866038
0.0043243
0.000416134
0.0080958
0.00609967
0.0214236
0.0346282
0.125393
0.0643814
0.013092
0.0159774
0.0537893
0.305037
0.0656899
0.0437491
0.0040242
0.0216458
0.0051557
0.00371405
0.00264957
0.0510797
0.509378
0.0970356
0.0132458
0.0124899
0.00963063
0.0250748
0.0112491
0.00918311
0.0556017
0.325493
0.0126312
0.00770438
0.00393452
0.00677996
0.00251744
0.00410314
0.0167307
0.086871
0.509378
0.0572168
0.0081644
0.0141548
0.00492806
0.0151496
0.00240354
0.00819769
0.178973
0.509378
0.0665137
0.00108054
0.0473921
0.0476745
0.05733
0.0383669
0.0527807
0.0703477
0.120608
0.0250808
0.0145131
0.0249504
0.0514707
0.0857112
0.0669074
0.0803272
0.044953
0.0251341
0.0405988
0.0273098
0.0711658
0.0377414
0.0603849
0.0359767
0.0341338
0.271555
0.799959
0.168316
0.0283695
0.0432792
0.0257232
0.0886338
0.159652
0.104807
0.0520759
0.146863
0.0966794
0.0615421
0.00911403
0.108521
0.316004
0.154645
0.0928417
0.0217134
0.0216238
0.0521842
0.0639031
0.0132033
0.0850755
0.277239
0.205202
0.136009
0.0836763
0.0857629
0.0396182
0.107984
0.0367008
0.0425806
0.208076
0.32807
0.155088
0.0229747
0.0417454
0.0599445
0.0879587
0.0550782
0.232101
0.382588
0.206751
0.137024
0.0624853
0.0684077
0.0878703
0.147932
0.0142904
0.0652961
0.0661731
0.11484
0.156889
0.181531
0.103804
0.0602805
0.0982846
0.0633203
0.1254
0.1022
0.111932
0.2751
0.151782
0.147598
0.0600423
0.129229
0.0362308
0.169689
0.239773
0.0684135
0.204216
0.159829
0.100837
0.0867487
0.116023
0.102378
0.148071
0.154162
0.0528386
0.417685
0.151051
0.109325
0.073729
0.1466
0.0645386
0.114185
0.128516
0.0308563
0.221746
0.168688
0.168854
0.152532
0.170822
0.0554957
0.0822425
0.0990592
0.0324218
0.134883
0.176933
0.0921163
0.250881
0.156538
0.0436641
0.0499639
0.117051
0.0554472
0.162872
0.171081
0.105958
0.221895
0.399711
0.089892
0.159894
0.163578
0.0281543
0.0826963
0.13859
0.0890596
0.28866
0.274032
0.0165044
0.0439226
0.0476107
0.0376216
0.051407
0.0522186
0.072232
0.133251
0.0717815
0.0784636
0.113106
0.122645
0.0436065
0.0613484
0.0718437
0.147254
0.0745959
0.0724082
0.0776095
0.1561
0.127378
0.050212
0.0285288
0.0465975
0.0903616
0.0964693
0.125341
0.140744
0.62682
0.521561
0.0506348
0.0282298
0.0560327
0.149793
0.0324443
0.082423
0.0285283
0.0670331
0.133631
0.00856253
0.0194096
0.0252225
0.0352483
0.0281796
0.0192417
0.00890644
0.188479
0.486047
0.0345552
0.00585955
0.00418674
0.0143213
0.0364589
0.0179154
0.0712647
0.354692
0.367322
0.0204454
0.00733355
0.00981998
0.0169885
0.0045633
0.0108257
0.0347547
0.381299
0.486047
0.0253874
0.00221094
0.00161309
0
0.00329341
0.00863658
0.0115408
0.237442
0.381987
0.0295257
0.00079623
0.000269311
0.0021681
0.00757689
0.00635231
0.0170574
0.26501
0.318002
0.00499654
0.00229506
0.000448851
0.000192365
0.000256183
0.00362616
0.00895144
0.208319
0.355399
0.0126573
0.00102547
0.000448851
0.000192365
0.000317843
0.00599745
0.00837641
0.417203
0.482783
0.00358922
0.000930592
0.000748086
0.000320608
0
0.00288887
0.0963881
0.150831
0.160384
0.00433956
0.00352016
6.66805e-005
0.0165165
0.00839326
0.044978
0.147586
0.0537073
0.0489134
0.00735943
0.0137551
0.0427635
0.177996
0.0580615
0.102646
0.128157
0.392769
0.502516
0.000487018
0.000689393
0.00137899
0.0585029
0.0130396
0.0283971
0.20585
0.140767
0.147534
0.0006312
0.00400479
0.0652112
0.528365
0.117687
0.0641806
0.0182715
0.000736323
0.000670744
0.00290333
0.0244458
0.0913695
0.255464
0.0402238
0.0213146
0.00294407
0.000597824
0.000343167
0.000308015
0.0191425
0.202821
0.4966
0.107626
0.000151739
0.0256022
0.00138181
6.64068e-005
0.000308015
0.0174996
0.102554
0.4966
0.07184
0.0133658
0.00150619
0
0
0.000443401
0.0244596
0.202576
0.4966
0.151469
0.00150619
0.00615385
0.00173635
0.00316874
0.0028328
0.00527378
0.117464
0.410612
0.130069
0.00807891
0.00388796
0.00104181
0.0114915
0.0218519
0.0309008
0.0733494
0.191984
0.0713111
0.0208734
0.000592044
0
0
0.000797838
0.00570175
0.219472
0.506955
0.19285
0.00170726
0.000261887
0
0.000934367
0.00328147
0.0243307
0.292727
0.506955
0.123464
0.0141195
0.0491648
0.0135413
0.0470634
0.0824223
0.0975077
0.0976862
0.0978873
0.0630374
0.0706221
0.129987
0.125092
0.127713
0.0707213
0.0643333
0.0451409
0.011493
0.0528128
0.0823162
0.0499692
0.0127215
0.0144727
0.0507901
0.137787
0.503125
0.496486
0.194903
0.0950119
0.214512
0.0967025
0.0622546
0.194167
0.161189
0.208611
0.0179697
0.0864344
0.132217
0.0622283
0.11758
0.154259
0.0761105
0.139245
0.135807
0.0248257
0.0504565
0.0454102
0.0619514
0.103272
0.114341
0.0665333
0.243191
0.17299
0.0374511
0.0450485
0.0513663
0.126718
0.121693
0.142017
0.279308
0.241993
0.263687
0.0248149
0.0119832
0.0579306
0.0620306
0.186319
0.176708
0.125371
0.323075
0.379357
0.0572479
0.0494304
0.0457383
0.044613
0.0572561
0.0715381
0.038482
0.0350448
0.0732713
0.098529
0.129863
0.154372
0.0652738
0.207775
0.137289
0.0303202
0.0157467
0.0558017
0.142799
0.191217
0.113389
0.249356
0.0260101
0.0267583
0.0496223
0.0705605
0.125097
0.115292
0.068009
0.249085
0.219335
0.194388
0.376195
0.457707
0.107635
0.114884
0.240634
0.143023
0.101807
0.0255599
0.173636
0.125521
0.0210763
0.0101025
0.00582962
0.0213002
0.0301892
0.0268325
0.02917
0.405831
0.381333
0.0157693
0.00543138
0.00578028
0.0138122
0.00201504
0.00652255
0.0190709
0.231344
0.3807
0.139252
0.0279078
0.00767179
0.0310672
0.0225057
0.004482
0.0226332
0.407762
0.452117
0.0514983
0.0084054
0.00812195
0.00203241
0.000284431
0.00629673
0.0246646
0.330863
0.309888
0.0201596
0.000640768
0.000823389
0.0035989
0.000489506
0.00270729
0.0201074
0.27927
0.266093
0.0233009
0.000524268
0
0.000516339
0.000581223
0.00572017
0.0306798
0.249618
0.260168
0.0365687
0.00993123
0.00695433
0.00602396
0.000871099
0.00744442
0.0266467
0.480832
0.480832
0.0223828
0.0052607
0.000950955
0.00361438
0.00111364
0.00337444
0.00755794
0.216511
0.280193
0.00991834
0.000351711
5.66331e-005
2.42714e-005
6.93938e-005
0.00307344
0.00641537
0.365428
0.461925
0.00324761
0.000211026
9.43885e-005
4.04523e-005
0
0.000568222
0.0229954
0.409035
0.401613
0.00406635
0
5.93413e-005
0.000534073
0.00038288
0.00094821
0.0271722
0.27039
0.280734
0.00328327
0.000700549
9.89022e-005
0.000890121
0.00187057
0.000906516
0.0396169
0.370719
0.47776
0.00175403
0.00129627
0.00290577
0.0347995
0.00308229
0.00222117
0.0578343
0.0923106
0.090629
0.00165748
0.00216045
0.0554537
0.684593
0.0828632
0.00320081
0.0200689
0.116721
0.114759
0.011803
0.00561177
0.0012614
0.00458981
0.00173156
0.00427859
0.0146782
0.021369
0.0156989
0.0181469
0.011276
0.0420257
0.185163
0.0256101
0.00413995
0.0043788
0.00114361
0
6.75876e-005
0.00219635
0.0602037
0.50735
0.067492
0.000413748
0.00139942
0
0
0.00100872
0.00674579
0.121561
0.460205
0.0741083
0.00139942
0.00194116
0.00158904
0.00155161
0.00640823
0.00529411
0.0883186
0.38024
0.0405568
0.000219561
0.000199917
0
0.000377309
0.00294566
0.00954684
0.194637
0.50735
0.0519388
0.000199917
0.000530587
0
0
0.00103962
0.00529564
0.141216
0.297736
0.0739754
0.000530587
3.17634e-005
0
0
0.000148517
0.00907617
0.234725
0.485426
0.119383
0.00217564
0.000649464
0
0
0.000880545
0.0172508
0.130844
0.476331
0.0339883
0.000219214
0.00401566
0
0.000555574
0.00688671
0.0170698
0.192111
0.485426
0.120483
0.00111768
0.00983839
0.00108408
0.00396432
0.0156784
0.029894
0.140629
0.346837
0.12236
0.0095255
0.0745299
0.0169122
0.0121134
0.0556277
0.0493691
0.0525444
0.0659905
0.0511301
0.0292972
0.0126759
0
0.00162005
0.0192686
0.0252309
0.329229
0.575851
0.132627
0.00417322
0.109772
0.0227242
0.00218006
0.0359321
0.0561387
0.358243
0.389199
0.0479427
0.0827514
0.14461
0.110795
0.0807667
0.168733
0.152217
0.0963365
0.0451351
0.00952139
0.042288
0.080735
0.132913
0.12556
0.0582926
0.102956
0.153031
0.116974
0.0379554
0.0639742
0.318461
0.17577
0.0490626
0.12189
0.136127
0.226555
0.255838
0.0303718
0.357897
0.274965
0.173582
0.0845682
0.0545305
0.0557151
0.0554689
0.196347
0.0498148
0.27428
0.183993
0.00256569
0.0613216
0.0659552
0.033737
0.0434353
0.0194155
0.00526463
0.170914
0.0960084
0.0538746
0.309249
0.499571
0.155773
0.148453
0.136771
0.0231504
0.0538462
0.198631
0.0221181
0.0632621
0.0386951
0.0158168
0.022154
0.0144519
0.00378893
0.179017
0.155594
0.0441688
0.138265
0.224741
0.121289
0.284184
0.398954
0.0750817
0.0536064
0.00677839
0.105137
0.36116
0.24246
0.0727344
0.0927094
0.128867
0.0222354
0.00079691
0.0154293
0.1326
0.233003
0.0999066
0.0552153
0.0838982
0.0584482
0.0155963
0.0090169
0.0604233
0.0234645
0.0659096
0.100203
0.0645832
0.295382
0.498113
0.158284
0.00341191
0.0225485
0.0104656
0.0269585
0.0501124
0.0990949
0.285701
0.341397
0.141367
0.00768559
0.0217336
0.095859
0.176066
0.0888805
0.0695919
0.113479
0.0330973
0.00537481
0.00731472
0.0205486
0.286237
0.479746
0.0487334
0.0345135
0.112951
0.0647766
0.00571498
0.00281766
0.00731819
0.014551
0.0580448
0.058123
0.0961275
0.242424
0.275241
0.0477798
0.0062219
0.00626876
0.036258
0.13353
0.0317667
0.0455057
0.277099
0.536013
0.0843989
0.00202037
0.0446236
0.425447
0.44174
0.0065245
0.00435023
0.0375289
0.04165
0.00739479
0.0049878
0.0429032
0.157078
0.0974283
0.0116562
0.00413633
0.00137962
0.00815482
0.0105299
0.00292278
0.0138238
0.0307227
0.0786265
0.00481832
0.0113012
0.147553
0.66821
0.0754854
0.00428808
0.0234941
0.0184784
0.0392047
0.0137119
0.0175156
0.0119629
0.0683306
0.020112
0.00282244
0.0794289
0.192221
0.229908
0.114266
0.0477355
0.00591273
0.0285434
0.0269221
0.0151714
0.0873362
0.0958381
0.139089
0.206597
0.132731
0.0996215
0.156095
0.0263004
0.0139652
0.11211
0.134025
0.232933
0.131199
0.101246
0.00354764
0.0173905
0.0313526
0.00755144
0.0898357
0.0910437
0.20288
0.325418
0.231599
0.0590678
0.0309262
0.0571781
0.026578
0.00332894
0.00213092
0.00885741
0.0207475
0.0145468
0.0669523
0.162013
0.00706471
0.00141996
0.00179055
0.000767379
0.00209803
0.014123
0.0237057
0.173629
0.765449
0.0439212
0.00153461
0.00714111
0.0145994
0.0218268
0.0277733
0.0143428
0.016876
0.0183989
0.0113567
0.0106512
0.0260782
0.213589
0.184198
0.0601405
0.0489323
0.0544042
0.425538
0.0405044
0.0115382
0.00215748
0.000167489
0
0.0051177
0.0404753
0.0605269
0.506232
0.0376507
0.000534971
0.0123667
0
0.00171095
0.0284055
0.0706469
0.0958998
0.436347
0.0539192
0.00622951
0.0100344
0.141907
0.198932
0.0642821
0.177433
0.0447985
0.398906
0.0419664
0.00418499
0.0138637
0.0483642
0.138494
0.151549
0.32083
0.066163
0.255105
0.0302778
0.0466879
0.00699832
0
0.00171556
0.0354731
0.0615568
0.238762
0.373832
0.0520901
0.00677276
0.0290966
0.00469939
0.00024508
0.0348889
0.0777169
0.325442
0.46215
0.0916594
0.0586803
0.00902247
0.01383
0.0164839
0.14017
0.241023
0.0977799
0.11595
0.0280327
0.0615785
0.0393586
0.100346
0.0631928
0.140586
0.253357
0.243177
0.331821
0.128711
0.125736
0.103694
0.0508095
0.00636338
0.0617859
0.0569695
0.168588
0.277548
0.109234
0.153792
0.183257
0.0821142
0.0123903
0.0340655
0.0212026
0.0977344
0.0867474
0.039092
0.159049
0.158
0.200337
0.133976
0.129235
0.197785
0.366195
0.30847
0.159551
0.113657
0.296522
0.199866
0.0528636
0.0766792
0.182155
0.242379
0.154996
0.0316828
0.129793
0.136573
0.0169166
0.0101339
0.0215882
0.0185296
0.0432497
0.0370763
0.0403461
0.115852
0.367507
0.0482115
0.0123544
0.077164
0.0478791
0.169329
0.212808
0.0565418
0.0472695
0.12558
0.0267273
0.0777467
0.0856265
0.141655
0.120549
0.115367
0.200577
0.136074
0.547238
0.0461294
0.0387013
0.154909
0.190397
0.302887
0.26429
0.0690533
0.0780757
0.221512
0.042905
0.000866984
0.0166228
0.0283344
0.141162
0.242045
0.0781932
0.00664581
0.0840105
0.0303082
0
0.00243082
0.0488748
0.170505
0.346518
0.153483
0.00492508
0.497754
0.0774633
0.00914101
0.0272229
0.0435808
0.116273
0.165388
0.0394517
0.0361966
0.283119
0.113506
0.00130586
0.000845221
0.0599531
0.129175
0.403011
0.225367
0.0658159
0.0078912
0.00489408
0
0.00607933
0.0278474
0.0999848
0.271611
0.0654861
0.00511374
0.00117614
0.00178243
0
0.00592785
0.0155667
0.119568
0.550959
0.0730504
0.000747588
0.0219688
0.0294488
0.000481372
0.00461181
0.0436096
0.125221
0.409038
0.138683
0.0283186
0.00113595
0.00922855
0.00336961
0.0109468
0.0148538
0.138306
0.550959
0.0612726
0.00553414
0.000475377
0.00033466
0.000496168
0.00100323
0.00212487
0.0590828
0.536837
0.0401403
0.000260225
0.0042841
0.00270923
0.00514267
0.00392512
0.00625586
0.0283853
0.151734
0.0123185
0.000541708
0.000134825
0.00259035
0.0014413
0.0034382
0.00233709
0.119004
0.543104
0.066567
0.00272686
0.00115602
0.00309898
0.00180833
0.00251849
0.00391471
0.124264
0.543104
0.0707534
0.00151316
0.0188458
0.0183028
0.015106
0.0162968
0.0216015
0.013759
0.0142825
0.00422295
0.00115039
0.0173019
0.0410221
0.0523928
0.03296
0.0381532
0.00379352
0.00514834
0.00421724
0.00406288
0.0133577
0.0883196
0.0193265
0.0246391
0.0149452
0.0924572
0.332119
0.062633
0.00483356
0.0158267
0.584847
0.641979
0.0415374
0.0281871
0.00430372
0.0106692
0.0134308
0.00340518
0.00615245
0.0694328
0.0718886
0.00671798
0.00428637
0.00258943
0.00159665
0.00257016
0.00368189
0.0159615
0.341528
0.320441
0.0149827
0.00816308
0.00528262
0.0103897
0.00383878
0.00375949
0.00410805
0.293597
0.435115
0.00352227
0.00353033
0.000288431
0.000927253
0.000309085
0.00161685
0.0142995
0.472899
0.472899
0.0018879
0.00179696
0.000173059
0.000132465
0.00173591
0.00795495
0.0152161
0.301912
0.328656
0.0426229
0.0697472
0.0101372
0.0294091
0.00538063
0.00528452
0.0202514
0.139039
0.20507
0.101935
0.137948
0.0169436
0.0227653
0.00342393
0.0324487
0.0186937
0.317574
0.314439
0.0049296
0.00543139
0
0
0.00256027
0.00824589
0.024642
0.488909
0.459344
0.0198915
0.0146258
0.00379637
0
0.00139917
0.00721927
0.0147787
0.103978
0.103422
0.123714
0.103475
0.0117345
0.00344475
0.00497046
0.0352354
0.0342357
0.234585
0.215632
0.145487
0.116702
0.0496374
0.0258856
0.0196818
0.0566736
0.029869
0.42333
0.423655
0.0542593
0.0140557
0.00348012
0
0.000713062
0.00379151
0.117392
0.465434
0.403021
0.0685085
0.0168687
0.00049716
0
0.000954726
0.00768706
0.137409
0.250536
0.260533
0.0880797
0.117469
0.0999722
0.041761
0.0186811
0.0528804
0.291112
0.149007
0.125897
0.0486347
0.179949
0.0557104
0.0410814
0.0018271
0.056615
0.214463
0.429793
0.326353
0.0297989
0.0211273
0.00775693
0.0374567
0.0275666
0.0366669
0.281976
0.293238
0.214806
0.00873254
0.0585588
0.0287782
0.0867203
0.11345
0.0430618
0.135508
0.0397132
0.101633
0.0502746
0.146265
0.106244
0.0861867
0.0990455
0.161233
0.317665
0.0646229
0.127602
0.0658823
0.172377
0.176589
0.128913
0.0836445
0.161025
0.256361
0.053982
0.12365
0.190213
0.0794085
0.137101
0.0732227
0.0285738
0.17006
0.304241
0.205507
0.333562
0.273006
0.115144
0.162665
0.0502035
0.0832004
0.183895
0.427101
0.0973741
0.0669114
0.0278069
0.063449
0.0884484
0.0811298
0.0712859
0.11725
0.283171
0.137034
0.0115332
0.0113154
0.103981
0.0946462
0.24345
0.231389
0.250705
0.145575
0.223955
0.204858
0.192027
0.0345626
0.0754176
0.0355582
0.0669653
0.104119
0.191495
0.278119
0.0879104
0.119632
0.0709644
0.0635277
0.0789124
0.129557
0.239667
0.0281768
0.022728
0.000648172
0.00154017
0.0481757
0.111035
0.348903
0.134254
0.0927466
0.00250895
0.00772453
0.00387705
0.00408532
0.0147692
0.134095
0.483798
0.0880765
0.0153804
0.0681304
0.0511962
0.0233944
0.014276
0.0768396
0.0992648
0.264942
0.102211
0.118579
0.0171561
0.00310347
0.00369302
0.00305894
0.0547876
0.136122
0.59186
0.159397
0.0312772
0.00276631
0.00266892
0.00114733
0.0027104
0.0051693
0.0708629
0.382032
0.0378457
0.00414053
0.0201441
0.00150704
0
0.00114436
0.0027555
0.096539
0.513383
0.0977814
0.00709814
0.00602291
0.0034717
0.000247243
0.00429797
0.0103166
0.0518076
0.449062
0.0654621
0.00547171
0.0699896
0.00755766
0.000583372
0.00257878
0.00455387
0.0690607
0.513383
0.166939
0.0626721
0.0552221
0.100099
0.0487947
0.00562772
0.000565726
0.0397337
0.264127
0.063358
0.0165241
0.0442961
0.445132
0.375218
0.0110669
0.00117038
0.00326415
0.0151143
0.0120381
0.00941058
0.179282
0.165482
0.0711314
0.00149519
0.000917082
0.0268949
0.248538
0.152417
0.125029
0.128568
0.479954
0.313498
0.012092
0.00761463
0.00194119
0.02535
0.0307441
0.0738908
0.0085154
0.298712
0.387034
0.00539535
0.00377653
0
0
0
0.000512237
0.0187698
0.246001
0.33975
0.00477541
0.00543349
0
0
0.000670306
0.0051497
0.0153218
0.244741
0.299434
0.0180918
0.00713981
0
0.00363044
0.00326268
0.00302841
0.0126718
0.374653
0.493691
0.0350969
0.00493665
0.00206424
0.0009762
0.000376479
0.000512237
0.0108362
0.18793
0.262983
0.000973601
0.00057053
0
0
0.000618846
0.00256754
0.00898498
0.377403
0.439371
0.00589269
0
0
0
0.00019878
0.000544299
0.00834944
0.252882
0.439371
0.0287982
0.000342318
0.00457407
0.00114352
0
0.000153612
0.0277809
0.248618
0.439371
0.0528272
0
0.00274445
0.00068611
0
0
0.0232787
0.3461
0.442252
0.0123045
0
0
0
2.35927e-005
7.07782e-005
0.103864
0.354062
0.322311
0.0111243
0.00244741
0.0045452
0
0
0.00480884
0.0415058
0.20035
0.403268
0.0528638
0.00326008
0.00036223
0
0
0
0.11076
0.285445
0.296387
0.0215224
0.038639
0.0261095
0.0071525
0
0.000686977
0.153929
0.374277
0.250507
0.032262
0.0290518
0.0557654
0.0876305
0.0382262
0.0314778
0.194094
0.185776
0.111502
0.0482793
0.0335396
0.12558
0.234509
0.222855
0.0828461
0.131385
0.303753
0.144189
0.0442691
0.121197
0.146607
0.0933771
0.00546089
0.0127661
0.301402
0.191503
0.108596
0.151669
0.109308
0.208426
0.202621
0.0782278
0.116639
0.249891
0.0264674
0.0856524
0.138581
0.0360431
0.127642
0.140933
0.0588803
0.1389
0.246948
0.211037
0.258347
0.217722
0.0509563
0.124884
0.127957
0.033712
0.0831166
0.113412
0.00908076
0.0626951
0.0874158
0.253613
0.287562
0.178712
0.0725886
0.0839888
0.038918
0.136786
0.164826
0.129817
0.285521
0.323351
0.194022
0.034897
0.0839035
0.0993662
0.216022
0.183847
0.21563
0.00892876
0.073467
0.0746966
0.0223519
0.0375425
0.1548
0.20215
0.118119
0.168763
0.0147439
0.098462
0.112872
0.0484511
0.132676
0.0926538
0.16175
0.141045
0.148277
0.0963352
0.0920171
0.191806
0.0916315
0.138731
0.40114
0.213085
0.0894506
0.100345
0.00840517
0.0867523
0.223646
0.22494
0.359695
0.0771032
0.0534149
0.0690376
0.0409475
0.0503254
0.0561568
0.116433
0.0510392
0.103564
0.0271586
0.0596841
0.0693731
0.0207272
0.0542823
0.0629117
0.610615
0.222456
0.105035
0.209396
0.163685
0.163833
0.0690217
0.0126697
0.0232379
0.0477614
0.0958287
0.169624
0.106121
0.287255
0.273599
0.106019
0.0356937
0.0495642
0.226676
0.141799
0.201469
0.00173712
0.0142473
0.00906191
0.00271166
0.00529272
0.041684
0.433243
0.120652
0.0428642
0.0345665
0.00642759
0.000584478
0.000780263
0.00121119
0.061921
0.3002
0.0965469
0.0584018
0.00593141
0.0544395
0.0301181
0.0185554
0.0209424
0.0773295
0.505708
0.1293
0.100891
0.0608045
0.0470448
0.00609154
0.00157653
0.00978347
0.0894056
0.505708
0.23736
0.128696
0.10032
0.0589322
0.0279057
0.000840087
0.00102677
0.0146733
0.0659631
0.059092
0.110578
0.148967
0.230455
0.188656
0.00979891
0.00767963
0
0.0159959
0.0161122
0.0789345
0.171583
0.26892
0.151344
0.00170637
0.000146682
0.0169632
0.143624
0.0909001
0.147307
0.39304
0.547684
0.38983
0.00463443
0.00102677
0
0.0182855
0.00503881
0.106075
0.0855855
0.19414
0.340163
0.0460718
0.00795564
0
0.00874328
0.00829177
0.00857532
0.0317767
0.258469
0.529598
0.144709
0.0289152
0.00980103
0.0186832
0.0132801
0
0.261844
0.359553
0.267694
0.060299
0.0133623
0.00159273
0.0587231
0.0333894
0.0605976
0.0840494
0.137034
0.205726
0.19317
0.0643074
0.0374894
0.128031
0.0697796
0.00934533
0.0186603
0.260068
0.567447
0.135682
0.0224526
0.0361028
0.0274391
0.0142901
0.0029035
0.126304
0.183942
0.434223
0.152393
0.0614551
0.0470745
0.00849804
0.00505476
0.00956149
0.0286264
0.128914
0.136496
0.120821
0.0617214
0.070513
0.205492
0.0688903
0.0212907
0.0985733
0.218213
0.145141
0.0786924
0.143783
0.103602
0.126045
0.0345246
0.0798725
0.121138
0.224104
0.418898
0.143738
0.0790757
0.0422524
0.00330513
0.00330513
0.0076788
0.166722
0.319869
0.263062
0.0949681
0.223568
0.0762548
0.0224736
0.0447779
0.0150484
0.11758
0.232328
0.196674
0.11624
0.127393
0.0899713
0.0523756
0.0231359
0.079326
0.182448
0.269046
0.143832
0.13813
0.193402
0.0607282
0.0610657
0.130816
0.0698191
0.0817226
0.109129
0.0319965
0.0780433
0.2124
0.148779
0.106037
0.0482292
0.0265479
0.205565
0.106928
0.0540929
0.102273
0.181987
0.195774
0.189796
0.0155275
0.0873156
0.150249
0.0721335
0.0275484
0.104289
0.229357
0.105717
0.155112
0.227439
0.0754755
0.211068
0.0427969
0.0376587
0.074621
0.277956
0.194695
0.385609
0.304627
0.0997255
0.00631726
0.00546743
0.0152868
0.0818761
0.328339
0.156449
0.0232351
0.00783409
0.00540613
0.0336699
0.130957
0.0591575
0.130681
0.293781
0.177292
0.0478279
0.00818488
0.0326008
0.025026
0.0107855
0.0999908
0.0749584
0.45677
0.19359
0
0
0.0332857
0.259448
0.194102
0.195196
0.160042
0.276838
0.235476
0.0515169
0.00993725
0.262379
0.125174
0.163573
0.0482428
0.0742595
0.0699711
0.0307647
0.0716376
0.0290063
0.0681561
0.344711
0.212523
0.0426884
0.0221747
0.00811672
0.0205518
0.0821434
0.101661
0.201614
0.287209
0.310795
0.0751752
0.0617734
0.0252143
0.0665857
0.0663547
0.020007
0.155946
0.461308
0.421484
0.0972493
0.0273749
0.00270964
0.0372594
0.0873308
0.0350696
0.112547
0.340307
0.232989
0.103013
0.052988
0
0.0133743
0.0609531
0.0902312
0.185437
0.253325
0.202967
0.13789
0.111803
0.0318101
0.0438062
0.0813498
0.0435505
0.22588
0.316962
0.273239
0.0758478
0.0880261
0.0174309
0.0869555
0.247138
0.0565655
0.125248
0.226563
0.0764984
0.0835849
0.116859
0.144416
0.0991593
0.255366
0.0705347
0.190466
0.0780089
0.061563
0.0315413
0.0307792
0.045655
0.0787235
0.275146
0.111483
0.149648
0.184184
0.109225
0.0609905
0.00291423
0.0195609
0.0611405
0.518134
0.409723
0.2458
0.140893
0.0772197
0.0492047
0.0158886
0.12765
0.0820028
0.103745
0.0748073
0.113751
0.142777
0.1285
0.157638
0.0705101
0.0523298
0.0962606
0.163371
0.209973
0.130602
0.214959
0.305383
0.168008
0.00568346
0
0.0139948
0.12494
0.128129
0.169539
0.267128
0.559229
0.278073
0.0111721
0
0.0167635
0.0664689
0.00563561
0.153821
0.098287
0.132322
0.148943
0.10281
0.00780461
0.0273689
0.0891707
0.082462
0.103627
0.136887
0.207535
0.12765
0.0946257
0.032743
0.0378343
0.110295
0.0229211
0.173423
0.301048
0.407496
0.203091
0.0651793
0.0366694
0.0138374
0.110483
0.0305533
0.202113
0.154314
0.191057
0.134438
0.1467
0.0891374
0.0553519
0.181581
0.0803898
0.0700132
0.237121
0.21916
0.0915801
0.129254
0.0832596
0.093571
0.094674
0.0268198
0.149607
0.195259
0.223233
0.0525908
0.232862
0.087494
0.158077
0.161472
0.0718614
0.0825608
0.0655534
0.114001
0.0707477
0.0715461
0.1212
0.0692257
0.268875
0.0834124
0.0308689
0.165996
0.181267
0.16275
0.0426098
0.204944
0.197625
0.209682
0.0379557
0.130624
0.129866
0.118056
0.0293352
0.210309
0.123378
0.121062
0.161883
0.152356
0.0697246
0.317136
0.108251
0.123815
0.10952
0.194735
0.360234
0.134811
0.0978398
0.173365
0.213094
0.210934
0.199917
0.0544529
0.0656786
0.0795961
0.0485132
0.0112051
0.13185
0.224874
0.21023
0.136866
0.116169
0.160007
0.0424316
0.0522144
0.146459
0.119487
0.261595
0.15628
0.227557
0.108812
0.0822665
0.224792
0.10991
0.0213082
0.128664
0.159325
0.184813
0.28285
0.143039
0.202589
0.140632
0.0693718
0.190065
0.17072
0.115018
0.0438237
0.0168651
0.0398062
0.110422
0.0686473
0.0949033
0.264447
0.0801329
0.105249
0.0235238
0.0485899
0.0147829
0.0911676
0.142397
0.341915
0.440839
0.0662109
0.0474306
0.0564904
0.120858
0.0776649
0.180383
0.0940235
0.0550143
0.218337
0.0956222
0.0732849
0.119763
0.176964
0.0625913
0.190099
0.103089
0.26998
0.353785
0.0392146