0.0558876
0.0983507
0.0489165
0.00954826
0.0578435
0.111688
0.113888
0.207113
0.109124
0.0439699
0.0914603
0.209021
0.138207
0.157275
0.17706
0.107911
0.14808
0.131836
0.190521
0.258386
0.0634208
0.00529831
0.128264
0.0646657
0.145985
0.129683
0.0855645
0.108335
0.0765096
0.196664
0.0999723
0.283418
0.356299
0.176378
0.103222
0.0489705
0.0268156
0.0842835
0.101478
0.123023
0.160944
0.24237
0.107649
0.0134814
0.111577
0.0507317
0.0777604
0.0621307
0.165335
0.201806
0.191941
0.133852
0.0598394
0.13118
0.0133117
0.0202239
0.0779464
0.149044
0.358216
0.281153
0.101537
0.0403114
0.0135712
0.0621749
0.0847006
0.0871307
0.234941
0.269442
0.114407
0.159901
0.180791
0.0872817
0.0336733
0.0442786
0.0548216
0.196001
0.168593
0.0630269
0.0710236
0.0897951
0.0788838
0.0453125
0.0539543
0.0314814
0.115585
0.181224
0.12232
0.110708
0.10172
0.0833666
0.0381424
0.0348016
0.0640385
0.293336
0.167251
0.064781
0.093323
0.198491
0.181817
0.0618606
0.0333309
0.031744
0.203786
0.128018
0.428449
0.222295
0.155319
0.229581
0.0150478
0.0217816
0.00782548
0.00989518
0.0403729
0.0507718
0.0693548
0.0696787
0.0345772
0.070067
0.14211
0.216611
0.0410442
0.0173624
0.0150418
0.0934794
0.0801854
0.0372909
0.0293917
0.14065
0.106191
0.0543136
0.0423985
0.150436
0.0698232
0.0304283
0.0573237
0.126224
0.596548
0.500651
0.189815
0.0491891
0.0159961
0.0369707
0.0484211
0.0780444
0.174044
0.157565
0.235067
0.0623331
0.00836681
0
0.0202915
0.0111523
0.0366321
0.420651
0.24631
0.151136
0.080803
0.0339878
0.0174563
0.00616483
0.0167904
0.0794056
0.140082
0.296669
0.286112
0.151701
0.0300117
0
0.0219801
0.11944
0.122645
0.273531
0.0990903
0.0920209
0.105895
0.0215935
0.0290938
0.0263892
0.220461
0.28367
0.295942
0.218858
0.167448
0.0930731
0.0377567
0.0383602
0.0248791
0.0489984
0.0788306
0.0900773
0.0948319
0.16875
0.117724
0.112224
0.194391
0.16621
0.0580985
0.0856207
0.289764
0.0500203
0.042296
0.0486718
0.00761384
0.0531685
0.0344982
0.257892
0.289134
0.136299
0.0208929
0.0945913
0.184705
0.14338
0.203748
0.201855
0.214007
0.21486
0.00461254
0.0252543
0.0640692
0.0825071
0.237386
0.148168
0.145739
0.0191902
0.0112951
0
0.0104641
0.0554201
0.144548
0.371433
0.106863
0.108253
0.0143908
0.000922503
0.00938574
0.00460063
0.0590331
0.309141
0.339756
0.138077
0.123049
0.0238567
0.0336697
0
0.00211696
0.0617977
0.321852
0.421735
0.119617
0.0512324
0.0240489
0.00115438
0.0175179
0.0275185
0.0684229
0.145972
0.288846
0.102869
0.100953
0.104874
0.0600941
0.0527166
0.105935
0.177703
0.211816
0.0481798
0.0342023
0.0678197
0.0932881
0.0983099
0.0591997
0.0239849
0.0665259
0.249274
0.358285
0.153593
0.109717
0.0856191
0.0379655
0.174785
0.108183
0.141876
0.20854
0.13226
0.0761924
0.0364689
0.0379203
0.125352
0.0485438
0.15935
0.232583
0.155842
0.000620642
0.0283913
0.0808283
0.0197452
0.0221929
0.202333
0.182805
0.200224
0.0648796
0.00434449
0.0521793
0.0925253
0.0683314
0.0207548
0.10054
0.214974
0.2095
0.149552
0.0430156
0.0357732
0.0572005
0.0639472
0.0621723
0.07548
0.205818
0.244269
0.0813637
0.103587
0.0978351
0.113264
0.285041
0.0535365
0.173938
0.213723
0.0435585
0.0422503
0.056421
0.0586317
0.106925
0.0310962
0.0107846
0.0486619
0.0522436
0.0619861
0.0909301
0.267074
0.315716
0.124861
0.0344518
0.00582792
0.121121
0.313559
0.263923
0.125372
0.0961543
0.060754
0.052598
0.0274788
0.000594259
0.112691
0.156764
0.32773
0.200879
0.224688
0.196594
0.0734155
0.0200618
0.00223898
0.0102465
0.0158909
0.0308973
0.109768
0.21858
0.186814
0.0541457
0.0282521
0.00300443
0.100149
0.125582
0.103185
0.1697
0.11859
0.0505893
0.0552881
0.074279
0.0121822
0.063048
0.0239322
0.143652
0.332186
0.206023
0.13175
0.0515551
0.0167994
0.00272923
0.124988
0.255877
0.270728
0.475121
0.188936
0.0354522
0.0472519
0.049316
0.00505886
0.0274605
0.0319816
0.0298692
0.0498456
0.0231457
0.00863526
0.011252
0.015101
0.0130799
0.115059
0.122698
0.034135
0.0571997
0.0172034
0.0506024
0.0210119
0.00884732
0.0266457
0.0368202
0.188333
0.243987
0.0802626
0.0146163
0.00486428
0.0155515
0.0121587
0.0019446
0.220605
0.651772
0.553998
0.0673773
0.00291208
0.00662925
0.00751508
0.00226763
0.0075303
0.078573
0.187564
0.0516142
0.0131901
0.00307943
0.0187397
0.0079146
0.000844649
0.00884429
0.0815981
0.35787
0.106327
0.0166546
0.00379991
0.00119343
0.000825736
0.0117977
0.0395816
0.211313
0.525325
0.197505
0.00878081
0.000164568
0.00157637
0.000670297
6.17772e-005
0.00399795
0.184318
0.574504
0.151725
3.24695e-005
0
9.19745e-005
0.00245155
0.0208758
0.0585871
0.102738
0.203659
0.0455936
0.0179877
0.00564324
0
0.00238619
0.0917531
0.162454
0.19956
0.0257521
0.00343873
0.00928155
0.00345006
0.00201254
0.00433939
0.126579
0.225753
0.247965
0.350603
0.0418829
0
0
0
0.01017
0.0885888
0.244793
0.504827
0.118373
0
0
0
0
0.00610199
0.0822771
0.443214
0.192409
0.00624613
0.00923007
0.0177906
0.000459585
0.00335861
0.00493122
0.0819802
0.226523
0.0902744
0
0.0324723
0.0807817
0.076606
0.0516828
0.0762393
0.114217
0.166196
0.345647
0.105241
0.0012419
0.00240101
0
0
0.00498114
0.0988407
0.493563
0.121207
0.0599639
0.00463891
0.0139335
0.0349492
0.0607393
0.125103
0.406043
0.390331
0.00898287
0
0.0163931
0.107568
0.134265
0.0541079
0.0851799
0.0729596
0.0247077
0.0305919
0.00327476
0.0293938
0.0987221
0.0999807
0.0345859
0.0454491
0.0829336
0.0267867
0.0109889
0.00301493
0.00320887
0.0256782
0.0520347
0.0696062
0.181974
0.508407
0.0902769
0.102912
0.008019
0.0102681
0.0256622
0.0306
0.0247061
0.182501
0.685539
0.106865
0.0995713
0.0184905
0.0271627
0.0542356
0.054783
0.0356983
0.0237381
0.0690927
0.0920779
0.0861356
0.0529569
0.011904
0.0278826
0.0345658
0.0286602
0.0259156
0.048484
0.126021
0.265704
0.0230598
0.00850378
0.0092543
0.0120691
0.0365331
0.24327
0.567232
0.251272
0.146453
0.0512608
0.00360021
0.00143562
0.0049786
0.0540036
0.262595
0.284877
0.294461
0.104115
0.251464
0.0683105
0.0267465
0.0356114
0.0207796
0.0260172
0.0497787
0.0905035
0.0533038
0.231527
0.0939717
0.0210822
0.14221
0.120229
0.102905
0.119285
0.0455243
0.234818
0.250856
0.0258327
0.00332765
0.0217412
0.0549868
0.169225
0.144144
0.287694
0.163045
0.22271
0.0434473
0.0249746
0.137429
0.244622
0.223943
0.0309857
0.106681
0.0451469
0.137594
0.269173
0.188587
0.0683927
0.0231537
0.00507314
0.00501108
0
0.248592
0.0882153
0.269481
0.0898661
0.0397376
0.031099
0.0356437
0.0788371
0.01936
0.0349611
0.0434472
0.269434
0.302386
0.160065
0.0859029
0.0246887
0.020592
0
0.267099
0.0429085
0.359914
0.235604
0.155004
0.11148
0.103497
0.156225
0.108793
0.0746324
0.00535884
0.0466195
0.062052
0.0256667
0.00738134
0.0178324
0.0327159
0.02268
0.0732642
0.0849509
0.217599
0.177315
0.0541332
0.000884389
0.0113602
0.0112192
0.0245356
0.124627
0.00588873
0.0697151
0.054849
0.0441915
0.0156755
0.0508653
0.0808712
0.0848282
0.103418
0.0789527
0.798806
0.31337
0.100389
0.000724449
0.0506834
0.0311219
0.0556645
0.00987638
0.142364
0.231963
0.0727988
0.00931692
0.000272118
0.00215072
0.00226676
0.00144787
0.0269988
0.341244
0.410974
0.0409565
0.00190165
0.000163271
0.000548771
0.000311639
0
0.00735739
0.114566
0.476738
0.170518
0.0302915
0
0.00281015
0.000702538
0.00178116
0.00186598
0.256366
0.476738
0.148171
0.0118828
0
0
0
0
0.0513039
0.302022
0.210681
0.00708428
0
0
0
0
0
0.0819762
0.406038
0.148111
0.00100676
0
0
0.00176613
0.0110038
0.0104809
0.0156206
0.364001
0.423053
0.0459644
0.0138195
0
0
0
0.0033615
0.098741
0.485354
0.243134
0.0116191
0.0230325
0.00650259
0.0146257
0.00687413
0.0240287
0.238839
0.249576
0.0434613
0
0
0
0.00594026
0.0239304
0.0742589
0.403954
0.0675408
0.00273746
0
0
0
0.00356415
0.0230779
0.379601
0.274958
0.327546
0.0776553
0.042103
0.00962702
0.0080459
0.0235175
0.0211534
0.0505761
0.417718
0.0910011
0.012645
0.051787
0.0106308
0.00114941
0.00830459
0.0450124
0.353099
0.157984
0.0406763
0
0
0
0
0.00282088
0.119144
0.34296
0.0432055
0.0285612
0
0
0
0.0037415
0.0476316
0.378308
0.174206
0.153711
0.0329991
0.00178594
0.006518
0.00184476
0
0.0177028
0.255378
0.335123
0.0759459
0.0219381
0.000255134
0
0
0
0.200534
0.576522
0.15769
0.00437812
0.00196723
0
0
0
0.00793502
0.0935095
0.346257
0.0652853
0.0245015
0.00121816
0
0
0
0.00747115
0.148296
0.432613
0.0478921
0.0354967
0.00270546
0
0.00199505
0.00199505
0.0608604
0.361339
0.476144
0.0681331
0.037969
0
0
0.0139654
0.0172406
0.149032
0.329709
0.298458
0.0548683
0.0390905
0.00191213
0
0
0
0.038925
0.251802
0.36513
0.0409115
0.0264503
0.0132229
0.0074181
0.000318183
0.00358742
0.0621401
0.212528
0.157035
0.0783545
0.0219801
0
0
0.00806435
0.0258901
0.276867
0.400629
0.250393
0.0221926
0.0053074
0.0294581
0.0457669
0.0375956
0.0631645
0.415794
0.370808
0.0975557
0.0240103
0.071366
0.0708497
0.0386988
0.0582744
0.0564704
0.0758901
0.157199
0.127298
0.184486
0.0736472
0.0838144
0.0531881
0.169851
0.101142
0.107204
0.0925177
0.0164709
0.0551907
0.0179715
0.194779
0.235195
0.228389
0.185096
0.387215
0.181016
0.0940895
0.0542108
0.0364096
0.160564
0.159376
0.272898
0.150345
0.218895
0.0356663
0.0541873
0.01382
0.020056
0.0325004
0.0673433
0.102885
0.179668
0.102123
0.036828
0.030635
0
0.0654852
0.0132722
0.109207
0.153828
0.307856
0.278424
0.105474
0.0938666
0.0522674
0.0174884
0.061161
0.0448476
0.0711119
0.210015
0.199467
0.124806
0.0174087
0
0.0302851
0.0398421
0.0575451
0.0391991
0.342071
0.483594
0.199277
0.172144
0.0216165
0.0352753
0.00329315
0.0545878
0.0459448
0.0649761
0.0274189
0.0255955
0.0334706
0.0245431
0.0226386
0.0263596
0.495371
0.262275
0.079987
0.00125657
0.0232142
0.0152627
0.0126932
0.0184691
0.0195046
0.067649
0.111469
0.162878
0.0566899
0.0269831
0.0428546
0.00718662
0.0110815
0.0196677
0.335025
0.592692
0.301424
0.00777333
0.00897738
0.00841872
0.00225384
0.000512255
0.04739
0.303266
0.174899
0.0232947
0
0.00184434
0.000461084
0.000175636
0
0.0798131
0.444912
0.229291
0.0184048
0.000262973
0.00177986
0.000762796
0
0
0.0176859
0.176517
0.417895
0.105899
0.000741478
0.000626797
0.000156699
0
0
0.0236373
0.372167
0.444912
0.138071
0.00293222
0.00296643
0.00127133
0
0.0119203
0.178489
0.381892
0.15153
0.0841176
0.00285963
0.00640552
0.00274523
0.00372738
0.0607182
0.242855
0.15723
0.118694
0.179439
0.0333779
0.0434182
0.0111497
0.0260916
0.0017029
0.0354647
0.243649
0.357484
0.280967
0.0574445
0.0163839
0.00515301
0.000532483
0.0216928
0.0614039
0.0924237
0.242126
0.475703
0.146817
0.115731
0.0325509
0.00372738
0.0936308
0.114218
0.0630095
0.193632
0.102848
0.0445634
0.0743197
0.0357098
0.0184058
0.133108
0.152902
0.0481641
0.152253
0.032348
0.0108776
0.0357283
0.0346756
0.0624795
0.209264
0.142833
0.0681128
0.258472
0.2391
0.0838824
0.147639
0.0988686
0.00189567
0.451354
0.547408
0.117294
0.15759
0.0353476
0.0152915
0.0571918
0.0585105
0
0.0938078
0.179061
0.0265586
0.011641
0.00349319
0.000577381
0.0170765
0.0742486
0.0524434
0.188343
0.197357
0.0176326
0.00304398
0.0473822
0.00398525
0.145281
0.199542
0.048969
0.172425
0.527624
0.116036
0.0397331
0.00169614
0.000962302
0.00590716
0.0134511
0.0207208
0.284056
0.564712
0.138392
0.020144
0.0857462
0.00664209
0.0209249
0.0279809
0.0464377
0.0716795
0.0416245
0.0112059
0.00946741
0.0658003
0.076529
0.281931
0.122583
0.026628
0.0153698
0.00086199
0.00160084
0.0156181
0.0452783
0.218177
0.387454
0.0559898
0.0210492
0.10867
0.191354
0.0941426
0.0398399
0.132479
0.101903
0.168941
0.0178111
0.016461
0.00698566
0.0137297
0.0206268
0.0253236
0.160798
0.536659
0.445945
0.00883374
0.00896512
0.00574237
0
0
0.00459014
0.0291959
0.209919
0.19772
0.0271224
0.0147967
0.000663407
0.00588353
0.00936996
0.0205977
0.0709988
0.333961
0.191331
0.0213848
0.00186259
0.000869214
0
0
0.000655735
0.134057
0.461856
0.217425
0.0142542
0.00782289
0.000189381
0.000369508
0
0.0028759
0.158338
0.602941
0.182279
0.0272565
0.00111756
0.00737742
0.032619
0.0311303
0.0521625
0.12112
0.291269
0.0957971
0.0176274
0.00730624
0.0234967
0.0258314
0.0191097
0.0204631
0.042665
0.0719763
0.0347976
0.0317254
0.0255737
0.0340321
0.018098
0
0.00651574
0.230169
0.761355
0.181305
0.0432829
0.0307886
0.197995
0.048855
0
0.00093082
0.0426515
0.0909591
0.100972
0.0484296
0.183579
0.00215607
0.0171448
0.0229144
0.158382
0.240755
0.178516
0.116107
0.00953594
0
0.0154159
0.014685
0.0620242
0.0886018
0.217841
0.37976
0.237972
0.0781375
0.0132571
0
0.0160046
0.111241
0.292056
0.239254
0.126791
0.0544166
0.0322319
0
0.120702
0.0145239
0.164298
0.255192
0.255286
0.176778
0.179467
0.0797258
0.0695246
0.00458563
0.00676299
0.0245967
0.0550373
0.186563
0.067569
0.0387513
0.0135941
0.00281639
0.00168564
0.00570286
0.0554508
0.292079
0.478709
0.0644937
0.0148617
0.00234812
0.000402342
0.0256424
0.000333363
0.0124613
0.0280172
0.24168
0.110806
0.0582512
0.0157152
0.0186534
0.0036632
0.000235009
0.00241859
0.0458732
0.571909
0.412575
0.0331045
0.0083924
0.0054731
0
0.00303675
0.0385955
0.219214
0.279798
0.0181318
0
0
0
0
0.00182205
0.0936477
0.342257
0.374695
0.0303451
0.000427543
0.000183233
0
0
0.000433821
0.00161652
0.0422731
0.424317
0.202581
0.00578347
0
0
0
0.000260293
0.00379246
0.0775721
0.455923
0.349006
0.0302858
0
0
0.00035469
0.00141876
0.0583578
0.237963
0.368806
0.105256
0.022024
0.0115797
0.00465514
0.0647208
0.0675655
0.0198941
0.0840985
0.344653
0.186988
0.204601
0.0880299
0.0414963
0.00248283
0.00993131
0.0314369
0.0759593
0.401705
0.305782
0.0391109
0.0156715
0.00775857
0.147897
0.213301
0.216497
0.126265
0.261752
0.147232
0.10053
0.1097
0.0691605
0.200351
0.225194
0.0230879
0.0415365
0.0708946
0.0462763
0.113849
0.0568508
0.0253037
0.34781
0.50224
0.0709546
0.0456495
0.00559693
0.00322401
0.0157806
0.0195116
0.0290641
0.232173
0.289898
0.102551
0.0844623
0.0492658
0.035347
0.04121
0.0383589
0.0811064
0.3627
0.299282
0.0401872
0.0273696
0.0133329
0.0242093
0.00544233
0.022707
0.223446
0.160289
0.446356
0.0948971
0.0414167
0
0.000157036
0.000628146
0.0112484
0.070181
0.201342
0.447382
0.0880343
0.0121438
0.0172374
0.0018348
0.00942456
0.0263333
0.134028
0.212288
0.169241
0.0226702
0.00591667
0
0.00742069
0.0385787
0.0976856
0.290214
0.109558
0.124861
0.00990593
0.000845238
0.0188782
0.041153
0.200738
0.216603
0.377991
0.0800342
0.143661
0.0528987
0.0165169
0.0648253
0.069418
0.0444577
0.0108979
0.0449212
0.00791894
0.0132179
0.0160783
0.022834
0.345212
0.495004
0.108159
0.00121283
0.00584206
0.0317343
0.0343817
0.0172485
0.0341937
0.0989844
0.0921807
0.14072
0.0855511
0.104747
0.00396998
0.00255781
0.119856
0.346415
0.501208
0.271718
0.0198477
0.0074571
0.00776023
0
0
0
0.0108044
0.255206
0.296555
0.0361671
0.00146408
0
0
0
0
0.0109691
0.259056
0.373037
0.0287244
0.0053101
0
0
0
0.0678496
0.234391
0.389688
0.165438
0.000117655
0
0
0
0
0.0125015
0.203338
0.526413
0.170083
0.000614995
0.000409997
0
0.0264991
0.0115212
0.00181527
0.0357847
0.269923
0.399485
0.0531488
0.0287432
0.0219854
0.163068
0.0332608
0.00302544
0.0197497
0.0424473
0.0504802
0.0367651
0.0379517
0.131013
0.0166417
0.00231542
0.0179588
0.280996
0.677899
0.160859
0.00788076
0.0115706
0.0230829
0.0929868
0.00943831
0.048165
0.0979996
0.14131
0.0367146
0.0284412
0.0461681
0.114834
0.00770637
0.0393092
0.150015
0.138931
0.0720161
0.0485582
0.0310883
0.00845418
0.000492207
0.0587442
0.0746592
0.268895
0.201128
0.136221
0.0417494
0.0230933
0.0238002
0.0368589
0.107366
0.22662
0.238188
0.231496
0.0760982
0.0250049
0.0408942
0
0.00344545
0.109655
0.337063
0.493398
0.286727
0.172565
0.0356849
0.0306326
0.000734494
0.00760257
0.0185331
0.00670721
0.027369
0.0407755
0.171622
0.093116
0.0149737
0.00908808
0.0160916
0.00264759
4.95197e-005
0.000940875
0.0127214
0.340987
0.527586
0.0420801
0.00508543
0.00537627
0.0174533
0.0474756
0.0732352
0.0499513
0.171066
0.095932
0.00683814
0.000641139
0.00304926
0.00208777
0.00783329
0.00721622
0.0183655
0.250775
0.597795
0.182663
0.000384684
0.000875247
0
0
0
0.00195849
0.150964
0.289474
0.0511643
0.000416733
0
0
0
0
0.00271703
0.183378
0.462564
0.181878
0.00407893
0.0027426
0.000310576
0
0
0.000289625
0.0544511
0.304198
0.194025
0.00291713
0.000931728
0.00217403
0
0
0
0.0433143
0.462374
0.462564
0.0381179
0.0110931
0.000726755
0.00290702
0.026049
0.0544769
0.19138
0.269141
0.117598
0.0210524
0.0101605
0.0430114
0.0751586
0.202448
0.307869
0.242427
0.0507791
0.0235814
0.0728983
0.0130424
0.00100038
0
0.00561985
0.046253
0.131996
0.294785
0.42545
0.16115
0.0239651
0.00271942
0.00620792
0.0514021
0.265823
0.255183
0.0645652
0.293502
0.25814
0.0301134
0.136014
0.13398
0.199498
0.326422
0.124238
0.039408
0.019151
0.04784
0.0515343
0.312586
0.0714797
0.067107
0.0540382
0.0432414
0.0406536
0.0125181
0.0617647
0.252844
0.0507999
0.0293636
0.0896867
0.279217
0.167091
0.0469752
0.222311
0.165505
0.107931
0.333556
0.0437387
0.0572723
0.0360132
0.050098
0.0271673
0.0679906
0.134036
0.438107
0.148119
0.026406
0.0127699
0.0197879
0.0104236
0.0478433
0.070623
0.106287
0.219131
0.0673271
0.0390564
0.0733494
0.0917135
0.0830889
0.180131
0.252455
0.225633
0.146571
0.259816
0.0332822
0.0543035
0.0942951
0.0200536
0.0768871
0.0441676
0.0546226
0.2872
0.251633
0.197962
0.336634
0.306243
0.150653
0.342277
0.107591
0.0725385
0.0908292
0.0114482
0.00700663
0.0881627
0.0764738
0.116964
0.0966391
0.096444
0.0698541
0.0180804
8.73395e-005
0
0.313477
0.361235
0.159405
0.0475805
0.0122954
0.00715851
0.000649612
0.0441999
0.140824
0.375156
0.156633
0.175259
0.132207
0.034799
0.0286853
0.00217841
0.00191425
0.065212
0.520795
0.333111
0.126137
0.0308263
0.00434401
0.00374643
0
0
0
0.166039
0.325117
0.123312
0.0175198
0
0
0
0
0
0.0517999
0.385188
0.257885
0.0166981
0
8.60839e-005
0.000129126
0.000571405
0.0250974
0.385928
0.301866
0.0371941
0
0
0
0
0
0.0164187
0.268826
0.511669
0.0802928
0.000897429
0
0.000602587
0.00090388
0.0180156
0.000724224
0.0369415
0.458713
0.425705
0.0113716
0.000966859
0.00162723
0.0113745
0.0456914
0.00506957
0.054307
0.0965222
0.109502
0.0153519
0.0196582
0.0128055
0.0339669
0.0301676
0.00496256
0.146191
0.644655
0.165573
0.00211086
0.00144257
0.00899913
0.0148425
0.0664321
0.0113051
0.0367119
0.104163
0.0577904
0.0100445
0.0211363
0.0252033
0.0301013
0.10044
0.190916
0.0857525
0.129701
0.0617947
0.0395541
0.139166
0.0444916
0.00484397
0.130711
0.287168
0.159238
0.139232
0.0798923
0.0211475
0.193448
0.0753873
0.000148469
0.0362164
0.13134
0.0437357
0.219285
0.0679349
0.135534
0.263802
0.142031
0.0246809
0.0650751
0.286958
0.0819697
0.148344
0.0860534
0.0954527
0.420682
0.272328
0.00369085
0.0409024
0.0909348
0.0703555
0.0790901
0.134446
0.0724511
0.0279877
0.0228918
0
0.0109807
0.022007
0.0119601
0.0541417
0.211265
0.513951
0.448508
0.0461861
0
0.0461577
0.0943017
0.0502314
0.0819301
0.0604612
0.0385832
0.0771155
0.0788238
0.00450125
0.0564116
0.0461721
0.018271
0.0981236
0.0854558
0.148409
0.501083
0.0851484
0.00270075
0.00216359
0.000538908
0
0.00166319
0.0275873
0.194933
0.298481
0.0290257
0.00367946
0.00813929
0
0
0
0.0183232
0.234501
0.403154
0.0949218
0.0266082
0.00770347
0.00388951
0.000351452
0.00780651
0.0105555
0.0771991
0.478742
0.0655164
0.00241162
0.00488357
0
0
0
0.0126812
0.119811
0.555088
0.160266
0.0221729
0.00285061
0
0
0.00330386
0.029945
0.100644
0.345602
0.23235
0.0231566
0.00025538
0
0
0.020798
0.0531991
0.0221645
0.311475
0.414643
0.0736875
0.00424271
0.000446885
0
0
0.0109145
0.0430873
0.242516
0.26114
0.0390666
0.0381182
0.00312819
0
0.00198931
0.00354852
0.00305476
0.169826
0.547125
0.150646
0.0314018
0.00130208
0.00159143
0.0176027
0.0256828
0.00821544
0.129008
0.194522
0.139141
0.19934
0.0222073
0.00640628
0.00239781
0.0059
0.00387589
0.0339383
0.0676074
0.312321
0.113037
0.00126316
0
0.00218355
0.00218355
0
0.0515127
0.312048
0.341156
0.489438
0.0419602
0.0062565
0.000311935
0.000311935
0
0.00960063
0.0576944
0.499883
0.172396
0.0744018
0.0474672
0.02626
0.00262404
0.0104365
0.0270802
0.0155191
0.14187
0.2234
0.352602
0.228998
0.0703636
0.0247269
0.0592994
0.0183467
0.00701396
0.039248
0.417244
0.206032
0.0379476
0.0020601
0
0
0.0162481
0.00714418
0.11714
0.273762
0.561968
0.156648
0.0034335
0
0
0.00974885
0.00417808
0.0075409
0.0569765
0.282975
0.304376
0.0454799
0.0417457
0.029671
0.00174705
0
0.00215934
0.00442865
0.137378
0.492068
0.0943576
0.0333046
0.00703713
0.000249578
0
0
0.0498596
0.375178
0.217195
0.0130027
0.00820086
0
0
0
0.000308477
0.0105023
0.294946
0.468553
0.046481
0.0136681
0
0
0
0
0.00190932
0.0531104
0.449275
0.150864
0.00821653
0
0.000367794
6.49048e-005
0
0
0.0217381
0.39767
0.311454
0.0250444
0.00367238
0.00257456
0.00148703
0.00308805
0.0108192
0.182682
0.506547
0.155283
0.00239758
0
0.00257456
0.000579375
0.00112538
0.00689173
0.0411868
0.313744
0.210004
0.00923835
0.00651497
0.0180219
0.00987141
0.0157613
0.0303664
0.0182482
0.360499
0.646206
0.147153
0.0172573
0.0092961
0.0322155
0.03239
0.0788256
0.0635584
0.0862068
0.120029
0.0795866
0.0176397
0.0290129
0.0694002
0.0453348
0.0552475
0.114889
0.181799
0.19512
0.0781148
0.0306153
0.0327895
0.0575646
0.0840202
0.130038
0.194355
0.105029
0.038693
0.0536206
0.00654138
0.00976636
0.0659315
0.108562
0.0139637
0.0702598
0.0612599
0.332741
0.121231
0.11497
0.100434
0.0616261
0.0384386
0.0331495
0.182901
0.105202
0.224787
0.214781
0.14954
0.184714
0.104191
0.0441029
0.125353
0.0620145
0.0824308
0.295458
0.196305
0.172603
0.0765017
0.0860508
0.0860133
0.264328
0.239147
0.144624
0.234565
0.204077
0.115987
0.0521548
0.0784344
0.157987
0.0823615
0.180144
0.119034
0.141695
0.201693
0.138255
0.105954
0.0745551
0.0347146
0.118819
0.108787
0.0523057
0.183674
0.177471
0.13141
0.34761
0.0418484
0.0196659
0.178139
0.272847
0.170277
0.190845
0.202738
0.082486
0.0214362
0.0298385
0.0770582
0.185316
0.200275
0.112213
0.145194
0.254699
0.0493354
0.0555054
0.0380287
0.0262464
0.0178612
0.00597696
0.00149361
0.0186585
0.0258383
0.0473778
0.363307
0.0248574
0.00328556
0.00776445
0.000827931
0
0.000564714
0.00523156
0.107653
0.717596
0.18023
0.0152385
0.0419121
0.017497
0.00473772
0.0243129
0.0559464
0.0549162
0.117095
0.021951
0.00647846
0.0356503
0.0079409
0.00398429
0.0125453
0.0146234
0.171529
0.377895
0.172285
0.0545559
0.00460652
0.000633197
0
0
0.00227188
0.0312917
0.228644
0.280737
0.0728998
0.0538695
0.00443238
0
0.00766196
0.00796095
0.00123473
0.0676973
0.406286
0.184844
0.0358067
0.00488
0.00343766
0.00135499
0.0017127
0.042871
0.143206
0.313342
0.166766
0.0826194
0.00818652
0.000491095
0.00459717
0.00459717
0
0.0233863
0.484373
0.443464
0.0962921
0.00137515
0
0.00646171
0.00646171
0
0.0145611
0.137002
0.230679
0.372302
0.013609
0.000921792
0.000923101
0.000923101
0
6.48154e-005
0.025674
0.296412
0.131758
0.00164392
0
0.00387703
0.00387703
0
0.0037065
0.136301
0.416675
0.51588
0.0198786
0
0.000553861
0.000553861
0
0
0.0180812
0.393383
0.322763
0.0819266
0.0070441
0
0
0
0
0.000493051
0.0582676
0.239417
0.339361
0.0477448
0
0
0
0
0
0.00754622
0.504189
0.0790969
0.00255944
0
0
0
0
0.00029583
0.0771552
0.556985
0.278893
0.0256573
0.00137249
0.00137249
0
0
0
0.0286894
0.0685881
0.372744
0.111433
0.0116337
0.00143096
0
0
0
0.00091732
0.0336613
0.536146
0.24229
0.0251888
0.00238494
0.00059515
0.000255065
0.00375287
0.00136396
0.236587
0.385666
0.0729156
0.0041854
0.00146761
0
0
0
0.0192565
0.0561689
0.461864
0.109081
0.00989918
0.00343135
0.00416605
0.00178545
0.0114256
0.00774211
0.0881981
0.632889
0.439632
0.115735
0.000837605
0.00647622
0.00610941
0.0319569
0.0121892
0.0475796
0.151915
0.177979
0.144649
0.00252635
0.0107938
0.0305044
0.06041
0.0379992
0.0752413
0.371094
0.0913894
0.0173047
0.0228561
0.0484732
0.0210524
0.0664983
0.0206072
0.0350573
0.0714563
0.0443011
0.0163056
0.021929
0.0494415
0.0369891
0.0978283
0.051986
0.0497553
0.270755
0.118528
0.0661822
0.018196
0.0150606
0.0453695
0.0962405
0.0703941
0.0977014
0.303895
0.166395
0.0330639
0.0211297
0.00193007
0.0331638
0.0936311
0.0946017
0.0404705
0.156942
0.135933
0.0217524
0.0667265
0.0129872
0.0987759
0.199965
0.127198
0.146611
0.41633
0.157313
0.0679821
0.044063
0
0.116923
0.27206
0.137127
0.183787
0.102246
0.122066
0.182838
0.125815
0.15371
0.100463
0.0640701
0.106041
0.343816
0.225006
0.164319
0.138946
0.14198
0.0356528
0.0218276
0.0483962
0.170995
0.164096
0.0854452
0.100623
0.0779398
0.0817618
0.0774713
0.0814417
0.0576524
0.269564
0.110216
0.131745
0.206598
0.0817615
0.308833
0.0730872
0.0476205
0.0672924
0.1482
0.155109
0.156988
0.151826
0.0989828
0.128246
0.0172693
0.0150082
0.040605
0.0937682
0.215205
0.124583
0.110296
0.0357561
0.163497
0.0142723
0.0450508
0.0989767
0.123247
0.101983
0.124307
0.21068
0.0767541
0.164315
0.0528198
0.0340016
0.104938
0.152355
0.300543
0.0865542
0.112082
0.0466638
0.0379471
0.0508474
0.119916
0.18545
0.433463
0.0936595
0.0351626
0.0129071
0.0307642
0.0968547
0.110948
0.115703
0.139563
0.0738102
0.131474
0.0318058
0.0363888
0.0394165
0.0406764
0.327238
0.237539
0.217584
0.241502
0.098123
0.0204505
0.0067481
0.0059826
0.0142966
0.09812
0.166332
0.171045
0.216162
0.240804
0.0223815
0.0218333
0.00556979
0.0124235
0.126642
0.183916
0.18396
0.41476
0.144301
0.0364778
0.0511238
0.00611562
0.00318594
0.0555811
0.0579501
0.182234
0.20714
0.286357
0.069176
0.068557
0.0214519
9.87257e-005
0
0.0131409
0.364961
0.601004
0.210325
0.0393486
0.0623863
0.00809765
0.00096658
0.0202111
0.0328617
0.0386707
0.155539
0.204008
0.0817431
0.113432
0.0506949
0.01351
0.0294568
0.0822983
0.0775706
0.131948
0.212712
0.0163191
0.00937251
0.00697383
0.00015215
0
0.00142534
0.0754329
0.43541
0.634121
0.0549524
0.00279282
0.00173451
9.12898e-005
0
0.00020362
0.0104972
0.384288
0.107881
0.0258472
0.0222709
0.0274197
0.0208207
0.0159534
0.0368631
0.029145
0.107058
0.273819
0.0818388
0.0248949
0.0288658
0.0234603
0.0100338
0.0180952
0.00847155
0.0925978
0.586347
0.128997
0.000586144
0
0
0
0
0
0.0722727
0.606651
0.197491
0.0163445
0.00968016
0.00679831
0.000319774
0.00181205
0
0.0441625
0.234411
0.115525
0.0179385
0.0280967
0.0115429
0.00131278
0.00363662
0.00267216
0.0147759
0.232332
0.118011
0.0340225
0.0504233
0.0145405
0.00223842
0.0170906
0.0177703
0.0184441
0.542757
0.394124
0.110175
0.0357926
0.0200661
0.000833175
0.00472132
0
0.0889712
0.0921365
0.34746
0.19365
0.0727381
0.0225393
0.00692389
0.00359085
0.0138729
0.0233814
0.154652
0.13105
0.12643
0.106968
0.0377987
0.00596475
0.0667743
0.023779
0.0325947
0.0232466
0.169933
0.209297
0.149106
0.0513027
0.00715516
0.0410713
0.00468105
0.0192726
0.0530752
0.128468
0.139329
0.0875826
0.055802
0.0452625
0.0229437
0.0330159
0.0104618
0.11408
0.0712624
0.0962257
0.062514
0.0418046
0.0490981
0.0316917
0.0771554
0.112363
0.110069
0.202228
0.28067
0.221974
0.0634547
0.0210547
0.0101927
0.00172066
0.00680954
0.352445
0.481631
0.269392
0.18577
0.0470661
0.0134522
0.00256107
0.0307312
0.10285
0.0797701
0.0896551
0.0743674
0.0322603
0.0247419
0.00498092
0.0348786
0.0937677
0.136296
0.232344
0.306974
0.0543557
0.0301728
0.0154546
0.00490497
0.0563952
0.164422
0.136748
0.164512
0.37498
0.163614
0.294402
0.0532538
0.0035474
0.0124701
0.0296378
0.0988442
0.200633
0.330173
0.115639
0.202985
0.073588
0.0460251
0.081893
0.0243395
0.0767876