0.0400063
0.0469361
0.0272912
0.0353882
0.0950354
0.138725
0.194351
0.181236
0.023788
0.0331184
0.0404792
0.0155988
0.0123431
0.16551
0.240195
0.302346
0.194888
0.0809541
0.0390197
0.0932962
0.161891
0.0718712
0.088116
0.178638
0.126276
0.0734158
0.0130926
0.0337479
0.0962712
0.0832587
0.0898223
0.343421
0.245069
0.222232
0.128515
0.0305328
0.0267814
0.00683901
0.00302158
0.00977348
0.0734078
0.0791292
0.122956
0.117402
0.0726521
0.116969
0.0931587
0.0445118
0.033449
0.0486554
0.101398
0.191586
0.105655
0.0904522
0.0446065
0.0421047
0.0912403
0.0893266
0.202306
0.0869049
0.102695
0.049085
0.0116496
0.220123
0.586918
0.397257
0.138165
0.104104
0.097209
0.101083
0.0286067
0.0339278
0.0484922
0.116398
0.0574726
0.0163961
0.0117473
0.0128263
0.0263174
0.00809863
0.00978168
0.0771708
0.229502
0.123718
0.0191668
0.00741596
0.00496025
0.0262706
0.00645136
0.0127214
0.0813077
0.475575
0.163766
0.01498
0.0036033
0.0136301
0.0103585
0.00140524
0.0106679
0.236657
0.678333
0.200295
0.00606131
0
0.000475062
0.00375295
0.000353645
0.00185878
0.142937
0.130701
0.0412679
0.00307079
0.00128135
0.00323442
0.0165091
0.00499082
0.0460079
0.40092
0.0852881
0.00328094
0
0
0.000391293
0.00333739
0.0159537
0.15092
0.286905
0.336186
0.0431698
0.00127536
0
0.000391293
0.00233559
3.94212e-005
0.0452347
0.641085
0.170315
0.0027743
0
0
5.5899e-005
0.000316761
0
0.228638
0.314855
0.0139849
0
0
0
0
0.000382283
0.0243491
0.161931
0.186159
0.0178698
0.00508212
0
0
0
0
0.114079
0.304506
0.509968
0.0168855
0
0
0
0
0
0.0127819
0.234988
0.391437
0.00839672
0.000197748
0
0
0
0
0.101525
0.426643
0.145736
0.0567366
0.0206165
0
0
0
0.0212564
0.123503
0.241085
0.104927
0.055312
0.0133655
0.00541043
0.000601158
0
0.131808
0.261037
0.0753783
0.18158
0.0100283
0.000802198
0
0
0
0.0221641
0.22803
0.450718
0.0397036
0.00807194
0.000623552
0
0
0
0.145581
0.549854
0.291665
0.0392309
0.0335693
0.0159509
0.0310219
0.0092378
0
0.117438
0.243646
0.0726505
0.0792928
0.0306391
0.0257691
0.0482466
0.0465245
0.0184324
0.0493652
0.0685838
0.0948174
0.00616123
0.00398802
0.00198963
0.00765398
0.0050104
0.00117527
0.209021
0.606576
0.232357
0.011866
0.00281993
0.00536809
0.0127566
0.0250247
0.112715
0.274348
0.393346
0.216493
0.134499
0.0394053
0.0148321
0.0281325
0.109023
0.0685891
0.0521239
0.018956
0.0719729
0.0917418
0.0586752
0.008396
0.0243031
0.168477
0.111645
0.0518753
0.071499
0.0680406
0.030791
0.0174262
0.0130408
0.00328725
0.0584842
0.344356
0.450915
0.178425
0.0808733
0.098654
0.0814216
0.00736586
0.0319621
0.111427
0.401406
0.299292
0.105375
0.0585387
0.0587917
0.0693822
0.0293953
0.0262119
0.134844
0.150855
0.0691586
0.102406
0.0756266
0.131458
0.130915
0.0620878
0.0036731
0.0796769
0.170202
0.102816
0.105921
0.0966624
0.217599
0.173009
0.0644456
0.0428528
0.117379
0.209527
0.0877008
0.127187
0.113453
0.389009
0.275649
0.109637
0.00612183
0.0512256
0.0925501
0.0599756
0.275268
0.148275
0.0613232
0.0301455
0.187465
0.0721921
0.0148294
0.0457513
0.0460459
0.00851383
0.0176553
0.0627825
0.0718472
0.116053
0.0664011
0.118167
0.141348
0.109648
0.0199507
0.0264725
0.0855197
0.00653934
0.260518
0.210036
0.0797313
0.133105
0.0721142
0.0306991
0.0141475
0.074126
0.0760823
0.548261
0.431726
0.041692
0.124816
0.101297
0.00510291
0.0171306
0.00735987
0.0541937
0.111529
0.0313956
0.0439637
0.030473
0.0162225
0.00441226
0.00113702
0.0204562
0.239698
0.310215
0.0765291
0.0266354
0.00625972
0.00415863
0.0016572
0.00111309
0.00419235
0.0959642
0.353625
0.102299
0.0107323
0.0250474
0.0111176
0.000674421
0.000682499
0.0028837
0.358045
0.682117
0.0763747
0.00433265
0.00338178
0.000228771
9.80448e-005
0
0.0149222
0.292517
0.124116
0.0162915
0.00210222
0.000749401
0.0002498
0
0.000803046
0.0940544
0.444616
0.077165
0
0
0
0
0
0.000114721
0.00317506
0.366978
0.272919
0.0172683
0.000300318
0
0
0
0
0.0362046
0.615534
0.189155
0.00248061
0
0
0
0
0
0.158971
0.274256
0.0125647
0
0
0
0
0
0.0115381
0.397129
0.146692
0.000963174
0
0
0
0
0
0.0855939
0.107725
0.532224
0.0495184
0.000196037
0
0
0.000438475
0.00563961
0.000696556
0.474165
0.358733
0.00559224
0.000117622
0.00517486
0.00091321
0.00306932
0.0164149
0.0481624
0.3305
0.0209885
0
0
0
0
0
0.00185235
0.144251
0.236515
0.00605316
0
0
0
0
0
0.0334607
0.339917
0.440062
0.060776
0.00130577
0
0.0052108
0.000919553
0.00113698
0.00498368
0.184395
0.294166
0.00600664
0.000783463
0
0.0007444
0.000131365
0
0.0469233
0.563289
0.058909
0.000622479
0
0
0
0
0.00308464
0.139108
0.25572
0.00515733
0
0
0
0
0
0.0319573
0.326547
0.162718
0.0560191
0.000281901
0
0
0
0
0.00249752
0.269267
0.433103
0.00142043
0
0
0
0
0
0.0869398
0.639292
0.187691
0.00135809
0
0
0
0
0.00156447
0.0697686
0.301032
0.0911101
0.000194013
6.7369e-005
0.000157194
0
0
0.0529351
0.201796
0.220022
0.0510758
0.000194013
0
0
0
0
0.000938682
0.243714
0.558507
0.0390977
2.77162e-005
0
0
0
0
0.0218851
0.497109
0.324641
0.00620524
6.23861e-005
0.000577821
0.000523368
0
0.000944845
0.0812517
0.281447
0.0950509
0.00966876
0.0262189
0.0107192
0.000314021
0.00136261
0.00554609
0.0872288
0.229405
0.0702596
0.0362971
0
0
0
0
0
0.0397046
0.568605
0.175594
0.000980287
0.0162113
0.00879197
0
0
0
0.115025
0.603539
0.12175
0.0345474
0.188507
0.0962188
0.0127792
0.00803667
0.0118087
0.0815996
0.128658
0.0741858
0.139485
0.26064
0.118973
0.032569
0.0299088
0.00933742
0.0217904
0.0996816
0.145824
0.140804
0.166508
0.0901499
0.00554044
0.00684628
0.000760697
0.119767
0.567347
0.0996811
0.12529
0.223866
0.134194
0.130452
0.066388
0.0189822
0.0197727
0.219764
0.120741
0.0984996
0.0197179
0.00590415
0.0594771
0.0727371
0.0687005
0.0946416
0.0186321
0.0146433
0.0391565
0.00695198
0.0138436
0.380806
0.257514
0.0128369
0.0309367
0.00572544
0.000847603
0.011475
0.0871934
0.145689
0.103749
0.0636998
0.0355415
0.0377494
0.0163938
0.0456239
0.162921
0.0603314
0.155338
0.569031
0.465202
0.0256486
0.0351087
0.000426279
0.00141267
0.0513824
0.00024527
0.0285888
0.297757
0.101856
0.000717646
0.00172312
0.000825921
0
1.2909e-005
0.00208521
0.125483
0.474875
0.0773552
0.00053553
0.00023305
0
0
0
0.0025067
0.0187599
0.364074
0.213608
0.0155248
0.00388778
0
0
0.000801791
0.00256518
0.0282382
0.551388
0.324956
0.0315968
0
0
0
0
0.00252673
0.160444
0.306786
0.0327486
0.000152307
0
0
0
0
0.0171034
0.436699
0.259864
0.0146056
0.0157112
0.00961901
0
0
0
0.00546694
0.0670356
0.51142
0.190692
0.0126336
0.00101529
0
0
0
0.0356876
0.233076
0.398694
0.104993
0.185006
0.0231387
0
0
0
0.0535546
0.500234
0.0882716
0.00877578
0.0247259
0.0159929
0.0147525
0.0221674
0.0227804
0.2168
0.28938
0.0177839
0.0219343
0.0652436
0.0290719
0.0664293
0.0640693
0.057997
0.0349504
0.264283
0.182125
0.18914
0.286987
0.0305839
0.0596176
0.0156271
0.0359858
0.035896
0.117466
0.11473
0.359609
0.303144
0.0446872
0.159455
0.0456056
0.0741693
0.329164
0.0862673
0.0132465
0.0337709
0.0899037
0.0303225
0.0326599
0.0257978
0.167704
0.258235
0.0198331
0.0237633
0.0151669
0.0154471
0.00348288
0.0051151
0.0611305
0.537616
0.129048
0.0485267
0.035491
0.220565
0.308024
0.0448853
0.0599152
0.0296733
0.068109
0.400383
0.157408
0.0347898
0.0323198
0.0601358
0.00499733
0.00852516
0.0255689
0.116612
0.0438564
0.00965494
0.00408305
0.000294784
0
0
0.0138102
0.23613
0.290228
0.0194885
0.0186318
0
0
6.23043e-005
0.0071754
0.177316
0.637811
0.148395
0.24427
0.187804
0.00680509
0.000491307
0
0
0.0221981
0.0677327
0.0541836
0.281767
0.265396
0
0.00113089
0.0314796
0.0333547
0.146608
0.182422
0.0773608
0.00557388
0.00553116
0
0
0.000116354
0.00632705
0.265881
0.294191
0.0157445
0.000415247
0.000507524
0.000482098
0.000589231
6.98121e-005
0.013471
0.439926
0.194973
0
0.0616787
0.0559661
0
0.00369278
0.0587836
0.0418652
0.240385
0.144949
0.051582
0.00290673
0.00355267
0.00337468
0.00802651
0.0434984
0.208362
0.616407
0.169277
0.0313482
0
0
0.00154091
0.00188334
0
0.0228918
0.354091
0.0931331
0
0.000895081
0.00106812
0.000924548
0.00113
0
0.0774553
0.421244
0.0511267
0.00254874
0
0
0.0107864
0.0136026
0.0195694
0.248053
0.463957
0.0683325
0.00428857
0
0
0.00647183
0.00791002
0.0121257
0.28718
0.493748
0.0354965
0
0.0168556
0.0203281
0.00324514
0.00282449
0.0015815
0.112016
0.435506
0.0441947
0.0134734
0.0522826
0.0782124
0.0681511
0.0326113
0.00740892
0.0305302
0.10646
0.0385169
0.0133778
0.00832408
0.0136401
0.000463591
0.0159726
0.0738756
0.444325
0.585467
0.0162683
0.00245155
0.0625834
0.0581012
0.0512159
0.0512973
0.120103
0.167805
0.173522
0.0265547
0.0115753
0.0834239
0.145584
0.104044
0.030866
0.0236058
0.03073
0.0668679
0.0253812
0.0649855
0.0997604
0.122821
0.263924
0.307692
0.16291
0.0547368
0.000542862
0.00015404
0.0391185
0.0919153
0.0725804
0.13634
0.122167
0.153451
0.123119
0.127279
0.00976186
0.0485762
0.147086
0.0422892
0.154031
0.353238
0.588384
0.0557622
0.0163479
0.00615973
0.0794075
0.00630371
0.00838537
0.132033
0.189308
0.0793796
0.00939491
0
0
0.00201836
0.00116818
0.00528806
0.210159
0.442686
0.082601
0
0
0
0
0.0119247
0.00098982
0.0453288
0.212835
0.281592
0.00767711
0.000838803
0.00140953
0.00753206
0.00150109
0.00112786
0.0646585
0.573314
0.418854
0.00731923
0
0.000630024
0.00140421
0.00214662
0.015822
0.294982
0.350428
0.0386218
0.00167692
0
0
0
0.0133258
0.042013
0.183698
0.142368
0.364801
0.0192703
0.00304125
0
0
0.000782777
0.00571827
0.0877399
0.388577
0.22398
0.0108703
0
0
0
0.00126008
0.00777258
0.0366552
0.0943351
0.555828
0.0667832
0.0228513
0.0296875
0
0.00618968
0.0365332
0.0947542
0.195507
0.40303
0.0263718
0.0255536
0.00699576
0.00404661
0.0491884
0.0480112
0.0813097
0.339234
0.257537
0.0224232
0.0413228
0.047507
0.029965
0.000181174
0.00449073
0.0222075
0.0813538
0.581444
0.12036
0.071603
0.102156
0
0.0894212
0.0685739
0.0343261
0.122108
0.269767
0.10357
0.0788701
0.166795
0.0142591
0.221593
0.115385
0.0181744
0.13763
0.124772
0.00650852
0.0102894
0.0337626
0.0462244
0.489169
0.277883
0.00999161
0.00645401
0.0186274
0.00049161
0.000922503
0.00972064
0.022912
0.31158
0.19229
0.0337756
0.0421989
0.0505205
0.0165081
0.0202208
0.0640035
0.0459677
0.438376
0.343058
0.171666
0.00481362
0.0286513
0.0193062
0
0.0239404
0.0874418
0.34428
0.265271
0.0125831
6.99689e-005
0
0
0.00316132
0.00838914
0.017216
0.355052
0.253255
0.0283682
0.02155
0.0720547
0.0499091
0.0155469
0.0178588
0.0905561
0.353468
0.226388
0.124847
0.0014427
0.0110201
0.0168601
0
0.0188364
0.102991
0.486434
0.154553
0.0683767
0.048868
0.0560429
0.0331085
0
0.0411471
0.204456
0.0837924
0.0493758
0.0197712
0.0337089
0.180403
0.0842914
0.0565055
0.0285351
0.0740259
0.00245091
0.0017314
0.00446911
0.0222822
0.138578
0.473941
0.364249
0.0411679
0.0418736
0.130124
0.040024
0.0564742
0.0907064
0.181407
0.0713694
0.00961543
0.0222953
0.0731557
0.00767788
0.00912344
0.0197678
0.0588496
0.253051
0.569882
0.130261
0.00288782
0.0106473
0
0
0.00298979
0.0045129
0.0270365
0.355629
0.184927
0.00757637
0.00323125
0
0
0.00179387
0.00251624
0.0270881
0.339072
0.174103
0.00450397
0
0
0.000594611
0.000254833
0.00360467
0.163001
0.547223
0.0732645
0.000284029
0.000461607
0
0
0
0.00486381
0.21277
0.504353
0.06405
0.0019882
0
0.0102353
0.00204014
0
0.00533608
0.0751092
0.397969
0.17836
0.0062498
0.00236684
0.146558
0.0123903
0.00656128
0.009322
0.100678
0.174139
0.0620268
0.030506
0.0402157
0.0467717
0.0140213
0.0139607
0.0125249
0.217254
0.510425
0.0997819
0.0189826
0.00232461
0.502248
0.0825365
0.0704687
0.00710923
0.105367
0.183641
0.0585338
0.0662175
0.0807809
0.0250584
0.0796051
0.123742
0.211306
0.118932
0.0642531
0.0488601
0.00915716
0.0370114
0.0407144
0.0353503
0.041625
0.205802
0.472726
0.0982863
0.0375825
0.0174814
0.0608826
0.0184799
0.111029
0.253784
0.158341
0.0637564
0.11434
0.0165377
0.0140448
0.0356982
0.0115953
0.032875
0.0262736
0.0868474
0.41314
0.467175
0.0732577
0.0156191
0.0267596
0.00444237
0
0.0024187
0.0830103
0.264159
0.0347097
0.00282553
0.00368439
0.0059739
0.00128298
0.000442654
0.00526586
0.161948
0.525887
0.0755589
0.00160468
0.00164683
0.00146596
0.000330513
0
0
0.0221594
0.249429
0.192182
0.0245749
0.00221063
0.00096424
0.000183283
6.32363e-005
0.000189709
0.0197466
0.512766
0.439558
0.0150347
0.000988099
0.000293072
0.00408665
0.00799209
0.015805
0.139979
0.418622
0.0913542
0.00595441
0
0
0.00681108
0.011695
0.0133554
0.0655306
0.380539
0.148454
0.0322616
0.0617545
0
0.012589
0.00666553
0.000922202
0.0171219
0.404654
0.462714
0.0337769
0
0.00108993
0.0209817
0.0439831
0.0748504
0.25774
0.230775
0.160853
0.0393343
0.022287
0.00181656
0.0043924
0.0209626
0.048958
0.0394295
0.419764
0.202872
0.108566
0.225901
0.00136982
0.0588765
0.0600021
0.114405
0.0383766
0.168996
0.104824
0.11442
0.187178
0.00629201
0.0260585
0.131465
0.284603
0.325402
0.205511
0.120907
0.0876299
0.0788243
0.00990778
0.116
0.128481
0.38237
0.152051
0.131618
0.0397095
0.0614694
0.0486346
0.0449408
0.198526
0.0895953
0.131568
0.0282429
0.0469073
0.0409678
0.0304925
0.0314451
0.0502836
0.219771
0.13971
0.319199
0.00928051
0.134346
0.160752
0.00769344
0.0936473
0.14953
0.226371
0.0775909
0.201562
0.0472164
0.0418695
0.0452551
0.00967321
0.00280256
0.192078
0.238566
0.0913214
0.13716
0.00227856
0.0806076
0.168805
0.0128224
0.175658
0.503852
0.154483
0.0615337
0.117668
0.00167808
0.0348433
0.0685672
0.00217959
0.0891235
0.164232
0.249894
0.0938576
0.0303978
0.0132099
0.00717515
0.00817009
0.0286084
0.180369
0.203808
0.0681858
0.0178535
0.024511
0.00141329
0.0256002
0.0584264
0.0444232
0.230832
0.329512
0.0601722
0.0226539
0.00310118
0.00821493
0.0333364
0.014129
0.238129
0.623807
0.225702
0.130416
0.0873797
0.0473727
0.0532518
0.0697033
0.0167893
0.0370548
0.111243
0.0780481
0.0473811
0.0432847
0.0293222
0.0688445
0.371659
0.313426
0.0339355
0.021714
0.020779
0.105225
0.0441962
0.00600717
0.00620246
0.0275371
0.0333558
0.26553
0.449236
0.0982328
0.114636
0.029463
0.0342925
0.303373
0.343287
0.0931912
0.170033
0.114619
0.108785
0.0016447
0.0016703
0.000715844
0.0353506
0.308585
0.228844
0.00749957
0.0024647
0.00131489
0
0
0
0.0422438
0.392562
0.203223
0.00839783
0.00674744
0.000290611
0.00555933
0.00124428
0.0194319
0.291802
0.381684
0.0453524
0.017528
0.00656836
0.00706944
0.00207131
0.00169471
0.0199562
0.247403
0.546548
0.0330761
0.000837748
0.0114881
0.00203428
0.0363248
0.0138265
0.0261618
0.0457203
0.346537
0.178134
0.0205232
0.0179587
0.00352437
0.277097
0.0617921
0.0886769
0.0376568
0.113466
0.0540848
0.0175749
0.117939
0.126683
0.0285769
0.00719913
0.0575331
0.26209
0.535481
0.0339528
0.000547797
0.0131469
0.0096441
0.199102
0.0253523
0.100209
0.247169
0.18188
0.0222784
0
0.128435
0.310659
0.00972906
0.0347166
0.16028
0.0776993
0.0391464
0.133773
0.0245141
0.0237789
0.0239412
0.00456799
0.00435349
0.0108977
0.050037
0.187321
0.596346
0.126188
0.0099453
0.0141676
0.00382951
0.018865
0.0441922
0.0606684
0.0578917
0.0929912
0.0561565
0.109002
0.0170408
0
0
0.00128663
0.0664642
0.166001
0.480868
0.350183
0.0825736
0.00535015
0
0
0
0.00426077
0.0989648
0.258353
0.0639282
0
0
0
0
0
0.00123797
0.16264
0.578575
0.0995256
0
0
0
0
0
0.00401692
0.0523292
0.250603
0.188934
0.00711307
5.40055e-005
0
0
0
0
0.0410991
0.514004
0.344657
0.00543389
0
0.00573718
0.00126113
0
0.00534338
0.0848522
0.369274
0.138286
0.00291696
0.0020181
0.012973
0.0319951
0.0355297
0.195521
0.210301
0.0757776
0.0754838
0.00756122
0.0058751
0.0015759
9.12601e-005
0
0.00867371
0.0284446
0.338406
0.513654
0.0268042
0.00121086
0.0083115
0.0109783
0.00580561
0.139004
0.279707
0.166439
0.395249
0.120431
0.0136275
0.0210596
0.117103
0.136313
0.328195
0.27469
0.0243333
0.0174341
0.0126257
0.0129216
0.0891396
0.0889368
0.226124
0.194613
0.178038
0.045552
0.0323111
0.0204617
0.0714671
0.0223643
0.0419104
0.0270908
0.209262
0.454461
0.166626
0.0764432
0.198262
0.0479275
0.0468799
0.0269881
0.0695638
0.136769
0.306393
0.115552
0.113126
0.210855
0.188419
0.159155
0.019702
0.0721968
0.0315638
0.024555
0.0187241
0.0113812
0.00965182
0.191486
0.206089
0.0187022
0.0114463
0
0
0.0089032
0.00100979
0.0354425
0.399529
0.118284
0.000989239
0.0239046
0.0210568
0.0405154
0.0295392
0.043886
0.0641668
0.372409
0.246303
0.00085089
0
0
0
0
0
0.0150419
0.643949
0.0639852
0.00468118
0.00572611
0.020267
0.0214123
0.0416192
0.0635277
0.0882016
0.251629
0.00792067
0.000360887
0.0207985
0.117993
0.164702
0.0834264
0.232686
0.30998
0.105571
0.135822
0.00304791
0.0687612
0.0970846
0.0433461
0.061952
0.0294127
0.0282145
0.344605
0.0563205
0.0450111
0.31778
0.442811
0.34644
0.114635
0.10542
0.102856
0.0920434
0.0106293
0.00827074
0.0222869
0.0588664
0.0740804
0.047563
0.126336
0.169546
0.0307841
0.0154147
0.0130176
0.112889
0.242992
0.0771283
0.0467477
0.0699599
0.0479254
0.039218
0.00449976
0.0414461
0.265152
0.284874
0.172406
0.0347032
0.0518251
0.0673394
0.00522279
0.000192723
0.0248314
0.652737
0.399224
0.0878074
0.0260981
0.0149257
0.0179004
0.00707904
0.00261733
0.00226797
0.115193
0.388891
0.135116
0.00826708
0.014046
0.00338982
0.00504097
0.00621748
0.00710565
0.11409
0.304727
0.243607
0.00280162
0.000871646
0.0033056
0.000826399
0.000556527
0.00300478
0.403313
0.399798
0.0433258
0.00415827
0.00157612
0.000976424
0.000866866
0.00373049
0.0203209
0.365575
0.35547
0.0648873
0.00435823
0.00145274
0
0
0.0105228
0.014669
0.158973
0.309015
0.29282
0.020135
0.00427505
0.00219413
0.00339601
0.0654249
0.0204862
0.0951432
0.276334
0.190345
0.0771766
0.00634959
0.0222992
0.140263
0.00319784
0.0869044
0.451742
0.337473
0.127558
0.0282737
0.00712509
0
0.00072168
0.0120795
0.0549788
0.120574
0.316085
0.267317
0.108673
0.0142776
0
0.0145519
0.00994983
0.0157826
0.0174861
0.0207443
0.0516868
0.0382568
0.0757533
0.188
0.0417355
0.0132057
0
0.0270746
0.0452156
0.101385
0.348792
0.548952
0.209518
0.022906
0.0429872
0.0256723
0.0253255
0.0645381
0.0236008
0.0428107
0.0903346
0.0944177
0.0443646
0.063255
0.0231072
0.0463935
0.106011
0.0462334
0.232341
0.337039
0.251029
0.0510936
0.000697064
0
0.00388478
0.00450774
0.0214266
0.208341
0.269685
0.033037
0.00093356
0
0
0
0
0.0139118
0.294351
0.491657
0.0462618
0
0.00667138
0.0085238
0.00647463
0.0116111
0.00703178
0.137105
0.275235
0.0972318
0.00276533
0.00191991
0.00284069
0
0
0.00196906
0.139544
0.561285
0.157881
0
0
0
0
0.00222155
0.00505735
0.0945492
0.408905
0.0551118
0
0.000722994
0
0
0.0199161
0.0596985
0.0949676
0.444655
0.220518
0.0061105
0
0
0
0
0.000691303
0.0262542
0.337826
0.132067
0
0
0
0
0
0.00595219
0.0268399
0.444507
0.411135
0.00470159
0.00249226
0
0
0.0158897
0.107552
0.106751
0.120734
0.277945
0.0341866
0.0170576
0
0
0.0059562
0.0841001
0.0321306
0.0521418
0.212833
0.133717
0
0
0
0
0.00855759
0.0256836
0.187539
0.587486
0.0579072
0.0195401
0
0
0
0.00514816
0.0031441
0.0335365
0.49813
0.320133
0.0744314
0
0
0.00091575
0.0135523
0.00527692
0.0214356
0.0653212
0.226014
0.134393
0.00271251
0.000473872
0
0
0
0.00108101
0.0154944
0.394396
0.101164
0
0
0
0.000786658
0
0.0158546
0.1848
0.458936
0.326807
0.0246349
0.0033171
0
0
0
0.00756707
0.0576826
0.556271
0.0816891
0.0210693
0.0673278
0.0367703
0.0154899
0.00767254
0
0.0152338
0.189917
0.0779935
0.176923
0.31087
0.174126
0.128518
0.0127876
0.00268724
0.0158314
0.0445766
0.245937
0.162764
0.0300441
0.00146805
0.00135577
0
0
0.0316662
0.176111
0.158955
0.708532
0.194945
0.0251374
0.0138311
0
0
0.016146
0.0311012
0.0172169
0.122566
0.251483
0.130609
0.0593353
0.00107927
0.00167586
0.00419697
0.000668824
0.00463313
0.0763269
0.531662
0.172123
0.0254395
0
0.000239409
0.000558619
0
0.027975
0.404489
0.226058
0.0287736
0.00953581
0
0
0.000477732
0.00111471
0.00964874
0.273961
0.479715
0.0535801
0.00540056
0
0
0
0
0
0.0156352
0.392858
0.166608
0.00896198
0
0
0
0
0
0.0109934
0.42343
0.184433
0.0117379
0.000618125
0.000206042
0
0
0
0.103546
0.429521
0.0588323
0.00167996
0
0
0
0
0.00286139
0.0400199
0.567873
0.129026
0.00677144
0
0
0
0
0.00561092
0.0485903
0.52209
0.250994
0.0359851
0.0040963
0.00276221
0.000181678
0.00229301
0.0483673
0.0342616
0.160811
0.23991
0.117643
0.0323687
0.0161393
0.000302796
0.0190813
0.0236864
0.0168189
0.565897
0.226426
0.0252192
0.00472203
0.0400877
0.00325692
0.0013758
0.0807792
0.0361994
0.135413
0.169197
0.0962475
0.0668697
0.0765696
0.0111797
0.0146811
0.0801647
0.0332524
0.0368721
0.0687401
0.0171029
0.0908435
0.0906143
0.080553
0.0946344
0.168124
0.160192
0.0341683
0.117926
0.0329075
0.0929996
0.177917
0.263485
0.122004
0.0339753
0.019107
0.0234668
0.118802
0.122378
0.204518
0.1335
0.0936863
0.0925439
0.134844
0.22325
0.142604
0.407196
0.114695
0.137767
0.106805
0.121341
0.132686
0.0526128
0.0645917
0.010787
0.0202738
0.0147944
0.079281
0.241455
0.0857582
0.0068206
0.0180887
0.0196291
0.00430463
0.00587339
0.0182036
0.16201
0.649839
0.168611
0
0.0636516
0.0856585
0.0877689
0.108066
0.0258516
0.0360955
0.0691807
0.0201454
0.0141494
0.0424503
0.0239114
0.0500601
0.0503984
0.031686
0.0790762
0.458825
0.168249
0.0230024
0
0
0
0.000380238
0.00220836
0.0300493
0.323669
0.205602
0.00231273
0
0
0
0
0.00411839
0.0168581
0.30647
0.512287
0.0364461
0.0137027
0.000909022
0.00289677
0.00305764
0.00289081
0.0131961
0.273805
0.236242
0.0606351
0.00455741
0
0
0
0.000588341
0.00504519
0.175876
0.414512
0.223145
0.000567518
0
0
0
0.00121457
0.00516658
0.114573
0.454075
0.0766577
0.00500686
0
0
0
0
4.40394e-005
0.0689704
0.470854
0.424388
0.00397263
0
0
0
0.000173511
0.00285198
0.0678238
0.224399
0.173073
0.0176107
0
0
0
0
0.000308276
0.082209
0.237733
0.360514
0.0615181
0
0
0
0
0
0.017204
0.120836
0.458941
0.388087
0.0202581
0.00106819
0
0
0
0.00301989
0.0217619
0.451031
0.0778914
0
0
0
0
0
0.0210349
0.078965
0.312145
0.367734
0.00950189
0.00280393
0
0
0
0.000971829
0.00933536
0.29932
0.413106
0.152672
0.0115534
0
0
0
0
0.00771655
0.119762
0.242258
0.540366
0.116579
0.00166838
0
0
0
0.00278127
0.00895509
0.376571
0.070039
0.0153423
0
0
0
0
0.00013825
0.109488
0.315352
0.271613
0.0956445
0
0
0
0
0
0.0220112
0.0604556
0.456317
0.165923
0.00181447
0
0
0
0.000114882
0.000268059
0.033666
0.377398
0.351434
0.00509717
0.000177348
0
0
0
0
0.112998
0.316853
0.114412
0
0
0
0
0
0.00122305
0.0681294
0.467984
0.239374
0.00150798
6.92212e-005
0
0
0
0.00118606
0.0120289
0.207751
0.400074
0.013132
0.000690155
0
0
0
0
0.00639582
0.145561
0.555861
0.0717507
0.0279787
0.00206186
0
0
0
0.0277376
0.350455
0.296393
0.00983228
0.00482055
0
0
0
0.00134386
0.00347585
0.200611
0.327799
0.0241405
0.0698031
0.015738
0.00521995
0.0034556
0.0185829
0.0392862
0.096402
0.532941
0.139387
0.130156
0.0227344
0.1127
0.0138318
0
0.0482807
0.0773011
0.0704491
0.117905
0.202298
0.182332
0.234008
0.0766605
0.00146853
0.0174315
0.12634
0.225594
0.0299595
0.219335
0.0537449
0.113225
0.0285651
0.0543539
0.0460809
0.101293
0.0716729
0.0690959
0.235433
0.113167
0.226353
0.0912633
0.0394505
0.00537963
0.0189632
0.00552844
0.190693
0.112446
0.148282
0.0653607
0.0925535
0.0568075
0.0189716
0.0867558
0.0751516
0.155387
0.0803175
0.138099
0.0738308
0.200889
0.167031
0.0122257
0.0671833
0.0116691
0.359838
0.142394
0.134698
0.126916
0.133157
0.0319836
0.0113475
0.324099
0.0422235
0.114952
0.142119
0.11595
0.145147
0.325964
0.13528
0.0280489
0.0947601
0.151432
0.143118
0.0213509
0.0461538
0.0622539
0.115439
0.0983885
0.102006
0.0391579
0.143484
0.0982822
0.0168193
0.0789302
0.264881
0.282581
0.116259
0.00659699
0.198891
0.0690944
0.114631
0.054557
0.0830792
0.187239
0.199636
0.0984824
0.0430685
0.0533425
0.0837323
0.141742
0.0532873
0.115246
0.348203
0.217179
0.106364
0.0551698
0.00455427
0.0151125
0.00478856
0.00382057
0.0118373
0.121552
0.259466
0.174041
0.0216619
0.00163506
0.00490517
0
0.00368589
0.00297638
0.12749
0.562649
0.386417
0.0780252
0.0221568
0.0153718
0.0261091
0.0551437
0.0280941
0.0900461
0.113145
0.11166
0.117793
0.0544306
0.0644768
0.0161052
0.0482611
0.0118816
0.128589
0.349104
0.159966
0.00290331
0.000547843
0.00164353
0
0.000454329
0.00876154
0.0681746
0.376959
0.269002
0.0444997
0
0
0
0
0.0121994
0.0686474
0.298737
0.368189
0.0240278
0.0445094
0.0434709
0.0228579
0.00318031
0.0581341
0.107465
0.341055
0.127705
0.0683093
0.0292258
0.0105039
0.0308986
0
0.0885244
0.178844
0.292945
0.328891
0.119433
0.00588366
0
0
0
0.00166422
0.0220625
0.1127
0.316893
0.339546
0.0303801
0.0179275
0
0
0
0.000309356
0.065013
0.381704
0.124333
0.106684
0.014897
0.00420065
0
0.0116495
0.0636516
0.107297
0.310863
0.237846
0.181434
0.0414867
0
0
0.00230773
0.0468398
0.162326
0.432073
0.294625
0.0865579
0.0201525
0
0
0
0
0.0207113
0.161105
0.43475
0.309177
0.0540106
0
0
0
0
0.00340044
0.0643949
0.171836
0.175385
0.0668993
0.0108026
0.000516481
0.00202017
0.0401329
0.0799624
0.228988
0.369215
0.388588
0.134817
0.0336135
0.00361537
0.00398868
0.0154006
0.029749
0.106002
0.187683
0.425135
0.145374
0.00440561
0.00110759
0
0
0.00500446
0.0122002
0.0870643
0.557715
0.282306
0.014569
0.00468993
0
0
0.00300268
0.0183786
0.194646
0.276222
0.113275
0.0366012
0.00954275
0.00920776
0.0132462
0.058832
0.0481887
0.103224
0.187849
0.128322
0.0515523
0.0329103
0.0371688
0.0039533
0.0450364
0.0887614
0.0645084
0.515919
0.325723
0.0576489
0.0298118
0
0
0.0118651
0.0317917
0.0432631
0.206156
0.23498
0.119724
0.145581
0.0216565
0.0170904
0.0452705
0.0722743
0.112878
0.120764
0.136607
0.0683709
0.10199
0.0247113
0
0.0506889
0.148838
0.135141
0.14741
0.154001
0.184628
0.154517
0.000610369
0.00244148
0.0681513
0.0861567
0.0906613
0.0881003
0.0800254
0.12675
0.182138
0.0434978
0.0945406
0.0629082
0.145963
0.151511
0.125462
0.0880807
0.128271
0.159542
0.0387233
0.127236
0.0572293
0.144698
0.232089
0.181209
0.0982796
0.171135
0.112634
0.00341552
0.0205993
0.0564719
0.176635
0.240141
0.278598
0.109927
0.144354
0.0784734
0.0198083
0.0885138
0.0582683
0.205979