0.0534949
0.0195188
0.0347609
0.00434653
0.0747615
0.06923
0.189864
0.15885
0.102836
0.101819
0.0041855
0.0292591
0.0367563
0.137094
0.047768
0.0984101
0.258635
0.13615
0.0482595
0.0902494
0.14354
0.00724421
0.0752604
0.041538
0.114565
0.139889
0.0584833
0.230739
0.0694957
0.0308879
0.0088238
0.0492278
0.0438998
0.093709
0.36068
0.264576
0.143543
0.0458684
0.0564586
0.074125
0.0823634
0.0466128
0.0580187
0.0814381
0.143668
0.167487
0.0784169
0.0472112
0.0406451
0.0763207
0.0532717
0.12314
0.0830363
0.159893
0.261304
0.060137
0.049283
0.058538
0.0762063
0.0451155
0.0728526
0.123145
0.263132
0.136993
0.0795147
0.115214
0.0687739
0.228236
0.0344127
0.243503
0.0793879
0.124946
0.0483945
0.0368393
0.0803193
0.0109337
0.107061
0.0474296
0.14813
0.0884395
0.055461
0.0840884
0.0537442
0.164548
0.00836034
0.122822
0.00677565
0.112786
0.135795
0.101991
0.0335879
0.0222637
0.0540192
0.0072406
0.211947
0.0284577
0.306599
0.133206
0.0403997
0.174572
0.043588
0.130764
0
0.108732
0.00406539
0.242793
0.196066
0.195991
0.0587867
0.0389312
0.117396
0.00111901
0.0925445
0
0.104275
0.138646
0.0772038
0.0601531
0.0311718
0.0935155
0
0.267543
0
0.143658
0.0606818
0.0627841
0.167792
0.0585274
0.147416
0
0.0354143
0
0.116653
0.122821
0.181539
0.156078
0.181025
0.199746
0
0.216693
0
0.123643
0.0699622
0.10685
0.0418596
0.016108
0.0483241
0
0.157905
0.00389671
0.0689077
0.0237946
0.0421035
0.0930576
0.0198864
0.0696141
0.0184878
0.0421402
0.00649452
0.162605
0.104964
0.102179
0.156135
0.215078
0.0888057
0
0.139311
0
0.0831225
0.0263677
0.0574008
0.43707
0.222305
0.0870356
0
0.0420446
0
0.0744051
0.0644552
0.377224
0.111063
0.0291851
0.100115
0.0233258
0
0.0282385
0.0675979
0.0667987
0.119702
0.0741691
0.0951415
0.227873
0.0401068
0.0701277
0.070746
0.0672907
0.0141836
0.0706984
0.260236
0.0683218
0.105357
0
0.0023325
0.0218191
0.0723373
0.0736752
0.430131
0.132252
0.12141
0.184783
0.0244455
0.0637108
0.0912554
0.212293
0.0655477
0.207371
0.0205446
0.101498
0.177683
0.0825215
0.180199
0.111559
0.0765576
0.00676256
0.0106715
0.0509516
0.129686
0.169017
0.0746939
0.198854
0.0854539
0.083346
0.0269831
0.0358111
0.0768902
0.0626457
0.125286
0.0442728
0.137506
0.141805
0.187707
0.038459
0.0698429
0.227128
0.010957
0.0437235
0.0206649
0.171789
0.110569
0.226078
0.0573733
0.227128
0.0496439
0.067894
0.0715056
0.0104343
0.139364
0.0257656
0.0883122
0.0643131
0.0451582
0.0345297
0.0147379
0.0453882
0.0295389
0.165176
0.0338732
0.266795
0.107346
0.0362256
0.160036
0.0155577
0.0472849
0.0011361
0.0804764
0.00906945
0.209609
0.068242
0.160036
0.11861
0.0148033
0.0420338
0.00678927
0.101809
0
0.380615
0.126872
0.11861
0.0200763
0.0148481
0.0619085
0.0306176
0.109013
0.00407996
0.202878
0.0670433
0.0200763
0.0553831
0.10015
0.184105
0.00750399
0.15414
0
0.170068
0.0566893
0.0460242
0.0894064
0.0204716
0.0662217
0.016425
0.0946587
0.00331903
0.244927
0.114234
0.121871
0.094558
0.0496143
0.154535
0.00985503
0.337746
0.0232332
0.231176
0.128201
0.148665
0.0634389
0.111257
0.202095
0.00269794
0.0163671
0
0.0595024
0.0738454
0.0623366
0.207788
0.102105
0.0783524
0.0115519
0.0293926
0.0442661
0.0702066
0.180602
0.216178
0.0660392
0.145957
0.316429
0.0115519
0.0441098
0
0.047014
0.040817
0.0599829
0.196564
0.09406
0.266873
0.0808636
0.126245
0.0265597
0.0187021
0.0534149
0.200489
0.151179
0.0878246
0.0808084
0.0353094
0.0553863
0.0456895
0.0545223
0.0561968
0.14207
0.0628684
0.105646
0.230978
0.0515384
0.108847
0.00652707
0.113293
0.0346549
0.0541418
0.153704
0.0958574
0.190814
0.0351221
0.115291
0.0309074
0.0175623
0.0112084
0.146415
0.0633051
0.166206
0.429575
0.0283375
0.150058
0.028372
0.075864
0.0135555
0.0580692
0.0194787
0.0190224
0.0609215
0.00807671
0.0573183
0
0.113429
0.0590306
0.0201167
0.105818
0.042634
0.0860322
0.0260336
0.0204277
0
0.106091
0.110021
0.0756743
0.0333304
0.0780908
0.305767
0.0857043
0.0632774
0.00562077
0.0608048
0.0180591
0.00948326
0.472111
0.293929
0.388465
0.15336
0.017155
0
0.0329529
0.0370094
0.0469052
0.0516574
0.0629063
0.050916
0.00539539
0.00157669
0
0.0213042
0.0449571
0.0391958
0.0799306
0.225103
0.0859732
0
0.0105113
0
0.0222687
0.0334474
0.0265637
0.311888
0.287388
0.0853734
0.0185832
0
0
0.00344341
0.0224594
0.0428057
0.408211
0.587979
0.134233
0
0
0
0.00267625
0.0174668
0.0609362
0.125143
0.239325
0.0426187
0.000522589
0.00721465
0
0.0166907
0.00699311
0.0187507
0.219488
0.185931
0.0239287
0.00146829
0.0020843
0
0.00506391
0.0518791
0.212822
0.346629
0.343879
0.10046
0.00365812
0
0
0.00154703
0.00304444
0.0962049
0.348038
0.204789
0.0833607
0.0102781
0
0
0.000221004
0.09512
0.418321
0.0794744
0.0290935
0.0185324
0.00182697
0.00253209
0.00882208
0.0883906
0.0748601
0.250857
0.0425634
0.0311426
0.029905
0.0222451
0.0199567
0.0471183
0.227288
0.0758466
0.129431
0.134137
0.0592208
0.0691819
0.0127888
0.00151925
0.0239421
0.139866
0.134687
0.379355
0.0677811
0.031161
0.0673211
0.0198877
0.0106348
0.0588097
0.383107
0.367393
0.37665
0.0585348
0.0218858
0.0382689
0.041449
0.0233173
0.0270416
0.0913521
0.0562244
0.080268
0.0862979
0.0299662
0.0225568
0.0150841
0.0640417
0.0100311
0.0621662
0.0407653
0.100326
0.105322
0.0136031
0.0318504
0.0248694
0.00905383
0.0186175
0.155775
0.398812
0.482619
0.109414
0.0486944
0.0255415
0.00905045
0.0354631
0.048385
0.255964
0.275607
0.331596
0.0849756
0.0202806
0.00764406
0
0.0590001
0.00915516
0.170637
0.0696078
0.0877711
0.15041
0.0260261
0.0349055
0.0138981
0.00971846
0.00117583
0.153372
0.0570334
0.148297
0.0653371
0.0412109
0.00529692
0
0.0720882
0.126119
0.43605
0.235772
0.113173
0.224188
0.166041
0.0193356
0.00833885
0.0843555
0.0514723
0.183279
0.0950647
0.197183
0.146048
0.0674988
0.074492
0.0439322
0.0096075
0.00887742
0.0899564
0.0622708
0.166254
0.112511
0.0870591
0.126467
0.0263593
0.139486
0.0621419
0.160398
0.0987771
0.153256
0.232729
0.238063
0.0477724
0.0263593
0.0869252
0.00790497
0.0440934
0.019586
0.183292
0.144942
0.204719
0.241668
0.0158156
0.100396
0.0372852
0.161267
0.0566041
0.120746
0.0617457
0.0977913
0.226123
0.00516027
0.0572412
0
0.0614582
0.0204861
0.0559099
0.11909
0.0608849
0.205801
0.0361219
0.130655
0
0.0671057
0.0206911
0.11909
0.0929619
0.137781
0.247967
0
0.0796439
0
0.085928
0.0286427
0.0791805
0.117329
0.0522466
0.157268
0
0.107066
0.0789991
0.311196
0.0896507
0.117329
0.0534797
0.0308012
0.101888
0.0115408
0.0685708
0.00727344
0.0438425
0.0106067
0.0534797
0.0272515
0.129533
0.329234
0.0628927
0.0847066
0.050914
0.0587849
0.00837681
0.0272515
0.0868255
0.0456468
0.0871119
0.0202282
0.0267791
0.0641907
0.179241
0.0456294
0.0691529
0.155602
0.24155
0.421684
0.327106
0.0577491
0.0451675
0.121
0.0309124
0.0456559
0.00580265
0.0586439
0.224531
0.114177
0.0162165
0.00831584
0.0103567
0.00130362
0.000909728
0.152558
0.1523
0.251899
0.188627
0.0333992
0
0.000874853
0.000154386
0.0107006
0.0188617
0.105857
0.280449
0.240653
0.0260225
0.0049895
0.0068196
0.00156041
0.00134804
0.0221084
0.218042
0.459225
0.428842
0.0652958
0
0
0
0.00132059
0.152036
0.164558
0.0755503
0.0260604
0.0149077
0
0
0
0.0129721
0.387116
0.275801
0.0807254
0.0107531
0.00182438
0
0
0
0.0373809
0.0484264
0.261766
0.348947
0.102285
0.0300895
0
0
0
0.00236016
0.337566
0.341091
0.371263
0.0869927
0.014975
0.00990705
0.0182703
0.019465
0.0559483
0.354055
0.0761374
0.0246995
0.00415663
0
0
0
0.000434458
0.074915
0.335163
0.0247545
0.0140239
0.00210165
0
0
0.00153802
0.0185454
0.355975
0.372647
0.091531
0.0720011
0.025605
0.0140904
0.0187635
0.0486491
0.0185564
0.0876523
0.453915
0.0436387
0.0172882
0.00185604
0.00886947
0.0198649
0.0536354
0.0254415
0.382292
0.123439
0.0207371
0.0223001
0.00260551
0
0.0047759
0.0340864
0.0750658
0.387747
0.0398744
0.0152455
0.0265489
0.00145749
0
0.0190109
0.117665
0.258287
0.277091
0.169816
0.0533376
0.0424133
0.011128
0.00327411
0.0111498
0.122832
0.12212
0.415532
0.0529774
0.0341637
0.0359545
0.0185467
0.0215634
0.0837455
0.419023
0.296078
0.195895
0.0255113
0.00217901
0.00530605
0
0.0163701
0.032691
0.103367
0.270446
0.211581
0.0232207
0.00386662
0.00165718
0
0.0537593
0.0816899
0.249907
0.15873
0.115406
0.0177447
0.00284696
0.00422199
0.00511534
0.0413957
0.140857
0.466838
0.297371
0.0597873
0.00100322
0
0
0.0105652
0.118307
0.260462
0.415945
0.125373
0.0150442
0.00753093
0.0068746
0.00034878
0
0.0489469
0.154377
0.30857
0.0796778
0.0201759
0.0440937
0.0496853
0
0
0.0707976
0.0978555
0.132917
0.0348894
0.0355025
0.000121319
0.000687473
0
0.00604438
0.12736
0.484101
0.352429
0.0306312
0.000908713
0.00863219
0.00481231
0.00416553
0.00624829
0.158391
0.401149
0.208338
0.0245096
0.00778296
0.127794
0.105328
0.01195
0.00590049
0.163888
0.0240747
0.0657721
0.0239935
0.105274
0.0895447
0.132155
0.133007
0.00983416
0.15481
0
0.0754097
0.0989861
0.0795516
0.0583415
0.0186165
0.0563694
0.0830565
0.237731
0.133807
0.175626
0.0656096
0.0571399
0.0815767
0.108422
0.0927242
0.0938909
0.150735
0.0603116
0.192101
0.347149
0.0965721
0.0882021
0.0458234
0.0697345
0.00536762
0.080665
0
0.0546955
0.0168733
0.0823166
0.032511
0.0171292
0.0562109
0.00895778
0.185647
0.135289
0.201164
0.0497635
0.032511
0.16068
0.00202067
0.0226708
0.0375733
0.193025
0
0.139107
0.0368592
0.160378
0.0482859
0.00060352
0.0355745
0.0627044
0.445143
0.130368
0.177988
0.0600036
0.0520612
0.0285715
0.0355275
0.0409666
0.0308731
0.0612918
0.0987298
0.0687605
0.0130853
0.0146676
0.0872268
0.14503
0.318793
0.176939
0.0672648
0.04497
0.0398131
0.0101904
0.0134276
0.00585918
0.0167614
0.0394819
0.0818436
0.224004
0.196792
0.0543002
0.0349651
0.00653877
0.0242103
0.087358
0.390378
0.286318
0.40066
0.207081
0.0452799
0.0263217
0.0131159
0.0111135
0.0433237
0.166595
0.099507
0.0147613
0.000484082
0.0130457
0.00434855
0.000475231
0.00302588
0.107008
0.250936
0.360576
0.0156424
0
0.00867177
0.00256692
0
0.0121298
0.0249859
0.189889
0.138167
0.100266
0.00938613
0.0265666
0.00870567
0.0104198
0.0101743
0.0362946
0.20113
0.704352
0.164237
0
0.0258657
0.00635623
0.00621117
0.020313
0.235582
0.254198
0.234849
0.0509713
0.00147055
0.00449224
0.000499137
0
0.102687
0.241891
0.186072
0.116101
0.104881
0.0433537
0.0343884
0.0256033
0.0429733
0.0152178
0.095736
0.106466
0.521671
0.244751
0.0242598
0.0314457
0.00349396
0.0029622
0.0282959
0.166216
0.0822645
0.187232
0.316114
0.0921719
0.12751
0.0450904
0.0268301
0.143279
0.0981732
0.089894
0.0649508
0.110115
0.109176
0.110118
0.0493581
0.0768952
0.355909
0.160695
0.165214
0.0153609
0.0566925
0.0899195
0.0934468
0.0306781
0.157135
0.0484638
0.098084
0.159672
0.103395
0.155132
0.126156
0.193442
0.153611
0.0202669
0.317808
0.267398
0.390405
0.0658247
0.0711856
0.111469
0.0832282
0.103544
0.0413409
0.160728
0.203485
0.169945
0.0316854
0.00966549
0.0203325
0.0657422
0.0396476
0.0954958
0.135592
0.164086
0.13417
0.077982
0.0605692
0.0691491
0.258073
0.136388
0.0634577
0.27997
0.304373
0.229389
0.0382534
0.0123051
0.0440555
0.00481206
0.0187737
0.0666391
0.292506
0.382944
0.274607
0.110485
0.0776427
0.0490931
0.0370357
0.0346744
0.0618649
0.0317919
0.01382
0.0345111
0.0269505
0.0432403
0.120778
0.249337
0.145364
0.0292461
0.0052002
0
0.00391309
0.0240181
0.108414
0.249198
0.242498
0.0755796
0.00868307
0.0438022
0.0781067
0.116902
0.0534054
0.17465
0.27019
0.0909038
0.0441358
0.0174597
0.00820262
0.00201644
0.0128194
0.0404821
0.440587
0.535265
0.0977451
0.0255018
0.0102923
0.00583162
0
0
0.0100192
0.0724245
0.283877
0.158946
0.00684775
0.00583162
0.00512502
0
0.00254013
0.00381019
0.0604858
0.321155
0.126152
0.0182896
0.0153285
0.00971937
0
0
0.0327939
0.241287
0.409912
0.111203
0.000965631
0.00971937
0.0194338
0
0.00124358
0.00569143
0.120977
0.583524
0.118194
0.07303
0.0432346
0.0536381
0.000964483
0.0194207
0.029131
0.0652604
0.125348
0.0749205
0.0461517
0.0748903
0.12334
0.0155906
0.0401263
0.0257694
0.0397363
0.0308517
0.0648608
0.0679327
0.130277
0.199104
0
0.00697095
0.0104564
0.0554227
0.286501
0.0567249
0.154783
0.248686
0.453921
0.00530354
0.0179506
0.00627386
0.00545153
0.00440739
0.0179508
0.0497967
0.466249
0.100619
0.00153088
0.0116136
0.0130389
0.12989
0
0.193627
0.061242
0.100619
0.0619005
0.00255147
0.0193714
0.0217601
0.278424
0.0486992
0.184112
0.0716833
0.0654618
0.176883
0.0221337
0.0680146
0
0.0858376
0
0.215627
0.0718755
0.176883
0.232238
0.0365082
0.109524
0
0.21899
0.00627816
0.149007
0.051425
0.232746
0.00319938
9.82616e-005
0.00514476
0.017041
0.116616
0.0929925
0.0470989
0.0281305
0.00595413
0.00949838
0.00492065
0.0403679
0.121804
0.405962
0.135232
0.0256688
0.0160439
0.0102605
0.0293904
0.00234314
0.00702941
0.0638491
0.169721
0.0444413
0.0404438
0.0152571
0.029784
0.0161827
0.00445388
0.00106503
0.204189
0.715771
0.132669
0.0168374
0.00668211
0.0149342
0.0160257
0.00605436
0.0335691
0.099733
0.190325
0.0282282
0.00669555
0.00160828
0.0144845
0.010022
0.00392722
0.0327173
0.304902
0.38797
0.0584691
0.00870012
0.00133811
0.00869072
0.0169114
0.00770563
0.000677855
0.0812149
0.265568
0.164474
0.0161016
0
0.0143429
0.0131439
0.00462338
9.68365e-005
0.0684133
0.453174
0.522168
0.0559187
0
0.00893874
0.00394604
0.00602694
0.0168942
0.266487
0.337228
0.0917247
0.0125502
0.00121805
0.00763048
0.0191275
0.0399931
0.068383
0.125859
0.220839
0.163515
0.0780694
0.0255445
0.0546602
0.0113092
0
0.009345
0.180582
0.402673
0.343503
0.0403503
0
0.0056653
0.0165525
0.0406036
0.100526
0.368963
0.22978
0.223941
0.0247981
0.0221698
0.041428
0.0255417
0.0522737
0.0957949
0.0716748
0.10622
0.142817
0.130627
0.118373
0.0362565
0.250682
0.222274
0.148399
0.0692378
0.0745921
0.111594
0.0653377
0.138798
0.0586293
0.0149278
0.0785393
0.0980307
0.191221
0.166812
0.211207
0.0334421
0.188222
0.0853214
0.348852
0.13001
0.0604365
0.122753
0.127145
0.174889
0.0560698
0.301632
0.310958
0.334812
0.190332
0.070263
0.0136989
0.00740071
0.0224578
0.00727366
0.0445371
0.107107
0.28623
0.195341
0.0888748
0.0222101
0.0547495
0.0366167
0.0290753
0.0740084
0.103128
0.409464
0.0784344
0.021843
0.0440451
0.0224361
0.118119
0.05924
0.142365
0.238583
0.192554
0.0297466
0.02416
0.0213875
0.0853035
0.28427
0.208925
0.234289
0.170009
0.023227
0.0371073
0.0323881
0.0145566
0.193275
0.109767
0.0136562
0.0148687
0.00827721
0.00080787
0.00151572
0.00359688
0.0478025
0.47561
0.201527
0.00769658
0.000891221
0.00127122
0.00857033
0.00395911
0.0375415
0.0992395
0.23951
0.098728
0.067189
0.0356023
0.0141009
0
0.000216531
0.0276457
0.25558
0.650056
0.06526
0.0187664
0.00222049
0.000772256
0.0012688
0
0
0.0559964
0.332792
0.225261
0.0218791
0
0.0012688
0.0391959
0.00512198
0.00230923
0.0275164
0.210237
0.334583
0.0299876
0.0380211
0.0194428
0
0
0.003574
0.210992
0.478939
0.126773
0.0417753
0.00249506
0
0.0686032
0.0379267
0.0239685
0.278994
0.360964
0.147096
0.0264302
0.00507196
0.0199737
0.174798
0.00872859
0.0106972
0.0247009
0.0850085
0.132165
0.0221425
0.0714306
0.149127
0.306943
0.00446206
0.0064183
0.00962745
0
0
0.0076827
0.0701062
0.323682
0.241645
0.0739667
0.0408675
0.142823
0.175321
0.0423228
0.00815747
0.0267557
0.201813
0.390697
0.0841729
0.00868206
0.00898863
0.00133626
0
0.00625379
0.0902617
0.396147
0.145186
0.0438108
0.118407
0
0.0388504
0
0.0881472
0.0372523
0.145105
0.198956
0.0403833
0.12115
0
0.0437361
0
0.125312
0.0548872
0.20127
0.135459
0.0413001
0.0972755
0
0.0574767
0
0.165654
0.109753
0.142732
0.103835
0.0224704
0.0674112
0
0.0482551
0
0.387535
0.217113
0.120037
0.0347157
0.00268454
0.00805363
0.0573325
0.113707
0.0328475
0.0344804
0.0120723
0.0348178
0.0140447
0.000725708
0
0.142007
0.469377
0.277856
0.0225044
0.00276373
0.0138028
0.01988
0.000929657
0.00278897
0.00656586
0.096412
0.0691212
0.0883314
0.0330302
0.0205951
0.00904169
0
0
0.0165996
0.263635
0.601948
0.111285
0.036151
0.00904169
0.00460018
0.00186754
0.00149978
0.0366809
0.142656
0.236922
0.0248105
0
0.00419192
0.0123282
0.00180614
0.00249963
0.0110252
0.153137
0.644778
0.123299
0.00543961
0.0136333
0
0.00449933
0.0104984
0.00440437
0.0798569
0.275666
0.114706
0.043697
0
0.00713901
0.00749889
0.0174974
0.00138748
0.133469
0.382819
0.25906
0.0910705
0.0345403
0.0310328
0.000172986
0.0116234
0.159674
0.1851
0.38376
0.116814
0.0176426
0.0360602
0.0186197
0.0304274
0.0573665
0.432297
0.195884
0.111983
0.0511761
0.0204964
0.0288881
0.0521359
0.01275
0.0490201
0.115417
0.0854179
0.265598
0.219536
0.15435
0.123683
0.0685045
0.0307306
0.0877377
0.306118
0.0995759
0.0980525
0.222767
0.0983562
0.113884
0.028061
0.0765981
0.0845172
0.213983
0.145304
0.0923759
0.0453246
0.0701398
0.0577649
0.226975
0.0494544
0.0903723
0.162648
0.122005
0.0863054
0.0832495
0.103596
0.262315
0.140783
0.0409358
0.068626
0.157677
0.0878457
0.1027
0.184304
0.0428407
0.138049
0.504445
0.0560735
0.0958139
0.124751
0.0882903
0.069672
0.065405
0.0443237
0.322819
0.172441
0.0206858
0.0262956
0.116186
0.062921
0.166636
0.129927
0.0642629
0.141646
0.0386442
0.0224614
0.0656605
0.0858654
0.0998919
0.489157
0.18773
0.129485
0.0549665
0.241088
0.119453
0.131271
0.12683
0.0745763
0.0673757
0.0838189
0.0281442
0.146514
0.0647549
0.167656
0.183223
0.111458
0.0698258
0.231645
0.157442
0.176996
0.209008
0.000151021
0.0186214
0.148704
0.220997
0.111327
0.20014
0.0570694
0.0289907
0.0120655
0.0143381
0.0133151
0.124344
0.474101
0.373958
0.0599788
0.0281576
0.0179246
0.00343303
0.0624352
0.100725
0.175573
0.176074
0.0219229
0.125286
0.0374007
0.0708762
0.130636
0.0557576
0.0740117
0.264899
0.358763
0.106525
0.0455413
0.0154808
0.0826202
0.0358402
0.0147696
0.0026064
0.0172717
0.265862
0.247318
0.0482939
0.0308662
0.0119894
0.00207588
0.0199011
0.0193931
0.0308599
0.399095
0.251999
0.0356888
0.011119
0.0019237
0.00837706
0.0250958
0.0209215
0.19446
0.292881
0.163449
0.0215069
0.0136019
0.0400666
0.0145311
0.00472259
0.00957373
0.0826011
0.415554
0.397531
0.0327928
0.00527256
0.00345596
0.00267906
0.130268
0.0741832
0.0532365
0.278581
0.204052
0.0362343
0.0236113
0.0163555
0.121116
0.268249
0.106357
0.0108961
0.0154994
0.0583548
0.00490981
0.0348284
0.0727314
0.216642
0.0219335
0.0276972
0.0389779
0.293464
0.46751
0.077371
0.0393522
0.0131174
0.016978
0.0512346
0.0335411
0.0602255
0.0800281
0.230737
0.0202369
0.0571293
0.0410595
0.0391365
0.0889125
0.0373997
0.0728661
0
0.0895078
0
0.108135
0.0556338
0.0891082
0.0345882
0.0134261
0.018996
0
0.111843
0
0.32647
0.149794
0.0405793
0.0782351
0.173441
0.117034
0.065748
0.112612
0.00711991
0.108423
0.051646
0.0476822
0.0732332
0.0924546
0.0221098
0.00635293
0.133703
0
0.348175
0.293481
0.0786847
0.0133662
0.00501488
0.0150446
0
0.107405
0.0513614
0.135843
0.0545352
0.0151457
0.0245849
0.00290833
0.00872498
0
0.202088
0.48686
0.235493
0.171883
0.0461987
0.112454
0.00807868
0.024236
0
0.074463
0.00926337
0.104618
0.108141
0.123862
0.237511
0.00484721
0.0145416
0
0.117972
0.0825227
0.158371
0.173255
0.274505
0.00431432
0.00230638
0.00538155
0
0.0271846
0.159348
0.218717
0.146708
0.0139665
0.00950491
0.00384396
0.00896925
0
0.04746
0.229196
0.343287
0.153877
0.0442959
0.0447288
0
0
0
0.0120928
0.123094
0.244597
0.155975
0.0614586
0.0134175
0
0
0
0.00208329
0.365963
0.444349
0.309118
0.0711344
0.0717836
0.0162101
0.024817
0.0219081
0.0206904
0.146194
0.198824
0.141935
0.176256
0.119026
0.0271444
0.045273
0.0811746
0.0533905
0.0712046
0.265956
0.154638
0.209493
0.0478469
0.0036692
0.00587361
0
0
0.160904
0.188424
0.340349
0.217378
0.172229
0.0139468
0.0411153
0.0136164
0.0252876
0.0423353
0.161888
0.317449
0.366448
0.137772
0.00307314
0.00919286
0.041114
0.040722
0.0497282
0.0979429
0.0973698
0.153871
0.383916
0.0490537
0.023697
0.027899
0.0185709
0.0299419
0.00877065
0.0706531
0.273167
0.190969
0.00327423
0.0115771
0.0118591
0.0196088
0.0140248
0.0482007
0.165723
0.314783
0.447422
0.116641
0.0125735
0.00427336
0.00366626
0.00420527
0.007622
0.0869448
0.402457
0.24622
0.144464
0.149786
0.0425762
0.0373833
0.0183164
0.00566074
0.0190295
0.19981
0.096865
0.185594
0.20007
0.0452367
0.0469909
0.0180563
0.0396252
0.0920191
0.231278
0.347338
0.253556
0.109306
0.0120733
0.0160683
0.00623934
0.00554727
0.0133951
0.272166
0.355337
0.209956
0.164918
0.0179064
0.0256858
0.0262503
0.0388309
0.0669843
0.179269
0.101561
0.0891564
0.0792473
0.0866634
0.0140633
0.0124966
0.0133493
0.053006
0.156482
0.0552809
0.0801301
0.343593
0.264187
0.0236296
0.00594837
0.0015748
0.0410549
0.0425487
0.284171
0.13235
0.0997779
0.103543
0.00983132
0.00857416
0.0128612
0.0535637
0.0666801
0.134092
0.161798
0.367802
0.506707
0.0236503
0
0
0.00835038
0.0188927
0.0166306
0.0730294
0.377844
0.228022
0.0741189
0.00186738
0.000664049
0.01885
0.0076182
0.00739773
0.0311955
0.132419
0.252487
0.372886
0.024507
0.000677036
0.00111612
0.00108831
0.0605023
0.119942
0.300741
0.333762
0.0319551
0
0
0
0
0.0346303
0.06477
0.225543
0.271502
0.154752
0.020561
0
0
0
0.000475649
0.00550069
0.0351263
0.176953
0.473382
0.123069
0.00883001
0.00211346
0.000475649
0.00332954
0.0124429
0.0501157
0.0670349
0.248613
0.0745542
0.0175806
0.00447708
0.00332954
0.0176325
0.0122382
0.144359
0.306832
0.272022
0.145044
0.0174274
0
0.0176325
0.0865275
0.00685805
0.0246009
0.0784224
0.213384
0.121549
0.0433412
0.00476519
0.0865275
0.0460538
0.135715
0.130156
0.0689754
0.143571
0.00746941
0.0619623
0.0349372
0.0266307
0.0527646
0.0677525
0.0361847
0.0102275
0.16967
0
0.236766
0.210212
0.0575458
0.0901142
0.0519382
0.116514
0.00985363
0.271065
0.00106706
0.0964415
0.0437395
0.0894067
0.11354
0.0557883
0.138609
0.0847348
0.286393
0
0.179399
0.073949
0.108871
0.139356
0.00362187
0.0159148
0.00937708
0.100443
0
0.1339
0.109459
0.148443
0.288567
0.00357782
0.013763
0.00562625
0.127342
0.0122453
0.0745547
0.047325
0.296919
0.0816672
0.045778
0.149356
0.151132
0.137624
0
0.133651
0.0495902
0.0760161
0.217007
0.0706119
0.149926
0.0722202
0.106511
0.00174932
0.0475852
0.0145011
0.208546
0.0662855
0.000165259
0.000495777
0
0.0271285
0.0801411
0.17541
0.0788119
0.0761643
0.020033
0
0
0
0.00950292
0.17918
0.358349
0.569367
0.173888
0.0894476
0.0118536
0.0191814
0
0.0305182
0.00570583
0.0392585
0.0255377
0.0953313
0.0690531
0.00165768
0.00497304
0
0.0283054
0.00707575
0.111244
0.310834
0.180474
0.011064
0.00043212
0.00172848
0
0
0.0259195
0.0581346
0.380151
0.165398
0.0789319
0.00302484
0.0120994
0
0
0.00377251
0.0201667
0.414751
0.25446
0.0222478
0
0
0
0.0111767
0.000420885
0.0405867
0.246221
0.122622
0.0370502
0
0
0
0.00159667
0
0.0298333
0.549363
0.205469
0.0905059
0.0025559
0.00455059
0
0
0.00117447
0.0176174
0.235355
0.201176
0.294445
0.103446
0.00159296
0
0
0
0.00830612
0.0880325
0.207848
0.0959181
0.00916144
0
0
0
0
0.0185725
0.403551
0.200228
0.551757
0.122041
0
0
0
0
0.00561224
0.125145
0.201219
0.268723
0.187426
0.010557
0
0
0.00107464
0.00161195
0.00440313
0.0662525
0.421017
0.214913
0.0163909
0
0
0.00752246
0.0112837
0.0175298
0.0424884
0.4761
0.176517
0
0
0
0
0.00467421
0.00460257
0.0538194
0.424467
0.24617
0
0
0
0
0.0204663
0.0415967
0.042818
0.488589
0.187022
0.0422111
0.0338669
0.000553408
0.00387638
0.00581456
0.0226992
0.0563354
0.255614
0.187994
0.174782
0.253226
0.014476
0
0
0.0129485
0.0675519
0.356094
0.21506
0.0046734
0.00118558
0
0
0.0102458
0.0571739
0.084661
0.248797
0.147455
0.0757931
0.0316062
0.0042523
0
0.0111812
0.102012
0.161894
0.0944045
0.165231
0.226455
0.278584
0.024076
0
0
0.0110169
0.0221558
0.0410368
0.118657
0.291576
0.284673
0.108812
0.00321921
0
0.001136
0.000126222
0.0718413
0.1444
0.241723
0.0649203
0.0124948
0
0.01154
0.117705
0.0760222
0.0145056
0.176778
0.390667
0.126626
0.102036
0
0.00891071
0.0161708
0.00146673
0.0345446
0.0365585
0.179579
0.251874
0.212686
0.0297496
0.0150362
0.00210593
0.033432
0.178817
0.0184578
0.0573879
0.0442032
0.104604
0.0351205
0.0479045
0.00986443
0.178817
0.0341838
0.0984599
0.288366
0.0727076
0.2142
0
0.0563669
0.018789
0.0323295
0.175014
0.0435216
0.130565
0.0017633
0.121778
0
0.240199
0.0724041
0.175014
0.141032
0.0269831
0.0809493
0
0.152495
0
0.0609689
0.0302903
0.142791
0.223367
0.0793793
0.107338
0.0697241
0.085887
0
0.0858964
0.0286321
0.208671
0.120864
0.0490418
0.147125
0
0.151833
0.114428
0.171266
0.0384839
0.121115
0.198987
0.0800867
0.147846
0.0156077
0.13202
0.0604597
0.188055
0.0526828
0.19017
0.101851
0.0911138
0.14092
0.110069
0.0333831
0
0.0826459
0.0275486
0.0849016
0.18703
0.138866
0.169743
0.0475101
0.039771
0
0.0461686
0.0161563
0.16394
0.116706
0.151322
0.193046
0.0302803
0.0249094
0.00297592
0.152338
0.0503543
0.0938255
0.209472
0.232717
0.268906
0.0155209
0.0797697
0
0.104159
0.0359976
0.174434
0.132483
0.0684034
0.0957475
0
0.0460636
0
0.085371
0.0421632
0.126138
0.0867722
0.0355165
0.058158
0
0.113044
0
0.204421
0.123278
0.101598
0.0998638
0.107195
0.164399
0
0.155198
0.0143873
0.157652
0.122453
0.0946314
0.10221
0.168968
0.136426
0.00703164
0.21096
0.0239788
0.245273
0.187489
0.0826212
0.0492078
0.0103555
0.0207994
0
0.0693552
0.0409924
0.128811
0.115585
0.0743235
0.073779
0.000742837
0.00297135
0
0.0848765
0.0683207
0.120338
0.48535
0.186306
0.0594216
0.0565341
0.0797017
0.0145527
0.0774611
0.110305
0.16837
0.0706099
0.0637885
0.0289324
0.00736526
0.0291549
0.00873165
0.213769
0.179724
0.200586
0.17683
0.117499
0.116685
0.0322921
0.00707249
0.0131346
0.0569291
0.00646042
0.0453302
0.266284
0.172869
0.563693
0.134212
0.0117875
0.021891
0.030251
0
0.0351449
0.0771555
0.184823
0.0218885
0.0177261
0.0117875
0.021891
0.25823
0.0169948
0.040242
0.048173
0.041775
0.0967568
0.0477845
0.0196458
0.0364851
0.302696
0
0.0938027
0.0336618
0.041591
0.527511
0.108479
0.0058606
0.00375794
0.0265687
0
0.0514338
0.0181014
0.110825
0.321645
0.174816
0.0528003
0
0.0371679
0
0.102442
0.0958938
0.0896467
0.0693035
0.0249606
0.028228
0.00626324
0.166557
0
0.154102
0.0518565
0.0363611
0.0325865
0.0996763
0.194917
0
0.168003
0
0.0922671
0.0357749
0.021068
0.231006
0.273963
0.054296
0
0.00795147
0
0.045115
0.0972856
0.0830976
0.211915
0.204862
0.0791868
0
0.0122937
0
0.112234
0.168835
0.163996
0.0917729
0.14655
0.224254
0.00324014
0.0551556
0
0.040799
0.0193623
0.0677156
0.116043
0.127738
0.217303
0.022681
0.0191791
0
0.217338
0.0789492
0.0998622
0.040304
0.104569
0.170179
0.0297313
0.0753822
0
0.0805889
0.125566
0.0496707
0.0241762
0.134007
0.341861
0.0566911
0.154134
0
0.0438644
0.0270126
0.0194798
0.0310307
0.111867
0.149258
0.0253045
0.142501
0
0.169225
0.0640203
0.0198048
0.0524267
0.0842874
0.151877
0.0283928
0.418585
0
0.076871
0.0267603
0.0454548
0.0617756
0.0801665
0.243402
0.0119474
0.0986632
0
0.058471
0.0194903
0.0614778
0.106875
0.0793689
0.232276
0
0.143304
0
0.17025
0.0542744
0.106875
0.095569
0.0543504
0.166158
0.0046602
0.25305
0
0.0830729
0.027691
0.095569
0.0883654
0.0867327
0.25048
0
0.189345
0
0.0651861
0.0219252
0.0883654