0.0857458
0.186224
0.160913
0.221333
0.079288
0.0594451
0.0388516
0.0402538
0.00803917
0.186856
0.3776
0.21791
0.162804
0.0761166
0.0338507
0.0237185
0.0682233
0.0293348
0.0997384
0.0601397
0.161517
0.236293
0.158355
0.102596
0.0408184
0.0820725
0.0734556
0.109662
0.186527
0.442613
0.228214
0.300324
0.0523687
0.00956634
0.096372
0.0619273
0.234625
0.190924
0.0918312
0.0564752
0.0138697
0.00404301
0.0196633
0.0614667
0.0464806
0.305785
0.166432
0.0877969
0.0764072
0.00467727
0.00492484
0.0603454
0.0556227
0.166415
0.121516
0.31265
0.370297
0.135052
0.0750418
0.00019815
0.00157293
0.0385286
0.0375995
0.161691
0.420098
0.359531
0.222115
0.00909805
0.00816007
0.0748624
0.00921051
0.0408701
0.188864
0.0777047
0.0546375
0.0611839
0.019384
0.0184988
0.223325
0.100827
0.316912
0.205292
0.129964
0.0583662
0.16902
0.0333544
0.0175169
0.159843
0.182034
0.318999
0.132511
0.194199
0.19197
0.164454
0.0380845
0.048222
0.246429
0.0296763
0.0884753
0.155747
0.253409
0.156461
0.275731
0.0624839
0.127371
0.2091
0.110481
0.0831376
0.110977
0.155143
0.0585367
0.0669975
0.0478482
0.00149875
0.0153769
0.0862459
0.124876
0.230137
0.412792
0.156447
0.0882663
0.0500771
0
0.01645
0.0266875
0.123899
0.189677
0.19777
0.0716676
0.103981
0.0805473
0.022989
0.0319825
0.090622
0.0644311
0.511431
0.429058
0.139193
0.100857
0.0810571
0
0.00693352
0.0454483
0.0971108
0.175954
0.239985
0.117633
0.110108
0.0446498
0.00139995
0.121011
0.0627311
0.0770129
0.164478
0.0673551
0.0436892
0.0911639
0.0739807
0.00979968
0.240806
0.219414
0.186283
0.32544
0.388845
0.145136
0.0913191
0.0237079
0.00233326
0.0290143
0.0706647
0.0893022
0.364603
0.116128
0.0524093
0.0431699
0.0242287
0.0163328
0.128027
0.207508
0.315705
0.203382
0.0556977
0.0784422
0.0537156
0.0768219
0.0702458
0.150314
0.198851
0.221076
0.204655
0.069132
0.0940109
0.0281825
0.18746
0.116068
0.0886998
0.134322
0.163691
0.429629
0.00545466
0.0827352
0.0401652
0.0812656
0.0652482
0.0964289
0.199261
0.305098
0.314035
0.0176967
0.0900913
0.0270905
0.265706
0.0996809
0.0666343
0.172373
0.15512
0.233822
0.0602579
0.08199
0.0052672
0.107858
0.0735869
0.119377
0.104023
0.138999
0.308268
0.103883
0.120064
0.0306689
0.137963
0.0884521
0.279843
0.131458
0.134291
0.314205
0.0320805
0.031621
0.00588297
0.149313
0.0397618
0.0727461
0.177891
0.156368
0.396471
0.0549897
0.0366597
0.0189434
0.111096
0.0537116
0.182489
0.27019
0.225921
0.294803
0.203546
0.166798
0.100297
0.113449
0.0531869
0.110136
0.108772
0.15203
0.119329
0.28876
0.246722
0.107753
0.0917691
0.0615154
0.00970261
0.0953525
0.141806
0.27747
0.116102
0.116336
0.0525323
0.137411
0.0398746
0.100625
0.21093
0.231435
0.148411
0.244536
0.198203
0.0697584
0.142239
0.0185886
0.0195781
0.149146
0.1889
0.0917845
0.170924
0.231533
0.149174
0.0986254
0.0881769
0.0126557
0.0690442
0.0972512
0.179893
0.23941
0.0949606
0.106336
0.247636
0.185533
0.0964422
0.220607
0.137119
0.13742
0.19583
0.185966
0.0537791
0.0468069
0.0264379
0.0268203
0.122235
0.157279
0.149109
0.134692
0.104168
0.0489676
0.217529
0.118623
0.179212
0.278335
0.218229
0.0592671
0.0908553
0.140051
0.137931
0.137646
0.0408125
0.085641
0.109026
0.0716197
0.0707083
0.13332
0.392134
0.169901
0.225066
0.0337994
0.0872127
0.151713
0.065319
0.222823
0.157065
0.0925791
0.0488383
0.051658
0.0279309
0.168124
0.19556
0.177297
0.271195
0.243956
0.19974
0.0309201
0.0675727
0.0371019
0.169594
0.279303
0.268427
0.0378033
0.189393
0.408496
0.125113
0.039135
0.00207237
0.010964
0.0329889
0.0142099
0.0510999
0.285456
0.432949
0.196497
0.00318055
0.00211353
0.0227713
0.00868626
0.00371523
0.130933
0.220088
0.226916
0.0598801
0.00815251
0.0055521
0.0328028
0.0643888
0.0665729
0.195046
0.376787
0.293494
0.111178
0.000528821
0.00162005
0.0275344
0.0483369
0.0158386
0.0738975
0.238085
0.208056
0.0947334
0.0104728
0.0149618
0.0474792
0.00732242
0.035693
0.210528
0.292874
0.122876
0.0591039
0.0115541
0.0616502
0.0472895
0.0226888
0.0540423
0.147779
0.472482
0.231045
0.0380444
0
0.00100529
0.00643766
0.00762509
0.021783
0.236961
0.520981
0.184721
0.0086614
0
0.00635244
0.00331553
0
0.032119
0.216891
0.268762
0.105553
0.0219884
0.0149703
0.0216991
0.0126828
0.0373727
0.0354815
0.488447
0.282015
0.054337
0.0134931
0.0143095
0
0.00160061
0.0220135
0.0757274
0.143721
0.420373
0.111557
0.00104839
0
0.00236846
0.000789485
0
0.00762857
0.385609
0.338725
0.0318337
0
0
0
0
0.000831246
0.0509176
0.296969
0.183442
0.0298862
0.00768463
0.00140358
0.000376703
0.00150681
0.0171353
0.120628
0.223556
0.0489047
0.0130612
0.00247907
0
0.00263692
0.0105477
0.0847473
0.336046
0.386725
0.0843273
0.000808952
0
0
0
0
0.0051163
0.206271
0.210186
0.00792605
0
0
0
0
0
0.0907466
0.609531
0.156552
0.0018353
0.0115054
0.00442656
0.00819924
0.00515748
0.00909992
0.133129
0.22791
0.0904269
0.00414347
0.0197063
0.00491531
0.0308886
0.00747361
0.04773
0.228976
0.154662
0.0323829
0.000237131
0
0
0
0
0.000703147
0.280719
0.44715
0.000781117
0
0
0
0
0
0.082089
0.638572
0.230373
0.0865743
0.0132432
0.0100064
0.00450017
0.0305143
0.00166513
0.0583809
0.261635
0.1264
0.0901241
0.0197281
0.0162767
0.0226727
0.118766
0.0443981
0.0856534
0.208922
0.116779
0.00753293
0.00122551
0.000408505
0.00177136
0.00357069
0
0.189121
0.59919
0.103499
0.0125549
0.00233271
0.00232525
0.0123995
0.0515931
0.0519617
0.316041
0.455743
0.0751906
0.0311802
0.0162871
0.0526772
0.0446397
0.143602
0.0876121
0.121888
0.132829
0.0673959
0.020397
0.0463176
0.0892564
0.0849954
0.112912
0.0655223
0.137063
0.114144
0.0349472
0.00237046
0.00148613
0.00719666
0.0110786
0.0716764
0.135682
0.430653
0.305294
0.0398084
0
0.00644895
0.0493346
0.109935
0.090493
0.140843
0.581231
0.245657
0.0218529
0.0364582
0.101033
0.157405
0.132052
0.0603576
0.0333304
0.0634578
0.074292
0.0851461
0.124249
0.119753
0.138984
0.0727156
0.0346203
0.0150583
0.0568188
0.243045
0.262153
0.0601807
0.0542449
0.156589
0.358083
0.204115
0.0556079
0.269012
0.0847972
0.070601
0.250308
0.120339
0.170157
0.202122
0.138647
0.0468684
0.0917815
0.207905
0.246096
0.115568
0.0383445
0.0133902
0.00104476
0
0.00394758
0.0678639
0.249935
0.238162
0.1652
0.102883
0.0640672
0.0191791
0.00136349
0.00903411
0.066293
0.170393
0.313996
0.285725
0.149395
0.0140715
0.0155249
0.0178285
0.0172356
0.08911
0.339088
0.161398
0.469556
0.115296
0.0650958
0.131616
0.0345622
0.0532172
0.0283156
0.112612
0.295144
0.120203
0.149733
0.132632
0.0254422
0.00411862
0.012961
0.0444768
0.0461692
0.109877
0.177054
0.316777
0.328165
0.0298725
0.00247117
0.00741352
0.0210658
0.0315832
0.027228
0.145387
0.0646521
0.193545
0.196691
0.0399687
0.0638231
0.019702
0.0124054
0.0881644
0.0223994
0.10279
0.656552
0.222687
0.0068395
0.0125066
0.00281457
0.00070364
0.00388971
0.0643349
0.281885
0.235845
0.0155567
0.000521595
0.00121705
0.00182033
0.00338061
0.00302683
0.0664969
0.389468
0.238998
0.0053784
0.00365117
0.00851938
0
0.00113816
0.00848894
0.00490588
0.162218
0.507071
0.0979313
0.0198631
0.0127122
0
0
0.000432405
0.0348332
0.352076
0.352416
0.0554524
0.145655
0.104788
0.000708281
0.00189694
0.0250248
0.110928
0.456785
0.153758
0.000555705
0.00401542
0.0172928
0.0252484
0.0104938
0.0359915
0.361615
0.389176
0.046149
0.00213952
0.00645127
0.0561126
0.0545983
0.0124033
0.0563735
0.0733758
0.243267
0.209977
0.0927432
0.126541
0.181812
0.0526747
0.0174897
0.104844
0.122916
0.124745
0.0784054
0.114903
0.154602
0.28779
0.146164
0.0206722
0.0792589
0.403356
0.101258
0.00386157
0.00224233
0.00382333
0.0192642
0.0117483
0.00168263
0.151014
0.28459
0.0469822
0.00114978
0.000320332
0.000480499
0
0
0.0715143
0.524581
0.190407
0.144397
0.00911922
0.0338377
0.0831811
0.0855915
0.0401639
0.00225576
0.034153
0.235717
0.450155
0.0117151
0.00224233
0.00779785
0.00147812
0
0.0216396
0.0921806
0.0617968
0.0408682
0.000334543
0
0
0
0
0.223822
0.319898
0.0561464
0.0328584
0
0
0
0.00731992
0.158295
0.615743
0.144891
0.13233
0.349497
0.00451899
0
0
0
0
0.0665136
0.0643738
0.187507
0.230085
0.00777239
0.0244526
0.0264404
0.0899387
0.135366
0.255858
0.0394103
0.010924
0.00260412
0
0.00104854
5.51862e-005
0.00529845
0.240836
0.303845
0.0128218
0.00513771
0.00134404
0.00113267
0.00733978
0.00465191
0.0242794
0.320354
0.188813
0.00664223
0.0361091
0.017454
0.00206968
0.027734
0.0307611
0.0690073
0.351527
0.215224
0.00624367
0.00928576
0.00255801
0.00870449
0.0168879
0.0175388
0.0650301
0.649529
0.201996
0.00486841
0.00851216
0.00239652
0.00510116
0.00447361
0.015262
0.122054
0.350533
0.10264
0.00936201
0.00304679
0.000465095
0.0141955
0.0360066
0.0330099
0.180995
0.423282
0.0859728
0.016193
0.0174427
0.0054261
0.039202
0.0108365
0.0209221
0.20761
0.406581
0.090546
0.0088425
0.0167956
0.0016343
0.0412715
0.019689
0.0283694
0.326987
0.448205
0.068229
0.0278651
0.0453421
0.0138881
0.0571096
0.159371
0.14017
0.0859287
0.265705
0.0733864
0.0549594
0.0973793
0.100082
0.100069
0.12185
0.237305
0.0617379
0.0634679
0.0635931
0.0692274
0.0722373
0.00665042
0.111272
0.0769165
0.156204
0.216701
0.472116
0.0939068
0.107808
0.0864813
0.101778
0.131555
0.119858
0.366753
0.125096
0.121514
0.124646
0.144608
0.213642
0.197238
0.104192
0.0657328
0.0170561
0.0114011
0.0183028
0.0540012
0.0642313
0.238351
0.0831127
0.0554575
0.373923
0.0672296
0.0335789
0.00242274
0.0238316
0.142541
0.107601
0.234843
0.260383
0.140213
0.0235575
0.0204614
0.00721468
0.00959058
0.0993302
0.0695944
0.140564
0.232194
0.575969
0.143854
0.0168985
0.000814441
0.00334907
0.0783623
0.0414036
0.0105284
0.0500136
0.314971
0.0716518
0.0351812
0
0.00332016
0.0379362
0.00157568
0.00554899
0.255325
0.299129
0.0320481
0.00502589
0
0
0
0.00484389
0.0137133
0.0430983
0.514037
0.174447
0.00910422
0.00231952
0.000830795
0.00806335
0
0
0.120391
0.577575
0.176018
0.00255628
0.00139171
0.000213892
0
0
0.0519672
0.324502
0.180968
0.0440525
0.0114096
0
0
0
0.00519306
0.104673
0.180734
0.0947257
0.340899
0.0985793
0.000654167
0.000237109
0.00619402
0
0.0092278
0.16528
0.374439
0.112926
0.023195
0.00165366
0
0
0.00249629
0.0225689
0.0677231
0.0815207
0.605232
0.233786
0.0203553
0
0.00249629
0.0111146
0.0413883
0.101471
0.14535
0.322941
0.172365
0.0136706
0.00191643
0.0227491
0.0577404
0.0682972
0.0663127
0.153007
0.209388
0.163768
0.037016
0.00226515
0.0316153
0.0115799
0.0389509
0.0324183
0.0716218
0.553063
0.405336
0.0748459
0.00176448
0.0109327
0.0822253
0.195511
0.0511226
0.0808425
0.210157
0.229084
0.0874951
0.0123514
0.0284209
0.106424
0.221851
0.0221247
0.0376965
0.0698878
0.0389089
0.0112764
0.000267538
0.0210656
0.116022
0.523602
0.0302009
0.000722912
0.00497045
0.00129536
0
0
0.00350493
0.110664
0.346963
0.0567483
0.0341152
0.0295723
0.0205649
0.0128822
0.00515449
0.0171434
0.0975875
0.628965
0.0998837
0.00624246
0.000555155
0.000185052
0
0
0.00691745
0.083855
0.395956
0.0124593
0
0
0
0
0.00465335
0.000474371
0.0906774
0.328681
0.0556283
0.060307
0.0465107
0.0596849
0.0157977
0.0467809
0.0039622
0.0659061
0.525105
0.0414712
0
0
0
0
0.00647155
0.0216939
0.0617521
0.570161
0.0796476
0.034846
0.0243487
0.00635892
0.00660131
0.0298575
0.0280453
0.0195557
0.0661215
0.0381316
0.0794039
0.0831863
0.0834388
0.173508
0.0636157
0.00323522
0.00293619
0.00250073
0.0111431
0.0445064
0.0576583
0.295717
0.554452
0.0750184
0.00386588
0.0246224
0.1502
0.0564979
0.0441247
0.0662535
0.0387985
0.0347027
0.0214536
0.0106346
0.00547402
0.0129501
0.00964546
0.0364297
0.293885
0.554426
0.142614
0.010107
0.00692283
0.00509139
0.00691577
0.0227454
0.055866
0.0287697
0.274251
0.254442
0.0304594
0.00862628
0.0068836
0.0101288
0.0313789
0.0466227
0.0496658
0.205485
0.260499
0.0407693
0.0259445
0.00185755
0.0158349
0.00758549
0.0784958
0.365448
0.555951
0.0781403
0.00261501
0.00351673
0.00221934
0.0245506
0.00897061
0.0822262
0.267405
0.304879
0.132296
0.0328664
0.0240055
0.0264702
0.00805022
0.0774369
0.0401209
0.156057
0.187872
0.342062
0.0624677
0.0460038
0.123639
0.0981019
0.0585817
0.100697
0.229568
0.121477
0.150375
0.0589851
0.0432405
0.00805693
0.0255301
0.0115353
0.0605878
0.199633
0.357715
0.310071
0.0765196
0.0341724
0.0939457
0.104961
0.018573
0.154434
0.190979
0.218033
0.347914
0.113818
0.0269849
0.0518159
0.163665
0.162607
0.151203
0.0770286
0.0644399
0.032334
0.00990064
0.0440867
0.0232712
0.119053
0.16693
0.366899
0.334118
0.0440134
0.001643
0.00145307
0.0222251
0.0938777
0.118351
0.113326
0.102932
0.221359
0.31429
0.149103
0.00387999
0.00568356
0.0476619
0.0678025
0.0951614
0.159207
0.522179
0.120846
0.0677938
0.00301856
0.00376171
0.000437698
0.0105398
0.0198234
0.207887
0.253867
0.00992638
0.00365652
0.00102493
0
0.000376851
0.00126382
0.0169028
0.34691
0.350683
0.0154016
0.00251538
0.000614957
0.000114232
0.00151193
0.00952699
0.0128164
0.0797667
0.394467
0.073065
0.0112986
0.000809047
0.000782431
0.00170678
0.00324424
0.00507902
0.105759
0.597586
0.230119
0.00369551
0.000368974
0.00126908
0.00167477
5.91229e-005
0.0377463
0.3048
0.243799
0.046083
0.00559703
0
0.00055143
0.0126808
0.0111995
0.0182873
0.0320787
0.45637
0.336619
0.121613
0.0124155
0.0108086
0.0117234
0.00041386
0.0025039
0.0964457
0.42249
0.175258
0.00864931
0
0.00386001
0.0234134
0.00739111
0.0505723
0.120501
0.34824
0.210881
0.120768
0.0206925
0.00860262
0.0416956
0.0471177
0.0240377
0.00681566
0.372971
0.458752
0.218995
0.0510768
0.0429131
0.0503553
0.127628
0.0400731
0.054051
0.198307
0.202169
0.115287
0.0560576
0.0519973
0.0382011
0.0334306
0.105297
0.204638
0.299563
0.236583
0.17178
0.085878
0.0255267
0.136141
0.0747109
0.0639628
0.154026
0.208549
0.0813933
0.038638
0.0887937
0.0713699
0.0511059
0.210696
0.0772067
0.0760643
0.0586209
0.0274279
0.0134268
0.0417419
0.0449337
0.20441
0.418845
0.151434
0.0270423
0.00263328
0.00087776
0
0.0397952
0.0928983
0.221777
0.0498098
0.0368322
0.0578688
0.0733164
0.0252295
0.00132757
0.0851562
0.189458
0.543032
0.0828405
0.0521858
0.0162254
0.0043888
0.00146293
0
0.0906636
0.368917
0.12007
0.256067
0.0426311
0
0
0
0.000592833
0.0562096
0.120052
0.0437349
0.237756
0.0188135
0.000319603
0.0033845
0.012331
0.073062
0.205143
0.134128
0.255783
0.0508391
0.0103406
0
0.000917659
0.0315298
0.0589521
0.122968
0.262759
0.056695
0.0262376
0.00112944
0
0.0595722
0.19132
0.399674
0.496514
0.271771
0.0144478
0.0581259
0.00888257
0.00323776
0.0227334
0.0301489
0.0682627
0.0650531
0.0207519
0.00746398
0.0136819
0.00211823
0.0656419
0.421394
0.234911
0.0143798
0.00435384
0.00391695
0.00522014
0.00617011
0.00414186
0.0247687
0.145762
0.150986
0.300655
0.15198
0.0391731
0.00724751
0.00714407
0.0208088
0.509274
0.479539
0.0729566
0.0575829
0.000152378
0.000246319
0.000823223
0.00388747
0.00251213
0.0792184
0.396125
0.191421
0.00112557
0.000149838
0.000183136
0.000542284
0.00444917
0.00999394
0.105011
0.267467
0.138076
0.0138364
0.0030196
0.00201307
0.000718587
0.000732079
0.0133966
0.436747
0.423511
0.0340488
0.00167409
0.00336399
0.00112133
0
0
0.0615937
0.40509
0.291021
0.0333727
0
0.00560664
0.00186888
0.00381105
0.01586
0.0126454
0.148437
0.255485
0.195178
0.0661752
0.0236069
0.00401754
0.00994409
0.0293432
0.00635094
0.101223
0.1315
0.133264
0.23436
0.231703
0.0553155
0.000523512
0.00209405
0.0996177
0.504434
0.269217
0.109749
0.0356782
0.0283538
0.00228458
0.00303414
0.0166096
0.0231092
0.182177
0.169946
0.154268
0.180781
0.337742
0.047508
0.080913
0.0689666
0.144484
0.0405119
0.248574
0.28679
0.204653
0.0472395
0.000915042
0.0257318
0.0246893
0.064778
0.0412134
0.251085
0.275771
0.220407
0.031969
0.00168592
0.0928722
0.111171
0.209253
0.0594052
0.197183
0.135687
0.13642
0.0907008
0.0124267
0.0809959
0.0669026
0.0472374
0.0411055
0.138189
0.477494
0.278034
0.118418
0.00175536
0.00320826
0.00281598
0.00562795
0.016326
0.186756
0.182819
0.0334182
0.000540883
0.00218044
0.00167057
0.000806163
0.00302664
0.0109821
0.278337
0.439179
0.0334723
0
0.00160984
0.00896575
0.00582962
0.000417668
0.00693772
0.107042
0.361825
0.122586
0.0181546
0.00130827
0.00078496
0
0.000523345
0.0044165
0.119576
0.60928
0.23498
0.00128051
0.00078496
0.00334213
0.000117985
0.00222473
0.0189824
0.180944
0.271771
0.0371463
0.000277687
0.00143982
0.00798836
0.0109724
0.0388343
0.126637
0.277094
0.0971113
0.0165576
0.0035297
0.0110871
0
0
0.00133484
0.0110573
0.0930618
0.496286
0.364119
0.0148769
0.00367737
0.00215515
0.00646546
0.00615797
0.0594969
0.414713
0.336551
0.180191
0.0571422
0.0390559
0.0170742
0.0491741
0.0772888
0.210638
0.27022
0.0883665
0.0125537
0.0126284
0.0351294
0.150413
0.108652
0.0956273
0.134087
0.134808
0.04844
0.015139
0.0158032
0.0613098
0.00812722
0.0287569
0.0236525
0.0886691
0.463956
0.415597
0.0803215
0.132753
0.104727
0.175104
0.0686421
0.102601
0.0581423
0.24416
0.289035
0.175571
0.117719
0.141529
0.267638
0.0414689
0.0275884
0.0142295
0.0196928
0.00874477
0.00497714
0.0130777
0.101303
0.409137
0.0209399
0
0
0.000389482
0.000129827
0
0.0220078
0.192872
0.411256
0.0348685
0.0378026
0.00686783
0.029553
0.0412641
0.0596771
0.0163656
0.120088
0.624179
0.0449993
0
0
0
0
0
0.00585108
0.18412
0.18663
0.0366837
0.00413419
0.00620129
0.0282705
0.0868443
0.0804671
0.0583304
0.158074
0.0275248
0.0205027
0.0149109
0.0526708
0.172104
0.442021
0.312013
0.172921
0.122861
0.273114
0.114103
0.0501824
0.043409
0.0445857
0.0819907
0.0361883
0.0172579
0.111567
0.0674752
0.126451
0.174535
0.233691
0.200957
0.422967
0.12576
0.0288958
0.0313017
0.00177808
0.00110444
0.0351151
0.0584426
0.173403
0.18453
0.127813
0.0360017
0.0131268
0.0027611
0.00184074
0.12236
0.42866
0.168312
0.0384176
0.0200544
4.51408e-005
0.000857672
0.00417
0.024262
0.231766
0.146011
0.156984
0.180588
0.0328971
0.0213961
0.00476571
0.000394443
0.0116497
0.554583
0.405553
0.089372
0.0495136
0.00221132
0.0119419
0.00805534
0.000427341
0.000284894
0.0786974
0.467963
0.157883
0.000161066
0.000626816
0.00356413
0.00380749
0
0
0.119383
0.375791
0.116295
0
0
0.00579053
0.00350185
6.10488e-005
0.00624749
0.320834
0.385455
0.0533765
0
0
0.00147141
0.0188266
0
0.00634581
0.36815
0.338012
0.0467028
0
0
0.00140457
0.0114699
0.00222161
0.0275855
0.1884
0.391144
0.0653394
0.0324686
0.0232208
0.0212078
0.00353826
0.0121991
0.0904292
0.156174
0.11798
0.0924991
0.0665811
0.0640527
0.118144
0.0164173
0.00420221
0.108462
0.515933
0.330788
0.0203851
0.00301449
0.00299369
0.00883194
0.00164559
0.051572
0.239764
0.384885
0.0758482
0.0443612
0.0125042
0.00770401
0.027149
0.00980333
0.124576
0.0827101
0.151386
0.109776
0.0860809
0.0795185
0.0289075
0.100405
0.0541744
0.146321
0.167417
0.0486774
0.103614
0.0906791
0.266967
0.166069
0.134114
0.0257888
0.348653
0.109868
0.335852
0.160006
0.0469703
0.00987199
0.0160428
0.189332
0.15113
0.363038
0.283497
0.087561
0.0908473
0.0345793
0.0859171
0.0628317
0.189597
0.177569
0.017252
0.0405153
0.0135037
0.0209423
0.0540826
0.263953
0.213938
0.0275154
0.00662519
0
0.00185819
0.00185819
0.0106709
0.0405465
0.323893
0.378857
0.0164096
0.00080896
0.0560354
0.0818717
0.0249715
0.0152296
0.0197919
0.113528
0.26004
0.157323
0.0699281
0
0.00309698
0.00309698
0.00640254
0.00606116
0.106218
0.630074
0.176948
0.0112608
0
0
0
0.00433488
0.0175163
0.160491
0.366352
0.0499381
0.00318862
0
0
0
0.00605632
0.0893341
0.160471
0.306954
0.150919
0.0354396
0
0
0
0.00205394
0.00175174
0.0388482
0.422649
0.164201
0.00172813
0
0
0
0.000791761
0.00448664
0.0344421
0.41287
0.494946
0.0535814
0.000135018
7.57442e-005
0.00143914
0.00320263
0.106572
0.249698
0.175128
0.242533
0.0731875
0.0788077
0.00659402
0.010074
0
0.0538779
0.146092
0.17083
0.181327
0.130248
0.000945127
0
0
0.000442425
0.00354288
0.0504316
0.221751
0.571473
0.174842
0.0768252
0.0244934
0
0
0.00172634
0.0187838
0.103773
0.293196
0.36184
0.284099
0.0145007
0.00507582
0
0.00878837
0.0251126
0.0566571
0.0294519
0.128593
0.446674
0.0298462
0.00569289
9.69426e-005
0
0
0.00422105
0.00242038
0.158404
0.296305
0.0485581
0
0
0.00031999
0.00237591
0.0221256
0.0514367
0.307162
0.580128
0.0702894
0.0398502
0.000678598
0
0
0.0295474
0.00503117
0.202267
0.260796
0.0934831
0.0595273
0.0234709
0.00889122
0.0120578
0.0055288
0.00805247
0.122874
0.102189
0.221394
0.250389
0.158282
0.0507826
0.0693886
0.0253978
0.0196432
0.0354916
0.418388
0.176106
0.108091
0.00460591
0.0015655
0
0.0133038
0.0139369
0.121302
0.188577
0.383886
0.443039
0.107576
0.0167319
0.00691023
0.00296153
0.0140791
0.0747882
0.00786602
0.0865277
0.305937
0.0741729
0.0290099
0.0289972
0.00495912
0.02137
0.0049267
0.00961029
0.0569362
0.584065
0.115569
0.012533
0.0114766
0
0.0129502
0.00555725
0.0148325
0.138618
0.377136
0.0523706
0.00520409
0.0099699
0.00427282
0.0041885
0.0172454
0.0205968
0.142359
0.524061
0.0215169
0.000437764
0.00598194
0.00256369
0.00208988
0.0112391
0.00396939
0.0296665
0.35961
0.121743
0.00456709
0
0
0.000414691
0.00801739
0
0.0286986
0.447284
0.158733
0.00656633
0
0.000900702
0.00063483
0.00472746
0.0102321
0.110484
0.469404
0.0310667
0
0
0
0
0.0061637
0.052359
0.0951298
0.540399
0.0961947
0
0
0.00150117
0.000643359
0.0141463
0.00284407
0.102364
0.619793
0.22509
0.0183769
0.0144005
0.00730817
0.00593227
0.00204961
0.0594056
0.156042
0.211151
0.0380577
0.0259574
0.0240008
0.0147435
0.0497783
0.0228618
0.147828
0.0920705
0.427442
0.153766
0.0125557
0.0348198
0.016817
0.00650281
0.0602205
0.138788
0.0982507
0.0697182
0.0309408
0.0354651
0.058033
0.0222404
0.0750755
0.0977507
0.239448
0.111914
0.152554
0.0537245
0.0118955
0
0.0436228
0.234724
0.211835
0.176315
0.299685
0.0879852
0.0470931
0.000616656
0.00395179
0.032512
0.202685
0.204032
0.23334
0.120419
0.0150926
0.00517106
0.0322265
0
0.046509
0.15385
0.191046
0.282994
0.364846
0.0606371
0.0197842
0.00431659
0
0.0291474
0.124397
0.341331
0.026085
0.0618957
0.0149056
0.00495725
0
0.00725841
0.168348
0.214348
0.0752929
0.000849176
0.00196483
0.000468192
0
0
0.00857475
0.508476
0.318009
0.0134366
0.106755
0.0736978
0.0124099
0.00372717
0
0.0023138
0.143334
0.124318
0.22683
0.0715687
0.0024944
0
0
0
0.0161966
0.519515
0.29229
0.133956
0
0
0
0
0
0.00260682
0.277399
0.264131
0.00159399
0.000207051
0
0
0
0
0.00039962
0.176442
0.537559
0.0395442
0.0179682
0.0056014
0.0056014
0
0
0.0056112
0.291189
0.3208
0.0266183
0.00345041
0.00933567
0.00933567
0.00148259
0.00345938
0
0.120004
0.504051
0.0703581
0.000956041
0
0
0
0
0.000428811
0.063888
0.448159
0.13975
0.0436562
0.00821122
0
0
0
0.000257287
0.0122422
0.269342
0.415085
0.0300386
0.0118413
0.00141266
0.00450608
0.0105142
0
0.0293654
0.337558
0.185335
0.179601
0.017381
0
0.00270365
0.00630851
0
0.00293202
0.200885
0.479954
0.187211
0.0115049
0
0
0
0
0.00148423
0.046422
0.287039
0.46916
0.058405
0.0121503
0.000165249
0
0
0.00719526
0.0021557
0.128075
0.326823
0.00267001
0
0
0
0
0.00164758
0.0375349
0.319815
0.565693
0.0375356
0.00407696
0
0
0
0.0105628
0.00811845
0.187129
0.474338
0.179523
0.0476377
0.00985333
0.0101346
0
0.00455534
0.00299624
0.0655267
0.208782
0.241855
0.165324
0.0997126
0.0185182
0.00643179
0.00275648
0.0109087
0.099923
0.479715
0.0926153
0.0266139
0.0236877
0.0165624
0.0114107
0.0206337
0.00524164
0.196027
0.28942
0.216276
0.128276
0.139564
0.0285629
0.0199366
0.0250333
0.0115189
0.167117
0.0355949
0.117162
0.218654
0.0820095
0.00413695
0.0167687
0.00769361
0.0410101
0.0659489
0.0291278
0.15891
0.414952
0.0248909
0.000900026
0.0100612
0.0214983
0.126733
0.0614193
0.188509
0.231017
0.18799
0.0739789
0.00745928
0.0172493
0.0112314
0.110263
0.100688
0.146315
0.175866
0.315753
0.0257964
0.0037936
0.0226274
0.244355
0.457058
0.153533
0.0616372
0.103974
0.323944
0.00872923
0
0
0.0117368
0.0297997
0.034147
0.273108
0.128328
0.242843
0.0280253
0
0
0.00175573
0.00400462
0.0889464
0.188862
0.156426
0.191325
0.00811206
0.00315694
0.0113641
0.177395
0.125028
0.128925
0.4757
0.370859
0.132797
0.00334601
0.00485523
0.0183521
0.0392164
0.0406679
0.291942
0.24255
0.0522246
0.0516905
0.0207425
0.000687239
0.00580617
0.0022164
0.0099988
0.20412
0.192671
0.0452906
0.0397369
0.03842
0.00568674
0.0182694
0.00439942
0.0158702
0.212139
0.341251
0.153367
0.0221811
0.00988015
0.0525681
0.0270572
0.0220254
0.0439783
0.507161
0.221262
0.0301825
0.0464868
0.111425
0.130913
0.14062
0.027494
0.0211301
0.441325
0.199447
0.0542658
0.0273486
0.010674
0.00892709
0.00440906
0.00517875
0.0448067
0.127688
0.301211
0.211676
0.11223
0.048626
0.00226817
0.0308634
0.0278614
0.0645581
0.219133
0.177392
0.0413695
0.0639532
0.0410467
0.144489
0.062471
0.128761
0.152336
0.237962
0.216179
0.126262
0.231428
0.100795
0.0866935
0.232388
0.0874388
0.331147
0.447828
0.255036
0.0723294
0.0475976
0.0206068
0.00867565
0.0124749
0.0781435
0.0823172
0.274388
0.205479
0.0100435
0.031593
0.0110885
0.0388703
0.0241545
0.163476
0.12772
0.232688
0.235237
0.0776988
0.175629
0.0623302
0.0607296
0.0868319
0.106185
0.271381
0.404997
0.213286
0.104537
0.252195
0.0478973
0.141901
0.0409274
0.0758988
0.190969
0.29853
0.0685215
0.0209539
0.0373755
0.0348644
0.0361797
0.0196948
0.124879
0.161366
0.0870794
0.00802914
0.0497867
0.108157
0.116058
0.0338762
0.00189913
0.0650071
0.221322
0.0763636
0.155786
0.0681084
0.158378
0.0769242
0.0780218
0.0276855
0.0143723
0.143927
0.296959
0.127977
0.123094
0.602144
0.3603
0.0985115
0.00954329
0.0106342
0.0920304
0.243407
0.0521137
0.0757514
0.106342
0.0953125
0.0287075
0.00181419
0.0107065
0.0774328
0.082749
0.243591
0.0993798
0.0889294
0.0512593
0.0221045
0.0126993
0.0298792
0.071759
0.267112
0.045032
0.145672
0.540574
0.276217
0.137634
0.0143463
0.00359399
0.0171623
0.0451667
0.192154
0.14639
0.316204
0.185773
0.173129
0.0888953
0.110984
0.169715
0.234655
0.247595
0.0148611
0.0096928
0.00100387
0.00546648
0.0162587
0.0694014
0.080125
0.204411
0.243156
0.00348913
0.000462286
0
0.00802872
0.0760171
0.0965541
0.0641728
0.13985
0.18014
0.0237321
0.0358142
0.0236869
0.0491868
0.0958185
0.323957
0.271049
0.235147
0.132654
0
0.00219463
0.0188371
0.0404786
0.342896
0.421507
0.281381
0.220103
0.1518
0.0145826
0.0217667
0.0208988
0.00707497
0.12934
0.0537082
0.0536115
0.15427
0.114835
0.144282
0.131497
0.142969
0.0210358
0.143717
0.055401
0.0340268
0.0967717
0.0570754
0.0461585
0.119627
0.119679
0.0242262
0.410272
0.211031
0.263839
0.148753
0.0983667
0.134909
0.26457
0.250513
0.0614599
0.382379
0.240861
0.137268
0.137585
0.150945
0.246316
0.178013
0.0827382
0.0790851
0.0917088
0.0436352
0.0759501
0.0702423
0.146372
0.151255
0.192194
0.0227804
0.0511745
0.0620695
0.201016
0.206157
0.0952702
0.205831
0.146944
0.157027
0.121901
0.16769
0.333079
0.177715
0.131144
0.182226
0.233236
0.15647
0.229967
0.127399
0.0877127
0.135354
0.142426
0.190086
0.0901907
0.156441
0.180809
0.145927
0.0323997
0.0189617
0.0478283
0.210136
0.078623
0.139972
0.294888
0.402446
0.118094
0.0137701
0.0582475
0.121493
0.0991038
0.0386955
0.240546
0.119575
0.11926
0.186858
0.124819
0.0646139
0.109916
0.103922
0.0438715
0.0331623
0.103541
0.177693
0.106492
0.0666908
0.337263
0.294901
0.0755968
0.0282154
0.0361499
0.185396
0.16642
0.0270881
0.0425706
0.127449
0.116453
0.130826
0.0283377
0.253992
0.114435
0.0498148
0.0856785
0.101584
0.227654
0.22673
0.114533
0.0247656
0.224983
0.0945748
0.0866179
0.0829512
0.0752094
0.296266
0.200158
0.137013
0.0580516
0.101153
0.332426
0.157539
0.222459
0.077359
0.128467
0.156459
0.150936
0.102241
0.164269