0.151702
0.0212706
0.0296063
0.0417226
0.0319851
0.060932
0.029836
0.00872672
0.206819
0.155791
0.0678792
0.0434843
0.0717515
0.149569
0.168917
0.0673878
0.0361317
0.109978
0.340152
0.135246
0.0252334
0.00681032
0.0149864
0.0251624
0.0379395
0.0622668
0.480547
0.42962
0.302979
0.106484
0.0522031
0.0819416
0.0495436
0.0356876
0.0667871
0.248355
0.0950792
0.109208
0.0467449
0.0628842
0.0945293
0.0502345
0.0204464
0.0321965
0.0499131
0.0775973
0.131241
0.0891344
0.370581
0.184243
0.104986
0.0204438
0.0424317
0.0624068
0.159369
0.294248
0.0883211
0.12594
0.0745674
0.0144601
0.0238927
0.0358567
0.114138
0.108846
0.45428
0.167594
0.47599
0.101314
0.0989748
0.0243775
0.0121594
0.138598
0.0104036
0.024331
0.108684
0.278773
0.213547
0.143693
0.0707019
0.0309295
0.0208614
0.0914514
0.03404
0.113486
0.15359
0.175056
0.0752544
0.0998048
0.086437
0.139916
0.0688079
0.115599
0.0849309
0.258679
0.118607
0.170764
0.114884
0.118956
0.0514949
0.540758
0.0748834
0.018479
0.0345498
0.0965311
0.0992828
0.16451
0.24156
0.290977
0.109956
0.0105868
0.00884825
0.0221247
0.0194079
0.001034
0.0225942
0.0572188
0.128704
0.156433
0.00571949
0.00351269
0.0018594
0.0145513
0.00380828
0.0295283
0.138697
0.270146
0.462237
0.133944
0.00907764
0.000697289
0.00526277
0.000511504
0.013427
0.039643
0.208942
0.508113
0.182798
0.0155254
0.000212979
0.00705443
0.00221963
0.000296415
0.0177114
0.478724
0.135675
0.00684649
0.00805215
0
0.00935899
0.00311966
0.00543337
0.0645236
0.171316
0.237428
0.0199868
0.00505806
0
0.001337
0.000445666
0
0.0247543
0.200271
0.387627
0.0307349
0.00636262
0
0.00561539
0.0018718
9.19569e-005
0.00772146
0.469198
0.457738
0.00872095
0.00289877
0
0.000802199
0.0002674
0
0.0452316
0.469843
0.196434
0.0587039
0.00829484
0
0
0
0.000410284
0.01127
0.168397
0.191122
0.116556
0.0324598
0.0121135
0.0209591
0
0.00394187
0.0182092
0.109007
0.275044
0.0164253
0
0
0
0
5.86121e-005
0.170261
0.515064
0.272863
0.0525332
0.00304717
0.00555144
0.0129534
0
0.0202224
0.323702
0.51164
0.149953
0.122846
0.0420612
0.0271976
0.0503338
0
0.00712394
0.0384975
0.147721
0.255413
0.100166
0.0338718
0.024869
0.0212414
0
0.00403652
0.0591809
0.266055
0.243394
0.111572
0.0331223
0.0614118
0.05627
0
0.0618267
0.340818
0.380032
0.417925
0.135709
0.0494099
0.0819125
0.0559894
0.0188312
0.0530711
0.22673
0.324146
0.241607
0.0285095
0.0224853
0.0430656
0.0100099
0
0.00300272
0.0848763
0.304163
0.265725
0.0368451
0.0904024
0.0710069
0.0175317
0
0.00236395
0.0915811
0.205233
0.422819
0.0785846
0.0254544
0.0318681
0.0317869
0.0261736
0.04549
0.143529
0.260752
0.466646
0.209968
0.0864175
0.024838
0.00617546
0.0249377
0.0487319
0.146448
0.210464
0.143005
0.0911403
0.161117
0.0385903
0.00742966
0.00330266
0.00127921
0.0329648
0.0340458
0.0481811
0.241559
0.340858
0.0654945
0.0167322
0.0263989
0.00354975
0.0491148
0.0212929
0.27609
0.37589
0.153988
0.00807362
0.00366962
0.0134917
0.00715843
0.0477737
0.0556474
0.225809
0.521502
0.226306
0.0163875
0.0256874
0.0817826
0.165881
0.156405
0.0365957
0.151199
0.191029
0.0679493
0.0467042
0.0437624
0.068696
0.0713821
0.103349
0.201136
0.267325
0.32851
0.153683
0.124411
0.109386
0.0366036
0.0227013
0.0770822
0.0886788
0.214906
0.194771
0.179017
0.136148
0.0485181
0.144922
0.100578
0.134139
0.0366459
0.33585
0.29169
0.256736
0.154116
0.112279
0.0944033
0.140892
0.0961408
0.0376103
0.0690998
0.190033
0.0850818
0.161677
0.124869
0.0131761
0.0316515
0.0278448
0.0404078
0.0578591
0.236474
0.190899
0.23384
0.10261
0.106605
0.0411818
0.0245843
0.0575523
0.0876565
0.166555
0.238601
0.153229
0.153741
0.0314039
0.0508319
0.00971322
0.0189484
0.0424903
0.153525
0.63103
0.262778
0.123346
0.0579102
0.0262583
0.0134229
0.00441928
0.119351
0.142433
0.0990602
0.0782141
0.0390187
0.0646867
0.0219385
0.0847721
0.0314897
0.539319
0.264527
0.0291306
0.0100527
0.0189007
0.0207718
0.0245392
0.114208
0.0930595
0.117496
0.257445
0.279936
0.0654784
0.0139208
0.0180403
0.00275093
0.021327
0.00755801
0.319557
0.458869
0.0800651
0.00171529
0.0027001
0
0
0.015711
0.00940573
0.435866
0.295968
0.0177525
0
0
0
0.00265482
0.0132502
0.06186
0.466706
0.35025
0.0206596
0
0
0
0
0
0.180714
0.23182
0.272762
0.0258251
0
0
0
0
0.000625305
0.00372705
0.257504
0.289551
0.0185654
0
0
0
0
0
0.0578454
0.3092
0.0671575
0.00355404
0
0
0
0
0.00148749
0.335205
0.297999
0.00175342
0.000138111
0
0
0
0
0.0706444
0.612301
0.237018
0.071015
0.00383581
0
0
0
0
0.00247916
0.141403
0.185104
0.00302158
0.000230185
0
0
0
0
0.0396284
0.375518
0.085312
0.000466066
0
0
0
0
0
0.210526
0.394174
0.0474876
0.00246338
0
0.00497883
0.0116173
0
0.0242946
0.551316
0.349058
0.0426769
0
0
0
0
0
0.00759377
0.134525
0.228147
0.0114796
0
0
0.000711261
0.00165961
0.00068358
0.0276602
0.449473
0.186816
0.02534
0.0114861
0.00821619
0.0335035
0.0282832
0
0.05062
0.422234
0.124362
0.0584072
0.0256091
0.0176664
0.0463958
0.0338974
0.0400413
0.107554
0.282825
0.101377
0
0
0.000539045
0.00478621
0.00404045
0.00166423
0.0946871
0.461903
0.0802625
0.00321488
0.00238363
0.00328204
0.00662798
0.00959227
0.0691548
0.360058
0.504552
0.146098
0.087931
0.0612689
0.0566413
0.0257254
0.0524383
0.0884201
0.114564
0.106838
0.0777419
0.0884078
0.174509
0.153074
0.0330365
0.153897
0.0879264
0.0818064
0.06126
0.0444675
0.0308145
0.0815611
0.0547111
0.00367506
0.0532524
0.159916
0.35662
0.285625
0.357852
0.0403942
0.166959
0.140899
0.0306669
0.2596
0.188418
0.282316
0.313022
0.235372
0.0758582
0.250915
0.0942153
0.017144
0.0811475
0.0404544
0.0297927
0.043683
0.017883
0.15197
0.330334
0.0810108
0.00337734
0.0189564
0.0666258
0.164161
0.0585615
0.0151851
0.100472
0.128966
0.0501688
0.0219536
0.135742
0.0837971
0.137434
0.276811
0.211525
0.374782
0.426105
0.0643613
0.00313622
0.0272149
0.0546939
0.0888072
0.14282
0.348895
0.132035
0.155784
0.139993
0.120607
0.0417738
0.114747
0.0681204
0.0952105
0.0211545
0.143052
0.105973
0.217149
0.126455
0.0645689
0.1194
0.162663
0.0743831
0.0165318
0.219827
0.147671
0.102311
0.125625
0.106412
0.185539
0.153557
0.178055
0.0643448
0.0558724
0.0633096
0.177984
0.275
0.275553
0.28599
0.325904
0.272571
0.033436
0.0312387
0.0494591
0.170382
0.164382
0.111642
0.027174
0.0433049
0.00488336
0.00699369
0.00849787
0.0823948
0.392607
0.264618
0.107004
0.00249316
0.00413119
0
0.00130037
0.00599122
0.0325581
0.129625
0.429034
0.267815
0.038287
0.0894724
0.0490566
0.0073169
0.00324202
0.0585552
0.261336
0.472471
0.188888
0.00202861
0.0100674
0
0.00324202
0.0386665
0.183878
0.330348
0.110832
0.0258268
0
0
0
0.00582488
0.0954628
0.335755
0.223562
0.0113238
0.00901014
0
0
0
0.0178394
0.0150982
0.108736
0.351632
0.208198
0.0578518
0
0
0
0.00842955
0.0664268
0.311541
0.504413
0.134211
0.1456
0.00388753
0
0
0.0234319
0.114813
0.350005
0.103356
0.00599726
0.00459081
0
0
0.00229972
0.0551189
0.283324
0.39312
0.0545179
0.00080157
0.00205881
0.00545023
0.00903397
0.0217671
0.138649
0.138453
0.325074
0.235705
0.11921
0.152376
0.00409821
0
0.016098
0.107155
0.219134
0.286378
0.13509
0.164375
0.105676
0.0406942
0.0549172
0.122135
0.247699
0.40586
0.138556
0.0100014
0
0.00541886
0.00840041
0.0157357
0.0190588
0.227334
0.253341
0.00886347
0.000621473
0
0.00514648
0.00198067
0.0109359
0.0798526
0.62286
0.142188
0.101953
0.028625
0.0852728
0.152953
0.0659492
0.0797689
0.072781
0.148917
0.187803
0.0785918
0.00436344
0.00573272
0.0709691
0.0181524
0.0258754
0.0412141
0.184242
0.0379347
0.00336142
0.00115047
0
0.000594428
0
0.038572
0.2407
0.297086
0.0151886
0.00592256
0.000690281
0
0
0.00923005
0.131795
0.596927
0.159779
0.174741
0.107749
0.00805328
0
0.00416099
0
0.0258818
0.113209
0.0902981
0.245037
0.133225
0.00483197
0.0107375
0.0261618
0.0366666
0.174479
0.412039
0.0883181
0.0014132
0.00112207
0
0
0
0.0150727
0.177974
0.324013
0.0452134
0.00233048
0
0
0
0.00790193
0.0571096
0.390028
0.410141
0.199558
0.0438613
0.0190947
0
0.00806467
0.0276777
0.0670936
0.327499
0.221101
0.0207062
0.000460849
0
0
0.0011521
0.0398487
0.143621
0.454185
0.148482
0.054086
0.00911988
0.0207505
0.0101888
0.00448592
0.0794151
0.0921806
0.168982
0.17756
0.223746
0.0450038
0.076127
0.0559045
0.034042
0.168766
0.119506
0.159777
0.221558
0.167529
0.000920142
0.00173001
0.00403669
0.00747654
0.123285
0.201974
0.241595
0.0652985
0.0422727
0.0579788
0.055439
0.0344313
0.0567568
0.218379
0.334929
0.59604
0.0645372
0.0460776
0.118515
0.111499
0.0552547
0.0150678
0.0505364
0.0435718
0.0795994
0.201207
0.245127
0.305887
0.210486
0.0720944
0.000400479
0.0043491
0.0326074
0.132971
0.153222
0.433089
0.116471
0.206695
0.0963922
0.0358025
0.0530482
0.134839
0.274337
0.0444937
0.0833283
0.120543
0.297953
0.180075
0.0277686
0.0120624
0.0879004
0.20783
0.0916966
0.226201
0.0756393
0.0260949
0.012546
0.0696302
0.0462118
0.0533872
0.0434683
0.0556013
0.0453111
0.0220975
0.0111545
0.0509127
0.332995
0.155735
0.0925485
0.0838218
0.100436
0.0173403
0.420593
0.134054
0.0523553
0.0748031
0.0297902
0.00961712
0.00909831
0.0487461
0.10059
0.39129
0.201157
0.285989
0.495968
0.0901257
0.0236333
0.0131838
0.0486907
0.0757927
0.00171055
0.00444469
0.0380452
0.467752
0.193058
0.0206346
0.0292422
0.0265151
0.0029117
0.000925435
0.00617761
0.0645975
0.356959
0.119383
0.000487345
0.00276162
0
0.000925435
0.0596948
0.0580328
0.162524
0.550474
0.17036
0.0073581
0.00205779
0.00564004
0.0117693
0.000904862
0.000487233
0.0908821
0.353101
0.19977
0.00245782
0
0
0
0.00754504
0.0359678
0.206879
0.293159
0.0557728
0.00172341
0
0
0.00208
0.0421361
0.0883968
0.240306
0.228829
0.274356
0.0112833
0
0
0.00436991
0.000824092
0.00156702
0.205892
0.39154
0.158128
0.0120735
0
0
4.33735e-005
0.00576865
0.0026117
0.0951874
0.230568
0.544435
0.0551123
0.0118399
0
0.000303614
0.048349
0.0952457
0.136066
0.144582
0.296122
0.00851889
0.00868923
0.00552195
0.0218313
0.10641
0.236962
0.145901
0.212397
0.168849
0.0190781
0.032756
0.039846
0.0764779
0.0216743
0.0275884
0.0384377
0.125194
0.520765
0.044045
0.0939098
0.00343162
0.0605023
0.168767
0.340621
0.0910814
0.144313
0.186532
0.0286476
0.121226
0.00571936
0.265922
0.127548
0.136581
0.0260904
0.0652864
0.0888016
0.0185088
0.0188079
0.0143119
0.038587
0.217288
0.23445
0.0265832
0.00872968
0.0302554
0.00589347
0.0036638
0.00128155
0.0211876
0.275389
0.422365
0.0359166
0.0272414
0.0233777
0.0037426
0.012407
0.000699979
0.0916281
0.394406
0.574783
0.0970366
0.00906574
0.0031337
0.000384519
0
0
0.0219553
0.209385
0.28159
0.0291436
0.0146814
0.00129757
0
0.00128503
0.00593329
0.0150888
0.26633
0.275385
0.014269
0.0696086
0.0661119
0.0120747
0.0367069
0.0716002
0.0692008
0.255314
0.489806
0.0825901
0.0244689
0
0
0.000116828
0.00263342
0.0145935
0.306076
0.448006
0.0307409
0.0896235
0.0458857
0.00242911
0.00430979
0.0208224
0.0418569
0.0719987
0.0606416
0.0073214
0.07106
0.122138
0.0812559
0.211601
0.0819762
0.0285583
0.0020717
0.000543879
0.00104591
0.0118358
0.122477
0.306733
0.420012
0.043457
0.00162671
0.0988953
0.11548
0.0185503
0.093964
0.118881
0.0793836
0.0457258
0.0185819
0.0177501
0.00409097
0.0041216
0.00265004
0.0252139
0.213288
0.634533
0.151065
0.00752772
0.00147183
0.00256663
0
0
0.00118302
0.0594532
0.181034
0.155451
0.016375
0.00256663
0.0191939
0.011229
0.0228764
0.0399468
0.13441
0.291496
0.485229
0.0422242
0.00562064
0.00153998
0
0.00305107
0.0026559
0.107361
0.320154
0.0503513
0.00214294
0.00153998
0.00268481
0.000948136
0.0387507
0.0753155
0.426803
0.446862
0.139015
0.0770605
0.0138709
0.0699606
0.0743794
0.091532
0.0637774
0.0873411
0.104893
0.23871
0.0353087
0.0251448
0.167503
0.164837
0.11152
0.0745725
0.0399879
0.0612616
0.0602817
0.0177135
0.0886756
0.0829239
0.0205998
0.0993591
0.091663
0.315892
0.266588
0.102151
0.173428
0.17311
0.54969
0.212258
0.0850129
0.0566512
0.076832
0.0880668
0.0264594
0.119934
0.306909
0.495375
0.191927
0.0511827
0.0287887
0.0841903
0.0143993
0.0207684
0.0241915
0.0797353
0.498221
0.255399
0.184331
0.156972
0.0908536
0.0144363
0.0320416
0.0298197
0.120674
0.116705
0.0846819
0.0198103
0.0326527
0.174575
0.103389
0.0824061
0.108659
0.0557697
0.144592
0.0758709
0.0403441
0.0279716
0.137184
0.141266
0.179285
0.204135
0.110424
0.153566
0.117171
0.203634
0.326248
0.146097
0.0120459
0.00970449
0.00812563
0.0545983
0.00607612
0.00378775
0.0800297
0.289747
0.41441
0.0161805
0.000248153
0
0.00126104
0.066873
0.0288014
0.0612342
0.0786643
0.108961
0.167035
0.103845
0.0689151
0.0558119
0.0188236
0.00354734
0.035317
0.254034
0.541965
0.0570559
0.0123732
0.00319527
0.0216084
0.000218865
0.000253325
0.0651454
0.261636
0.339079
0.0152577
0.00192161
0
0.000218865
0
0.00254866
0.0276896
0.113174
0.420957
0.0938436
0.074954
0.00829975
0.0234241
0.00276558
0.000667105
0.0101114
0.214578
0.581656
0.0215504
0.0149062
0.000554569
0.00375034
0
0.0258555
0.13283
0.165128
0.223804
0.0632723
0.0995296
0.0138329
0.0390401
0.0914528
0.0296442
0.0167546
0.0398243
0.266455
0.0603246
0.13552
0.0119081
0.102771
0.25423
0.291185
0.103556
0.0308996
0.0659772
0.0178146
0.0959547
0.0082938
0.241111
0.137513
0.156856
0.197974
0.0770755
0.0597968
0.0316984
0.0914683
0.0144881
0.0980323
0.473595
0.366047
0.167831
0.0133934
0.00903635
0.00495613
0.0372445
0.00871063
0.244505
0.195519
0.317306
0.0548135
0.00262663
0.00175109
0.00113024
0.00452095
0.000693336
0.0995566
0.325876
0.276984
0.0335447
0.00114635
0
0
0
0.000233924
0.113631
0.321498
0.153631
0.0351073
0
0
0
0
0.00343699
0.261262
0.425451
0.0574914
0.00280733
0
0
0
0.000515339
0.0235724
0.431579
0.296869
0.24679
0.0339943
0.00492929
0
0
0.0021684
0.023421
0.109488
0.199741
0.190217
0.017729
0.0162739
0.00645252
0.00291591
0.0173734
0.0606324
0.045617
0.271193
0.0227866
0
0
0
0.00629497
0.110514
0.188201
0.478237
0.0484353
0.0105228
0.00398026
0.00201606
0.0202865
0.0811245
0.37859
0.301331
0.201655
0.0514543
0.0463256
0.0205509
0.0238689
0.0488955
0.0402676
0.0132518
0.0254613
0.00533118
0.00165431
0.00261168
0.011167
0.0280728
0.349002
0.483566
0.0284627
0.00759526
0.000715769
0.00234047
0.00161168
0.0145379
0.0261966
0.063018
0.0958158
0.144612
0.0835647
0.0200408
0
0.000182459
0.0306271
0.312372
0.579248
0.153714
0.0143235
0.0229182
0.0125287
0
0
0.00560419
0.0108778
0.251649
0.304529
0.0154716
0.00021214
0
0.00973315
0
0.0150919
0.0348376
0.388076
0.431791
0.0628255
0.140518
0.0637327
0.00107301
0.00506564
0.0154575
0.160346
0.454394
0.0993597
0.00689424
0.00366712
0.00108666
0.0394882
0.0202674
0.0381854
0.0591855
0.337157
0.113808
0.0356577
0.0666708
0.0562021
0.0522287
0.0070577
0.0100503
0.0162526
0.111864
0.148848
0.0416542
0.179307
0.253456
0.48263
0.101391
0.00908516
0.00304463
0.0190664
0.0323505
0.0142348
0.126177
0.415452
0.0902998
0.0231237
0.0207899
0.0131094
0.0481787
0.0299386
0.0155273
0.0923301
0.185526
0.432465
0.0642235
0.0218547
0.00335061
0.00406562
0.00339514
0.00327219
0.0801858
0.346533
0.0112546
0
0
0.00402055
0.0353967
0.0525209
0.0759223
0.113704
0.0864672
0.00128374
0
0.00226452
0.00223965
0.0225413
0.161927
0.199381
0.152592
0.0636994
0.101152
0
0
0
0.000721866
0.00898604
0.0398986
0.217304
0.584441
0.0104679
0
0
0
0.000659607
0.170245
0.268317
0.432285
0.357003
0.0194706
0.00337721
0.0092549
0.0264585
0.0261872
0.246711
0.194454
0.0599799
0.0214092
0.032451
0.00562868
0.0352459
0.179817
0.232898
0.0951776
0.0751942
0.011991
0.0187756
0.0168876
0.00727774
0.00443961
0.0303519
0.0113221
0.431187
0.490178
0.291663
0.0934826
0.0281461
0.0223576
0.0310773
0.117199
0.0669185
0.263732
0.288573
0.077402
0.0219151
0.00579903
0.00112723
0.0177647
0.119953
0.33419
0.0705829
0.0915729
0.00975859
0.00421405
0
0.0149633
0.135778
0.250056
0.243014
0.0708516
0.0669995
0.0031858
0.00542314
0.00502974
0.00811741
0.0225323
0.0574921
0.122438
0.190598
0.350597
0.112675
0.0105176
0
0.00117524
0.0891602
0.218213
0.40149
0.30341
0.295567
0.104916
0.00752606
0.0363753
0.14934
0.26311
0.241217
0.0775884
0.0280511
0.00962135
0.00261983
0.017215
0.252364
0.342461
0.185258
0.0897528
0.0145516
0.0199826
0.00996483
0.0103769
0.17946
0.00464305
0.0537931
0.125954
0.276
0.223697
0.241756
0.139661
0.0725328
0.0232717
0.178852
0.227572
0.10935
0.139462
0.0575004
0.168954
0.187606
0.173537
0.202591
0.204576
0.0674603
0.00934066
0.00441576
0.000348898
0.00197709
0.00264059
0.00926378
0.261814
0.288859
0.00113713
0.000508935
0.00288396
0
0
0.0129496
0.0493545
0.416812
0.218328
0.0667912
0.00854375
0.00735961
0.00244229
0.0147222
0.0309717
0.0498424
0.316436
0.377504
0.0247727
0.00356255
0.0201877
0
0
0.0200714
0.0365835
0.489316
0.130351
0
0.00269589
0.00948188
0.013202
0.0467298
0.143707
0.191018
0.273831
0.00975155
0
0.00827586
0.0150041
0.0720699
0.210726
0.362286
0.267127
0.0709917
0.250254
0.0635802
0.0785246
0.0824467
0.0924143
0.0674749
0.100019
0.112219
0.231289
0.0475305
0.0473162
0.302382
0.192464
0.274583
0.245008
0.146909
0.183837
0.0254827
0
0
0.0102348
0.0517031
0.0900994
0.150705
0.105841
0.0613258
0.00773486
0
0
0.0509594
0.405847
0.207703
0.0297114
0.00487635
0.00760883
0.00849286
0
0.0239906
0.265477
0.20072
0.193072
0.153263
0.0316422
0.0465519
0.00072796
0
0.021467
0.392286
0.53499
0.162216
0.0350048
0.000672986
0.000477034
0.00121327
0.00285941
0.0149049
0.0491594
0.26614
0.195076
0.00385701
0.00548634
0.00267481
0.0010653
0.0297908
0.078396
0.129454
0.118255
0.160674
0.00833792
0.00892076
0.00785392
0.00603924
0.00171565
0.0569162
0.269372
0.308231
0.0955604
0.00909539
0.000764636
0.000305608
0.000152186
0.228725
0.481407
0.497048
0.136984
0.0563146
0.00129934
0.00127439
0.000424798
0.0222918
0.095728
0.0855171
0.114277
0.0660368
0.0511624
0.00485287
0.000971692
0.0168003
0.0366313
0.318417
0.161782
0.131399
0.0464207
0.00627657
0.000669404
0
0.0160715
0.0835101
0.386446
0.325962
0.193543
0.0796233
0.0216123
0
0.000138813
4.62711e-005
0.0624456
0.559692
0.236754
0.133093
0.0651427
0.0030114
0
0
0.0189979
0.186815
0.0885265
0.000505678
0.00456835
0.000956895
0.00731461
0.0376177
0.0322492
0.213364
0.476355
0.00534399
0
0.00761392
0.0138229
0.0542171
0.250056
0.213201
0.402219
0.326457
0.0245346
0.000866443
0.0319785
0.0138928
0.113244
0.107754
0.052879
0.0818545
0.0941829
0.000236277
0
0.0847883
0.19899
0.258329
0.268061
0.148388
0.127693
0.0706047
0.00059316
0.00116379
0.00122086
0.0161528
0.0307134
0.255684
0.257494
0.126848
0.0415581
0.0016991
0.00644311
0.0035013
0.0171456
0.0127354
0.138997
0.254625
0.0916018
0.00979287
0
0.000120628
0.0400676
0.139319
0.0915811
0.17983
0.320977
0.168947
0.0479468
0.00118416
0.000844398
0.0183745
0.0468485
0.0146715
0.085913
0.553075
0.4298
0.0723969
0.00323315
0.0045193
0.00601953
0.00498151
0.00780988
0.0548592
0.17999
0.112109
0.0146612
0.00181421
0.00167032
0.0270774
0.0131937
0.0653934
0.103721
0.17762
0.176819
0.0295995
0.00503947
0.00750168
0.00362217
0.00197817
0.00115193
0.0303615
0.694684
0.344612
0.0366307
0.00302368
0.0116922
0.00588943
0
0.00974277
0.0371274
0.307382
0.314695
0.068007
0.00809669
0.00226155
0.0197425
0.0346227
0.0785077
0.178333
0.212677
0.138433
0.101311
0.164366
0.0214118
0.00979611
0.0201985
0.0189515
0.105834
0.204066
0.161126
0.263978
0.0145065
0.00441085
0.00501079
0
0.0149848
0.0905483
0.292432
0.266303
0.212705
0.147862
0.016187
0.0197841
0
0.00214069
0.0548336
0.177558
0.162103
0.56651
0.209209
0.0108063
0.00187192
0.000962536
0.000868267
0.00723867
0.0266407
0.0411124
0.26158
0.330287
0.0347266
0.00191394
0.00777554
0
0
0.00286715
0.00654093
0.370295
0.180053
0.00702325
0.00759073
0
0
0.0013911
0.0147073
0.0435302
0.431332
0.383422
0.0655847
0.00453182
0.00418962
0
0
0.00247276
0.0270646
0.427514
0.270169
0.0970732
0.0947567
0.0400744
0.0315824
0.00853569
0.00956881
0.00851051
0.164969
0.135931
0.155732
0.39205
0.123097
0.0844171
0.0469587
0.0106284
0.0140806
0.0275814
0.372743
0.178583
0.0789227
0.0158664
0
0
0.00287502
0.017023
0.14845
0.313013
0.409937
0.312278
0.0231886
0
0.0128555
0.00267933
0.00232739
0.0231128
0.022119
0.0911017
0.248856
0.0704378
0.0341107
0.0243372
0.00280024
0.0028408
0.000742556
0.00462981
0.0502947
0.357129
0.111176
0.029975
0.00996077
0.000373042
0
0.000868979
0.0897422
0.264377
0.18822
0.00726648
0
0.00887838
0.00156677
0
0.00462526
0.0504266
0.345915
0.685614
0.0569065
0.00136792
0.00218029
0.000223825
0
0.00616956
6.542e-005
0.0303949
0.231323
0.0820757
0.0115972
0.00355105
0
0
6.542e-005
0.154385
0.214991
0.364025
0.0763737
0.00216094
0.000507294
0
0.00158239
0.0418872
0.00624972
0.0878429
0.536589
0.133917
0.00076094
0.000507294
0
0
0.000499805
0.101052
0.121452
0.536589
0.211989
0.00271494
7.24705e-005
0
0.0110768
0.0632585
0.434069
0.172221
0.126365
0.0195401
5.00916e-005
0.000441909
0.000237951
0.00853493
0.166788
0.473193
0.0619922
0.0116522
0.00562506
0
0.0118088
0.0392976
0.106139
0.306121
0.276398
0.0937958
0.205879
0.0763368
0.0124669
0.00309336
0.00166566
0.0330543
0.191159
0.258421
0.0856897
0.0267917
0.0481853
0.0147894
0.0885743
0.0979412
0.146694
0.235888
0.00146358
0.00395872
0.0156224
0.0174614
0.175544
0.0952882
0.0553507
0.0036363
0.00255829
1.90673e-005
0.0011585
0.0758431
0.215252
0.398114
0.136248
0.108685
0.0058234
0
0.00120779
0.0100367
0.00214634
0.0235184
0.196871
0.14708
0.0463994
0.00686064
0.00146513
0.000133471
0.00580089
0.183385
0.17519
0.670792
0.233782
0.0885771
0.000765006
0
0
0.000382379
0.0559716
0.155806
0.153501
0.0430919
0.114274
0.0737696
0.0407471
0.000175483
5.46255e-005
0.0346525
0.0751766
0.0678329
0.035926
0.56439
0.389055
0.0714742
0
0.00267665
0.174613
0.110039
0.303381
0.110134
0.0332943
0.00900676
0.00582102
0.00687982
0.000382379
0.0802883
0.0636623
0.243557
0.134872
0.306203
0.229991
0.0300633
0.000307365
0.00116309
0.00213557
0.00193032
0.0033697
0.00601132
0.424145
0.249376
0.00913081
0.000184419
0.00193848
0.000342085
0
0
0.00300563
0.229157
0.26714
0.0201785
0.00443305
0
0.00182739
0.00737319
0.028711
0.013925
0.332293
0.368597
0.0233419
0.000633292
0
0
0.00521031
0.00894121
0
0.342295
0.468006
0.054747
0.00219241
0.00071915
0.000464003
0
0
0.00668901
0.0711569
0.179733
0.0758534
0.0106129
0.00263915
0.00322563
0
0
0.0040134
0.0211197
0.0895091
0.201803
0.00455071
0
0
0.000905836
0.00441018
0
0.16032
0.567007
0.267408
0.0435743
0
0
0
0
0
0.0309028
0.329401
0.567007
0.0593406
0.00308503
0.00191707
0
0
0
0.0034012
0.031424
0.213916
0.220496
0.0551599
0.00114453
0.00105811
0
0
0.000798908
0.00987517
0.136297
0.220423
0.000909906
0
0
0
0
0.00276078
0.0796792
0.490377
0.648453
0.037432
0
0
0
0
0.000290671
0.00586446
0.313424
0.139617
0.0738373
0.00862524
0.00216622
0
0
0.000470343
0.0027849
0.0170567
0.149325
0.197567
0.0372716
0.00129973
0
0
6.71919e-005
0.000380754
0.00161118
0.546741
0.116053
0.00612106
0
0
0
0
0
0.0817256
0.474819
0.546741
0.114108
0.00135743
0.0040723
0.000500143
0.000750214
0
0.0386838
0.057752
0.227702
0.0575097
0
0
0
0
0
0.000978942
0.0265096
0.46659
0.320007
0.0166232
0
0
0
0.00291272
0.00279369
0.14018
0.471239
0.13738
0.00103213
0.00369597
0.00357368
0.00245654
0.0010726
0.0069763
0.0703286
0.471239
0.291059
0.00407126
0.00144163
0.00880673
0.00727202
0.0281684
0.0221243
0.0175059
0.305465
0.561
0.0851937
0
0
0
0.00409516
0.00433124
0.0408881
0.0993643
0.473709
0.139463
0.00322505
0
0
0.00562747
0.0178636
0.0938946
0.324861
0.236858
0.025916
0.00019014
0.0032541
0.00328006
0.033586
0.0574895
0.2154
0.189474
0.110211
0.0476253
0.000460721
0
0
0.00471701
0.0314192
0.0781813
0.181795
0.23228
0.167343
0.0269201
0.00245728
0.00132315
0.0220692
0.0616502
0.0760039
0.327235
0.116926
0.173944
0.0388006
0.0801481
0.0738887
0.0485054
0.0409107
0.237579
0.369829
0.177404
0.224229
0.00384573
0
0
0
0.00916307
0.0680994
0.401741
0.238018
0.280494
0.0526209
0.0795792
0.0906439
0.0190482
0.0089621
0.000335788
0.00447908
0.00214935
0.0205948
0.181046
0.0811931
0.0141173
0.00388455
0
0.0400127
0.00221188
0.15469
0.149403
0.584419
0.166309
0.00991554
0.000526499
0.00521534
0.000811432
0.00332618
0.00295466
0.017435
0.204788
0.114345
0.0341798
0.00304307
0.000347685
0.126871
0.00020832
0.0435917
0.0769801
0.510478
0.337088
0.072741
0.0182727
0.0915049
0.0494051
0.00189852
0.363412
0.201709
0.384982
0.111783
0.00719139
0.0024007
0.00678702
0.0360673
0.00435231
0.202401
0.132098
0.295739
0.130293
0.0549842
0.0783737
0.0501805
0.166241
0.00777347
0.141951
0.198019
0.327643
0.157406
0.0346527
0.0174133
0.115249
0.210177
0.0612161
0.135636
0.169485
0.159871
0.0503328
0.0295951
0.0207878
0.210905
0.0245581
0.0111623
0.0157785
0.0483019
0.0636079
0.023922
0.108287
0.248485
0.0603346
0.0122889
0.0129621
0.0129784
0.0556328
0.0711358
0.0125843
0.263016
0.749351
0.127632
0.161477
0.0473932
0.0330165
0.0461995
0.0238328
0.012677
0.00975332
0.0324785
0.231314
0.114012
0.0557738
0.0216307
0.0572226
0.0585196
0.037657
0.022049
0.140247
0.232066
0.0176346
0.00850045
0.000819745
0.00540925
0.0180166
0.00676742
0.11053
0.436355
0.315066
0.0673415
0.00682586
0
0.0023662
0.00848364
0.00151403
0.0578942
0.315548
0.562704
0.07225
0.0472189
0.00241712
0.0101665
0.0217657
0.0153189
0.0192358
0.0781642
0.195092
0.0702472
0.0406759
0.0133016
0.0323302
0.0569103
0.0158903
0.0755139
0.142622
0.357037
0.227193
0.00228437
0
0.00206708
0.00641319
0.000810805
0.0176537
0.102239
0.457368
0.543599
0.0593707
0
0.00204708
0.00331975
0.000247718
0.00579963
0.0122229
0.264268
0.136065
0.00727155
0.0266816
0.040351
0.0448923
0.0146758
0.0437465
0.079081
0.215997
0.440649
0.0718263
0.0298167
0.0435108
0.0232382
0.00297575
0.0350584
0.0541554
0.14463
0.548305
0.136333
0.00313323
0.000287238
0.000351069
0.00121463
0.0103865
0.0095873
0.0958988
0.454833
0.411694
0.0834129
0.0037516
0.011973
0.0156828
0.0447073
0.010204
0.102924
0.320723
0.0836802
0.00563877
0.00564097
0.00245748
0.00394414
0.0565399
0.119864
0.0913816
0.19058
0.0891155
0.0444433
0.00225096
0.00794994
0.0522311
0.106858
0.111679
0.109886
0.237626
0.63019
0.197336
0.0101426
0.0406587
0.0578141
0.0693259
0.0109561
0.0596215
0.137763
0.367858
0.189011
0.00500233
0.0257145
0.0834276
0.0401576
0.095552
0.0635048
0.123298
0.108059
0.128985
0.0185027
0.0364342
0.114546
0.133091
0.0311179
0.0963155
0.10665
0.134052
0.19047
0.0236967
0.030637
0.116282
0.0610097
0.0728395
0.119078
0.181025
0.169731
0.138972
0.00922422
0.00997421
0.0227665
0.0124371
0.0713034
0.125484
0.478049
0.402461
0.10891
0.0242507
0.0226381
0
0
0.00759575
0.0711669
0.0695253
0.192808
0.199447
0.0376298
0.0513652
0.0353493
0.0369344
0.114527
0.0746016
0.169608
0.356825
0.215519
0.0725264
0.196664
0.0466858
0.0319788
0.155906
0.0456655
0.347931
0.42578
0.0992467
0.0809036
0.0075318
0
0.00173425
0.00404657
0.0572479
0.135681
0.28683
0.13778
0.119859
0.0204365
0.0995332
0.129293
0.062065
0.101095
0.208634
0.333082
0.162188
0.0475606
0.139667
0.0538656
0.0184555
0.0771959
0.0861747
0.115818
0.187189
0.162093
0.149136
0.0903951
0.102802
0.112599
0.118929
0.150245