0
0.00532767
0.018033
0.124733
0.305474
0.23745
0.0666269
0.0141223
0
0.0221442
0.0501257
0.0722492
0.0719812
0.177311
0.0663741
0.0253651
0.00298796
0.0167043
0.00208589
0.0312178
0.0478631
0.201949
0.425669
0.41156
0.0806362
0.0235373
0.000682748
0.0190396
0.0311318
0.0627558
0.137042
0.327536
0.122595
0.0640173
0.0189183
0.0157757
0.0697176
0.0909892
0.0855264
0.0170219
0.117475
0.00855176
0.0889598
0.0281183
0.0580241
0.0768311
0.0337627
0.0728896
0.00631901
0.105933
0.0286
0.26967
0.079137
0.0751606
0.072196
0.0513506
0.0536917
0.043413
0.258951
0.000990938
0.247428
0.0822981
0.0651799
0.0853204
0.098814
0.143804
0.0316277
0.323714
0.0103761
0.314756
0.102253
0.0677455
0.0445851
0.0174529
0.0566603
0.0209203
0.150798
0.064679
0.146616
0.0325296
0.0445851
0.0967595
0.0562165
0.175819
0.0194349
0.17467
0.0597254
0.0434235
0.00307838
0.0967595
0.0238687
0.0734998
0.176713
0.148625
0.312678
0.0237566
0.1118
0.0323265
0.00990996
0.0152172
0.104614
0.399194
0.170467
0.319249
0.014254
0.0577407
0.0165919
0.0132231
0.129376
0.0543441
0.164187
0.00173221
0.0766385
0.00579352
0.00311959
0
0.129376
0.137064
0.0666024
0.128056
0
0.228714
0
0.0221649
0.00897814
0.132844
0.0385469
0.12711
0.378656
0.0204591
0.160918
0
0.0183764
0.00612547
0.0375872
0.075464
0.183136
0.313664
0
0.23304
0
0
0.00989234
0.0626959
0.0791725
0.109753
0.115641
0
0.196713
0
0.0318246
0.0118673
0.0673687
0.0907154
0.124305
0.230924
0
0.161596
0
0.093495
0.0285754
0.0846282
0.0597791
0.156931
0.245931
0.0308877
0.199029
0
0
0.0276657
0.0484779
0.132546
0.139021
0.369934
0.0514795
0.108916
0
0.12572
0.0694032
0.130674
0.106844
0.0511517
0.119843
0
0.0854172
0
0.13683
0.0538964
0.107512
0.146887
0.0892554
0.0590905
0.00818997
0.130737
0
0.22993
0.0833557
0.133665
0.162756
0.0288808
0.0930718
0.00720375
0.0510351
0
0.235747
0.10921
0.166159
0.174097
0.00148898
0.00446694
0
0.195108
0
0.311472
0.122201
0.176139
0.0321097
0.0417198
0.0580734
0.0381574
0.182352
0.0237027
0.169449
0.0522287
0.0274354
0.0318028
0.0299932
0.0830407
0.0529529
0.318833
0.0395045
0.176629
0.0517858
0.0318028
0.0480581
0.0221415
0.0936808
0.0450532
0.207488
0.0395045
0.196184
0.0583041
0.0480581
0.0582024
0.0477366
0.188637
0.0750887
0.436026
0.0658409
0.161508
0.0420185
0.0582024
0.0477732
0.0228099
0.0676873
0.00792856
0.238513
0.00602855
0.109874
0.0355427
0.0477732
0.0572918
0.0239828
0.0748738
0
0.383591
0
0.102913
0.0343042
0.0572918
0.0651481
0.0405591
0.153276
0.0440697
0.266193
0.0100476
0.145311
0.0466335
0.0651481
0.0819578
0.0504712
0.208126
0.0543514
0.265529
0
0.194671
0.0648903
0.0819578
0.0504631
0.0404759
0.122505
0
0.209127
0
0.0504003
0.0168001
0.0504631
0.0280292
0.105497
0.312226
0
0.20915
0
0.0291993
0.00973309
0.0280292
0.065555
0.0304221
0.103712
0.00736103
0.214305
0
0.179318
0.0597726
0.065555
0.0181722
0.0865456
0.196362
0.0176582
0.368842
0
0.20781
0.0692699
0.0137576
0.00649508
0.0446974
0.0440468
0.261621
0.322756
0.111028
0.0130479
0.00304937
0.00310291
0.0228538
0.00649997
0.0246276
0.137442
0.306439
0.0351154
0.0303769
0.00991931
0.0228538
0.00720682
0.0203417
0.0318524
0.321218
0.407629
0.148198
0.0314261
0.00151452
0.00517151
0.0362006
0.000928567
0.00798164
0.23166
0.369654
0.0398151
0.0241063
0.00803542
0.0362006
0.0317296
0.00479003
0.0199196
0.0207222
0.292992
0
0.0687134
0.0229045
0.0317296
0.0395908
0.0441202
0.072426
0.0715572
0.376799
0
0.041738
0.0139127
0.0284599
0.0238788
0.000554537
0.0186218
0.0589194
0.423662
0.0186715
0.0464343
0.0130443
0.0238788
0.0130015
0.0467622
0.119857
0.135869
0.452113
0.0798109
0.0586153
0.00674254
0.00376659
0.0233048
0.0460297
0.105496
0.137209
0.243681
0
0.0179942
0.013088
0.0112788
0.0281354
0.0873197
0.247382
0.123807
0.126045
0
0.0372255
0.0542273
0.018982
0.13577
0.106926
0.115246
0.0777078
0.259322
0.0255181
0.0533663
0.0630437
0.017182
0.450996
0.297066
0.195793
0.0416264
0.0855486
0.0105888
0.0341943
0.142217
0.0880314
0.0342306
0.0971309
0.215668
0.042449
0.068531
0
0.0129543
0.0377557
0.0245531
0.128403
0.198828
0.138851
0.0250403
0.0668964
0
0
0.0389256
0.0641571
0.241766
0.243339
0.195317
0.145028
0.0294787
0.0304557
0.019997
0.0661196
0.117547
0.297756
0.381939
0.139985
0.189188
0.026387
0.0182734
0.0220695
0.0674828
0.174013
0.0864391
0.122683
0.108092
0.0223543
0.0323785
0
0
0.0940597
0.0676144
0.0764215
0.101687
0.247994
0.0556744
0.00994117
0
0.0579657
0.0961787
0.0818228
0.28123
0.221193
0.049468
0.0248877
0.00221112
0
0.00452691
0.159628
0.24187
0.256091
0.263367
0.172003
0.0387101
0.0446732
0
0.0405689
0.229239
0.294922
0.0612344
0.032825
0.0752029
0.0246224
0.00772037
0.00472497
0.158823
0.116024
0.0655629
0.0829172
0.00347982
0.0093095
0.00284134
0.0955001
0.00787496
0.160244
0.159332
0.107142
0.102573
0.119393
0.0795515
0.0338251
0.047143
0.0330748
0.1771
0.225044
0.148728
0.150374
0.0137581
0.0301476
0.00473556
0.0380095
0.0551247
0.205968
0.495496
0.298327
0.0677571
0.0325006
0.107468
0.0149498
0.117897
0.0303879
0.0487493
0.057371
0.092476
0.0538653
0.0663494
0.215659
0.0249164
0.202411
0.0485669
0.0362937
0.0125711
0.0617108
0.101448
0.0216195
0.0659494
0
0.0342755
0.0522571
0.0736286
0.435301
0.309214
0.105966
0.04
0.12
0
0.0645919
0.110913
0.11066
0.250731
0.231839
0.040028
0.0306855
0.115136
0.0331654
0.216051
0.00739995
0.0657092
0.0242444
0.0406191
0.0460534
0.0245684
0.10089
0.0489483
0.23722
0
0.179563
0.077877
0.0488321
0.0795853
0.0186948
0.0588813
0.00419557
0.192619
0.0579743
0.189971
0.1155
0.0957233
0.0856107
0.0394691
0.0414937
0.0130683
0.301641
0.0155325
0.368389
0.229571
0.105062
0.0239891
0.0245323
0.0482019
0.00638716
0.169416
0
0.179438
0.0684726
0.0221832
0.0318409
0.128163
0.124831
0.0416495
0.244627
0
0.126381
0.0603069
0.0191367
0.053227
0.0978049
0.0998146
0.0747583
0.176701
0
0.173549
0.112265
0.0405856
0.166709
0.359054
0.274291
0.141057
0.168256
0
0.0328708
0.138216
0.131353
0.00104611
0.00143922
0.0525217
0.30448
0.312184
0.0579905
0.0142081
0.000528314
0.00104611
0.00732276
0.00435506
0.0312974
0.164013
0.278386
0.0138888
0.00765725
0.00255242
0.00732276
0
0.00713537
0.0727328
0.368855
0.425736
0.0189275
0.0045982
0.00128823
0
0
0.011383
0.0539602
0.122722
0.400625
0.00853232
0.00644116
0.00214705
0
0.00459353
0.0058825
0.0564237
0.0805873
0.261416
0.0389029
0.0265525
0.00919614
0.00620814
0.0175681
0.13651
0.159105
0.061869
0.158274
0.13454
0.0672529
0.0363165
0.0113023
0.00150987
0.0304234
0.147207
0.0638606
0.349708
0.0202425
0.00791499
0.00856856
0.0042009
0.0217305
0.217054
0.538527
0.0819326
0.102914
0.0590293
0.0243329
0.0565116
0.0294063
0.088929
0.156274
0.144332
0.027499
0.0326635
0.0260327
0.022522
0.0234871
0.00507892
0.288853
0.242008
0.157327
0.0318878
0.0167865
0.00699338
0.0095333
0.0264891
0.0508035
0.0277309
0.215291
0.384572
0.118247
0.0160608
0.0103573
0.00491202
0.0137077
0.00713291
0.115266
0.382413
0.394736
0.149845
0.0799486
0.000999055
0.000537952
0
0.0356846
0.144395
0.141164
0.0856921
0.074297
0.0156419
0.0181243
0.0125855
0.00806562
0.0659667
0.236789
0.237873
0.0456512
0.109397
0.0200575
0.0108746
0.0256395
0.0157697
0.063282
0.111888
0.257008
0.305398
0.092536
0.0334189
0.00360106
0.00545097
0.00510569
0.059077
0.40189
0.377144
0.303671
0.128583
0.0120345
0.0086366
0.029234
0.0123855
0.0476036
0.256334
0.142952
0.00432856
0.0115404
0.00221386
0
0.0059358
0.0212785
0.0852673
0.276434
0.0856592
0.00968941
0.00219609
0.0215491
0
0.00395216
0.157125
0.206927
0.442482
0.247946
0.071428
0.0347642
0.00132831
0.00212515
0.0102212
0.00345899
0.046513
0.438779
0.136317
0.0187717
0.00531462
0.00307845
0.00504171
0.0314918
0.18526
0.258107
0.0644913
0.0229943
0.0148869
0.0020216
0.0198369
0.00548298
0.020928
0.223167
0.126873
0.0486264
0.00668827
0.0272867
0.0002888
0.00283384
0.0146072
0.0457329
0.316617
0.123801
0.0823467
0.0410034
0.00975471
0
0.00502531
0.0193705
0.0623236
0.377738
0.194663
0.0131363
0.0285783
0.024783
0
0.0157451
0.0279421
0.197998
0.629068
0.115555
0.023357
0.00445569
0.017865
0
0
0.033145
0.0657132
0.283214
0.108499
0.0160983
0.00558959
0.0171854
0
0.00709498
0.105064
0.128513
0.170536
0.0900957
0.00309899
0.00793197
0.0214579
0
0.00782028
0.0490911
0.305485
0.460556
0.0712377
0
0.00695701
0.0215654
0
0.0028471
0.169454
0.452672
0.264638
0.0587497
0.0272582
0.00737814
0.0221344
0
0.0524823
0.108721
0.201436
0.0821121
0.0422184
0.042087
0.0211261
0.0560538
0.0257424
0.187857
0.0305241
0.209583
0.0869626
0.0472601
0.0032597
0.0120112
0.0396205
0.00836969
0.032368
0.158005
0.509409
0.188911
0.0195331
0.0115413
0.0318557
0.160952
0.12105
0.250357
0.0272177
0.293918
0.121194
0.0143289
0.0160901
0.0332526
0.0869637
0.121085
0.0835962
0
0.0401197
0.0227474
0.0135202
0.0771001
0.164114
0.228304
0.177474
0.0669021
0
0.00178055
0.0264646
0.0551159
0.00316015
0.0657546
0.220385
0.232591
0.121469
0
0.0189783
0.00767932
0.00316015
0.0484693
0.415841
0.448246
0.304449
0.109202
0
0
0
0.0370094
0
0.0043904
0.0374675
0.190807
0.401832
0.110931
0.0284547
0.0096753
0
0
0.0129585
0.0448394
0.0600809
0.327592
0.0615966
0.0585752
0.0228679
0
0
0.0101862
0.096779
0.20194
0.435003
0.168434
0.0423556
0.0151268
0
0
0.0216786
0.072702
0.0889073
0.277255
0.18113
0.134182
0.057832
0
0.00292675
0.0223539
0.0753073
0.0286657
0.231376
0.00821421
0.011544
0.00545214
0.00318646
0.0207792
0.0670096
0.302996
0.128583
0.143254
0.00117346
0
0.00545382
0.0223052
0.00175605
0.00982079
0.0453259
0.118426
0.319697
0.114937
0.0367175
0.0161275
0.00175605
0.0122924
0.0158425
0.202417
0.505115
0.378147
0.0164195
0
0
0.0122924
0.0067654
0.0987646
0.24338
0.115352
0.0494019
0
0
0.00153589
0.00628153
0.0438263
0.295685
0.326559
0.0888584
0.0667195
0
0.00507335
0.000895298
0.00365515
0.0103132
0.067184
0.234347
0.326634
0.192989
0
0
0
0.00346174
0.0892101
0.25826
0.407361
0.213156
0.16926
0.049601
0.0420385
0.00626709
0
0.0749811
0.274392
0.256244
0.0633439
0.0772556
0.00546021
0.0153052
0.0144705
0.0348632
0.129171
0.172969
0.239117
0.185645
0.135358
0.0255124
0.0538433
0.0278257
0.0673669
0.0915418
0.167235
0.147077
0.0972712
0.245439
0.115258
0.0835405
0.0495687
0.0332442
0.124851
0.0408423
0.0321804
0.235029
0.359188
0.087921
0.118516
0.185872
0.192136
0.144087
0.129309
0.0940312
0.0878719
0.0548927
0.00691372
0.0173066
0.0135505
0.0424423
0.169532
0.275752
0.0757951
0.0150736
0.00550139
0.00565074
0.0352959
0.0521961
0.0830461
0.228025
0.128923
0.0640748
0.103467
0.111367
0.00917714
0.0281761
0.0710345
0.1396
0.362547
0.585784
0.164202
0.026489
0.00916899
0.000807248
0.00504228
0.0131791
0.0504282
0.0973569
0.212574
0.0340707
0.0064488
0.0136485
0.0248623
0.0727842
0.13091
0.0609586
0.0462959
0.100897
0.0561499
0.0206508
0.0955396
0.0257483
0.225916
0.376762
0.0390528
0.23912
0.455886
0.164592
0.0464952
0.0145919
0.00355175
0.0179281
0.0257309
0.0135873
0.143334
0.2569
0.244193
0.144556
0.102143
0.00345214
0.0654496
0.131973
0.0244213
0.00129567
0.0126927
0.0309711
0.00440925
0.02664
0.0107536
0.238864
0.282872
0.0224756
0.0043586
0.00166788
0.00581857
0
0.00961467
0.089809
0.360688
0.235167
0.0197059
0.0226808
0.0577522
0.0949356
0.0308648
0.0287966
0.0450255
0.24299
0.171379
0.0302813
0.010531
0.0112595
0.0121569
0
0.088124
0.346774
0.493756
0.169099
0.0211907
0.00942804
0.00252301
0.0153578
0.020416
0.0277442
0.137997
0.302962
0.175122
0.0146884
0.0141013
0.0186861
0.108952
0.102184
0.115505
0.0531059
0.135115
0.0881453
0.016328
0.0137294
0.00128104
0.00851638
0.0265996
0.228819
0.449254
0.270813
0.124531
0.0142596
0.00961398
0.0325366
0.140983
0.215978
0.221413
0.250548
0.0912805
0.0652262
0.00993209
0.00309812
0.0233151
0.129576
0.154857
0.0676384
0.00322112
0.00659294
0.00252761
0.00309812
0.0209098
0.137313
0.297132
0.278075
0.0454933
0
0
0
0.0209098
0.00185887
0.0198173
0.135433
0.267034
0.0830321
0.0181801
0.00832508
0.00239583
0.00185887
0.00298711
0.0370497
0.312562
0.613006
0.136998
0
0
0
0.00298711
0
0.01469
0.124665
0.193109
0.288928
0.169172
0.0385815
0.00819839
0
0
0.0320647
0.0882781
0.0883177
0.178648
0.204102
0.100087
0.0362715
0
0
0.0314958
0.101815
0.260334
0.361052
0.330938
0.057192
0.0138813
0
0
0.0396296
0.122444
0.126367
0.248551
0.183366
0.125171
0.0345221
0
0
0.0051642
0.0290116
0.141521
0.16294
0.135194
0.0304027
0.00965617
0
0
0.00698046
0.0879042
0.452596
0.261576
0.0419622
0.004288
0
0
0
0.0112803
0.0541382
0.154792
0.185045
0.122219
0.0756263
0.00962192
0
0.00550294
0.00447493
0.0418222
0.384424
0.402869
0.205224
0.0404432
0.000633481
0.00550294
0.0083095
0.0190135
0.0982309
0.388364
0.173126
0.00611756
0.000321978
0
0
0.0630509
0.0686825
0.136849
0.304655
0.1463
0.0954249
0.0744781
0.00447029
0
0.00691118
0.00599789
0.0353116
0.355763
0.29076
0.220359
0.0187325
0.00219027
0.0070909
0.0181115
0.0264187
0.0859941
0.307388
0.229776
0.200896
0.133091
0.0313182
0.0193695
0.0439296
0.0304306
0.0373131
0.0792681
0.103987
0.20896
0.186415
0.0705433
0.0255811
0.141497
0.0455537
0.0589066
0.0789567
0.093841
0.123288
0.165933
0.267114
0.161886
0.052177
0.0277069
0.100426
0.109749
0.0350415
0.132888
0.296531
0.0947071
0.0886518
0.414036
0.107419
0.201203
0.0839167
0.00265266
0.0674218
0.187883
0.170967
0.221255
0.192507
0.130632
0.117965
0.0639661
0.0206998
0.00701201
0.0227356
0.0891591
0.102077
0.290205
0.420586
0.168054
0.047226
0.00372836
0
0
0.0150342
0.0461
0.319623
0.158926
0.156674
0.0486578
0
0.00354278
0.0106135
0.0516297
0.12361
0.304544
0.265301
0.125008
0.0369951
0.00764585
0
0
0.0738345
0.259481
0.223924
0.449446
0.144576
0.0249464
0.0107094
0
0.00398705
0.0115365
0.0308309
0.16031
0.27102
0.143311
0.0653956
0.029468
0
0.0373329
0.0232059
0.0416678
0.258183
0.238862
0.0762124
0.00407515
0.027515
0
0.00535069
0.0933489
0.283846
0.200752
0.113238
0.0557233
0
0.0741801
0.0296748
0.0775353
0.175187
0.192505
0.034669
0.0509263
0.0428808
0.016383
0.0454675
0.0468938
0.125787
0.0265076
0.0221504
0.00546096
0.0129896
0.0136693
0.0115637
0.267181
0.422424
0.256346
0.0293002
0.00520031
0.0258892
0.0151286
0.0436361
0.0577585
0.120329
0.0407798
0.0556466
0.0457427
0.0272667
0.000929754
0.0114995
0.0665458
0.31114
0.521149
0.263253
0.0431016
0.00672613
0.000607867
0.00126236
0.00343456
0.0105299
0.00816804
0.275424
0.325746
0.0906933
0.0175989
0.00126236
0.000180337
0.0118396
0.0493568
0.0824965
0.22674
0.150499
0.0806016
0.0268934
0.000180337
0
0.0220733
0.0541539
0.161194
0.46889
0.213003
0.0216371
0.00513532
0
0
0.019831
0.065373
0.0646678
0.456251
0.0773047
0.0556521
0.0233754
0.00096201
0
0.0117364
0.0513773
0.126963
0.10687
0.0190631
0.0254154
0.00693909
0
0
0.0111485
0.0888995
0.289694
0.385206
0.0152778
0.00360217
0.00144961
0
0
0.00782809
0.0320224
0.0486012
0.242637
0.0478655
0.0338311
0.0169063
0.000746027
0
0.00526301
0.0184611
0.0614501
0.675195
0.205876
0.0288904
0.010427
0.000106575
0
0.0806422
0.232994
0.319215
0.240441
0.103675
0.0221635
0.00772334
0
0
0.0233283
0.117435
0.169091
0.207745
0.0331771
0.106622
0.0339718
0
0.00559964
0.0695634
0.248815
0.237535
0.219686
0.219237
0.0542194
0.0129773
0.00559964
0.00933273
0.0501743
0.216795
0.147312
0.214123
0.0147548
0.0850026
0.0281235
0.00933273
0
0.011393
0.06875
0.141841
0.184722
0.0558164
0.0806187
0.0145825
0
0.0290164
0.00107227
0.0221675
0.189509
0.393588
0.268762
0.121794
0.00697307
0.0290164
0.00107874
0.0175334
0.101292
0.113201
0.227165
0.0218842
0.109029
0.030708
0.00107874
0.0264036
0.00190255
0.0230168
0.0585952
0.386122
0.192483
0.296677
0.056942
0.0264036
0.0162078
0.000134503
0.00333953
0.06454
0.165598
0.310004
0.0872951
0.00412331
0.0187732
0.0023154
0.0115705
0.0629319
0.0860331
0.120636
0.302
0.133731
0.0271507
0.0202733
0.0147484
0
0
0.00235011
0.166375
0.323374
0.172439
0.0115731
0.0151149
0.00210691
0.00402853
0.0397059
0.0473562
0.122109
0.533775
0.294786
0.0675621
0.00852969
0.0267117
0.0385556
0.198079
0.174473
0.0323464
0.0577499
0.0899129
0.031878
0.0419263
0.293175
0.119138
0.285558
0.186744
0.0138401
0.0130851
0.0334679
0.0174957
0.0898967
0.00684249
0.0393979
0.187265
0.169196
0.120028
0.257275
0.161139
0.078358
0.0118886
0.07596
0.145967
0.364124
0.155809
0.118187
0.216375
0.139005
0.102424
0.0617286
0.297438
0.141032
0.112292
0.0615827
0.00304672
0.00457008
0.00118118
0.00843218
0.103863
0.266698
0.105207
0.0317989
0.0306869
0.0122603
0.00304835
0.0129001
0.0593738
0.359138
0.148437
0.152059
0.194349
0.0593778
0.0289064
0.0571611
0.0607171
0.117446
0.175808
0.273029
0.112843
0.0807232
0.0318691
0.00796997
0.0213384
0.0568005
0.112185
0.416965
0.146786
0.0292965
0.00954667
0.0036753
0.0426271
0.0410046
0.0484404
0.11343
0.305171
0.0946354
0.0130624
0.0105111
0
0.102843
0.241211
0.130157
0.229454
0.171524
0.131552
0.0592181
0.0815186
0.00324567
0.102476
0.143105
0.100296
0.114765
0.188223
0.042596
0.0560877
0.117338
0.0707289
0.334114
0.405911
0.124866
0.116062
0.0544273
0.00729544
0.00312333
0.0430529
0.0863777
0.0766055
0.113698
0.0337723
0.0424212
0.012983
0
0.00785971
0.103044
0.451617
0.198151
0.0470167
0.00227285
0.000757616
0
0.0150482
0.0301783
0.1532
0.141942
0.171104
0.149678
0.019346
0.0162831
0.0158768
0.0101579
0.0381212
0.307214
0.588338
0.124431
0.0293138
0.000298047
9.93489e-005
0.0101579
0
0.0236534
0.0855649
0.348359
0.242933
0.0304504
0.000633862
0.000211287
0
0.00365223
0.0159225
0.0784337
0.218941
0.241383
0.0130067
0.00756804
0.0428857
0.00822357
0.00392925
0.0268908
0.170926
0.540871
0.130219
0
0.00443703
0.00147901
0.00308929
0.0558551
0.0466348
0.106838
0.349283
0.100921
0.0124418
0.0377587
0.0533129
0.0547486
0.00421081
0.00199511
0.0335735
0.117868
0.223018
0.059514
0.016171
0.0517326
0.0094813
0.000601545
0.000285016
0.0193791
0.0567197
0.39439
0.434195
0.0866706
0.0245489
0.00171369
0.0704702
0.0162406
0.0316905
0.114364
0.107969
0.123721
0.0516239
0.0571451
0.0734797
0.0360599
0.0046226
0.0117573
0.0352527
0.157441
0.436631
0.2469
0.0972841
0.0208702
0.0129325
0.0156498
0.0596408
0.0684267
0.27564
0.268773
0.0692656
0.0122901
0.0129325
0.0215541
0.0428774
0.181969
0.0943469
0.156854
0.0208404
0.0306246
0.00972164
0.0215541
0.0147982
0.0151298
0.132798
0.31348
0.474895
0.135383
0.0525395
0.0150641
0.0147982
0.0278805
0.0324461
0.17297
0.135889
0.266105
0.0361237
0.0432482
0.0112205
0.0278805
0.00419689
0.0244311
0.135777
0.0978457
0.167291
0.00106304
0.12985
0.0424564
0.00419689
0.00272201
0.00489894
0.0277964
0.0146393
0.261455
0.197155
0.324014
0.081777
0.00272201
0.0113875
0.0254516
0.136379
0.0940734
0.237177
0.0390489
0.127222
0.0333963
0.0113875
0.0226066
0.0409847
0.113987
0.00999239
0.151006
0.143595
0.369437
0.160529
0.0252362
0.00462662
0
0
0
0.090688
0.243669
0.145307
0.0250701
0.00462662
0.00570724
0
0.00743255
0.0177442
0.0561185
0.367278
0.358494
0.204737
0.0190712
0.0245336
0.00518399
0.0120556
0
0.016381
0.15065
0.196083
0.116682
0.0279869
0.0180471
0
0.0019479
0.0045451
0.00437108
0.173974
0.416534
0.338355
0.0477807
0.000943726
0.00485413
0.0220616
0.0312262
0.0282615
0.115795
0.200497
0.155924
0.0110115
0.00961113
0.0158395
0.050897
0.0199736
0.0355283
0.100821
0.196144
0.205879
0.0669531
0.00203282
0
0.00380094
0.00886887
0.000414002
0.0394462
0.240056
0.404443
0.0442592
0.0172411
0
0.00228057
0.00532132
0.00189898
0.0208033
0.194363
0.589836
0.233354
0.0822912
0.0183991
0.0411422
0.00710016
0.0121361
0.0290628
0.0829549
0.164567
0.180954
0.272215
0.0567284
0.0312994
0.0042601
0.000325062
0.00617616
0.0289273
0.0605432
0.234823
0.0972416
0.0221673
0
0
0.000851886
0.00404657
0.0797599
0.270908
0.402042
0.452602
0.158082
0.00331064
0
0
0
0.0317578
0.0686844
0.341386
0.142264
0.107311
0.0569512
0.00190211
0.0352767
0.0283708
0.0155436
0.0311707
0.0529076
0.0410704
0.14454
0.197159
0.0579058
0.09954
0.0752633
0.012022
0.0176828
0.00746233
0.329855
0.344142
0.0202131
0.00114127
0.00939082
0
0.00517041
0.0163569
0.0694114
0.144326
0.626482
0.244362
0.0219669
0.0216842
0.0174314
0
0.00640621
0.0192391
0.0171012
0.109132
0.29589
0.0807299
0.0619335
0.0458274
0.00607242
0.0023974
0.0141251
0.0155502
0.133924
0.380483
0.233118
0.0264649
0.00753281
0.0151237
0.00504124
0.0152758
0.0336629
0.269984
0.393541
0.0343147
0.0165709
0.0170508
0.0181384
0.00604615
0.0176429
0.0137874
0.218282
0.458733
0.0977246
0.00828911
0.00243583
0.0457422
0.0152474
0.0112597
0.0151848
0.0986759
0.296387
0.307136
0.0550816
0
0.0107103
0.0035701
0.0117305
0.0661274
0.139591
0.204668
0.184791
0.0851623
0.0152602
0.0349148
0.0171262
0.0514882
0.0178688
0.212377
0.437375
0.145955
0.022563
0
0.0188442
0.00628139
0.00703833
0.0384956
0.196714
0.338127
0.0839063
0.0620523
0.00615258
0.0212074
0.0257668
0.0252679
0.0697304
0.042245
0.051066
0.046157
0.0553274
0.0824658
0.0945078
0.0533162
0.0686129
0.0422346
0.00580699
0.00277938
0.00416907
0.0931711
0.255944
0.272939
0.111991
0.0283178
0.0292091
0.0607969
0.115563
0.024432
0.0389239
0.0396831
0.189145
0.143306
0.0417143
0.00991413
0.00707757
0.0204116
0.00250144
0.0636351
0.219947
0.534898
0.319963
0.0447482
0.0243611
0.00448995
0.178899
0.372664
0.23387
0.0101507
0.0644995
0.0266326
0.0243611
0.056099
0.0139469
0.0653347
0.0487333
0.18816
0.0345568
0.0935865
0.0263783
0.056099
0.0345842
0.000645786
0.0924921
0.271752
0.416256
0.0123692
0.0975403
0.0332652
0.0345842
0.0549271
0.0152933
0.0520556
0.0165952
0.214393
0.00493669
0.19595
0.0638184
0.0549271
0.0357206
0.0238454
0.079431
0.00857958
0.163913
0.0371834
0.0712541
0.0118942
0.0357206
0.0506489
0.0593834
0.167162
0.000781483
0.185944
0.0175407
0.128418
0.109996
0.0611962
0.0485966
0.0189019
0.0593082
0
0.254363
0.00531192
0.0681626
0.0186575
0.0485966
0.0560657
0.0320071
0.134157
0.0539415
0.616469
0.000758846
0.0233704
0.054536
0.066384
0.0459106
0.0164165
0.044612
0
0.0380111
0.0676159
0.148269
0.205227
0.0731831
0.0192266
0.00761539
0.0156398
0
0.00168612
0.184025
0.282357
0.330118
0.134857
0.0460213
0.013161
0.0662067
0.0404974
0.189501
0.0260266
0.0785573
0.206952
0.080483
0.0377163
0.0263421
0.0332764
0.00578535
0.0323461
0.112918
0.274877
0.409784
0.179867
0.00658453
0.00817827
0.00989291
0
0.00397701
0.0929258
0.142967
0.329601
0.100303
0.0432487
0.00507509
0.00381591
0.00720792
0.0280354
0.102914
0.136577
0.488738
0.336487
0.0515535
0.0413637
0.0233013
0
0.0322968
0.100865
0.159635
0.168336
0.115811
0.126699
0.0593451
0.0163981
0.0120132
0.0820769
0.171711
0.250214
0.101969
0.181782
0.0647783
0.0309426
0.00762873
0.0228862
0.0217107
0.018973
0.0438229
0.211222
0.433986
0.384803
0.23855
0.0334288
0.0505358
0.003629
0
0.0155717
0.0745435
0.331673
0.122506
0.0785785
0.0297407
0.0381437
0.0408414
0.0443266
0.10065
0.0704336
0.188665
0.188615
0.222794
0.109107
0.0913944
0.00604834
0.00110934
0.0611011
0.068112
0.15858
0.357329
0.31833
0.0482029
0.0650989
0.0240985
0.00772113
0.00401894
0.0046238
0.0771748
0.197402
0.499004
0.142666
0.0712214
0.0461876
0.0253621
0.0150869
0
0.0787057
0.141456
0.142486
0.111118
0.115773
0.018433
0.0540479
0.0363295
0.0545203
0.0774449
0.119728
0.115898
0.143973
0.138886
0.0358502
0.157018
0.138264
0.0659748
0.135632
0.149078
0.272054
0.234867
0.0429408
0.0378678
0.0227713
0.0635456
0.010409
0.127783
0.0690829
0.162114
0.432644
0.136897
0.0530737
0.00892505
0.0696595
0.0293162
0.0679572
0.150548
0.0636357
0.11359
0.137627
0.0387018
0.0800652
0.170745
0.062993
0.200179
0.120863
0.0469521
0.209345
0.0954306
0.11225
0.0148751
0.136485
0.128019
0.138368
0.0137059
0.138454
0.388366
0.15085
0.0875194
0
0.0192054
0.0130076
0.00890472
0.0227856
0.121353
0.300859
0.0417134
0.106361
0
0.0488725
0.0276902
0.020068
0.0440004
0.0449504
0.199605
0.031046
0.165039
0
0.148813
0.0958449
0.0491383
0.0385294
0.0341301
0.109316
0.0040567
0.199271
0
0.3344
0.111467
0.0385294
0.0227088
0.0450511
0.124112
0.00284295
0.0405078
0.00924727
0.148433
0.0732238
0.0290588
0.0133128
0.0217118
0.0651355
0
0.0332129
0.117258
0.578929
0.265347
0.02946
0.0415641
0.017164
0.0514921
0
0.173098
0.000232236
0.173373
0.0563202
0.0415641
0.0614163
0.0421905
0.126571
0
0.195232
0.0630276
0.211784
0.0788041
0.0614163
0.0625742
0.00946046
0.0700112
0.248523
0.358917
0.00872935
0.0594407
0.0198136
0.0625742
0.0480819
0.0389732
0.120961
0.00820248
0.189502
0
0.142046
0.0473487
0.0480819
0.10612
0.0390301
0.150847
0.170043
0.228294
0.0781958
0.0886551
0.0221267
0.10612
0.0875728
0.0786589
0.262437
0.00363694
0.14374
0
0.133252
0.0436014
0.0875728
0.0211281
0.0172269
0.0516807
0
0.191658
0
0.0518917
0.0172972
0.0211281
0.0258273
0.0135352
0.0940988
0.0802397
0.505867
0.0301193
0.0367863
0.011401
0.0266781
0.0389941
0.0338377
0.11165
0.0114729
0.135872
0
0.0855576
0.0285192
0.0389941
0.0435143
0.0372213
0.166187
0.110467
0.464375
0.0501989
0.0838624
0.0269373
0.0435143
0.055855
0.00670107
0.0835386
0.095153
0.254696
0.0393146
0.10874
0.0758806
0.0633458
0.0672069
0.0194343
0.041438
0.0135933
0.174052
0.0321554
0.215777
0.209179
0.13027
0.118365
0.0257311
0.11605
0.0707972
0.285677
0.0740621
0.121889
0.037809
0.118365
0.135771
0.0307371
0.0977949
0.00510878
0.308052
0.0327262
0.158704
0.0567735
0.142507
0.0959828
0.0414403
0.0522595
0
0.11186
0.0311923
0.15469
0.165785
0.144209
0.188084
0.0875938
0.0400561
0.00354218
0.0721308
0.146161
0.353724
0.14198
0.162404
0.0626199
0.0255513
0.0827064
0
0.190275
0.00335179
0.146625
0.11195
0.0756869
0.0950638
0.0189475
0.0386932
0
0.135109
0.093126
0.248383
0.170781
0.103236
0.176
0.0979796
0.0469832
0.0115772
0.0269464
0.102993
0.192447
0.051033
0.121359
0.207955
0.122031
0.155119
0.0692627
0.0106279
0.0123263
0.139511
0.101977
0.175183
0.119977
0.0252507
0.0118031
0
0.148584
0.0933103
0.127767
0.0455752
0.113575
0.317453
0.0464699
0.0869348
0.0262192
0.0827301
0.01333
0.125594
0.0604577
0.311363
0.113732
0.114876
0.126398
0.0737761
0.00520091
0.0425703
0.0812072
0.162532
0.112412
0.0939442
0.198736
0.12836
0.0717016
0.0228123
0.120481
0.284604
0.185266
0.152641
0.16083
0.0802734
0.152596
0.0254029
0.0573918
0
0.113708
0.0895223
0.159321
0.0712133
0.152383
0.175937
0.0237726
0.189719
0
0.211273
0.0991002
0.0682081
0.0502978
0.0552856
0.0629635
0.096382
0.0365138
0.0351475
0.267114
0.109909
0.121644
0.0680392
0.0339222
0.117542
0.0553102
0.122353
0.00298686
0.237088
0.133901
0.084753
0.0583818
0.049569
0.0834746
0.0539775
0.125749
0
0.215044
0.0738539
0.0665708
0.0713945
0.0703806
0.124997
0.0323865
0.381997
0
0.230689
0.158457
0.0843877
0.0371136
0.0431974
0.131032
0
0.0901001
0
0.172938
0.0775031
0.0390937
0.0597732
0.0157207
0.0471621
0
0.155082
0.011429
0.323375
0.111033
0.0603612
0.0598126
0.0580336
0.138814
0
0.3296
0
0.117637
0.0766108
0.0643797
0.123857
0.0270325
0.0810975
0
0.320077
0.0190483
0.23522
0.142921
0.131405
0.0470696
0.00169251
0.00507754
0
0.213864
0.0302678
0.193399
0.0744588
0.0486269
0.0654771
0.0157656
0.0472967
0
0.310465
0.0266555
0.0793041
0.0322776
0.0664115
0.0490407
0.00186827
0.00560481
0
0.23593
0.0570227
0.25719
0.20176
0.0645603
0.0703209
0.00055971
0.00167913
0
0.349537
0.076302
0.235754
0.158522
0.0825087