0.0594268
0.0153819
0.0424108
0.0442215
0.0258764
0.115716
0.252454
0.390407
0.123294
0.0366216
0.0206443
0.019972
0.0366467
0.0472095
0.091577
0.25623
0.383603
0.0422495
0.212785
0.0356174
0.0784027
0.0744383
0.0431273
0.0849197
0.116362
0.18975
0.346619
0.0783904
0.091217
0.0493359
0.0950796
0.0797222
0.0974643
0.147183
0.249336
0.136657
0.0760999
0.0930658
0.11481
0.108504
0.0359279
0.0737175
0.105705
0.266104
0.0319786
0.0521344
0.161877
0.132126
0.215662
0.137488
0.109979
0.0590193
0.157294
0.0998957
0.135198
0.212265
0.22602
0.173684
0.0420456
0.0489261
0.0847145
0.166424
0.0834226
0.159105
0.328978
0.26033
0.171496
0.0775862
0.107133
0.128441
0.0985812
0.127745
0.0419586
0.0425377
0.0127632
0.0414732
0.0565295
0.100853
0.125125
0.141365
0.101
0.0822388
0.0274621
0.00822459
0.034766
0.0505278
0.0602398
0.153473
0.221589
0.180078
0.186253
0.0852997
0.0289568
0.0233412
0.0440728
0.0930887
0.159357
0.0848642
0.217089
0.260988
0.0843825
0.0210296
0
0.0267947
0.0494347
0.1355
0.303893
0.563109
0.0559976
0.00941877
0.00320564
0.024126
0.063093
0.0626012
0.107864
0.17015
0.125188
0.100661
0.0283
0.0316346
0.0393104
0.0621693
0.124016
0.169655
0.214988
0.23692
0.0824794
0.041518
0.00819657
0.0053436
0.0345522
0.129775
0.150215
0.361609
0.263444
0.070395
0.015945
0.035354
0.0724368
0.138584
0.331625
0.256613
0.337458
0.119989
0.102022
0.176702
0.108408
0.0458664
0.0438064
0.0406389
0.0440893
0.096952
0.135415
0.112772
0.388397
0.232912
0.0708193
0.101697
0.0562962
0.00194719
0.0443247
0.0779927
0.0625344
0.140249
0.0940142
0.0957665
0.116978
0.1871
0.101912
0.127043
0.128068
0.122771
0.408162
0.314135
0.241232
0.0939777
0.126626
0.0397155
0.0548391
0.136177
0.196707
0.160844
0.134065
0.033708
0.0375512
0.0223574
0.00117285
0.0597905
0.152138
0.315019
0.115017
0.0752199
0.0209336
0.0102885
0.0372112
0.0229418
0.0608605
0.330394
0.250445
0.218224
0.274577
0.138155
0.0203928
0.0388148
0.0572384
0.0283253
0.0520845
0.40174
0.18681
0.171652
0.0221375
0.109992
0.129144
0.0673924
0.0653825
0.186788
0.135375
0.0628086
0.01683
0.0137144
0.01327
0.0467032
0.0224795
0.0475812
0.217803
0.20786
0.10251
0.00214259
0.00195921
0.0500812
0.0533486
0.0375679
0.155559
0.29071
0.120149
0.0888952
0.0717707
0.0106491
0.164037
0.235536
0.0612949
0.0506887
0.144811
0.299133
0.303131
0.0831882
0.0095185
0.373315
0.241403
0.0615484
0.195988
0.264862
0.154049
0.0509138
0.00776287
0.0138806
0.0119729
0.00510475
0.016658
0.0581758
0.213349
0.111156
0.0508991
0.0317541
0.0294063
0.00867105
0.0133919
0.0196732
0.123537
0.253407
0.335446
0.172164
0.0100671
0.00330378
0.0810649
0.0198785
0.00773819
0.155844
0.412098
0.310548
0.177561
0.0600838
0.0146448
0.0475925
0.0770253
0.0457584
0.258511
0.433877
0.0823141
0.029886
0.02117
0.0122072
0.0366965
0.0466747
0.038149
0.209775
0.290824
0.168035
0.0873957
0.0276326
0.00507532
0.0424653
0.0690123
0.0166818
0.107377
0.287407
0.111082
0.13054
0.119467
0.0885541
0.239777
0.22908
0.120925
0.22601
0.156552
0.0846838
0.125747
0.0507538
0.217846
0.410369
0.190548
0.0897262
0.0798548
0.170086
0.14028
0.0413154
0.07165
0.0595716
0.0502422
0.026162
0.0277586
0.160794
0.322003
0.16276
0.169519
0.0955752
0.112353
0.0520903
0.028134
0.027851
0.1706
0.202664
0.0780192
0.0462056
0.115184
0.273279
0.129863
0.0159232
0.0817273
0.106537
0.220681
0.145719
0.255697
0.184954
0.338504
0.14693
0.0244104
0.0616007
0.117194
0.170316
0.145822
0.0907275
0.113002
0.0891024
0.0373546
0.0176742
0.0402319
0.0900538
0.14118
0.143347
0.0743881
0.115277
0.0487314
0.0419662
0.0934486
0.158813
0.128053
0.191005
0.116181
0.131156
0.103334
0.0801855
0.0947094
0.180952
0.110806
0.18835
0.193967
0.109652
0.114017
0.0573641
0.0363294
0.242939
0.447328
0.232296
0.148907
0.195664
0.209788
0.0637758
0.0130187
0.00194555
0.00883764
0.0411553
0.108224
0.0428989
0.167325
0.287586
0.108654
0.0194661
0
0.00057182
0.0193972
0.0717539
0.103369
0.38371
0.253408
0.127407
0.0240186
0.00271537
0.091612
0.0994968
0.0576119
0.0193875
0.146801
0.411668
0.187592
0.0571725
0
0.00816939
0.00586367
0.0113212
0.0404729
0.389681
0.078774
0.0434162
0.00536667
0.0012871
0.0053512
0.0864287
0.0709522
0.108559
0.174669
0.150014
0.0632575
0.00446825
0.0217133
0.0318372
0.208034
0.0990713
0.165675
0.0811572
0.312082
0.114986
0.0244948
0
0.000966752
0.0189761
0.00946917
0.0437112
0.251299
0.674775
0.196891
0.00574732
0.00606149
0.00161125
0.039579
0.0115554
0.0793498
0.119188
0.135998
0.161318
0.0212864
0.0528877
0.0443311
0.149365
0.0569709
0.116256
0.118947
0.156128
0.30452
0.109854
0.100799
0.0247393
0.0887181
0.0542258
0.0876716
0.153988
0.485543
0.247263
0.0076137
0.0230705
0.00886249
0.0190194
0.00524695
0.0563448
0.0907328
0.379718
0.171799
0.0144593
0.0274673
0.0143089
0.0212052
0.025064
0.0836872
0.255539
0.120068
0.105192
0.139174
0.049019
0.00123771
0.0662858
0.0963532
0.106476
0.0969043
0.236339
0.052117
0.155835
0.0241342
0.0991903
0.120508
0.0838223
0.146107
0.224649
0.159309
0.025178
0.0169451
0.00504303
0.00178134
0.0386575
0.047809
0.19911
0.295816
0.199078
0.0267968
0.0684827
0.0120409
0.026982
0.0349652
0.055524
0.420569
0.447995
0.0918281
0.0442593
0.064933
0.0211431
0.135831
0.0867898
0.019086
0.0619694
0.109822
0.341502
0.233375
0.0645001
0.0188984
0.224577
0.0683574
0.018531
0.126027
0.166926
0.142541
0.0680828
0.0665164
0.020308
0.0641093
0.0096749
0.0128228
0.141291
0.192771
0.586502
0.2972
0.0508765
0.0227322
0.077266
0.0141884
0.0302831
0.0870621
0.18208
0.365059
0.199658
0.00710251
0.00205866
0.0533753
0.0148199
0.0368553
0.143882
0.195721
0.352148
0.186972
0.0440344
0.0114186
0.0638684
0.0629489
0.0840615
0.147421
0.215193
0.365477
0.187574
0.027029
0.00249839
0.0117362
0.0453946
0.159233
0.101528
0.079647
0.202705
0.0642486
0.0237883
0.00918745
0.0748894
0.090567
0.264263
0.191475
0.234371
0.131717
0.121783
0.101769
0.0961468
0.238416
0.151161
0.0836056
0.0887416
0.076781
0.119415
0.0893327
0.0375744
0.191862
0.362614
0.163903
0.089937
0.0122341
0.0284329
0.181487
0.0660469
0.0236643
0.0532559
0.192397
0.111142
0.138799
0.159312
0.373178
0.210751
0.269596
0.0176505
0.0712944
0.173446
0.123172
0.132317
0.0528103
0.157327
0.0899973
0.0314674
0.0327225
0.174908
0.0717806
0.0286154
0.153156
0.102079
0.0823769
0.123563
0.0771894
0.093575
0.151586
0.0864144
0.0197865
0.143803
0.145186
0.168391
0.123439
0.169018
0.0631336
0.0606401
0.0521598
0.19629
0.396187
0.116403
0.0508528
0.184828
0.0669549
0.101979
0.0276605
0.0964118
0.250224
0.38698
0.232013
0.184765
0.0747861
0.105354
0.0874978
0.0391641
0.0417265
0.0949731
0.04692
0.0786496
0.106929
0.0746511
0.114691
0.048374
0.0789863
0.115957
0.350767
0.0789356
0.0306656
0.0530022
0.158603
0.236677
0.126786
0.0378449
0.0881708
0.142615
0.0768658
0.0970642
0.0897902
0.199007
0.268354
0.335985
0.427942
0.119833
0.240453
0.0517701
0.0372975
0.0498349
0.0700871
0.0944257
0.0350205
0.074883
0.0696378
0.162435
0.0198689
0.000434949
0.02658
0.126826
0.258017
0.126597
0.0352773
0.00825531
0.0143881
0
0.00459684
0.0594048
0.0641061
0.110214
0.302919
0.435563
0.0690272
0.141569
0.00737324
0.00153653
0.0172519
0.0793929
0.347824
0.47519
0.197729
0.0172049
0.0173446
0
0
0.00909012
0.166083
0.218954
0.0852048
0.0108344
0.00375514
0
0
0.00509855
0.0472455
0.421927
0.302545
0.0261851
0.0220455
0.00703587
0
0
0.00152362
0.0362857
0.121959
0.303545
0.312687
0.0948486
0.049475
0.00211769
0
0.0143183
0.0131452
0.318949
0.377891
0.102305
0.159737
0.0991055
0.0316179
0.0438364
0.124173
0.0601518
0.353723
0.125024
0.00167531
0.00643621
0.00711071
0
0
0.000507603
0.107343
0.256215
0.0185119
0.00359341
0.010243
0.00983506
0
0.00134707
0.0569281
0.400327
0.332762
0.122265
0.00188211
0.0350195
0.046224
0.0355374
0.0676178
0.0690901
0.157639
0.274262
0.0242257
0.0021763
0.00146329
0.0121046
0.013622
0.0365326
0.140552
0.490715
0.0598265
0.00228577
0.00165501
0.00342206
0.00120877
0
0.0170071
0.185412
0.246951
0.0271376
0.0186854
0.0180735
0.000536256
0
0
0.0849844
0.31895
0.155789
0.0864485
0.018221
0.00200499
0.000488866
0.000172681
0
0.0947764
0.323998
0.240521
0.0464258
0.0138703
0.00383477
7.6608e-005
0
0.00198646
0.445894
0.522191
0.0763316
0.0629092
0.0396301
0.0496295
0.0132094
0.0264739
0.0076134
0.0765145
0.146649
0.135797
0.308733
0.178321
0.0780162
0.0590183
0.0972409
0.0485203
0.0623045
0.0357567
0.0753295
0.0118436
0.00504778
0.00579842
0.00519668
0.033805
0.0645896
0.411321
0.319918
0.0735846
0.0889903
0.0567864
0.060802
0.0732236
0.248925
0.419657
0.322201
0.119985
0.0389854
0.264297
0.135983
0.0725066
0.0332168
0.0450725
0.0644167
0.0982265
0.0458241
0.102431
0.149383
0.0392327
0.0294569
0.0073719
0.0425194
0.0727993
0.185206
0.225459
0.389097
0.190733
0.0899829
0.0639381
0.0523411
0.204857
0.29046
0.167745
0.0945627
0.119958
0.173647
0.137055
0.0733798
0.0195647
0.191775
0.155138
0.128389
0.231677
0.27098
0.0882511
0.0801515
0.0175177
0.0169108
0.0717093
0.0327568
0.106357
0.148316
0.340749
0.0972059
0.264332
0.0466684
0.0335399
0.0872984
0.0513036
0.085721
0.126038
0.219326
0.0753256
0.157361
0.0737286
0.0722954
0.182304
0.06797
0.0747306
0.254156
0.157917
0.195825
0.262472
0.100575
0.145436
0.217609
0.121673
0.0629086
0.307024
0.244573
0.0631149
0.0627181
0.0178126
0.00497607
0.0265351
0.148723
0.286684
0.166338
0.0290959
0.0640905
0.0249379
0.0272814
0.0182757
0.0899225
0.196443
0.310312
0.147975
0.0280897
0.117485
0.0496684
2.39139e-005
0.013023
0.0107606
0.0506989
0.300097
0.346415
0.265245
0.261581
0.0783636
0.00644009
0.122778
0.0719002
0.0560943
0.272458
0.168051
0.247546
0.0879848
0.106894
0.0751792
0.039449
0.0977134
0.119799
0.0953073
0.0482724
0.00985721
0.118552
0.143239
0.483247
0.309818
0.0505127
0.0525989
0.0437608
0.0189043
0.0051656
0.1708
0.0788551
0.0659546
0.145898
0.152478
0.0437578
0.066303
0.0351563
0.0976486
0.0925744
0.126353
0.401445
0.365779
0.169173
0.0138627
0.0229534
0.00538096
0.027301
0.0186642
0.0411108
0.347824
0.222944
0.0141487
0.00912807
0.000725096
0.00108764
0.00343037
0.0270751
0.146873
0.42094
0.108869
0.0376563
0.00130401
0
0
0.00643449
0.00937262
0.0450537
0.32201
0.311218
0.0498472
0.000491889
0.000103585
0.000155378
0.000293702
0.0136343
0.144146
0.431736
0.284577
0.155005
0
0
0
0.000919213
0.104965
0.203962
0.287211
0.0981647
0.149778
0.00904446
0.0100358
0.0255512
0.0151863
0.142914
0.176286
0.150097
0.116882
0.217025
0.113315
0.076164
0.161791
0.0442929
0.0621467
0.138659
0.188559
0.187707
0.376154
0.0565489
0.0475514
0.0293073
0.00253713
0.0911949
0.108051
0.194045
0.120459
0.27317
0.240388
0.182306
0.202018
0.0432328
0.0761175
0.0767545
0.0583856
0.0361699
0.126254
0.111529
0.0906576
0.0893275
0.0553279
0.229235
0.184074
0.0235807
0.00303027
0.0372196
0.0386645
0.0468114
0.0622334
0.111126
0.0549958
0.200349
0.192352
0.0647254
0.0941761
0.131094
0.0820875
0.12568
0.0802967
0.423977
0.585398
0.157581
0.0464698
0.0279149
0.0323787
0.0140219
0.0296394
0.0704243
0.2529
0.11021
0.0134395
0.00298939
0
0.00560269
0.0617449
0.103819
0.0806017
0.171583
0.0263081
0.0141394
0.0429935
0.0130804
0.0625482
0.336413
0.268126
0.0826207
0.471608
0.327216
0.0821912
0.0261886
0
0.00933781
0.00886173
0.0275302
0.0653752
0.257337
0.169221
0.122089
0.241398
0.0456069
0.123626
0.0889948
0.0532259
0.100093
0.0134999
0
0.0016656
0.0208451
0.0171211
0.134495
0.246291
0.140113
0.0143254
0.00220056
0.00180046
0.00522243
0.00882283
0.0645361
0.323466
0.310043
0.0731666
0.00204065
0.0167547
0.0176142
0.0179845
0.10251
0.0414977
0.317702
0.127919
0.0271301
0.0119925
0
0
0
0.00934118
0.0426299
0.612541
0.295771
0.0227365
4.03492e-005
0.0522973
0.0226486
0.0160319
0.00755083
0.0883253
0.240809
0.33953
0.132741
0.0537739
0.0795513
0.136899
0.0867877
0.00617546
0.0958908
0.106708
0.173571
0.155743
0.115683
0.00875066
0.00638439
0.00468137
0
0.125613
0.392163
0.387302
0.0720846
0.0262237
0.0707798
0.0478573
0.0366399
0
0.204467
0.195483
0.28937
0.131613
0.177017
0.0455552
0.0920509
0.0649261
0.030787
0.0759584
0.054356
0.041023
0.293117
0.140947
0.245305
0.133557
0.0500938
0.0666821
0.0823128
0.0475288
0.0253518
0.326835
0.292712
0.148003
0.0282642
0.0275549
0
0.0528673
0.0492832
0.135431
0.250161
0.279178
0.212364
0.0779837
0.0983139
0.00120773
0.023251
0.0184742
0.104503
0.282578
0.301945
0.136654
0.0511977
6.21623e-005
0.0090983
0.0180997
0.0198997
0.132187
0.14797
0.363645
0.308146
0.090219
0.00268932
0.0632991
0.146673
0.0463119
0.0601525
0.0536947
0.43248
0.0629459
0.0366954
0.0178055
0.120259
0.105348
0.0493648
0.129286
0.0470048
0.196865
0.08419
0.0801582
0.019695
0.117532
0.38155
0.114425
0.0471921
0.0674717
0.223703
0.163446
0.0315302
0.0170439
0.102635
0.215948
0.0290312
0.00520393
0.0131549
0.227606
0.0459776
0.0281394
0.0719663
0.277451
0.391429
0.0383494
0.000730732
0.001315
0.069423
0.0467346
0.111273
0.043783
0.0698149
0.281883
0.0709229
0.00479759
0.0438279
0.153283
0.011995
0.0642964
0.0269716
0.151003
0.52475
0.222707
0.0073257
0.00582574
0.04231
0.00122432
0.00903983
0.0676203
0.225941
0.231831
0.0126333
0.000155352
0
0
0.00168352
0.0292079
0.115172
0.23436
0.306584
0.0146342
0.00929136
0.00025074
0
0
4.21463e-005
0.00273537
0.0823004
0.49321
0.141068
0.00181867
0
0
0
0.000295024
0.0154848
0.101705
0.578349
0.124095
0.0275212
0.00175518
0
0.0299929
0.0317317
0.0525412
0.157668
0.371797
0.131908
0.0976892
0.0478735
0.00120388
0.120516
0.118004
0.101244
0.0831219
0.180467
0.217411
0.18481
0.226019
0.0539135
0.0180836
0.0109139
0.0881122
0.174189
0.326884
0.175822
0.169477
0.0600954
0.00181036
0.157127
0.170123
0.20075
0.160343
0.0908436
0.197033
0.150473
0.115258
0.169489
0.0608778
0.189323
0.134881
0.0355721
0.0349538
0.0321833
0.0342813
0.0827392
0.0652179
0.33472
0.344701
0.105132
0.0361257
0.00541487
0.00244365
0.00104816
0.0126536
0.0769722
0.112819
0.178079
0.0902837
0.0233166
0.0223316
0.0210687
0.00830565
0.031596
0.295922
0.372596
0.189222
0.0335275
0.00581141
0.00288238
0
0
0.0515144
0.492937
0.44554
0.259748
0.0405438
0.014623
0.000187222
0.00311077
0.00693747
0.0282268
0.0482274
0.236585
0.177019
0.0684569
0.10894
0.0398641
0.0503588
0.021356
0.0420137
0.0269058
0.339272
0.100294
0.00307687
0.000848252
0.000312036
0.00531109
0.0698023
0.238191
0.335564
0.119555
0.0395981
0.00711134
0.00553963
0.0447401
0.0753124
0.220108
0.314928
0.0897568
0.0185146
0.0212222
0.0124725
0.051042
0.0821939
0.206625
0.0268686
0.0097548
0.00313467
0.000286922
0
0
0.0131691
0.189105
0.571515
0.0936035
0.00170777
0.000415802
0.00902061
0.00341111
0.0156478
0.0612578
0.15889
0.118211
0.0545484
0.0443377
0.00116035
0.00200846
0
0.030592
0.280439
0.51147
0.281064
0.00803511
0.00217342
0.00208579
0.00917672
0.00187693
0.00605089
0.00608781
0.152969
0.298915
0.0929486
0.0100475
0.00615256
0.162772
0.0132126
0.0118898
0.000706799
0.120306
0.153068
0.130477
0.0422716
0.130871
0.0297386
0.0429496
0.137971
0.203156
0.286064
0.13965
0.0216014
0.00831235
0.00856948
0.554922
0.286932
0.258742
0.104344
0.0784044
0.0878685
0.0677993
0.0168255
0.146362
0.145742
0.0243643
0.00535832
0
0.0132844
0.0172218
0.0389333
0.0237348
0.125186
0.140904
0.0428891
0.036236
0
0.00352705
0.00263402
0.0174121
0.0254432
0.147194
0.481314
0.104993
0.0319683
0.00620237
0.00556169
0.0159955
0.0241296
0.00217377
0.239943
0.461016
0.0451229
0.00662475
0
0
0.000321576
0.00437795
0.0127472
0.56819
0.0194162
0.0330702
0.0950999
0.276951
0.140916
0.0693541
0.0745475
0.0281132
0.0801162
0.0464598
0.0405031
0.0303256
0.169571
0.255971
0.104817
0.0680848
0.177144
0.161973
0.0736638
0.0321703
0.108492
0.172708
0.104996
0.108581
0.0902845
0.149961
0.17601
0.177273
0.023921
0.0518114
0.0633573
0.123503
0.170179
0.101925
0.384237
0.331818
0.0228751
0.0751288
0.0420336
0.0225685
0.120584
0.0595117
0.022441
0.110379
0.0930836
0.00264139
0.0450773
0.0252202
0.0508998
0.32416
0.274866
0.0422796
0.0412277
0.0187984
0.0751891
0.0228537
0.0281252
0.00310318
0.0650766
0.101608
0.0991264
0.320427
0.21123
0.018113
0.00853401
0.00829886
0.0129629
0.185258
0.442633
0.354943
0.23807
0.0907354
0
0
0
0.0208651
0.25914
0.26808
0.0226865
0.00208535
0.000591713
0
0
0.0377491
0.0556337
0.327289
0.290304
0.0658683
0.000885612
0
0.000151732
0
0
0.00754119
0.0908232
0.377992
0.209047
0.0351709
0.00550757
0
0
0.0747289
0.033705
0.142852
0.372373
0.427632
0.105581
0
0.00922902
0.00129764
0.160366
0.186759
0.188278
0.099867
0.0671548
0.00873557
0.00264379
0.167827
0.0368433
0.228006
0.193898
0.0575686
0.0568585
0.0568967
0.0277295
0.149657
0.0116375
0
0.158615
0.135133
0.275112
0.164982
0.298486
0.0959723
0.00846493
0.207274
0.00996346
0.164146
0.165038
0.175773
0.0843505
0.333628
0.165787
0.286869
0.12486
0.0252467
0.0329915
0.0185572
0.00152109
0.00597127
0.00874476
0.0175697
0.256327
0.176255
0.0118082
0.00542183
0
0
0.00998582
0.00995045
0.0673081
0.443351
0.178177
0.00638399
0.0259448
0.0178842
0.00398277
0.00567224
0.0753824
0.0856822
0.39881
0.266566
0.0280315
0.0432612
0
0
0.016643
0.0193947
0.0728404
0.552127
0.112556
0.00599408
0.0180722
0.0242714
0.00735556
0.05428
0.103207
0.219335
0.299136
0.0114095
0.00168197
0.0280754
0.0868514
0.0570688
0.181772
0.247732
0.226067
0.0713401
0.17442
0.0900584
0.209844
0.0856173
0.0457097
0.083717
0.0831927
0.108385
0.254505
0.0333347
0.0770275
0.287206
0.445723
0.128582
0.204051
0.124263
0.060152
0.0491214
0
0
0.0655542
0.156085
0.0744296
0.0732056
0.0553262
0.024161
0
0.00149349
0.00253202
0.127637
0.436581
0.225914
0.0253562
0.0018763
0.00056113
0.000649484
0.0112929
0.0245292
0.244544
0.353922
0.0483656
0.0546191
0.0205017
0.00452251
0.0112929
0.0145904
0.0327368
0.307752
0.549177
0.113429
0.00214862
0.000248003
0
0.00161327
0.0080451
0.0303271
0.126183
0.293376
0.227454
0.0219287
0.00328067
0.00370777
0.00147729
0.26234
0.214185
0.252482
0.203401
0.171127
0.0530843
0.0104118
0.0217035
0.0660545
0.0210226
0.0233747
0.0912767
0.301648
0.278464
0.0924027
0.0604991
0.0423502
0.0149739
0.200951
0.0547301
0.102615
0.181034
0.282315
0.189811
0.122329
0.218379
0.216741
0.339552
0.088342
0.0510726
0.016335
0.0174569
0.0121102
0.0038392
0.0132533
0.155989
0.335906
0.0657432
0.0227528
0
0
4.15708e-005
0.00422673
0.0419574
0.380521
0.374283
0.0437751
0.0272243
0.0116148
0.0280052
0.0297897
0.0188066
0.0724246
0.19907
0.482485
0.223807
0.072581
0
0
0
0.00231155
0.0376348
0.182838
0.0801479
0.0759891
0.0931896
0.126508
0.127489
0.057572
0.0327097
0.131993
0.142955
0.243474
0.0500124
0.102698
0.158658
0.101196
0.114796
0.0530116
0.220021
0.12489
0.110836
0.344599
0.230089
0.174167
0.0767451
0.0141698
0.00241122
0.0393099
0.0803266
0.242439
0.186676
0.197096
0.337105
0.0446943
0.0308784
0.0480432
0.114428
0.0482589
0.170978
0.0330852
0.0219391
0.0192701
0.0416949
0.0823061
0.0857216
0.180197
0.139955
0.0580444
0.00956363
0.00248836
0.0349537
0.100249
0.418211
0.325334
0.156813
0.133078
0.191236
0.0956072
0.0327371
0.0976777
0.0144326
0.0270684
0.0784563
0.165799
0.10997
0.321005
0.150224
0.0317733
0.127578
0.0913615
0.190981
0.189539
0.153691
0.217857
0.0013298
0
0
0.00907317
0.0313118
0.228471
0.239719
0.0365095
0.0109524
0
0
0.0198459
0.00366391
0.0397457
0.133353
0.489934
0.164892
0.00925044
0.148783
0.053184
0.00253956
0.0299791
0.0390996
0.117252
0.229563
0.102308
0.106086
0.0525569
0.00673027
0.00311846
0.00388291
0.0178035
0.0566193
0.464716
0.377333
0.11112
0.00535019
0
0.0212879
0.0165
0.108495
0.052709
0.296865
0.174533
0.0284067
0.0596643
0.000804266
0.0126468
0.0245778
0.10081
0.0249324
0.248669
0.206275
0.241287
0.00916119
0
0.00849444
0.00457393
0.0277578
0.0119384
0.258965
0.390403
0.0733854
0.0258774
0
0.00509667
0.00274436
0.036466
0.00161629
0.155265
0.470116
0.325844
0.0990528
0.000950642
0.00329949
0.0037416
0.00705111
0.00191846
0.0713674
0.0933815
0.35378
0.296378
0.0502124
0.0280875
0
0
0.00245733
0.00640034
0.0234109
0.357929
0.085467
0.00012901
0
0
0.00403212
0
0.0336733
0.180613
0.420318
0.413313
0.117804
0.00885106
0
0
0
0.00186231
0.0369195
0.355636
0.19938
0.153227
0.161374
0.0426057
0.0159608
0.00989858
0.00699897
0.00855887
0.106542
0.0460748
0.238373
0.320615
0.245078
0.0383957
0.0196438
0.00553276
0.00112433
0.0246595
0.272917
0.34274
0.0679053
0.00757327
0.000713279
0
0.00215131
0.00116379
0.0913545
0.0558694
0.520767
0.273196
0.0682249
0.00499295
0
0.0150592
0.00265751
0.0162298
0.0149607
0.102587
0.243143
0.139541
0.00934704
0.00410553
0.000456169
0.00284234
0.0189242
0.0770568
0.154457
0.229066
0.168344
0.0251727
0
0
0.00473723
0.0165521
0.0284188
0.257519
0.300085
0.0873994
0.00613311
0.000827713
0.00412462
0.00546511
0.015697
0.402117
0.541385
0.254448
0.0914908
0.0341208
0.00579399
0.00453697
0.00940771
0.119055
0.0996622
0.105848
0.0844667
0.0992891
0.0740339
0.0405402
0.0676689
0.0589796
0.0693896
0.183134
0.0239684
0.0208594
0.0363491
0.0661178
0.0993406
0.228652
0.208459
0.266219
0.384544
0.267141
0.0761099
0.0388364
0.033411
0.0259345
0.0804303
0.0720146
0.282341
0.135506
0.035983
0.0263521
0.030545
0.114356
0.278534
0.309923
0.16603
0.27568
0.369589
0.00916455
0.011275
0.00983798
0.0109282
0.0320169
0.117218
0.0834219
0.232719
0.48944
0.173002
0.123666
0.0723095
0.0362911
0.0154011
0.0222031
0.0150608
0.181943
0.0717717
0.000914323
0.0173722
0.0274485
0.0665252
0.214388
0.282403
0.112424
0.100086
0.0890036
0.0640282
0.150518
0.179164
0.205677
0.13397
0.213744
0.14393
0.0901678
0.0773343
0.183731
0.106961
0.0242739
0.0134593
0.00315824
0.00295906
0.0400973
0.0700242
0.166278
0.141647
0.0906588
0.101461
0.00279095
0.0100775
0.00899924
0.0423684
0.108413
0.276949
0.154347
0.0569432
0.0047787
0.0207725
0.0140933
0.0268202
0.209636
0.304734
0.274633
0.224384
0.0727686
0.145387
0.00499134
0.00252376
0.0315957
0.283322
0.472892
0.092724
0.11833
0.080139
0.0753866
0.00198853
0.00530859
0.00924045
0.0318542
0.0307768
0.317361
0.327479
0.105559
0.0684729
0.00843791
0.00568023
0.0160775
0.0259385
0.0668649
0.114108
0.201475
0.143221
0.25858
0.00691745
0.000876573
0.00463359
0.0398217
0.101396
0.263313
0.560941
0.201741
0.217068
0.00412889
0.000935759
0.030931
0.0236818
0.106474
0.281748
0.171797
0.0156675
0.0119113
0.009005
0.0177439
0.0935017
0.114487
0.167392
0.111384
0.0256779
0.00282492
0.00671825
0.010746
0.0695812
0.335508
0.34574
0.187769
0.298354
0.295689
0.0413939
0.0182881
0.00828796
0.0151747
0.112552
0.0715083
0.151035
0.224064
0.0930926
0.0565412
0.0719086
0.067056
0.107918
0.310541
0.161542
0.172437
0.0543274
0.00452039
0.00608231
0.00457548
0.0025823
0.0202529
0.130468
0.172386
0.121057
0.0622131
0.00219717
0.00364938
0.00196505
0
0.000266835
0.0321779
0.242926
0.30616
0.207191
0.0584374
0.032806
0.0721999
0.0240657
0.033414
0.111384
0.0814813
0.227426
0.226911
0.0674791
0.00794065
0.0325665
0.00102294
0.000444725
0.0257493
0.315809
0.641288
0.0545445
0
0
0
0
0
0.00324466
0.151805
0.261661
0.233719
0.0574998
0.00129406
0
0
0
0
0.0397599
0.199117
0.0716164
0.0162871
0.00661999
0.00325824
0
0
0.0339839
0.402378
0.428373
0.212839
0.0164384
0.00371189
0.00195494
0
0
0.0189952
0.246971
0.51459
0.19785
0.21406
0.0130723
0
0
0
0.00227014
0.00350703
0.0749371
0.040266
0.261136
0.139694
0.0445196
0.0438345
0.0139791
0.0187321
0.0192934
0.0231497
0.227462
0.0636736
0.00313157
0
0
0
0.000324305
0.101126
0.592737
0.0972369
0.078027
0.0512149
0.0401454
0.0862297
0.0334002
0.0432042
0.155299
0.473427
0.0137745
0.116216
0.20675
0.144677
0.0689514
0.0506723
0.0291279
0.0254839
0.00769795
0.245112
0.265138
0.17633
0.16263
0.115959
0.0745552
0.0751051
0.100513
0.207977
0.0204912
0.016413
0.0599076
0.0934551
0.110582
0.101551
0.0950622
0.147673
0.124203
0.106454
0.0310237
0.0437362
0.102381
0.0987155
0.119046
0.154313
0.344746
0.533025
0.254679
0.0893621
0.0189763
0.0543212
0.0532756
0.0330338
0.093981
0.080637
0.286065
0.12173
0.00490472
0.00289517
0.0660812
0.11713
0.21759
0.155817
0.135742
0.176947
0.194079
0.016005
0.00922884
0.0476215
0.0274633
0.0746164
0.122668
0.223395
0.445957
0.242713
0.056507
0.0110413
0.0603371
0.0688731
0.276886
0.195535
0.226079
0.188938
0.0413722
0.00674449
0.00955485
0.0313252
0.0823039
0.224327
0.175401
0.197601
0.138347
0.0344696
0.0481305
0.059724
0.0823305
0.0981977
0.156543
0.248514
0.309799
0.109562
0.195961
0.207144
0.116793
0.0610539
0.102737
0.192941
0.103982
0.165025
0.15729
0.166442
0.328218
0.208242
0.0381453
0.0376557
0.136299
0.179394
0.240039
0.126216
0.161037
0.121393
0.0694464
0.0448134
0.0095116
0.0414695
0.0350803
0.183733
0.159086
0.124396
0.111935
0.0408939
0.116916
0.0230263
0.0369403
0.0433336
0.329116
0.436832
0.101122
0.157463
0.14325
0.0851064
0.0283205
0.0872826
0.113882
0.0764174
0.0595167
0.0612126
0.0495205
0.0696785
0.0993491
0.163109
0.186545
0.0787654
0.265077
0.327594
0.102265
0.121146
0.063998
0.196859
0.00999361
0.00934324
0.018265
0.119472
0.265735
0.187225
0.309724
0.111684
0.154411
0.00256286
0.00383546
0.107542
0.083657
0.269806
0.0800171
0.0156587
0.0277823
0.0242003
0.0660332
0.188365
0.0310024
0.217616
0.293799
0.339016
0.0743583
0.0292944
0.0172063
0.0697818
0.186541
0.0831486
0.127605
0.269251
0.236171
0.183804
0.0477178
0.0125992
0.00583805
0.00551138
0.15651
0.0645532
0.238079
0.208585
0.0885779
0.114337
0.115695
0.0879197
0.0279654
0.136468
0.112017
0.22061
0.34943
0.104497
0.034555
0.0280323
0.026988
0.0351591
0.0891039
0.0808211
0.292028
0.201034
0.0912744
0.0847289
0.156742
0.0392175
0.00233703
0.124021
0.24268
0.304942
0.142266
0.0840033
0.0666602
0.128972
0.0455677
0.00802308
0.0582198
0.109249
0.188725
0.187935
0.155019
0.0534419
0.0637725
0.0121824
0.0170211
0.117444
0.311617
0.485782
0.0970876
0.139008
0.115936
0.0767046
0.0236864
0
0.0906148
0.116921
0.106985
0.20697
0.319906
0.228738
0.0263485
0.0155065
0.04261
0.179427
0.0940065
0.173686
0.0641797
0.0705512
0.054761
0.0183221
0.00698664
0.0147499
0.0718866
0.335834
0.256854
0.193093
0.0337031
0.0282542
0.0400416
0.00888503
0.0178336
0.0317974
0.282785
0.598407
0.0860228
0.123575
0.134127
0.0377003
0.0144675
0.0621765
0.100267
0.0592505
0.0936819
0.194701
0.0941169
0.055291
0.0862573
0.0222306
0.0781227
0.0576251
0.119757
0.250573
0.0941998
0.00627988
0.000297136
0.00944501
0.00236125
0.0118582
0.00470884
0.135994
0.504385
0.045544
0.0038243
0
0.0046269
0.0119205
0.0241482
0.0931581
0.298921
0.44402
0.0629608
0.0156309
0.00242414
0.0203426
0.02201
0.0655288
0.0342853
0.16131
0.271378
0.00636084
0
0.00239449
0.0832259
0.082617
0.147046
0.157244
0.323947
0.228704
0.0426269
0.000713155
0
0.00686722
0.029609
0.0808394
0.177526
0.270387
0.216532
0.0737598
0.0305666
0.0105292
0.0949138
0.0499323
0.0793558
0.110806
0.215511
0.411418
0.0226962
0
0.00966051
0.148178
0.0622233
0.305234
0.235526
0.231222
0.089061
0.038315
0.029682
0.0318652
0.238282
0.0723014
0.285103
0.199778
0.156864
0.113565
0.0959357
0.0354427
0.0220315
0.142989
0.0452018
0.0782273
0.0777147
0.130653
0.232098
0.260899
0.132962
0.0222498
0.154516
0.148057
0.18122
0.157385
0.115528
0.0887871
0.103172
0.0739646
0.0545471
0.245391
0.0814552
0.149177
0.0733945
0.116896
0.122663
0.250705
0.135649
0.0449115
0.429669
0.285289
0.0873815
0.046875
0.139945
0.221863
0.248127
0.295595
0.111283
0.146176
0.139773
0.0781247
0.0581879
0.0241847
0.0290458
0.196512
0.294638
0.167369
0.0768569
0.0349572
0.0221045
0.0884524
0.101749
0.074873
0.141705
0.136775
0.0437844
0.465124
0.24474
0.00426584
0.015629
0.0983806
0.135752
0.104025
0.130413
0.0671245
0.213227
0.0623121
0.0151978
0.0448656
0.169785
0.114551