0.0624051
0.0806278
0.178169
0.152393
0.0179864
0.0614359
0.0712721
0.0484042
0.0597902
0.0312255
0.0575472
0.232798
0.246988
0.0946227
0.22203
0.144273
0.00660906
0.0291346
0.0382951
0.0907778
0.182605
0.151474
0.0916251
0.0559684
0.0935459
0.1374
0.0634413
0.0315611
0.0622886
0.285945
0.17983
0.249884
0.0967471
0.0832117
0.031323
0.0448805
0.00259992
0.00585967
0.0350741
0.0539752
0.104203
0.275849
0.183169
0.0139609
0.00622166
0.0132806
0.0102994
0.00133629
0.0540275
0.0969964
0.401806
0.226755
0.116049
0.0322648
0.0256014
0.024202
0.0574977
0.043526
0.149756
0.271396
0.112847
0.0153061
0.0270492
0.109509
0.121491
0.0226196
0.0251762
0.0955326
0.342507
0.148396
0.145478
0.0432307
0.0175931
0.0144754
0.0186085
0.0673741
0.0205797
0.175129
0.124415
0.270479
0.10336
0.0293513
0.036002
0.133362
0.0386137
0.0182935
0.0710706
0.141953
0.219369
0.106659
0.144097
0.177546
0.0373193
0.0739767
0.0183006
0.0984577
0.0792353
0.247557
0.0730923
0.238838
0.25513
0.209049
0.19829
0.0336156
0.0370415
0.0938861
0.181214
0.102385
0.0207054
0.0245996
0.0932292
0.0342757
0.0521632
0.0912555
0.144133
0.0478754
0.0343592
0.0839879
0.0480237
0.0875839
0.0300177
0.0913761
0.10785
0.143448
0.0634034
0.11903
0.110801
0.196152
0.218229
0.234812
0.124955
0.0636218
0.0974435
0.067018
0.0709459
0.235806
0.126603
0.145818
0.210124
0.21452
0.103958
0.112493
0.124874
0.350542
0.123339
0.0490809
0.0527276
0.0122727
0.066058
0.0224649
0.0897449
0.0711095
0.120798
0.0423488
0.0294741
0.060211
0.0211776
0.144305
0.050597
0.201365
0.140979
0.0518967
0.404547
0.125714
0.0319937
0.0348409
0.105743
0.0279582
0.0940914
0.0980878
0.264458
0.222212
0.115542
0.102807
0.0699589
0.131679
0.0495561
0.153177
0.201301
0.10452
0.0228495
0.0728037
0.11075
0.0109267
0.137086
0.122344
0.11171
0.065109
0.0204756
0.105073
0.172419
0.218728
0.00867391
0.0444207
0.0637677
0.0443414
0.118783
0.0976314
0.0774846
0.0855816
0.216402
0.0710797
0.160387
0.0710573
0.0739465
0.1133
0.0834942
0.217856
0.139966
0.308851
0.0758323
0.059816
0.07112
0.0739724
0.0665175
0.232541
0.099409
0.0989093
0.0485829
0.00102258
0.0126151
0.00258072
0.0237626
0.211186
0.179773
0.0680335
0.136752
0.061132
0.0593416
0.0841294
0.033262
0.0475972
0.29372
0.329875
0.16832
0.102842
0.109994
0.0402857
0.0559293
0.0390809
0.0257605
0.0725726
0.173049
0.112876
0.129504
0.0541524
0.058295
0.179386
0.170276
0.034932
0.208542
0.170884
0.0188415
0.0914746
0.108732
0.230131
0.129785
0.0512234
0.0472941
0.104878
0.103438
0.081677
0.09298
0.0904847
0.238463
0.252451
0.0518439
0.0463149
0.0276172
0.0452735
0.0502755
0.0975962
0.0564917
0.202901
0.187879
0.130498
0.0335048
0.142858
0.0869904
0.0392011
0.0767882
0.106541
0.222831
0.276418
0.0593462
0.131554
0.0598459
0.040024
0.0325716
0.0217514
0.0330162
0.0846927
0.176539
0.0903782
0.113747
0.0771781
0.0337622
0.0780854
0.00264753
0.039994
0.0648055
0.101498
0.135284
0.17105
0.186367
0.126786
0.0150789
0.0156316
0.0420705
0.0221561
0.0828918
0.0489727
0.248736
0.16815
0.0327652
0.0241686
0.00660405
0.0198122
0.00431848
0.0492494
0.138999
0.380351
0.445187
0.136471
0.0387414
0.0605375
0.113478
0.0821317
0.102207
0.0180507
0.0463498
0.190574
0.0731711
0.037139
0.0837591
0.270953
0.0907058
0.155798
0.0184769
0.0578695
0.0886283
0.097228
0.15329
0.127773
0.195592
0.0562842
0.112241
0
0.0276818
0.112336
0.123816
0.100041
0.128136
0.275236
0.118003
0.190497
0
0.0712594
0.135048
0.140248
0.0194358
0.0248879
0.0522208
0.0172574
0.0920519
0.062227
0.0252554
0.0393112
0.0547762
0.0782316
0.127895
0.1206
0.0346032
0.0820542
0.0931813
0.0282448
0.0326958
0.0378992
0.0217818
0.0495082
0.122198
0.0805253
0.116027
0.0074719
0.0223338
0.0718876
0.061544
0.033718
0.418071
0.619298
0.178939
0.132473
0.0399101
0.0191298
0.0191603
0.0237225
0.0671865
0.126831
0.0863333
0.0120813
0.00399343
0.0069959
0.00397287
0.0143919
0.0187824
0.22464
0.206672
0.0922528
0.0510911
0.00461636
0.00031354
0.00250678
0.0181707
0.0627361
0.0886711
0.305701
0.324537
0.056217
0.00695414
0.00618707
0.0026292
0.00026308
0.0153359
0.351022
0.51153
0.319763
0.16671
0.0121053
0
0
0.00184156
0.067094
0.131313
0.132406
0.0877745
0.083704
0.0223606
0.0149801
0.00717031
0.034825
0.0403504
0.139274
0.0827089
0.0501432
0.0516339
0.0312724
0.0462928
0.0500793
0.0821594
0.125902
0.196207
0.325868
0.304049
0.215761
0.0147197
0.00354666
0.00201584
0.0197341
0.0365879
0.553584
0.305126
0.172177
0.0765935
0.00495388
0.0192856
0.0289766
0.0599922
0.148686
0.143558
0.0656917
0.0103715
0.00316838
0.00566576
0.0131051
0.0291746
0.0229033
0.0690555
0.120514
0.0484329
0.0266859
0.0103295
0.0194903
0.0046601
0.0071114
0.0228499
0.087394
0.515416
0.112955
0.0123485
0
0.000358178
0.00692531
0.0170225
0.0145015
0.235812
0.371489
0.0349206
0.0128318
0.00275312
0.00263054
0.00031807
0.00553041
0.0692395
0.5843
0.0656729
0.0150357
0.0471729
0.0155837
0.0405441
0.0112707
0.0155384
0.0578092
0.0957521
0.0597255
0.0126061
0.0437792
0.0156456
0.0135374
0.0327984
0.0610469
0.103466
0.116404
0.138184
0.00578166
0.0183117
0.0044813
0.00579201
0.0122365
0.069777
0.32143
0.555941
0.0522964
0.00342971
0.0107879
0.0146437
0.00261993
0.0921419
0.166408
0.424052
0.322596
0.0984447
0.0552615
0.109426
0.0436917
0.0185755
0.0472079
0.0530167
0.0629725
0.163892
0.0773962
0.0945635
0.114001
0.0363825
0.0553561
0.157318
0.0482008
0.0323831
0.0813279
0.109544
0.0247463
0.0570907
0.0853157
0.0318454
0.165538
0.11685
0.278626
0.427471
0.12085
0.0553768
0.0850076
0.0607993
0.137016
0.279727
0.14069
0.113138
0.144133
0.0758128
0.105238
0.0909621
0.0699409
0.086085
0.111188
0.0414158
0.0447356
0.0810887
0.0699324
0.0755184
0.104414
0.0732088
0.154788
0.0243368
0.0978841
0.100782
0.0792747
0.078242
0.0527114
0.118454
0.0337156
0.119727
0.261507
0.131459
0.135246
0.0554797
0.0555651
0.0460661
0.134236
0.0202294
0.169149
0.255108
0.146862
0.332763
0.124248
0.029681
0.0242239
0.0734562
0.00748738
0.0657436
0.0111629
0.142113
0.124985
0.0418996
0.0692287
0.0152396
0.0512099
0.0101976
0.0253778
0.0347294
0.214361
0.39927
0.179088
0.0394251
0.0166264
0.0593039
0.0175033
0.119566
0.124947
0.143837
0.159687
0.103367
0.190583
0.0664852
0.140928
0.122523
0.0714731
0.0164109
0.11014
0.119292
0.291482
0.159287
0.0651591
0.0532964
0.00637183
0.0520817
0.000966071
0.0230262
0.0229062
0.132407
0.135393
0.103887
0.101991
0.0551694
0.129415
0.0265358
0.0495037
0.0436259
0.124275
0.220711
0.151397
0.0244192
0
0.0505626
0.0312604
0.0595363
0.0637908
0.148753
0.141868
0.115621
0.130474
0.214708
0.195173
0.384792
0.224739
0.101412
0.117763
0.0134834
0.079917
0.101148
0.0592834
0.0389501
0.00691298
0.0047289
0.00879556
0.0110943
0.0213454
0.219763
0.342897
0.181412
0.0447956
0.00322321
0.00127539
0.00174438
0.00133903
0.0268043
0.157346
0.145311
0.205622
0.0830228
0.094338
0.0270635
0.0052478
0.00466185
0.0593521
0.37393
0.432241
0.432412
0.104812
0.0125094
0.00599728
0.00166584
0
0.0391189
0.14765
0.218649
0.0973439
0.00451308
0.000570279
0.000244406
0.00114682
0.00495593
0.103767
0.339605
0.263741
0.0928901
0.00315292
0
0
0.00802771
0.0123459
0.0247286
0.222644
0.338006
0.153064
0.0166168
0
0.00881371
0.00484926
0.000935841
0.0870257
0.522428
0.372195
0.0794774
0.020706
0
0.00528822
0.0151423
0.00335866
0.055534
0.301232
0.227206
0.0503482
0.00311048
0.000538542
0.00100015
0.00334714
0.00389058
0.32068
0.378884
0.151362
0.0161706
0.000444354
0.00766661
0.0098365
0.00303572
0.0527511
0.0902984
0.447439
0.202037
0.0198685
0.0227541
0.00674101
0.00750886
0.0157296
0.0242751
0.162799
0.397193
0.130377
0.0199968
0.0305287
0.113139
0.0749808
0.0700384
0.0551998
0.391519
0.117399
0.013515
0.000209167
0
0.00647664
0.0057552
0.00105748
0.197889
0.276112
0.00734975
0
0
0
0.00180328
0.00837059
0.111004
0.549736
0.218394
0.1084
0.013353
0.00254583
0.0225275
0.100025
0.0481415
0.024967
0.118841
0.248192
0.0500862
0.00308146
0
0.00309752
0.0272277
0.0149475
0.0941713
0.382257
0.0427496
0
0
0
0
0.00204338
0.0582183
0.280387
0.316851
0.00531951
0.0019309
0
0.00229869
0.000120984
0.0225836
0.1605
0.359638
0.130059
0.106192
0.0715465
0.0087207
0.00388791
0.00233343
0.00109822
0.0706935
0.267012
0.242611
0.0548831
0.0500908
0.00523242
0.0272154
0.016334
0.0210425
0.425266
0.445756
0.081492
0.0139396
0.0110143
0.0029588
0.0106562
0.0179212
0.0687202
0.124019
0.211045
0.0997833
0.0392262
0.0160356
0.0111516
0.0165644
0.064919
0.0926494
0.0758098
0.0823851
0.067605
0.0190834
0.024947
0.014907
0.0170744
0.0281699
0.161522
0.602065
0.348501
0.0353407
0.0171696
0.0207816
0.0526893
0.0615144
0.227508
0.292727
0.234477
0.135215
0.0953629
0.0508073
0.041608
0.0229436
0.0182817
0.0372443
0.0462342
0.0242452
0.0522242
0.0201656
0.155154
0.0607263
0.0204772
0.0090098
0.0300791
0.050023
0.0110934
0.0787913
0.129098
0.0931493
0.141496
0.0991815
0.161377
0.226596
0.160805
0.0163756
0.041726
0.0561291
0.497568
0.231242
0.0857025
0.14478
0.0805787
0.117857
0.0166662
0.0386181
0.540214
0.101829
0.00613805
0.00241404
0.00191663
0.0133925
0.0160169
0.00719215
0.0255147
0.113513
0.189865
0.0108838
0.0104033
0.0134164
0.00870236
0.00203875
0.00482819
0.00729916
0.188604
0.380161
0.0457507
0.0045104
0.00821509
0.00257985
0.0132282
0.00853861
0.0183467
0.36144
0.616557
0.141082
0.0011742
0.0091503
0.00275749
0.00207973
0.00118545
0.0214649
0.35836
0.0599184
0.0656343
0.0102848
0.00672359
0.0469157
0.0244826
0.0608262
0.0857464
0.0611957
0.0306348
0.0169188
0.136418
0.267927
0.194602
0.183384
0.100295
0.0859767
0.042475
0.0382562
0.0386332
0.00146926
0.0499396
0.171825
0.0511295
0.0715747
0.131264
0.0834042
0.0173993
0.0160489
0.195923
0.311526
0.49365
0.238768
0.0315184
0.0823019
0.0344359
0.0190471
0.0540847
0.113223
0.196414
0.0704755
0.0472776
0.0113504
0.00333243
0.000795505
0.0329904
0.120573
0.308891
0.389572
0.0566382
0.00640679
0.0038546
0.00114924
0
0.00918595
0.0411077
0.152826
0.196767
0.132376
0.06699
0.0012076
0.00184622
0.000512651
0.0149288
0.0685128
0.26646
0.61482
0.162421
0.0138283
0.000527141
0.000164177
0
0.0107311
0.0754793
0.267815
0.218242
0.013643
0
0.00765544
0.00298066
3.84192e-005
0.0767958
0.228978
0.249685
0.123364
0.0770897
0.0306701
0.00611348
0.00503978
0.000268935
0.00599382
0.0154123
0.142826
0.573216
0.110937
0.00139483
0.00272244
0.00238547
0
0.035902
0.065398
0.113928
0.42361
0.274631
0.091738
0.0128279
0.0144376
0
0.109324
0.254571
0.107822
0.0441766
0.147484
0.102885
0.0178286
0.0184341
0.0312337
0.0515555
0.116685
0.0872611
0.0705785
0.143456
0.225923
0.0788473
0.0976546
0.0530893
0.0297738
0.0697972
0.0385528
0.120159
0.447544
0.276594
0.117299
0.0777309
0.00710841
0.0554211
0.0601136
0.11392
0.0941902
0.244535
0.283754
0.34416
0.146184
0.0649086
0.0726381
0.0891447
0.0758169
0.0251655
0.0979927
0.146701
0.0572288
0.0441006
0.031324
0.291213
0.297377
0.0917301
0.00132993
0.013039
0.0312837
0.0176599
0.0253134
0.0967489
0.142655
0.181862
0.219747
0.0695615
0.0977918
0.0751059
0.117553
0.0431108
0.065446
0.488658
0.413947
0.228036
0.0243542
0.0164981
0.00481463
0.0230343
0.0599302
0.0616124
0.259845
0.292985
0.0967238
0.0203281
0.00841591
0.00545519
0.0249695
0.0591517
0.0891585
0.14471
0.146395
0.109202
0.0916994
0.0669256
0.0845558
0.318948
0.145382
0.0487694
0.387711
0.32491
0.197695
0.0358921
0.0165711
0.00704926
0.0217892
0.023618
0.0725463
0.200205
0.163385
0.238732
0.109365
0.0789806
0.121796
0.0900196
0.037999
0.0983555
0.0156691
0.00714969
0.0132252
0.0178373
0.0417876
0.200841
0.235377
0.05576
0.0102358
0.00206637
0.00260451
0.0109242
0.0177017
0.143733
0.401464
0.118186
0.0218231
0.0146305
0.02842
0.00596355
0.0215122
0.0322573
0.164585
0.276153
0.0653643
0.0224754
0.0305956
0.00119443
0
0
0.0109706
0.32102
0.621969
0.0654676
0.00321077
0.00358835
0.0131132
0.0273852
0.0287316
0.0745287
0.148238
0.326523
0.0351215
0.00975873
0.017883
0.146506
0.0715746
0.0302565
0.0806152
0.0643826
0.268959
0.0715297
0.0429225
0.207017
0.00457262
0
0.00130904
0.00840258
0.143819
0.55065
0.083196
0.0158216
0.0163629
0.156605
0.108686
0.00268835
0.0106268
0.0620557
0.428266
0.114848
0.111172
0.151195
0.268706
0.0707335
0.0057293
0.0095465
0.0032018
0.0443161
0.039022
0.0479003
0.259106
0.324345
0.164819
0.00159018
0.0303263
0.0112775
0.00599311
0.00807484
0.167584
0.204422
0.280664
0.136585
0.00193113
0.00136379
0.00670138
0.0530421
0.0417651
0.0992808
0.23509
0.176747
0.0456598
0.00095411
0.0233814
0.0131044
0.00359587
0.0320186
0.412942
0.403839
0.0474071
0.0290668
0.00239368
0.043137
0.0630832
0.0415226
0.0490669
0.123505
0.115061
0.0407857
0.015573
0.0512136
0.164218
0.318513
0.283996
0.0491384
0.0473658
0.0630044
0.104582
0.0363985
0.010948
0.0329268
0.0519273
0.02919
0.0571061
0.152493
0.259534
0.0540019
0.00222471
0.121339
0.266787
0.40901
0.181561
0.101294
0.0956052
0.191341
0.00314702
0.00591593
0.0465947
0.138693
0.134655
0.0919038
0.0104448
0.00703216
0.00354037
0.00136072
0.0117853
0.055687
0.424931
0.368627
0.0355005
0.00748422
0.00378631
0
0.00628177
0.00252706
0.0456606
0.142956
0.187689
0.110113
0.032059
0.0148088
0.0115097
0.00952507
0.0176894
0.0130586
0.175071
0.580781
0.263527
0.0428569
0.00798378
0.00167327
0.000638008
0.00206897
0.0104909
0.331265
0.295038
0.0232683
0.000990141
0.000778574
0
0.00199356
0.00370232
0.00654198
0.24336
0.311117
0.135093
0.0287617
0.00545002
0
0.0024725
0.00459179
0.00365293
0.077272
0.528536
0.207414
0.00523927
0
0
0
0.00342813
0.0447797
0.110815
0.369909
0.235756
0.0388348
0
0
0.00107954
0.00274946
0.00393767
0.0629355
0.296108
0.297871
0.149059
0.0783771
0.0239326
0.0318839
0.0174389
0.0361042
0.0419664
0.173236
0.271832
0.295988
0.149027
0.09469
0
0.0228233
0.103953
0.0989867
0.173593
0.327058
0.184525
0.0396287
0.0427888
0.16537
0.0756323
0.105303
0.0441462
0.134423
0.301315
0.236409
0.0996548
0.154242
0.0971178
0.0498543
0.0996487
0.0782199
0.0730286
0.0653805
0.0968369
0.0375766
0.10217
0.37657
0.102206
0.107161
0.0489452
0.0184533
0.00370318
0.0520414
0.0259822
0.138886
0.2799
0.0312257
0.0458098
0.0461394
0.0654756
0.0687154
0.08133
0.0552779
0.238823
0.500228
0.0480197
0.0385605
0.02883
0.013666
0.0068007
0.0581457
0.0639351
0.46044
0.360543
0.161094
0.110155
0.0396748
0.0372143
0.00249827
0.0548301
0.0122418
0.0892086
0.216336
0.129565
0.149326
0.0724415
0.0702134
0.131792
0.0390131
0.0118322
0.0953119
0.441399
0.133305
0.0685043
0.0290981
0.0308436
0.0143076
0.0736878
0.0966362
0.310607
0.182355
0.142562
0.147503
0.172833
0.202611
0.158901
0.0745736
0.0459687
0.144828
0.0355125
0.0098359
0.0135282
0.048922
0.192072
0.158432
0.0108017
0.0068268
0.0306328
0.000586757
0
0.000592023
0.0865223
0.450225
0.285181
0.0114926
0.00266227
0.0038873
0.0159569
0.0212013
0.0239752
0.201581
0.263197
0.104612
0.0113839
0.000907523
0.0128863
8.38224e-005
0.0142407
0.0246162
0.421286
0.478945
0.0670921
0.000174431
0.0118091
0.00441135
0.0165674
0.00372748
0.00424084
0.0600978
0.30646
0.394883
0.0721816
0.0118634
0.0271725
0.229047
0.117475
0.0169508
0.0186376
0.0988497
0.285971
0.103016
0.0736121
0.26462
0.00847204
0.0643794
0.0721718
0.303005
0.32353
0.0817594
0.0227653
0.0205256
0.0125003
0.0884033
0.1005
0.0905059
0.16845
0.216361
0.0819707
0.0531073
0.0373191
0.0975747
0.333095
0.10855
0.00858319
0.00144235
0.0112333
0.0243059
0.0396136
0.0709716
0.266558
0.278358
0.0170346
0.000618149
0.00198609
0.0021756
0
0.0386464
0.311826
0.517214
0.162188
0.0719716
0.0532112
0.0706735
0.0883917
0.0127673
0.046241
0.0506912
0.116641
0.188763
0.0346741
0.0273608
0.0557867
0.0682861
0
0.0733133
0.155944
0.221968
0.0526208
0.0277868
0.0148906
0.0384302
0.16058
0.0335728
0.0808222
0.0545831
0.118946
0.0118279
0.00326395
0.0573998
0.134883
0.420626
0.241692
0.0948906
0.050466
0.0828372
0.0559656
0.0558522
0.0104199
0.0643025
0.147338
0.0419686
0.202796
0.121954
0.172639
0.0780133
0.0579376
0.0237706
0.120117
0.273693
0.26832
0.225271
0.0826914
0.128028
0.00140469
0.00111941
0.0218698
0.0542245
0.144711
0.180365
0.0397272
0.0147814
0.0116131
0.0042193
0.00783585
0.00771527
0.0286282
0.350523
0.480732
0.0763903
0.00795913
0.0054768
0.0194245
0.00300192
0.00367963
0.0135573
0.0605421
0.210889
0.160341
0.0373797
0.0322517
0.0198973
0
0.0116738
0.0234754
0.198007
0.498146
0.271902
0.0334514
0.0251899
0.00103043
0.00390695
0.00422789
0.00481743
0.312318
0.344376
0.0367637
0.00159569
0.000657888
0
0.0245097
0.0573869
0.116021
0.261195
0.220825
0.0390903
0.0120699
0.0048235
0.00175407
0.00332215
0.00842324
0.0112265
0.137249
0.334656
0.290401
0.0505419
0.00692445
0
0.0295891
0.0207882
0.0692342
0.190563
0.253043
0.446804
0.145632
0.0341036
0
0.0670045
0.15501
0.187179
0.225366
0.0929413
0.0563004
0.029686
0.0174057
0.228513
0.138761
0.171259
0.0707285
0.234097
0.0766753
0.071143
0.0546259
0.120548
0
0.0502214
0.0702465
0.137349
0.347106
0.172046
0.178949
0.171002
0.0258595
0.125224
0.142741
0.170073
0.121813
0.409274
0.115043
0.0231924
0.141096
0.14898
0.353651
0.0428181
0.0469319
0.00620601
0.0413309
0.00945947
0.0137512
0.024131
0.151536
0.411052
0.0263919
0.00893299
0.00300761
0.017631
0.00263768
0.0123118
0.067716
0.336069
0.291568
0.0776198
0.0773535
0.0233548
0.0774008
0.00800174
0.0110854
0.0713317
0.234634
0.414428
0.121951
0.0392663
0.0165326
0.0567948
0.0076275
0.0808507
0.0750878
0.273258
0.183204
0.0330033
0.0308917
0.0273091
0.0775003
0.0338465
0.0404513
0.169213
0.256657
0.0560956
0.0638762
0.144647
0.2024
0.197175
0.0855897
0.0452875
0.101128
0.0841403
0.168798
0.155195
0.135226
0.0596856
0.162097
0.0513419
0.0718213
0.102529
0.17335
0.117395
0.226001
0.473807
0.230785
0.243065
0.0795805
0.02962
0.0643799
0.131046
0.00736012
0.0418929
0.0741144
0.260423
0.148661
0.0525019
0.00497905
0.00285482
0.00998644
0.000694132
0.0354406
0.0681652
0.445631
0.235983
0.0249436
0
0.00769851
0.0056926
0.0471211
0.219662
0.347292
0.243552
0.079174
0.0259186
0.00169103
0.00396357
0.0501777
0.0161183
0.122239
0.340482
0.364908
0.149852
0.0116875
0
0.0221988
0.040544
0
0.126439
0.147015
0.338383
0.187171
0.0402514
0.001027
0.0162971
0.00766242
0.00227564
0.0896287
0.119922
0.199843
0.196273
0.13513
0.00942041
0.0103483
0.00611003
0.0029304
0.069425
0.280229
0.39889
0.237239
0.0443977
0.00240886
0.0531354
0.0362525
0.00855932
0.0477514
0.10499
0.309348
0.257703
0.141146
0.0202692
0.0293924
0.0181667
0.0529266
0.0972136
0.135947
0.214439
0.232927
0.0825532
0.0204018
0.0200752
0.0286396
0.0985988
0.143326
0.148636
0.188248
0.232941
0
0.0751729
0.0723553
0.0499207
0.0317607
0.0675605
0.106435
0.217137
0.274768
0.103908
0.0370758
0.0072269
0.0148706
0.0923581
0.195518
0.171716
0.200197
0.2665
0.0532337
0.0528033
0.0143717
0.00669181
0.122316
0.0557643
0.0111562
0.0241955
0.0168593
0.00980731
0.078591
0.191056
0.307752
0.196052
0.114774
0.0217439
0.0694316
0.0361364
0.0739087
0.147871
0.0862242
0.232407
0.284472
0.150427
0.101924
0.0123287
0.00804181
0.00434155
0.0339282
0.151842
0.210386
0.269741
0.125585
0.031563
0.0324493
0.0661359
0.052177
0.125808
0.096599
0.230467
0.0504837
0.0174189
0.0083948
0.0158025
0.0202131
0.0995572
0.247573
0.0281409
0.0534682
0.0320582
0.00769602
0.036868
0.0491121
0.112076
0.169465
0.410965
0.0898572
0.0646911
0.0472123
0.018626
0.0155776
0.019006
0.0462998
0.0756127
0.241427
0.029371
0.0433376
0.0147257
0.0128267
0.0671732
0.0294948
0.0514366
0.11389
0.582325
0.249254
0.0639032
0.00200784
0.00195498
0.00891357
0.0111479
0.0265559
0.0755862
0.290058
0.0942774
0.0203734
0.00410332
0.00360256
0.000842437
0.0046436
0.0370408
0.127288
0.63802
0.186147
0.0515061
0.000286835
0.00277822
0.0311599
0.00710111
0.00586549
0.0735897
0.229408
0.128275
0.0257882
0.034744
0.00264373
0.020186
0.00136164
0.00593181
0.119166
0.400649
0.24455
0.119208
0.025866
0.00351362
0.00669585
0.0102109
0.0824348
0.142425
0.242825
0.137549
0.100694
0.0602019
0.0478198
0.0362064
0.0236694
0.108913
0.113522
0.0254216
0.166039
0.132029
0.0720056
0.00128634
0.00313023
0
0.0199704
0.0560426
0.175723
0.322107
0.304515
0.113839
0.00666981
0.00295206
0
0.0307372
0.0518176
0.0541171
0.550795
0.367969
0.158921
0.0685985
0.0342819
0.01324
0.0343488
0.0298928
0.0196177
0.141535
0.175996
0.226021
0.157528
0.073998
0.0358042
0.0868332
0.0111353
0.10418
0.0757305
0.130999
0.274145
0.0588182
0.016813
0.00363267
0.0106127
0.0375065
0.0295054
0.30111
0.272327
0.365653
0.469886
0.164212
0.0262188
0.0480475
0.0122011
0.0267335
0.0547231
0.155187
0.128196
0.144381
0.0842117
0.0295231
0.0705765
0.0117861
0.0621479
0.0203063
0.0491752
0.142112
0.25039
0.375563
0.097445
0.076771
0.00811586
0.0192807
0.0190414
0.0651156
0.24123
0.408296
0.131562
0.011208
0.0259615
0.00189294
0.0222891
0.0188571
0.0455588
0.250998
0.392562
0.321966
0.0843337
0.0100714
0.00107976
0.0183475
0.0694667
0.0353735
0.0526752
0.287409
0.433336
0.122488
0.0269715
0.00109424
0.000273559
0.0052039
0.0324498
0.0339116
0.164613
0.38109
0.146336
0.0618409
0
0.00134711
0.0107029
0.0276643
0.074165
0.267821
0.347753
0.116016
0.00299948
0.00289094
0.0260185
0.0271113
0.00606453
0.0847767
0.282306
0.264064
0.0814303
0.0268358
0.00173456
0.0258219
0.00606172
0.0129527
0.0134508
0.0389657
0.252137
0.308175
0.268381
0.0720787
0.0150649
0.0307823
0.0218309
0.0146251
0.0340649
0.0624359
0.268293
0.269103
0.150923
0.0418437
0.0202598
0.0145563
0.0829031
0.181166
0.157246
0.19142
0.21064
0.05933
0.0653031
0.0340963
0.0289592
0.0592156
0.060354
0.0519458
0.160833
0.34253
0.113711
0.0575638
0.0223936
0.0463202
0.035591
0.049702
0.065862
0.10748
0.199094
0.0645716
0.0592859
0.0137663
0.0254592
0.0781089
0.0455257
0.0810854
0.116014
0.300525
0.0875034
0.0548957
0.0233927
0.065009
0.0877819
0.102949
0.0892313
0.0443683
0.312875
0.0324268
0.0503978
0.0145321
0.0681611
0.176776
0.0667407
0.113477
0.0621944
0.460927
0.0369825
0.0576996
0.024683
0.17651
0.20066
0.0810357
0.128584
0.0288272
0.106905
0.0271626
0.103352
0.059479
0.0713492
0.123839
0.0352141
0.0405328
0.0223996
0.0942361
0.143921
0.262079
0.0896369
0.0853311
0.160284
0.105639
0.164127
0.0465212
0.258868
0.0896635
0.14459
0.100674
0.0283861
0.184293
0.0854307
0.16435
0.0573062
0.227856
0.17716
0.357013
0.167294
0.0269363
0.0420246
0.00565315
0.013336
0.0194725
0.0999268
0.0892487
0.151421
0.0687281
0.0354611
0.061296
0.0239943
0.0311536
0.00502315
0.0825993
0.0809704
0.412758
0.354736
0.0637869
0.196454
0.0266742
0.06692
0.0354978
0.115237
0.0690063
0.137875
0.11597
0.105759
0.272429
0.0528866
0.0127657
0.00420076
0.0497429
0.0337867
0.151661
0.261849
0.311787
0.0194021
0.0226035
0.058173
0.00532243
0.0106617
0.113316
0.315518
0.271505
0.0232659
0.0667617
0.0209343
0.0793039
0.00319346
0.0103731
0.185043
0.255806
0.363422
0.164446
0.110604
0.052157
0.0184369
0.000760348
0.0205374
0.0937058
0.184622
0.177832
0.121062
0.0882199
0.0483801
0.0455068
0.00581605
0.0283545
0.207195
0.277092
0.233023
0.139536
0.0565601
0.00496174
0.0121039
0
0.00157832
0.0291517
0.0490092
0.281623
0.286728
0.111873
0.0041901
0
0
0
0.00575931
0.0511069
0.484038
0.420188
0.071292
0.046983
0.0100188
0.00348773
0.00249703
0.0405949
0.0565029
0.165329
0.188873
0.150782
0.0563823
0.000332164
0.000498246
0.00215849
0.00813005
0.0222267
0.196071
0.328537
0.298211
0.0339821
0.00446348
0.000350471
0.00297558
0.0226104
0.025726
0.244102
0.301832
0.382173
0.329939
0.119756
0.00521538
0.0049593
0.0289239
0.0139077
0.0570363
0.200825
0.203051
0.0305971
0
0
0.00892289
0.0129844
0.026969
0.1572
0.204363
0.291825
0.092159
0.0672223
0.00826997
0.0076655
0.0168616
0.0309106
0.123492
0.183002
0.252226
0.343428
0.145889
0.00931319
0.0042431
0.00371607
0.0047352
0.0270445
0.060289
0.27377
0.337728
0.238304
0.0598202
0.0251113
0.0015575
0.0140176
0.0998569
0.0229201
0.172888
0.163382
0.18965
0.0533422
0.00745434
0.00222964
0.00540972
0.0297394
0.0938466
0.16528
0.346658
0.277895
0.114589
0.0425013
0.000222501
0.0200258
0.0486493
0.0422989
0.212035
0.314577
0.202747
0.0609678
0.0115242
0.00528153
0.0475339
0.0493167
0.0105816
0.259646
0.366197
0.0943098
0.0346722
0.00306671
0.00457356
0.0493891
0.0361382
0.0708798
0.252568
0.329529
0.0993968
0.0345951
0.019207
0.000754505
0.0292744
0.0514928
0.0715953
0.283871
0.268673
0.0468226
0.00161853
0.000179836
0.0102852
0.032304
0.0739165
0.106142
0.172981
0.181337
0.0564181
0.118941
0.0933691
0.0170849
0.117306
0.135855
0.147937
0.120929
0.0909351
0.0629876
0.1161
0.200314
0.0206093
0.102347
0.108349
0.124251
0.167834
0.150795
0.0562224
0.0208889
0.0250905
0.074874
0.203521
0.162994
0.16539
0.152461
0.131752
0.143946
0.0257516
0.103244
0.0697316
0.222991
0.199071
0.168249
0.0740779
0.1469
0.0633071
0.00901615
0.112692
0.00178667
0.0246225
0.0149775
0.0526447
0.092626
0.143293
0.112825
0.0523261
0.282009
0
0.00920995
0.00306998
0.0767057
0.113348
0.245404
0.133755
0.0059611
0.121097
0.00427889
0.0283497
0.037087
0.0537236
0.089615
0.207882
0.140112
0.107059
0.550443
0.0151466
0.00165659
0.000552195
0.0208026
0.119289
0.104256
0.106093
0.0728413
0.149287
0.0683282
0.0605305
0.0894754
0.00900086
0.156608
0.068395
0.148507
0.217079
0.293583
0.117329
0.148199
0.0999103
0.00520504
0.14756
0.14714
0.103968
0.0909216
0.0586614
0.0348906
0.0373009
0.136983
0.0906902
0.115245
0.173243
0.115622
0.215101
0.198042
0.182988
0.151707
0.139017
0.136388
0.135515
0.0184854
0.0638194
0.08318
0.128937
0.063711
0.0773064
0.0860779
0.0864126
0.186839
0.0497379
0.013812
0.00765003
0.0383798
0.0638271
0.0635929
0.123517
0.232485
0.10459
0.0344331
0.0156831
0.0541442
0.0840177
0.099163
0.111057
0.20649
0.297723
0.376095
0.142241
0.004414
0.00390651
0.0230279
0.0445673
0.0484858
0.130113
0.424407
0.133211
0.0391396
0.0236308
0
0.00964009
0.0471585
0.0420716
0.0552341
0.1392
0.162048
0.0891101
0.0410959
0.0174462
0.0123667
0.0816485
0.0822849
0.100487
0.13362
0.386112
0.131991
0.0141785
0
0.00133205
0.0146655
0.0125011
0.0127634
0.249169
0.459214
0.14617
0.0300817
0.0104677
0
0.0187395
0.0246505
0.0474509
0.380202
0.125367
0.158793
0.0234818
0.0217064
0.00208233
0.0488752
0.0707276
0.157457
0.142515
0.209301
0.109898
0.00297112
0.00310092
0.0200339
0.0617955
0.0977287
0.155167
0.25325
0.202714
0.131186
0.0208378
0.0130239
0
0.0333794
0.097889
0.185488
0.290736
0.149045
0.0435923
0.00274677
0.00186055
0.0542616
0.0595667
0.165928
0.279782
0.320118
0.166343
0.0340152
0
0
0.0416378
0.0169617
0.0682682
0.183142
0.153961
0.285817
0.09524
0.0226359
0.0192472
0.0265186
0
0.0535028
0.181309
0.242385
0.184191
0.030636
0
0
0.0657748
0.0131581
0.104276
0.126947
0.221057
0.310284
0.0508815
0
0.0108689
0.0373346
0
0.0621229
0.120987
0.418925
0.165824
0.181986
0.13296
0.100085
0.0142023
0.00910651
0.0426799
0.0610362
0.140818
0.138689
0.242009
0.248717
0.139985
0.0185809
0.0151775
0.0891145
0.0703504
0.143966
0.172303
0.0665474
0.00678064
0.0358775
0.0518484
0.0151775
0.0935478
0.137903
0.279627
0.287942
0.0902755
0.0184487
0.0299505
0.031109
0.0252959
0.160249
0.209428
0.249568
0.228446
0.153989
0.0828648
0.0316901
0.00466829
0.00236903
0.0515599
0.046397
0.208037
0.248375
0.257002
0.0566972
0.0292809
0.0407365
0.00893363
0.022712
0.037393
0.142116
0.299506
0.0568569
0.0353636
0.00983551
0
0.00394838
0.0545516
0.0916835
0.276357
0.199596
0.15615
0.107158
0.0488015
0.0893257
0.0170622
0.017526
0.0915286
0.267084
0.151809
0.158314
0.0501487
0.0325456
0.131473
0.0427704
0.109444
0.0442545
0.0732382
0.167929
0.0885829
0.124695
0.0394361
0.208955
0.0369207
0.152019
0.0811878
0.139471
0.120923
0.190254
0.0943744
0.0632529
0.190788
0.0682288
0.0635246
0.0584991
0.1273
0.118353
0.111536
0.209074
0.128799
0.200925
0.0838201
0.155038
0.0519821
0.113322
0.161923
0.168106
0.113588
0.0114885
0.125873
0.00200307
0.0216093
0.0244198
0.0714313
0.131711
0.190015
0.142959
0.0580669
0.347081
0.0368715
0.0660169
0.0635236
0.0381551
0.109625
0.0745108
0.112976
0.0315317
0.185642
0.0145176
0.0566595
0.0267089
0.0745806
0.13099
0.161778
0.0603554
0.0118053
0.254358
0.0451032
0.287284
0.149729
0.0896983