0.153138
0.187676
0.0702688
0.075486
0.0928483
0.0168413
0.0326331
0.0420291
0.175038
0.160817
0.187824
0.0545828
0.113604
0.112829
0.0808483
0.0220494
0.106149
0.176783
0.151079
0.287154
0.156248
0.0314388
0.119665
0.047137
0.0536718
0.0361717
0.0786866
0.154628
0.358142
0.188803
0.0133311
0.0337506
0.00227331
0.112156
0.138324
0.166948
0.0434254
0.0357373
0.00426884
0.0309066
0.0377906
0.033968
0.027731
0.0950273
0.101526
0.0343944
0.150283
0.012178
0.0238325
0.036073
0.0307445
0.0522812
0.125116
0.239741
0.0399849
0.0711655
0.064794
0.0106777
0.0015591
0
0.0991024
0.118931
0.110186
0.0199566
0.45314
0.577063
0.0764938
0.0272556
0.00487774
0.0911069
0.166689
0.18993
0.0341219
0.0666251
0.0070473
0.017782
0.00663292
0.0107458
0.0123151
0.0136175
0.0571557
0.0868621
0.217645
0.0416295
0.0323646
0.0182989
0.0326286
0.00782141
0.00604204
0.0396134
0.0893653
0.319932
0.206772
0.0254903
0.0110779
0.0044482
0.00969043
0.0141817
0.0362964
0.334291
0.754125
0.110918
0.0121238
0.00694559
0.00424654
0.00308125
0.000662213
0.0129334
0.12147
0.152639
0.0339956
0.0169763
0.0340097
0.0209705
0.00106121
0.00735196
0.046612
0.429958
0.101068
0.0107386
0.021567
0.0437503
0.0102878
0.000122729
0.00429613
0.104934
0.300748
0.394822
0.0300726
0.00186502
0.00419071
0.00114168
0
0.00102289
0.0767902
0.596691
0.129447
0.00435716
0.000126857
0.00409505
0.00097619
0
0.000613733
0.220468
0.356231
0.0563681
0.00340305
0.0052232
0.0067605
0.00514144
0.00552779
0.00122007
0.151422
0.272771
0.0126838
0.00116374
0.000182614
0.000986738
0.00773047
0.018086
0.0381485
0.332339
0.406111
0.0355846
0.000482697
0
0.000537501
0.000134375
0
0.00102461
0.24176
0.251685
0.00750833
6.89567e-005
0
0
0
0
0.0356748
0.544425
0.0679726
0.00154095
0.000598064
0.000516139
0.00278891
0.0026795
0.00775405
0.0854212
0.312548
0.0267859
0.00682128
0.000452108
0.000309684
0.00329976
0.00676866
0.0210657
0.209734
0.296176
0.0606418
0.000260608
0
0
0
0
0
0.105672
0.486673
0.00929468
0
0
0
0.000232346
0.000929384
0.0169948
0.341136
0.559005
0.0546562
0.0146885
9.36392e-005
0.0002992
0.00593419
0.014182
0.0318119
0.174777
0.193485
0.0570533
0.00965369
0.000402557
0.0020944
0.0498723
0.0729672
0.0399505
0.10111
0.150824
0.0150061
0
0
0
0.00121356
0.00363986
0.0393912
0.386175
0.491631
0.0234995
0
0
0
0.0120503
0.0557911
0.185579
0.495919
0.343473
0.0503645
0.0295751
0.00883915
0.0260097
0.0981382
0.117588
0.0557211
0.0788468
0.0839525
0.051187
0.0867325
0.0269245
0.0618701
0.0986952
0.0881467
0.0532888
0.0232172
0.0353369
0.0575375
0.0363316
0.00749214
0.0144965
0.0514969
0.162431
0.475272
0.523686
0.130866
0.0708995
0.0804776
0.0274722
0.0550598
0.23658
0.130732
0.299307
0.0957914
0.0599221
0.0767253
0.113702
0.0691408
0.0902242
0.0941767
0.0760432
0.0333702
0.0543731
0.0585261
0.0925439
0.0729203
0.0993209
0.287794
0.117028
0.0494128
0.188817
0.134105
0.122091
0.0416576
0.0881022
0.158131
0.163662
0.218592
0.100609
0.0687808
0.0221465
0.0213705
0.0664932
0.226744
0.279915
0.381608
0.266155
0.123264
0.0910229
0.0206723
0.0356445
0.0832606
0.0900422
0.0636205
0.0204772
0.0820322
0.0534637
0.00809469
0.00603824
0.0328412
0.0739239
0.179807
0.128632
0.0232643
0.0253673
0.00412763
0.0745546
0.0470149
0.044661
0.175509
0.0769469
0.112326
0.0894341
0.0506593
0.0796026
0.058529
0.0277233
0.0872568
0.163104
0.31433
0.647006
0.0687429
0.0274609
0.120815
0.0684428
0.0611815
0.106146
0.00434109
0.0382748
0.0628444
0.00884144
0.00397982
0
0.0165689
0.0141669
0.00751068
0.00136672
0.198875
0.338587
0.014
0.0045625
0
0.00612383
0.0127643
0.00986572
0.00624651
0.17562
0.345485
0.0163565
0.00732426
0.0050672
0.00553636
0.00662702
0.00679178
0.000417835
0.448592
0.650224
0.0225199
0.00397982
0
0.000969633
0.00281492
0.000871809
0.0287022
0.229988
0.217882
0.00487838
0.00178029
0
0.000346811
0.00184286
0.00298673
0.123443
0.360262
0.0918013
0.000593429
0.000254327
0
0
0
0.000798594
0.00856248
0.345437
0.399432
0.0107981
0
0
0
0
0
0.0550267
0.554626
0.317651
0.00426369
0
0
0
0
0
0.129988
0.239449
0.0254141
0
0
0
0
0
0.0166147
0.223248
0.185338
0.0103908
0
0
0
0
0
0.0630924
0.0812581
0.55957
0.161624
0
0
0.00209689
0.0012523
0
0.000641909
0.318241
0.573986
0.0426764
0.000714234
0.00565136
0.0110424
0.00208717
0
0.0102435
0.222536
0.072974
0.0018216
0
0
0
0
0.000778708
0.092274
0.20326
0.0123683
0.000142458
0
0
0
0
0.0195183
0.274986
0.463114
0.187011
0.0139722
0.00211763
0.00616408
0.00599949
0.000308095
0.000111244
0.112382
0.413235
0.0205358
0.00728542
0.00127058
0.000880583
0.00047416
0
0.031314
0.568571
0.0556274
0.000519541
0
0
0
0
0
0.066225
0.258527
0.0107349
0
0
0
0
0
0.00451331
0.186853
0.27985
0.0874754
0.000484112
0
0
0
0
0.000727231
0.192817
0.500744
0.00846557
0
0
0
0
0
0.0420524
0.599713
0.306244
0.000908887
0
0
0
0
0
0.021198
0.245249
0.213502
0.000345295
0
0
0
0
0.0128309
0.145677
0.40716
0.107512
0.000545332
0
0
0
0
0.000245607
0.143592
0.553895
0.0858342
0
0
0
0
0
0.00660421
0.322233
0.426938
0.0151867
0.0044151
0.00166288
0.000269189
0
0.00448625
0.034382
0.267194
0.21257
0.0128452
0.00988856
0.0094958
0.00263445
0.00231759
0.03686
0.0567358
0.264618
0.111416
0.00628851
0
0
0
0
0.000428827
0.0143778
0.407612
0.236346
0.000485826
0.00201568
0.00759626
0.00166406
0.000187468
0.00300179
0.050589
0.650729
0.268222
0
0.0230106
0.0517194
0.0828496
0.0409461
0.0422742
0.0729726
0.134275
0.0649555
0.00431645
0.018096
0.0820773
0.130077
0.0704825
0.0609419
0.0655321
0.0663074
0.071045
0.0413872
0.0125212
0.050239
0.0536118
0.0151264
0.0452155
0.169812
0.749641
0.202511
0.00338062
0.0230813
0.103363
0.125697
0.0609927
0.0976437
0.135319
0.21299
0.13741
0.0747133
0.0285314
0.00726103
0.0155817
0.0291227
0.012701
0.0304215
0.0238233
0.0125818
0.0191261
0.0189136
0.0522971
0.302746
0.0807121
0.0562175
0.0912365
0.0159212
0.014418
0.0130807
0.0170291
0.00248643
0.057025
0.111636
0.0524399
0.0318514
0.0240577
0.0214917
0.0245793
0.00628896
0.02258
0.679367
0.544282
0.121312
0.0909315
0.0243325
0.0194559
0.0108191
0.00101493
0.0961841
0.313499
0.0360923
0.00995318
0.0123172
0.000687154
0.00067028
0.000996424
3.65867e-005
0.189624
0.482047
0.0390125
0.00516575
0.00206454
0
0
3.65867e-005
0
0.0578174
0.446568
0.228042
0.0278938
0.0124567
0.00141366
0.000670602
0
0
0.100648
0.485415
0.264559
0.0401715
0.00344091
0
0
0
0.000438927
0.152786
0.302232
0.0425454
0.00458425
0.00196468
0
0
0
0.0227665
0.377934
0.307744
0.0311439
0.00847162
0.000692077
0
0.00591525
0.0109855
0
0.0730622
0.478287
0.190167
0.019568
0.00327447
0
0
0
0.0115449
0.234867
0.478287
0.173784
0.107752
0.00334764
0
0.00985875
0.0183091
0.0872382
0.483425
0.172588
0.0331338
0.0148048
0.00865694
0.00707867
0.0119608
0.0270941
0.196983
0.318735
0.0426589
0.0422938
0.0635071
0.0439044
0.0279355
0.012881
0.0185823
0.0866305
0.186047
0.260372
0.298115
0.197599
0.0171668
0.00747474
0.0558703
0.063232
0.117105
0.0369411
0.109696
0.372865
0.280581
0.0786166
0.0571378
0.0861428
0.0566574
0.321674
0.124569
0.0583579
0.0510446
0.104178
0.0298814
0.0129846
0.00863335
0.0853107
0.300285
0.0273851
0.0393944
0.020226
0.0308662
0.00202424
0.000763706
0.0622009
0.52428
0.118768
0.0579694
0.0517146
0.280571
0.288251
0.0452501
0.0663285
0.0499672
0.0245458
0.359784
0.199906
0.0342398
0.0526095
0.0782253
0.00121454
0.0246414
0.0717869
0.147537
0.0555801
0.0124193
0.00132174
0
0
0.00475396
0.00790759
0.21092
0.397414
0.0088276
0.0200432
0.0093931
0.0029749
0.00466453
0.0517281
0.111116
0.595017
0.210929
0.261747
0.20999
0.00407084
0
0
0.00792326
0.01083
0.0989382
0.111498
0.206185
0.256688
0.0739656
0.0339627
0.0169857
0.0872369
0.0904176
0.188432
0.0557276
0.000443804
0.00371159
0.00627738
0.00238094
0.010148
0.0374958
0.221292
0.318655
0.0251436
0.00322257
0
0.000793648
0.000340135
0.00608879
0.0408804
0.425405
0.181397
0.0117104
0.0685765
0.0601786
0.0637766
0.04525
0.0369534
0.0668934
0.191043
0.0947935
0.0424057
0.0510977
0.0161771
0.0195524
0.019531
0.022172
0.226651
0.655957
0.0972763
0.0650802
0.00969181
0
0
0
0
0.0474747
0.273335
0.110399
0.0109627
0.00581509
0.000760537
0.000190134
0
0.00164344
0.0971847
0.406959
0.16321
0.00581509
0.0225543
0.00218233
0.000490361
0
0.00765819
0.314583
0.496633
0.0545535
0.0322143
0.00969181
0
0
0
0.034331
0.368602
0.382636
0.0747663
0.0216333
0.00192639
0.00344608
0.00194599
0.00181917
0.0387434
0.202917
0.35144
0.0745797
0.00250969
0.0219867
0.071283
0.0281809
0.0167837
0.0748884
0.153196
0.115999
0.0284349
0.0231353
0.00321065
0.00137599
0
0.00610967
0.0588212
0.603811
0.26185
0.0344633
0.00355433
0.0646593
0.0506835
0.00686007
0.0462301
0.109568
0.466871
0.135047
0.00977118
0.02346
0.00554025
0.00584154
0.0710083
0.146946
0.023244
0.00466592
0.0083497
0.00370054
0.00336385
0.000738279
0.00551477
0.370212
0.470829
0.0688422
0.00869254
0.0047179
0.0022725
0.0014684
0.0208404
0.0390148
0.0690768
0.277701
0.0684665
0.00407942
0.00582947
0.000693428
0.0026061
0.00248889
0.0124187
0.202427
0.588225
0.274304
0.00965909
0.000297183
9.90611e-005
0
0
0.0114898
0.219866
0.261098
0.072748
0.00441512
0.000419022
9.00081e-005
0
0
0.0143965
0.263192
0.447039
0.0864204
0.00267365
0
0
0
0
0.00300585
0.0679275
0.321302
0.272327
0.0140664
0
0
0
0
0.00062093
0.0901254
0.499234
0.33496
0.0131069
0
0
0
0
0.00873499
0.376165
0.349611
0.0513186
0.00153063
0
0
0
0
0.0319225
0.280008
0.221652
0.234331
0.00499536
0.00237115
0.00155585
0.00288944
0
0.000811159
0.104671
0.479001
0.20279
0.0110129
4.02396e-005
0
0
0
0.00135193
0.0572001
0.14371
0.439354
0.0227423
0.0274918
0.00744234
0
0.0130577
0.0143956
0.110239
0.347745
0.299798
0.016245
0.00919206
0.0335897
0.0131569
0.0568212
0.010705
0.0595797
0.400856
0.282792
0.0329538
0.0417416
0.0639756
0.0230331
0.00028726
0.00138731
0.0580523
0.242635
0.465689
0.0531367
0.098528
0.0344509
0.000639602
0.0897665
0.0208389
0.0777833
0.292805
0.223454
0.0842126
0.0847643
0.0538547
0.0239786
0.195172
0.125235
0.0084356
0.217812
0.191006
0.0168161
0.0781994
0.0405194
0.0169142
0.465694
0.354092
0.00269585
0.0204218
0.0221154
0
0.0263316
0.019848
0.0129807
0.277525
0.142329
0.0305933
0.130097
0.0934026
0.0555354
0.0400438
0.0275351
0.0381396
0.406141
0.33868
0.0820788
0.062513
0.000814107
0.011396
0.00899705
0.00448086
0.00517543
0.335924
0.276032
0.00123715
0
0
0.00118335
0.00153919
0.00750943
0.00813401
0.311471
0.286332
0.0830407
0.0327254
0.00563946
0.0133737
0.00796567
0.0229365
0.0241491
0.270009
0.321896
0.0375588
0.0128709
0
0
0.001695
0.0173144
0.00191562
0.27791
0.520644
0.103373
0.0135199
0
0
0.001017
0.0590289
0.0199712
0.115195
0.113274
0.14869
0.0794916
0.0228248
0.0208416
0.0524395
0.0215655
0.0300757
0.0615169
0.0483357
0.0796762
0.052866
0.0269601
0.35241
0.50897
0.0250882
0.0308361
0.0795319
0.241853
0.220341
0.0566081
0.0158757
0.0127373
0.0210911
0.0344461
0.0119734
0.0104458
0.0514812
0.125975
0.0595976
0.119124
0.485803
0.264604
0.00645469
0.00174579
0.00574128
0.00314903
0.000995261
0.00136409
0.0386293
0.297446
0.25183
0.00704606
0.00843995
0.000876932
0
0.000728641
0.00218592
0.0692477
0.291371
0.185891
0.00950827
0.00886074
0.00061139
0.00174123
0.00147093
0.00895722
0.249869
0.477475
0.119777
0.000530475
0.000684326
0
0
0.00510049
0.0234261
0.390145
0.447703
0.105355
0.00220413
0.00114054
0.000299283
0.000128264
0.000350038
0.00413149
0.0465419
0.3922
0.10783
0.00375961
0.00141097
0.0315652
0.00610763
0.000326023
0.0215697
0.0838487
0.378289
0.0565659
0.000147386
0.0199405
0
0
0.00245026
0.00989317
0.316683
0.423562
0.0958998
0.000943412
0.000201567
0.0354712
0.0279854
0.0142975
0.00552636
0.358334
0.43832
0.0462495
0
0.0178633
0.0270768
0.0461105
0.0296818
0.211966
0.147451
0.0206889
0.000676021
0.000349767
0.00350614
0.00231628
0.013813
0.0853419
0.397154
0.424786
0.0809319
0.00337177
0
1.56361e-005
0.0406348
0.0203154
0.0154364
0.103606
0.19156
0.183241
0.00226626
0.0174717
0.0124861
0.0037288
0.0022235
0.0347708
0.141023
0.433377
0.463978
0.00953121
0
0.000109453
0
0.00199172
0.0175205
0.122484
0.280925
0.0517088
0.00509721
0
0
0
0
0.010212
0.278472
0.48739
0.0811366
0.00315625
0
0
0
0.000284531
0.00790384
0.034112
0.274974
0.210191
0.0144086
0
0
0
0
0.00133267
0.0490784
0.48739
0.414124
0.0211248
0
0
0
0.000366816
0.0120761
0.229219
0.39383
0.0961562
0.000593315
0
0
0
0.000611359
0.00967676
0.0498199
0.384357
0.0971003
0.0390441
0.0109265
0
0
0
0.00124735
0.0351103
0.38337
0.488045
0.0630443
0
0
0
0
0.0642485
0.170652
0.271989
0.23393
0.0711617
0.00156093
0
0.00422703
0.00628704
0.0676444
0.112203
0.369079
0.117556
0.133892
0.0468906
0.000632792
0.06257
0.0508181
0.16841
0.167422
0.0867196
0.0684953
0.0834454
0.0645832
0.0164885
0.0217748
0.0119485
0.259318
0.3642
0.299253
0.171631
0.0626567
0.00669866
9.03989e-005
0.0537199
0.0948584
0.39728
0.36733
0.101594
0.0698692
0.0391947
0.00922618
0.00287416
0.164367
0.113116
0.226306
0.267252
0.020103
0.0696902
0.0128542
0.0340623
0.0317923
0.163683
0.202833
0.281357
0.281814
0.00264418
0.0391453
0.0147438
0.025501
0.042084
0.113894
0.209617
0.431909
0.296935
0.0284329
0.0239207
0.00743805
0.00486604
0.0115542
0.133371
0.115141
0.175023
0.168625
0.00158651
0.0313235
0.0206215
0.0504005
0.112423
0.113564
0.216429
0.0776252
0.0501595
0
0.00391392
0.0103416
0.0962638
0.069736
0.1354
0.413885
0.0451466
0.00547423
0
0.00260431
0.0408752
0.349069
0.113983
0.037073
0.0347848
0.0440867
0.0323027
0.0126592
0.0203274
0.034075
0.122287
0.147715
0.0373257
0.0427309
0.136971
0.0183361
0.0363134
0.0794625
0.145421
0.536949
0.297753
0.0292833
0.156188
0.0763926
0.0109673
0.0122657
0.0214127
0.0678033
0.168468
0.0296759
0.000896
0.0237906
0.0448871
0.0364116
0.296399
0.279176
0.0827615
0.0294274
0.00402005
0.012001
0.0151254
0.0449926
0.00606561
0.120619
0.181199
0.221411
0.287593
0.131034
0.00127953
0.00533745
0.0943007
0.345127
0.521216
0.206739
0.128027
0.0419322
0.016098
0
5.68878e-005
0.000391039
0.0449175
0.314621
0.1585
0.0107838
0.000112715
0
0
0
0.00154263
0.0742896
0.474013
0.142793
0.0093835
0.000135083
0
0
0.00036593
0.0729588
0.319281
0.334326
0.0283222
0.000224202
5.60503e-005
0
0
0
0.0424565
0.34817
0.481925
0.0185095
0
0
0
0
0
0.000691954
0.0456725
0.381645
0.128052
0.0102742
6.05919e-005
0
0.00693759
0.010062
0.0150066
0.0525622
0.35711
0.135583
0.00593405
0.00656903
0.00425858
0
0
0.00517863
0.246726
0.521879
0.0285805
0
0
0
0.00185237
0.0022284
0.0146274
0.283151
0.465253
0.0384564
0.00342109
0.0175076
0.0309773
0.0407715
0.0163009
0.00482488
0.0208899
0.199225
0.202415
0.00274849
0.0181664
0.0201628
0.00195358
6.36561e-005
0.00227671
0.0124035
0.308226
0.49386
0.0126515
0
0.000872119
0.053603
0.0141436
0.0014153
0.00960666
0.156903
0.225266
0.011836
0.00338333
0.0224574
0.00204692
0.000546424
0.000400386
0.00193891
0.199433
0.609058
0.106658
0.00150393
0.00191032
0
0
0.00367502
0.0154278
0.165132
0.255022
0.025455
0.00775805
0.00455977
0
0
0.00515641
0.0228072
0.252567
0.596666
0.0801777
0.0129301
0.00759961
0
0
0.00185631
0.00742522
0.0568788
0.2504
0.108067
0.0242805
0.00963394
0
0
0.00309384
0.0123754
0.0438572
0.533964
0.228369
0.0500173
0.0269063
0.000569396
0.000695928
0.00660633
0.0106118
0.0910273
0.450286
0.17619
0.00298738
0.00107567
0.00398577
0.0048715
0.0906505
0.26444
0.115022
0.132492
0.148708
0.0103208
0.00689886
0.0050821
0.0048715
0.00769852
0.0063822
0.0140007
0.420338
0.420782
0.0325803
0.0140022
0.0369376
0.0341005
0.0632933
0.169403
0.142539
0.134815
0.3547
0.0702824
0.0787313
0.00864075
0.00890033
0.238928
0.472577
0.152762
0.0481095
0.0251252
0.0303117
0.0246364
0.0224541
0.0406773
0.240546
0.440868
0.103449
0.0427329
0.0136286
0.0179813
0.0195705
0.0220602
0.042159
0.152133
0.296898
0.216684
0.0371647
0.0511057
0.0878874
0.136997
0.0280475
0.0517254
0.175416
0.290423
0.157318
0.0104166
0.0135553
0.0692
0.106332
0.148375
0.154252
0.21945
0.364697
0.109434
0.0199637
0.00722188
0.0122045
0.0464775
0.252134
0.115686
0.0417287
0.0175789
0.00209095
0.00752677
0.0115833
0.0620587
0.136846
0.183883
0.0663655
0.102772
0.256463
0.163608
0.002758
0.00637876
0.0707568
0.251334
0.332949
0.179632
0.0501745
0.0190328
0.00348492
0.000417578
0.00265462
0.0737329
0.305701
0.031052
0.0237183
0.0396704
0.050616
0.0486489
0.0111172
0.0140701
0.0243829
0.0366603
0.0256496
0.0163053
0.232559
0.195499
0.13658
0.0581057
0.042756
0.116013
0.139936
0.0530478
0.0838289
0.0687548
0.153123
0.111717
0.0134689
0.00443573
0.00726039
0.0306171
0.0338527
0.0668756
0.438823
0.625117
0.309624
0.0935501
0.0225023
0.0701344
0.0728643
0.011063
0.00238615
0.0626403
0.0805281
0.141702
0.0794122
0.0416516
0.0517281
0.068376
0.00156652
0.00734391
0.175826
0.300937
0.192028
0.0631459
0.0241808
0.00693983
0.00949605
0.0190574
0.0554382
0.254173
0.288521
0.208359
0.0437551
0.00689541
0.0381697
0.0324123
0.00739206
0.0871877
0.579435
0.396751
0.181969
0.0250062
0.00180226
0.00545281
0.0040555
0
0.00259463
0.170997
0.387126
0.106289
0.00304094
0
0
0
0
0.000773145
0.12546
0.333169
0.221352
2.06478e-005
0
0
0
0
0.0195667
0.42685
0.348788
0.0543636
0.00135237
0
0
0
0.00377814
0.0164408
0.370768
0.36779
0.0773451
0
0
0
0
0
0.000148577
0.12117
0.295096
0.311806
0.00141347
0
0
0
0.00292368
0.00639255
0.107146
0.300192
0.319627
0.00235578
0.000690769
0.00525919
0.0234105
0.00536484
0.0152504
0.377069
0.438372
0.110687
0.00665873
0.00062487
9.14696e-005
0
0.00388735
0.0076107
0.183952
0.345341
0.192588
0.0110979
0.0034754
0.00434135
0.00659569
0.0162763
0.00918819
0.00658407
0.00644173
0.0604987
0.192636
0.0585349
0.0050582
0.0074023
0.000895206
0.000876755
0.00182604
0.00339122
0.0747695
0.612809
0.266553
0.00494548
0.000676017
0.000902584
0.0073141
0.0185619
0.0104985
0.0379284
0.0875374
0.129473
0.0225007
0.0117456
3.13127e-005
0.00166853
0.00623574
0.00298237
0.0618486
0.338499
0.49226
0.0808689
0.00431184
0
0
0
0
0.0124667
0.264822
0.240871
0.0376604
0.00605494
0.000929099
0.000398185
0
0
0.007956
0.304664
0.333467
0.10453
0.0320065
0
0
0
0
0.00677261
0.139477
0.507531
0.0899103
0.00182423
0.00650369
0.0027873
0
0
0
0.0953515
0.495409
0.146623
0.010355
0.00563037
0.00339988
0.00112324
0.000481389
0.00212348
0.198244
0.416994
0.0837274
0.0195028
0.028643
0.0183528
0.00786268
0.0151729
0.0736165
0.113959
0.405571
0.241371
0.102531
0.0141222
0.00595691
0
0
0
0.071326
0.288558
0.113061
0.027268
0.0101759
0.00357415
0
0
0.00765042
0.0402824
0.363275
0.457109
0.0630653
0.0202426
0.0231928
0.0317154
0.0286825
0.127133
0.0761042
0.126282
0.202889
0.137053
0.028125
0.0300399
0.0462002
0.0349574
0.0815935
0.0129876
0.0727364
0.183991
0.16236
0.00341105
0
0
0.000531638
0.0135799
0.0343311
0.237284
0.55918
0.0749184
0.0562627
0.000927989
0
0.000886064
0.00653064
0.00843036
0.174081
0.466515
0.309498
0.0597433
0.0140967
0.00777272
0.0123092
0.0216067
0
0.0111469
0.101587
0.175105
0.147376
0.1161
0.0256888
0.00135241
0.000247627
0
9.96137e-005
0.039599
0.140236
0.167465
0.00448075
0
0.000149072
0.000844738
0
0.0366402
0.193993
0.483323
0.562593
0.200491
0.0391867
0
0
0
0
0.0515249
0.343549
0.0535065
0.116566
0.040955
0.0523252
0.0310076
0.00931534
0.00233632
0.00186531
0.0225583
0.0951638
0.21496
0.231679
0.196287
0.0895364
0.0652074
0.0163018
0.00804263
0.0540915
0.219628
0.288565
0.0458416
0.00402243
0.00134081
0.00133076
0.00033269
0.00175173
0.0334589
0.193609
0.734859
0.159793
0.0184676
0.00642153
0.00931534
0.00232883
0
0.0389092
0.0479897
0.167249
0.230532
0.0964523
0.0544358
0.0146974
0.00327924
0.00439774
0.0103444
0.0172334
0.187278
0.517451
0.0997355
0.041303
0.00263399
0
0.000628249
6.98054e-005
0.0599636
0.372148
0.218453
0.013676
0.00478425
0.00187385
0.000468463
0
0.00643273
0.023574
0.337301
0.482985
0.0205267
0.00298245
0
0
0
0.000406418
0
0.0488876
0.451781
0.114436
0.0187794
0.000382741
0
0
0
0.0119762
0.0617226
0.405903
0.240041
0.0121986
0
0
0
0
0.00536014
0.126511
0.413976
0.0391601
0.00186192
0
0
0
0.000436368
0.00774678
0.0960968
0.533983
0.132305
0.00274855
0.000530365
0
0
6.23383e-005
0.0243582
0.107574
0.398027
0.491477
0.0256983
0.0293788
0.00275697
0.000403571
0.000688069
0.0146571
0.0161613
0.103217
0.324462
0.0806973
0.0503991
0.0152978
0.00972241
0.0157359
0.0170052
0.120016
0.505647
0.271091
0.0273179
0.0204767
0.00165418
0.000959344
0.00367975
0.0200001
0.0212396
0.0860697
0.137117
0.0464515
0.0411293
0.0127416
0.00953537
0.0244741
0.000507758
0.0063942
0.0203614
0.00551389
0.0273081
0.103739
0.153446
0.081311
0.0819
0
0.00318814
0.00998857
0.000787698
0.0409888
0.148661
0.621485
0.211546
0.0341365
0.0142295
0.0105093
0.0369903
0.0577918
0.171046
0.174159
0.0860795
0.165145
0.22121
0.0233347
0.0138507
0.0156524
0.00773051
0.133468
0.112665
0.27206
0.178928
0.101751
0
0
0
0
0.00295457
0.0283871
0.420106
0.134803
0.00522413
0.00265804
0.00413286
0.000997898
0
0.00043284
0.0407905
0.464824
0.284016
0.0199911
0.00138957
0.00693934
0.00400482
0.00671559
0.0281387
0.0308188
0.196384
0.147718
0.0194637
0
0.0304574
0.012776
0.0470091
0.161139
0.0207459
0.434854
0.350181
0.0291068
0.0082925
0.0128936
0.00311322
0
0
0.0424003
0.207722
0.217371
0.111281
0.0107335
0.0106739
0.00186793
0
0
0.00782758
0.195536
0.417008
0.158406
0.0225405
0.0691197
0.0236035
0.019848
0.181824
0.0128475
0.305088
0.256024
0.171195
0.0689821
0.0711286
0.0391339
0.0080307
0.052916
0.0113
0.196529
0.349526
0.377698
0.0239846
0.00969544
0
0
0.00235676
0.0064512
0.138543
0.394917
0.083752
0.124196
0.0178189
0
0
0.00392794
0.00813974
0.0793754
0.331386
0.427846
0.0968696
0.0680359
0.0288274
0.00786444
0.0164973
0.0367571
0.102008
0.194025
0.207353
0.191605
0.0749968
0.00651094
0.00112349
0.0274956
0.0519374
0.0156577
0.134471
0.468811
0.174204
0.00738381
0
0
0.000409775
0.000761011
0.0091204
0.0592226
0.387516
0.534891
0.0933462
0.00668555
0
0
0
0
0.00667567
0.23763
0.149581
0.0203089
0
0
0.00286842
0.00532708
0.000123725
0.0450536
0.348535
0.41631
0.0808125
0
0
0
0
0
0.0111783
0.219081
0.329542
0.26831
0.0163425
0
0
0
0
0.000601527
0.0328062
0.156372
0.611387
0.0851593
0.0180553
0.00564296
0
0
4.98076e-005
0.00719567
0.310996
0.145489
0.0021508
0
0
0
0
0.00244057
0.0586509
0.305874
0.331767
0.0166156
0.0085985
0.00338578
0
0
0.000348653
0.0188583
0.0661995
0.378912
0.12986
0.02263
0.00482707
0
0
0
0.000616929
0.104973
0.39616
0.245007
0.0174421
0.000689581
0
0
0
0.00210116
0.142122
0.324846
0.039313
0.00838172
0.00289624
0
0
0
0.00102522
0.150631
0.59918
0.142499
0.00322729
0.00138398
0
0
0
0.0012607
0.042524
0.260085
0.311109
0.0151367
0
0
0
0.000187937
0.00205975
0.00439084
0.168473
0.606625
0.0593533
0.00215245
0.00323871
0.000258528
0.00350562
0.00415459
0.0549392
0.437841
0.206377
0.00165719
0.00299545
0
0.00123394
0.00172688
0.00226341
0.0106581
0.222699
0.265947
0.019072
0.00664215
0.00690695
0.00386627
0.0144652
0.0119745
0.0183201
0.0821217
0.764956
0.216007
0.0532217
0.0260361
0.000868865
0.0152738
0.0487074
0.0301831
0.0277035
0.103249
0.0996267
0.0836352
0.0310959
0.00661752
0.0468092
0.0816432
0.0586497
0.0790613
0.216808
0.0826995
0.0435897
0.0392115
0.00743456
0.0396787
0.0937274
0.0751475
0.0388378
0.0607309
0.0554798
0.0760604
0.062955
0.0204415
0.0619602
0.107112
0.139787
0.142522
0.15555
0.195642
0.223344
0.0920618
0.0232256
0.110989
0.139835
0.0646946
0.0757854
0.0556455
0.045136
0.199513
0.0439405
0.079043
0.119099
0.0676387
0.31308
0.343004
0.195865
0.177717
0.0664572
0.029331
0.10024
0.0863476
0.0211394
0.0622137
0.130782
0.121214
0.0666501
0.0873772
0.108002
0.274119
0.202394
0.0243622
0.0111133
0.0618031
0.0376479
0.058201
0.0845152
0.0389293
0.0665317
0.0869764
0.0323398
0.00848
0.0880354
0.0585841
0.213105
0.41608
0.0317017
0.393617
0.242755
0.0586544
0.0122696
0.0742854
0.110568
0.110154
0.0432893
0.0349899
0.0981061
0.116646
0.0333489
0.0641548
0.10104
0.0988331
0.284458
0.139935
0.00629218
0.1906
0.269873
0.172413
0.0469184
0.0343288
0.0135916
0.0348872
0.18668
0.00797653
0.299492
0.160675
0.0937774
0.265185
0.135229
0.0744821
0.02136
0.0517773
0.00653566
0.22882
0.227791
0.225722
0.0820975
0.051547
0.0293611
0.0454249
0.0409243
0.00126105
0.183837
0.204796
0.140679
0.417253
0.229603
0.0749885
0.0174304
0.00739676
0.00208594
0.187651
0.247163
0.185211
0.202289
0.163169
0.0804941
0.0218298
0.00619736
0.0138081
0.0411673
0.0923245
0.201849
0.151511
0.0878253
0.0181408
0.00311854
0.0103289
0.0195107
0.00342151
0.0807072
0.459014
0.261852
0.200609
0.0568098
0.0295648
0.000943033
0.00409374
0.0463809
0.142518
0.201897
0.14449
0.0524011
0.018786
0.0282523
0.00729828
0.00945537
0.0167555
0.132793
0.54234
0.121195
0.0092352
0
0
0.00123799
0.00229912
0
0.0385566
0.346127
0.382515
0.0360559
0
0
0
0
0
0.00984135
0.263997
0.18447
0.025978
0.0290496
0.00316195
0.00525996
0.0061986
0.00698697
0.031137
0.386115
0.498298
0.0777599
0.0365463
0
0.000724511
0.00253273
0.0453147
0.0127701
0.317472
0.401599
0.0777891
5.59802e-005
0
0
0
0
0.00222558
0.101996
0.439167
0.33424
0.00581019
0
0
0
0
0.000774703
0.0293476
0.371128
0.082222
0.00489973
0.00298435
0.00270312
0.00493591
0.0707652
0.0134528
0.188859
0.295493
0.356167
0.0240048
0.0459496
0.0200321
0.00459976
0.0265082
0.00511917
0.0549864
0.174681
0.464748
0.069263
0
0.00201992
0
0
0.00126242
0.00211769
0.0618926
0.605981
0.201587
0.00025034
0.0107298
0
0
0.0102983
0.00338014
0.110985
0.359177
0.0586193
0.040263
0.0223421
0.00452563
0.00193956
0.00324264
0.00335025
0.0866226
0.243898
0.0836591
0.0170331
0.0314337
0.00433271
0.0110843
0.045724
0.0241055
0.0584782
0.652168
0.280178
0.00156276
0.0487574
0
0.0129607
0.0190239
0.0110321
0.0989501
0.223029
0.145129
0.033151
0.0421305
0.0120082
0.029418
0.0417107
0.0550406
0.081293
0.163655
0.159383
0.0145578
0.0737779
0.0213906
0.0388748
0.0956875
0.0425081
0.108755
0.145464
0.153438
0.0261539
0.112913
0.0600267
0.0643974
0.126727
0.0703775
0.231832
0.122075
0.0846326
0.0938901
0.0425901
0.040193
0.0348214
0.0639196
0.128534
0.212098
0.141152
0.111138
0.147274
0.115667
0.0953692
0.0990793
0.0795833
0.107366
0.166934
0.161251
0.0959816
0.0817363
0.128444
0.0809671
0.128561
0.158943
0.0853024
0.100681
0.165506
0.102214
0.109936
0.129766
0.0385451
0.195133
0.180441
0.0465704