0
0.0102494
0.0251737
0.0635516
0.114253
0.0244622
0.00681735
0.00106464
3.80642e-005
0
0.00583175
0.0244115
0.13326
0.603886
0.105292
0.000895276
0
0
0
0.00481091
0.016936
0.0509872
0.180277
0.0572673
0.0115845
0.00150988
0.000266449
0
0.000833107
0.0847233
0.235776
0.619558
0.176194
0.00149213
0
0
0
0
0.00433782
0.0549286
0.55357
0.10084
0.00248344
0.00142971
4.39189e-005
0
0
0.00227278
0.0191129
0.291106
0.0541782
0.00891309
0.00449096
0.000307432
0
0.000659073
0.0552941
0.168717
0.558414
0.135274
0.00262546
0.010008
0.000307432
0
0.00226491
0.0118717
0.0373248
0.380861
0.0565905
0.00505777
0.0314367
0.00215203
0
0
0.000660399
0.077751
0.385986
0.032852
0.00418984
0.00196833
0.00017792
0
0.0013899
0.00545316
0.11989
0.353642
0.0312468
0.00511076
0.00746988
0.00864944
0
0.00104227
0.00309176
0.0474202
0.581161
0.0333657
0.00140427
0.0137783
0.00124544
0
0.0023165
0.00540517
0.0808804
0.482125
0.098612
0.00805098
0.00452988
0.00123563
0
0.00184004
0.00840182
0.0512197
0.225161
0.0287909
0.00676597
0.00988913
0.0114507
0.00361208
0.000511345
0.0249425
0.0933485
0.457341
0.0271551
0.00112859
0.00141273
0.00524789
0
0.00306674
0.00715572
0.0637888
0.294542
0.0765243
0.0106584
0.00599696
0.00163582
0.00216725
0.00217748
0.0156052
0.123137
0.685818
0.0344148
0.00197075
0.000856709
0.00240093
0.0214331
0.00718854
0.0752746
0.188931
0.394407
0.0429612
0.00701711
0.000922211
0.0214331
0.0335408
0.0141583
0.0663714
0.0645393
0.127295
0.0448488
0.0250036
0.0280936
0.036388
0.0133734
0.0119879
0.0638938
0.225997
0.627921
0.0714597
0.0432601
0.00645548
0.0133734
0.0485257
0.0198481
0.0695123
0.0724956
0.0935002
0.119227
0.114395
0.0610916
0.053271
0.0458025
0.0113524
0.0365035
0.0259543
0.144166
0.0560517
0.0481168
0.0687693
0.0729204
0.0718385
0.0389495
0.0480998
0.122909
0.153904
0.0217374
0.0442929
0.0535332
0.110918
0.124835
0.0313371
0.0481035
0.0124979
0.151929
0.0678795
0.162341
0.114683
0.106942
0.437316
0.285397
0.167847
0.10862
0.176236
0.00495187
0.0947444
0.0423625
0.215173
0.0422463
0.0302191
0.0303854
0.0766293
0.0291517
0.00321143
0.00693158
0.00948692
0.0345619
0.143277
0.102791
0.0600766
0.0772522
0.00798823
0.0132865
0.00913498
0.0120607
0.0925702
0.233531
0.20776
0.145164
0.122667
0.0201851
0
0.00156914
0.000646674
0.0753517
0.485692
0.433491
0.308714
0.144992
0.0119656
0.04653
0.0575266
0.0536661
0.253761
0.0945775
0.0569866
0.0402224
0.0636006
0.0321471
0.0246102
0.0121622
0.0175891
0.0691174
0.251534
0.126907
0.219908
0.100765
0.0629366
0.128724
0.059497
0.02206
0.0495332
0.24597
0.115676
0.0924536
0.127595
0.147977
0.0749212
0.161798
0.135824
0.199307
0.277035
0.0629663
0.189884
0.1905
0.235227
0.100511
0.301444
0.264322
0.247528
0.183028
0.105753
0.215382
0.054326
0.0987862
0.26485
0.0993994
0.020359
0.055089
0.0342256
0.0152894
0.0813165
0.13784
0.224279
0.285887
0.135698
0.0278343
0.0341462
0.265197
0.0599049
0.166995
0.0536971
0.0685486
0.0693977
0.148849
0.203042
0.38526
0.0892057
0.0223102
0.126245
0.0565367
0.0820533
0.117524
0.185966
0.135287
0.179021
0
0.00268789
0.0217991
0.0493888
0.177513
0.0309746
0.00355964
0.00056151
9.90901e-005
0
0
0.162988
0.288183
0.392275
0.0985797
0.000351939
0
0
0
0.00172515
0.0131367
0.0255055
0.23268
0.114748
0.0145662
0.000854517
0
0
0.000815056
0.082457
0.14478
0.487212
0.528565
0.0842209
0
0
0.00121443
0.00549687
0.176918
0.332015
0.334744
0.0950662
0.00218117
0.00541676
0.000649662
0.00202406
0.0137365
0.0452901
0.0940747
0.325634
0.0256892
0.00607242
0.0174178
0.00195311
0.00461858
0.00640409
0.0968235
0.183815
0.301889
0.480327
0.105624
0.000730782
0.00340531
0.00769763
0.0134185
0.0317716
0.0884843
0.345951
0.0822576
0.0421713
0.00511547
0.00567552
0.000309425
0.00367729
0.00851276
0.059172
0.440875
0.0249216
0.00195436
0.00555529
0.000598646
0
0.00232556
0.00550813
0.0714915
0.366582
0.0765878
0.00516433
0.00278079
0
0.00117676
0.00299774
0.00701818
0.0615215
0.52604
0.0604728
0.0120459
0.00212575
0.000867637
0
0.00333457
0.0176471
0.0730225
0.488982
0.10196
0.005328
0.000397256
0
0
0.00298525
0.00707062
0.0373233
0.244579
0.0673759
0.00662929
0.00356962
0
0
0.00106929
0.00358141
0.134966
0.517882
0.0387863
0.00217077
0.000509945
0
0
0.00428049
0.0233628
0.0692053
0.282817
0.11987
0.025084
0.000509945
0
0.00444994
0.0183473
0.0121642
0.232425
0.558589
0.189236
0.0240129
7.28493e-005
0
0.0079605
0.00342776
0.0124614
0.184558
0.346715
0.0462112
0.029377
0.00301368
0.0133606
0.0565939
0.0251404
0.0279121
0.0427757
0.0546088
0.0700472
0.0666238
0.0199654
0.0834713
0.051525
0.144724
0.0192423
0.240716
0.426903
0.134543
0.0135165
0.00202194
0.0309012
0.15488
0.463604
0.167197
0.148423
0.0682139
0.0308972
0.020818
0.0155162
0.187086
0.0583324
0.057422
0.0306884
0.000369097
0.0194015
0.0104771
0.0245409
0.00903463
0.0277002
0.158855
0.185629
0.16181
0.00225296
0.018094
0.00278094
0.0122324
0.00362087
0.0331869
0.137412
0.319064
0.180056
0.0445278
0.0057276
0.00261823
0.00967686
0.00417314
0.0457339
0.272691
0.511672
0.547129
0.012446
0.0317298
0.0205779
0.0154757
0.00104081
0.023819
0.179088
0.175791
0.149161
0.0396239
0.00503035
0.00177217
0.000105651
2.64126e-005
0.0338821
0.200121
0.250362
0.174163
0.115182
0.0587371
0.065045
0.0229942
0.00982211
0.0708036
0.335763
0.334655
0.304737
0.0187211
0.0377288
0.0609746
0.0114084
0.075469
0.0938892
0.287839
0.221627
0.144034
0.15511
0.239228
0.212563
0.0152041
0.125782
0.123369
0.0861954
0.0825687
0.0391447
0.120078
0.231003
0.12553
0.0830733
0.0409974
0.0646902
0.0435949
0.00866383
0.0284289
0.0867651
0.279685
0.118241
0.115
0.116142
0.137076
0.0499491
0.0585024
0.0402885
0.216905
0.486485
0.216647
0.0130127
0.0212967
0.0219117
0.0761807
0.215567
0.0827325
0.118757
0.419489
0.178832
0.0162629
0.0169916
0.0279999
0.0800616
0.0166395
0.0385148
0.0439435
0.122154
0.0691505
0.141551
0.137866
0.29127
0.107962
0.0154695
0.0390016
0.0192344
0.0663767
0.0931408
0.239395
0.12577
0.185311
0.197423
0.384768
0.0901818
0.0550977
0.159987
0.0592621
0.0814007
0.0898586
0.115771
0.264095
0.250426
0.100382
0.0462888
0.110177
0.0682612
0.151469
0.189053
0.256949
0
0.0037749
0.00594058
0.0282203
0.103048
0.0888444
0.0143672
0.000873565
0
0
0.00226494
0.00570625
0.145488
0.271437
0.479175
0.0890654
0
0
0
0.00695466
0.0406308
0.135405
0.096137
0.0233758
0.00558053
0.000124795
0
0
0.0022761
0.0371953
0.524912
0.487949
0.174199
0.0152974
0
0
0.0010883
0.000504458
0.0046415
0.142419
0.251545
0.346247
0.0785113
0.000206486
0.000962187
0.00181384
0.000840764
0.0122622
0.0716883
0.261576
0.0610164
0.016944
0.0014454
0.00160364
0
0.000124398
0.0217395
0.417742
0.517746
0.151088
0.0120761
0
0
0
0.000870789
0.023102
0.150821
0.368507
0.0392469
0.00113637
0
0
0.000375756
0.000174174
0.00595708
0.0564242
0.418357
0.0384082
0.00461231
0.000813938
0.000332213
0.00569676
0.00459199
0.0114825
0.0839818
0.422555
0.0317527
0.00477758
0
0.000299831
0.00486316
0.000490361
0.00776582
0.0922263
0.515606
0.0597422
0
0.0178631
0.001836
0.0921983
0.118387
0.0513487
0.118099
0.432098
0.0542936
0.000682511
0.076706
0.0149508
0.00487484
0.0155664
0.0460482
0.0567822
0.144117
0.0379795
0.0167469
0
0.000256571
0.00784232
0.0558717
0.174677
0.135549
0.195431
0.109657
0.0160575
0
3.66531e-005
0.0873588
0.201746
0.24264
0.0958038
0.131083
0.00790089
0.00239242
0.0211415
0.00584184
0.0719267
0.286855
0.686174
0.201287
0.171329
0.0311538
0.00515787
0
0.000256571
0.0508092
0.0957945
0.0934206
0.0634011
0.0763409
0.0461869
0.000970663
9.60358e-005
0.00254768
0.150088
0.216574
0.102609
0.0895737
0.0145626
0.00534042
0
0.000672251
0.0164458
0.0913976
0.23828
0.358706
0.0876572
0.0596051
0.0186603
0.00608519
0
0
0.236507
0.588992
0.422189
0.0757314
0.0267845
0.00399422
0.00356791
0
0
0.0708781
0.215108
0.10349
0.0569724
0.00228906
0.00053031
0.000795465
0.000163079
0.00484647
0.103072
0.387208
0.285285
0.0178976
0.00576679
0.00606321
0.00556826
0
0.00281648
0.0912654
0.465021
0.230527
0.0351723
0.00452003
7.57586e-005
0.000113638
0
0.000129819
0.131992
0.53204
0.220615
0.0182851
0.0123139
0.000884178
0.00312634
0.00349631
0.00090873
0.14053
0.232849
0.197936
0.0117487
0.0692347
0.0711478
0.0144852
0.0452124
0.0322738
0.0939726
0.0835275
0.0484525
0.0403925
0.267163
0.217625
0.0201719
0.0753539
0.0461419
0.0934149
0.193233
0.123004
0.0473705
0.251255
0.0589351
0.0103127
0.0105247
0.00315686
0.028272
0.0638688
0.0371041
0.0644458
0.665156
0.269509
0.0124903
0.0113457
0.00461351
0.016731
0.0309631
0.05322
0.0794301
0.351174
0.2401
0.00709487
0.0194112
0.010778
0.0533551
0.235382
0.0976929
0.0546103
0.182378
0.176273
0.0524759
0.023546
0.00535083
0.00768524
0.0627255
0.051369
0.0587703
0.470479
0.381459
0.00425692
0.00277303
0.00118844
0.0664054
0.10871
0.103091
0.186663
0.206061
0.255363
0.0840846
0.0221206
0.0032105
0.0666455
0.243154
0.0461716
0.0974639
0.0611964
0.0436668
0.0622498
0.0827606
0.0421199
0.0613193
0.210553
0.0674112
0.164443
0.136314
0.130726
0.0410058
0.10124
0.087554
0.082204
0.0885453
0.0433692
0.26732
0.11534
0.155971
0.0970054
0.071112
0.106267
0.170993
0.0924353
0.0639986
0.324636
0.1436
0.304247
0.0578267
0.154235
0.470767
0.00647608
0.0288062
0.10176
0.104674
0.0493988
0.00512646
0.0011604
0
0.00138966
0.000529303
0.00886935
0.130789
0.292545
0.409178
0.0585917
0
0
0
0.0932534
0.143429
0.267794
0.0547787
0.00960326
0.00290181
0
0
0.0271198
0.0101379
0.0832289
0.667167
0.19696
0.185178
0.0304269
0
0
0.0024846
0
0.00109822
0.0695095
0.238265
0.544845
0.0840504
0
0
0
0.00242181
0.00938712
0.0593264
0.119851
0.262289
0.0421657
0
0.00319755
0.00479633
0.00180089
0.0361752
0.410325
0.236666
0.354102
0.0431274
0.000638155
0.0121249
0
0.0295589
0.14161
0.164553
0.150311
0.151552
0.0244174
0.00106359
0.0255374
0.00799388
0.0316371
0.0455018
0.0353276
0.0712413
0.18979
0.0588127
0
0.0388846
0.0175562
0.159435
0.233165
0.0846106
0.0677507
0.112847
0.0534948
0
0.0969268
0.0408238
0.100806
0.334221
0.193547
0.071261
0.0293748
0.0214563
0.00662445
0.033343
0.0257977
0.21847
0.573641
0.402456
0.0885119
0.0144487
0.0171701
0.0107707
0.0508167
0.079046
0.0797524
0.14991
0.117348
0.0476983
0.0364035
0.00211294
0
0.0144142
0.0146846
0.0640887
0.293091
0.252048
0.0875098
0.07939
0.00106575
0.00159862
0.000133639
0.00448824
0.0933995
0.309962
0.242758
0.0451748
0.0149314
0.000568501
0.00079996
0.0147769
0.0423161
0.125746
0.606445
0.391611
0.0822535
0.0291063
0.000152249
0.00250781
0.0162566
0.0678572
0.0359009
0.281511
0.231792
0.0307637
0.0215258
0.00261395
0.00392093
0.000546077
0.000364051
0.0745966
0.437149
0.307312
0.0114026
0.00565203
0.00156837
0.00235256
0.00348907
0.00205417
0.131825
0.393661
0.239821
0.026294
0.00476278
0.000373422
0.0061509
0.0216307
0.0943524
0.282406
0.359912
0.230988
0.00565736
0
0.0224367
0.0261532
0.0344869
0.0653614
0.110121
0.599294
0.269092
0.00343024
0.00911358
0.00459777
0.00114944
0.0188492
0.0141312
0.102209
0.297061
0.0973804
0.00694631
0.0580032
0.0115423
0.00668877
0.022841
0.018531
0.337508
0.29418
0.114973
0.00430636
0.0408067
0.170924
0.0841504
0.109328
0.0351933
0.0707498
0.0391083
0.0208378
0.0188274
0.14809
0.177861
0.0490053
0.0730992
0.0283698
0.0201309
0.0269552
0.00936261
0.0139588
0.212022
0.0370203
0.00258854
0.00417478
0.00155854
0.0027081
0.0100803
0.00475375
0.0209186
0.527855
0.205897
0.00035074
0.00052611
0
0.00318939
0.00231137
0.00619422
0.00635781
0.208881
0.0917342
0.00161342
0.00134612
0.00181445
3.39845e-005
0.000181585
0.000884888
0.00161844
0.601205
0.388611
5.01057e-005
7.51585e-005
3.39845e-005
0.00500193
0.0160134
0.0128842
0.0501721
0.339083
0.227828
0
0
0
0.0428886
0.0252443
0.0734596
0.214879
0.140972
0.117964
0.00813456
0.0016117
0
0.000714561
0.000856475
0.00495212
0.0699316
0.573276
0.327135
0.00284469
0.000149721
0
0.00612694
0.00627658
0.0410652
0.236707
0.375663
0.112762
0.0267004
0.00381724
0
0.117889
0.0252724
0.0609933
0.28284
0.0804811
0.0899444
0.0221292
0.0189287
0.10335
0.277432
0.0579331
0.0610969
0.158303
0.0437349
0.103234
0.0190626
0.0686325
0.520171
0.0344804
0.00709152
0.0339077
0.21552
0.231435
0.0831444
0.0413413
0.0213964
0.0155069
0.0955193
0.0986732
0.0959311
0.223802
0.36499
0.096446
0.0319033
0.0232199
0.113665
0.127424
0.200238
0.222397
0.0161265
0.0184309
0.0170859
0
0.0112235
0.0575475
0.0170014
0.13363
0.656859
0.0821157
0.0719154
0.0306325
0
0.00437336
0.00767962
0.146365
0.108968
0.0943287
0.0340696
0.0682665
0.0284766
0
0.134617
0.2665
0.102364
0.132804
0.289071
0.168427
0.238587
0.0712946
0.00715244
0.0591354
0.048144
0.0120069
0.094819
0.470271
0.127323
0.133971
0.0316505
0.000862993
0.0163968
0
0.0475206
0.292474
0.267233
0.100864
0.0932718
0.0330508
0.00143832
0.0285719
0.0152315
0.0385654
0.143137
0.243572
0.1459
0.20844
0.14465
0.0777359
0.0498826
0.014443
0.0504667
0.231468
0.241875
0.0935745
0.195567
0.120669
0.107884
0.146237
0.210773
0.0323311
0.212111
0.216459
0.0615872
0.0101631
0.00964207
0.0135268
0.00389505
0.0192081
0.049261
0.266823
0.475793
0.200401
0.00817006
0.0316077
0.0367449
0.00406271
0.0267825
0.0216963
0.0925046
0.215477
0.100803
0.0629074
0.043756
0.0401522
0.0548518
0.13986
0.0332121
0.0714381
0.382106
0.300204
0.0571904
0.203784
0.184368
0.213788
0.12048
0.0451596
0.288875
0.325846
0.111616
0.0276968
0.0177973
0.0145534
0.0195616
0.0323385
0.101771
0.383464
0.250986
0.158506
0.0632711
0.0395035
0.0187218
0.0864856
0.128824
0.0308311
0.0980817
0.227264
0.125306
0.0514947
0.0895986
0.121373
0.201852
0.228499
0.127213
0.125512
0.120434
0.0984463
0.137046
0.0720393
0.19994
0.206249
0.287054
0.146848
0.15019
0.0804947
0.0470595
0.0121196
0.011764
0.0240084
0.152399
0.182607
0.31087
0.160547
0.0356136
0.000397329
0
0.0599905
0.136726
0.184304
0.148399
0.156457
0.0728517
0.0205294
0.0302238
0.0472188
0.0297527
0.116943
0.279906
0.173071
0.139892
0.0492596
0.00121499
0.0145302
0.0115299
0.263152
0.456562
0.374595
0.152902
0.12065
0.0589601
0.00842228
0.000849682
0.0196423
0.187377
0.165696
0.0542486
0.0187589
0.0116025
0.00373365
0.00190834
0.00764223
0.070333
0.202452
0.082204
0.0186
0.00338021
0.0308399
0.0134461
0
0.00499793
0.0123867
0.415457
0.497189
0.0999649
0.0214474
0.00256482
0.0082378
0.000131772
0.000960529
0.041222
0.402295
0.434057
0.122241
0.00565159
0.000969039
0.000253047
0.00208706
0.00489397
0.131523
0.0880262
0.00423977
0.00204118
0.00163983
9.61901e-005
2.55886e-005
0.000298152
0.000929022
0.479087
0.282162
0.000186386
0.000275089
0.000214086
0.000610183
0.00116838
0.00395595
0.00218927
0.137877
0.138215
0.103253
0.0568246
0.00618088
5.7714e-005
0
0.00637365
0.00638611
0.693191
0.254714
0.00932544
0.00365477
0.000882982
0
0
0
0.0172514
0.42637
0.229791
0.0171615
0.00297244
0.000872281
0
0
0
0.0529344
0.246103
0.130516
0.0972197
0.0216972
0.00610597
0
0.000473668
0.00535383
0.0135813
0.62614
0.229483
0.0247506
0.00457476
0.0014538
0
0.00331567
0.031746
0.0712067
0.308125
0.178128
0.119718
0.0320233
0.0101766
0
0.000517419
0.00683858
0.0804296
0.208782
0.105637
0.0995398
0.0195984
0.0041158
0.0011305
0.0184717
0.0633299
0.191023
0.484714
0.111007
0.0204108
0.00455982
0
0
0.00625736
0.0521885
0.222825
0.324729
0.13012
0.111134
0.0385297
0.0105654
0
0.00670399
0.100859
0.309528
0.424166
0.151461
0.0845466
0.0701274
0.017044
0.244825
0.0580972
0.0175581
0.0360091
0.0405658
0.0086545
0.0138375
0.215516
0.492918
0.316271
0.23034
0.151901
0.217376
0.15552
0.0406007
0.0159415
0.100328
0.122732
0.193157
0.0500047
0.0076996
0.0245902
0.0246614
0.0106615
0.0250212
0.078516
0.23429
0.252931
0.210471
0.0711547
0.0689757
0.0251081
0.00244745
0.00740745
0.0303941
0.0878444
0.0514903
0.112897
0.0922956
0.0881635
0.0682527
0.0807866
0.0832922
0.160169
0.0366954
0.0254342
0.0394496
0.0375283
0.0254807
0.0657695
0.0736646
0.154447
0.537875
0.233699
0.0586627
0.0912248
0.0462462
0.0352617
0.0330669
0.0133959
0.0320157
0.131021
0.0352539
0.0260619
0.0191373
0.0136479
0.0358609
0.0265407
0.0327973
0.113751
0.590291
0.12081
0.0160647
0.0143778
0.0361957
0.024438
0.0266703
0.0564572
0.090401
0.239132
0.15456
0.0457625
0.00992922
0.0423145
0.057198
0.0245477
0.164273
0.207958
0.360938
0.181698
0.0253059
0.0148239
0.00315162
0.014473
0.00798441
0.031207
0.086853
0.37457
0.12413
0.0709305
0.0233862
0.00377901
0.0018781
0.00738914
0.0597529
0.160965
0.516822
0.321008
0.0279174
0.00782675
0.0238551
0.013473
0.0101082
0.0466619
0.1234
0.268313
0.24059
0.0539479
0.0165906
0.0229829
0.000779144
0.0473485
0.0167236
0.321127
0.304987
0.233047
0.0230212
0.00237276
0.000383417
0
0.0138155
0.028598
0.170554
0.312355
0.19491
0.0284282
0.016781
0
0
0.0252911
0.0314389
0.361189
0.439684
0.164772
0.0617489
0.0164019
0.00243011
0.00524571
0.0283593
0.0122293
0.13925
0.225695
0.143675
0.0526764
0.00858337
0
0.03672
0.0263781
0.256087
0.245908
0.202323
0.152153
0.030086
0.0136775
0
0.00314742
0.00621585
0.011421
0.133702
0.384895
0.21202
0.0538159
0.00195393
0.00164154
0.0244943
0.0177777
0.125194
0.231547
0.551218
0.235053
0.0162193
0.0106318
0
0.0109894
0.0168106
0.25302
0.304774
0.0968996
0.0256456
0.0427996
0.0177196
0
0
0.0326788
0.210496
0.385665
0.194926
0.0359466
0.0277113
0.00637906
0.00133541
0.00859675
0.01279
0.111471
0.238904
0.347773
0.123537
0.0746129
0.0106318
0.000190773
0.00028616
0.0490482
0.126087
0.265759
0.379238
0.30873
0.0215306
0.00343803
0.0112166
0.00587343
0.109838
0.179226
0.186355
0.0945999
0.0184565
0
0
0.0188708
0.0202735
0.529231
0.196388
0.0465274
0.0176706
0.00032865
0.0656298
0.00206282
0.00672995
0.0122062
0.110678
0.194278
0.218529
0.141734
0.169773
0.0303124
0
0.0115108
0.0768019
0.535048
0.247972
0.0942036
0.0338782
0.039045
0
0.000467259
0.00768511
0.0195052
0.42687
0.182475
0.0113387
0.00293427
0.000194089
0
0.00327081
0.0316493
0.0567065
0.251862
0.163059
0.0556506
0.00407586
0.00135862
0.00295254
6.67513e-005
0.00328034
0.0496926
0.531803
0.257809
0.0119246
0.00392001
0.00456734
0
0.000467259
0.00502852
0.0273711
0.333169
0.376604
0.0338085
0
0
0.00375849
0.00779172
0.044
0.170916
0.339572
0.149016
0.0432685
0.021758
0.0120827
0.0114579
0.0827186
0.0629426
0.149883
0.169085
0.14058
0.0811594
0.115163
0.0519181
0.00626414
0.0057943
0.0152077
0.0869516
0.487655
0.40545
0.0345724
0.00675208
0.0103981
0.0627667
0.133726
0.062228
0.12641
0.290785
0.121662
0.0921399
0.112587
0.12088
0.170487
0.0518179
0.0624116
0.135275
0.134001
0.070359
0.0514605
0.0398292
0.138456
0.197394
0.188561
0.0785567
0.205025
0.144606
0.0034498
0.0999141
0.0340781
0.064496
0.0666155
0.136506
0.143179
0.0566771
0.095175
0.0607268
0.0574986
0.107885
0.162103
0.067074
0.152159
0.171849
0.118059
0.226266
0.00574966
0.184855
0.0714483
0.0711887
0.0847315
0.0840552
0.0439056
0.0761564
0.1354
0.0455938
0.0985268
0.0698958
0.060893
0.164108
0.0755415
0.051765
0.188959
0.134647
0.097117
0.123284
0.354067
0.182395
0.0489275
0.0299004
0.0597967
0.0321291
0.143995
0.0249795
0.177076
0.0957832
0.0762051
0.209439
0.121766
0.150833
0.0701347
0.114642
0.0416325
0.0710474
0.0714177
0.211811
0.084122
0.06018
0.0377679
0.0755068
0.0670206
0.00872942
0.0303253
0.220975
0.127927
0.151211
0.07657
0.0608887
0.033225
0.10263
0.00343817
0.147933
0.59326
0.398706
0.0572334
0.0624923
0.116455
0.0701993
0.0711401
0.017687
0.00650423
0.00241962
0.0411563
0.0319223
0.0400283
0.129949
0.0652149
0.210324
0.0252942
0.0561543
0.0732708
0.0763659
0.0186194
0.00623381
0.00750998
0.00150199
0.0232067
0.0129127
0.203845
0.33263
0.149855
0.0158239
0.0108229
0.00675794
0.000328932
0.0146722
0.0319769
0.304989
0.556326
0.252053
0.00835106
0.0064539
0.0248828
0.00396027
0.0546291
0.0106374
0.0635328
0.113417
0.0882331
0.00341469
0.00347761
0.0555482
0.0106211
0.026527
0.0258838
0.126204
0.383362
0.219289
0.0124627
0.00741021
0.00161501
8.50002e-005
0.00125056
0.0268831
0.125153
0.333709
0.164834
0.0162158
0.0010586
0.00657148
0.00985722
0.00111403
0.0474159
0.251014
0.522103
0.128021
0
0.000278921
0.0126299
0.00488081
0.00508052
0.0262559
0.1362
0.294376
0.09245
0.00311749
0
0.00394289
0.0063971
0.000901996
0.0335209
0.225832
0.471469
0.125716
0.0149003
0
0.00491854
0.0073778
0.000833815
0.0119116
0.11475
0.377277
0.145061
0.0272305
0
0.00282902
0.00365287
0.0101888
0.0167289
0.220663
0.478897
0.298861
0.00634267
0
0.00295112
0.00442668
4.88234e-005
0.00440392
0.0914604
0.320649
0.132999
0.0196797
0
0.0153062
0.0188247
0.00384659
0.0133362
0.26124
0.402304
0.158996
0.0585521
0.000664966
0.00246936
0.0115742
0.0311791
0.0368124
0.211571
0.256401
0.212585
0.134697
0.00662152
0.0142628
0.11749
0.33831
0.122951
0.0578664
0.107873
0.16557
0.0754062
0.00110828
0.0172855
0.0244522
0.00928012
0.0153449
0.177563
0.315178
0.283338
0.2396
0.0231108
0.0475946
0.119835
0.12206
0.0320552
0.0489317
0.196493
0.455907
0.0501361
0.00425492
0.0181407
0.100755
0.44776
0.15191
0.00275367
0.00951682
0.0267561
0.00129974
0.000324935
0.00809682
0.0331354
0.375069
0.267164
0.00388739
0
0
0.127505
0.0265885
0.075364
0.145376
0.33173
0.0566483
0.0153191
0.0236377
0.108696
0.00909818
0.0307973
0.100585
0.0853375
0.496672
0.1701
0.0075494
0
0
0.00512716
0.00487772
0.00671435
0.0733887
0.371322
0.217951
0.013333
0.00867424
0.00398097
0.0956756
0.114116
0.0301232
0.076014
0.176241
0.0447558
0.0681169
0.0597399
0.106893
0.00852629
0.0620888
0.06636
0.131792
0.419952
0.256658
0.0181585
0.00877342
0.00384806
0.233706
0.386629
0.101498
0.197183
0.238844
0.112405
0.0892007
0.0602547
0.0526917
0.0668857
0.134567
0.0988067
0.0379252
0.0503088
0.0284963
0.0181991
0.144931
0.166941
0.0921343
0.223245
0.14262
0.030544
0.111992
0.0418355
0.0813365
0.097299
0.0922146
0.0436204
0.107108
0.158173
0.103715
0.130981
0.0375172
0.0639482
0.0896477
0.0529401
0.0789749
0.293376
0.175919
0.185368
0.120018
0.0867707
0.07717
0.121983
0.0390157
0.0652513
0.0810928
0.0513722
0.0200418
0.0884193
0.0386539
0.113341
0.139647
0.0729907
0.106249
0.0998928
0.18451
0.0410526
0.0997846
0.0457965
0.0903991
0.0703159
0.109455
0.0781443
0.145902
0.0998938
0.174031
0.0757492
0.114964
0.105191
0.177588
0.072231
0.0980103
0.0895722
0.228777
0.141877
0.254349
0.106652
0.12055
0.0836983
0.0975499
0.0476818
0.0898451
0.181212
0.0597013
0.0598474
0.0556182
0.0507146
0.00712174
0.0351514
0.103347
0.081451
0.162758
0.0613281
0.187924
0.0851932
0.0760862
0.0506438
0.0791835
0.0319968
0.0542173
0.169378
0.147237
0.180144
0.0267148
0.0813003
0.0150449
0.0263902
0.159318
0.155058
0.259437
0.385375
0.138959
0.045581
0.116085
0.0267494
0.0295199
0.105971
0.0436486
0.0916813
0.0173361
0.121703
0.030083
0.0540192
0.0612594
0.122932
0.0348916
0.0226171
0.161805
0.120027
0.192258
0.0734577
0.181482
0.195726
0.120197
0.150597
0.112712
0.13141
0.145393
0.168497
0.0684138
0.0739109
0.0205172
0.0393698
0.0635816
0.0225454
0.093693
0.150692
0.42967
0.166472
0.0898793
0.0227941
0.047692
0.00632013
0.0109933
0.0319026
0.057492
0.0542769
0.0756372
0.148913
0.234031
0.040061
0.0518436
0.0341906
0.00448813
0.0128434
0.0113855
0.0695321
0.197328
0.651684
0.261154
0.054893
0.0320768
0.0336385
0.0787443
0.103217
0.100288
0.0161479
0.0127188
0.0489852
0.20173
0.167434
0.0152652
0.023676
0.0311348
0.0678873
0.0351465
0.07516
0.122622
0.0254929
0.00890243
0
0
0.000308463
0.00389535
0.106054
0.391759
0.159883
0.0350921
0.000959758
0.0127269
0.0155552
0.00894039
0.0309965
0.234794
0.490858
0.346718
0.0807778
0.0452031
0.00201189
0
0.0092853
0.0139971
0.0349398
0.126901
0.089032
0.0773594
0.0142089
0.000287413
0
0.00661011
0.0248385
0.0491645
0.288519
0.362013
0.0452236
0.000223521
0.00947649
0.0115824
0.00665701
0.022847
0.0813684
0.263181
0.313296
0.0931797
0.0192155
0.0408495
0.0240469
0.00792578
0.0442088
0.152948
0.243247
0.354888
0.0459921
0.0106393
0
0
0.00117953
0.00666482
0.0504889
0.264305
0.241375
0.0347473
0.0137494
0.00823484
0.000622023
0.000723545
0.0272068
0.160817
0.51683
0.262584
0.0794387
0.0522198
0.0822558
0.0803194
0.191689
0.065384
0.0837801
0.0736915
0.115642
0.0301344
0.0902216
0.127551
0.115297
0.404304
0.163448
0.0604517
0.0704516
0.0713307
0.16623
0.0725474
0.0288377
0.0277669
0.0893531
0.0386249
0.0720073
0.308454
0.240159
0.217607
0.245104
0.122547
0.195019
0.284359
0.151834
0.0730001
0.20056
0.184042
0.0364957
0.0672149
0.0596782
0.0977678
0.204613
0.15715
0.0942646
0.0778521
0.0262695
0.123695
0.158699
0.0872905
0.152606
0.178594
0.114922
0.286297
0.175845
0.00470212
0.0803912
0.121443
0.103296
0.170001
0.160731
0.177458
0.159375
0.206768
0.0706612
0.109547
0.0813917
0.103405
0.0702866
0.212078
0.231021
0.355011
0.292809
0.122923
0.0148876
0.0824068
0.141641
0.0502466
0.117477
0.0346983
0.066092
0.06754
0.038678
0.0514598
0.163947
0.133824
0.13354
0.105461
0.0595919
0.125788
0.0648376
0.027121
0.0586071
0.0501964
0.146681
0.0236881
0.28837
0.111211
0.0580762
0.0598037
0.109649
0.0659168
0.0514879
0.120994
0.0336075
0.334866
0.181177
0.158875
0.0355802
0.0692628
0.0348247
0.0733109
0.121952
0.107715
0.0970109
0.0376285
0.150361
0.108674
0.0341678
0.058624
0.0637411
0.193606
0.0948595
0.233188
0.0241595
0.100266
0.0648574
0.05846
0.0707706
0.0553714
0.169812
0.0249566
0.200315
0.0399585
0.14461
0.052621
0.0709496
0.173232
0.117258
0.215142
0.103391
0.178223
0
0.134736
0.0613679
0.100555
0.036129
0.0583499
0.13904
0.135231
0.134833
0.000972066
0.0261879
0.00663556
0.0259853
0.0388558
0.082982
0.235254
0.34443
0.130862
0.0352892
0.0748101
0.0164853
0.0113458
0.109594
0.0875434
0.159006
0.199387
0.0879416
0
0.0472947
0.0343487
0.0503684
0.0615844
0.079787
0.3117
0.219739
0.182495
0.0211735
0.114188
0.0478118
0.051663
0.0424606
0.0615865
0.151343
0.166383
0.147422
0.102464
0.0750082
0.0123134
0.0183976
0.052142
0.0178356
0.0878162
0.0832196
0.346626
0.218247
0.0809798
0.0116644
0.0487044
0.0603126
0.0472886
0.193661
0.0712167
0.133166
0.0509465
0.138826
0.0428306
0.0603126
0.0596396
0.116114
0.157616
0.0389867
0.245766
0.109471
0.171022
0.0487847
0.0432155
0.0981741
0.0629259
0.0693988
0.102645
0.149524
0.0982977
0.0465539
0.0103429
0.0837196
0.235609
0.264246
0.107174
0.0631931
0.155607
0.0259118
0.0363155
0.011577
0.10152
0.0581732
0.141569
0.114975
0.0772533
0.134493
0.0458473
0.131091
0.0352554
0.0328307
0.0823317
0.23648
0.270783
0.165695
0.154483
0.00910316
0.0963606
0.0299395
0.0407968
0.135133
0.103263
0.0457026
0.0143055
0.109942
0.0450139
0.0351478
0.0986841
0.101279
0.181959
0.0475867
0.0179542
0.0156782
0.0429056
0.0750231
0.0438062
0.306226
0.357883
0.060958
0.117877
0.169392
0.131962
0.102699
0.00643055
0.0424311
0.0605234
0.0772891
0.123524
0.118503
0.20744
0.15365
0.0318815
0.0107176
0.0816514
0.167649
0.22073
0.101772
0.033597
0.00562735
0.00940849
0.015179
0.0111735
0.0470329
0.244102
0.164156
0.100027
0.0144193
0.00188094
0.00349318
0.0241023
0.0370573
0.0871383
0.581501
0.401151
0.0753863
0.0181452
0.0706379
0.0908951
0.0242048
0.0228023
0.05216
0.065189
0.0932341
0.130926
0.00885704
0.0301202
0.03121
0.0401705
0.0886299
0.0913372
0.0713445
0.173463
0.105826
0.0288284
0.0185375
0.0193008
0.0399816
0.0117184
0.00916434
0.124831
0.15457
0.141037
0.111633
0.117926
0.340622
0.282676
0.0490095
0.00978323
0.0574373
0.0713574
0.0357992
0.0134569
0.0267045
0.0225251
0.0847003
0.0849299
0.0339508
0.0160946
0.0471764
0.033525
0.0254096
0.0639979
0.328645
0.580781
0.315741
0.0352366
0.00550031
0.0126489
0.0364581
0.0773619
0.080554
0.19588
0.132744
0.0619267
0.0436596
0.0474952
0.0264901
0.0371219
0.119605
0.0827027
0.0408751
0.33238
0.160343
0.0896403
0.120975
0.148342
0.0373105
0.0643884
0.0595828
0.212192
0.274971
0.118178
0.026198
0.0109961
0.00908275
0.0310116
0.122094
0.076018
0.0553272
0.57676
0.270193
0.114104
0.157873
0.105269