0.192194
0.157213
0.0134215
0.0121578
0.0161067
0.0224008
0.0170878
0.0744783
0.176717
0.371274
0.20607
0.00390119
0.000853484
0.000856747
0.00429168
0.0120215
0.0591358
0.339928
0.436378
0.255249
0.0209528
0.0207557
0.0221371
0.0116548
0.00172028
0.03666
0.0920098
0.431287
0.268535
0.0530054
0.0317171
0.014436
0.0250401
0.0011273
0.0194371
0.141593
0.233716
0.13088
0.00801315
0.00210391
0.000285822
0.00114329
0.0264367
0.030311
0.359656
0.276302
0.106043
0.0114698
0.00348296
0
0
0.015862
0.0947624
0.510273
0.198795
0.237472
0.0651385
0.0178867
0.00200075
0.00807751
0.000138353
0.0146003
0.179012
0.196454
0.195652
0.0831693
0.0243807
0
0
0
0.0907631
0.405048
0.2506
0.0134984
0.00485735
0.00309751
0.00183432
0.00045326
0
0.0724599
0.440865
0.440865
0.00107076
0.00178051
0.00242516
0.00435886
0.00358977
0.00236274
0.0555491
0.440865
0.169411
0.0397543
0.0378323
0.0216825
0.0128402
0.00317282
0
0.0527034
0.265215
0.263849
0.00952356
0.0151384
0.0263592
0.030512
0.0294878
0.0262704
0.0510672
0.347429
0.26922
0.000283272
0
0.000297761
0.0010016
0.00160728
0.00239722
0.0351958
0.455394
0.257199
0
0
0.00151941
0.00861001
0.0155159
0.0255761
0.0507749
0.455394
0.145843
0.00611963
0.00382703
0.0133586
0.00736062
0.022313
0.0417187
0.0512662
0.359539
0.214498
0.0990322
0.0210659
0.0299258
0.0608524
0.0547391
0.0589107
0.0652822
0.411712
0.205857
0.00862466
0
0.00149553
0.00847466
0.041352
0.0271473
0.0416669
0.365709
0.370669
0.0179064
0
0.000213647
0.00121067
0.0248112
0.00554898
0.0751271
0.435031
0.135612
0.17385
0.0201374
0.0300328
0.0594002
0.115504
0.0452455
0.0548769
0.188792
0.435031
0.221622
0.0351114
0.0105662
0.00847466
0.0684181
0.00924831
0.0371557
0.299723
0.215413
0.0029268
0
0
0
0
0
0.0864224
0.345834
0.292845
0.0158454
0.00669302
0.00576019
0
0
0.000638331
0.0590786
0.401971
0.335638
0.059131
0.021978
0
0
0
0
0.0550375
0.364398
0.323078
0.0602284
0.0906598
0
0
0
0.00446832
0.0727526
0.401971
0.439374
0.0892308
0.0816321
0.039822
0.0106391
0.0264655
0.03186
0.0381979
0.404682
0.185892
0.0878433
0.149655
0.0556481
0.0744738
0.0541083
0.0654961
0.0337535
0.105385
0.28043
0.142435
0.206527
0.0096027
0.00111812
0
0.0271477
0.175309
0.441108
0.138381
0.147858
0.15161
0.0682102
0.010971
0.00327563
0.0333383
0.142741
0.105345
0.111357
0.0396904
0.108841
0.0331864
0.0798773
0.0550616
0.110078
0.158385
0.128918
0.0921229
0.0224183
0.00590948
0.000311025
0.019179
0.0999149
0.143062
0.337074
0.37638
0.20015
0.125398
0.0825711
0.0861367
0.0428822
0.0500393
0.227955
0.156545
0.0594657
0.289357
0.30789
0.0400963
0.0339667
0.040596
0.0686833
0.256559
0.115701
0.265335
0.0732541
0.0096962
7.91327e-005
0
0.00141182
0.0158708
0.0368624
0.108547
0.358375
0.265621
0.0899286
0.000553929
0.0340094
0.0410253
0.00221697
0.00437882
0.0597287
0.405797
0.163171
0.106607
0.0168227
0.00223743
0.00235304
0.00479009
0.0137778
0.0170179
0.357812
0.315316
0.0425264
0.00202681
0.00157733
0.00105156
0
0
0.103965
0.497447
0.374788
0.142098
0.0939149
0.0461531
0.0936399
0.0123873
0.00409471
0.105355
0.114006
0.330502
0.210146
0.251091
0.117555
0.0600513
0.0277537
0.00682452
0.0531252
0.0905645
0.184718
0.179804
0.334918
0.0568145
0.113347
0.0296735
0.00245683
0.0387201
0.0445786
0.183283
0.113755
0.413983
0.192376
0.0685903
0.0159706
0.0120753
0.0207168
0.0485903
0.272672
0.232946
0.157003
0.05687
0.00233574
0.0110871
0.00166554
0.0852474
0.219062
0.338194
0.25662
0.118988
0.0292197
0
0.00438906
0.0109996
0.105837
0.423065
0.14605
0.0684713
0.120713
0.111622
0.00392995
0.00918856
0.0143331
0.0517353
0.159371
0.212103
0.105946
0.0285493
0.0104667
0.00331131
0.018927
0.0240022
0.0524906
0.391272
0.233925
0.201294
0.0910557
0.0316865
0.0187645
0.0304029
0.0481846
0.0376497
0.300632
0.254753
0.0977041
0.0399815
0.0640981
0.0462388
0.134586
0.157813
0.0587399
0.33955
0.145824
0.188528
0.0376783
0.000116127
0.000204146
0.0445351
0.0808828
0.0266507
0.23633
0.250176
0.373461
0.0693579
0.0194339
0.0115438
0.112895
0.146859
0.0497533
0.283308
0.0981862
0.0281552
0.0161426
0.0444071
0.036615
0.133346
0.11318
0.0428988
0.158298
0.196317
0.232956
0.10083
0.155463
0.178802
0.196522
0.0835939
0.0341261
0.248477
0.14458
0.149329
0.119489
0.0978957
0.121062
0.131264
0.0544952
0.0262578
0.0939171
0.230389
0.0990397
0.278931
0.318336
0.31332
0.218341
0.111962
0.0337092
0.273659
0.15799
0.236963
0.0507656
0.108501
0.0674898
0.0776097
0.0353976
0.0110892
0.159828
0.43837
0.346679
0.0728421
0.0609252
0.00614016
0.0352141
0.0166106
0.0232091
0.236891
0.188097
0.0982537
0.183533
0.147489
0.0618607
0.0643034
0.0923982
0.0171019
0.184464
0.248364
0.338411
0.225628
0.169842
0.00561429
0.024053
0.0363963
0.00472648
0.141098
0.340549
0.172448
0.0510973
0.0133872
9.62576e-005
0
0
0.0535458
0.216554
0.34307
0.274054
0.189938
0.00407939
0
0
0.00298596
0.0572251
0.230473
0.209946
0.25688
0.0995364
0.098587
0.000673803
0
0
0.00550422
0.0562333
0.255814
0.492627
0.139743
0.0301077
0.000193208
0.000450819
0
0.00330253
0.0313154
0.152849
0.348813
0.315856
0.00422532
0.00062888
0.00251552
0.0159849
0.0870456
0.135415
0.0782965
0.171905
0.14699
0.0462024
0.0197326
0.0280629
0.0387939
0.0795388
0.0571853
0.181452
0.564477
0.183846
0.00516737
0.0658559
0.0324235
0.00425519
0.0028368
0.0959822
0.0947214
0.166434
0.0738908
0.0394202
0.292281
0.165463
0.0341182
0.0230514
0.151562
0.0692602
0.0669165
0.02741
0.134242
0.0913928
0.040356
0.129318
0.0391772
0.00904228
0.17122
0.244345
0.0704995
0.197625
0.0983928
0.0255749
0.144844
0.0147908
0.0842588
0.0208704
0.0150898
0.00554386
0.153296
0.445955
0.150021
0.0340518
0.016546
0.0323257
0.0671529
0.0881572
0.0513111
0.324193
0.522686
0.0929677
0.0460462
0.00367556
0.109674
0.197428
0.147278
0.0511309
0.042361
0.0128232
0.00551402
0.0189974
0.00387762
0.331926
0.216237
0.0254476
0.00571131
0
0.000490817
0.0107709
0.00320201
0.163753
0.568286
0.122433
0.0557865
0.0402264
0.0894843
0.135636
0.0766363
0.0343622
0.0141379
0.296443
0.106616
0.00531141
0.00865022
0.00168851
0.0421392
0.131844
0.054803
0.11941
0.360656
0.123728
0.176813
0.381164
0.103302
0.105828
0.0372345
0.0128273
0.0229881
0.0555587
0.0668928
0.0560206
0.221096
0.122112
0.062482
0.0167249
0.0793486
0.139044
0.118726
0.112971
0.21787
0.297304
0.189957
0.225166
0.125784
0.0433002
0.0512692
0.0732502
0.0388191
0.159627
0.14512
0.100402
0.161956
0.0916645
0.223795
0.361825
0.158939
0.0325452
0.0306293
0.0311137
0.0344392
0.00412532
0.00438215
0.0531885
0.0654089
0.0492564
0.153621
0.122786
0.0286652
0.00537209
0.00443114
0.00773825
0.0106328
0.0167326
0.0761567
0.0803025
0.234939
0.0740812
0.0436034
0.0211364
0.00802166
0.12728
0.186498
0.112141
0.55212
0.6083
0.141061
0.0258534
0.0187821
0.0249745
0.019715
0.0550894
0.1464
0.101505
0.103361
0.032624
4.46736e-005
0.000213478
0.00272411
0.00427852
0.00385847
0.0285744
0.189115
0.252033
0.0893032
0.00199673
0.00163369
0.00440715
0.00640244
0.00564238
0.0387389
0.377109
0.293269
0.0744506
0.00365382
0.00300576
0.00447306
0.000340371
0.00152345
0.0446122
0.551543
0.505729
0.132964
0.000521063
0
0
0
2.31373e-005
0.0200173
0.114426
0.240312
0.163184
0.0356946
0.0247328
0.00778838
0.00201119
0.00284754
0.0223493
0.160521
0.204178
0.252372
0.114423
0.0479712
0.0177551
0.0402549
0.015661
0.0883386
0.229591
0.481665
0.172399
0.0101164
0
0
0
0
0.00719484
0.149746
0.551464
0.209553
0.0598861
0
0
0.00509749
0.00218464
0.0223864
0.153484
0.195828
0.197956
0.0572459
0.0114372
0.0151884
0.047925
0.0162758
0.0579803
0.0917069
0.382308
0.240913
0.0627175
0.00196562
0.00755982
0.011291
0.00232512
0.0140773
0.145086
0.459343
0.131813
0.0241585
0
0
0.00542527
0.00276116
0.0187827
0.124784
0.567622
0.16654
0.00273967
0.000456607
0
0.000775038
0.00213814
0.00358665
0.0915191
0.452149
0.17334
0.0614879
0.000575057
0
0
0.000906281
0.00464353
0.104175
0.588956
0.155613
0.0188399
0.00222988
0.00391952
0.0011486
0.00151047
0.000266553
0.0975991
0.436591
0.132308
0.0010885
0.00309276
0.00230175
0.000820036
0.0107587
0.00287952
0.0547566
0.268131
0.0674686
0.000948386
0.0182487
0.0149631
0.00328106
0.0131362
0.00424889
0.0608798
0.260831
0.062854
0.0125248
0.12836
0.0285153
0.00346191
0.000535372
0.0248343
0.0250126
0.0539061
0.01524
0.0398707
0.476528
0.0877581
0.0064112
0.00344399
0.0413337
0.0136032
0.0661945
0.0215126
0.00906009
0.236927
0.0254653
0.00508869
0.00135128
0.00116966
0.00280507
0.00973902
0.00480369
0.0269712
0.726305
0.052182
0.00294841
0
0.000113082
0.00130659
0
0
0.0282272
0.33857
0.0638154
0.00247711
0.00201641
0.00584671
0.0122546
0.00239336
0.00239336
0.0551703
0.372231
0.0658538
0.00768805
0.0111223
0.0560423
0
0
0
0.0246548
0.544372
0.035632
0
0
0
0.0076105
0
0.00541487
0.0316769
0.595862
0.0365886
0.00624738
0.0302334
0.0450625
0.0563492
0.00626167
0.00863574
0.0475759
0.356355
0.203831
0.0263109
0.0426438
0.259872
0.0310098
0.0090443
0.0194836
0.0233578
0.205421
0.230423
0.0726286
0.0617696
0.137966
0.0572477
0.00521583
0.0329041
0.0418264
0.509431
0.145733
0.0516014
0.114591
0.15101
0.119061
0.0770571
0.0546435
0.045998
0.258852
0.158233
0.0843141
0.138148
0.0846824
0.071337
0.148843
0.0752691
0.109234
0.145055
0.0771353
0.0713809
0.044442
0.0484608
0.0273554
0.236864
0.141833
0.0981529
0.11321
0.078042
0.124741
0.20822
0.0630478
0.0791427
0.169428
0.0693348
0.0616031
0.130471
0.0831627
0.13389
0.125559
0.0596424
0.0434605
0.34233
0.268819
0.366257
0.291208
0.134578
0.202707
0.265509
0.0657525
0.0572035
0.15649
0.089674
0.0594076
0.0140123
0.0245767
0.0471989
0.0727938
0.0329482
0.226095
0.262333
0.305537
0.0497737
0.0255937
0.0466113
0.0207638
0.0390103
0.0399233
0.0936076
0.269017
0.185241
0.172541
0.105594
0.0461448
0.0575351
0.122518
0.0213282
0.197108
0.486123
0.441448
0.0807716
0.0415829
0.042923
0.0255306
0.105822
0.012274
0.22078
0.278239
0.209547
0.0166086
0.00887173
0.0156322
0.00104935
0.0041974
0.0260433
0.298805
0.490148
0.094066
0.00205372
0
0.00139474
0
0
0.0167231
0.067379
0.276608
0.26912
0.0408485
0.0598108
0.025725
0.0157223
0.0166574
0.00587514
0.0765478
0.484003
0.141357
0.0612193
0.0587035
0.0458364
0.0364183
0.0197047
0.0074422
0.143189
0.385782
0.10679
0.00113851
0
0
0
0
0.0173186
0.0738856
0.486551
0.158212
0.00796954
0
0
0
0
0.0450444
0.103223
0.362169
0.128009
0.0762292
0.0113355
0.0487965
0.0118619
0.0161618
0.0597493
0.246905
0.281245
0.12118
0.0431389
0.00100062
0.0162599
0.00216308
0.0141696
0.401267
0.0681487
0.346868
0.0792485
0.0031649
0
0
0
0.00144009
0.0604195
0.0947698
0.249175
0.0472467
0
0.00150798
0
0
0.00429039
0.0631277
0.212097
0.0989702
0.0287211
0
0
0
0
0.00737375
0.497005
0.283517
0.0258379
0.00321568
0
0.000904788
0
0
0.0226334
0.582439
0.0857901
0.126048
0.0296957
0
0.00521519
0.00445123
0.00122942
0.0142442
0.0653225
0.0828518
0.0395374
0.0152523
0.000902464
0.0182949
0.0195527
0.00243744
0.0129203
0.0640452
0.261076
0.019949
0.00476116
0.0182277
0.0230187
0.00391335
0.00187829
0.0510016
0.653754
0.280126
0.0988093
0.157107
0.110391
0.0517699
0.0252078
0.0338307
0.10204
0.468155
0.0387748
0.009023
0.0139268
0.0102778
0.171307
0.00820374
0.000828568
0.000620861
0.0331282
0.00951939
0.00259573
0.0105797
0.029281
0.614916
0.0193134
0.00039373
0
0.0157898
0.147473
0.0509053
0.123532
0.0491572
0.141625
0.00717086
0.0386013
0.0824602
0.190637
0.0299182
0.0143342
0.0630591
0.0817537
0.621226
0.0181954
0.0404279
0.0432286
0.100376
0
0
0.000884813
0.0287909
0.429036
0.0276101
0
0
0
0.00685794
0.0055749
0.00876456
0.0559004
0.444945
0.0205734
0.00461733
0.0112253
0.0243276
0
0
0.00619369
0.107661
0.483926
0.021504
0.00678491
0.000975365
0
0.0155386
0.0261335
0.00696488
0.141532
0.518992
0.0150582
0.000715287
0.00630824
0.0309439
0.0615987
0.0412424
0.0668544
0.0862431
0.364299
0.0213923
0.0459756
0.0584248
0.0847462
0.132147
0.0824632
0.0999821
0.0579886
0.146516
0.0237767
0.0968105
0.167868
0.0882666
0.11966
0.114979
0.107671
0.12374
0.471592
0.0153918
0.00964718
0.0339748
0.162782
0.0853943
0.144332
0.289594
0.114976
0.290084
0.0441316
0.06985
0.150977
0.141363
0.0284008
0.171131
0.11855
0.0292451
0.037293
0.0216702
0.0324497
0.0224993
0.012396
0.0220053
0.292221
0.197406
0.169074
0.192871
0.0260184
0.0419555
0.0977636
0.0242284
0.0446866
0.335977
0.271314
0.0835315
0.0206469
0.0020249
0.00338565
0
0.0032643
0.0705723
0.598149
0.333167
0.0515314
0.0614627
0.000370995
0.00460701
0.0601136
0.0449033
0.0246084
0.126421
0.101097
0.0958833
0.114256
0.00810363
0.0386971
0.257181
0.0371997
0.0513101
0.156252
0.0810923
0.0323394
0.0304497
0.00341719
0.0678959
0.459181
0.0426354
0.0380411
0.158824
0.0887194
0.0161845
0.039372
0
0.0433838
0.336371
0.0963226
0.0136618
0.0289976
0.0194003
0.00987929
0.0130571
0.00697605
0.245134
0.583809
0.0902081
0.0181694
0.0683398
0.0337719
0.0228765
0.0597157
0.00865532
0.0695632
0.179703
0.0220984
0.0103102
0.124034
0.0609834
0.0517099
0.0583928
0.0486564
0.119684
0.155503
0.0113097
0.00345284
0.0057804
0.0015401
0.0075352
0.0199128
0.0220082
0.346963
0.550636
0.0529676
0.000382683
0.0116408
0.0162729
0.00800564
0.0140838
0.0287688
0.30645
0.547147
0.0965809
0.0506813
0.125083
0.0605871
0.0782449
0.0116352
0.0867353
0.0710393
0.143565
0.0610972
0.313778
0.0775833
0.0202918
0.0442796
0.00102708
0.0383085
0.032071
0.0958886
0.35045
0.0171532
0.0173357
0.0188286
0.0111778
0.00166217
0.0388945
0.176318
0.487314
0.0681153
0.256093
0.0100997
0.00303746
0.00632565
0.000146726
0.021107
0.185832
0.482712
0.148101
0.312807
0.00939963
0.000959564
0
0
0
0.00379328
0.015323
0.355797
0.385079
0.00836532
0
0
0
0
0
0.0185998
0.441147
0.312605
0.00139911
0
0
0
0
0.0522932
0.228503
0.139389
0.384182
0.00826528
0
0
0
0
0.00919632
0.103301
0.202934
0.361324
0.024307
0.00110461
0.01927
0.0426488
0.0058877
0.00842079
0.0365299
0.435913
0.241227
0.0688144
0.124731
0.096763
0.0824896
0.0412139
0.106504
0.129275
0.326285
0.399624
0.0197166
0.00015016
0.00602088
0.0256778
0.00525668
0.012302
0.0308255
0.193449
0.294805
0.0390425
0.0289728
0.020186
0.0444743
0.0367967
0.109904
0.084205
0.220466
0.124107
0.0806007
0.135695
0.0381607
0.110501
0.0304616
0.0878378
0.129046
0.157846
0.0488609
0.0395329
0.054071
0.0448688
0.444611
0.0647002
0.0607498
0.0519654
0.0603551
0.157416
0.0645117
0.0429203
0.0218795
0.174683
0.0479918
0.0635959
0.0633049
0.133808
0.0847558
0.0380649
0.0203533
0.0729917
0.698546
0.0912309
0.0311118
0.0134034
0.0214096
0
0
0.00230993
0.063498
0.348899
0.0394546
0.0107561
0.000988804
0
0.0165554
0.00938389
0.00111618
0.0597559
0.439319
0.0165791
0.000818492
0.0047388
0.0222507
0
0
0
0.0605006
0.516274
0.0466778
0.00569116
0.000141258
0
0.0109051
0.00132737
0.000938009
0.0409992
0.56891
0.0443519
0.00256026
0.00435753
0.0146511
0.121425
0.0397875
0.03457
0.0383562
0.445937
0.0259953
0.000852773
0.0180398
0.132645
0.0902891
0.073641
0.102064
0.0653688
0.275773
0.0723067
0.0738689
0.0657809
0.126297
0.0926494
0.0163274
0.0041887
0.0367852
0.521034
0.0998426
0.00596941
0.0306696
0.103494
0.155965
0.0533822
0.00321104
0.0716286
0.263446
0.151416
0.045101
0.0990492
0.164207
0.018577
0.204759
0.321112
0.215318
0.0411934
0
0
0
0
0.0405431
0.355861
0.308699
0.0941624
0.00600909
0
0
0.00498448
0.0135307
0.0152388
0.190936
0.3905
0.270364
0.0522117
0
0
0
0
0.0119571
0.188883
0.415344
0.149026
0.0242487
0
0
0.00311785
0.00935354
0.0393797
0.213475
0.183243
0.0214379
0.000257717
0
0.0140512
0.141486
0.0647117
0.0192673
0.147403
0.123934
0.0470345
0.016574
0.0354825
0.242527
0.678034
0.0670051
0.0372193
0.199343
0.253211
0.0655983
0.00993486
0.00282625
0
0.00735157
0.0138658
0.0987121
0.225592
0.214883
0.132844
0.0418997
0.0393337
0.0219807
0.0348334
0.0113435
0.0207109
0.037192
0.0232866
0.0281326
0.0118822
0.052982
0.253511
0.336756
0.0640117
0.0303834
0.0194499
0.0264694
0.0273576
0.0230861
0.0704443
0.25639
0.576046
0.156769
0.0533811
0.104097
0.144976
0.0752035
0.0399867
0.0378436
0.03434
0.0647339
0.034651
0.0520747
0.110081
0.266611
0.162619
0.122816
0.122733
0.119677
0.323869
0.10503
0.00587023
0.0021473
0.00768302
0.0120941
0.0174026
0.0388221
0.144022
0.355872
0.0577149
0.0254016
0
0.000158848
0.00142964
0.00248608
0.00851884
0.13651
0.478791
0.0602888
0.0126451
0.0183649
0.0796879
0.141897
0.0693349
0.096939
0.147261
0.250195
0.122767
0.010862
0.0183364
0.0223017
0.0706395
0.0259005
0.0285954
0.132973
0.573477
0.209612
0.0338211
0.000249158
0
0
0
0
0.0776632
0.344181
0.0352226
0.0460698
0.00256541
0
0
0
0
0.0879383
0.266746
0.0460089
0.00147224
0.0173224
0.00454814
0.00536565
0.00257682
0.000308851
0.11004
0.569612
0.131319
0.000600425
0.00278585
0
0
0
0
0.205544
0.569612
0.113827
0.0564077
0.00513827
0.000373799
0
0.00265446
0.000635279
0.046782
0.172909
0.0511457
0.0486645
0.00797983
0.00601901
0.0022802
0.00709636
0.00444695
0.0179218
0.0727544
0.0559864
0.00111431
0.000715211
0.00022428
0
0.00159268
0
0.200967
0.690077
0.0943297
0.00294391
0.00172539
0.00413181
0.00136812
0.00979911
0
0.153925
0.557714
0.107541
0.0293934
0.0103605
0.00651853
0.0197759
0.151212
0.0111239
0.00652297
0.0129366
0.0284873
0.0157832
0.00588493
0.00291703
0.053362
0.572966
0.0324336
0.0027511
0.00100131
0.00370085
0.000859705
0.00989735
0.00773059
0.0120663
0.203435
0.0133001
0.0513037
0.14026
0.0468131
0
0.0148979
0.00852188
0.0516651
0.707628
0.044053
0.0113253
0.0173471
0.0116167
0
0
0
0.0325571
0.436357
0.0431124
0.000392899
0
0
0.00299019
0.00306738
0.00193655
0.0200582
0.402631
0.0888558
0.00131015
0.00380132
0.00344508
0
0.00228957
0.00123285
0.0696032
0.527245
0.0673349
0
0
0
0.0102295
0.00239627
0.00175134
0.0727088
0.503747
0.114483
0.00637851
0.000543046
0.00162133
0.0326881
0.0232058
0.00960215
0.0258058
0.36922
0.132789
0.00534328
0.0421341
0.024982
0.107784
0.020085
0.00932574
0.06043
0.233415
0.119675
0.00578246
0.0776026
0.106358
0.0991266
0.0189875
0.0120654
0.0911717
0.506545
0.149805
0.0557513
0.10592
0.0157088
0.109163
0.0217026
0.0149803
0.12935
0.383989
0.11219
0.0632223
0.25344
0.0440608
0.00912349
0.136106
0.317809
0.289002
0.0994778
0.00947133
0.00243874
0
0
0.0212545
0.0950095
0.434417
0.241776
0.081989
0.0184383
0.00117469
0.0128411
0.0178785
0.00227696
0.0674973
0.121321
0.223553
0.178744
0.14645
0.0329664
0
0.00217613
0.0320859
0.0133582
0.127556
0.347092
0.208887
0.306612
0.0363897
0.052829
0.0142849
0.0567391
0.102747
0.161827
0.0733772
0.0387743
0.0322428
0.000701782
0.010906
0.0176147
0.0995048
0.132802
0.309987
0.116984
0.0579012
0.0911559
0.0114224
0.001558
0.0209147
0.091083
0.0886781
0.17857
0.132652
0.063272
0.0987081
0.0100106
0.044868
0.028881
0.187138
0.312469
0.680562
0.0805409
0.053602
0.0939499
0.0243571
0.0103247
0.0264138
0.0384578
0.120824
0.292738
0.0687388
0.0435495
0.0449858
0.0204689
0.00300708
0.0144883
0.0179306
0.224786
0.372567
0.182006
0.138359
0.0884293
0.078445
0.105052
0.0808699
0.0533956
0.163013
0.440346
0.0598171
0.019591
0.055146
0.0510429
0.0204164
0.0167194
0.0145459
0.176405
0.375534
0.295876
0.0826974
0.0630277
0.14885
0.094327
0.0712032
0.00698129
0.0710443
0.143732
0.245997
0.11116
0.0818475
0.0887871
0.138505
0.118758
0.00648955
0.159352
0.118949
0.182526
0.0818551
0.0406292
0.0753251
0.504011
0.165652
0.00990638
0.0997432
0.178738
0.286474
0.142464
0.0510558
0.103638
0.120565
0.0624955
0.00482827
0.232659
0.190604
0.264678
0.181435
0.116197
0.0381109
0.14637
0.0482721
0.000484418
0.0686524
0.020556
0.0119778
0.00702455
0.00139475
0.0916749
0.40022
0.110259
0
0.00842004
0.000900286
0
0.00103325
0.000344416
0.198498
0.544198
0.118529
0.00421804
0.0847302
0.0481774
0.0359067
0.0346811
0.0308475
0.0677998
0.135571
0.0738386
0.0138404
0.0165783
0.00523706
0.000556745
0.00921066
0.0067642
0.176317
0.544198
0.203279
2.35943e-005
0
0
0
0
0
0.0899509
0.403827
0.0398248
0.00016516
4.42979e-005
0.000132894
0
0.000786099
0
0.108329
0.360851
0.0460698
0.00339866
0.00204374
0
0
0
0
0.165882
0.485279
0.0800295
0
0
0
0
0
0.0191003
0.358711
0.485279
0.0356143
0.0141654
0.0275717
0.0174763
0.011447
0.0942937
0.0105156
0.140483
0.320187
0.0950805
0.0265774
0.0475229
0.0423659
0.103949
0.429927
0.0253093
0.0405415
0.0718379
0.0687512
0.0340812
0.0185459
0.0130478
0.0116007
0.0131042
0.0542433
0.43769
0.501895
0.114017
0.0791292
0.0429323
0.0445482
0.10399
0.136731
0.0243773
0.129743
0.166733
0.154507
0.00651114
0.00990673
0.0141091
0.13423
0.440014
0.0629466
0
0
0.0103746
0.0192543
0.000164785
0.000306029
0.0973163
0.511999
0.148472
0.0169393
0.00394416
0.00663406
0.0249648
0.0135051
0.0185038
0.130801
0.318388
0.0810548
0.0114249
0.0297075
0.0424132
0.035129
0.0012067
0
0.0916252
0.406003
0.264847
0.0822779
0.0659915
0.0771062
0.118179
0.0109478
0.00446943
0.0617264
0.241182
0.0901524
0.0469433
0.0310981
0.0395605
0.162159
0.0640931
0.00911604
0.0648809
0.151998
0.0359779
0.0338587
0.0680034
0.0551013
0.223073
0.0232673
0.00562677
0.027959
0.140991
0.1265
0.0940088
0.0692787
0.252299
0.579238
0.105101
0.0128677
0.010557
0.0254305
0.0138894
0.0193478
0.011417
0.455612
0.0131485
0.0227759
0.0358264
0.0536167
0.10929
0.189651
0.0839722
0.00115883
0.00708045
0.019889
0.0115282
0.0409243
0.135613
0.259325
0.505847
0.136023
0.0458822
0.00801916
0.0335265
0.0803886
0.0203629
0.0758483
0.0990287
0.099962
0.0862361
0.00824292
0.0061955
0.0172009
0.108252
0.052
0.165516
0.423614
0.357388
0.14343
0.183014
0.0193001
0.0760119
0.0997059
0.155209
0.115532
0.0788146
0.146528
0.0244572
0.0451015
0.0144961
0.184632
0.332131
0.400954
0.0929179
0.0515059
0.0268099
0.0180349
0.0512516
0.0156714
0.0206593
0.0676377
0.169465
0.120067
0.149534
0.162169
0.0467626
0.250341
0.0490544
0.0683059
0.298014
0.355271
0.150059
0.100834
0.0863464
0.0320435
0.233693
0.0624247
0.0553193
0.122857
0.219358
0.0351975
0.044136
0.0328863
0.0443041
0.120498
0.0570725
0.10341
0.203422
0.176519
0.163536
0.102607
0.0927221
0.129523
0.166639
0.0937164
0.0506873
0.154943
0.0916761
0.030737
0.139638
0.120431
0.068834
0.217414
0.0858385
0.207223
0.460347
0.0489512
0.118918
0.287247
0.157194
0.136899
0.281385
0.190234
0.0555138
0.152376
0.138869
0.178933
0.160819
0.0520183
0.0794
0.0921799
0.0324525
0.016718
0.0868081
0.156565
0.247509
0.226068
0.123987
0.0316917
0.0820111
0.0202951
0.098736
0.268887
0.109275
0.21794
0.358767
0.131812
0.169121
0.0863439
0.103668
0.0201924
0.0687376
0.148467
0.29039
0.303713
0.206655
0.198401
0.0364446
0.0645831
0.0550678
0.0764164
0.14132
0.186621
0.171509
0.169125
0.029745
0.0680914
0.108487
0.109813
0.0517101
0.022258
0.0181139
0.0396784
0.0435532
0.105898
0.513813
0.403634
0.102422
0.0354417
0.0862547
0.195845
0.113985
0.222321
0.0764008
0.0101574
0.0854544
0.175401
0.185538
0.112047
0.132251
0.0446933
0.0537467
0.0203363
0.0349761
0.0628095
0.00777025
0.00517128
0.0154843
0.0251244
0.0104898
0.000629946
0.165412
0.300648
0.0597847
7.50383e-005
0.000139357
0.0266915
0.0815085
0.0632103
0.122441
0.541624
0.412629
0.0109216
0.0378539
0.101992
0.0733352
0.120324
0.0283207
0.001652
0.0441548
0.0249242
0.00549537
0.0185446
0.0874912
0.110142
0.426473
0.218552
0.112231
0.160959
0.0427514
0.000612264
0.00964981
0.00135919
0.00784178
0.0473718
0.104026
0.235117
0.463515
0.250175
0.0269708
0.0317215
0.0108704
0.00768965
0.0341447
0.0629655
0.0741272
0.192503
0.216107
0.0734532
0.00834638
0.0164629
0.036675
0.351744
0.409591
0.238092
0.14239
0.0474397
0.000391761
0.0802271
0.0547511
0.0233892
0.0798308
0.181272
0.111108
0.129216
0.132577
0.0200016
0.046657
0.0287311
0.0306011
0.20268
0.260401
0.0384316
0.120825
0.197954
0.114893
0.14377
0.0705061
0.0269129
0.191446
0.286586
0.161877
0.124321
0.126269
0.220262
0.169751
0.221709
0.13336
0.145872
0.064485
0.0254228
0.158864
0.163931
0.0920071
0.175115
0.215091
0.102357
0.196563
0.193196
0.0331689
0.0741631
0.0447859
0.114495
0.21104
0.0448768
0.00290308
0.0198953
0.0483043
0.0627799
0.0501287
0.0622442
0.240324
0.469927
0.0784315
0.00200749
0.0373289
0.0471501
0.0445424
0.0120604
0.0246687
0.471033
0.10335
0.0541237
0.0130811
0.073175
0.209047
0.0674275
0.0432921
0.0858181
0.0628878
0.113748
0.0590533
0.0155582
0.1004
0.314579
0.157641
0.059712
0.166376
0.163235
0.0349344
0.123115
0.0143852
0.146315
0.149701
0.0841841
0.0399541
0.0421732
0.033034
0.0253925
0.184633
0.0351386
0.247227
0.270354
0.14532
0.102748
0.293045
0.112501
0.0274471
0.0278026
0.00745385
0.114777
0.12297
0.0975279
0.0699258
0.0928255
0.115545
0.0377303
0.0661697
0.0149919
0.0817923
0.0909905
0.260642
0.242298
0.371258
0.275128
0.0077447
0.0538311
0.061769
0.0557877
0.105897
0.095197
0.105441
0.249803
0.0767351
0.057795
0.188666
0.184453
0.122742
0.210559
0.108633
0.120502
0.233637
0.0803922
0.0586537
0.103552
0.0364782
0.010478
0.107624
0.252347
0.188321
0.138819
0.0656283
0.22245
0.374612
0.229538
0.0754572
0.169615
0.157118
0.16288
0.164986
0.151513
0.0701362
0.104569
0.0308584
0.065275
0.121263
0.0793693
0.0872351
0.102856
0.0255698
0.118413
0.217854
0.0098727
0.141887
0.252721
0.123791
0.145942
0.154972
0.0931846
0.135006
0.134139
0.0435417
0.0991741
0.183194
0.0541854
0.081039
0.0862746
0.0949679
0.0988204
0.205582
0.0338301
0.242454
0.570693
0.253897
0.157214
0.0636772
0.042568
0.0431234
0.092184
0.0223875
0.095244
0.187676
0.192474
0.135077
0.0530272
0.065914
0.0200297
0.0221624
0.0230636
0.0599234
0.171531
0.352658
0.170671
0.0216858
0.0338071
0.0250922
0.123833
0.0391501
0.0832357
0.376667
0.276157
0.0862482
0.0260353
0.00903293
0.0379733
0.0304452
0.0167981
0.0268015
0.39353
0.443417
0.0491431
0.0397082
0.101047
0.0945268
0.0475086
0.0131093
0.0220124
0.0591344
0.176738
0.0572279
0.0172677
0.0596017
0.128973
0.17451
0.132699
0.15906
0.0261677
0.0167282
0.00554622
0.0178744
0.0773858
0.0943041
0.109263
0.0965097
0.0294652
0.157503
0.192474
0.032588
0.0718638
0.183405
0.0906161
0.55134
0.50959
0.157333
0.0491469
0.0200968
0.00387358
0.0363583
0.111316
0.0531345
0.175847
0.155796
0.157936
0.0291258
0.00439283
0.000703891
0.00152848
0.0115366
0.0303803
0.148596
0.163834
0.472064
0.163243
0.0169581
0
0
0
0.045701
0.314392
0.284329
0.137295
0.0282792
0.0148991
0
0.00254747
0.017336
0.0514441
0.127882
0.256162
0.49622
0.0891208
0.0240993
0.000556544
0
0
0.0123139
0.0267412
0.0668783
0.481182
0.341688
0.0695152
0.00674992
0.0010399
0
0.0812696
0.0659772
0.0213863
0.10878
0.222079
0.123498
0.0514203
0.0117342
0.00652209
0.0349646
0.02932
0.16217
0.522845
0.169528
0.0609589
0.0054257
0
0
0.0490573
0.0441619
0.0442753
0.186853
0.227603
0.136067
0.0321896
0.00396007
0.00338448
0.139514
0.234868
0.0795812
0.0480905
0.111677
0.0932862
0.0976793
0.0369452
0.0511326
0.0506375
0.146321
0.0720023
0.111373
0.278578
0.104703
0.0743475
0.0384036
0.0536548
0.0443923
0.100945
0.0582308
0.119291
0.260668
0.181202
0.132477
0.0423461
0.025184
0.0329208
0.233344
0.213297
0.37254
0.285448
0.126445
0.119819
0.0447207
0.0246866
0.00763602
0.0552518
0.0585794
0.0737428
0.279201
0.0479521
0.0231863
0.0484112
0.00602021
0.00285146
0.0886633
0.0847657
0.0849281
0.414124
0.0514529
0.0289601
0.100902
0.0123677
0.0125845
0.157839
0.141461
0.24785
0.305615
0.0377603
0.00762896
0.00967838
0.00999052
0.0208029
0.142908
0.120347
0.246642
0.507827
0.00361075
0.00146706
0.0205884
0.0130213