0.10955
0.146939
0.0546858
0.0181284
0.118898
0.152196
0.238362
0.291181
0.131082
0.0814398
0.181694
0.151475
0.105213
0.145679
0.108578
0.153112
0.0848037
0.107234
0.323737
0.199604
0.0528391
0.0321284
0.315405
0.137452
0.100083
0.177448
0.0745004
0.201331
0.145262
0.120122
0.0868406
0.227139
0.132825
0.138162
0.0778624
0.0808816
0.0154062
0.112193
0.155235
0.0862113
0.0996217
0.0709706
0.219169
0.111723
0.115752
0.0333139
0.123531
0.214023
0.0999338
0.191695
0.0695405
0.215278
0.145717
0.174117
0.184477
0.093291
0.1275
0.117125
0.108717
0.128243
0.165052
0.0907353
0.102643
0.239176
0.0445865
0.132603
0.175154
0.232605
0.130687
0.29918
0.155792
0.254969
0.0724743
0.146054
0.0990968
0.0913594
0.113824
0.112941
0.07658
0.0795802
0.160027
0.152854
0.0742683
0.0319313
0.0735222
0.0825581
0.229365
0.177
0.209323
0.230738
0.285731
0.104444
0.165593
0.0746804
0.122598
0.0920807
0.117363
0.111823
0.19533
0.356724
0.103113
0.169125
0.0836637
0.172862
0.0890629
0.082823
0.181924
0.222824
0.117804
0.062999
0.0781913
0.0579007
0.0420458
0.0958978
0.0909212
0.161129
0.267225
0.109401
0.13046
0.204559
0.138215
0.104267
0.108798
0.185038
0.130077
0.245702
0.206515
0.0556334
0.11159
0.130249
0.0716446
0.0150453
0.0364356
0.121931
0.266255
0.149417
0.233033
0.318073
0.142954
0.164055
0.0308733
0.12015
0.156528
0.226316
0.114839
0.121489
0.0882269
0.0856771
0.029478
0.0763274
0.159963
0.0758831
0.131364
0.169584
0.150174
0.106941
0.148149
0.0819817
0.0491372
0.0977692
0.0330826
0.0884515
0.130531
0.294083
0.212571
0.0996664
0.084202
0.05831
0.113094
0.0380127
0.120494
0.206815
0.49671
0.308671
0.218951
0.0377952
0.0605005
0.109861
0.0170614
0.130218
0.0811015
0.211851
0.0648951
0.06252
0.0979562
0.0411059
0.0326647
0.0482286
0.0687218
0.191592
0.25247
0.0584786
0.0299775
0.0994424
0.10893
0.0742759
0.145448
0.216208
0.129939
0.471985
0.206037
0.0918627
0.0455921
0.0282919
0.0219153
0.0420609
0.124785
0.145337
0.335629
0.163717
0.265586
0.11432
0.0558842
0.0050333
0.0912276
0.181623
0.190981
0.113982
0.0732435
0.0462001
0.0432272
0.0420392
0.0303177
0.0987239
0.240135
0.352679
0.167537
0.0722358
0.0551374
0.0424933
0.04723
0.0227565
0.155972
0.460771
0.084132
0.136295
0.130147
0.169903
0.0729671
0.0257826
0
0.0944125
0.12378
0.214909
0.204838
0.0693173
0.118487
0.118169
0.0897868
0.0198802
0.245865
0.276592
0.254466
0.0981165
0.0684351
0.00857407
0.0558533
0.0725472
0.0535203
0.240993
0.318238
0.176019
0.0698205
0.0343677
0.0035193
0.0607994
0.0989529
0.0594934
0.351166
0.185142
0.251813
0.135341
0.00158779
0.0238256
0.126176
0.152729
0.0422362
0.210439
0.235681
0.228501
0.109104
0.088654
0.00758501
0.0639442
0.136617
0.0268757
0.140748
0.284398
0.097411
0.016589
0.0100927
0.0130504
0.0934656
0.0643358
0.0448838
0.253272
0.138586
0.0349822
0.0187134
0.0706486
0.0486926
0.110176
0.0891361
0.195002
0.18422
0.12112
0.195918
0.096018
0.190475
0.0132269
0.0469014
0.0400298
0.0482142
0.0829488
0.264291
0.271882
0.0734966
0.139712
0.00688756
0.049604
0.0483031
0.192874
0.136369
0.561777
0.278164
0.125499
0.0296397
0.0664353
0.138935
0.0821004
0.0617579
0.0764515
0.0682395
0.244791
0.141368
0.0736426
0.110026
0.0952006
0.164558
0.0521448
0.00977516
0.024692
0.31953
0.136221
0.0163742
0.166317
0.0740175
0.121704
0.0880786
0.148089
0.159444
0.468912
0.173262
0.0608158
0.132991
0.12965
0.30168
0.0658408
0.0831316
0.0685667
0.158472
0.061921
0.0675271
0.0945783
0.0718624
0.217179
0.0401196
0.035289
0.0637601
0.186501
0.0334179
0.13077
0.176927
0.0525557
0.10903
0.0969553
0.077259
0.155788
0.183429
0.0656472
0.150914
0.134734
0.212422
0.402984
0.0772107
0.0250418
0.0571225
0.172803
0.0542919
0.253747
0.176208
0.0972424
0.167205
0.178263
0.231162
0.289158
0.197371
0.0526175
0.100111
0.0684973
0.0137738
0.0212827
0.0602184
0.0362372
0.0951655
0.334932
0.0499352
0.0943209
0.0452942
0.0411169
0.0212958
0.0285216
0.0769697
0.207236
0.237699
0.0800216
0.104178
0.0550508
0.00291372
0.0107002
0.0708881
0.213883
0.214888
0.480355
0.150844
0.0491554
0.0138857
0.00145474
0.00413211
0.0282924
0.33629
0.312624
0.139092
0.031648
0.0376496
0.036747
0.0175877
0.0174285
0.0187578
0.165446
0.171992
0.0576177
0.0953948
0.109109
0.0348092
0.0561501
0.0835662
0.0835182
0.242318
0.134398
0.306237
0.126819
0.00589198
0.00259241
0.0153407
0.0375956
0.0504857
0.362816
0.244689
0.19412
0.167614
0.0519744
0.0173936
0.11108
0.257678
0.140409
0.343532
0.342723
0.0632774
0.203974
0.201354
0.0336694
0.0413151
0.0458744
0.0399284
0.057726
0.0759291
0.131275
0.40989
0.376179
0.0798502
0.00405661
0.0168623
0.0435352
0.0104993
0.081556
0.0813369
0.1675
0.224815
0.0507006
0.0540483
0.164393
0.0589513
0.0772266
0.216379
0.182027
0.234072
0.348798
0.0698036
0.0125061
0.108859
0.10464
0.0110801
0.204863
0.124709
0.273314
0.141715
0.0743598
0.0378227
0.0472113
0.0352425
0.0211022
0.129684
0.0853216
0.120189
0.0644764
0.193575
0.127776
0.150579
0.0254904
0.0246673
0.113836
0.314542
0.246196
0.118985
0.0761343
0.0333982
0.0551483
0.0735769
0.0125886
0.164924
0.333783
0.450236
0.24272
0.134599
0.0707268
0.154329
0.042484
0.00701322
0.0693889
0.0582971
0.11215
0.0400491
0.0528374
0.040822
0.0386037
0.0128913
0.0239681
0.030704
0.127165
0.288754
0.0604328
0.0235675
0.0403986
0.0243695
0.00611946
0.0479733
0.0699584
0.149222
0.398225
0.18996
0.0280188
0.0127584
0.0489059
0.0214855
0.0012751
0.0121447
0.348887
0.601985
0.238165
0.00431566
0.0185425
0.0346081
0.0505444
0.00300082
0.151733
0.129531
0.176414
0.0212775
0.0143255
0.0521688
0.0583921
0.0165169
0.0228004
0.107748
0.117316
0.100703
0.1065
0.0782888
0.0722036
0.0572507
0.0251307
0.0106225
0.109006
0.209081
0.242383
0.0796875
0.034816
0.242495
0.122816
0.0771019
0.00446241
0.249076
0.0639613
0.0595583
0.0838791
0.314035
0.627844
0.123482
0.0489664
0.00325119
0.0934676
0.123261
0.175352
0.283414
0.0726675
0.0295013
0.0097796
0.0157911
0.00736048
0.089405
0.319734
0.13422
0.151745
0.0107323
0.00167852
0.00426357
0.0367932
0.0186422
0.447686
0.0505099
0.106198
0.228083
0.285946
0.369282
0.01585
0.00796614
0.000548619
0.0176768
0.194362
0.137539
0.161934
0.0616817
0.105613
0.0182935
0.00261844
0
0.140444
0.143217
0.066726
0.0296735
0.0592748
0.0500652
0.0930407
0.0983507
0.118837
0.175576
0.40525
0.0953179
0.051101
0.0926651
0.114779
0.15539
0.0416764
0.103542
0.0809745
0.0701859
0.0284218
0.0283786
0.0646723
0.442601
0.253691
0.205093
0.077972
0.165177
0.28293
0.0746937
0.0428732
0.0722974
0.17525
0.186481
0.0915816
0.153705
0.148585
0.209456
0.0343573
0.103485
0.137605
0.153996
0.108495
0.0696556
0.0357792
0.0556448
0.055086
0.0278821
0.129217
0.0800932
0.0697246
0.0431318
0.167173
0.333116
0.253979
0.255908
0.0364039
0.0426759
0.122553
0.13072
0.0436629
0.0979528
0.0946142
0.145704
0.215017
0.0859498
0.107558
0.0670953
0.049803
0.0225472
0.181732
0.443805
0.286198
0.0871863
0.0586054
0.0483279
0.0139953
0.00113121
0.0104209
0.0931105
0.386489
0.232898
0.287234
0.242862
0.0536535
0.0133913
0.00636152
0.0053463
0.0307845
0.264409
0.204963
0.0892471
0.0927588
0.151676
0.025495
0.00749207
0.0626266
0.151189
0.411515
0.138565
0.151229
0.15212
0.154931
0.0390426
0.0609569
0.0607061
0.125547
0.166377
0.114239
0.290625
0.16447
0.0256312
0.0104352
0.0231352
0.023609
0.0518589
0.146872
0.199862
0.291429
0.126562
0.0292234
0.028676
0.061495
0.154566
0.108953
0.178661
0.371375
0.174744
0.122164
0.0634915
0.0281938
0.130038
0.0303493
0.0695775
0.0718487
0.115096
0.270667
0.243549
0.228092
0.137504
0.0775541
0.0295398
0.155171
0.173356
0.196276
0.0991332
0.0718866
0.0567353
0.0348358
0.0216207
0.0544846
0.0216488
0.0400876
0.0849504
0.13984
0.160469
0.108577
0.028157
0.0335766
0.0583755
0.0393664
0.00864341
0.0729794
0.13694
0.246611
0.174294
0.0603424
0.0151762
0.00957478
0.0303185
0.043613
0.0338487
0.176854
0.761364
0.303995
0.0209402
0.0344939
0.0195557
0.00761709
0.0121743
0.0180032
0.0991026
0.153209
0.0871807
0.00590183
0.00606658
0.00904553
0.00982218
0.000147667
0.0327137
0.111914
0.393301
0.165807
0.00966342
0.000898411
0.00528482
0.00224585
2.10953e-005
0.00650582
0.120211
0.5409
0.151315
0.00328265
0.00448012
0.00315827
0.00109586
0
0.0100565
0.174967
0.565024
0.165132
0.0013822
6.49027e-005
0.00184883
0.000542018
0
0.00272217
0.0849191
0.421978
0.134186
0.00455007
0.000896599
0.00412467
0.00365833
0.00273935
0.00283608
0.20628
0.338325
0.107503
0.0120262
0.0831729
0.0218693
0.0862267
0.0230047
0.0756551
0.116085
0.540502
0.0708455
0.000777564
0.0155315
0.00957959
0.0045563
0.00618358
0.0122644
0.11153
0.257072
0.0347281
0.103391
0.378686
0.0444945
0.0658668
0.0369533
0.0290116
0.0824411
0.0494889
0.0186076
0.0315089
0.229989
0.0494122
0.0794086
0.010914
0.0807453
0.00808359
0.00107354
0.005805
0.117138
0.425301
0.0353727
0.0133115
0.000548569
0.0169916
0.0264981
0.0232305
0.00404674
0.151184
0.548858
0.0328992
0.0516356
0.01446
0.0129254
0.000950749
0
0.00191906
0.199121
0.548858
0.0124297
0.0063665
0.000329141
0.00186503
0.0140759
0.0161329
0.038412
0.238921
0.520153
0.00754269
0.00118623
0.000309115
0.00363222
0.0381325
0.0503908
0.0495923
0.0857941
0.153571
0.0462857
0.00783156
0.00770536
0.012177
0.0221684
0.0226404
0.0215156
0.349135
0.590976
0.0110527
0.000930697
0.00368314
0.0104129
0.0438928
0.0636658
0.0398895
0.121697
0.101668
0.0374845
0.00565158
0.0350179
0.0477196
0.0232825
0.0181913
0.047045
0.035475
0.187524
0.0506875
0.029836
0.00944704
0.105719
0.146676
0.0294254
0.0316747
0.0120414
0.0310388
0.0211471
0.0170612
0.0238614
0.212821
0.0512081
0.0853684
0.0789917
0.0252553
0.257009
0.10286
0.0422642
0.292684
0.35673
0.332108
0.0586732
0.0323075
0.00267878
0.0218201
0.00700376
0.0526497
0.345526
0.526423
0.139329
0.0156428
0.0118479
0.0133092
0.0239032
0.00222547
0.0093913
0.0193544
0.180488
0.109975
0.0394064
0.022197
0.0131625
0.0210843
0.00484456
0.0311798
0.0781136
0.219781
0.347741
0.0863925
0.035419
0.00239442
0.0088874
0.00254252
0.0333731
0.11067
0.519952
0.198867
0.264612
0.259841
0.0469868
0.0696197
0.0177976
0.160179
0.0969252
0.438155
0.0685823
0.0573125
0.0708471
0.0349791
0.03223
0.0197907
0.037579
0.0686234
0.124224
0.0542238
0.0987452
0.0820558
0.028487
0.0348994
0.0291733
0.0537941
0.0134086
0.0662892
0.0924403
0.330969
0.287376
0.205621
0.166324
0.0155381
0.102183
0.049466
0.211619
0.151987
0.632215
0.240687
0.190991
0.0722935
0.0113385
0.0170626
0.00197748
0.0996836
0.0543121
0.123066
0.053415
0.00554208
0.0293674
0.00940739
0.0190339
0.0194894
0.0210194
0.0838557
0.333115
0.143994
0.0442599
0.0171553
0.00381947
0.0191992
0.0332456
0.014406
0.0944952
0.53766
0.180449
0.015797
0.003796
0.00241881
0.0074806
0.00837104
0.0149029
0.167763
0.592833
0.24974
0.0262794
0.00164421
0.000411053
0.00468127
0.0138552
0.0417211
0.0546537
0.353949
0.126294
0.0267506
0.00105467
0
0.00545294
0.0059742
0.00267937
0.0594527
0.531401
0.12947
0.00556577
0.00175778
0
0.00010497
0.006129
0.00302101
0.157359
0.491404
0.104951
0.0133758
0
0
0.000540041
0.00165821
0.0934372
0.136758
0.401934
0.058918
0.0138398
0
0
0
0.00864044
0.172152
0.119156
0.690961
0.0939076
0.00368439
0.0025221
0.000868673
0.000275665
0.00942986
0.0113181
0.193136
0.514713
0.0502038
0.000721923
0.00423453
0.0116999
0.00715444
0.00399262
0.015646
0.101004
0.229623
0.0250008
0.0208696
0.0232592
0.00265021
0.000459442
0.0166407
0.165921
0.095527
0.05591
0.00606052
0.00298137
0.0417386
0.023426
0.0169896
0.0152858
0.124263
0.0678613
0.166961
0.0119649
0.00583358
0.0362292
0.0182996
0.00809695
0.00444824
0.0115452
0.0220254
0.0388947
0
0.144608
0.580802
0.0274158
0.00655659
0.010052
0.0128559
0.0458008
0.00669175
0.00213367
0.0129073
0.064059
0.0183516
0.0159392
0.0135382
0.0666165
0.0109771
0.00459522
0.00355611
0.200864
0.694591
0.0189788
0.00376168
0.0090263
0.0296467
0.000428137
0.00136789
0
0.128298
0.443383
0.00828163
0.000980656
0.00180837
0.00111033
0
0
0.00045745
0.138919
0.437976
0.00811347
0.000720635
0
0
0.000132351
0.000385915
0.000315749
0.177274
0.513415
0.0295084
0.000138574
0.000695909
0.00035676
0
0
0
0.18678
0.43523
0.06871
0.00186945
0
0
0.0121709
0.0101046
0.00999044
0.215012
0.578483
0.0544136
0.00784046
0.0117209
0.0081247
0.053195
0.0535617
0.0192744
0.0583201
0.0744318
0.0526336
0.00899054
0.0389547
0.0448503
0.00955414
0.00625908
0.00956059
0.190121
0.585265
0.17219
0.011214
0.0250696
0.0174185
0.0793254
0.0336876
0.0170129
0.0377237
0.0727181
0.0811191
0.0802018
0.103074
0.0741105
0.0267807
0.0230173
0.00942491
0.00206129
0.0541115
0.0425365
0.0576479
0.352058
0.181198
0.112066
0.0159766
0.00304785
8.86866e-005
0.00372973
0.00124324
0.0754184
0.413677
0.413677
0.198526
0.0493853
0.0200905
0.0291389
0.00498399
0.00478842
0.0372137
0.192219
0.135475
0.325749
0.0278839
0.00123772
0.000666466
0
0
0.0437617
0.240924
0.406704
0.219871
0.139023
0.0273063
0.000763337
0
0.000801292
0.0234316
0.139291
0.395566
0.16922
0.406441
0.240725
0.0222564
0.0360267
0.00652064
0.0557285
0.0337465
0.155575
0.253816
0.120973
0.00855363
0.00127223
0
0
0.0131524
0.138126
0.373544
0.125746
0.226975
0.0669584
0.0133348
0.0323626
0.00638118
0.044749
0.28878
0.17425
0.0348527
0.305618
0.195381
0.104798
0.0863658
0.00589658
0.0376694
0.0151086
0.0512295
0.0481435
0.459862
0.182179
0.135454
0.0544238
0.00221635
0.0220725
0.0315217
0.0234539
0.0189106
0.124953
0.0585985
0.0720314
0.0976268
0.0225218
0.144256
0.276664
0.0779415
0.0169401
0.18015
0.104935
0.114666
0.0872247
0.0155145
0.363697
0.429539
0.0181726
0.0666361
0.427536
0.147497
0.0566082
0.0226665
0.0106294
0.00631326
0.018454
0.00152105
0.17989
0.39217
0.163729
0.0768327
0.0131397
0.0168827
0.00716655
0.0351558
0.129849
0.0336359
0.129829
0.0801242
0.0786961
0.077153
0.0744061
0.1925
0.318961
0.0116371
0.145712
0.0821065
0.117602
0.106712
0.0489978
0.118179
0.112239
0.296582
0.379231
0.133362
0.0936836
0.0329631
0.0119112
8.47153e-005
0.00160958
0.00174714
0.019298
0.248377
0.131483
0.0269531
0.00354786
0.00372917
0
0
0
0.0136895
0.434035
0.205536
0.0115071
0.0243025
0.014163
0.000593007
0.0112671
0.0204169
0.0672491
0.470777
0.403423
0.00818123
0
0
0
0
0
0.0212664
0.472924
0.101492
0.010898
0.0195501
0.00719451
0.0112067
0.00843641
0.0315844
0.041979
0.378472
0.137037
0.0227449
0.0658425
0.00730702
0.023141
0.0191664
0.0735231
0.0529103
0.208869
0.410719
0.0348367
0.0852332
0.00770406
0.00573263
0.0149301
0.0579307
0.0653541
0.505943
0.291194
0.0853936
0.216942
0.0329465
0.0352993
0.0453201
0.229447
0.079935
0.252694
0.115096
0.0246588
0.0279992
0.0168805
0.0544605
0.0250975
0.0350494
0.0736218
0.109122
0.0233104
0.0096396
0.00744555
0.203561
0.461468
0.0378573
0.00897896
0.0522502
0.0497723
0.157494
0.130259
0.104852
0.0688843
0.119305
0.0508049
0.141916
0.107248
0.131576
0.0405589
0.0660027
0.0455055
0.352774
0.611676
0.0654771
0.0243883
0.0687065
0.0365682
0
0.000441775
0.000361452
0.17486
0.375058
0.0424584
0.000431207
0.00201551
0.000671836
0
0
0.000212632
0.0971191
0.328631
0.128801
0.00313151
0
0
0
6.31107e-005
0.00172973
0.219856
0.512025
0.0521163
0.000258724
0.0012093
0.000403101
0
0
0.000354386
0.0740928
0.553856
0.110589
0.00181107
0
0
0.0071269
0.0119582
0.00666725
0.106045
0.387973
0.176316
0.00598483
0.0117827
0.0181055
0.0444292
0.0633693
0.0113214
0.0284521
0.047801
0.0275744
0.0626593
0.0792877
0.0729965
0.00852509
0.00711936
0.0105253
0.145915
0.752448
0.123674
0.0107117
0.00177277
0.0134986
0.0610958
0.0720077
0.0559234
0.0701925
0.0972246
0.0259821
0.0314211
0.0221913
0.10201
0.285804
0.0972547
0.12177
0.135491
0.0180531
0.00208147
0.00273568
0.0178523
0.115743
0.494879
0.0364012
0.0118352
0.00714527
0.0043826
0.000285474
0.00162478
0.0276981
0.316152
0.148144
0.0818129
0.150389
0.108467
0.0670764
0.0139882
0
0.029658
0.263835
0.306836
0.0406836
0.0316342
0.0120766
0.0306782
0.00199832
0
0.0152437
0.468363
0.263829
0.0496384
0.00180146
0.000283625
0
0.000104428
0.00674924
0.112334
0.245729
0.0989829
0.0534859
0.00796415
0.00297281
0.0102024
0.004598
0.059208
0.467823
0.173974
0.251509
0.0643234
0.00466869
0
0
0.000730994
0.00552208
0.0369101
0.413037
0.336772
0.0737272
0.000158539
0
0
0.00511696
0.0707302
0.16012
0.370244
0.0126241
0.00754322
0.00316253
0.00895885
0.0188304
0.00817838
0.17688
0.298794
0.0611473
0.00333115
0.0016495
0.00662338
0.0142298
0.0190112
0.00549327
0.424989
0.450769
0.0193857
0.177169
0.0118425
0
0
0
0.00142805
0.154698
0.142936
0.151907
0.133191
0
0
0
0
0
0.256485
0.397899
0.310457
0.00367116
0.00127102
0.00476798
0.00775868
0.0167657
0.0202032
0.188556
0.339392
0.0154245
0.0378092
0.000181574
0.0105623
0.0104595
0.0109989
0.0320887
0.173919
0.368329
0.177641
0.0393164
0
0
0
0
0.00208101
0.126948
0.413752
0.211782
0.0111005
0
0
0
0
0.0176217
0.345346
0.474033
0.151684
0.146701
0
0.00388903
0.00229584
0.000271526
0.00515897
0.0704965
0.169472
0.279305
0.321766
0.00496078
0.00218145
0
0.000139119
0.00125207
0.0117355
0.055452
0.298348
0.0224806
0
0
0
0
0.0102802
0.26756
0.517727
0.0899785
0.0562352
0.00348953
0.00363574
0
0.00097383
0.00929766
0.175171
0.476345
0.10314
0.546632
0.0300433
0.0630405
0.00779052
0.0053866
0.0133966
0.0291269
0.0301742
0.337673
0.344804
0.0884076
0.134311
0.0293605
0.0283249
0.044393
0.170856
0.0272743
0.269022
0.112958
0.018178
0.0110391
0.0172248
0.0149171
0.033473
0.156799
0.382892
0.0941645
0.103092
0.0340559
0.0206485
0.0505588
0.0319053
0.0278348
0.0278952
0.10742
0.100665
0.086291
0.0862729
0.0423869
0.0396079
0.0842335
0.0171902
0.0545737
0.0166895
0.0896102
0.0338375
0.0480208
0.0273311
0.222093
0.599467
0.0244988
0.00660296
0.00838244
0.0121133
0.0378944
0.021707
0.0104818
0.0413644
0.12074
0.00689131
0.00227859
0.00556188
0.0310458
0.0134211
0.00960946
0.00586832
0.242068
0.638837
0.00875456
0
7.07397e-005
0.00358749
0
0
0.00147704
0.114052
0.401051
0.0325778
0
0
0
0
0
4.22147e-005
0.0426464
0.425518
0.0466377
0
0
0
0
0
0.00161231
0.159981
0.522332
0.0164303
0
0
0
0
0
0.0023355
0.117385
0.522332
0.0562484
0
0
0
0.00151184
0
0.0052907
0.0736286
0.548873
0.0544937
0.00604973
0.00163682
0.00193413
0.0280484
0.00916892
0.0368345
0.0335437
0.0899956
0.0478175
0.0311932
0.0352362
0.047838
0.00463248
0.0122206
0.00702397
0.0963972
0.713716
0.0862179
0.00503997
0.00254462
0.000220937
0.0438578
0.0362217
0.0194267
0.0109522
0.12948
0.0483507
0.0447805
0.0662401
0.0457291
0.175732
0.0200258
0.0222013
0.00850897
0.022283
0.0158022
0.00735322
0.0293328
0.386832
0.254926
0.0160437
0.00861391
0.00229183
0.0103898
0.00408263
0.00202436
0.0117823
0.55407
0.196609
0.0115618
0.0303273
0.027666
0.00661629
0.0820245
0.0541684
0.0201449
0.280771
0.280749
0.026359
0.00161414
0.0036641
0.0064179
0.0329832
0.0180764
0.0142035
0.422327
0.194709
0.0258007
0.00136716
0
0
0.000214062
0.00140186
0.00764564
0.412355
0.331244
0.0167349
4.6426e-005
0
0
0.00149843
0.0157435
0.0220023
0.441885
0.198573
0.0404802
0
0.00286689
0.00838718
0.00395503
0.00896315
0.0130392
0.329206
0.29336
0.0201129
0.00542236
0.0070028
0.00605445
0.00153299
0.0146586
0.0169244
0.440336
0.261819
0.00166789
0
0
0
0.000536093
0.0239933
0.0280665
0.282414
0.271355
0
0
0
0
0
0.0267444
0.121684
0.485558
0.236934
0.00124551
0.00620182
0.00302451
0.00460405
0.0052805
0.0125688
0.00847002
0.319404
0.353935
0.000145522
0.00155745
0.000510101
0.0108939
0.00830432
0.0119187
0.0374328
0.431637
0.153028
0.00311147
0.00254575
0
0
0.00781755
0.0831393
0.208149
0.416564
0.0598349
0.0217803
0.0178203
0
0.0194181
0.0764987
0.388545
0.342641
0.247605
0.248584
0.00530199
0.00459153
0
0.0121027
0.0124017
0.0409252
0.0505784
0.373611
0.146202
0.0371139
0.0321407
0.0030649
0.0447261
0.071443
0.19331
0.0847205
0.275655
0.00462479
0.0072821
0.00595808
0
0.0176479
0.0411772
0.274992
0.301877
0.0328917
0.00083587
0.000945056
0.000505791
0
0.00288939
0.00881794
0.313576
0.526525
0.0252814
0.0189383
0.0124088
0.010746
0.0027855
0.0345863
0.0437026
0.213711
0.145018
0.0438058
0.00369866
0.00114885
0.00459539
0.000397928
0.0049409
0.00804636
0.4166
0.393742
0.0269942
0.00249514
0.0022274
0.000611206
0.00258184
0.00262341
0.00594309
0.15969
0.372648
0.0170325
0.0081991
0.00292062
0.00142935
0.00828784
0.00635217
0.00529766
0.0578662
0.266778
0.0618289
0.00999017
0.00112272
0.00449088
0
8.54984e-005
0.00380046
0.290637
0.470672
0.0246643
0.00895188
0.00027068
0.000688822
0.000522184
0.000780722
0.00633409
0.304508
0.54597
0.0720954
0.00743236
0.00331864
0.0054318
0.0359277
0.0768554
0.00158703
0.0134035
0.065694
0.0342675
0.00201085
0.00160581
0.00686708
0.191792
0.538149
0.000835682
0.00142835
0.00736323
0.00368462
0.0272698
0.00382712
0.0275726
0.0494472
0.050391
0.000905905
0.160793
0.437861
0.0616521
0.0396895
0.0247621
0.0591771
0.329976
0.49182
0.00392042
0.0211983
0.144428
0.0420004
0
0
0.00239735
0.177587
0.447744
0.0238632
0.0141066
0
0
0
0
0.00309882
0.142797
0.358259
0.0784635
0.0235111
0
0
0.0052803
0.00945684
0.0128577
0.234374
0.468611
0.053732
0.0485488
0.00379515
0.00526903
0
0
0.00121056
0.186907
0.472316
0.11158
0.0821891
0.000143844
0
0.00479923
0.0247311
0.0153605
0.105406
0.540342
0.0919168
0.0108725
0.000713595
8.94355e-005
0.0430295
0.0799551
0.0360521
0.0129048
0.0998174
0.0301581
0.0197539
0.0328207
0.0167647
0.00472929
0.0264117
0.0139715
0.208757
0.673925
0.119525
0.0476207
0.003534
0
0.0441248
0.0834685
0.0351747
0.0343935
0.0945704
0.0621632
0.0215106
0.0415556
0.00208384
0.182181
0.0635129
0.183746
0.179563
0.0579369
0.219447
0.122749
0.064289
0.123086
0.345187
0.0672825
0.0103871
0.0297955
0.0932906
0.153511
0.0660537
0.10492
0.333901
0.144647
0.143222
0.238973
0.0854126
0.0960101
0.142749
0.0432954
0.198115
0.0630435
0.144476
0.147219
0.0265255
0.0225366
0.209098
0.18043
0.0287947
0.203832
0.142412
0.212581
0.137313
0.0127945
0.031246
0.0946953
0.0453176
0.0361019
0.0569445
0.317352
0.262591
0.153019
0.0474666
0.0671151
0.065987
0.0103388
0.0645495
0.0701665
0.411725
0.175075
0.261938
0.0372262
0.027701
0.168967
0.0799485
0.0130808
0.0739416
0.117303
0.229384
0.295188
0.0694207
0.0568742
0.136597
0.0239879
0.108627
0.134846
0.167113
0.227634
0.0346165
0.0410486
0.0405083
0.0781657
0.0243373
0.0667085
0.0361036
0.260527
0.380635
0.00165625
0.0138115
0.0229855
0.15111
0.073467
0.151738
0.122298
0.343856
0.0936969
0.0700033
0.0479154
0.0595553
0.121771
0.0233263
0.119556
0.172279
0.140154
0.0472037
0.030066
0.0691047
0.13896
0.278445
0.140305
0.326887
0.18234
0.112048
0.243958
0.00360748
0.00638432
0.00170532
0.0588525
0.0564658
0.0996837
0.162616
0.333628
0.178944
0.0284609
0.0495031
0.0166525
0.0605561
0.0853971
0.126576
0.169408
0.35063
0.0813198
0.0110082
0.0283555
0.0538812
0.0716904
0.096777
0.387577
0.226767
0.0931336
0.123536
0.092308
0.147214
0.0663917
0.018321
0.046366
0.258849
0.211601
0.174327
0.0369927
0.0172786
0.0279045
0.0285044
0.0382859
0.061978
0.232547
0.18055
0.126135
0.0425776
0.113102
0.0915239
0.0222702
0.0108417
0.03602
0.534634
0.380623
0.138143
0.0507196
0.0782469
0.130808
0.0823829
0.0425695
0.110581
0.108102
0.0582403
0.0991776
0.0543705
0.191929
0.152104
0.0633411
0.0547712
0.216801
0.0821923
0.218731
0.186557
0.0389175
0.043777
0.0246991
0.00233718
0.00125646
0.00790154
0.183685
0.240497
0.0283006
0.0229946
0.0133631
0.00288659
0.00252127
0.00135761
0.0125041
0.389126
0.649681
0.0176716
0.0351847
0.068753
0.0239585
0.0122226
0.00952247
0.0227035
0.0451482
0.193028
0.048798
0.0372424
0.0256469
0.00504618
0.0375784
0.0178341
0.0335174
0.31251
0.335265
0.0306011
0.0454789
0.0135549
0.017541
0.0288369
0.00904845
0.00510793
0.266908
0.550138
0.0571067
0.104361
0.100063
0.0596934
0.264785
0.193981
0.00813658
0.0611405
0.271432
0.0988667
0.0402531
0.0144056
0.00437664
0.0262448
0.0190854
0.0323789
0.354636
0.245262
0.0364256
0.149114
0.105645
0.0480873
0.0623104
0.0532715
0.0252782
0.24357
0.180129
0.0844891
0.0255855
0.0442541
0.026717
0.259841
0.341645
0.0636862
0.0254389
0.0154653
0.0188537
4.2988e-005
0.000816774
0.00428505
0.252575
0.490397
0.194789
0.044147
0.00206796
0
0.0885584
0.0817818
0.109628
0.154634
0.187533
0.0817268
0.0484469
0.0327534
0.0352674
0.0106053
0.0186974
0.0651214
0.174673
0.288037
0.388233
0.127702
0.0921458
0.0269829
0.00204824
0.0235463
0.00625783
0.12423
0.365248
0.194307
0.0337504
0.0144449
0.00496102
0.0154277
0.0679092
0.0326696
0.0178361
0.0443983
0.055642
0.0194898
0.02638
0.0106929
0.054095
0.0204598
0.00888282
0.0496979
0.148693
0.396912
0.189261
0.1879
0.222172
0.23142
0.0957994
0.0320305
0.0086963
0.0147669
0.0563326
0.0328335
0.138126
0.538791
0.0851269
0.075211
0.0837149
0.00450704
0.0354948
0.0763003
0.052195
0.323543
0.150973
0.0601718
0.0935992
0.0207488
0.0127503
0.150244
0.151846
0.0888953
0.151047
0.116196
0.0168942
0.016447
0.00122058
0.00993086
0.181148
0.110322
0.245522
0.408338
0.14039
0.0289238
0.0374806
0.0368864
0.0333058
0.199961
0.219208
0.368849
0.171525
0.10211
0.0860278
0.142678
0.0451282
0.0438707
0.243689
0.139206
0.0576695
0.0650465
0.0600074
0.147836
0.105539
0.0437724
0.0462362
0.318661
0.0991886
0.140292
0.10542
0.152734
0.0290032
0.0411881
0.0754972
0.0731423
0.270137
0.148838
0.141508
0.20114
0.0980271
0.157819
0.0273246
0.0517222
0.0762056
0.30899
0.101672
0.116775
0.307491
0.221977
0.0544726
0.0327806
0.0344042
0.0276346
0.112049
0.044741
0.10333
0.113837
0.185219
0.0202969
0.0481141
0.0953183
0.117285
0.158342
0.0883927
0.154831
0.167012
0.176497
0.247249
0.0580819
0.0207543
0.0339583
0.121787
0.0523852
0.047435
0.0998081
0.25269
0.199489
0.0836903
0.0369742
0.0204825
0.13854
0.0775109
0.114187
0.330762
0.507737
0.0219525
0.0236009
0.0482644
0.0883868
0.0509711
0.0889997
0.257442
0.179087
0.0725286
0.0769296
0.152922
0.221142
0.115472
0.0172775
0.0936267
0.164658
0.177411
0.0686802
0.0251044
0.0291428
0.0252079
0.0336997
0.0832389
0.180568
0.212446
0.299682
0.206083
0.0465963
0.16231
0.236795
0.183557
0.138295
0.262274
0.268148
0.216074
0.0556978
0.0516894
0.134215
0.265221
0.121793
0.0568186
0.133409
0.0241656
0.0709704
0.0541274
0.0501945
0.0731306
0.132792
0.104921
0.0779276
0.179395
0.0353063
0.249639
0.200789
0.0386123
0.228588
0.37272
0.291681
0.141855
0.105913
0.072667
0.0745619
0.0195616
0.0803135
0.162378
0.191845
0.229538
0.100525
0.1186
0.131904
0.0810194
0.0932632
0.0508511
0.0404409
0.0281816
0.0473243
0.0289269
0.0428202
0.0459643
0.427528
0.148477
0.0992471
0.0569592
0.0624116
0.114373
0.0471279
0.0564283
0.267066
0.40531
0.141036
0.0598512
0.0434819
0.0524858
0.102235
0.028419
0.104715
0.219275
0.16027
0.0757634
0.0545777
0.0756183
0.121921
0.125676
0.0148581
0.0783468
0.272559
0.278565
0.132403
0.0783548
0.0484966
0.0283312
0.0631904
0.0592953
0.0853307
0.357159
0.145984
0.0416457
0.298331
0.116706
0.0685211
0.028294
0.128585
0.110532
0.382656
0.164265
0.0630726
0.0460558
0.0554224
0.0488245
0.0663137
0.0652046
0.15563
0.21104
0.132865
0.0559387
0.138023
0.0492117
0.018109
0.0658819
0.295321
0.214074
0.281781
0.134519
0.0329316
0.244521
0.122611
0.203027
0.104767
0.141772
0.0820864
0.0890165
0.069039
0.0595208
0.0616296
0.0690131
0.156803
0.122298
0.127651
0.295416
0.342327
0.341456
0.114982
0.149828
0.0460076
0.0484243
0.0573475
0.213286
0.0816248
0.119135
0.114058
0.0310819
0.156713
0.0391923
0.0763591
0.0621504
0.0828225
0.111372
0.208113
0.261455
0.094532
0.110614
0.0245063
0.00664067
0.00892884
0.0143793
0.113662
0.186929
0.200299
0.257933
0.349858
0.0748671
0.00711224
0.00418111
0.00431997
0.0131453
0.0377467
0.0985042
0.609898
0.17594
0.0479241
0.0239749
0.00916388
0.0134972
0.0434696
0.0926054
0.115726
0.128553
0.245785
0.125297
0.0732581
0.0453934
0.0297868
0.0183439
0.0417796
0.0602414
0.220613