0.197619
0.110673
0.0750921
0.113318
0.0518356
0.0457872
0.148182
0.0431173
0.120433
0.273061
0.12342
0.130948
0.133918
0.0884968
0.11197
0.154909
0.0261552
0.126267
0.22916
0.0874597
0.0772286
0.0840287
0.0401243
0.0206921
0.0672258
0.0838328
0.346743
0.157389
0.127106
0.223377
0.152471
0.202295
0.0600932
0.0764406
0.0566245
0.32103
0.0968943
0.102637
0.124765
0.131937
0.106635
0.137828
0.0612698
0.0333825
0.0530458
0.0488736
0.0790962
0.0776326
0.163986
0.318757
0.123571
0.0272986
0.0514583
0.121813
0.202368
0.171134
0.176033
0.217381
0.1622
0.0957864
0.0351596
0.021007
0.100464
0.178049
0.150988
0.0772926
0.28411
0.350405
0.11277
0.0224184
0.0333232
0.123746
0.0808251
0.0426683
0.0867431
0.07944
0.30633
0.0623389
0.0274512
0.065891
0.0495208
0.138377
0.261178
0.311307
0.078895
0.134719
0.0536947
0.0310385
0.0762666
0.0416254
0.108952
0.0422805
0.0606416
0.108892
0.333707
0.0800365
0.0471686
0.0868622
0.0645479
0.146945
0.155514
0.16702
0.125629
0.247357
0.0930355
0.194782
0.226174
0.137625
0.131361
0.263011
0.2202
0.0488089
0.0244707
0.0582973
0.0351426
0.0315799
0.0739536
0.136249
0.206694
0.174703
0.0429155
0.07484
0.163867
0.053852
0.0138324
0.110939
0.0737978
0.142667
0.109886
0.0496215
0.205494
0.173074
0.215718
0.112097
0.12281
0.0897289
0.154597
0.0601308
0.0351265
0.123698
0.356037
0.260767
0.0524977
0.117972
0.110942
0.0350558
0.0382796
0.0534852
0.0547288
0.114051
0.0671327
0.0421226
0.173247
0.214206
0.0296542
0.0306171
0.107187
0.118022
0.112137
0.194079
0.076229
0.177133
0.131067
0.0580043
0.0169465
0.0770023
0.0325782
0.177965
0.232721
0.111702
0.185757
0.250845
0.0387411
0.181522
0.309366
0.19257
0.124967
0.27988
0.175515
0.236492
0.0958685
0.0238912
0.0305159
0.139001
0.224521
0.086312
0.0976412
0.0339537
0.0509776
0.0726251
0.0335952
0.0187621
0.0731245
0.166466
0.148539
0.0977601
0.117972
0.190873
0.0953784
0.0263168
0.194675
0.38992
0.314934
0.0534209
0.0948232
0.0430082
0.102561
0.0915824
0.0297645
0.0799136
0.16171
0.315851
0.222586
0.129667
0.0613446
0.150587
0.0528184
0.0982912
0.0133035
0.00973613
0.0263351
0.0742691
0.0828308
0.107913
0.217232
0.0879929
0.176957
0.045437
0.100756
0.0958798
0.0268516
0.143037
0.151603
0.247315
0.0676419
0.0316723
0.0306071
0.0342045
0.134739
0.103659
0.154437
0.116664
0.176824
0.148651
0.120978
0.0359382
0.0941787
0.168666
0.0488424
0.307852
0.378636
0.369964
0.0476501
0.129931
0.0990307
0.137555
0.17058
0.00562835
0.0605215
0.0718972
0.0903098
0.0554001
0.182771
0.160528
0.279139
0.254289
0.0202878
0.0347509
0.0746022
0.0763449
0.084453
0.141013
0.0550555
0.0677791
0.233387
0.143183
0.210243
0.191856
0.158484
0.0530236
0.158176
0.0894028
0.131799
0.344373
0.23933
0.208245
0.12103
0.0692109
0.0531307
0.167366
0.0940217
0.200586
0.102111
0.0345604
0.122542
0.111113
0.17765
0.0593238
0.091838
0.0631556
0.0929744
0.0936661
0.10193
0.254211
0.0644208
0.105254
0.0568273
0.177152
0.0709042
0.0992019
0.120783
0.0968802
0.27024
0.145371
0.153077
0.0848787
0.149783
0.107983
0.0711708
0.028345
0.130911
0.442102
0.0713857
0.177019
0.0957332
0.0526034
0.0654738
0.0479237
0.0133127
0.0244289
0.0949152
0.0704826
0.16919
0.0615302
0.0248121
0.081769
0.0673807
0.095001
0.0661572
0.161528
0.0917069
0.231583
0.0606871
0.0965496
0.0741769
0.0327403
0.0371351
0.0890957
0.226748
0.169973
0.100146
0.0355064
0.0351355
0.0303363
0.0152177
0.0120291
0.180199
0.560665
0.369199
0.145414
0.074266
0.0358204
0.0464365
0.0922981
0.102627
0.080224
0.106748
0.0608494
0.161092
0.0772664
0.0617657
0.00858556
0.108629
0.188227
0.13599
0.073171
0.0530182
0.149752
0.0116429
0.00504855
0.00787422
0.0368835
0.0839587
0.146426
0.463748
0.253413
0.124619
0.034976
0.0525748
0.00823954
0.0738223
0.285563
0.183796
0.286776
0.236851
0.151166
0.0285308
0.0238996
0.0211726
0.0649654
0.172506
0.122946
0.0817291
0.0826223
0.0475808
0.0330047
0.0614306
0.0922535
0.117676
0.24591
0.114778
0.16074
0.162507
0.0522508
0.0399183
0.0510922
0.00783407
0.0273145
0.106965
0.119958
0.243261
0.336712
0.109459
0.0393351
0.118015
0.0460381
0.0417018
0.135557
0.0524496
0.251901
0.482419
0.147996
0.0238896
0.0567979
0.0650904
0.077699
0.322574
0.1318
0.183379
0.0994947
0.0635797
0.10811
0.14285
0.0257506
0.0126004
0.125727
0.178873
0.227643
0.0981633
0.139356
0.0644728
0.182574
0.0383864
0.0488233
0.186844
0.0304434
0.154952
0.228601
0.136248
0.129536
0.179102
0.0887367
0.0794214
0.0529509
0.0930782
0.271448
0.16681
0.153498
0.105547
0.0837734
0.00894976
0.0174752
0.0381176
0.14566
0.16684
0.211256
0.16423
0.1876
0.0937769
0.194511
0.163013
0.0866799
0.132134
0.145455
0.2593
0.201271
0.067514
0.0452456
0.0824213
0.0687398
0.0601123
0.169419
0.154191
0.166188
0.152816
0.193495
0.0605896
0.0802854
0.109272
0.14065
0.212856
0.136526
0.184333
0.219148
0.104535
0.0424169
0.169117
0.172196
0.0974673
0.0317689
0.0635326
0.0664043
0.0811014
0.0709042
0.0141579
0.0761596
0.0716717
0.11975
0.130595
0.212156
0.228719
0.0851368
0.152477
0.0267688
0.0670665
0.0554945
0.112412
0.0550537
0.114249
0.178695
0.139977
0.0994609
0.0194493
0.0568695
0.0106003
0.111656
0.0777629
0.326007
0.485377
0.238128
0.0389784
0.022214
0.0776767
0.0146
0.0552045
0.0584379
0.182623
0.217348
0.0549085
0.114085
0.0818562
0.0862256
0.0457919
0.0611899
0.0504354
0.19418
0.352015
0.257831
0.0652827
0.0636684
0.0633143
0.0125137
0.0819916
0.0464958
0.158119
0.318427
0.144245
0.183896
0.146656
0.113675
0.175529
0.0386895
0.0444044
0.086905
0.212693
0.343639
0.0939211
0.0661463
0.016729
0.0179955
0.0857031
0.137752
0.116616
0.215747
0.187789
0.0971926
0.076192
0.0407496
0.0322649
0.172828
0.265921
0.170644
0.0812298
0.0697229
0.187726
0.0415372
0.0456176
0.107691
0.00982375
0.0687537
0.162139
0.210529
0.291011
0.307009
0.037582
0.0709555
0.193137
0.115268
0.166678
0.249513
0.142442
0.23561
0.0798349
0.134453
0.0484618
0.0691475
0.127317
0.137827
0.161888
0.0348516
0.0762771
0.149068
0.137078
0.0415761
0.0612172
0.0492258
0.0572691
0.225022
0.0315002
0.175104
0.187144
0.052698
0.0749831
0.272607
0.181565
0.149491
0.0930681
0.210059
0.214336
0.154271
0.0894453
0.0205788
0.0935192
0.235724
0.0997136
0.118009
0.26425
0.25651
0.0266202
0.0265191
0.0249726
0.00411258
0.0210498
0.0543638
0.146864
0.145177
0.146252
0.0607652
0.021557
0.014354
0.000796706
0.00246619
0.0822426
0.282716
0.255713
0.286336
0.0873693
0.0473665
0.0259117
0.00299105
0.00269295
0.0960181
0.220766
0.141989
0.18583
0.201313
0.0262816
0.0159501
0.0154102
0.00193963
0.093388
0.298587
0.176827
0.494282
0.0598434
0.0473348
0.0358367
0.0105496
0.0307746
0.0859144
0.331659
0.183443
0.151585
0.0489766
0.115931
0.057394
0.0541069
0.125502
0.123929
0.217966
0.195627
0.0829641
0.220156
0.0918001
0.0555071
0.0224058
0.00724842
0.0451129
0.183686
0.0981733
0.357342
0.140677
0.149555
0.0730557
0.0105137
0.0508237
0.0850297
0.243901
0.213741
0.261171
0.122667
0.0930813
0.00668803
0.01694
0.034926
0.0407312
0.127141
0.241331
0.140622
0.138015
0.090927
0.0062151
0.00192955
0.00937384
0.0356688
0.200255
0.313712
0.176938
0.256361
0.138828
0.0100342
0.015636
0.0310413
0.0308424
0.111172
0.18941
0.25955
0.359068
0.190719
0.015643
0.0231844
0.0600448
0.0752399
0.145626
0.183045
0.247288
0.0809672
0.137072
0.0358338
0.0257166
0.018679
0.0752767
0.183924
0.167612
0.0875871
0.0739523
0.13068
0.190834
0.198499
0.0188826
0.0539621
0.149975
0.103607
0.0360689
0.158258
0.115997
0.0353946
0.0280505
0.131164
0.141552
0.320333
0.138171
0.112676
0.109202
0.0943389
0.181213
0.189597
0.126385
0.116384
0.328046
0.161962
0.100679
0.0196763
0.0431845
0.150186
0.138915
0.0317262
0.0659264
0.0905874
0.0711851
0.0445635
0.0740474
0.0494929
0.0596413
0.0923263
0.100543
0.110287
0.130494
0.200335
0.148648
0.0486291
0.135195
0.213079
0.171318
0.0696469
0.0695431
0.0919318
0.0881573
0.0788826
0.196372
0.424028
0.248984
0.137203
0.058719
0.0594233
0.0771334
0.204316
0.292853
0.0468359
0.0133366
0.00823612
0.0123604
0.0454235
0.0319358
0.0513348
0.141573
0.145651
0.0886165
0.0513456
0.039101
0.00596624
0.0546065
0.0195367
0.059196
0.186609
0.292686
0.23944
0.255108
0.0379528
0.0129637
0.0187134
0.0341927
0.0205614
0.111763
0.243091
0.399981
0.221377
0.0502307
0.0562936
0.093201
0.0599402
0.0664795
0.224355
0.42804
0.0610362
0.101277
0.0640505
0.0227047
0.0393618
0.0108455
0.0142222
0.0526466
0.107598
0.278566
0.209068
0.0881214
0.0574015
0.0165121
0.00751404
0.00585185
0.0170385
0.258326
0.0948717
0.133965
0.126309
0.17312
0.198656
0.0445103
0.040106
0.0920818
0.117823
0.362539
0.320828
0.260132
0.301716
0.270208
0.0263759
0.00565742
0.0126347
0.228507
0.185753
0.0397067
0.0172734
0.0153704
0.000494229
0.00611551
0.0256035
0.0116174
0.244314
0.250642
0.0220448
0.0080047
0.0319256
0.00486165
0.0119654
0.0433124
0.046665
0.321419
0.285015
0.0919554
0.0459833
0.0452011
0.0350651
0.00488279
0.00197776
0.00288577
0.330648
0.332751
0.0287985
0.00577487
0.00399481
0.0224858
0.0166069
0.0537321
0.0867803
0.574573
0.135605
0.0122665
0.00873492
0.045129
0.0132054
0.0207612
0.0464017
0.20761
0.234898
0.0169398
0.0029469
0.00158008
0.00853109
0.0463454
0.0382606
0.106852
0.291809
0.107478
0.138466
0.0108029
0.00370367
0.016363
0.154024
0.145089
0.214754
0.286447
0.384606
0.0343936
0.0115233
0.0175456
0.0769584
0.224822
0.222922
0.261309
0.378546
0.0881132
0.159371
0.0972963
0.0402238
0.00513907
0.00625618
0.124541
0.18906
0.0913943
0.153799
0.174012
0.0471004
0.0378915
0.0264769
0.0105317
0.149404
0.32699
0.131766
0.259745
0.215497
0.182487
0.115929
0.0852351
0.0370153
0.0503466
0.0482271
0.0675872
0.1635
0.167581
0.0840879
0.109251
0.0495664
0.026276
0.0764492
0.139092
0.353364
0.221952
0.126489
0.0438322
0.0237243
0.030037
0.00438198
0.0418488
0.167165
0.123765
0.217989
0.11229
0.0950297
0.0166901
0.019271
0.0309983
0.0422443
0.226029
0.215713
0.229437
0.04878
0.0162093
0.0149942
0.00578252
0.00190931
0.0662595
0.242596
0.371539
0.14653
0.0925664
0.165728
0.0232404
0.0255796
0.0135599
0.0982208
0.247998
0.287008
0.133307
0.136761
0.0792497
0.0118861
0.0809574
0.0616014
0.0585724
0.0914297
0.124181
0.146386
0.252078
0.115813
0.0210823
0.100913
0.121827
0.0851835
0.066962
0.167392
0.131349
0.186433
0.136411
0.0237016
0.084417
0.0354311
0.116224
0.122569
0.0743462
0.0952907
0.483385
0.100617
0.0899436
0.226333
0.110875
0.108785
0.0904726
0.215274
0.182235
0.0663453
0.0328282
0.0113977
0.0230458
0.0972043
0.0416811
0.0924048
0.0761837
0.0401093
0.0605373
0.0702752
0.054241
0.0548631
0.0632916
0.0600216
0.140973
0.179333
0.059487
0.175438
0.108474
0.0762094
0.185926
0.151609
0.0778214
0.0485282
0.108806
0.0878429
0.35088
0.514997
0.311891
0.192382
0.122327
0.140702
0.0524744
0.13554
0.0682968
0.0153035
0.0550609
0.0579454
0.0292632
0.0116418
0.0106089
0.012372
0.0372581
0.0201451
0.0580319
0.229609
0.102333
0.0424324
0.0219095
0.013202
0.000882876
0.00794464
0.023731
0.15392
0.296625
0.139552
0.049914
0.0339432
0.0264026
0.0049454
0.030099
0.0195619
0.320233
0.744218
0.218121
0.0507844
0.0411002
0.0222711
0.00185253
0.00800459
0.0449633
0.132773
0.223517
0.0369348
0.0137461
0.017722
0.0316521
0.00918731
0.0380564
0.0811453
0.163784
0.0874826
0.0062907
0.0418959
0.113168
0.0809331
0.0432327
0.144597
0.147103
0.255836
0.49964
0.120312
0.036568
0.103028
0.060174
0.0402699
0.101013
0.146937
0.117942
0.114826
0.0233357
0.185374
0.392541
0.229096
0.0711125
0.244464
0.181556
0.0280112
0.0122819
0.0162323
0.0859023
0.294444
0.056209
0.0263457
0.058098
0.0299545
0.0305412
0.0368924
0.0486164
0.15235
0.396575
0.0299053
0.00333106
0.00511294
0.016424
0.00441848
0.00027551
0.00948244
0.264271
0.438182
0.0856666
0.0127716
0.0566259
0.0201199
0
0
0.012048
0.32591
0.508306
0.0166241
0.000475866
0.00111644
0.00241686
0.170394
0.0876457
0.0741558
0.13753
0.268304
0.0419905
0
0.00821951
0.185134
0.238924
0.071848
0.07252
0.055708
0.184324
0.0663435
0.0842021
0.0764303
0.365869
0.012634
0.0267214
0.0803865
0.275367
0.364685
0.0341851
0.00503509
0.00578171
0.0222387
0.0428499
0.0702447
0.144013
0.22537
0.327637
0.0323641
0.0154957
0.005245
0.0321674
0.0199568
0.00662695
0.0101064
0.0360368
0.275773
0.0862938
0.0615657
0.0403909
0.0526396
0.0276906
0.00850592
0.0196788
0.0755922
0.367449
0.126817
0.0544107
0.0464868
0.0147655
0.00439456
0.00612497
0.0227547
0.112919
0.476489
0.0260895
0.00290822
0.000626841
0.00266657
0.0170061
0.0016878
0.0147557
0.160371
0.62696
0.070811
0.0282104
0.0533707
0.0142738
0.0666406
0.0283927
0.052672
0.0208931
0.00285004
0.00233185
0.000671119
0.00574739
0.0671643
0.0382156
0.019981
0.045795
0.0137008
0.00171002
0.00265761
0.0294399
0.0846739
0.080851
0.418853
0.0359924
0.0321669
0.0190779
0.00815013
0.0041346
0.00609406
0.0172677
0.554792
0.273266
0.0212911
0.0297031
0.104687
0.0389037
0.000554113
0.0798675
0.133172
0.547216
0.0228031
0.0085449
0.0108141
0.00177266
0
0.0155398
0.136342
0.210249
0.0932812
0.0582369
0.0655957
0.0506363
0.0233011
0.00198653
0.0241987
0.1059
0.117758
0.0751282
0.138775
0.0907133
0.0181826
0.259252
0.116738
0.0186766
0.245285
0.298869
0.388883
0.260347
0.318822
0.197888
0.266938
0.0598656
0.027773
0.119151
0.106251
0.16837
0.0757496
0.0534074
0.0238044
0.019432
0.00133719
0.00932392
0.0184047
0.0107664
0.0386017
0.171539
0.112173
0.0652418
0.067994
0.0157703
0.00641005
0.0099486
0.0129049
0.0482878
0.152966
0.275887
0.13851
0.130029
0.0110066
0.00202712
0.00579041
0.0153141
0.0513566
0.305683
0.72143
0.303051
0.0789005
0.0153173
0.000168333
0.000953886
0.0215944
0.059115
0.0714462
0.141909
0.0466527
0.0602701
0.0268129
0.00638298
0.00167151
0.00514734
0.0210973
0.140618
0.397426
0.132024
0.0328823
0.0191664
0.0122915
0.00163591
0.00193169
0.0242843
0.137685
0.492754
0.169347
0.0260591
0.00963565
0
0
0.00257924
0.0244724
0.210898
0.599551
0.118809
0.0148494
0.00467329
0.000214084
0.00192676
0.00550922
0.034053
0.177722
0.482685
0.172462
0.012628
0.0112916
0.00912765
0.000716342
0.00177553
0.0103802
0.290134
0.547082
0.100793
0.00871675
0.0199588
0.0152867
0.00484252
0.0126236
0.0586834
0.152382
0.38911
0.0954302
0.00244962
0.00230522
0.00645361
0.00813727
0.00942899
0.0247316
0.121921
0.174409
0.0283847
0.0161417
0.0496333
0.0238458
0.0153334
0.0168218
0.0494472
0.0986563
0.155325
0.0291343
0.0396948
0.164077
0.0336082
0.0166804
0.0335246
0.0618943
0.0192871
0.0249261
0.00936366
0.177539
0.473143
0.0682859
0.019503
0.0443962
0.0347327
0.0301072
0.017468
0.00259295
0.0864648
0.338428
0.0179342
0.0072354
0.0117867
0.0241248
0.00168433
0.000579144
0.0129427
0.278874
0.633159
0.0157199
0.0027455
0.00231887
0.00430288
0.000126055
0
0.00738504
0.233136
0.37699
0.0248001
0.00262127
0.00931953
0.00239503
0.000960657
0.00224153
0.0103147
0.261793
0.290993
0.00335543
0.00348781
0.00225242
0.000258763
0
0
0.0287192
0.289961
0.54322
0.0201531
0
0
0
0.00205428
0.00373589
0.0165642
0.175234
0.409866
0.0356461
0.0112043
0.0043203
0.00281043
0.0318128
0.0585563
0.0625919
0.307208
0.228075
0.0117841
0.0221556
0.0198022
0.010803
0.0442513
0.0748515
0.0609787
0.221486
0.370991
0.0568412
0.0203798
0.0103901
0.0176802
0.0524035
0.0781671
0.0375653
0.140561
0.311813
0.059793
0.0546741
0.028115
0.0336572
0.0658429
0.0863863
0.074728
0.215134
0.465556
0.0799084
0.0588337
0.0145172
0.0380715
0.00155173
0.00243886
0.00598971
0.110237
0.351393
0.0130752
0.00277361
0.000910342
0.000782865
0.0163737
0.00984321
0.0130891
0.22026
0.450943
0.0110692
0.0280308
0.0473407
0.00188183
0.00208608
0.00239117
0.0152109
0.116697
0.423851
0.0331707
0.0167376
0.0102952
0.0161782
0.135347
0.0383163
0.0346639
0.185509
0.479417
0.0320563
0.0842457
0.0754009
0.204474
0.256632
0.0832003
0.000864763
0.0210569
0.0122609
0.00926357
0.0212974
0.0997961
0.331579
0.207391
0.185754
0.00387294
0.142047
0.0550827
3.49445e-005
0.0421167
0.0676163
0.26473
0.267472
0.119154
0.00319156
0.0126341
0.00735654
0.025037
0.0762023
0.241428
0.377922
0.27364
0.367566
0.0223409
0.0906352
0.0525595
0
0.0374883
0.138513
0.214057
0.0961891
0.220875
0.00953683
0.243313
0.117159
0.0153066
0.0539627
0.0509906
0.0919518
0.158066
0.327073
0.139241
0.135067
0.0569809
0.0253376
0.0112318
0.0098852
0.0192565
0.164513
0.379853
0.0253262
0.195716
0.210096
0.00954008
0.0707959
0.136213
0.0439089
0.170778
0.371768
0.136087
0.174136
0.194691
0.0178868
0.131919
0.239647
0.0639268
0.120017
0.262219
0.178308
0.0640711
0.0119331
0.00281561
0.000316971
0.00308728
0.0104077
0.264639
0.383494
0.163485
0.0412962
0.0177328
0
0
0.007081
0.120313
0.12327
0.227299
0.137647
0.171619
0.0722479
0.00902135
0.114398
0.0844068
0.0503925
0.366698
0.215446
0.093797
0.174566
0.0445945
0.00958407
0.099504
0.106237
0.417801
0.148248
0.185695
0.0516105
0.00378224
0.00395109
0
0
0.00224262
0.165718
0.126424
0.116278
0.0171287
0.00401533
0
0.000672354
0.00893278
0.0140402
0.251398
0.327588
0.0488085
0.00669915
0.0141133
0.00237065
0.000986085
0.00887477
0.0295379
0.505098
0.342979
0.0895209
0.00182963
0.000573619
0
0.00355111
0.0521311
0.0509905
0.521195
0.101379
0.0535012
0.00570693
0.00723969
0.0024857
0.00919613
0.0299613
0.0316677
0.231401
0.212903
0.0273203
0.00863267
0.0301069
0.0281336
0.0200175
0.0224951
0.022443
0.166809
0.214544
0.181894
0.0279412
0.0325654
0.000355099
0.0180903
0.183445
0.122326
0.471067
0.362845
0.147818
0.0651294
0.0673356
0.0245252
0.0268123
0.146869
0.183633
0.457397
0.0724131
0.0165125
0.00748782
0.090938
0.217011
0.00636583
0.00446301
0.00937272
0.054504
0.00807533
0.00906341
0.0147108
0.225727
0.521975
0.0538348
0.0063731
0.00133896
0.00538284
0.111065
0.078351
0.0249185
0.0739105
0.266535
0.0362413
0.0285806
0.0747995
0.148635
0.0107008
0.0224767
0.00647407
0.150155
0.61494
0.146703
0.0132271
0.0079785
0.0107738
0
0
0.0315322
0.195488
0.364354
0.140998
0.0117032
0
0
0.00164396
0.000573802
0.0167085
0.0758898
0.251145
0.125182
0.0103536
0.00586377
0.00842609
0
0
0.0045046
0.0700294
0.592285
0.262125
0.0195053
0
0
0.000993922
0
0.00238694
0.0330895
0.425495
0.201934
0.00967669
0.00466939
0.00825303
0.0311248
0.0140043
0.0210029
0.0322337
0.208899
0.0900061
0.0304425
0.0458295
0.0690992
0.0426013
0.0199115
0.0977439
0.167075
0.316239
0.0333397
0.0392988
0.0450899
0.0655506
0.0245455
0
0.00243716
0.0381694
0.356292
0.149533
0.0262215
0.0595498
0.093536
0.0352596
0.00184499
0.0407453
0.102475
0.545397
0.259408
0.0489287
0.0952729
0.0898833
0.00247653
0.00344839
0.0551759
0.0917951
0.243555
0.0214673
0.00824931
0.0135239
0.0277101
0.14938
0.0717728
0.105268
0.122375
0.207754
0.0252716
0.0337331
0.110274
0.377462
0.00526
0.0154687
0.0474438
0.099003
0.407198
0.0772743
0.00381998
0.0143764
0.0195491
0.191206
0.138637
0.0882778
0.172156
0.411152
0.0253421
0
0.115795
0.368204
0.333353
0.0443468
0.00692702
0
0
0.0227563
0.0692302
0.195413
0.373104
0.18571
0.143905
0.0238079
0.0148603
0.0172469
0.0239361
0.128303
0.389334
0.276974
0.193589
0.0394355
0.0323941
0.00770535
0.00619202
0.0123459
0.0262424
0.0805063
0.314191
0.184093
0.0879131
0.0650955
0.0266653
0.0260375
0.0398936
0.136409
0.268865
0.206358
0.0545384
0.0702588
0.00912883
0.0437217
0.0608896
0.0109284
0.147312
0.303992
0.0768808
0.0268811
0.0517741
0.0229336
0.0608948
0.076085
0.0301489
0.34626
0.45077
0.0779127
0.140307
0.0251056
0.0199992
0.0138856
0.0234349
0.0382963
0.129732
0.288145
0.129523
0.0792238
0.0441575
0.0141755
0.00444482
0.0340135
0.16489
0.344813
0.392388
0.0883043
0.0343999
0.0332289
0.0130965
0.0642426
0.0373195
0.0192202
0.222111
0.219321
0.0623993
0.168558
0.0430063
0.0106526
0.0624965
0.0198501
0.00991652
0.147822
0.279958
0.32206
0.0197596
0.0309199
0.00612848
0.00240176
0.0109365
0.0733693
0.194472
0.342086
0.0426202
0.0620771
0.0130683
0.00230617
0.00144106
0.0100702
0.00845843
0.292438
0.564914
0.153303
0.267125
0.0153678
0.0014659
0.00586361
0
0.001187
0.0358541
0.0970991
0.393022
0.37246
0.103506
0.00151192
0
0.0011503
0.00186441
0.0270035
0.0347444
0.374442
0.0824796
0.000353993
0
0
0.00791108
0.000169571
0.2059
0.431687
0.168159
0.14357
0.0147865
0.000215988
0
0.00918227
0.00211765
0.0918037
0.298846
0.180168
0.302385
0.266387
0.0217276
0.0194258
0.00310318
0.0112576
0.127341
0.100594
0.344531
0.258853
0.209249
0.0617464
0.0472178
0.0619207
0.0410265
0.124991
0.189376
0.471848
0.172502
0.0524673
0.00686202
0.0120343
0.0217222
0.0127867
0.0649809
0.174677
0.171002
0.152508
0.078764
0.0150844
0.0955488
0.138295
0.0337364
0.0148403
0.046076
0.188895
0.0408966
0.0555022
0.0175033
0.0449948
0.231051
0.0421934
0.012652
0.0371976
0.100014
0.00215056
0.00886747
0.00231403
0.10936
0.552901
0.0646361
0.0024348
0.00276433
0.00708069
0.0194754
0.0140656
0.00288975
0.0970598
0.365891
0.024075
0.000622715
0.0028677
0.0397179
0.000640458
0.000991728
0.000330576
0.171824
0.606579
0.0308676
0
0
0.00362927
0
0
0
0.0548893
0.431988
0.0577787
0.00202931
0
0
0.000119227
0
9.80548e-005
0.0247417
0.346916
0.0556695
0.00197732
0.00201368
0.00230604
0
0
0
0.0785659
0.603109
0.0382012
0
0
0
0.00270713
0.000418834
0.00446656
0.0405268
0.496289
0.0341221
0.00304487
0.00273047
0.000323614
0.00403841
0.00947013
0.00858758
0.0266204
0.27538
0.0804713
0.0125453
0.0310162
0.0340063
0.0132085
0.0234765
0.0158214
0.0384822
0.390494
0.154016
0.0189093
0.0461666
0.0324355
0.042328
0.031256
0.0434988
0.0765108
0.35779
0.0526848
0.0298335
0.0314396
0.00681717
0.0614067
0.0602368
0.046047
0.0602589
0.625411
0.0631215
0.0186864
0.0319494
0.0197476
0.00210243
0.00556195
0.00310516
0.0335989
0.340059
0.0518776
0.00128083
0.0033601
0.00222877
0.0566026
0.0332817
0.00395269
0.0681591
0.40916
0.04514
0
0.0242358
0.0660193
0.00329633
0.0031008
0.00160575
0.0355244
0.515593
0.0314139
0.000533686
0.00134231
0.00160477
0.0104159
0.0189854
0
0.0468266
0.595665
0.0812232
0.0142019
0.0264111
0.0272504
0.170701
0.1559
0.0260003
0.0947633
0.0530202
0.00955429
0.0333939
0.052092
0.280168
0.328446
0.191381
0.101057
0.0711162
0.0694378
0.0146097
0.160705
0.147399
0.178648
0.254138
0.169821
0.00322992
0.121127
0.0887439
0.0720978
0.135684
0.149783
0.126592
0.183095
0.212857
0.0487918
0.0458838
0.038737
0.0150087
0.192424
0.326608
0.269881
0.339644
0.0654829
0.0922839
0.0324307
0.0330578
0.0283008
0.0879253
0.200736
0.198736
0.226679
0.118597
0.0672133
0.0105771
0.0326854
0.144694
0.183881
0.250091
0.240271
0.0952994
0.183884
0.0984089
0.026179
0.00665182
0.00729919
0.0742592
0.240005
0.304215
0.0764394
0.152925
0.116023
0.0222614
0.0562691
0.0752731
0.173371
0.154464
0.300348
0.0499194
0.0552738
0.0202064
0.00874129
0.0122423
0.0540837
0.102998
0.262387
0.0626721
0.0397348
0.0212165
0.0044842
0.0066565
0.0466941
0.0134616
0.347122
0.708442
0.0828053
0.0492862
0.047597
0.0317913
0.0347213
0.0588364
0.0463359
0.0768245
0.073981
0.0595065
0.053617
0.0205534
0.00537175
0.0426394
0.072338
0.0959945
0.183392
0.305211
0.0988264
0.00379123
0
0
0.000453271
0.0245942
0.00347932
0.188714
0.414787
0.0636445
0.0169931
0
0
0
0.0129272
0.00441369
0.201181
0.541173
0.0876396
0.00320066
0
0
0.0031729
0.0240613
0.0450191
0.155333
0.219817
0.0749359
0.0234357
0
0
0
0.0463595
0.041633
0.237329
0.483319
0.105596
0.0243729
0.00281567
0.00101506
0.00219789
0.00631988
0.00329229
0.0872026
0.312881
0.0618681
0.024653
0.0171916
0.00387391
0.0353903
0.0471039
0.00489374
0.0588172
0.144136
0.0504532
0.0284657
0.000744876
0
0
0.0164684
0.0113621
0.240455
0.522016
0.0949646
0.0409445
0.0186801
0.015275
0.0266567
0.0180698
0.00625402
0.33669
0.558922
0.169824
0.00553683
0.0102973
0.00572521
0.0822008
0.280788
0.00603228
0.0128965
0.0159425
0.0105881
0.000390684
0.00117205
0.00330746
0.096284
0.586638
0.0516274
0
0.000306768
0.000920304
0.0638602
0.0168121
0.0730514
0.112372
0.198256
0.0057999
0.0637589
0.157646
0.143428
0.045138
0.00506416
0.0805928
0.190389
0.582482
0.0525809
0
0.00965085
0.0407881
0
0
0
0.0291924
0.448989
0.0836922
0
0
0
0.00298872
0.00184426
0.00450246
0.0398747
0.385216
0.0423479
0.00123426
0.000426036
0
0.00269376
0.000475369
0.0087778
0.121292
0.540075
0.0820299
0
0
0
0.000892055
0.00227252
0.000954121
0.0961035
0.500313
0.0603378
0.00353722
0.00180647
8.32506e-005
0.0408412
0.0283166
0.0291869
0.0936303
0.269193
0.0141965
0.0118488
0.00905969
0.0131493
0.0448449
0.0300303
0.0200508
0.0671566
0.481792
0.0239295
0.00703281
0.0248985
0.0352724
0.0153571
0.0239664
0.0102799
0.0944117
0.364733
0.0398837
0.0242366
0.0354756
0.0407488
0.0394093
0.0199854
0.00960835
0.100708
0.572554
0.036158
0.0117367
0.0526857
0.104106
0.00185049
0.00347544
0.000685776
0.0261653
0.41564
0.0221615
0.00111355
0.00221749
0.00265781
0.0116365
0.0269216
0.00538966
0.0291804
0.438683
0.0590883
0.0200136
0.0272099
0.050592
0.00351151
0.00478501
0.000489928
0.0495486
0.502645
0.0252541
0.000668129
0.00285443
0.00760835
0.0381624
0.0326822
0.00898276
0.0444045
0.539411
0.0572252
0.00642245
0.0298803
0.0557312
0.101059
0.0410474
0.000411952
0.0133575
0.0316988
0.0640884
0.135087
0.298779
0.132629
0.0979667
0.140876
0.037365
0.0350679
0.00693081
0.0212115
0.127644
0.333673
0.26118
0.068953
0.0501911
0.0397385
0.0572119
0.0186286
0.0549683
0.137194
0.426746
0.134195
0.0960926
0.102303
0.0642608
0.0566508
0.00649419
0.113217
0.157204
0.363781
0.276023
0.0872948
0.253905
0.140811
0.0568257
0.0358787
0.030304
0.0394516
0.163706
0.276361
0.0333228
0.148227
0.164415
0.0397339
0.122018
0.154564
0.1064
0.0928286
0.234585
0.110388
0.186507
0.131388
0.0842526
0.0992374
0.0912863
0.0801937
0.209657
0.194314
0.200888
0.0950322
0.14777
0.0674552
0.177118
0.25251
0.0486829
0.133515
0.290291
0.0384708
0.0216219
0.0360418
0.0403874
0.0944207
0.107
0.0929691
0.125719
0.126052
0.0307266
0.00708491
0.00617542
0.0515511
0.0947726
0.170472
0.172062
0.29721
0.165258
0.31058
0.0187728
0.027866
0.0656502
0.135583
0.132548
0.0319781
0.156985
0.277517
0.236331
0.0164109
0.0284224
0.138607
0.271138
0.119705
0.105629
0.343813
0.204467
0.00116402
0
0.0028016
0.00784105
0.0201727
0.115856
0.198593
0.246647
0.0835225
0.0245174
0
0.000400229
0.000400229
0.0473406
0.134722
0.355264
0.453857
0.120177
0.0644169
0.00221854
0.0196112
0.0368561
0.0678927
0.119309
0.181306
0.249456
0.0807358
0.0443002
0.000127266
0.0028016
0.0028016
0.0524753
0.300499
0.319995
0.228156
0.0969072
0.0212288
0.00193033
0
0
0.0130363
0.0325838
0.242884
0.307882
0.0780619
0.0742902
0.0166287
0.00879435
0.00895539
0.00485373
0.0244574
0.339756
0.593204
0.219029
0.0327674
0.0011582
0
0
0.0271094
0.0846035
0.122289
0.121994
0.058408
0.0528342
0.00810737
0
0
0.017155
0.0406806
0.276781
0.319832
0.0878472
0.179787
0.0206838
0.0962674
0.0792242
0.0717804
0.0147237
0.086645
0.311138
0.322608
0.171244
0.0230091
0.137655
0.272433
0.449622
0.0456372
0.0102617
0.0329576
0.122701
0.0938828
0.0153853
0.0184988
0.0114138
0.0148552
0.0421594
0.196101
0.248027
0.16709
0.186862
0.0618219
0.0801228
0.168201
0.200356
0.0580386
0.0863019
0.114567
0.157118
0.0130271
0.0034394
0.0152621
0.167348
0.443218
0.101251
0.0348266
0.0114361
0.000690591
0.00174365
0.000393945
0
0.0878563
0.349567
0.168276
0.0838254
0.0632659
0.0203958
0.0676436
0.0251159
0.022297
0.110531
0.204452
0.117946
0.149398
0.152167
0.0584406
0.0799364
0.00194103
0.000224019
0.0206541
0.0914463
0.171569
0.246821
0.476658
0.24127
0.0145377
0.00131633
0.00315545
0.0163661
0.0682539
0.0455442
0.0316587
0.0545816
0.0723386
0.0470087
0.0140528
0.0401932
0.0667723
0.149106
0.0118422
0.00320676
0.0157895
0.0970677
0.210894
0
0.00189327
0.00270179
0.00899526
0.0388679
0.0608111
0.221142
0.488717
0.387966
0.180915
0.120006
0.0732713
0.0555063
0.00203631
0.000719556
0.0175413
0.558236
0.0176804
0.0169687
0.0657727
0.171573
0.398323
0.020486
0
0.000882858
0.018582
0.0275151
0.0328064
0.0507684
0.14381
0.435927
0.0603658
0.00779276
0.0614837
0.0348108
0.153626
0.21109
0.319417
0.256166
0.128836
0.00434189
0
0
0.116469
0.0991759
0.136615
0.298179
0.264626
0.117455
0.0256635
0.0144513
0.0876027
0.141705