0.13795
0.0116428
0.00184382
0.000732439
0
0
0.000475148
0.00369614
0.130026
0.100216
0.0216445
0.00198789
0.000104634
0
0
0.000285089
0.0149221
0.199842
0.264603
0.000519334
0
0
0
0
0
0.00446918
0.485872
0.314739
0.00244308
6.80223e-005
0
0
0
0
0.00991548
0.652288
0.0787349
0.0242791
0.00104719
0
0
0
0.000636981
0.0133385
0.124017
0.124088
0.0152547
0.000608793
0
0
6.68697e-005
0.00472634
0.028127
0.140205
0.245245
0.00466665
6.76663e-005
0
0
0
9.09972e-005
0.0132459
0.501984
0.30624
0.00302195
9.66661e-006
0
0
0
0.000636981
0.0314235
0.672517
0.115804
0.0118542
0.0014507
0
0
0.000187727
0.00244498
0.0117563
0.102301
0.166885
0.0089021
0.000870423
0
0
0.000112636
0.000646926
0.00753976
0.134876
0.261726
0.00112614
0
0
0
0
0.00024201
0.0134149
0.503782
0.446241
0.00193623
0
0
0
0
0
0.025763
0.568515
0.115944
0.00353889
0.000584762
0
0
0.000314823
0.0012801
0.0119702
0.11326
0.122958
0.00725654
0.00423488
0.000262868
0.00107021
0.000524706
0.00250275
0.0135954
0.166698
0.347938
0.00128897
0
0
0
0
0
0.0139187
0.433369
0.341501
0.000750431
0
0
0
0
0
0.00587211
0.649562
0.117008
0.0126674
0.0021048
0.000795502
0.00327978
0.000448743
0.000644512
0.00172869
0.108519
0.12683
0.0119556
0.0107393
0.0102416
0.00316109
0.00258781
0
0.000822075
0.140462
0.297404
0.00241718
0
0
0
0
0
0.0038731
0.501487
0.325925
0.00775037
0.00628937
0.011482
0.00155056
0
0
0.00349982
0.634009
0.105808
0.0397605
0.0396692
0.0526373
0.0109637
0.00303849
0
0.013262
0.121813
0.116733
0.0646107
0.0335729
0.145204
0.0829463
0.041167
0.0139949
0.066773
0.167405
0.275376
0.0315274
0.027954
0.0532867
0.0126345
0
0
0.0203676
0.542518
0.377206
0.0997266
0.0518747
0.111943
0.0864452
0.021427
0.00839697
0.100724
0.462909
0.0895604
0.0147064
0.00593531
0.0564192
0.118051
0.100776
0.0475119
0.0687881
0.152278
0.132644
0.0680801
0.0404507
0.0130487
0.069525
0.0570923
0.0296173
0.0256175
0.131337
0.248652
0.0363429
0.0172535
0.0434553
0.133414
0.0711497
0.0314765
0.15732
0.416226
0.481975
0.147989
0.0292929
0.0320469
0.0880766
0.0426898
0.0227193
0.0895616
0.437113
0.0287581
0.0445066
0.101899
0.109502
0.0796153
0
0.000119673
0.00385703
0.0178496
0.0657654
0.0791864
0.33119
0.320138
0.172341
0
0
0.0440946
0.0668105
0.230211
0.217499
0.0709939
0.121319
0.154153
0
0.000413231
0.0140554
0.0525585
0.221597
0.45395
0.216268
0.218176
0.332489
0.0115944
0.0441729
0.135835
0.0679446
0.152869
0.107329
0.182429
0.165647
0.0825979
0.00798202
0.000851325
0.0670865
0.194943
0.170166
0.060261
0.0878336
0.112096
0.178819
0.0587883
0.00848232
0.0455185
0.182689
0.212638
0.285021
0.112026
0.116814
0.141588
0.0784976
0.143685
0.204952
0.228898
0.134326
0.0830346
0.0673308
0.0962817
0.222419
0.373277
0.135263
0.180929
0.270483
0.158374
8.67355e-005
0.000202383
0
0
0.000213346
0.000853386
0.00467437
0.43839
0.193238
0.000897631
2.89118e-005
0
0
0.000128008
0.000512032
0.0137167
0.618977
0.101851
0.00406764
0.00769647
0.00416516
0.00361789
0.00329891
0.00775818
0.015676
0.268985
0.119681
0.0119676
0.00232707
0.00358547
0.000724248
0.000896054
0.014698
0.035756
0.430061
0.156606
0.000798533
0
0
0
0
0
0.0156806
0.445726
0.225913
0.000181045
0
0
0
0
0
0.0245913
0.590764
0.12369
0.0109997
9.85442e-005
0.00266382
0.00552448
5.92251e-005
0.00481335
0.0162887
0.307442
0.206756
0.00647765
0.000820813
0.00159829
0.00731319
0.000414576
0.00807663
0.0195274
0.387318
0.173088
0.000177422
0
0
0
0
0
0.0154681
0.429458
0.247153
0.000106453
0
0
0
0
0
0.0581763
0.553241
0.152147
0.00362161
0.00102754
0
0.000824074
0.000148644
0.00416929
0.0297334
0.277995
0.147551
0.00266222
0.00130687
0.000130098
0
0
0.00167738
0.0701337
0.464495
0.201069
0
0
0
0
0
0
0.0223533
0.387981
0.215619
0
0
0
0
0
0
0.0103787
0.549318
0.147308
0.00166191
0.00405596
0.000317652
0
0
0.000165313
0.0280909
0.330176
0.189544
0.0387313
0.0056002
0.000190591
0
0
0
0.0223746
0.474184
0.13764
8.11536e-005
0
0
0
0
0
0.0161919
0.389368
0.156617
0.000568075
0.000570352
0.00180319
0.000131288
0
0
0.0301914
0.470433
0.116985
0.123032
0.00141814
0
0
0
0
0.0217343
0.387429
0.240462
0.328264
0.0235642
0.00741458
0
0
0
0.0634664
0.411076
0.0893954
0.0093417
0.00385899
0.0053744
0.000782963
0
0
0.0365006
0.310165
0.149031
0.0746342
0.0246465
0.00927048
0.012198
0.00107632
0
0.0334524
0.283252
0.163147
0.368781
0.0430376
0.0193872
0
0
0
0.0740811
0.218276
0.207741
0.643866
0.110648
0.0127273
0.00437986
0
0
0.0367361
0.177614
0.0835501
0.0932145
0.0153201
0.00501866
0.0191155
0.00220501
0.00275983
0.0313074
0.109562
0.202515
0.266007
0.0203088
0.00493702
0.0117763
0.001323
0.00459972
0.0332948
0.0969444
0.210346
0.478673
0.0741974
0.00224321
0.00897282
0
0.0016559
0.0129217
0.0451358
0.446073
0.5542
0.0612808
0.00134592
0.00538369
0
0.00275983
0.0162274
0.0428147
0.204027
0.29423
0.0424908
0.0143404
0.0184496
0.000639407
0.000620888
0.00583844
0.0323511
0.165778
0.35148
0.0770937
0.0263502
0.0746901
0.0246924
0.0256145
0.0256383
0.0308537
0.361085
0.509437
0.0516619
0.00220125
0.0533987
0.00447585
0.0251018
0.0480368
0.0826163
0.198747
0.220914
0.0385944
0.0568369
0.360029
0.0464429
0.0467004
0.077415
0.111118
0.0647746
0.1317
0.0340963
0.0967256
0.151156
0.0672957
0.072033
0.04256
0.0333222
0.0123145
0.0203783
0.030974
0.170881
0.258109
0.151411
0.0680103
0.0440926
0.0292432
0.031554
0.0303752
0.0145663
0.292233
0.451171
0.0480259
0.0179033
0.0133614
0.0207641
0.00216503
0.0132991
0.147402
0.544035
0.369286
0.0353064
0.0333336
0.012533
0.000900932
0.130463
0.0916159
0.0612702
0.0321305
0.0519532
0.0356984
0.0640588
0.0807878
0.241909
0.168609
0.0913568
0.0331294
0.028324
0.0053699
0.00548804
0.139043
0.243808
0.41941
0.0965479
0.0915952
0.0807837
0.0216327
0.0587887
0.11594
0.093182
0.0780665
0.114445
0.0867473
0.0933267
0.110862
0.0451063
0.0584236
0.0664896
0.118723
0.16949
0.208173
0.11253
0.0468082
0.00321546
0.00999813
0.0203643
0.000218315
0.0225544
0.0541379
0.150376
0.178252
0.0802708
0.0107363
0.0058916
0.0269578
0.00360708
0.0336327
0.0385186
0.197384
0.133704
0.107817
0.0251554
0.00746036
0.00753537
0.0159256
0.0107916
0.0510457
0.0770442
0.539454
0.577846
0.0276436
0.000841657
0.00385111
0.00595374
0.0108073
0.018717
0.0774681
0.0347525
0.0182722
0.00451908
0
0.000894847
0.00178384
0.00754043
0.0217129
0.0447554
0.0673386
0.057077
0.00473983
0.000384013
0
0.000973455
0.00362928
0.040422
0.0896069
0.184848
0.315491
0.0122222
0
0.000127835
0.0027271
0.00566856
0.00655358
0.0126707
0.389662
0.784218
0.0114578
0.000230408
0
0.00162243
0.00327328
0.0169478
0.0128135
0.0637873
0.0672751
0.00798203
0.000608838
0
0
0.000116564
0.010861
0.0409908
0.125035
0.275649
0.0141593
0.000365303
0
0
0
0.0061725
0.0561941
0.251154
0.549643
0.010825
0.000365303
0
0
1.66519e-005
0.00328597
0.00299682
0.364454
0.580891
0.0395607
0.000219182
0
0
0
0.00067282
0.0116227
0.0848861
0.276012
0.0177124
0
0
0
0
0.00156888
0.0383433
0.189328
0.412686
0.0533859
0.00149086
0
0
0
0.00768283
0.0408075
0.219039
0.483411
0.046442
0
0
0
0
3.256e-005
0.00934427
0.364946
0.483411
0.073675
0
0
0
0
0
0.0113416
0.162037
0.301051
0.0356751
0.00372291
0
0
0
0.00807451
0.0204005
0.200568
0.453086
0.0429232
0.00223375
0
0
0
0.00270857
0.0131407
0.264011
0.453086
0.0294256
0
0
0
8.68654e-005
2.89551e-005
0.0161783
0.325191
0.453086
0.0374186
0
0
0
0.000608058
0.000298751
0.0212855
0.209543
0.463806
0.0528971
0
0
0
0
0.000177717
0.00559202
0.297914
0.478812
0.0582436
0
0.00515358
0.000670233
0
0
0.0266097
0.249225
0.420792
0.0446572
0.000887855
0.000267714
0
0.000541815
0.000614906
0.0147624
0.191618
0.294061
0.0342027
0.00446518
0.0386923
0.00382259
0.00193112
0.00169692
0.0375094
0.161727
0.292058
0.0281082
0.0415138
0.132138
0.003085
0.019798
0.0367678
0.0474952
0.0535922
0.0692628
0.00976517
0.135657
0.498956
0.0107925
0.0332131
0.0612796
0.0428599
0.0601523
0.0863987
0.0100105
0.184316
0.260894
0.0100765
0.00351722
0.00579146
0.0253722
0.00968534
0.0126962
0.0025203
0.412204
0.498956
0.00604592
0.00471382
0.00875423
0.00865171
0.00202636
0
0.00295958
0.245686
0.321452
0.0050725
0.00517153
0.00825688
0.00391942
0
0.00320961
0.102676
0.406204
0.174996
0.0154624
0.00789899
0.0040159
0.00158254
0.00342009
0.000363437
0.00692266
0.392515
0.409056
0.00231258
0.00184808
0.00405858
0.00176255
0.0239406
0.00254406
0.0508236
0.446074
0.244733
0.0371047
0.00871665
0.020573
0.0123378
0.0130968
0.00643994
0.0153294
0.00596836
0.0145833
0.0277368
0.0142508
0.020828
0.00668386
0.0914472
0.156921
0.0437359
0.0175002
0.0228236
0.0199059
0.0112399
0.0163811
0.0206779
0.0145441
0.0157994
0.0418821
0.0636889
0.0849818
0.0389124
0.0247873
0.0116615
0.0137649
0.27287
0.589648
0.181999
0.418203
0.384643
0.0786031
0.204059
0.058688
0.0136975
0.0729084
0.145978
0.00976901
0.00202657
0.00114491
0.00277875
0.000353598
0.00235033
0.00491962
0.200812
0.412824
0.0055081
0
0
0.00043984
0.000159001
0.00107872
0.00398936
0.192517
0.476628
0.0325115
0.0773191
0.0562349
0.00662521
0.0567399
0.0358351
0.00309236
0.359814
0.543223
0.0410379
0.0149056
0.0489071
0.0146518
0.0130358
0.0244281
0.00506624
0.146028
0.336565
0.00183353
0
0
0.000153649
0.000285349
0.000195853
0.000997032
0.219374
0.463062
0.00869013
0
0
9.21895e-005
0.000171209
0.000326421
0.00129692
0.22112
0.409517
0.0697283
0.0136553
0.0415438
0.0233157
0.0161965
0.00193403
0.001126
0.306121
0.463062
0.141224
0.00926048
0.0480586
0.0143553
0.0284591
0.0276512
0.0235994
0.164019
0.34448
0.0192644
0
0
0
0
3.70644e-005
0.00471257
0.222802
0.408137
0.0344939
0
0
0
0
0
0.0335771
0.191557
0.405094
0.15088
0.00386594
0.0445318
0.00134937
0.00360661
0.0221485
0.0578326
0.250877
0.408137
0.104292
0.00231956
0.0163763
0.000170112
0
0.0540671
0.349444
0.188766
0.419743
0.0267322
0
0
0
0
0
0.0333258
0.238087
0.432704
0.0235103
0
0
0
0
3.96472e-005
0.0284669
0.186911
0.241838
0.0158279
0
0
0
0
0.0894412
0.400514
0.162965
0.128126
0.00547405
0
0
0
0
0.07717
0.432704
0.249612
0.45692
0.0116539
0
0.00121817
0
0.00040989
0.000324291
0.0354808
0.216626
0.302894
0.0136847
0
0.00203028
0.00216157
0.002983
0.00170391
0.0326629
0.141674
0.0550796
0.00148217
0
0.00203028
0
0.000245934
0.082766
0.554857
0.0860508
0.0174568
0.0104725
0.00258731
0.00338381
0.00360262
0.00191115
0.130366
0.408253
0.231546
0.201587
0.0240565
0.00500671
0.00368652
0.00526842
0.00412139
0.00554511
0.0297854
0.0980904
0.0438854
0.0105615
0.0278849
0.204393
0.0134443
0.0104809
0.0119322
0.0338628
0.192951
0.126275
0.0795128
0.0200716
0.00373382
0.0087807
0.00283512
0.138711
0.3269
0.331582
0.165327
0.0725458
0.063701
0.371539
0.0511416
0.100222
0.214193
0.459614
0.00347095
0.000823441
0.00161687
0.15804
0.227895
0.0069879
0.00111064
0.000987333
0.00297359
6.92898e-005
0.000107537
0.00634414
0.317643
0.472059
0.00381161
2.15989e-005
0
4.24054e-005
0.0166502
0.00511207
0.00224814
0.179676
0.397081
0.0132765
0.0253799
0.035437
0.0437468
0
0
0.00807826
0.367927
0.472059
0.00395343
0.00353559
0.00354741
0.000626015
0.00379306
0.00109566
0.0323016
0.324133
0.302522
0.000347105
0.000186902
0.00119911
0.000845309
0.0265514
0.00766962
0.0719348
0.392375
0.145574
0.00944419
0.00130832
0.00839375
0.00591716
0.000541866
0.000657396
0.0353888
0.396349
0.383726
0.0035226
0
0
2.85194e-005
0.00379306
0.00460177
0.0707803
0.480824
0.177935
0.00754976
0.00198266
0.00144317
0.00164281
0.0161161
0.00983263
0.0210007
0.0566099
0.0703471
0.0294037
0.0261007
0.00266173
0.00996051
0.107162
0.163851
0.0567586
0.315233
0.312306
0.107525
0.47665
0.278391
0.0116311
0.0153245
0.0068265
0.0104523
0.0313486
0.037932
0.0390126
0.0310721
0.0155164
0.0106975
0.0529206
0.0134317
0.0219002
0.0670532
0.0846602
0.10356
0.355412
0.419836
0.0654454
0.082837
0.144958
0.0101486
0.0672738
0.0523303
0.014164
0.204205
0.240597
0.0097587
0.122939
0.164997
0.0274976
0.0166434
0.0806246
0.0278301
0.11016
0.271941
0.0287839
0.0137003
0.00871005
0.00435038
0.0106452
0.00990743
0.0234925
0.231909
0.406387
0.041438
0.0128852
0.0100737
0.00653339
0.00447359
0.0372812
0.0185613
0.408407
0.529072
0.0680707
0.0664216
0.1041
0.068183
0.0158888
0.0829914
0.0556176
0.0922258
0.10368
0.0197153
0.133242
0.247064
0.111441
0.0124116
0.125457
0.0376768
0.202964
0.185062
0.030585
0.00492526
0.00870259
0.0100252
0.00396293
0.0420672
0.0314387
0.277444
0.461138
0.0568435
0.0527476
0.022039
0.0135513
0.00410474
0.0741705
0.0223301
0.445756
0.461138
0.0556398
0.0941363
0.15859
0.124165
0.011233
0.129393
0.00392078
0.0834663
0.128511
0.0592737
0.158646
0.116887
0.08584
0.0067398
0.0475835
0.000494284
0.0286207
0.132182
0.382268
0.0577566
0.0129347
0.0218009
0.0067398
0.0776358
0.00235247
0.312791
0.415736
0.0958892
0.199111
0.00994973
0.022622
0.00404388
0.0285501
0.00029657
0.207838
0.324921
0.415736
0.121752
0.018241
0.00387401
0
0
0
0.000720414
0.0834743
0.413189
0.151521
0.00111237
9.88695e-006
0
0
0
0
0.0886437
0.425247
0.230735
0.00112595
0.00188817
0
0
0
0.027649
0.0731904
0.425247
0.362213
0.0004425
0
0
0.000174171
0
0.000690436
0.0343017
0.425247
0.134579
0.00207949
3.09382e-005
0
0.000156365
0
0
0.114534
0.426809
0.121175
0.0149381
0.012514
0.02968
0.018453
0.00515096
1.46032e-005
0.197601
0.343191
0.332443
0.00321299
2.95386e-005
0
0.000545017
0
0.000490554
0.0656745
0.426809
0.40023
0.0208818
0.00748076
0.0451975
0.0306477
0.0341145
0.0027024
0.126856
0.305463
0.100963
0.108775
0.0739397
0.108775
0.0481992
0.0261359
0.00625048
0.150582
0.16267
0.127844
0.176766
0.0852923
0.126864
0.191553
0.0829301
0.102778
0.1756
0.204626
0.240798
0.0834901
0.0435507
0.163234
0.0801208
0.151036
0.0513312
0.207864
0.186674
0.237633
0.253644
0.162963
0.231289
0.255209
0.168703
0.131874
0.258641
0.274255
0.0181735
0.0218158
0.0152695
0.135316
0.323084
0.0319796
0.0635843
0.0527292
0.0501953
0
0.000567361
0.00274658
0.241526
0.457839
0.0107253
0.00893805
0.00342579
0.000604552
0.0578114
0.0668254
0.085415
0.206993
0.392217
0.0298059
0.0439455
0.0353426
0.067159
0.000728083
0.00397153
0.0119146
0.34957
0.457839
0.00961467
0.0053306
0.000489398
0.00421218
0
0
0.00428832
0.258048
0.357368
0.0205513
0
0
0
0
0.00421115
0.00953125
0.359485
0.212439
0.0219082
0.00216035
0.00427454
0.00427454
0
0
0
0.340482
0.472767
0.0304138
0.00323652
0.00080913
0
0
0.00701858
0.00467906
0.276084
0.401238
0.0597029
0.00570283
0.00391327
0.00256472
0.058532
0.0103953
0.031572
0.0671032
0.0387339
0.098714
0.122539
0.0530232
0.0839654
0.146612
0.0504691
0.141445
0.0592838
0.0757465
0.185974
0.167813
0.398754
0.254121
0.0608933
0.00806098
0.032446
0.0508616
0.0542703
0.140287
0.115837
0.0751734
0.131645
0.116284
0.0441145
0.130345
0.128059
0.141591
0.177658
0.153474
0.0768691
0.162357
0.0109816
0.014575
0.0150112
0.0054389
0.00583981
0.025041
0.0943935
0.189119
0.0502564
0.0120756
0.0175896
0.011766
0.00504408
0.00674686
0.00869089
0.470289
0.779565
0.100792
0.0104531
0.0172066
0.0285177
0.0169005
0.0166347
0.0133747
0.0138936
0.00926555
0.0146556
0.0217162
0.027068
0.025814
0.0147116
0.0154464
0.0057918
0.100093
0.108397
0.0541736
0.00191735
0.00112918
0.000695569
0.000280307
0.00675557
0.000750618
0.230319
0.415546
0.035721
0.00733271
0.000369713
0
0
0.00405334
0.000450371
0.343597
0.488863
0.0501375
0.00400149
0.00319488
0.00239822
0.00149985
0.0119477
0.0022132
0.0937698
0.165643
0.0261049
0.00172305
0.00156245
0.000585821
0.000554331
0.0130295
0.00313757
0.292747
0.488863
0.0553241
0.00782876
0.000260519
0
0
0
0
0.20953
0.355213
0.0556584
0.0488891
3.7217e-005
0
0
0
0
0.257568
0.396091
0.136392
0.00140678
0.000885422
0
5.51345e-005
0.004376
0.00144641
0.251125
0.413806
0.0337544
0.00213863
0.000126489
0
0
0.000619892
0.000206631
0.361712
0.413806
0.0636187
0.0985841
0.000153829
0
0
0
0
0.161674
0.280088
0.161615
0.162582
0.00157801
0
0
0.000621118
0.000175835
0.0558105
0.13161
0.203202
0.00436822
9.22977e-005
0
0
0
0
0.338378
0.490001
0.0722928
0.00925272
0.000946807
0
0
0.000372671
0.000293058
0.338765
0.490001
0.0906377
0.266907
0.00426843
0.00164345
0.000341203
0.0035269
0.000401837
0.014763
0.0440259
0.27966
0.343289
0.0184404
0.00386033
0.0145458
0.0118849
0.0301709
0.0113761
0.0274453
0.194627
0.0123952
0.00324845
0.00428415
0.00238842
0.00211614
0.00085389
0.292685
0.673603
0.0832592
0.0163626
0.0197651
0.0125663
0.00530396
0.00437166
0.00264293
0.0773034
0.251244
0.0438563
0.171196
0.0210193
0.00171246
0.0358758
0.0185059
0.0906276
0.0420423
0.109501
0.189662
0.269407
0.104915
0.080341
0.196599
0.263132
0.0807432
0.0534495
0.133067
0.398761
0.0199147
0.0148912
0.00732958
0.00646305
0.00640246
0.00340221
0.00875483
0.034401
0.0446589
0.0401649
0.00564675
0.0105298
0.255986
0.60874
0.0140562
0.00324051
0.00770729
0.0907023
0.0363402
0.0193797
0.0276864
0.167858
0.266733
0.00659211
0.00217473
0.005551
0.0505989
0.000645745
0.00129582
0.00549542
0.305827
0.420157
0.00125294
0
0
0.00365923
0.00483109
0.000421697
0.00110654
0.23218
0.420157
0.00418917
7.77678e-005
0.000153291
0.0104519
9.22493e-005
0
0.0153926
0.420157
0.420157
0.000576578
0
0
0.000522748
0.000353547
0.00200343
0.00665646
0.382427
0.281943
0.0100861
0.00926947
0.00498311
0.00495066
0.000589246
0.00673668
0.0118516
0.188772
0.340673
0.0409925
0.0154491
0.00830518
0.00825111
0.00247483
0.0219592
0.0595826
0.517314
0.257108
0.00109737
0.00556168
0.00583332
0.00825111
0.00412472
0.0405935
0.0577793
0.201975
0.4277
0.0298247
0.00926947
0.0138102
0.0345232
0.0149568
0.00163266
0.0043218
0.0359192
0.031282
0.0444989
0.0494863
0.0659141
0.0470007
0.0201724
0.0248615
0.0349386
0.063022
0.0368203
0.0726088
0.0871745
0.0410992
0.0466587
0.281294
0.00359032
0
0.0467081
0.0187407
0.0126087
0.0374354
0.0594204
0.555482
0.337443
0.0744142
0.0214116
0.043823
0.00675178
0.0509264
0.0389306
0.0249899
0.442035
0.0165373
0.102052
0.139008
0.0778793
0.041082
0.0821237
0.0341815
0.0103749
0.0194309
0.0395044
0.178876
0.147604
0.0537817
0.0455387
0.0638941
0.0513895
0.0672967
0.0406341
0.210698
0.188946
0.0757401
0.0373344
0.0281473
0.0870884
0.010152
0.0161137
0.421654
0.196177
0.21323
0.094935
0.0253298
0.0841086
0.0777577
0.020521
0.0469293
0.335406
0.0134558
0.0420531
0.0279367
0.0118454
0.0193357
0.0258071
0.0564941
0.118588
0.0603121
0.0352682
0.0418603
0.0181617
0.0125748
0.0540241
0.0373728
0.387293
0.732823
0.168095
0.091608
0.0805524
0.0350514
0.00920496
0.0132692
0.0329677
0.0200722
0.0154246
0.0510663
0.099338
0.0837934
0.0373252
0.0104843
0.0109416
0.0639129
0.0552996
0.0674819
0.0997898
0.00868723
0.00620206
0.00114872
0.000770481
0.00898393
0.00557158
0.209611
0.31058
0.0280533
0.007986
0.00169995
0.000156641
6.7132e-005
0.00129204
0.00389055
0.507347
0.609371
0.0553328
0.0192593
0.0138509
0.00765243
0.00170013
0.00193368
0.0104391
0.0416423
0.0488265
0.0287217
0.0446528
0.0102868
0.00667946
0.00133953
0.000519777
0.00939784
0.245052
0.30954
0.0540523
0.00218586
7.4952e-005
0
0
0
0.000556122
0.226958
0.39905
0.0347816
0.000904983
0
0
0
0
5.07394e-005
0.268694
0.440825
0.0696786
0.0210142
0.000524664
0.000364265
9.10662e-005
0
0.00158386
0.2009
0.308485
0.0250028
0.0086208
0.000960646
0.00224151
0
0
0.000123186
0.373292
0.440825
0.0520612
0
0.000344096
0.000608346
0.000349739
0
6.83715e-005
0.19183
0.389868
0.0429161
0.000840267
0.00294153
0.00275094
0.000776664
0.00123471
0.000596174
0.159543
0.324275
0.0386463
0.000137795
0.000999626
0.00227415
0
0
0
0.295965
0.446029
0.0597209
0.000114322
0.000442687
0.000624762
0
0.000176388
4.91005e-005
0.371593
0.446029
0.0774737
0.00317878
0.00322191
0.00300852
0.00173114
0.00393151
0.00233805
0.0599659
0.149328
0.025739
0.00302606
0.00190703
0.00360049
0.101371
0.330427
0.00700824
0.00618939
0.028514
0.00814062
0.00193026
0.000693134
0.000857243
0.000595074
0.00247704
0.0013152
0.340248
0.527781
0.0736568
0.00635839
0.0335443
0.00126643
0.199169
0.39394
0.00794832
0.162945
0.415521
0.0761651
0.000222619
0.000190098
0.000540887
0.163069
0.371376
0.00285466
0.000548147
0.000681666
0.000191359
0
0
0.017353
0.315615
0.429253
0.00464627
0.000865119
0
0
0.00267994
0.0221777
0.000139509
0.22951
0.429253
0.00406659
0.0123587
0.040957
0.0131109
0.00035075
0.00440823
0.0111712
0.286958
0.429253
0.0492351
0.014048
0
0
0.00113885
0.0163795
0.0814794
0.51512
0.24145
0.0223985
0.00542173
0.00202184
0.00194098
0.00322639
0.0279754
0.0724979
0.2258
0.233561
0.049866
0.00981796
0.0182916
0.0440929
0.00201855
0.0077471
0.0736585
0.360794
0.434986
0.196779
0.0520133
0.0157487
0.0152447
0.0237796
0.0061608
0.0739138
0.171571
0.10958
0.16815
0.0554612
0.14427
0.166702
0.0913888
0.000198684
0
0.00113319
0.000586832
0.000306127
0.00460758
0.0889237
0.213989
0.122147
0.00676913
0.000847767
0.000816937
4.29967e-005
0.000662775
0.00124322
0.0410178
0.201688
0.401765
0
0
0
0
0
0.00563845
0.14762
0.426273
0.379961
0.00514301
0
0
0
0
0.000805492
0.0832878
0.55575
0.105627
0.0206095
0.00248318
0.000659982
0.00139355
0.00197567
4.46217e-005
0.0282437
0.227498
0.0902881
0.0345837
0.006276
0.00169767
0.00463732
0.00228545
0.000239196
0.0356835
0.188659
0.387811
0.056653
0.00340501
0
0
0
0
0.0767111
0.583073
0.315397
0.205395
0.0288697
0.000212011
0
0
0
0.0733016
0.399632
0.139554
0.0509667
0.0154251
0.0184939
0.0212997
0.00297683
0.00157762
0.00950434
0.110787
0.153675
0.0624208
0.018521
0.0290599
0.0450803
0.0141775
0.0184207
0.116199
0.150289
0.269335
0.307339
0.0972475
0.0875919
0.031973
0
0.0128293
0.0461699
0.257101
0.188872
0.353378
0.12433
0.180729
0.131105
0.120904
0.188264
0.443884
0.230887
0.0776614
0.0401664
0.0277784
0.00872411
0.0343803
0.0229733
0.0184624
0.100149
0.0965377
0.155805
0.0357726
0.0369702
0.0050097
0.0224252
0.0691347
0.0564025
0.101005
0.202566
0.0831365
0.140354
0.0706968
0.116462
0.163524
0.187979
0.113292
0.293254
0.0849049
0.153526
0.14938
0.119007
0.089944
0.17747
0.621074
0.0525919
0.114388
0.254807
0.0753842
0.0024147
0.00274339
0.000225245
0.00663762
0.0276091
0.105311
0.191528
0.117375
0.0228406
0.00645886
0.0150707
0
0.00734721
0.0106401
0.406626
0.63121
0.0918907
0.063892
0.0548838
0.0163943
0.0127684
0.148691
0.303953
0.0444062
0.127723
0.189402
0.0165681
0.0282921
0.00943647
0.0187926
0.169529
0.130409
0.093616
0.190616
0.138082
0.000464706
0.0032237
0.00779495
0.000181982
0.000472758
0.000577815
0.242692
0.383595
0.0316957
0
0.000460529
0.00298537
0.00127387
0
0
0.369606
0.482814
0.0632936
0.00110948
0.00196419
0.00662067
0.00688273
0.0129678
0.0095918
0.0990519
0.15328
0.0302082
0.0019562
0.000326272
0.0140485
0.00960092
0.000690461
0.000745194
0.31975
0.482814
0.0350183
0.000127573
2.25128e-005
0.000568937
0.000507069
0.000383335
8.96679e-005
0.211216
0.424857
0.0521505
0.0202838
0.0605744
5.4411e-005
0.0804728
0.0973526
0.000627675
0.130867
0.380945
0.10779
0.000792208
0.000645913
0.00590388
0.00265504
0
0
0.276745
0.424857
0.0357692
0.0267031
0.0373895
0.00358309
0.0119307
0.0151243
0
0.273452
0.424857
0.141569
0.0278624
0.0839227
0.000494457
0.184997
0.308935
0.00408247
0.0228097
0.100834
0.0657436
0.00397465
0.0167405
0.0733873
0.270392
0.494608
0.0598764
0.0334632
0
0.00417677
0.0368793
0.0534562
0.0290898
0.0817802
0.156263
0.00546024
0.107302
0.225695
0.112342
0.00526847
0.0148887
0.26028
0.386315
0.373232
0.029253
0.0307097
0.0257944
0.0146313
0.0116348
0.0195014
0.207039
0.17119
0.318928
0.133087
0.0614332
0.0143272
0.0731724
0.057523
0.0117008
0.116345
0.0373282
0.0654899
0.0746622
0.0298372
0.123992
0.373911
0.0127571
0.0130466
0.37308
0.292118
0.314494
0.0633545
0.0319893
0.004218
0.105975
0.0477062
0.0242538
0.122444
0.0503154
0.130605
0.0671872
0.0271367
0.0346224
0.408661
0.241225
0
0
0
0
0
0.000544951
0.0177566
0.426665
0.238616
0.00118595
0
0
0
0
7.78501e-005
0.0175325
0.470365
0.150024
0.0148789
0.00462365
0.00639101
0.000315638
0.000587674
0.00176302
0.00574472
0.401973
0.168297
0.0179247
0.00151026
0.000807788
0
0.00411372
0.0123412
0.00294072
0.470365
0.155605
0.00961824
0.000589667
0
0
0
0
0.0191647
0.439241
0.208986
0.0397934
0.0063781
0
0
0
0
0.0139885
0.401407
0.132178
0.0172494
3.15602e-005
0
0
0.00853068
0.00755092
0.00626208
0.435707
0.253182
0.0131577
0.000321491
0
0
0.0112757
0.00375857
0.0224789
0.503359
0.158225
0.0574464
0.0226465
0.0112656
0.00161189
0.00178707
0.0241598
0.0289516
0.313154
0.0630639
0.0678357
0.0340951
0.0615291
0.0300489
0.0608589
0.187936
0.157798
0.202759
0.236319
0.00992786
0.00213025
0.000214557
0.0129645
0.0150869
0.0462508
0.0537754
0.498064
0.117123
0.0144182
0.00695087
0.0918592
0.139406
0.106706
0.361259
0.259758
0.367057
0.110527
0.0505784
0.0421854
0.156055
0.0733357
0.0821096
0.104315
0.0930894
0.0391276
0.200444
0.090915
0.0588406
0.152654
0.144693
0.198087
0.0595178
0.0216791
0.0989195
0.177107
0.0949167
0.0511767
0.320334
0.220524
0.0986949
0.225292
0.213981
0.0957423
0.269657
0.170913
0.0785268
0.356648
0.210143
0.103272
0.274197
0.112171
0.154165
0.0619718
0.0732785
0.0163994
0.084315
0.305018
0.295619
0.0562594
0.0399023
0.0805814
0.00656936
0.0283395
0.00553388
0.0582552
0.320285
0.203659
0.01951
0.0388016
0.0351399
0.0734253
0.0597706
0.0162409
0.152497
0.281618
0.245098
0.2071
0.0938062
0.10532
0.00950468
0.0159993
0.0115516
0.0643238
0.420965
0.377901
0.0318138
0.0160337
0.0266004
0.0170572
0.00141917
0.0228091
0.0793645
0.135191
0.0852406
0.0500825
0.118001
0.0436823
0.0347765
0.00216613
0.0637111
0.0535999
0.00488445
0.00438947
0.413543
0.651382
0.070949
0.0374642
0.0236181
0.0436772
0.112462
0.271415
0.204157
0.00210812
0.0357258
0.021139
0.0652692
0.0158159
0.107244
0.0762347
0.0173129
0.0297955
0.0380422
0.107684
0.0614786
0.0051428
0.00360525
0.0188641
0.00454007
0
0.00106534
0.23174
0.322693
0.0180006
0.0079434
0.00563614
0.0177624
0.000915458
0.000196772
0.00633252
0.482527
0.624165
0.0581613
0.0119834
0.00477309
0.0230877
0.00881062
0.00281035
0.0099421
0.0405187
0.0518028
0.0115012
0.0105831
0.00738522
0.0121909
0.000822923
0.00285424
0.0229083
0.193482
0.331308
0.0185384
0.00765274
0.0101938
0.0712412
0.0390546
0.0649768
0.0039145
0.231559
0.41113
0.0770666
0.00428046
0.0577772
0.283668
0.265372
0.247501
0.0273099
0.0577756
0.117906
0.0796813
0.00594385
0.00658171
0.040742
0.0144176
0.0446339
0.0357245
0.215242
0.342559
0.0798222
0.00618896
0.0793411
0.143033
0.157787
0.366757
0.193641
0.157516
0.166042
0.120823
0.00251474
0.0766533
0.262115
0.243789
0.298321
0.119461
0.0282744
0.0252201
0.0558008
0.0379268
0.0353365
0.061559
0.0571285
0.164273
0.138937
0.0569685
0.061985
0.1014
0.0380858
0.130166
0.129314
0.174663
0.373234
0.312554
0.062749
0.142027
0.0555757
0.112447
0.0379004
0.0468202
0.052642
0.141695
0.219911
0.115326
0.40844
0.0872859