0.10723
0.1108
0.09041
0.0273876
0.0114255
0.00420461
0.0222632
0.0430636
0.116909
0.0747391
0.12349
0.102564
0.0660474
0.0265714
0.0644473
0.111129
0.211955
0.0828035
0.275246
0.106598
0.0945003
0.0376687
0.000470742
0
0.0093481
0.099524
0.257918
0.152757
0.140437
0.179457
0.171755
0.00570178
0.0293735
0.0692869
0.32719
0.164149
0.00725506
0.0272942
0.0338293
0.0619975
0.0344171
0.177348
0.0949781
0.0825009
0.012021
0.159966
0.180881
0.210399
0.117099
0.14551
0.414598
0.151009
0.0361441
0.0708466
0.00638944
0.029033
0.0413501
0.0387011
0.0385411
0.170607
0.0733057
0.117782
0.0311667
0.311958
0.128929
0.045379
0.0228842
0.12477
0.401396
0.183707
0.098289
0.119914
0.173751
0.296399
0.224022
0.0946453
0.0637277
0.113041
0.0513172
0.00906332
0.105075
0.174223
0.367153
0.225742
0.171649
0.0542567
0.0344033
0.0714492
0.0503647
0.106025
0.278244
0.259064
0.0877784
0.0441486
0.051748
0.102319
0.065867
0.0352289
0.0822391
0.151788
0.268119
0.121261
0.0906132
0.0708291
0.0616284
0.0898262
0.0805004
0.209924
0.131858
0.20306
0.0975163
0.14294
0.0702127
0.0210492
0.0218011
0.0232469
0.0424628
0.143215
0.144003
0.333689
0.361285
0.0879323
0.0235014
0.00971331
0.0345866
0.0782533
0.0935381
0.135399
0.0495734
0.110725
0.0959741
0.107892
0.0587959
0.0515495
0.151316
0.306217
0.108379
0.135199
0.323857
0.101999
0.0901504
0.0642072
0.19154
0.250437
0.142305
0.165147
0.270153
0.178576
0.0893666
0.00374777
0.0113056
0.0224252
0.0505396
0.158169
0.266315
0.235345
0.13174
0.125542
0.0248877
0.0269401
0.0220107
0.0388903
0.286963
0.0536293
0.132752
0.127254
0.0482632
0.0102903
0.072204
0.15026
0.207992
0.362813
0.230561
0.214632
0.0758141
0.0551212
0.00968025
0.102847
0.0747041
0.272103
0.0854178
0.233252
0.215809
0.0665162
0.0302
0.0564001
0.0339901
0.016494
0.0188106
0.126859
0.12898
0.234975
0.118642
0.0136573
0.0446627
0.0485033
0.0305392
0.0504344
0.317383
0.291202
0.213993
0.0528113
0.0291929
0.030072
0.0366455
0.00776941
0.190731
0.349225
0.402079
0.136997
0.101973
0.0640814
0.0182419
0.0410154
0.0271837
0.147202
0.0395891
0.0640819
0.0738672
0.0291711
0.00435708
0.00496349
0.0116964
0.00893004
0.0201458
0.0351871
0.108964
0.0693635
0.0487548
0.0129933
0.0100205
0.013833
0.0195452
0.00903795
0.134024
0.361008
0.0292391
0.0167816
0.00731686
0.000151328
0.00710424
0.00845378
0.0557964
0.306773
0.795788
0.0786671
0.00310367
0.00321648
0.00248878
0.00290072
0.0157655
0.039483
0.0173519
0.102856
0.0631105
0.0233276
0.0104996
0.00614734
0.00227148
0.00809088
0.0038212
0.126188
0.235744
0.102609
0.0240189
0.0116905
0.00614454
0.00169475
0.00896921
0.0684985
0.100134
0.595062
0.125916
0.0027889
0.005487
0.00312927
0.000324497
0.00369952
0.00334952
0.193101
0.595062
0.219376
0.012113
0.0112497
0.00317699
0
0.0233905
0.133373
0.276531
0.132009
0.035359
0.00874817
0.0101395
0.0133265
0.0194828
0.0576761
0.193112
0.288981
0.0364182
0.00523054
0.000701597
0.00945665
0.0761219
0.0658274
0.107113
0.152228
0.260023
0.269633
0.0765409
0.0341374
0.0531757
0.0818713
0.124338
0.167431
0.378561
0.208215
0.062079
0.0370295
0.071369
0.17894
0.27515
0.264211
0.192483
0.224614
0.143446
0.0813999
0.13619
0.0630118
0.00864602
0.000850036
0.0290085
0.0466896
0.102008
0.0911904
0.0691288
0.268583
0.326067
0.0227245
0.0375247
0.0153132
0.0687193
0.0599932
0.0624791
0.0801208
0.16341
0.0950384
0.0548816
0.0283665
0.119981
0.0921582
0.0357836
0.0637168
0.0642714
0.246992
0.319314
0.137182
0.0832301
0.0654982
0.0477662
0.0383127
0.0388088
0.0574316
0.167088
0.139323
0.0733595
0.132537
0.0307964
0.04778
0.0238447
0.245216
0.143318
0.0988842
0.0673462
0.14911
0.225987
0.102754
0.092129
0.131317
0.0759307
0.0541182
0.210099
0.119496
0.134789
0.113439
0.025474
0.0486624
0.0501002
0.131851
0.178362
0.227381
0.0412775
0.156892
0.179292
0.0940848
0.14367
0.113095
0.291003
0.108971
0.013896
0.0312266
0.0708647
0.11371
0.0891374
0.0892184
0.106406
0.205884
0.0980559
0.0314837
0.0295574
0.129551
0.201968
0.10996
0.158966
0.266135
0.137098
0.0929155
0.0304294
0.0123118
0.0734273
0.154498
0.0940501
0.0960294
0.0673604
0.257483
0.174989
0.064115
0.0195208
0.0589141
0.189909
0.0963534
0.0869835
0.085653
0.0835645
0.0643885
0.0329415
0.0225828
0.0684317
0.108674
0.0460967
0.0319397
0.114449
0.294031
0.14085
0.0253728
0.041101
0.0474309
0.0931125
0.0444842
0.15389
0.242044
0.137048
0.117497
0.0915959
0.0170401
0.0164718
0.0376391
0.0165442
0.00822653
0.0541654
0.38305
0.558976
0.103601
0.0142693
0.0101515
0.0249409
0.00291215
0.0247734
0.15961
0.0704603
0.0211023
0.00286352
0.00476038
0.00251445
0.00989247
0.0128225
0.0653863
0.0751346
0.137491
0.0935801
0.0152271
0.00384305
0.000940062
0.00864799
0.0207435
0.0426024
0.115334
0.146359
0.337411
0.0285038
0.000468123
0.00108793
0.00616493
0
0.0212109
0.037026
0.309962
0.781209
0.134764
0
0.00133413
0.00955263
0.00199258
0.0187071
0.0364984
0.0760186
0.121272
0.0199273
0.00181722
0.0017294
0.00577417
0.00635946
0.00155923
0.0331428
0.122261
0.383557
0.0586205
0.0106117
0.00907229
0.00296944
0.00379359
0.000674304
0.0188055
0.138043
0.557125
0.126771
0.00216743
0.000414981
0.00434461
0.00296944
0.000791563
0.00593039
0.17152
0.557125
0.265516
0.0320025
0.00120612
0.00178166
0.00178166
0
0.00215771
0.118849
0.36866
0.0238124
0.00908367
0.00357895
0
0.00025296
0.000311748
0.0151127
0.215954
0.467352
0.0245591
0.00510805
0.00152747
0
0
0.000733468
0.0177421
0.135679
0.467352
0.131596
0.0459391
0.00678557
0
0
0
0.00200324
0.226142
0.467352
0.0974011
0.034399
0.0106923
0
0
0
0.0154032
0.110349
0.509955
0.0692593
0.000953102
0.00191206
0.00135408
0
0.00361077
0.0161337
0.0776391
0.400978
0.11723
0.0252881
0.0429322
0.015224
0
0.035512
0.0916381
0.171168
0.509955
0.0836521
0.00755747
0.0461637
0.00971776
0
0.0054587
0.0253859
0.124854
0.257688
0.0534872
0.0609486
0.273937
0.100021
0.0120464
0.0394879
0.069247
0.0362996
0.0565163
0.0318242
0.0969518
0.150289
0.0596949
0.0418949
0.054805
0.0939181
0.0344784
0.0733418
0.0360237
0.211847
0.313367
0.105829
0.0803807
0.0379083
0.0323996
0.0191178
0.0181678
0.0075278
0.160991
0.495028
0.0864301
0.016019
0.0187853
0.0292713
0.00812389
0.0584628
0.026632
0.315914
0.574494
0.0536448
0.00702563
0.00223217
0.00114059
0.0754013
0.0264006
0.062064
0.137642
0.0499848
0.0600808
0.116051
0.0817482
0.0312068
0.0280572
0.0252775
0.101855
0.122792
0.0944706
0.106847
0.10288
0.16955
0.0523426
0.149403
0.0654603
0.0933099
0.179993
0.0287391
0.128785
0.110622
0.0847636
0.0354318
0.334441
0.165579
0.10372
0.173029
0.0157992
0.174539
0.148768
0.230064
0.0800105
0.032166
0.013466
0.0635418
0.0263545
0.0834737
0.0825486
0.0327188
0.106183
0.0668674
0.0687194
0.0204133
0.0573076
0.0159724
0.12163
0.131625
0.0944428
0.154445
0.112678
0.272192
0.0443572
0.037866
0.0237479
0.0170569
0.101339
0.121967
0.156518
0.103748
0.315187
0.410972
0.0448982
0.0886072
0.0910422
0.143467
0.180704
0.202949
0.113744
0.0131808
0.00848076
0.00192588
0.00585845
0.015294
0.0199588
0.013771
0.0142378
0.00778858
0.0467877
0.0713063
0.00872918
0.00833463
0.00917879
0.0128036
0.00665132
0.0133007
0.0101473
0.0748201
0.296843
0.0167653
0.0206558
0.0190559
0.0160838
0.0139039
0.0286727
0.00527359
0.154839
0.87809
0.111851
0.0148033
0.0114535
0.00638517
0.00748405
0.0254361
0.00699072
0.0292691
0.102511
0.0190075
0.00161998
0.000605301
0.00270463
0.000655985
0.00132214
0.00601689
0.0593649
0.424577
0.0555657
0.000881816
3.60026e-005
0.000324024
0
2.47025e-005
0.00874995
0.0493528
0.582035
0.10975
0.00160171
0.000665194
0.0013609
0.000431925
0.00154054
0.00340674
0.0419985
0.582035
0.223866
9.96101e-005
2.16016e-005
0.000194414
0
0
0.00182358
0.0569431
0.420391
0.0455066
0.000581295
9.78827e-006
5.54668e-005
0
5.22732e-005
0.00346018
0.0997593
0.466298
0.122779
0.00226139
6.85179e-005
0.000388268
0
3.13639e-005
0.00251249
0.0280156
0.466298
0.163999
0.00344833
0
0
0
0
0.000155524
0.0671067
0.466298
0.24951
0.00813449
0
0
0
0
0.000973937
0.0753498
0.46204
0.164925
0.00970763
2.91282e-005
0.00016506
0
0
0.000348788
0.0622819
0.46204
0.233682
0.0325843
0
0
0
0
0.000629308
0.0572782
0.422873
0.200285
0.0114783
0
0
0
0
0.00126181
0.0716434
0.430726
0.146981
0.0124148
0
0
0
0
0.00904467
0.0793752
0.553185
0.195008
0.0511841
0.00411496
0
0
0
0.00351809
0.155437
0.610065
0.117909
0.0249507
0.00685826
0
0
0
0.0118082
0.098208
0.350835
0.0701392
0.00577074
0
0.000360352
0
0
0.0214703
0.0891652
0.166537
0.0192023
0.000664334
0.00141982
0.00252247
0
0
0.0183188
0.123095
0.29839
0.0469502
0.00836743
0.111658
0.00608967
0
0.0010874
0.00987641
0.0724375
0.0821399
0.0147205
0.0618899
0.555329
0.0892553
0.0177316
0.00761182
0.012485
0.0263863
0.0296147
0.00248827
0.00765316
0.169469
0.00474494
0
0
0.00520511
0.00408716
0.00180525
0
0.095324
0.66358
0.0457063
0.0272822
0.0080678
0.000400548
0.00346401
0.00198914
0
0.0416004
0.38126
0.0563845
0.00992063
0.0015667
0.00235005
0
0.0033098
0.00293637
0.0567915
0.512343
0.0631145
0.00141723
0
0
0
0
0
0.111998
0.476906
0.0296778
0.0152641
0.00451384
0
0
0
0
0.150451
0.512343
0.0552375
0.00231763
0.000644835
0
0.0263199
0.030089
0.0368002
0.0093997
0.0025285
0.0102884
0.0106727
0.00746563
0.00846056
0.0818078
0.14251
0.0737226
0.010752
0.00820095
0.0102413
0.013402
0.0251593
0.0525889
0.0222507
0.0466202
0.168653
0.0632982
0.0218556
0.010957
0.0260099
0.0122565
0.00796774
0.131419
0.461404
0.748125
0.185651
0.0637816
0.00395405
0.0315811
0.0404164
0.0711163
0.0682364
0.0787962
0.0108004
0.0010179
0.00138394
0.00217531
0.00825211
0.0142436
0.0487798
0.0872138
0.374119
0.0324757
0.00529007
0.0021915
0.00368689
0.00959448
0.0093514
0.0321648
0.225597
0.452545
0.197096
0.0444832
0.00959454
6.8851e-005
0.00461496
0.0148518
0.0688839
0.276553
0.592904
0.215867
0.0101113
0.010129
0.000249661
0.00280228
0.00596271
0.0400359
0.0326756
0.396377
0.0425064
0.00592506
0.00186
0.00102948
0.00168157
0.00319719
0.00184241
0.0310476
0.465548
0.10334
0.00891207
0.00064166
7.53114e-005
0.00077626
0.00243248
0.000376774
0.0387731
0.465548
0.185674
0.0151123
0.00702207
6.3673e-005
0.00107914
0.00729146
0.0037818
0.0238564
0.465548
0.306003
0.0370515
0.00100315
0
0.000576531
0.0088577
0.00475207
0.0127188
0.464746
0.123282
0.00294229
5.92522e-005
0
0.00011387
0.000238261
0.000253497
0.0143626
0.464746
0.181532
0
0
0
0
0
0.000103686
0.0268459
0.437087
0.209633
0.0148002
0
0
0
0.00105099
0.00128567
0.0656601
0.464746
0.131585
0.000591777
0.00259353
0
0
0
0.00159955
0.0331705
0.52244
0.210034
0.0026231
0.00419067
0
0
0
0.000268775
0.0858707
0.528622
0.180031
0.00806761
0.00698445
0
0.00156365
0.0147222
0.0165806
0.0907469
0.349974
0.11026
0.00948505
0.0396661
0
0
0
0.00229788
0.124426
0.309667
0.198254
0.0678511
0.05509
0
0.00260608
0.0344211
0.0536505
0.120991
0.370294
0.0835198
0.00444681
0.00123319
0
0.00554522
0.0332279
0.0304895
0.162671
0.290484
0.0401828
0.0126646
0.00391871
0
0.00332713
0.0172769
0.0430686
0.23144
0.35747
0.194014
0.0544714
0.0086323
0
0.00924203
0.0682749
0.0837532
0.300055
0.510668
0.246034
0.0931843
0.027431
0
0.00554522
0.0306371
0.056116
0.248035
0.240477
0.0385023
0.0534904
0.0584465
0.00277421
0
0.0166728
0.0939687
0.135074
0.0318704
0.00587963
0.0538538
0.108076
0.0194195
0
0.0100037
0.0459586
0.232961
0.523168
0.220766
0.353381
0.221253
0.00459275
0
0.027788
0.0807907
0.0779295
0.122314
0.0267459
0.197275
0.267589
0.0165321
0
0.0166728
0.0337342
0.00494942
0.00075175
0.000235597
0.0120155
0.1407
0.0191774
0
0
0.00198054
0
0
0
0.0979708
0.557469
0.112347
0.0366422
0.0184214
0
0.00433541
0.00526225
0.0027409
0.050827
0.150038
0.0178802
0
0
0.00255408
0.0010419
0
0.00181954
0.369073
0.631526
0.112547
0.0104607
0.00901905
0.0010419
0
0
0
0.161109
0.30268
0.0219397
0.0185136
0.00930746
0
0.00133701
0.00398383
0.000723821
0.25365
0.47953
0.0170363
0.00304465
0.00132964
0.00238969
0
0
0.000124418
0.24822
0.397528
0.0472119
0.0160453
0.00641516
0
0.00832787
0.00663971
0.00120637
0.264363
0.47953
0.0905918
0.0776724
0.0477978
0.0296993
0.00368586
0.0125919
0.161944
0.0451494
0.0533171
0.0193306
0.0132727
0.00588001
0.00411483
0.0639367
0.181971
0.571723
0.175178
0.0439332
0.0197817
0.0131063
0.0116825
0.0255813
0.0189002
0.0101635
0.160084
0.057128
0.171407
0.0756224
0.00658077
0.0299054
0.0585649
0.168572
0.154475
0.468838
0.125985
0.1193
0.114945
0.0238379
0.191088
0.304003
0.158086
0.333401
0.290504
0.0940929
0.00389133
0.00186222
0.00541639
0.0155564
0.0315787
0.167856
0.461042
0.199109
0.0122397
0.0266903
0.00489162
0.00965271
0.0305487
0.0492451
0.149256
0.192623
0.15437
0.0571935
0.00325887
0.0130355
0.0679636
0.295958
0.122773
0.0611405
0.107837
0.0715383
0.00609019
0.0175074
0.0225028
0.0830279
0.446679
0.110322
0.038159
0.250844
0.268795
0.0162712
0.0324084
0.0136696
0.0106191
0.0329184
0.0200432
0.0191568
0.211342
0.543055
0.0875709
0.00484152
0.00935975
0.013443
0.0426462
0.0185563
0.00590137
0.0342662
0.141155
0.00956856
0.0231157
0.0815628
0.0588043
0.311221
0.0686674
0.00185177
0.0243908
0.305659
0.0774267
0.00478447
0.0635005
0.129646
0.440689
0.0684944
0.059694
0.375513
0.417057
0.0728847
0
0.00087518
0.00849152
0.037029
0.0206753
0.119741
0.319455
0.0670721
0.00434607
0.0451408
0
0.000980884
0.009536
0.014075
0.0177964
0.0262293
0.163762
0.0613076
0
0.00612626
0.102543
0.550584
0.118604
0.130824
0.0370436
0.0677371
0.00376446
0.0549178
0.00972108
0.0176889
0.259411
0.116431
0.0880632
0.104515
0.0956558
0.0248459
0.152331
0.0137818
0
6.75346e-005
0.0103836
0.164115
0.404146
0.430473
0.100447
0.143584
0.0229696
0.000547968
0.0119246
0.0428745
0.174301
0.0642968
0.109676
0.0446224
0.183109
0.0500743
0.0125981
0.0209714
0.0668717
0.321575
0.382835
0.277901
0.0781638
0.172528
0.0597039
0.0061626
0.000533306
0.0927297
0.17664
0.479403
0.338173
0.0560826
0.0107563
0.00303002
0.00145188
0.0152942
0.0470794
0.221543
0.433671
0.313828
0.0488212
0.0117138
0
0.000871127
0.00546559
0.046678
0.179315
0.292176
0.19386
0.0156804
0.0132594
0.00611325
0
0
0.0472453
0.125586
0.149718
0.0868733
0.00727845
0.00837203
0
0
0
0.0434522
0.0870329
0.149759
0.10087
0.0831072
0.0502315
0.0015721
0
0.00201903
0.0317904
0.0955041
0.0943068
0.0088755
0.0404322
0.0634778
0.00262016
0.00462999
0.00370449
0.0212045
0.0538031
0.121159
0.190607
0.0205076
0.0332461
0.000224585
0
0
0.0258196
0.229919
0.726509
0.40862
0.0445823
0.112476
0.0334623
0.0324099
0.0174515
0.146622
0.0692456
0.0250835
0.00273526
0.0428266
0.0828715
0.0011569
0.00757555
0.00407914
0.00743353
0.0251604
0.00271753
0.00595985
0.300814
0.405229
0.00854256
0.00454533
0.00244748
0.00248425
0.162785
0.212769
0.0566346
0.102853
0.239039
0.0199468
0.0530289
0.028554
0.0829305
0.0471599
0.0139
0.0076587
0.393882
0.598557
0.0184307
0.0318173
0.0171324
0.0126756
0
0
0.00280569
0.218735
0.326517
0.0722966
0.0540438
0.00616555
0
0.00364803
0.00109682
0.0148649
0.136634
0.285211
0.179104
0.190819
0.100849
0.0233444
0
0
0.0167978
0.340237
0.365754
0.102268
0.0657362
0.00369933
0
0.0389158
0.0169199
0.108408
0.415428
0.297199
0.209352
0.144956
0.0457225
0.00226186
0.067595
0.0253962
0.0827437
0.0410408
0.16214
0.0802676
0.00443185
0.0665099
0.115768
0.250183
0.0879248
0.109075
0.0341652
0.107498
0.106637
0.100732
0.529182
0.5751
0.083902
0.0671038
0.0534554
0.0314959
0.0221528
0.0164685
0.00698626
0.0203264
0.052672
0.112435
0.0574805
0.10818
0.0690495
0.00798634
0.00518822
0.0523202
0.172219
0.140393
0.0530693
0.0319423
0.0101518
0.00258964
0.00131864
0.00527456
0.0951723
0.41204
0.102298
0.00929035
0.00884188
0.000843406
2.90641e-005
0.000537618
0.00816707
0.123183
0.566762
0.083605
0.0106978
0.00653853
0.024208
0.013342
0.00149894
0
0.0559095
0.217476
0.0449286
0.0124087
0.0188348
0.0112894
0.0117268
0.00107149
0
0.169017
0.566762
0.0575543
0.000146351
0.00134957
0.00769963
0.000874498
0.000958332
0.0206919
0.0550492
0.381766
0.0446958
0
0.000809739
0.0128209
0.00612149
0.000526252
0.0165755
0.0875616
0.491344
0.0440211
0.00832567
0.0117257
0.00155171
0.00342712
0.000134455
0
0.0912229
0.511165
0.0463425
0.00171227
0.00160635
0
0.000364951
1.92079e-005
0
0.0822041
0.511165
0.0820894
0.00290303
0.000953082
0.00231272
0.00260234
0
0.00106428
0.0545766
0.412175
0.0637831
0.0319142
0.010525
0.0339663
0.00148497
0.00277941
0.00459062
0.0730959
0.307363
0.0789283
0.000374562
0.000124854
0
0
0
0
0.0747141
0.549922
0.0802925
0.00262194
0.00127956
0.0086991
0.00089098
0
0.000655803
0.201003
0.549922
0.0556935
0.0532611
0.0157155
0.0677002
0.0277053
0.0193118
0.0298986
0.08442
0.129463
0.0437607
0.0785766
0.0368773
0.0401935
0.040212
0.0222184
0.0313954
0.028124
0.0738195
0.0387084
0.00140575
0.00100706
0.0240644
0.00651369
0.000705194
0.00859061
0.240857
0.63343
0.0395862
0.000488583
8.0249e-005
0.0121274
0.00727805
0.00134589
0.011684
0.191631
0.616076
0.0636332
0.0926107
0.0450756
0.039202
0.0146532
0.00740759
0.00835892
0.00904553
0.0461329
0.0387277
0.0237267
0.00830853
0.00492028
0.076574
0.126342
0.000665374
0.000802443
0.00249452
0.0148776
0.0049907
0.00213486
0.00071162
0.00209331
0.000688001
0.00405617
0.169084
0.766191
0.147731
0.00948948
0.0166256
0.0399354
0.116323
0.290973
0.00662869
0.0419865
0.260282
0.108994
0.000970785
0.043674
0.151449
0.0602977
0.123081
0.000479989
0.00876509
0.0159373
0.0021612
0.0335261
0.273846
0.362519
0.0779958
0.285337
0.0473307
0.0267386
0.0814935
0.0751886
0.000507
0.0122095
0.0768872
0.081298
0.237595
0.00478182
0.0948396
0.125888
0.00732476
0.084556
0.0660412
0.24069
0.127326
0.422223
0.0310947
0.208332
0.435762
0.0239419
0.030593
0.095185
0.0746183
0.0837428
0.348605
0.0392023
0.0179376
0.029536
0.0576726
0.00662806
0.0034332
0.00235275
0.136715
0.50325
0.0240208
0.010094
0.00456384
0.00785147
0.0704634
0.0256898
0.10381
0.137366
0.456459
0.0242607
0.0388009
0.109862
0.0122609
0.0100662
0.00149022
0.0133086
0.123809
0.50325
0.0221036
0.00869324
0
0.00111215
0
0
0.00880694
0.192087
0.29808
0.0331209
0.00787277
0
0
0.0393865
0.0253683
0.0613775
0.388414
0.307744
0.036166
0.0110875
0.000456547
0
0
0
0.00101405
0.123641
0.494698
0.0218535
0.00803633
0
0
0.0117042
0.0122282
0.00974087
0.254794
0.494698
0.0242612
0.00286888
0.00319583
0
0.118906
0.0896466
0.103434
0.182645
0.0580467
0.0225476
0.0293144
0.0198568
0.128191
0.0985756
0.103277
0.356385
0.340475
0.0607772
0.033214
0.017959
0.0313825
0.0504628
0.104814
0.0354042
0.0839891
0.192496
0.189712
0.074329
0.0629049
0.0171152
0.0651358
0.132334
0.131475
0.22604
0.250339
0.144186
0.16367
0.0418881
0.0208208
0.0945154
0.0333393
0.072605
0.144878
0.115181
0.0395179
0.0112689
0.0372075
0.103523
0.029069
0.113917
0.238486
0.112573
0.145276
0.028215
0.00418594
0.226233
0.60859
0.0773057
0.0491255
0.132002
0.115594
0.0859863
0.0591948
0.0383169
0.0207376
0.00879151
0.0181357
0.133089
0.328057
0.0923896
0.110012
0.0722074
0.0271714
0.0119184
0.0167393
0.0168898
0.0295018
0.0404528
0.00981259
0.0182801
0.00261806
0.00198943
0.0672614
0.373186
0.052813
0.0165737
0.0112919
0.00358251
0.00352582
0.000763775
0.00119366
0.124757
0.802723
0.10587
0.0290253
0.0503574
0.011136
0.0144585
0.0161939
0.0202526
0.00547058
0.037944
0.0164732
0.0269592
0.0389781
0.010508
0.0107961
0.00973245
0.014075
0.0492841
0.295973
0.0363916
0.00212966
0.00140564
0.000252021
0.000101498
0
0
0.0696702
0.50837
0.0325305
0.00023858
4.49201e-005
0
0
0
0
0.105931
0.535227
0.0254529
0.00744161
0.00912411
0.00125778
0.00190178
0.00251422
0.000211424
0.0453124
0.293391
0.0254561
0.00337264
0.00321294
0.00121286
0.00256882
0.00198528
0
0.0797399
0.535227
0.0520397
0
0
0
0
0
0
0.0813548
0.424354
0.0221425
0
0
0
0
0
0
0.106062
0.472003
0.0476294
0.0032646
0.00117482
0.000961217
0.000822886
0.000335552
0
0.0556605
0.504676
0.0395344
0.00195876
0.000167832
0.000137317
0
0
0
0.0698571
0.504676
0.0878912
0.000647016
0.000542555
0.000180852
0
0
0
0.0562679
0.392123
0.0588413
0.00317996
0.00769659
0.016758
0.00863684
0.0212622
0.00179712
0.0326613
0.301209
0.064173
0.00015945
7.75078e-005
2.58359e-005
0
0
0
0.0652861
0.572366
0.0961605
0.00225659
0.00580131
0.00717338
0.000879497
0.00151729
0.000817001
0.0913832
0.572366
0.0961305
0.00349458
0.0132841
0.0212007
0.0185884
0.0754077
0.0122673
0.0828706
0.21423
0.0299913
0.146941
0.0241406
0.0550985
0.0792666
0.11369
0.0141561
0.169512
0.381694
0.00783532
0.00466408
0.0176654
0.00937833
0.00116846
0.0117667
0.0132125
0.0844981
0.631017
0.0740127
0.0516002
0.0271322
0.0477132
0.0522855
0.0348632
0.0233068
0.114794
0.469549
0.0543002
0.131615
0.0162773
0.0700095
0.184094
0.209443
0.0024529
0.0361193
0.101757
0.00129596
0.0188021
0.00232533
0.044756
0.274151
0.485241
0.0127288
0.0047469
0.00166744
0.00113053
0.0444534
0.0357814
0.214494
0.19542
0.0734879
0.00400748
0.0362392
0.123811
0.00913646
0.00635049
0.0197886
0.350542
0.467607
0.254025
0.0127508
0.00545618
0.0265497
0.00188422
0
0
0.00446937
0.0799788
0.388331
0.0142969
0.00277704
0.000188974
0.000755895
0
0
0.000487227
0.0791857
0.518077
0.0251034
0.00159687
0.00120168
0.000107985
0
0
0.0451583
0.151569
0.450535
0.0156227
0
0.00311468
0.00125982
0.00139299
0.000464332
0.00184971
0.137886
0.518077
0.0212049
0.00176525
0.000318062
0.000179975
0.107734
0.168293
0.152604
0.0784447
0.0658111
0.0412536
0.0494899
0.0308948
0.0342918
0.198682
0.249257
0.152848
0.0605151
0.0654073
0.0886502
0.0328962
0.0294279
0.0484572
0.10187
0.280416
0.321644
0.171019
0.0955812
0.0199036
0.0418447
0.0648371
0.0831616
0.191332
0.255192
0.279712
0.14354
0.116938
0.0355311
0.0596153
0.143889
0.0759107
0.106174
0.187692
0.149946
0.0433907
0.102629
0.0379111
0.0162211
0.00855929
0.0193449
0.150035
0.269833
0.0942233
0.171961
0.106551
0.0359469
0.0155303
0.00258469
0.0259678
0.132398
0.156436
0.330982
0.122434
0.150157
0.042052
0.0194038
0.0544846
0.0323776
0.210568
0.206275
0.212675
0.298455
0.112785
0.103511
0.0591178
0.00788373
0.0558524
0.119132
0.21833
0.0709353
0.107241
0.0525692
0.0781058
0.00839516
0.0123381
0.0337165
0.10208
0.206151
0.145145
0.0820378
0.0582309
0.0643354
0.0180397
0.0874913
0.0548665
0.239944
0.163314
0.159869
0.263815
0.0304504
0.0361291
0.0291766
0.0233478
0.0578552
0.305081
0.189697
0.243141
0.234903
0.153646
0.0180574
0.0330854
0.0753699
0.0459708
0.0212862
0.0502387
0.0362383
0.0232628
0.0352872
0.00883519
0.0188733
0.148351
0.0462401
0.0225815
0.0717291
0.048827
0.0646568
0.0404443
0.00561163
0.0870196
0.800609
0.120442
0.0511136
0.0967327
0.0864448
0.102338
0.0860891
0.0132229
0.00475715
0.00952476
0.0100541
0.0295955
0.187918
0.148641
0.19285
0.0711268
0.0141639
0.000469941
0.0415849
0.0224322
0.016335
0.0186399
0.0120497
0.00795913
0.00304191
0.00116397
0.0363288
0.464045
0.0530587
0.00980099
0.00420252
0.00293678
0.00121906
0.00041375
0.00104093
0.0933672
0.717404
0.108252
0.0125464
0.0336918
0.031228
0.0238232
0.00885671
0.0112914
0.00743801
0.0719094
0.0224322
0.00753814
0.00636518
0.0107719
0.0207424
0.0131814
0.0204031
0.0665356
0.397613
0.0385155
0
0
0.000134722
0.000250198
0
4.2233e-005
0.0593026
0.508412
0.0441232
0.000131748
0.000526994
0
0
0
0
0.0665875
0.516397
0.0571065
0.00229656
0
0.00107495
0.00429452
0.00705035
0.0042369
0.0557586
0.353659
0.0347133
0.00333332
0
0
0
0.00336152
0.000384185
0.0944688
0.516397
0.0749967
0.000353811
0.00141524
0
0
0.000540109
0.00100427
0.0466514
0.443741
0.0352188
0.00841476
0.0199501
0.0155529
0.0055475
0.00269472
0.00270902
0.0554082
0.421657
0.0510117
0.000408501
0
0
0
0
0
0.0690264
0.511684
0.0461233
0.0136708
0.0105501
0.00167844
0
0
0
0.0311925
0.511684
0.182014
0.0416841
0.0964257
0.193179
0.0952915
0.00709129
0.00137016
0.0397897
0.252327
0.063783
0.0434998
0.0791096
0.306252
0.266589
0.121605
0.013557
0.0138404
0.0690315
0.0193054
0.0694734
0.0600387
0.0427043
0.0274999
0
0.00127739
0.0528246
0.579416
0.28984
0.0887727
0.0811372
0.100312
0.132271
0.0686221
0.047184
0.136265
0.301207
0.147779
0.00460051
0.00997877
0.04188
0.112914
0.353485
0.0226083
0.00175385
0.0092469
0.000434615
0.00427476
0.00272923
0.016911
0.112128
0.517238
0.03056
0.001512
0.000856146
2.74974e-005
0.0177306
0.0329201
0.186636
0.212317
0.226021
0.0361955
0.0363317
0.028033
0.0187322
0.0042815
0.0143834
0.24403
0.250301
0.517238
0.0348426
0.00766451
0.00383101
0.000616106
0.0337739
0.112115
0.240318
0.0858575
0.0772379
0.0267864
0.0215972
0.0633535
0.083766
0.02989
0.0591372
0.189965
0.138915
0.161764
0.0446439
0.0400097
0.169391
0.108081
0.0435228
0.216107
0.413406
0.216592
0.087738
0.0216821
0.00312932
0.056437
0.0474238
0.0886046
0.15041
0.201739
0.17646
0.271005
0.0361368
0.00535029
0.0799993
0.165661
0.0363703
0.0839146
0.219425
0.175491
0.107535
0.0197466
0.0113243
0.0670473
0.0539575
0.0931507
0.149344
0.315218
0.205843
0.0387895
0.0377242
0.0218392
0.016817
0.0457067
0.10814
0.176784
0.0952773
0.141632
0.145711
0.00574362
0.00111399
0.0308119
0.214022
0.10333
0.33588
0.306014
0.147854
0.0387489
0.00649328
0.00216443
0.0177141
0.100181
0.096783
0.0998922
0.234708
0.198955
0.0504275
0.0210808
0.0137322
0.0355633
0.043734
0.18352
0.131932
0.119046
0.193539
0.240337
0.0442239
0.0328072
0.0687821
0.0802798
0.0778421
0.181833
0.230546
0.191947
0.116871
0.0481967
0.0106773
0.0472528
0.0367811
0.170949
0.190046
0.0826808
0.172419
0.238854
0.113219
0.058031
0.0509304
0.142898
0.211079
0.164017
0.101125
0.17131
0.182221
0.0208706
0.0108922
0.0220335
0.0795931
0.134922
0.320416
0.212784
0.222607
0.0884145
0.0150882
0.000786117
0.040558
0.055052
0.254486
0.129608
0.0531395
0.0961818
0.136897
0.0541203
0.0239416
0.0258081
0.144596
0.175967
0.151038
0.0979436
0.254597
0.107842
0.0581136
0.0134871
0.0473125
0.0935917
0.0325884
0.129642
0.157996
0.0901114
0.0504958
0.0575537
0.0306959
0.0717069
0.0348254
0.045851
0.0422516
0.1265
0.135825
0.173047
0.219168
0.107744
0.228319
0.0570849
0.0500952
0.0815754
0.194978
0.19455
0.0573718
0.0332785
0.0318084
0.0526681
0.0408904
0.129161
0.199969
0.431963
0.128609
0.159241
0.118713
0.0362829
0.0276147
0.0428143
0.0197314
0.0188138
0.00801357
0.0145173
0.03924
0.0324888
0.0315869
0.197585
0.0511197
0.0203525
0.0196524
0.00269903
0.0174469
0.0315392
0.00385802
0.138349
0.872195
0.103608
0.0326937
0.0596118
0.0430869
0.0271882
0.0420345
0.0389656
0.00483935
0.00971318
0.0134748
0.0202577
0.0411064
0.0244898
0.118113
0.0720251
0.0350526
0.0247699
0.0780003
0.0267026
0.00253967
0.00418754
0.00164731
0.00374297
0.00818297
0.00417369
0.0637837
0.521975
0.0491363
0.00364713
0.00166445
0.00108727
0.000213359
0.00375546
0.00772811
0.0308094
0.67488
0.232889
0.0117819
0.0149855
0.013606
0.0246745
0.0220478
0.0123038
0.0142084
0.0943867
0.0284357
0.016945
0.0198706
0.0077481
0.00149352
0.00757548
0.0215572
0.0272595
0.337714
0.126767
0.00762547
0.0011712
0.00109089
0
0
0.00142231
0.0460011
0.50867
0.169452
0.051493
0.0996537
0.062474
0.0318763
0.0115293
0.0202677
0.0909316
0.377805
0.196831
0.00729773
0.00464652
0.000120465
0
0.000635039
0.00960096
0.0423443
0.375881
0.136973
0.104324
0.159551
0.054708
0.00588236
0.000381024
0.00529893
0.0343321
0.358854
0.339097
0.0632646
0.224782
0.377492
0.25368
0.0816403
0.0282241
0.0518044
0.0770718
0.0967225
0.0106427
0.111454
0.399614
0.352088
0.211389
0.0252648
0.0145146
0.00246516
0.00296345
0.146125
0.327468
0.215911
0.0757943
0.0242872
0.00485523
0.00962806
0.0765805
0.173092
0.0496936
0.156692
0.163309
0.155498
0.0703162
0.0204586
0.00848157
0.0018946
0.00758694