0.117183
0
0.000733558
0.0693299
0.18782
0.0136364
0.00240643
0.0212359
0.112945
0.313101
0.0168535
0.00132716
0.11468
0.30759
0.120445
0.0129214
0.0285599
0.260673
0.171803
0.0245241
0.0051349
0.211973
0.19728
0.0155782
0.00204174
0.0404563
0.0815221
0.360063
0.0689627
0.00455932
0.408229
0.237491
0.115497
0.0188308
0.0700971
0.156502
0.162963
0.019424
0.00579526
0.0277911
0.24383
0.119812
0.0233701
0.0153467
0.158849
0.158877
0.0273079
0.00810095
0.0146588
0.327646
0.0650957
0.0298194
0.01832
0.262358
0.137482
0.0387486
0.0699477
0.164069
0.167432
0.134541
0.0510625
0.0518724
0.108378
0.165497
0.00462476
0.125806
0.0705521
0.19258
0.22168
0.154664
0.0929464
0.497111
0.165057
0.064552
0.0438835
0.0448965
0.306113
0.0327639
0.00390636
0.00299428
0.234835
0.140984
0.0387312
0.0714024
0.0646037
0.36746
0.0788887
0.0409741
0.0038317
0.271367
0.124284
0
0.0260619
0.0205224
0.137626
0.191063
0.199519
0.0702524
0.439339
0.166029
0
0.0102003
0.00917378
0.117582
0.11462
0.0992288
0.0117332
0.248159
0.0166306
0.0333164
0.0494179
0.0165026
0.173963
0.140478
0.0951541
0.026179
0.144474
0.0299377
0.171008
0.203217
0.0367426
0.299716
0.217544
0.244213
0.16202
0.133031
0.0542239
0.00323825
0.012294
0.0212239
0.0401825
0.0836074
0.0949394
0.0200492
0.0859519
0.10251
0.119585
0.0901716
0.0471897
0.106722
0.190523
0.370947
0.482223
0.181324
0.0630106
0.0984573
0.11383
0.0410818
0.144993
0.0946389
0.104057
0.141304
0.0784733
0.0800324
0.0750033
0.0804572
0.100413
0.13726
0.0594627
0.20948
0.245924
0.0513443
0.149755
0.118154
0.056016
0.0517174
0.0651806
0.178898
0.205064
0.422988
0.154103
0.279154
0.0713865
0.0817454
0.313489
0.229331
0.147609
0.196196
0.148184
0.146548
0.0752942
0.0551158
0.117506
0.0879593
0.2701
0.10897
0.152737
0.131495
0.016627
0.146412
0.0901873
0.172624
0.0282202
0.267338
0.141174
0.0677584
0.0290179
0.0428372
0.257758
0.0938484
0.084879
0.213124
0.300555
0.132278
0.105924
0.063888
0.0593298
0.442279
0.144069
0.121615
0.0332962
0.177964
0.191565
0.097258
0.0891438
0.147843
0.139971
0.0748632
0.128205
0.0399321
0.120872
0.0290839
0.0282173
0.0255565
0.0670482
0.0912702
0.0511733
0.0956877
0.0545104
0.130056
0.0757739
0.0700809
0.0620315
0.127852
0.382244
0.108813
0.120112
0.0814365
0.0923355
0.0737913
0.0262794
0.0854533
0.19677
0.325905
0.204234
0.493923
0.139775
0.148748
0.0473224
0.087738
0.212621
0.194639
0.0107117
0.0110866
0.0509168
0.0228082
0.0620199
0.0890449
0.0643705
0.0664733
0.0546798
0.0584487
0.0781803
0.289119
0.194662
0.0282649
0.070141
0.0664263
0.119917
0.0835818
0.132352
0.162598
0.406661
0.0889613
0.0630146
0.0384072
0.103513
0.131262
0.0769831
0.202454
0.188231
0.479864
0.299134
0.0454457
0.0643234
0.135852
0.197642
0.153715
0.101358
0.154933
0.33703
0.212806
0.0151522
0.0323668
0.0405746
0.0496463
0.10412
0.071142
0.236342
0.239982
0.159257
0.0598271
0.0544239
0.0484616
0.0421159
0.0799394
0.122078
0.0976928
0.200623
0.260001
0.16391
0.0736756
0.160803
0.102748
0.183287
0.126425
0.184601
0.308827
0.293484
0.220997
0.0684746
0.112645
0.0709704
0.13533
0.218327
0.051924
0.00672017
0.211437
0.25622
0.0196634
0.000214083
0.0131068
0.0549431
0.336841
0.0929772
0.0043709
0.409927
0.244381
0.0460827
0.0187585
0.0506672
0.0701284
0.195975
0.0616399
0.00586909
0.0751242
0.258681
0.0110701
0
0
0.126603
0.233474
0.102733
0.00352146
0.081283
0.261237
0.0117105
0.00267978
0.0116014
0.134275
0.0724764
0.0154313
0.0639153
0.136224
0.130401
0.0756847
0.0807482
0.0600264
0.0512788
0.15963
0.000781881
0.146234
0.0886637
0.275412
0.288453
0.355032
0.170163
0.332624
0.0563535
0.0118215
0.0103373
0.0178984
0.104945
0.0251428
0.065275
0.0183639
0.0616712
0.276827
0
0.0413172
0.0275448
0.206096
0.0809172
0.231922
0.0685075
0.289727
0.0812574
0
0.0153741
0.00943473
0.174654
0.15363
0.186644
0.0688228
0.185405
0.193642
0
0
0
0.321737
0.105394
0.0655853
0.00995835
0.22746
0.170477
0
0.00621123
0.00414082
0.185658
0.0531648
0.0764531
0.0286656
0.207412
0.330295
0
0
0
0.439991
0.0550444
0.0156512
0.00409508
0.380777
0.105173
0.00133841
0.0254298
0.0460344
0.170365
0.024267
0.0239335
0.00466211
0.106447
0.099899
0.0924902
0.220486
0.0989033
0.0893647
0.0835448
0.190811
0.254026
0.12861
0.17031
0.000803045
0.0152579
0.0276206
0.26671
0.0861578
0.03996
0
0.187446
0.143337
0.102265
0.191714
0.0829998
0.132642
0.269513
0.509711
0.178997
0.225091
0.0747636
0.0577848
0.109592
0.0791393
0.0194494
0.0483494
0.115049
0.222634
0.114429
0.108268
0.0379582
0.112749
0.339764
0.0913367
0.0368161
0.0913455
0.0945267
0.124965
0.0904292
0.145055
0.185861
0.0662559
0.0121697
0.0639964
0.261364
0.195538
0.185263
0.121407
0.435636
0.359627
0.229182
0.0290935
0.00945953
0.0709418
0.1115
0.17968
0.076947
0.0488619
0.0679138
0.152347
0.0531757
0.0361703
0.0420991
0.0367941
0.0631858
0.177915
0.152077
0.0978646
0.0315224
0.0332812
0.063008
0.0446936
0.0677932
0.0744366
0.124722
0.313981
0.365224
0.110161
0.0112572
0.0125665
0.0125389
0.0239007
0.111673
0.364147
0.449695
0.429011
0.0376852
0.00777381
0.0132364
0.0142412
0.0339104
0.130897
0.12684
0.132546
0.0770458
0.0394473
0.0180232
0.0155178
0.00638682
0.0401029
0.0495272
0.197962
0.181084
0.208214
0.0605596
0.0172647
0.00231908
0.0211785
0.0700727
0.0527675
0.271793
0.420597
0.165045
0.0208963
0.00303442
0.00163562
0.00149929
0.0199002
0.0598498
0.431887
0.490425
0.250386
0.0269821
0.00761898
0.0116417
0.00950608
0.0174494
0.0692823
0.222844
0.157678
0.218952
0.0309972
0.00807054
0.0103985
0.0294809
0.0333905
0.0798008
0.167228
0.0998687
0.133077
0.0919335
0.0905789
0.0497849
0.0333084
0.020229
0.0934371
0.374323
0.355265
0.162301
0.0487107
0.11729
0.11058
0.0695459
0.00384787
0.116363
0.154909
0.0867763
0.0267026
0.133534
0.536308
0.184544
0.0896647
8.89143e-005
0.104366
0.0630316
0.0124639
0.0439346
0.148297
0.191401
0.0498221
0.035516
0.0141404
0.0513819
0.145849
0.0150981
0.152976
0.189444
0.156664
0.0269488
0.0218591
0.0569563
0.115538
0.0588079
0.0128194
0.0906206
0.167231
0.557789
0.0568981
0.0710784
0.00118159
0.0605143
0.382119
0.018737
0.166735
0.134183
0.220666
0.0186286
0.099933
0.0381008
0.367515
0.103212
0.0156834
0.0289476
0.0312986
0.0985399
0.0141278
0
0.00248152
0.110362
0.1594
0.0261389
0.0467054
0.035087
0.10951
0.0752578
0
0.0236531
0.28647
0.090087
0
0.0471871
0.0411953
0.197745
0.101448
0.000934149
0.0123586
0.120317
0.214558
0
0.0772069
0.0503623
0.438562
0.223337
0.000560489
0.0925913
0.547311
0.0523022
0.00385306
0.00682849
0.00388896
0.0617892
0.0662508
0.0081931
0.0145376
0.113515
0.0881548
0
0
0
0.0324996
0.0129269
0.0136552
0.00161366
0.089592
0.183723
0.0168202
0.0113808
0.00612813
0.370665
0.121183
0
0.0412873
0.270425
0.556322
0.441234
0.0365174
0
0.120113
0.0149467
0
0.00094616
0.106392
0.032181
0
0
0
0.0119121
0.000457806
0.000520548
0
0.0335293
0.101162
0.0233738
0.00842277
0
0.0320035
0.00102866
0
0
0.0674654
0.26705
0.263719
0.0385238
0
0.00174603
0
0
0
0.033996
0.568784
0.645606
0.168709
0
0
0
0
0
0.0738887
0.0984652
0.0550471
0.0246264
0
0.0146753
0.0115464
0.00451809
0.000636045
0.0340127
0.138414
0.210874
0.179367
0.00206735
0.00746184
0.0395363
0.0742743
0.0406595
0.0876269
0.34586
0.455433
0.146165
0
0
0
0
0.00445231
0.0555309
0.303728
0.470331
0.353546
0
0
0.0190202
0.00229468
0.0357404
0.186504
0.0574811
0.230035
0.229634
0.00316295
0.000655074
0.0206272
0.0755281
0.0486929
0.059095
0.101702
0.384408
0.256734
0.0109075
0
0.00595177
0.0276678
0.0284063
0.0592138
0.084307
0.330184
0.353191
0.00829491
0.00158004
0.0476898
0.00575351
0.023569
0.103774
0.13415
0.449661
0.337329
0.0486381
0.0110603
0.0446371
0.0246576
0.0248852
0.105163
0.116096
0.275144
0.177168
0.0102435
0
0
0
0.00444362
0.0456462
0.270589
0.346028
0.188078
0.00700581
0
0
0
0.00170409
0.0592136
0.170774
0.426517
0.165428
0.0184999
0.00381589
0.0150271
0.0329328
0.00679046
0.0542311
0.368596
0.429957
0.186608
0.0144714
0
0.00214673
0.0141392
0.000886845
0.0611365
0.241463
0.376591
0.100235
0.000620495
0
0
0
0.000662977
0.0446034
0.268586
0.394753
0.114528
0.00135913
0.0278797
0.0134632
0.00641912
0.00128774
0.0634841
0.347723
0.292904
0.155927
0.0457482
0
0
0
9.4711e-005
0.0560371
0.386263
0.177623
0.15964
0.0679585
0.141734
0.00950082
0.000917018
0.000772642
0.172841
0.126691
0.13061
0.0468833
0.0618617
0.222546
0.0583187
0.0302706
0.00129066
0.0380044
0.028594
0.0217293
0.00431744
0.14777
0.502789
0.0756011
0.0317966
0.000184379
0.0124686
0.136114
0.0296632
0.0268727
0.122241
0.468263
0.0311453
0.00249836
0.000774394
0.0952857
0.010684
0.00043842
0
0.229283
0.502789
0.0561538
0.00149902
0.000110628
0.00833424
0.0213843
0.0244905
0.031891
0.171396
0.404309
0.019642
0.055003
0.0110946
0.0194959
0.234501
0.0408176
0.0529815
0.128451
0.124758
0.00492598
0.0879494
0.0474265
0.210849
0.0204767
0.0173264
0.0164836
0.264358
0.488925
0.0200816
0.0325741
0.0752238
0.0158318
0.255954
0.042915
0.0274727
0.215356
0.155042
0.0012189
0.0664782
0.314916
0.217864
0.0490439
0.00133497
0.00179525
0.00156729
0.0166794
0.0121784
0.000713839
0.00117571
0.0346447
0.116689
0.0596131
0.0117566
0.00191605
0.052675
0.0194081
0.000428303
0.0101761
0.0951544
0.341584
0.0924255
0.161114
0.0410323
0.0766061
0.0659203
0.0018986
0.0132327
0.21108
0.629129
0.427299
0.121378
0.0318697
0.0154272
0.0241141
0.00270748
0.0232222
0.317963
0.0787646
0.131511
0.0337442
0.000139108
0.0341129
0.00380938
0
0.00323232
0.0300146
0.195419
0.426558
0.0893954
0
0.015565
0.000339289
0
0.000180675
0.0155365
0.298981
0.484123
0.129544
0.00827232
0.00480679
0.00273555
0.000215524
0.00722289
0.0716794
0.235828
0.484123
0.235219
0.0120318
0.030777
0.0209286
0
0.0105475
0.0635367
0.183658
0.334762
0.055163
0
0.000800254
0
0
0
0.0121054
0.309586
0.412411
0.0897864
0
0
0
0
0
0.0361071
0.18876
0.402926
0.132241
0.00332614
0.0175021
0.0238683
0
0.00340785
0.038676
0.352519
0.412411
0.142007
0
0.00219358
0.00995305
0.000180216
0.00306723
0.0491238
0.258304
0.387515
0.0980412
0
0
0.00055654
0.000185513
0.00139639
0.0468709
0.212785
0.400116
0.1614
0.00220042
0.0309258
0.0284892
0.00129859
0.00977474
0.0853892
0.247081
0.414868
0.115504
0.000271402
0.00218492
0.00637769
0.0021449
0.000807294
0.0451328
0.180647
0.373695
0.127215
0.0223421
0.200266
0.0974076
0.0120572
5.47891e-005
0.0364466
0.0772398
0.263303
0.290011
0.0217947
0.0610543
0.0471537
0.00561738
0.00894009
0.0551046
0.0816566
0.295183
0.332262
0.090195
0.0530651
0.0689824
0.0759279
0.0126395
0.0468972
0.122968
0.233517
0.204398
0.0508957
0.303111
0.151692
0.0457967
0.0281551
0.0292764
0.237754
0.357313
0.264575
0.119602
0.136601
0.097047
0.1132
0.0698803
0.093168
0.141403
0.266108
0.138166
0.0341986
0.00938614
0.0503686
0.12435
0.0122863
0.0261333
0.255433
0.316486
0.301229
0.0725738
0
0.0174553
0.125349
0.0118578
0.0315371
0.189267
0.276396
0.173379
0.106718
0.0390177
0.0335111
0.129447
0.0749684
0.0474364
0.13184
0.273205
0.395104
0.118151
0.0981252
0.144371
0.247025
0.0794546
0.0567845
0.226032
0.227625
0.293809
0.114463
0
0.0102328
0.0329161
0.00729162
0.0411626
0.293276
0.236745
0.248226
0.0894397
0.152719
0.0124712
0.00119604
0.0035999
0.109958
0.145586
0.195558
0.244353
0.0846381
0.03969
0.134344
0.153406
0.0710275
0.190216
0.258792
0.163624
0.106546
0.0415591
0.107781
0.116566
0.108168
0.0760208
0.374379
0.109156
0.0509152
0.0314345
0.0750413
0.387237
0.0303112
0
0
0.0426473
0.0111019
0.000499723
0
0.155556
0.479866
0.0505261
0
0
0.00319872
0.0848506
0.0309889
0.0105505
0.0988994
0.448184
0.0915329
0.0241171
0.00928776
0.0997076
0.00804111
0.000367414
0
0.220938
0.479866
0.0635252
0.0222963
0
0.00510666
0.018657
0.00950526
0.0129088
0.214714
0.473916
0.0297994
0.0125653
0.0490985
0.0324468
0.205956
0.0665368
0.0215147
0.146346
0.132567
0.00533087
0.0284935
0.225762
0.196466
0.00845586
0.00570315
0.018087
0.230529
0.477123
0.126782
0.112566
0.035432
0.0502519
0.120715
0.100487
0.050328
0.162217
0.0989169
0.0777164
0.089408
0.152078
0.275786
0.183257
0.0757326
0.132063
0.0388012
0.141885
0.202849
0.0815703
0.0357905
0.0970947
0.523701
0.178692
0.0713389
0.0664148
0.0301187
0.0794114
0.0857552
0.116921
0.215423
0.0700292
0.013651
0.0251424
0.0212195
0.224899
0.279943
0.24733
0.0425028
0.0332609
0.168251
0.0268082
0.0380514
0.0851576
0.0880841
0.136826
0.292119
0.20418
0.17503
0.26184
0.221276
0.053295
0.0311651
0.00709861
0.00867771
0.0677478
0.116103
0.104434
0.0964499
0.218516
0.117617
0.0411887
0.0977967
0.0735585
0.0436195
0.140813
0.088843
0.102834
0.0255327
0.0250167
0.0517671
0.0245491
0.0157188
0.266059
0.342471
0.163741
0.0638936
0.0243113
0.0297477
0.0411755
0.0698115
0.112252
0.33927
0.520199
0.200829
0.0677429
0.179543
0.112959
0.0122536
0.064057
0.0887625
0.0607175
0.139343
0.0599268
0.186987
0.276482
0.0955333
0
0.00808124
0.0366674
0.0797825
0.202916
0.0863721
0.00691852
0.0206227
0.0168279
0.0101907
0.0469526
0.0826731
0.249085
0.413936
0.162164
0.0247977
0.0229242
0.00845918
0.00021475
0.00606566
0.0278498
0.329197
0.497874
0.240044
0.111353
0.148126
0.0526972
0.00870905
0.0348124
0.0108843
0.0223305
0.0653647
0.0573602
0.0978973
0.194937
0.139993
0.0785998
0.219567
0.125907
0.0137274
0.0064482
0.0773187
0.0177107
0.0132751
0.0212466
0.0134911
0.105826
0.0361399
0.201185
0.496257
0.178992
0.246066
0.0867362
0.165645
0.153486
0.235809
0.255052
0.117167
0.279148
0.311422
0.161571
0.112136
0.0805911
0.0906521
0.179732
0.16091
0.0284454
0.048491
0.088983
0.420985
0.114235
0.055442
0.0913436
0.0735111
0.0838148
0.0322132
0.0922754
0.224554
0.331488
0.0529359
0.0856153
0.244878
0.0848355
0.132521
0.0353835
0.0707137
0.212041
0.428533
0.0142404
0.0405675
0.155495
0.0456319
0.0578676
0.00750961
0.0563341
0.290586
0.308831
0.0974562
0.0537731
0.103513
0.0474586
0.00409434
0.0338361
0.0640615
0.275753
0.101248
0.162691
0.0878328
0.0757908
0.185391
0.124732
0.152496
0.0873619
0.291465
0.285387
0.00982958
0.00986306
0.0217763
0.025948
0.026626
0.0217135
0.0324457
0.397869
0.0865614
0.0962443
0.104151
0.0478809
0.0828977
0.0869302
0.265039
0.115239
0.396886
0.0692097
0.142333
0.0467764
0.0131426
0.0648924
0.104056
0.125717
0.0695104
0.198371
0.093217
0.126206
0.0797154
0.0202548
0.0539647
0.150148
0.121837
0.0808225
0.331387
0.0281423
0.257111
0.25959
0.0355439
0.0338778
0.0623741
0.156344
0.128741
0.129157
0.0436536
0.485589
0.344093
0.0530958
0.192121
0.142295
0.0880232
0.0818414
0.18097
0.0306146
0.02977
0.0230373
0.106527
0.298962
0.118617
0.0374752
0.0134956
0.10013
0.00331066
0.0030385
0.00053346
0.179151
0.480782
0.0554829
0.036995
0
0.00606165
0.025226
0.129203
0.0610617
0.106767
0.480782
0.131805
0.0588283
0.00850116
0.0743661
0.00360371
0.0232603
0.025395
0.172916
0.480782
0.0518396
0.0300143
0.00756327
0.0066926
0.011119
0.0174656
0.0340297
0.124036
0.279754
0.119702
0.184476
0.0509671
0.0588182
0.0804573
0.188022
0.0778682
0.0946748
0.053615
0.106884
0.15025
0.1337
0.278141
0.0856281
0.113953
0.158387
0.140314
0.325849
0.0436033
0.0695891
0.0480824
0.0993628
0.412752
0.206011
0.153101
0.0668891
0.0594278
0.0740712
0.06897
0.186168
0.343763
0.0406866
0.0381144
0.00896768
0.0105686
0.0939801
0.1112
0.18096
0.0187777
0.0356139
0.0637905
0.0334544
0.0545867
0.0338034
0.0482646
0.13066
0.284343
0.130342
0.0864479
0.175497
0.303914
0.00973662
0.00293302
0.0200664
0.0783976
0.0906461
0.118899
0.21691
0.222352
0.0648024
0.0305101
0.00689007
0.00682285
0.143124
0.382374
0.473716
0.339578
0.134566
0.0268351
0.0334018
0.0182483
0.0157876
0.0244235
0.152128
0.167341
0.165263
0.138645
0.0389089
0.0261934
0.0198833
0.0418854
0.0634047
0.220659
0.260004
0.211853
0.276531
0.0534508
0.116915
0.00290618
0.0212738
0.0304575
0.203386
0.304628
0.307252
0.208424
0.159239
0.334997
0.0443192
0.151342
0.0466151
0.0663672
0.213445
0.292759
0.0181174
0.0136548
0.0131852
0.0115189
0.0311933
0.0534752
0.227999
0.258309
0.144703
0.00985976
0.00553777
0.00159245
0.00145146
0.00336592
0.0287446
0.318876
0.446295
0.213674
0.0250273
0.0630776
0.196311
0.054655
0.0706383
0.0693793
0.136003
0.160017
0.177884
0.0257327
0.0252896
0.0446169
0.0221539
0.00596835
0.0976665
0.461607
0.266425
0.180271
0.0092805
0.00479594
0.00214012
0.00133248
0.0231587
0.0121539
0.173513
0.346088
0.130375
0.117205
0.000852338
0.0149808
0.0270934
0.0491396
0.0636213
0.208689
0.408193
0.19124
0.0209323
0.0158746
0.00420386
0.00176204
0.00044051
0.0216175
0.327297
0.275138
0.0934536
0.0346525
0.0132941
0.0213345
0
0
0.00873081
0.329829
0.434284
0.171534
0.19166
0
0.0158544
0.0772856
0.021674
0.03172
0.148406
0.268578
0.132888
0.0996987
0
0.0152033
0.0501618
0.0333134
0.0323127
0.0602653
0.172115
0.0994875
0.0406644
0.0051218
0.00951193
0
0.00150914
0.00249847
0.245651
0.519174
0.164405
0.0254032
0
0
0
0.0116326
0.0103765
0.278481
0.519174
0.166838
0.0289046
0
0.00733942
0.0170485
0.0374308
0.0349871
0.0175643
0.0603467
0.0794165
0.00974628
0.0805433
0.251717
0.138824
0.0753341
0.0726291
0.126126
0.0490552
0.0555697
0.00810036
0
0.00295283
0.0209877
0.07327
0.0378954
0.17274
0.521972
0.132851
0.00162364
0.066095
0.202475
0.167691
0.221468
0.187121
0.457152
0.33545
0.0807938
0.000298483
0.162972
0.344033
0.103247
0.0247425
0.0378409
0.0823738
0.0479639
0.0146295
0.00384501
0.234567
0.211704
0.10407
0.317154
0.0481606
0.0296149
0.0312953
0.0262145
0.000303632
0.064047
0.20231
0.097434
0.0689252
0.0698267
0.390262
0.210835
0.0200794
0.000506054
0.0217896
0.0650765
0.175929
0.473411
0.0230306
0.130085
0.176036
0.0250946
0.00323612
0.041637
0.0159491
0.0747455
0.469672
0.0426553
0.0168717
0.00351594
0.0100927
0.00248187
0.00841697
0.0274925
0.105957
0.469672
0.0269986
0.0101213
0.0064405
0.00188405
0.00212279
0.00153594
0.00237607
0.146342
0.469672
0.0174477
0.00402694
0.0180534
0.00709538
0.014466
0.000255437
0.0125276
0.144687
0.469672
0.0696164
0.00782084
0.00194526
0.0118901
0.0531922
0.073017
0.0949006
0.143199
0.286547
0.0241403
0.00384305
0.0128458
0.0661587
0.226378
0.103978
0.107154
0.14281
0.151572
0.0147014
0.00411046
0.0471411
0.173296
0.105219
0.132145
0.0600185
0.213638
0.496554
0.152605
0.0247053
0.00233562
0.0356693
0.262057
0.229638
0.237218
0.222663
0.28763
0.0822265
0.0260945
0.0446327
0.0877515
0.118793
0.222707
0.00443237
0.00579713
0.0379904
0.024815
0.0145277
0.130638
0.23572
0.180338
0.0914567
0.00775022
0
0.024947
0.0714557
0.26912
0.369613
0.370119
0.0868613
0.187209
0.0557508
0.0251643
0.0789838
0.0295112
0.0346762
0.198906
0.150795
0.160057
0.413487
0.169171
0.00374511
0.0444229
0.0898102
0.104472
0.160634
0.176299
0.235276
0.123268
0.185293
0.0005735
0.033225
0.0458934
0.22068
0.20793
0.149435
0.133211
0.226624
0.507278
0.0230651
0.0707771
0.0214562
0.0285442
0.0683442
0.0717536
0.133847
0.287026
0.257747
0.00497424
0.0398421
0.0665435
0.0754697
0.0447024
0.0417535
0.0747494
0.233709
0.375375
0.0167447
0.00923104
0.0101835
0.0120753
0.00387523
0.00482201
0.0111618
0.147478
0.42163
0.0523328
0.0458411
0.0359859
0.0445011
0.041165
0.0758414
0.0512281
0.145652
0.202067
0.0487667
0.0123957
0.0619339
0.275661
0.146151
0.12297
0.0101373
0.161802
0.389254
0.022956
0.00286189
0.000747783
0.00568919
0.00152251
0.00406683
0.0184864
0.230888
0.54001
0.0651181
0.0349436
0
0.0179148
0.0155474
0.0269235
0.0382502
0.0842526
0.108128
0.0303384
0.0232726
0.0223879
0.273778
0.162686
0.0741059
0.0309295
0.0981357
0.179132
0.0191513
0.0723726
0.0365338
0.327062
0.464549
0.131397
0.0438863
0.122299
0.263598
0.119816
0.114255
0.00773591
0.0566864
0.0168133
0.0712889
0.0979165
0.200594
0.219538
0.0896791
0.19856
0.0373415
0.141863
0.316009
0.195356
0.00598809
0.0228893
0.0285315
0.000355101
0.014688
0.00725467
0.112025
0.400219
0.110776
0.0173832
0.00392771
0
0
0
0.0107186
0.172633
0.443846
0.152198
0.0249022
0.0596749
0.0248996
0.00248571
0.0288991
0.0159293
0.109355
0.389225
0.168784
0.0217437
0.0249348
0
0
0
0.0750305
0.247222
0.443846
0.237468
0.0113013
0.000415249
1.16339e-005
0.00179345
0.0121592
0.0128615
0.135271
0.380133
0.098104
0.00140335
0.00236215
0.00987266
0.0131904
0.0392601
0.0530878
0.334449
0.413249
0.0871548
0.00863913
0.00290674
8.14371e-005
0.00154731
0
0.0382595
0.237
0.339774
0.11574
0.00423519
0
0.00057006
0.0108311
0
0.00757403
0.335144
0.413249
0.14669
2.91918e-005
0.00225158
0.00992261
0.00756009
0.0152134
0.0212985
0.332192
0.340061
0.0302849
0.00564915
0.0241138
0.0176807
0.068566
0.196003
0.0058879
0.18836
0.338764
0.0303473
0.00606818
0
0.000199896
0.00401364
0.000323402
0.00125088
0.264953
0.419264
0.0942428
0.0452251
0.0500266
0.0391139
0.0250362
0.0793864
0.00321683
0.285832
0.419264
0.100493
0.00799676
0.0303689
0.0207745
0.110288
0.465138
0.0122429
0.022743
0.0819137
0.0167612
0.00689952
0.00433841
0.00659195
0.103974
0.470529
0.0532703
0.00739663
0.00307821
0.0159158
0.0570721
0.0866058
0.0804505
0.0724968
0.384581
0.0115844
0.0934809
0.22766
0.0768006
0.0109463
0.0288253
0.0425531
0.131494
0.470529
0.0348683
0.00525294
0.0117922
0.0247699
0.113485
0.0665866
0.0414218
0.192362
0.439455
0.150662
0.0488739
0.0189338
0.0146954
0.320465
0.123535
0.146763
0.144933
0.129943
0.0812144
0.0503108
0.0508271
0.0888285
0.0230843
0.00354886
0.0205314
0.199584
0.570069
0.123973
0.0283095
0.0304648
0.0106852
0.136055
0.00934842
0.0237389
0.0985777
0.175994
0.0950465
0.0462181
0.057608
0.0945055
0.0437397
0.157777
0.241456
0.116545
0.0579066
0.0170949
0.0602569
0.0983719
0.026132
0.0578509
0.334494
0.349259
0.0276985
0.00947351
0.0138976
0.00775822
0.0306777
0.008412
0.00541673
0.166827
0.53474
0.2266
0.0461368
0.0178357
0.0298788
0.0240242
0.00345565
0.015245
0.184314
0.430796
0.0519933
0.000454427
5.04919e-005
0
0
0.000530657
0.0293211
0.236931
0.318395
0.0129325
0.00751809
0.0127214
0.00442333
0.00131314
0.00192586
0.0241535
0.204487
0.285471
0.0243711
0.00107401
0.00194682
0.000951207
0
0.00139835
0.00886564
0.181174
0.346033
0.0146636
0.00346288
0
0
0
0.000263515
0.010521
0.282515
0.646325
0.0449318
0.0242401
0
0
0
0
0.0496579
0.0964448
0.206798
0.0158614
0
6.45976e-005
0.000491464
0.000131523
0.00486193
0.200522
0.113913
0.258986
0.0251087
0.00795193
0
0.000657613
0.000219204
0.0761919
0.0873383
0.205121
0.53573
0.0521815
0.00671216
0
0.00319413
0.0132435
0.00697661
0.429874
0.230576
0.357381
0.0679714
0
0.0132303
0.0998635
0.100876
0.187738
0.166385
0.0471444
0.0950852
0.0345221
0.0319161
0.000510336
7.59845e-005
0.00165158
0.131644
0.176135
0.0527609
0.0312217
0.0255134
0.0416736
0.00357235
0.0124712
0.0972972
0.276696
0.398616
0.0750207
0.0355339
0.00806322
0
0.0112957
0.0822321
0.0547769
0.343311
0.449207
0.0281657
0.00429824
0.000262375
0
0.00161367
0.0188056
0.139639
0.502465
0.0782789
0.0263417
0.00204523
0.00113671
0.00653832
0.00484667
0.0307863
0.150633
0.256226
0.0842052
0.0117256
0
0
0
0.0343115
0.106343
0.185925
0.321675
0.249415
0.00462542
0
0
0
0
0.000423521
0.145223
0.511781
0.281125
0.000396757
0
0
0
0
0.00644585
0.0964688
0.511781
0.0442581
0.00140454
3.93504e-005
0.000747658
0
0.0222534
0.194048
0.180583
0.132852
0.0219367
0.00276711
0.000275453
0.00523361
0
0.0189127
0.365491
0.310243
0.13297
0.207454
0
0
0
0
0.00274673
0.0499463
0.059955
0.482379
0.184628
0.0193698
0
0
0
0.0212438
0.20529
0.148365
0.482379
0.0186937
0.00672926
9.06565e-005
0.00172248
0
0.00986972
0.220625
0.281116
0.103466
0.0549784
0.0234411
0.02004
0.00375438
0.0125154
0.00181469
0.217131
0.437877
0.188373
0.15139
0.0489838
0.00563689
0
0.00389394
0.0161513
0.194594
0.147475
0.307851
0.159111
0.0432424
0.0560803
0.00359733
0.00648991
0.0601872
0.259627
0.414787
0.292914
0.0807385
0.0662005
0.0817234
0.0282791
0.174127
0.0047393
0.109038
0.268473
0.229926
0.0276705
0.03768
0.0597117
0.116418
0.483499
0.0403722
0.0136663
0.0209011
0.0768438
0.0852365
0.0211359
0.061743
0.0088669
0.0163521
0.102239
0.24939
0.407848
0.290394
0.094852
0.0716603
0.0856181
0.0905657
0.252144
0.0572297
0.106687
0.179258
0.144899
0.00231273
0.00191246
0.00749092
0.165801
0.622689
0.129723
0.0340761
0.00916842
0.00398957
0.0359181
0.00416876
0
0.051655
0.247063
0.0885957
0.0379697
0.0414676
0.0257809
0.0478456
0.0727628
0.106014
0.212326
0.510689
0.102901
0.052496
0.0444728
0.0189556
0.0230781
0.0111655
0.0188515
0.105154
0.216881
0.0597905
0.0504428
0.0257276
0.0180781
0.0053094
0.218031
0.517719
0.103557
0.00940371
0.0037859
0
0.00809089
0.0140392
0.0290221
0.166876
0.35441
0.0422722
0.000168886
0
0
0
0.00230818
0.010001
0.184208
0.28765
0.0558783
0.0265789
0.00614005
0.00869491
0.00870235
0.0184919
0.0130008
0.251917
0.510506
0.0213639
0.00326635
0.000821884
0.0136416
0.00584639
0.00138491
0.0101355
0.152448
0.29696
0.0348801
0.0172143
0
0
0
0.000817911
0.0354353
0.186439
0.628868
0.15746
0.120346
0
0.00576993
0.0519294
0.0146156
0.00445718
0.207085
0.348982
0.0339037
0.0172258
0
0.0017783
0.000762131
0.000490746
0.0567017
0.152499
0.304023
0.161061
0.120324
0
0.00961655
0.0867709
0.104306
0.122685
0.200307
0.541017
0.0691597
0.0404631
0
0.0188062
0.0711772
0.0229474
0.224203
0.202647
0.250505
0.0336627
0
0.0183432
0.268366
0.265342
0.112685
0.157765
0.0987908
0.150361
0.0530181
0.0404555
0
0.019788
0.0927068
0.153293
0.200464
0.0835668
0.0554476
0.0113132
0.00109547
0.00262045
0.155755
0.226543
0.209427
0.173221
0.0454552
0.00893305
0.00290815
0
0.0117093
0.158073
0.1353
0.214167
0.328685
0.02185
0
0
0
0.00167276
0.0421192
0.100138
0.513737
0.13265
0.0128742
0.00523656
0.00483274
0.000699291
0.00167276
0.0828372
0.121876
0.25859
0.265573
0.0112593
0.00346775
0.000836995
9.98987e-005
0.000238966
0.0255346
0.0440581
0.513737
0.205716
0.00108163
0
0
0
0
0.000967335
0.0463595
0.386574
0.222479
0
0
0
0
0
0
0.0342226
0.45748
0.178074
0.00260005
0.00081815
0
0
0
0.00270112
0.00967449
0.45748
0.207701
0.000155102
3.87756e-005
0
0
0
0.00030296
0.085874
0.45748
0.141493
0
0
0
0
0
0.00146292
0.0276674
0.406708
0.145084
0.00958136
0.00514225
0
0.00968482
0.002129
0.0152152
0.0649289
0.439415
0.145058
0
0
0
0
0
0.000685574
0.141954
0.461587
0.200599
0.0193754
0.0304955
0
0.0161414
0
0.00479902
0.200569
0.461587
0.152297
0.0465331
0.104767
0.0144793
0.0255505
0.00502343
0.0357732
0.0478438
0.289428
0.109901
0.108189
0.367264
0.0498966
0.0266762
0.0853427
0.157508
0.161423
0.159119
0.173919
0.0953997
0.301896
0.0241322
0.0279881
0.00144888
0.00457454
0.0748676
0.355287
0.059791
0.161735
0.514477
0.0743271
0.0246323
0.021117
0.0294332
0.0519833
0.105069
0.0463119
0.0690304
0.274489
0.0562274
0.0112051
0.196977
0.335283
0.341733
0.185618
0.154036
0.127964
0.10888
0.118822
0.0745932
0.0655057
0.168439
0.362155
0.224893
0.0199311
0.0875396
0.278614
0.0767461
0.0193199
0.0612454
0.0797804
0.123653
0.119032
0.111296
0.100912
0.0248612
0.0660879
0.0107695
0.0286417
0.0453522
0.178963
0.231843
0.16405
0.253975
0.241262
0.482165
0.284516
0.052382
0.0251515
0.176953
0.109645
0.0586506
0.0382497
0.0692611
0.254219
0.178899
0.0460734
0.0243433
0.00821643
0.0202028
0.137212
0.215544
0.0631553
0.234926
0.047476
0.0226666
0.0119618
0.111942
0.16585
0.05621
0.0582192
0.0583279
0.170823
0.0785643
0.0508419
0.0203568
0.00544494
0.0313025