0.00408521
0.00987367
0.260968
0.247995
0.0931259
0.0266276
0.0312848
0.0179266
0.0428148
0.0166344
0.0272457
0.142395
0.174941
0.100797
0.0295395
0.0679419
0.0820689
0.10744
0.0989878
0.0159558
0.0605618
0.11688
0.102377
0.0641625
0.0533706
0.11338
0.420153
0.0714005
0.0285325
0.0252471
0.0518467
0.0374478
0.0255799
0.0656793
0.249119
0.630848
0.0344862
0.0420218
0.0127
0.0284502
0.0476597
0.0445986
0.0486521
0.10713
0.0939776
0.108335
0.0420585
0.00176397
0.0114092
0.0680772
0.150819
0.0422078
0.0924045
0.109724
0.184285
0.074154
0.00133896
0.0163609
0.0361414
0.023474
0.0127032
0.135783
0.602237
0.352821
0.123702
0
0.0190153
0.0606739
0.0977725
0.0200914
0.057634
0.516193
0.0652024
0.017999
0.00818728
0.0110047
0.0536904
0.14226
0.0837673
0.0540026
0.0707009
0.016711
0.0413139
0.0253168
0.0525348
0.10275
0.0786751
0.132636
0.0832371
0.0494722
0.252062
0.0266761
0.000204533
0.0029784
0.0206539
0.07451
0.0908056
0.136853
0.358955
0.157488
0.00572692
0.00143173
0.00363695
0.0320956
0.0455062
0.209484
0.617575
0.409862
0.00511109
0.0151161
0.00841516
0.0251224
0.0656575
0.0110516
0.0402215
0.0371388
0.0152929
0.0167588
0
0
0.00160835
0.0090931
0.000672109
0.002654
0.00515277
0.0204683
0.0938871
0.00215944
0.00053986
0.00238805
0.0161148
0.0113538
0.0815017
0.443702
0.443776
0.350594
0
0
0.000229764
0.00131449
0.00112018
0.006529
0.070367
0.625618
0.0162854
0
0
0
0
0
0
0
0.015767
0.0197822
0
0
0
0
0
0
0
0.0216451
0.355411
0
0
0
0
0
0
0
0.480179
0.495346
0
0
0
0
0
0
0
0.577351
0.0152169
0
0
0
0
0
0
0
0.0164781
0.0194927
0
0
0
0
0
0
0
0.0207723
0.392432
0
0
0
0
0
0
0
0.436151
0.413911
0
0
0
0
0
0
0
0.64757
0.0144307
0
0
0
0
0
0
0
0.0164529
0.0136745
0
0
0
0
0
0
0
0.0154592
0.245308
0
0
0
0
0
0
0.00317075
0.621193
0.284219
0.00574433
0
0
0
0
0
0.0221952
0.632527
0.014146
0
0
0
0
0
0
0
0.0115011
0.0241464
0
0
0
0
0
0
0
0.0201924
0.46604
0.0944119
0
0
0
0
0
0.00991709
0.32851
0.490096
0.137124
0
0
0
0
0.0464097
0.175624
0.538489
0.0129573
0
0
0
0
0
0
0
0.0128211
0.00297868
0
0
0
0
0
0
0
0.00297868
0.207007
0.0238624
0
0
0
0
0.0650763
0.277802
0.555004
0.295729
0
0
0
0
0
0.00929661
0.062496
0.60667
0.13635
0.0548005
0.0236975
0.0106939
0.0219858
0.0175101
0.00958116
0.0517492
0.260895
0.0874513
0.0573584
0.0137758
0.011514
0.0127865
0.00813843
0.0190647
0.121392
0.621337
0.221994
0.0573094
0.0239375
0.0108546
0.0127305
0.00801561
0.00242131
0.0113378
0.303002
0.163905
0.0439029
0.0143625
0.01919
0.0218101
0.0176639
0.0169491
0.0440235
0.504459
0.110945
0.0224342
0
0.00488685
0.00482252
0.00188701
0.00471052
0.0633365
0.525876
0.215461
0.0358439
0
0.00353169
0.00662044
0.00463192
0.00797043
0.0591821
0.528874
0.125304
0.00316583
0
0.00663824
0.00427104
0.00306828
0.00650862
0.0371406
0.331337
0.164629
0
0
0.00717278
0.0098827
0
0.0121468
0.0830484
0.401592
0.206862
0.01377
0
0.000614818
0.00116108
0.00162667
0.0104674
0.0650283
0.295112
0.187619
0.0104351
0
0
0
0.000817262
0.0246265
0.352796
0.44771
0.170112
0.0168867
0
0.00229737
0.00344606
0
0.0059183
0.0462125
0.289454
0.250333
0.0281445
0
0
0
0
0.000373462
0.048155
0.521811
0.0879313
0.00113517
0
0
0
0.000656924
0.00979285
0.188942
0.434547
0.235405
0
0
0
0
9.38462e-005
0.00336515
0.0402583
0.47474
0.169378
0.00414536
0
0
0
0
0.00125949
0.0347982
0.378027
0.255163
0.0105512
0
0
0
0
0.0169422
0.0539434
0.443919
0.256892
0
0
0
0
0.000374086
0.00281964
0.00681438
0.439315
0.394084
0.00349682
0
0
0
0.00261861
0.0036435
0.00975303
0.474921
0.180419
0.00654177
0.000323955
0.0029156
0
0.00261861
0.0197375
0.0461603
0.333791
0.242105
0.0422089
0.0222575
0.00738771
0.0224415
0.0183302
0.0255045
0.0478418
0.319022
0.351222
0.00459662
0.000726035
0.00275158
0
0.00107061
0.00107533
0.00351121
0.401022
0.335144
0.0101403
0.0105365
0.00458597
0
0.00261211
0.00609491
0.00184436
0.514973
0.2069
0.0849916
0.0501976
0.0276302
0.0249407
0.00749428
0.00752731
0.0108651
0.220247
0.172188
0.171142
0.16525
0.0502215
0.00356296
0.00435351
0.0101582
0.00353744
0.309118
0.138205
0.0103781
0.00824083
0.000592286
0
0.00677601
0.0257849
0.0098427
0.49089
0.271487
0.0477919
0.00537252
0
0
0.00406561
0.0261101
0.0287546
0.49089
0.0952561
0.16619
0.149401
0.0170642
0.00102523
0.0121322
0.0429748
0.0129096
0.223837
0.341596
0.261748
0.121883
0.00184546
0.00717662
0.0126478
0.0482388
0.0281824
0.238704
0.383865
0.190394
0.00718603
0
0.00196096
0
0.00737508
0.012863
0.222182
0.288645
0.21778
0.00508031
0.00439358
0.0190284
0.0152837
0.125385
0.145404
0.357183
0.332755
0.285595
0.0649501
0
0.0291311
0.0136285
0.0264277
0.0439784
0.148622
0.148858
0.208259
0.0355621
0.0616826
0.226019
0.0708853
0.150556
0.115561
0.186296
0.132906
0.0268209
0.00484333
0.00666708
0.00980617
0.0144786
0.0982513
0.151252
0.306639
0.290822
0.00733988
0.002906
0.00276397
0.000717482
0.00206838
0.0123291
0.0384454
0.500284
0.119216
0.0498854
0.0525109
0.110693
0.138197
0.0376626
0.100376
0.0734999
0.191949
0.315517
0.0530114
0.0513547
0.0603068
0.0312381
0.00517135
0.0114948
0.0301339
0.503194
0.195985
0.00696568
0.00154258
0.0025062
0.00240437
0.0068262
0.000828036
0.0446744
0.444579
0.159259
0.00299253
0.000925548
0.00186438
0.00406485
0.00989825
0.00200235
0.0893127
0.499256
0.173454
0.00526552
0.00369498
0.0138565
0.00536495
0.0414327
0.03894
0.0803703
0.34042
0.127296
0.00145311
0.0144592
0.00445834
0.0109845
0.0518792
0.047325
0.182831
0.467934
0.186788
0.00557585
0.00237772
0.00102293
0.00110741
0.00139935
0.000807597
0.0272844
0.385867
0.356568
0.0206948
0.026246
0.00435573
0.00331836
0
0.00150718
0.0131354
0.417191
0.146129
0.0390046
0.0650524
0.0118161
0.00715472
0.00715569
0.0216395
0.0743181
0.326428
0.362518
0.139008
0.27683
0.0286007
0.00352475
0.000131795
0.00295404
0.0254935
0.306534
0.256531
0.0149721
0.0123927
0.00490776
0.000927692
0
0.000586117
0.00589757
0.278283
0.400234
0.0437488
0.00115019
0.00257358
0
0
3.69857e-005
0.0019342
0.434646
0.283678
0.0895004
0.112622
0.0399116
0.0189762
0.00881659
0.013351
0.0105025
0.225382
0.437507
0.113277
0.0101628
0.026838
0.0845821
0.0146943
0.0220415
0.00982668
0.307745
0.284162
0.0132964
0
0
0
0
0.000371968
0.00374173
0.312127
0.341277
0.00988373
0.00172733
0
0
0
0.0050036
0.0151974
0.405324
0.303731
0.0650771
0
0.000968959
0.0243469
0.00175365
0.00263048
0.00113153
0.278043
0.32443
0.217294
0.0635779
0
0
0
0
0.0018675
0.411007
0.149084
0.0110161
0.0210804
0.00359791
0
0.000857084
0.0182266
0.0752547
0.366839
0.109465
0.0438521
0.105009
0.0177958
0.0199664
0.00599959
0.0301271
0.163268
0.185458
0.124487
0.319054
0.246742
0.00866934
0
0
0.0196107
0.0777447
0.380303
0.098632
0.303779
0.443707
0.0623624
0.00285235
0
0.0362988
0.212931
0.162353
0.0699019
0.111558
0.181026
0.0348487
0.0263932
0.00291755
0.00930536
0.0654337
0.0339819
0.07663
0.292835
0.257719
0.0407181
0.00377045
0.000623495
0.00186435
0.00434206
0.0174654
0.11369
0.320389
0.386598
0.0484998
0.00377045
0
0.0106249
0.0977021
0.019067
0.132385
0.562362
0.339824
0.0149442
0.000538636
0
0.000682542
0.00614289
0.00508821
0.0539554
0.309558
0.186128
0.0133296
0.00094617
0.00218467
0.0053675
0.00146712
0.00501306
0.149755
0.395865
0.184663
0.00200668
0.0263036
0.0179332
0.0172813
0.0137593
0.0491625
0.116967
0.493857
0.136949
0.00170315
0.000135167
0.000110591
0
0
0.0161264
0.185841
0.493857
0.147135
0.00791674
0.126664
0.0288775
0.00710764
0.00710764
0.0820323
0.140634
0.151182
0.0560066
0.00688188
0.126582
0.0627101
0.0403408
0.0537026
0.085231
0.0358538
0.024732
0.0174223
0.0947236
0.350113
0.0907547
0.0575797
0.0513566
0.0374102
0.101969
0.122086
0.0554038
0.0371076
0.522121
0.112805
0.0232001
0.02468
0.0724897
0.0582653
0.00464869
0.0333803
0.224545
0.569215
0.117614
0.0475133
0.0181547
0.0115923
0.0351676
0.0156131
0.037724
0.148614
0.188844
0.0207963
0.0648725
0.0375842
0.0492059
0.119146
0.022686
0.0420037
0.0866053
0.0632703
0.00554013
0.0342043
0.0658631
0.243308
0.178364
0.00844621
0.0718802
0.235598
0.373025
0.0242072
0.0924242
0.105853
0.149982
0.38882
0.00690331
0.0428933
0.0824925
0.0625351
0.00480527
0.0554546
0.199971
0.550008
0.169208
0.0270934
0.0269784
0.0395194
0.0584132
0.097244
0.189319
0.106767
0.156481
0.130302
0.0603223
0.119966
0.0436067
0.0519761
0.116313
0.226387
0.15796
0.381102
0.125525
0.0792417
0.0340271
0.061141
0.105195
0.0815461
0.168675
0.0837917
0.106836
0.158576
0.420513
0.32217
0.106499
0.0792725
0.105931
0.153229
0.0339646
0.249397
0.0240515
0.0411352
0.15387
0.0631765
0.0252823
0.0242531
0.0365801
0.0342548
0.0842674
0.0534912
0.141139
0.423249
0.116813
0.0180377
0.0034405
0.00512014
0.0447564
0.0665843
0.0160728
0.164083
0.268944
0.185341
0.0569182
0.0374822
0.0158249
0.00325673
0.040202
0.00791732
0.176191
0.599255
0.372454
0.0820656
0.0195324
0.00215935
0.0272064
0.0254282
0.0652732
0.111545
0.194359
0.090996
0.0728942
0.0613469
0.0313872
0.0291849
0.110562
0.126211
0.201938
0.0507742
0.0489934
0.215569
0.102503
0.0833076
0.0135112
0.087595
0.0768546
0.157851
0.320459
0.13389
0.105471
0.15363
0.0543123
0.0283343
0.0688775
0.33547
0.548533
0.127376
0.0289768
0.140125
0.222139
0.143056
0.013401
0.108436
0.074799
0.255736
0.0598662
0.00283443
0.0391143
0.00941928
0.0138466
0.000447956
0.0311262
0.124931
0.489516
0.154844
0
0
0
0
0.000252685
0.0580124
0.104589
0.489516
0.168842
0.00170066
0.0165078
0.0185547
0.0234537
0
0.0179978
0.0966866
0.489516
0.248786
0.000739116
0.00665205
0
0
0.0067555
0.0133314
0.0741236
0.437874
0.215879
0.00688846
0
0
0.00255988
0.00809421
0.0372795
0.0834944
0.40794
0.314457
0.061892
0
0
0.0135483
0.0259848
0.0181909
0.138738
0.433125
0.196129
0.0196583
0.0190016
0
0
0.0178129
0.0282894
0.117719
0.272459
0.275339
0.0785441
0.011401
0
0.0619936
0.0544607
0.0993592
0.140255
0.368326
0.195819
0.0498242
0.00346917
0.000612207
0.0124666
0.0135953
0.0119721
0.15408
0.508688
0.182204
0.00855163
0.00585251
0.00102034
0.00167664
0.00104787
0.008479
0.0970376
0.275582
0.169461
0.0607837
0.00578195
0.00102034
0.0790907
0.0740409
0.167365
0.175773
0.421778
0.233517
0.0378471
0.0708976
0.00170057
0.015773
0.0246043
0.0950706
0.135981
0.553437
0.118624
0.00950716
0.00868644
0.000571195
0
0.015202
0.0284488
0.208425
0.294262
0.0786126
0.0290849
0.203642
0.0261337
0
0.0253366
0.0932137
0.10342
0.306709
0.277955
0.117454
0.0987818
0.00353043
0.0147285
0.0311189
0.0267678
0.118179
0.200436
0.173133
0.137376
0.295601
0.0388055
0.013181
0.0796981
0.0860657
0.0424357
0.0200279
0.0221764
0.0202088
0.358135
0.0505186
0
0.00205011
0.027824
0.0148009
0.000689639
0.0197511
0.0824347
0.519535
0.106308
0.00329589
0.000173469
0.00250568
0.0258699
0.022536
0.015581
0.0363452
0.477429
0.0404066
0.00129755
0.0164039
0.0341231
0.000972782
0
0.00326441
0.0385736
0.519535
0.142143
6.03672e-005
0.00114697
0.00423055
0.0894668
0.00566293
0.0621178
0.146934
0.506549
0.0898239
0.0121529
0.0296102
0.0645776
0.227871
0.00787794
0.0380019
0.0617367
0.0984593
0.0160132
0.00740443
0.0589059
0.356257
0.00751335
0.00192799
0.0104004
0.0526962
0.564423
0.194424
0.00124947
0
0.0048775
0.0341156
0.0048962
0.00847674
0.0307254
0.277442
0.0604501
0.0022703
0.000445669
0.0345631
0.0834815
0.0246426
0.0182573
0.0310044
0.0196747
0.0882101
0.0512911
0.0425837
0.194764
0.121813
0.2437
0.189658
0.0840415
0.0555068
0.223346
0.0695672
0.0241697
0.089932
0.227434
0.125882
0.00897404
0.0181852
0.0273834
0.172644
0.0479742
0.104928
0.260374
0.377322
0.255289
0.0692528
0.106708
0.0919553
0.393566
0.18194
0.209619
0.195135
0.0530707
0.211798
0.203537
0.111472
0.0394597
0.0413577
0.00814528
0.00348671
0.0186173
0.0289649
0.203964
0.489658
0.251032
0.0651899
0.0123276
9.43709e-005
0.00407354
0.00435952
0.172919
0.367428
0.143614
0.0559458
0.0492251
0.073104
0.0591708
0.0374768
0.0509041
0.100475
0.3643
0.340764
0.107072
0.0630037
0.0631425
0.0754072
0.0645716
0.0155417
0.0759991
0.203698
0.18081
0.0897221
0.0543836
0.0529883
0.0156197
0.00567535
0.00721273
0.2705
0.534228
0.0778149
0.0210232
0.0214792
0.0599623
0.0328021
0.00210723
0.0272945
0.0624233
0.174826
0.125024
0.149537
0.0802351
0.056953
0.0811406
0.0778179
0.0100906
0.1334
0.534228
0.0784926
0.130683
0.0405354
0.022642
0.113665
0.20986
0.042556
0.107989
0.514033
0.114852
0.00161219
0.00089388
0.00552675
0.0059542
0
0.00934769
0.0796388
0.514033
0.128655
0.0358129
0.031341
0
0
0.0106871
0.0388678
0.0519443
0.449249
0.0526068
0.0184962
0.00385998
0
0.0290998
0.12112
0.0448798
0.053141
0.3021
0.141294
0.155411
0.0466841
0.0120037
0.0103037
0.0377072
0.0420573
0.0897058
0.244421
0.148186
0.124925
0.110302
0.0353256
0.00652219
0.0351593
0.0795328
0.155099
0.124257
0.185108
0.125497
0.0772461
0.058876
0.0472448
0.10449
0.234432
0.0686877
0.153361
0.293124
0.245833
0.111008
0.0737566
0.0464763
0.0456456
0.0601369
0.470621
0.180602
0.236681
0.135928
0.0786306
0.100252
0.0769061
0.124997
0.290822
0.101478
0.14721
0.10793
0.0643671
0.011076
0.00881101
0.0435068
0.138738
0.23235
0.133861
0.196604
0.176382
0.0714225
0.121056
0.000304226
0.022065
0.0620513
0.136101
0.538154
0.131974
0.0607964
0.0823425
0.0167361
0.0143808
0.0135474
0.0832774
0.258062
0.436481
0.17059
0.134143
0.0719983
0.0733091
0
0.00998865
0.0486495
0.214306
0.0810823
0.152225
0.19866
0.119686
0.163722
0.0102262
0.0573721
0.0272771
0.0609967
0.0500959
0.10483
0.121456
0.119365
0.253259
0.0848672
0.0991496
0.163099
0.0816088
0.185468
0.375932
0.246195
0.0290899
0.106346
0.0111403
0.0347808
0.0224852
0.128595
0.145708
0.40622
0.14818
0.0332964
0.273247
0.125312
0.139709
0.209125
0.144556
0.0050933
0.00931198
0.0090188
0.0289485
0.384207
0.028167
0.0257901
0.0445583
0.0137172
0
0
0.000605611
0.0222183
0.522322
0.118933
0.0144326
0.00564322
0.00141108
0.0179696
0.0350824
0.00706207
0.0368227
0.419314
0.0508623
0.05233
0.0808632
0.020757
0
0
0.0067135
0.0874811
0.522322
0.184271
0.0498225
0.0207741
0.00191451
9.67037e-005
0.000158832
0.00025676
0.00517338
0.544852
0.205821
0.0421072
0.033271
0.0157651
0.0234573
0.0022117
0.00127468
0.00250338
0.192015
0.0937624
0.0290735
0.0523715
0.0916201
0.0175841
0.0126799
0.0423778
0.0847678
0.454073
0.251973
0.149231
0.120732
0.063189
0.154779
0.0446667
0.0478769
0.0262088
0.0889449
0.0918027
0.091808
0.179219
0.374016
0.135413
0.153037
0.107232
0.095389
0.0116191
0.0220552
0.0123423
0.0644033
0.0523213
0.17007
0.0795108
0.098744
0.206668
0.0293446
0.0430217
0.0424472
0.120652
0.0866611
0.0482529
0.168304
0.525418
0.263586
0.0310471
0.000183499
0.00436114
0.0270423
0.0295545
0.0786633
0.065163
0.485308
0.365286
0.0262441
0.00167047
0.00790838
0.0470215
0.0520027
0.181674
0.181258
0.0635577
0.132013
0.0700915
0.0474359
0.113584
0.0836533
0.118604
0.0702088
0.17127
0.0621036
0.0405651
0.0798251
0.109063
0.323099
0.275302
0.0712063
0.124808
0.0149076
0.115607
0.175769
0.0355926
0.00769699
0.0958159
0.105005
0.120995
0.0457505
0.00584501
4.44766e-005
0.0307423
0.0964454
0.0280135
0.527041
0.38616
0.119294
0.0143882
0.025046
0.0177029
0.0499521
0.0509922
0.0514812
0.150146
0.188116
0.0217736
0.018819
0.0916609
0.0176593
0.048779
0.0280838
0.0198082
0.179656
0.519353
0.0860116
0.0343321
0
0.000719986
0.0512691
0.0741955
0.0180153
0.24017
0.250862
0.0673388
0.124111
0
0.0050399
0.101613
0.0560623
0.00810468
0.214865
0.53941
0.237865
0.00689029
0.0594827
0.00589401
0.0125778
0.00492381
0
0.0649298
0.384157
0.0750376
0.0231339
0.0625741
0.0573059
0.111519
0.0448451
0.0298969
0.0326969
0.263623
0.0718936
0.0378559
0
0.00175269
0.0236509
0.0079394
0
0.118736
0.544175
0.162088
0.0217313
0.0277479
0.00355325
0.0258331
0.0252847
0.0183964
0.153787
0.544175
0.158283
0.0817473
0.144678
0.169193
0.103362
0.0353533
0.0438516
0.0251839
0.0939223
0.027687
0.325322
0.148081
0.187241
0.0276226
0.00825128
0.018138
0.0270185
0.0562665
0.103386
0.0677589
0.0881976
0.0365368
0.0192561
0.017353
0.0235075
0.121817
0.554708
0.0676023
0.114848
0.0802958
0.0686125
0.00588894
0.00134578
0.00701117
0.0571537
0.554708
0.0947359
0.425966
0.0538557
0.0431671
0.0179272
0.00902964
0.00567025
0.00655042
0.0218308
0.201197
0.289871
0.115467
0.171479
0.0639847
0.0964747
0.00202156
0.00102012
0.0558542
0.208699
0.103654
0.016876
0.0187769
0.0212738
0.0409894
0.0336701
0.0371538
0.281008
0.138058
0.0446828
0.105001
0.203898
0.293217
0.447379
0.195625
0.0584438
0.122292
0.0937593
0.056883
0.205046
0.258882
0.0289433
0.0549415
0.00078698
4.14202e-005
0.0184131
0.0350299
0.10737
0.271958
0.205276
0.0258227
0.155942
0.0504605
0.0325982
0.0775471
0.0334867
0.0108639
0.233752
0.320124
0.158817
0.233775
0.128453
0.0374193
0.0804832
0.0163238
0.0505948
0.2178
0.25541
0.0838681
0.508797
0.11462
0.0256704
0.10804
0.0180395
0.031632
0.0431746
0.0148733
0.0462284
0.30961
0.0567873
0.0276635
0.0475355
0.015426
0
0
0.0229722
0.133443
0.508245
0.0859515
0.0170142
0.00909811
0.00190964
0.015865
0.0172154
0.0181397
0.0549673
0.508245
0.0916549
0.0120253
0.0238617
0.00373471
0
0
0.0193969
0.116458
0.508245
0.119354
0.0017179
0.000506639
0.000272805
0.0528102
0.0415731
0.131376
0.202019
0.327321
0.0771351
0.0491902
0.0394735
0.0216039
0.303403
0.122387
0.128861
0.0858498
0.0574643
0.0152622
0.0295141
0.0570771
0.153214
0.0325945
0.0357742
0.13153
0.260032
0.586362
0.0876692
0
0
0
0.191245
0.110338
0.148586
0.167539
0.248068
0.0101496
0.00025067
0.000771633
0.0255268
0.0128333
0.0916131
0.572008
0.221987
0.0233143
0.00544237
4.76819e-005
1.5894e-005
0.00622362
0.020589
0.0409298
0.3602
0.160286
0.0257973
0.0039522
0.00105798
0.00117548
0.00871103
0.0128067
0.0332987
0.572008
0.203543
0.0166746
0.00872989
0.00137982
0.000111258
0.00254802
0.0196525
0.0153735
0.151444
0.07494
0.0149193
0.00252823
0.0030675
0.000905253
0.00315407
0.0427196
0.021958
0.086777
0.0852654
0.0409703
0.00598846
0.0353741
0.0494981
0.0260154
0.0204153
0.0421363
0.123223
0.128035
0.0638952
0.0330358
0.371449
0.184813
0.0347703
0.0181512
0.0662674
0.166992
0.140825
0.0442181
0.00359308
0.00361475
0.00441777
0.00336064
0.0767961
0.476269
0.503374
0.339611
0.0338747
0.0169278
0.0799221
0.0203981
0.00126579
0.023325
0.0133075
0.0497511
0.136358
0.125992
0.026665
0.146779
0.0798315
0.0292793
0.126127
0.00218807
0.0324185
0.308808
0.236637
0.0203691
0.106394
0.360316
0.178229
0.0187914
0.130623
0.203602
0.187125
0.194347
0.03364
0.0521803
0.00850432
0.00190094
0.0224231
0.0169284
0.0993863
0.33143
0.49159
0.155943
0.100046
0.0695789
0.0571869
0.0402534
0
0.00403085
0.0616737
0.0422251
0.00174903
0.09228
0.495596
0.132636
0.00873375
0.00222007
0
0
0.00142294
0.00114176
0.125509
0.495596
0.183546
0.0194334
0
0.00241851
0.0588281
0.113058
0.0568865
0.0557788
0.210275
0.0881817
0.0419453
0
0
0
0.00606055
0.00430291
0.0566346
0.495596
0.226631
0.00598108
0.00433512
0
0
0
0.00247253
0.0730947
0.468935
0.0713546
0.0111871
0.00548898
0
0
0.000349733
0.00251808
0.0952287
0.468935
0.0534979
0.01139
0.000442435
0
0
0
0.00148352
0.0728884
0.468935
0.107992
0.00929114
0.00309705
0
0
0.00244813
0.00456231
0.135798
0.468935
0.125682
0.00568294
0.00155447
0
0.0036275
0.014483
0.0184269
0.0631486
0.402045
0.0809531
0.000573591
0.0153786
0.0152799
0.0535517
0.161924
0.134232
0.106047
0.293397
0.0936187
0.00630927
0.0019304
0
0
0.00966834
0.0168808
0.112496
0.515198
0.107324
0.0145056
0.00362639
0
0
0.0244009
0.0598673
0.203687
0.515198
0.146121
3.90182e-005
0.0468373
0.0430453
0.0535733
0.148473
0.125564
0.158199
0.22702
0.0509607
0.00389106
0.0385155
0.0396569
0.103074
0.343809
0.0789907
0.0933746
0.201961
0.094361
0.00552346
0.00138086
0.000182351
0.00393776
0.0192595
0.0434755
0.255835
0.472006
0.115628
0.0494101
0.0481088
0.00955229
0.105532
0.113896
0.0246845
0.214912
0.472006
0.174512
0.00398968
0.00698188
0.00436093
0.0690896
0.462886
0.0708339
0.0083736
0.0289834
0.0264111
0.000569954
0.000854931
0.00186118
0.0465723
0.521117
0.0721752
0.00157225
0.00106355
0
0.0506623
0.0621062
0.0236113
0.12656
0.311351
0.0710622
0.0587663
0.14431
0.0522401
0.00723748
0.0181133
0.0142854
0.0846637
0.521117
0.110916
0.0126111
0.00985283
0.00139192
0.000191879
0.00230484
0.0144895
0.0844437
0.571164
0.0394236
8.01675e-005
0.000454282
3.22051e-005
0.00462446
0.00947512
0.0217394
0.0626515
0.290708
0.00659011
0.000566404
0.000399214
0.00292292
0.00164961
0
0.000190367
0.0559064
0.571164
0.0804161
0.000561173
0.00317998
0.00152653
0.0125549
0.000300013
0.000605398
0.0290198
0.425191
0.0415906
0.0027876
0.000929199
0.0116184
0.0221398
0.0441351
0.386528
0.222607
0.0230547
0.0224997
0.011881
0.00126144
0.00293048
0.0266497
0.0255584
0.195113
0.0686766
0.0151115
0.0143137
0.010895
0.000860406
0.00508984
0.0341943
0.0345616
0.0945982
0.097095
0.0504712
0.0461936
0.0254916
0.00881143
0.0017768
0.00885478
0.105458
0.771774
0.105545
0.0412046
0.0299605
0.0153173
0.00116225
0.000670006
0.00983504
0.0500151
0.243015
0.103117
0.0140321
0.000693079
0.000765756
0.000156241
0.000632758
0.0546815
0.357118
0.314613
0.148682
0.00926286
0
0.00245841
0.00201143
0.00208672
0.00254242
0.0616069
0.611276
0.102643
0.0047462
0.00145899
0.00343976
0.00285336
5.54609e-005
0.0254836
0.186244
0.406159
0.108861
0.00380391
0.0131226
0.0378218
0.0340535
0.00654104
0.0316288
0.191385
0.151365
0.0755359
0.109186
0.0365291
0.0289359
0.0038631
0.00461873
0.00936004
0.03252
0.067633
0.0871558
0.331244
0.35376
0.188591
0.0181713
0.00386478
0.0407812
0.11872
0.0545688
0.0214965
0.0661016
0.061398
0.0354144
0.0190633
0.0147244
0.0269359
0.0434035
0.0127575
0.0201882
0.51216
0.517468
0.0955542
0.0108947
0.00883461
0.0118224
0.00234048
0
0.0200719
0.199444
0.338431
0.098783
0.0375548
0.0237677
0.0396553
0
0
0
0.0382029
0.0364351
0.0170924
0.229921
0.103617
0.00210043
0.0039008
0
0.00852284
0.593373
0.540258
0.0479546
0.00484158
0
0
0
0
0
0.179814
0.0647187
0
0.00321077
0.000356751
0.0105914
0.000151351
0
0
0
0
0.0464581
0.45174
0.0846912
0.016657
0.00130924
0
0
0.00227648
0.00341472
0.109419
0.763995
0.222071
0.00130022
0
0
0
0.000245304
0
0
0.0340153
0.0109905
0.0268901
0.00673171
0.00270841
0.00944291
0.00402297
0
0.0104337
0.242761
0.0712153
0.00826118
0.00109278
0
0
0.00318211
0.00477316
0.0593032
0.514176
0.0809751
0.0160856
0.00401196
0
0
0.00190926
0.00801232
0.0914882
0.514176
0.153854
0.0181285
0.00772838
0.00552186
0.00889506
0.00151057
0
0.0095039
0.256854
0.0669211
0.0128234
0.0182374
0.0147085
0.00747886
0.00016939
0.00159669
0.0220897
0.514176
0.203101
0.00571211
0.00113866
0
0
0
0.00791287
0.102519
0.45594
0.0806136
0.0383018
0.0286507
0.00736508
0.0173679
0.00396067
0.00597097
0.186433
0.445411
0.0770187
0.00401432
0.00946566
0.00387098
0.00137331
0
0.00353295
0.0680185
0.463451
0.093546
0.0223385
0.0109568
0.00147645
0.00145645
0
0.00211977
0.156949
0.463451
0.138142
0.0545903
0.0888115
0.0346576
0.0819731
0.08255
0.0385198
0.11126
0.177622
0.0601831
0.0158839
0.0672315
0.0299419
0.134246
0.493186
0.0997023
0.0130315
0.0162382
0.0214444
0.0544873
0.0698125
0.0186918
0.0275096
0.0135709
0.00418947
0.120465
0.493186
0.172688
0.105796
0.184642
0.0727707
0.264347
0.332736
0.0294868
0.0273632
0.223629
0.139206
0.00438899
0.00682716
0.00228788
0.0717283
0.518091
0.117451
0.000206879
0.00117231
0.0038025
0.0287952
4.0688e-005
0.000606674
0.02344
0.295013
0.0851693
0.00725685
0.00222257
0.027233
0.039701
0.074405
0.0521043
0.370305
0.518091
0.0561954
0.000379699
0.0143586
0.028558
0.0570018
0.00463746
0.00682382
0.167119
0.331452
0.0604982
0.00764042
0.00350818
0.0237422
0.00642578
0.0331005
0.118646
0.0450854
0.0121221
0.00916046
0.00659532
0.00303682
0.000980529
0.000382066
0.106042
0.506648
0.0782323
0.00912474
0.00524325
0.00307011
0.000230216
0
0.0154237
0.269774
0.361256
0.0769196
0.0135191
0.00235497
0.0127806
0.00582565
0.00205544
0.0287625
0.291997
0.575976
0.0865499
0.00224137
0.0130812
0.0693609
0.0389105
0.010948
0.00233037
0.1153
0.6624
0.0610514
0.00770584
0.0163198
0.015042
0.00438753
0
0.0244629
0.0822864
0.286391
0.0434027
0.0638095
0.0930105
0.0783688
0.0386775
0.0055113
0.0272578
0.137485
0.404184
0.0496088
0.0263145
0.0820751
0.135437
0.0413522
0.00703509
0.0319655
0.0819889
0.191975
0.100862
0.183934
0.142659
0.0949904
0.0162029
0.000685666
0.0343635
0.0343355
0.0190122
0.00783866
0.0490063
0.101224
0.0281436
0.011108
0.00845419
0.0242857
0.0145601
0.00215231
0.00611051
0.440675
0.439905
0.0162933
0.00103776
0.00507251
0.0307323
0.0305769
0.0550321
0.0641995
0.0773206
0.0808046
0.0213709
0.00203651
0.00105179
0.039942
0.0211465
0.0158519
0.0826112
0.484309
0.512627
0.0205249
0.000659441
0.000631077
0.000875751
0.00037911
0
0.00208967
0.468784
0.252854
0.00255204
5.23327e-005
0
0
0
0
0
0.156173
0.0246351
0
0
0
0.0047013
0.00216172
0.001164
0.0219906
0.653317
0.358606
0.00354941
8.72211e-005
0
0
0
0
0
0.262245
0.0419726
0
0
0
0.00179472
0
0
0
0.027634
0
0
0
0.00179472
0.12352
0.163119
0.0276239
0.175641
0.281863
0
0.0253447
0.0318881
0.0640788
0
0
0
0
0.0630846
0
0
0
0
0.148729
0.113563
0.00394627
0.145976
0.518668
0
0.201872
0.0604251
0.098859
0.136433
0.10627
0.0496627
0.0973033
0.100776
0
0.00935373
0.087202
0.0942885
0.126843
0.170548
0.152639
0.0704437
0.100754
0
0.0162577
0.625288
0.312169
0.170342
0.0745737
0.0425636
0.0821596
0.171754
0
0.0745028
0.0223005
0.0720911
0.129309
0.0689482
0.102304
0.0606621
0.204644
0
0.0106433
0.00876528
0.0390531
0.00565527
0.0256382
0.0144274
0.00546404
0.00584292
0
0.0235141
0.437537
0.0819357
0.011497
0.00300486
0.000225152
0.000418139
0
0
0.0593189
0.773001
0.283385
0.0022724
0.00545838
0.00730426
0.00360047
0.0136845
0
0
0.0269078
0.0131511
0.00837717
0.000429265
0.000135091
0.000250883
0
0
0.00292807
0.165047
0.120516
0.0272873
0.0134229
0.00231055
0.000386833
0
0
0.0447764
0.535949
0.247258
0.159372
0.160438
0.0746794
0.177785
0.0798132
0
0.0224066
0.327124
0.395094
0.0122944
0.000842172
0
0
0
0
0.00508184
0.15668
0.176333
0.128634
0.0556522
0.0225614
0.0326194
0.011889
0
0.0030491
0.123039
0.381024
0.152948
0.192432
0.123094
0.538171
0.287311
0.000799459
0.00242561
0.0456806
0.177587
0.0572421
0.0219748
0.0173062
0.288526
0.322662
0.0330433
0.0172348
0.0125882
0.00524268
0.183381
0.0911541
0.0393415
0.143773
0.136186
0.00269604
0.00295807
0.0254767
0.197968
0.0386786
0.0166532
0.00562021
0.143247
0.320694
0.0294576
0.0207065
0.0217116
0.00402065