0.0661258
0.221688
0.361503
0.149778
0.0666712
0.0843533
0.0401061
0.070922
0.0826854
0.0705203
0.0476379
0.0390798
0.0661325
0.0642712
0.151115
0.153965
0.15745
0.371485
0.176743
0.236253
0.120966
0.102462
0.152252
0.121873
0.0369739
0.123905
0.154326
0.102782
0.139341
0.0176734
0.0863858
0.0913063
0.310924
0.24314
0.0900819
0.171184
0.041755
0
0.00172374
0.0155137
0.00525064
0.0292976
0.0689634
0.221885
0.297506
0.169303
0.00708462
0.00465453
0.00331831
0
0.00522751
0.0284997
0.318272
0.473207
0.132914
0.0781612
0.00103425
0.0151498
0.0138344
0.0747792
0.109443
0.0848838
0.220206
0.24772
0.0478637
0.00939559
0.00749497
0
0.0231997
0.0372529
0.15579
0.469395
0.174543
0.00576771
0.0113689
0.00543524
0
0.00156562
0.00362004
0.0812223
0.322217
0.122382
0.00656534
0.0155141
0.00843021
0.00100084
0.00774957
0.0228049
0.115275
0.399055
0.226671
0.0332475
0.00752882
0.00501921
0
0.00694822
0.00839594
0.0546704
0.353516
0.408554
0.0394649
0.00157959
0.00071703
0.0106762
0.0194623
0.0406663
0.104371
0.479062
0.0356854
0.0291963
0.0445235
0.019176
0.0587181
0.0871097
0.109795
0.0933121
0.182211
0.00956961
0.0276598
0.0523318
0.112199
0.448479
0.184125
0.0999352
0.00953985
0.0123231
0.224574
0.0577476
0.0428531
0.0709613
0.066527
0.10479
0.153133
0.128276
0.20961
0.0627548
0.0760818
0.107338
0.402474
0.448967
0.129341
0.100741
0.0242262
0.0130838
0.00136111
0.00311709
0.0104987
0.138313
0.428133
0.113851
0.0279043
0.00713312
0
0
0
0.0063544
0.0922845
0.204082
0.0851074
0.0686711
0.0538602
0
0.00952778
0.0140676
0.0523009
0.348409
0.582043
0.0418012
0.0160338
0.0119959
0
0
0
0.0338248
0.129242
0.249519
0.130067
0.144632
0.0863283
0
0.061703
0.0211033
0.0365998
0.086145
0.161434
0.063292
0.113473
0.0887381
0.051306
0.306483
0.0410981
0.0377985
0.0357842
0.061853
0.0216478
0.0999452
0.150747
0.332857
0.0888007
0.0372038
0.0686502
0.106894
0.191492
0.29402
0.18336
0.0810655
0.0254525
0.377996
0.0868728
0.0825899
0.116129
0.10856
0.0932501
0.0987132
0.152272
0.22911
0.223283
0.0156908
0.0060458
0.0161009
0.00303714
0.0167759
0.0673847
0.14377
0.31924
0.187148
0.0270601
0.0276538
0.0215982
0.0225483
0.0524696
0.066564
0.151542
0.221102
0.215264
0.0392696
0.049316
0.122992
0.0149666
0.0405948
0.133844
0.254245
0.259674
0.101614
0.07565
0.139619
0.301113
0.0740393
0.112487
0.171392
0.249083
0.172945
0.0861173
0.0319825
0.0398756
0.029431
0.124234
0.101672
0.0601522
0.0964896
0.113534
0.043345
0.0445347
0.0132953
0.0297426
0.179962
0.190611
0.093094
0.0559782
0.0746071
0.07755
0.119031
0.11013
0.226711
0.186844
0.121291
0.0897577
0.0936962
0.126239
0.216355
0.281526
0.0618938
0.165128
0.240249
0.119092
0.0525552
0.10553
0.397748
0.0538963
0.0326599
0.00371827
0.0125495
0.100712
0.0949113
0.0462538
0.0210971
0.0769396
0.0368487
0.03144
0.0323114
0.0542458
0.0930117
0.00619614
0.0182777
0.0183396
0.046076
0.22473
0.166241
0.0116167
0.0344135
0.0865934
0.125923
0.171212
0.238576
0.497203
0.04305
0.0346179
0.0368279
0.0820905
0.0986667
0.204714
0.192812
0.152562
0.207447
0.0830677
0.112772
0.243303
0.181434
0.19411
0.0761234
0.00861467
0.0371983
0.0653865
0.231363
0.235741
0.0273916
0.120245
0.0948661
0.169222
0.0775298
0.0240256
0.120915
0.0367173
0.147105
0.429588
0.251263
0.0421328
0.0196419
0.00935212
0.00567617
0.01641
0.242965
0.385993
0.116887
0.124742
0.03642
0.0538021
0.0456095
0.0113189
0.0651032
0.234495
0.178495
0.00757753
0.00777471
0.0134877
0.0517664
0.0372547
0.0173417
0.138111
0.244848
0.114725
0.0360748
0.0797838
0.086454
0.110927
0.0425496
0.0328753
0.296662
0.177015
0.17872
0.0559913
0.0272818
0.0275982
0.0473088
0.0304545
0.00890401
0.0727428
0.108915
0.1009
0.0861657
0.416345
0.522982
0.164301
0.0299469
0.0082673
0.117091
0.155138
0.0784197
0.0217
0.0625651
0.044378
0.027544
0.0125467
0.028011
0.248608
0.297352
0.0673232
0.00383738
0.015911
0.0172758
0.0103696
0.0609763
0.157975
0.355709
0.0768556
0.0898129
0.0308077
0.304856
0.346965
0.0443236
0.0238893
0.0313043
0.18756
0.157207
0.0671749
0.00883066
0.097429
0.109675
0.0412714
0.248023
0.274879
0.343329
0.167077
0.0410857
0.0108722
0.0536274
0.0937806
0.0844279
0.125306
0.171181
0.147492
0.0295348
0.0457888
0.0459241
0.302406
0.345973
0.146569
0.0662464
0.0396956
0.018861
0.155982
0.0892419
0.00144654
0.0234091
0.10005
0.0673976
0.278648
0.306153
0.251348
0.125191
0.135512
0.0486464
0.243342
0.291766
0.110054
0.198419
0.0958578
0.132822
0.00461172
0.0101948
0.0510766
0.337047
0.475305
0.0724374
0.0152997
0.00441318
0
0
0
0.0277404
0.104358
0.265587
0.174563
0.0889923
0.0308922
0
0.0240634
0.0310375
0.0806833
0.282569
0.302812
0.129559
0.150796
0.0638722
0.0432885
0.00629285
0
0.0440909
0.153702
0.289469
0.168503
0.0772914
0.0735517
0.0513267
0.0466483
0.0103116
0.0134633
0.0676996
0.253215
0.311204
0.0950952
0.0248654
0.00896391
0.183018
0.0327914
0.0170202
0.0760246
0.132293
0.137961
0.144312
0.144307
0.0898952
0.0709703
0.0575311
0.0303879
0.221359
0.400105
0.163224
0.0732951
0.0221942
0.0809973
0.286977
0.11917
0.1372
0.199585
0.165913
0.110112
0.109304
0.0705918
0.0909872
0.163415
0.0331326
0.0701195
0.181327
0.0161156
0.0250092
0.113873
0.13405
0.0855498
0.0850844
0.0855453
0.242447
0.430584
0.0507502
0.0283124
0.0567306
0.0603017
0.066064
0.352558
0.0724373
0.148423
0.164903
0.0150047
0.0186413
0.0604109
0.0620688
0.0699536
0.187882
0.0886882
0.196662
0.358163
0.0797906
0
0.00813112
0.0221253
0.068805
0.0302235
0.0871699
0.105117
0.145821
0.0815616
0.0757529
0.0347876
0.033467
0.098583
0.112455
0.184283
0.0207647
0.0865859
0.186473
0.167214
0.135894
0.174735
0.206056
0.00938333
0.033122
0.0682294
0.12448
0.114239
0.110406
0.0333524
0.0603198
0.0629255
0.0288145
0.0460726
0.0110715
0.0392922
0.153291
0.267407
0.296089
0.511642
0.110289
0.0692112
0.0668851
0.00162409
0.0167107
0.0459334
0.164461
0.146453
0.170365
0.122734
0.0132086
0.00608185
0.00170925
0.00794714
0.0275719
0.252285
0.195379
0.118286
0.0494432
0.0233673
0.0234439
0.00442022
0.00867651
0.0347933
0.214083
0.26338
0.351469
0.126058
0.0490475
0.00424847
0.000631461
0
0.0166311
0.285152
0.405129
0.296969
0.141733
0.0191857
0.119636
0.457428
0.248469
0.0296607
0.055607
0.0574299
0.0190843
0.0147145
0.0922809
0.203782
0.149165
0.144385
0.0534577
0.196677
0.187882
0.0395419
0.0178171
0.00457098
0.147434
0.27537
0.115972
0.059948
0.0890232
0.0889543
0.0593453
0.00210207
0.0933372
0.146399
0.103777
0.106273
0.0919558
0.215285
0.250713
0.135354
0.0125193
0.0290711
0.0373841
0.0294854
0.0429172
0.0253909
0.0467612
0.0440985
0.00760296
0.0193471
0.0236763
0.0210938
0.0404743
0.359071
0.36914
0.0458957
0.0290796
0.00321452
0.0287655
0.0389886
0.0299756
0.0332214
0.0614813
0.0755597
0.0358011
0.05018
0.0150388
0.00579738
0.0185724
0.0112776
0.0226295
0.293202
0.723183
0.0789495
0.0401211
0.00128365
0.00414171
0.0402486
0.0221135
0.0176015
0.262902
0.332077
0.0292753
0.00863644
0.00430088
0.027298
0.150712
0.0519677
0.044502
0.101182
0.127899
0.0450151
0.0964645
0.0943943
0.106123
0.0159814
0.00906801
0.0178607
0.240332
0.574316
0.0831076
0.00423375
0
0.000608053
0.144545
0.0879115
0.120602
0.313413
0.336984
0.041746
0.00738954
0.0390338
0.0787593
0.118063
0.0344049
0.0147442
0.0123347
0.0126811
0.0193163
0.106818
0.156675
0.141617
0.0765118
0.0305161
0.00850104
0.0407733
0.0289256
0.00873674
0.229862
0.22764
0.0950501
0.11076
0.0520032
0.0501588
0.0850188
0.0550859
0.0067191
0.0570658
0.250301
0.169225
0.0231952
0.00500806
0.00192592
0.00285612
0.00302482
0.00284353
0.345139
0.694409
0.111109
0.00958226
0.00446092
0.0101744
0.0273775
0.0237588
0.0211429
0.148714
0.19385
0.0226043
0.0264761
0
0.0134081
0.0216103
0.0342888
0.0317104
0.0468733
0.153732
0.0728178
0.0139295
0
0.000250759
0.00107313
0.00191078
0.00655567
0.277742
0.631566
0.0380537
0.0578368
0
0.00175531
0.000896669
0.00276587
0.0114269
0.124204
0.557602
0.149466
0.106789
0.0246033
0.0172251
0.049234
0.076991
0.0411555
0.0492751
0.0897592
0.195834
0.135064
0.0735333
0.0854135
0.044977
0.0230854
0.0534589
0.0741523
0.0485142
0.106613
0.112548
0.00338573
0.00246073
0.00134486
0.00852414
0.0789784
0.118532
0.538417
0.317871
0.0655369
0.0317919
0.0204858
0.00315462
0.00576495
0.208095
0.232738
0.43809
0.131818
0.27966
0.141395
0.172958
0.060629
0.00473397
0.0317796
0.0590831
0.022582
0.0638309
0.17229
0.132235
0.0903158
0.135364
0.0618938
0.00456578
0.00271831
0.00892459
0.0635437
0.112377
0.103248
0.0547268
0.0159782
0.00180468
0.16738
0.348479
0.435192
0.035426
0.14536
0.184455
0.0720729
0.0323362
0.0103179
0.0456646
0.123904
0.108038
0.0595064
0.0186601
0.0358967
0.0208197
0.0765002
0.0860527
0.060673
0.01908
0.0316263
0.0294678
0.0511238
0.0460612
0.052969
0.0769546
0.101487
0.112373
0.158884
0.250141
0.0917579
0.199649
0.12794
0.0259994
0.025282
0.0264639
0.0342201
0.0144701
0.0176877
0.0473851
0.353861
0.189892
0.0649838
0.208692
0.543732
0.0857315
0.0242935
0.0183405
0.0632578
0.06042
0.0300192
0.0485656
0.0331619
0.0189034
0.0385419
0.0923716
0.0966921
0.107772
0.252697
0.0465886
0.0341656
0.011586
0.00394927
0.0608097
0.129476
0.108998
0.32315
0.107499
0.0743847
0.119662
0.189813
0.282634
0.030781
0.0111758
0.0122304
0.0638903
0.510056
0.199681
0.153462
0.184683
0.121218
0.0190228
0.0124471
0.026251
0.332253
0.00144886
0.0493581
0.0556059
0.0438582
0.0337865
0.105738
0.126129
0.0906035
0.00388603
0.0871706
0.121704
0.0591148
0.0657371
0.0500279
0.134086
0.139864
0.125213
0.0278041
0.00684407
0.068546
0.218486
0.0728453
0.0792343
0.268524
0.137031
0.141623
0.0272022
0.0949786
0.193157
0.21782
0.122997
0.146916
0.430245
0.1523
0.352814
0.0868186
0.0296581
0.0269913
0.0355087
0.0673196
0.0412119
0.0108069
0.0224491
0.0130444
0.00591909
0.00729071
0.00866205
0.0351689
0.306101
0.486601
0.0280209
0.00781647
0.00218484
0.000877281
0.0284807
0.0840838
0.0840955
0.115796
0.0655347
0.0764072
0.0319312
0.0408156
0.00826596
0.00450493
0.0425991
0.100745
0.583813
0.424632
0.0345779
0.00496661
0.00385748
0.000300582
0
0.000848401
0.0051341
0.160245
0.384204
0.0291829
0.000464444
0
0
0.0169662
0.0164301
0.032212
0.196295
0.398334
0.0194982
0.000450412
0.00522729
0.0202863
0
0.000647865
0.00810228
0.296208
0.363626
0.00410475
0
0
0
0.000424166
0
0.00166347
0.220965
0.543333
0.0210849
0.00116055
0.00251167
0.00295956
0.0388838
0.0279402
0.0408007
0.122974
0.237975
0.0132833
0.0420012
0.150772
0.118673
0.0289871
0.0125915
0.00453035
0.00599111
0.0108268
0.00230013
0.283019
0.690245
0.0986033
0.00385687
0.000963967
0.00789688
0.098381
0.392596
0.0389386
0.0156904
0.0328284
0.0217584
0.0401733
0.0229851
0.0118525
0.0204819
0.0293856
0.00838023
0.0581092
0.191197
0.0303348
0.0209295
0.0037717
8.00921e-005
0.000323536
0.00144119
0.00133323
0.152816
0.449632
0.0469472
0.0266016
0.000419122
0
0
0.000855578
0.0201976
0.222865
0.471603
0.0897015
0.0274789
0.0147247
0.00315189
0.00425477
0.0106047
0.00342965
0.0977074
0.22481
0.0246629
0.0181529
0.00633918
0.000620392
0.000748972
0.00598905
0.0338352
0.341136
0.487001
0.0685159
0.0138285
0
0
0
0.000417397
0.0240125
0.112781
0.24031
0.0634346
0.00598766
0.000660593
0.000401157
0.000103276
0.000695661
0.029108
0.114648
0.312994
0.0351468
0.00654441
0.000363316
0
0
0
0.0234084
0.191838
0.454001
0.0880836
0.00299462
0
0
0
0
0.00271979
0.288588
0.638883
0.0608383
0.00537757
0.00377829
0.00111792
0.000473272
0.000158717
0.0311337
0.1543
0.26382
0.0139811
0.0338933
0.0427378
0.0343133
0.0014635
2.73558e-005
0.0323714
0.0738387
0.0937411
0.0305339
0.00671613
0.00802462
0
0
0.00496024
0.0293191
0.398976
0.65913
0.0371149
0.0780664
0.0850642
0.0505305
0.0118203
0.074253
0.0885471
0.17825
0.350993
0.0953531
0.197071
0.127892
0.0748478
0.0019083
0.00130188
0.00908329
0.00843028
0.0241817
0.0482226
0.368375
0.136462
0.03616
0.0308574
0.258859
0.0357958
0
0.0119459
0.126013
0.24538
0.158668
0.117958
0.0465178
0.104439
0.068538
0.0306845
0.112579
0.226446
0.344934
0.14859
0.107222
0.0616421
0.197768
0.068022
0.00358822
0.115182
0.398751
0.0674666
0.0248215
0.0286376
0.0992303
0.319788
0.0424571
0
0.000909175
0.0391901
0.126823
0.070225
0.0668212
0.191451
0.263737
0.0275476
0
0
0.025902
0.0592965
0.0301709
0.0404731
0.0923875
0.40391
0.0502537
0.000918299
0.0176074
0.0869277
0.0207723
0.0267753
0.0485219
0.16629
0.647789
0.103842
0.000705107
0.000563666
0.0048602
0.0151552
0.101891
0.210041
0.0327293
0.0297302
0.100141
0.0547568
0.0347682
0.0135191
0.0714811
0.0399466
0.138496
0.0618596
0.114023
0.23036
0.166974
0.169471
0.0439571
0.0756658
0.116489
0.345766
0.155238
0.123114
0.0437094
0.082101
0.0576169
0.0884534
0.121538
0.0534758
0.215522
0.162236
0.249515
0.178769
0.260872
0.425936
0.160046
0.0393501
0.0258144
0.0320684
0.116955
0.130052
0.0830394
0.0352811
0.0464593
0.0121773
0.00558026
0.0136694
0.0293611
0.405425
0.364277
0.0359185
0.00186459
0.00342408
0.00127187
0.065823
0.0519701
0.0516558
0.18009
0.18307
0.0622294
0.0430273
0.123549
0.040537
0.0170884
0.0335727
0.0389657
0.510657
0.46649
0.0140282
0.000221179
0.00804366
0.00463796
0
0.000281094
0.00289241
0.270109
0.288223
0
0
0
0
0
0
0
0.240722
0.382059
0.0107999
0.000603214
0.00449914
0.000670655
0
0.000986111
0.00243938
0.321801
0.409397
0
0
0
0
0
0
0
0.294329
0.461477
0.00561093
0.000345936
0.00358109
0.00212929
0.000488411
0.000325608
0.00405703
0.228302
0.556621
0.0497451
0.0286004
0.0688012
0.0115998
0.0185363
0.0324906
0.0237453
0.0350253
0.0405816
0.0143254
0.0504717
0.0820061
0.0271981
0.00171858
0
0
0.265213
0.527014
0.0280879
0.0295544
0.0737162
0.0348119
0.0037656
0.0167636
0.00869724
0.0141233
0.0224488
0.0136263
0.0609642
0.1297
0.0895975
0.0508923
0.0509021
0.021008
0.0263629
0.0193758
0.00821005
0.0840859
0.109654
0.0286449
0.0627479
0.0354644
0.00625661
0.00859783
0.0135606
0.0221243
0.299783
0.73964
0.183014
0.0214751
0.02598
0.0106612
0.0137067
0.0109655
0.0127223
0.0326315
0.0600521
0.0700756
0.133715
0.0759717
0.019563
0.00515869
0.0297926
0.0072135
0.0213344
0.142776
0.143744
0.00385258
0.00399612
0.000212227
0
0.0003555
0.00469678
0.098007
0.382828
0.0719427
0.00286322
0.00259959
6.52543e-005
0
0.00167342
0.00397543
0.303497
0.690254
0.0580768
0.040147
0.0627918
0.0306887
0
0.0024885
0
0.0224949
0.0925051
0.0253775
0.172396
0.152953
0.0586796
0
0.0117139
0.024008
0.0820277
0.312506
0.0468244
0.0150246
0.00262042
0
0
0.0103014
0.0250495
0.215889
0.522835
0.0572659
0.0592745
0.0365831
0.00617303
0.0195343
0.0840039
0.0809656
0.149328
0.316376
0.110996
0.222289
0.120205
0.0257726
0.00603445
0.0442669
0.106699
0.0678398
0.347759
0.0678391
0.191728
0.149663
0.0878169
0.122142
0.213397
0.169545
0.103092
0.238131
0.0933328
0.135936
0.0536076
0.0150805
0.0582053
0.108283
0.0762913
0.0587882
0.120735
0.232869
0.106218
0.0379984
0.0393007
0.0506219
0.117354
0.0610276
0.0304358
0.186889
0.205665
0.248665
0.261247
0.110771
0.169797
0.199912
0.115742
0.0622792
0.0982691
0.186585
0.145753
0.369644
0.28594
0.0568111
0.247523
0.113593
0.0561062
0.189092
0.130007
0.0116604
0.0184874
0.0323619
0.0569419
0.270065
0.0874328
0.0182803
0.0561712
0.0299671
0.00379282
0.00716043
0.0184586
0.0734279
0.507686
0.245757
0.0190109
0.00277263
0.0014281
0.00903922
0.126254
0.255189
0.0763035
0.245559
0.13239
0.0289975
0.0579096
0.00756462
0.0341154
0.0501623
0.157703
0.0819265
0.340365
0.394444
0.0560614
0.00856761
0.0149377
0.218814
0.0688744
0.132326
0.128695
0.107217
0.00885522
0.0119434
0.0275665
0.120594
0.188188
0.101444
0.0989535
0.12755
0.197552
0.102808
0.0379351
0.145783
0.150486
0.442069
0.17505
0.0812604
0.0349877
0.0226253
0.00531313
0.0143267
0.139344
0.179536
0.276416
0.103342
0.0276497
0.0442728
0.0676491
0.0746221
0.103882
0.306061
0.356392
0.17779
0.17763
0.0716977
0.131567
0.127181
0.0667942
0.0110806
0.0788158
0.0653365
0.0592159
0.125872
0.124768
0.460779
0.312582
0.0096816
0
0.0122754
0.0081952
0.187336
0.138861
0.0497952
0.0736065
0.0919542
0.0932744
0.0905983
0.122652
0.175386
0.0548268
0.120196
0.143515
0.325045
0.380923
0.0683371
0.0263966
0.0571339
0.0425058
0
0.00459626
0.0221595
0.258379
0.330482
0.00087118
0
0.000666718
0.000444479
0.00110228
0.000536249
0.00192932
0.224838
0.385817
0.00616424
0.000863769
0.00144122
0.000863154
0
0.00649805
0.0421268
0.256392
0.444852
0.0227975
0.00584835
0.0062215
0.00311135
0.037826
0.0212268
0.00680617
0.216748
0.480943
0.0380495
0.00570361
0.00485919
0.00190613
0.00595944
0.00485008
0.00621731
0.0971597
0.207781
0.0161029
0.00999412
0.0206607
0.0130983
0.0110713
0.0296467
0.0339179
0.0078825
0.00791978
0.00765925
0.0241573
0.0509606
0.0325896
0.336067
0.107192
0.015131
0.0782103
0.185019
0.0260376
0.00932116
0.00761112
0.0266697
0.58791
0.482567
0.188219
0.0125021
0.0041006
0.00690263
0.0145265
0.0144688
0.038384
0.0447464
0.0389261
0.0185695
0.00156597
0.00117277
0.00235824
0.00749677
0.0165506
0.0169806
0.252242
0.106418
0.0113681
0.000197428
0.00327951
0.00105277
0.00286331
0.0103005
0.0295184
0.149519
0.381875
0.162305
0.00260995
0
0.00116826
0.00463068
0.0113523
0.0105589
0.588239
0.533456
0.10445
0.000329046
0
0.000125674
0.00374889
0.0150384
0.0337486
0.176105
0.171676
0.0441317
0.000115973
0.000759218
0
0.000355584
0.00394236
0.00825605
0.195071
0.392111
0.134663
0.000811813
0.0035738
0.00732462
7.44209e-005
0.0163702
0.0160119
0.470109
0.301643
0.0439516
0.00125689
0.00954768
0.0116694
0.000419572
0.0104504
0.0209737
0.272427
0.470809
0.195856
0.00879823
0.0159128
0.019449
0
0.0134541
0.0423504
0.347067
0.310271
0.0993788
0.00781486
0.0191749
0.0453976
0.00646618
0.0350162
0.0563876
0.278406
0.268485
0.241764
0.0949111
0.121652
0.0679085
0.0156774
0.0274929
0.061924
0.265641
0.280318
0.155829
0.0112218
0.00288386
0.00511761
0.00924204
0.039037
0.128269
0.185709
0.166672
0.373048
0.151614
0.0530521
0.0129591
0.0190443
0.036511
0.102916
0.103057
0.381495
0.186422
0.0705159
0.087757
0.0334283
0.0126294
0.00914039
0.0487277
0.050183
0.472953
0.251695
0.0249669
0.0775238
0.0512833
0.0532021
0.0510959
0.0549105
0.036574
0.263538
0.279348
0.179252
0.0738128
0.0139013
0.0485891
0.0194969
0.0581466
0.0226251
0.247998
0.112094
0.0761332
0.04146
0.0838206
0.2826
0.124377
0.088714
0.021911
0.248574
0.329926
0.0680476
0.107055
0.0548118
0.0815043
0.0601106
0.00942126
0.0538465
0.159006
0.206377
0.128834
0.178416
0.132894
0.103539
0.0332462
0.0441412
0.0160828
0.11617
0.0816809
0.168398
0.156344
0.0994432
0.304561
0.148958
0.0207971
0.0316656
0.121771
0.06888
0.393837
0.346436
0.0431835
0.134102
0.0422285
0.0258797
0.222936
0.136282
0.115419
0.00568668
0.00114271
0.00245289
0.0256542
0.228592
0.156467
0.0964387
0.0281653
0.0347589
0.00977131
0.0351443
0.20459
0.294451
0.43622
0.257096
0.0320401
0.0519164
0.0711703
0.0203037
0.00985312
0.0175743
0.0531177
0.120887
0.100514
0.0193483
0.0314081
0.0932872
0.0368345
0.215175
0.37402
0.183853
0.109836
0.0551164
0.020533
0.0507813
0.0208255
0.0542983
0.0817719
0.202662
0.187093
0.0862424
0.0668975
0.00519456
0.0776715
0.0458541
0.294161
0.331093
0.14815
0.0952707
0.0263529
0.0169495
0.000365659
0.0269479
0.0318827
0.0610396
0.206543
0.358606
0.124471
0.0252187
0.00453295
0.0083607
0.042159
0.0319311
0.222013
0.289174
0.413872
0.221781
0.031175
0.0175515
0.00179599
0.0196447
0.0156305
0.186709
0.371934
0.118579
0.0644576
0.00931982
0.0124886
0.0766064
0.174171
0.104268
0.0965206
0.32778
0.143994
0.0624868
0.0186616
0.0207874
0.0244154
0.0418442
0.00666505
0.084914
0.188808
0.227551
0.229953
0.0676968
0.121973
0.144344
0.430805
0.199995
0.0571139
0.109608
0.151067
0.147446
0.0966719
0.209505
0.238563
0.176326
0.117806
0.00595583
0.0279147
0.0171593
0.00845926
0.00544754
0.0130702
0.441235
0.313889
0.0817555
0.00978089
0.00242341
0.000322876
0.0151305
0.0092305
0.0449086
0.252647
0.338592
0.22064
0.0187841
0.00374594
0.0122832
0.0131156
0.015517
0.0717874
0.350011
0.365448
0.0900864
0.0345757
0.00379011
0
0.0516629
0.0272698
0.12567
0.175417
0.426297
0.135448
0.0296639
0.00732027
0.00014066
0.0235924
0.0219354
0.0252412
0.248167
0.444545
0.172124
0.0176169
0.00975727
0.00638973
0.0328581
0.0288147
0.0616582
0.14135
0.352302
0.0720766
0.0566965
0.0122004
0
0.0443097
0.0404807
0.073773
0.158182
0.343659
0.258812
0.0292811
0.0162621
0.0125486
0.0455822
0.0382578
0.0897837
0.395935
0.28333
0.0898132
0.00277038
0.0396504
0.0356748
0.0440525
0.0264876
0.0642756
0.25028
0.303552
0.220778
0.0193927
0.0424937
0.0475423
0.0552701
0.0582989
0.102964
0.211559
0.175284
0.194725
0.00133314
0.0393646
0.0530379
0.153244
0.084163
0.107804
0.183076
0.125758
0.0846278
0.009332
0.0262907
0.0707713
0.313874
0.211876
0.184348
0.151781
0.15068
0.112209
0.0311188
0.0101256
0.019404
0.0307435
0.0803254
0.124123
0.0908208
0.0528948
0.15264
0.189364
0.248523
0.0872094
0.0371423
0.0534911
0.0554311
0.202839
0.134988
0.063574
0.034924
0.0450077
0.0331054
0.101176
0.116374
0.163958
0.115528
0.0808201
0.0632716
0.135356
0.668963
0.180948
0.063034
0.0291248
0.0696171
0.0197993
0.0340871
0.109956
0.209025
0.31751
0.0409442
0.0365554
0.0153896
0.0189642
0.0242129
0.0586133
0.0918241
0.132855
0.120075
0.0603735
0.188613
0.114497
0.0551477
0.0340528
0.038405
0.0663029
0.120678
0.640871
0.122306
0.0617831
0.0273803
0.034121
0.130882
0.134752
0.216509
0.127705
0.197278
0.0282448
0.0384506
0.0617646
0.127805
0.00872207
0.0784188
0.0505999
0.205478
0.136785
0.058837
0.145959
0.100288
0.022047
0.0154853
0.0751779
0.021948
0.317385
0.332196
0.0398646
0.0854372
0.0194923
0.0358513
0.188694
0.192164
0.13852
0.181134
0.08538
0.00589961
0.0200989
0.0421406
0.0946664
0.382416
0.188989
0.0406798
0.193531
0.175962
0.023564
0.0775926
0.0166401
0.354772
0.0211543
0.0586427
0.0330722
0.0336531
0.0252763
0.0540792
0.0749308
0.0683256
0.06102
0.0110377
0.112555
0.178358
0.13228
0.34286
0.249987
0.0398283
0.0243481
0.00912701
0.08953
0.238331
0.161522
0.101618
0.0293323
0.0539039
0.0727222
0.0458249
0.0774559
0.00634481
0.33333
0.324636
0.175119
0.211676
0.220175
0.0954287
0.176118
0.106351
0.0134525
0.0139519
0.0438504
0.0514851
0.256229
0.193627
0.0294967
0.0401371
0.0176503
0.123852
0.00149792
0.00717981
0.0373305
0.201927
0.291027
0.1568
0.155832
0.161329
0.0357796
0.0399927
0.0663632
0.0528606
0.21225
0.218752
0.102799
0.125823
0.0628963
0.335615
0.0730508
0.0218651
0.0156722
0.192293
0.213842
0.170233
0.298554
0.315075
0.165181
0.0185488
0.0125819
0.0343173
0.069645
0.137493
0.153647
0.142101
0.256217
0.189808
0.231928
0.128827
0.156838
0.0531314
0.0442853
0.0667836
0.120094
0.257221
0.299043
0.112107
0.0820413
0.0455204
0.158619
0.08369
0.037738
0.173321
0.267225
0.216353
0.276733
0.178846
0.177984
0.201384
0.0538226
0.00747632
0.0429508
0.127486
0.284813
0.266469
0.151928
0.0943915
0.0101426
0.00453957
0.00994371
0.0216884
0.121125
0.334357
0.277866
0.0680496
0.101783
0.000952217
0
0.0718799
0.0351279
0.192924
0.306504
0.301832
0.0960802
0.0865563
0.0366534
0.00770946
0.023909
0.0293439
0.0679905
0.347077
0.194904
0.029102
0.0642502
0.0275085
0.0405494
0.136863
0.0898001
0.164703
0.209551
0.381756
0.0571138
0.0754211
0.00396239
0
0.0538815
0.0601091
0.168981
0.290294
0.449348
0.19099
0.0229629
0.00528152
0.0269372
0.0489998
0.0925443
0.139453
0.162101
0.136252
0.0312858
0.0498521
0.0279605
0.0844334
0.153538
0.082801
0.161307
0.089864
0.15984
0.0572921
0.0232075
0.00707515
0.122658
0.16616
0.190285
0.0778691
0.158797
0.103147
0.0946843
0.00177205
0.00768326
0.103081
0.185247
0.131632
0.0884071
0.27516
0.118984
0.0115534
0
0.00460995
0.110761
0.322847
0.231434
0.216136
0.0525537
0.0539873
0.0183007
0.00295342
7.87932e-005
0.107768
0.244498
0.157158
0.0906893
0.243975
0.37618
0.0940966
0
0
0.0785952
0.168534
0.109519
0.196417
0.240384
0.100438
0.0139311
0.00513742
0.0333814
0.0714964
0.107933
0.0720568
0.174837
0.117626
0.0355645
0.0201768
0.0298743
0.363224
0.267821
0.202136
0.0937697
0.1268
0.162874
0.207327
0.0459116
0.00259508
0.012525
0.163052
0.0945474
0.0495086
0.112675
0.188038
0.0329044
0.0102502
0.00432514
0.0638276
0.331372
0.271864
0.25882
0.222127
0.0927797
0.0163008
0.0159286
0.0177763
0.185889
0.112006
0.0926398
0.0875527
0.130619
0.233409
0.061435
0.050797
0.0176097
0.036305
0.0184107
0.0233952
0.0462968
0.384579
0.224261
0.0241644
0.0129008
0.000441574
0.0199712
0.0686482
0.0830357
0.156452
0.257494
0.316245
0.0590997
0.0122381
0
0.000910327
0.00469117
0.014425
0.12246
0.566594
0.20186
0.073142
0.0255618
0.0210925
0.00596405
4.2788e-005
0.000812968
0.00959202
0.234202
0.405301
0.143131
0.00768864
0.0238788
0.00956967
0.0014256
0.00569078
0.00461273
0.213251
0.19714
0.03937
0.00250083
0
0
0
0.00681955
0.103586
0.442729
0.3407
0.11032
0.000308031
0
0
0
0.0131434
0.133089
0.428253
0.0485253
0.157695
0.124612
0.0860908
0.0563998
0.0940897
0.0928373
0.0130136
0.0687526
0.00307713
0.127724
0.129126
0.126502
0.128832
0.263032
0.154423
0.123398
0.103524
0.0639269
0.144635
0.0530089
0.0750777
0.119001
0.146132
0.0827659
0.0125181
0.0555019
0.0176279
0.0830266
0.114932
0.308321
0.368282
0.422458
0.10309
0.0145971
0.0234897
0.0249806
0.0224093
0.0455471
0.0427418
0.0970385
0.256324
0.15366
0.14267
0.0695725
0.327178
0.110439
0.0785853
0.0201129
0.0849423
0.168885
0.197708
0.201431
0.227666
0.035101
0.0445555
0.0997847
0.123122
0.155132
0.309655
0.0786488
0.0489558
0.0907869
0.174774
0.0507831
0.125506
0.0466431
0.0847843
0.306765
0.240763
0.0792783
0.187978
0.329185
0.213283
0.187778
0.0730482
0.110997
0.0438179
0.0438192
0.0978519
0.133355
0.134387
0.235298
0.260543
0.212017
0.216657
0.0294096
0.00938029
0.0152843
0.0335049
0.151837
0.0963213
0.207382
0.0807059
0.0540377
0.131798
0.140378
0.0308278
0.0807075
0.0424836
0.149238
0.332515
0.204131
0.15379
0.0108175
0.0115093
0.0108108
0.0280375
0.241358
0.283863
0.13451
0.144004
0.105362
0.00822929
0.0515379
0.0541961
0.0764031
0.229243
0.192883
0.018752
0.0738021
0.143714
0.127042
0.182618
0.127198
0.131133
0.0719016
0.206725
0.20432
0.174561
0.108095
0.0105215
0.0193254
0.0208059
0.0459693
0.0928757
0.170939
0.042245
0.222785
0.255412
0.100226
0.0626607
0.0293012
0.0510072
0.0444961
0.0426612
0.00708483
0.0590036
0.136762
0.171712
0.135517
0.0607149
0.0565694
0.0195161
0.0370845
0.0113592
0.0181431
0.05064
0.229202
0.261643
0.231116
0.0318355
0.0310641
0.0882762
0.0128962
0.326583
0.27243
0.084809
0.0358791
0.0327528
0.011208
0.0803957
0.153627
0.0372901
0.195218
0.09882
0.119487
0.168117
0.316275
0.234298
0.0228696
0.0424704
0.0318888
0.00359081
0.000313312
0.102396
0.239552
0.162196
0.0821874
0.115747
0.326208
0.240743
0.0421043
0.00627954
0.0357497
0.0932343
0.0657926
0.12955
0.0866141
0.114336
0.0411501
0.0140655
0.000731748
0.0904296
0.154955
0.221823
0.341631
0.119507
0.273998
0.197524
0.121648
0.135445
0.0374723
0.119029
0.110884
0.189111
0.14832
0.235759
0.129344
0.0513279
0.0347813
0.0921075
0.0370377
0.0267002
0.043613
0.230835
0.12213
0.0721635
0.0607581
0.0681725
0.191358
0.100358
0.23289
0.207491
0.159421
0.276037
0.14871
0.151191
0.134426
0.00508992
0.0263836
0.0216681
0.022531
0.184918
0.332697
0.11564
0.115264
0.196679
0.249235
0.0610875
0.0928134
0.0429529
0.201427
0.0913101
0.0993417
0.0414546
0.0440147
0.0703068
0.0394006
0.175243
0.202227
0.223538
0.173054
0.0924904
0.0247179
0.0760864
0.0256214
0.0526596
0.125787
0.289345
0.111581
0.10265
0.0984291
0.0662429
0.257828
0.301483
0.076637
0.0787002
0.064173
0.177207
0.152069
0.213337
0.0786308
0.321532
0.136705
0.0880256
0.0513034
0.111093
0.114349
0.0753001
0.0235169
0.00235548
0.0188589
0.00616395
0.0349768
0.126283
0.277787
0.160668
0.0476418
0.0032643
0.000336498
0.000411275
0.000989363
0.0554277
0.375474
0.484463
0.123229
0.0894656
0.102123
0.0313353
0.0743812
0.0151431
0.0351478
0.0457539
0.101963
0.26408
0.0623874
0.0231347
0.00447647
0.00287892
0.00164894
0.0569337
0.279676
0.34039