0.0309979
0.0298754
0.0484813
0.0164959
0.0436533
0.0522662
0.0287953
0.0353712
0.0113971
0.149946
0.101021
0.0784154
0.0859192
0.0826432
0.0330526
0.0202999
0.0513189
0.0220548
0.0670865
0.0358437
0.136731
0.0646668
0.0862594
0.066978
0.0490382
0.0175938
0.0368844
0.157985
0.0715333
0.179547
0.640796
0.500531
0.0190827
0.0340615
0.0280746
0.00364526
0.105428
0.0766061
0.0733007
0.0583881
0.032335
0.00869306
0.0244497
0.038227
0.0521209
0.0859637
0.0362003
0.0580635
0.0383663
0.0164408
0.0282083
0.0529398
0.115548
0.108443
0.134101
0.0735114
0.165416
0.450048
0.278193
0.00384555
0.0289521
0.0593845
0.120504
0.104381
0.039726
0.0923076
0.164475
0.0768781
0.0159699
0.26237
0.489626
0.306461
0.0918647
0.0213861
0.0422797
0.0197423
0.0102773
0.0312975
0.0584385
0.0932513
0.0413726
0.0562555
0.0569516
0.0717539
0.0429346
0.0464316
0.0768408
0.0567353
0.0342119
0.0317413
0.0525323
0.0138825
0.0245252
0.00285139
0.00878417
0.0625179
0.450727
0.597308
0.111594
0.0291649
0.0853691
0.0767097
0.0348193
0.110513
0.13003
0.331887
0.245297
0.0828917
0.0349756
0.0710554
0.0442278
0.0683821
0.0963799
0.108919
0.0724483
0.145656
0.137358
0.0857561
0.0962536
0.0989406
0.113142
0.0487479
0.0606235
0.104257
0.285881
0.223829
0.0573037
0.183148
0.123029
0.156688
0.175283
0.142897
0.0770919
0.154899
0.0936887
0.211479
0.225478
0.118061
0.153062
0.0683691
0.0758637
0.0757742
0.323881
0.270759
0.0480039
0.118876
0.157779
0.140195
0.0642054
0.0229259
0.0848936
0.102205
0.108619
0.0514255
0.0878652
0.221568
0.191672
0.10478
0.0737061
0.136284
0.104845
0.124518
0.186191
0.190272
0.099425
0.107794
0.0650408
0.0239306
0.116223
0.147869
0.220437
0.309607
0.126339
0.155057
0.295715
0.180478
0.032809
0.0642402
0.168924
0.192814
0.0998715
0.0941534
0.185159
0.178913
0.0184367
0.0554676
0.0559895
0.04073
0.155394
0.337152
0.211617
0.201552
0.167084
0.08673
0.0413676
0.0887224
0.0193422
0.232241
0.188123
0.106918
0.128673
0.172959
0.14568
0.0114437
0.0147553
0.0985389
0.173936
0.294227
0.12558
0.0663193
0.0672504
0.0919108
0.0465175
0.0916472
0.108438
0.211084
0.148518
0.130104
0.159011
0.0776177
0.124162
0.109928
0.055991
0.0242676
0.130144
0.167426
0.210184
0.0723438
0.0914372
0.0654056
0.232923
0.0220562
0.0249384
0.156179
0.174795
0.104453
0.0669201
0.0326022
0.0489995
0.137441
0.107644
0.0583424
0.161468
0.376278
0.182685
0.0946355
0.0533881
0.0270172
0.28419
0.138669
0.076392
0.245552
0.1568
0.156997
0.0257167
0.0251675
0.0877676
0.156279
0.0196466
0.00918318
0.100406
0.161065
0.139184
0.114201
0.172059
0.157132
0.144354
0.0318158
0.00342649
0.0802699
0.278207
0.202938
0.0634821
0.0596938
0.090428
0.102158
0.0618592
0.0555055
0.272982
0.0993205
0.183586
0.212344
0.363419
0.218739
0.0931398
0.033976
0.0406909
0.143478
0.111963
0.124458
0.203836
0.317243
0.0742842
0.0598901
0.0226494
0.0275435
0.0474032
0.165957
0.123299
0.111781
0.154588
0.0451435
0.00606039
0.0315314
0.0974999
0.14772
0.0419077
0.0870547
0.200714
0.339761
0.120966
0.0318518
0.0715544
0.196531
0.0264167
0.0673829
0.0778176
0.0793642
0.184021
0.124522
0.00929236
0.0829837
0.325816
0.110639
0.01772
0.013243
0.0669096
0.05168
0.0357006
0.0326593
0.036781
0.0110792
0.0314058
0.0114209
0.00742481
0.0970256
0.520776
0.28898
0.00748109
0.0176372
0.0125848
0.00369437
0.0449799
0.0253432
0.0341097
0.0467224
0.0754407
0.0471718
0.0282962
0.0128846
0.0343365
0.00501188
0.00565669
0.0593305
0.590169
0.370868
0.0708424
0.0146366
0.00744389
0.00392141
0.0234244
0.00521061
0.0520752
0.308923
0.212771
0.00466131
0.00350358
0.00811544
0.0271082
0.100011
0.002653
0.0371685
0.102905
0.0968347
0.00791373
0.103512
0.145382
0.158473
0.0114123
0
0.0473975
0.395833
0.36533
0.0195899
0
0.000134515
0.00365171
0.169955
0.061745
0.161908
0.324771
0.39972
0.0137738
0.0611866
0.103188
0.235057
0.0409618
0.000394185
0.00688173
0.00438551
0.00179871
0.0134144
0.148656
0.184902
0.0932571
0.00675803
0.0102253
0.00890088
0.00528608
0.012149
0.0290372
0.178657
0.21417
0.063694
0.0941267
0.0462039
0.0468675
0.0634402
0.0635807
0.00483489
0.164019
0.377534
0.206415
0.019172
0.00748318
0.00164432
0.000755154
0.00226232
0.00736953
0.290177
0.673308
0.111543
0.0103416
0.0207291
0.0177117
0.0254856
0.0157997
0.023286
0.095385
0.177384
0.0313994
0.0375361
0.0266982
0.0161657
0.0208213
0.00968181
0.0214309
0.0711178
0.125749
0.0677657
0.00784564
0.00238458
0.00174531
0.00290018
0.000725133
0.0135635
0.28376
0.643589
0.0441803
0.0182171
0.00667688
0.0112035
0.00174011
0.00120856
0.0177332
0.338867
0.477258
0.0608603
0.1498
0.0695526
0.0232558
0.0249145
0.0269307
0.0190884
0.0895737
0.105282
0.156192
0.215497
0.0847071
0.0636418
0.128579
0.0957839
0.0559239
0.0340522
0.062266
0.079425
0.107545
0.0465136
0.0358288
0.0013507
0.0525291
0.014021
0.344978
0.565637
0.143165
0.177161
0.0977927
0.145293
0.0220262
0.0948198
0.108854
0.143967
0.230715
0.136778
0.135192
0.111613
0.0821163
0.126683
0.205548
0.053698
0.0134882
0.0813596
0.117388
0.155908
0.119806
0.0244553
0.0430006
0.189996
0.0801365
0.0525149
0.176001
0.168756
0.163307
0.104841
0.172352
0.0395647
0.147533
0.159457
0.0927323
0.0991297
0.166724
0.162855
0.113299
0.0532738
0.0264624
0.369708
0.265851
0.042903
0.151911
0.171498
0.131208
0.232199
0.0673693
0.0322133
0.0552527
0.0465621
0.0465072
0.088884
0.0882447
0.236875
0.244343
0.0953263
0.0230641
0.0111792
0.0517886
0.17504
0.188186
0.18837
0.109884
0.180894
0.0511054
0.0287237
0.209802
0.181931
0.042302
0.171067
0.153909
0.134708
0.208033
0.0412722
0.0435971
0.146735
0.210158
0.160747
0.222049
0.14795
0.254228
0.081652
0.104923
0.0459104
0.0840012
0.0217818
0.132277
0.134186
0.2634
0.160849
0.0987345
0.202027
0.247062
0.187724
0.0446567
0.0222149
0.0801352
0.146272
0.203228
0.0804243
0.0923653
0.0226318
0.111704
0.0768477
0.114307
0.116257
0.128707
0.321632
0.186518
0.135557
0.0477056
0.128657
0.0548789
0.0450423
0.11395
0.135407
0.0477361
0.0766966
0.0941009
0.208066
0.13062
0.0247554
0.0303062
0.172604
0.0649344
0.0240399
0.0667791
0.11783
0.26011
0.229027
0.0121231
0.0343803
0.202471
0.050923
0.172291
0.178749
0.0712547
0.0925654
0.110638
0.101463
0.039526
0.113507
0.128781
0.0432529
0.0799221
0.223895
0.235664
0.247182
0.124488
0.0414724
0.184291
0.0944829
0.0324032
0.0279606
0.0106762
0.0126402
0.102696
0.0571915
0.0123953
0.034124
0.0119355
0.00380992
0.00418694
0.0134327
0.260351
0.373629
0.0997165
0.00297746
0.00860824
0.00301271
0.0142135
0.0143227
0.00451851
0.0221787
0.165091
0.0625178
0.0177242
0.100561
0.04791
0.00452411
0.00201935
0.00210534
0.252726
0.738519
0.089326
0.00175322
0.0137409
0.0278336
0.000856303
0
0.0100896
0.149084
0.241161
0.0252022
0
0
0.000151112
0.0212922
0.0377329
0.0390146
0.207843
0.423856
0.0192685
0.012447
0.0357646
0.0394739
0
0
0.000648906
0.136084
0.429512
0.0250605
0
0
0
0.000488639
0.00571618
0.000691635
0.276857
0.591557
0.0261791
0.000366991
0.00601552
0.00308146
0.0223196
0.0466793
0.020677
0.0853924
0.178962
0.00803695
0.0777026
0.275768
0.0655798
0.00554048
0.00698552
0.000740206
0.00184537
0.0100552
0.00174006
0.246567
0.675478
0.0435964
0.00212705
0.00868449
0.000999318
0.130471
0.307475
0.0186827
0.0111993
0.0695745
0.0133144
0.00438335
0.00810609
0.00191953
0.00977155
0.0193149
0.0087597
0.112074
0.392371
0.0357595
0.000649356
8.58088e-005
0
5.97073e-005
3.14249e-006
0.000679575
0.14578
0.419239
0.014511
0.000182017
0.000246708
0.000740125
0
0
0.00244549
0.147958
0.399547
0.0283878
0.00114698
0.0017227
0.000480872
0.00121678
0.0015182
0.00361621
0.126452
0.421891
0.0350085
0.00172193
0
0
9.80015e-005
0.000949422
0.00338509
0.2422
0.556161
0.0486919
0.00606755
0.00732886
0.00173032
0
0.004755
0.00203746
0.114349
0.255428
0.0226669
0.0179826
0.0130807
0.01159
0.000627555
0.00792501
0.0117874
0.10606
0.176485
0.041785
0.00469326
0.000974333
0
0
0.000136105
0.00269429
0.257941
0.605205
0.0446521
0.0105424
0.00190649
0
0
0
0.00169239
0.23621
0.560999
0.101851
0.0225589
0.00795221
0.017741
0.012999
0.0331234
0.0299821
0.107982
0.146887
0.0634124
0.0231287
0.00701906
0.00513433
0.0255502
0.142213
0.0553614
0.0406507
0.0562777
0.0465019
0.0152907
0.00219872
0
0.00816409
0.0296287
0.00885808
0.372857
0.592075
0.171172
0.0218762
0.00531416
0
0.0236292
0.100816
0.0254526
0.402456
0.343181
0.0874911
0.0745649
0.0192694
0.0107429
0.0323524
0.315988
0.146042
0.0422397
0.097558
0.157202
0.0592774
0.0793041
0.013256
0.0333484
0.240091
0.183663
0.104059
0.111621
0.0999915
0.116672
0.0318779
0.0050949
0.0634128
0.192466
0.120818
0.273492
0.369995
0.117696
0.0942813
0.130227
0.0368295
0.0945915
0.221291
0.153122
0.0701085
0.176105
0.093875
0.0537724
0.164878
0.0665587
0.0292745
0.107533
0.0728978
0.0630004
0.0536366
0.0258943
0.231106
0.233466
0.15519
0.0590214
0.0787225
0.0403796
0.0822639
0.111934
0.0751433
0.106383
0.269602
0.101955
0.0741908
0.142648
0.0382645
0.025407
0.0810417
0.133062
0.154728
0.279069
0.331886
0.161665
0.144108
0.0943475
0.101714
0.0753664
0.13362
0.114116
0.0992064
0.0708994
0.0308813
0.102345
0.107695
0.0844292
0.114535
0.068363
0.0288447
0.0510073
0.0814388
0.0341119
0.189425
0.201188
0.0491577
0.275187
0.101696
0.0484184
0.108986
0.138763
0.0876018
0.252622
0.162622
0.168739
0.0727103
0.0381198
0.117286
0.167975
0.126061
0.149706
0.291957
0.250455
0.0836796
0.216457
0.0559886
0.0245329
0.00012245
0
0.0435248
0.0820121
0.0179223
0.0101571
0.0431329
0.0574665
0.00813267
0
0
0.207185
0.497402
0.0232643
0.000981956
0.00770049
0.0251543
0.0516627
0.00517221
0.00249975
0.0881941
0.0936112
0.0189853
0.0143908
0.0576971
0.0887003
0.0121517
0.00161292
0.000357107
0.321635
0.684046
0.0364059
0.00286273
0.0239798
0.0267099
0
0
0
0.0912224
0.323783
0.00693031
0
0
0
0.000590472
0.000885151
0
0.192878
0.490539
0.0138618
0
0.000131784
0.000395353
0
0
0
0.137931
0.424502
0.0156075
0
0
0
0.00030904
0.0010252
0.000333835
0.226537
0.550813
0.0138249
0.0081628
0.00221524
0
0.00629675
0.0118224
0.00419986
0.252989
0.533772
0.0470737
0.00341048
0.00539642
0.00456239
0.00681943
0.0206648
0.0106768
0.0361076
0.0292907
0.0289997
0.0277637
0.0921473
0.0266274
0.0105674
0.0127414
0.00716001
0.266754
0.643304
0.0237302
0.0386313
0.02188
0.00423674
0.0359852
0.0141832
0.0106136
0.0594193
0.0189956
0.0173905
0.0243026
0.0342551
0.0305145
0.00394211
0.00368239
0.00181018
0.00857306
0.00674864
0.0118925
0.0671256
0.214788
0.0477592
0.0144162
0
0
0.000693516
0.00614822
0.0064576
0.289901
0.836958
0.0872397
0.0255671
0.00192819
0.00110937
0.0112957
0.00331063
0.00886534
0.0155363
0.038239
0.0339062
0.0393674
0.0024438
0.00424404
0.00500532
0.00353717
0.018439
0.0452845
0.191467
0.0745926
0.00302489
0
0
0
0.000327899
0.00070814
0.160923
0.418374
0.024642
0.0064584
0.000680833
0
0
0
4.61669e-005
0.183898
0.56826
0.0662253
0.00787032
0.00278675
0.00305615
0.00192379
0.00019674
0.0026948
0.0444466
0.1882
0.0284514
0.0101095
0.00528883
0.00136014
0.000274828
0
0
0.12619
0.56826
0.0632185
0.0111625
0.001778
0
9.73022e-005
0.00127219
0.00152209
0.126765
0.331112
0.0492433
0.00723831
0.00167038
0
0.000681115
0.00308406
0.00639345
0.155275
0.258584
0.0299013
0.00912117
0.00231177
0
0
0
0.000217441
0.158283
0.566431
0.0345717
0.00405076
0.000640081
0
0
0
0.00267638
0.234039
0.566431
0.0331254
0.00578783
0.00294816
0.000476335
0.008218
0.00623104
0.0395273
0.125176
0.224074
0.0209244
0.0101239
0.00870436
0.00970554
0.0296442
0.0412511
0.0459043
0.0620933
0.0983766
0.0333614
0.000338798
0
0
0.000997882
0.00257206
0.0214688
0.277583
0.669853
0.0280912
0.00726132
0
0.0106187
0.0236497
0.0188056
0.0254898
0.254671
0.484675
0.0498614
0.0511434
0.0502156
0.0384201
0.0687533
0.0966257
0.0206709
0.0448684
0.0580178
0.0735752
0.0600783
0.100455
0.0933299
0.0694379
0.0430576
0.0395929
0.0559964
0.0170669
0.0831674
0.0360154
0.015736
0.0346536
0.0761457
0.0502539
0.0303358
0.396968
0.579782
0.0816193
0.119992
0.0734748
0.0510413
0.0943087
0.0659832
0.0315894
0.268011
0.292165
0.197623
0.0144738
0.0341699
0.0651491
0.0479673
0.0808296
0.0616588
0.0789519
0.00413049
0.0450645
0.0269626
0.0404978
0.0911532
0.0952486
0.102205
0.0791411
0.0929519
0.0214636
0.070959
0.196435
0.0303115
0.0599239
0.0493116
0.058419
0.0268189
0.0744623
0.0752112
0.289497
0.310739
0.0132328
0.0619975
0.0314816
0.0576342
0.0612703
0.112492
0.113024
0.693639
0.0214222
0.0120402
0.00804935
0.0272718
0.0936792
0.0343662
0.016668
0.0230476
0.0231794
0.00783792
0.00388294
0.00114991
0.142544
0.528191
0.04781
0.00278503
0.00946882
0.00596807
0.0228095
0.0258683
0.0172405
0.044459
0.158611
0.0404095
0.0166238
0.0045991
0.00262277
0.00593566
0.00651216
0.00699952
0.235762
0.721114
0.0388983
0.00378363
0.000788254
0.000142546
0
0
0
0.112199
0.33494
0.0122628
0
0
0
3.28219e-005
0.000131288
0.000895538
0.16926
0.4657
0.00685155
0.00885255
0.00289491
0.000152161
0
0
0
0.195674
0.440132
0.0077479
0
0
0
4.61508e-005
0.000838711
0.00187783
0.240083
0.535504
0.00993636
0.00212569
0.00133214
0.00111128
0.0172709
0.00743156
0.00671753
0.206015
0.56545
0.00470209
0.0623157
0.0412644
0.0109774
0.0721578
0.0351376
0.0130881
0.0250226
0.00891966
0.00293104
0.0318439
0.0495989
0.0799048
0.0249559
0.0292736
0.0277107
0.207814
0.608674
0.0150842
0.0226308
0.0209812
0.0209714
0.0735608
0.104836
0.0482202
0.0242604
0.0392723
0.0170853
0.0155316
0.0267075
0.0760037
0.206637
0.042299
0.014638
0.0104733
0.00690742
0.01049
0.0169445
0.113676
0.232739
0.276159
0.07689
0.04484
0.0307129
0.000909856
0.0307774
0.0261514
0.187001
0.274968
0.212974
0.127398
0.0688904
0.015061
0.0717357
0.0610308
0.0101564
0.0526591
0.217907
0.263486
0.132633
0.12658
0.0277537
0.014756
0.0343303
0.0237672
0.118501
0.252401
0.102743
0.0576468
0.0495221
0.0298061
0
0.00625108
0.0176753
0.106172
0.132332
0.132
0.046261
0.0363389
0.0179504
0
0
0.128818
0.647949
0.296874
0.0765861
0.0588722
0.0655539
0.033091
0.0087769
0.00836685
0.0174042
0.0544643
0.153893
0.127865
0.0378285
0.0484837
0.0272767
0.00526614
0.022744
0.0454109
0.128962
0.301138
0.0193932
0.00653645
0.00354671
0.000316841
0
0
0.104193
0.338228
0.0406822
0.00648757
0.00517396
0.00479237
0
0
0
0.33218
0.753265
0.0257714
0.0501137
0.0240071
0.00660175
0.000528068
0
0.00176435
0.0159267
0.0497189
0.0365808
0.102303
0.144959
0.0157364
0
0
0
0.125552
0.246436
0.0322343
0.000128594
0.000384481
0.000461649
0
0
0.0022759
0.227679
0.45065
0.00890232
0.00959744
0.000324983
0.000976763
0.00181399
0.00702383
0.0253915
0.212745
0.43306
0.0182725
0.0576384
0.212367
0.0197681
0
0
0.0159313
0.171441
0.284838
0.0120432
0.0556293
0.267925
0.0728772
0.0193961
0.0539565
0.17651
0.233686
0.346365
0.0168117
0.0237441
0.00248705
0.00267554
0.00576247
0.0196789
0.034764
0.24379
0.359854
0.0343864
0.0401427
0.0077965
0.00342078
0.0199468
0.0273737
0.0123879
0.205958
0.413137
0.104983
0.0574032
0.13056
0.0847325
0.0414857
0.140093
0.205983
0.168872
0.262568
0.0426452
0.0913605
0.1422
0.0639465
0.0159767
0.0540046
0.0308429
0.136909
0.463471
0.158223
0.0890525
0.00716684
0.00365188
0.00869046
0.0100949
0.00177032
0.0747747
0.207012
0.212427
0.173158
0.00553945
0.00192682
0.00028523
0.00217511
0.00347165
0.0325833
0.114631
0.452832
0.0432325
0.106702
0.0804103
0.057058
0.0280059
0.000152753
0.108681
0.31486
0.257567
0.0533242
0.0783893
0.108529
0.10337
0.0447286
0
0.0583364
0.259338
0.496473
0.0145577
0.0470711
0.0553045
0.0784794
0.100899
0.0160627
0.0153561
0.0134783
0.00825601
0.00142754
0.011601
0.0318547
0.350146
0.502012
0.0205521
0.00170211
0.00110186
0.000221462
0.0111576
0.0561207
0.0742565
0.0831569
0.1194
0.0188843
0.0228293
0.0288529
0.0205902
0.00013033
0.0100257
0.0426659
0.47536
0.500696
0.0301195
0.00892892
0.0046072
0.00377475
0
0
0
0.189264
0.350544
0.00749648
0
0
0
0.000137916
0.000991645
0.0016361
0.212561
0.379411
0.00806306
0.00331588
0.000944029
0.000893272
0
0
0
0.221128
0.491208
0.00480113
0
0.000940193
0.00114913
8.27496e-005
0.000618912
0.00148948
0.219022
0.507573
0.00606433
0.00782466
0.00411529
0.000787884
0.015045
0.029964
0.0412268
0.263435
0.51279
0.0191474
0.0332677
0.0145691
0.0178004
0.0546619
0.0710107
0.0548691
0.0419402
0.0412721
0.0276696
0.0328163
0.0313518
0.0453658
0.0112238
0.0251643
0.0285061
0.291081
0.519233
0.0204258
0.0722115
0.0421238
0.0123591
0.0603683
0.0650294
0.0332906
0.0812523
0.0419854
0.0192363
0.0585588
0.0483867
0.0586944
0.0391789
0.0356586
0.0178841
0.00783103
0.023569
0.0270595
0.0103127
0.0312144
0.0355187
0.0604232
0.037537
0.0360155
0.00271113
0.0202858
0.0152211
0.0174062
0.043715
0.0649468
0.144171
0.117205
0.0181871
0.0194202
0.0244008
0.00739646
0.021091
0.032933
0.0444914
0.493506
0.695903
0.124903
0.000675853
0.0333457
0.00217445
0.0240585
0.0294748
0.0652603
0.0287924
0.0076303
0.00603668
0.0011569
0.00371491
0.00200678
0.00563738
0.0116735
0.0296963
0.113389
0.07599
0.0104569
0.000877365
0.00126308
0.00545512
0.0082996
0.0107798
0.0424769
0.175422
0.367892
0.0360742
0
0.0029837
0.000286683
0.00254822
0.00487094
0.0538429
0.369946
0.765528
0.0706136
0
0.00018044
0.000779303
0.00129208
0.00239459
0.062552
0.107608
0.123296
0.0158991
4.34646e-005
0
0.00107305
0.00275258
0.00308197
0.00858289
0.18749
0.349333
0.0466248
0
0
0
0.00492542
0.0134077
0.00996257
0.251919
0.491911
0.0575718
0
0
0.000153293
0.000343408
0.000232783
0.00566048
0.347126
0.562218
0.111382
0
0
0
0.000239346
7.97821e-005
0.00129998
0.155584
0.418136
0.0574197
0
0
0.00565383
0.0203768
0.0286812
0.00831199
0.152667
0.405335
0.108445
0.0187111
0.0220693
0.0626412
0.0399082
0.0403187
0.0322447
0.250027
0.42056
0.134409
0.000480365
0
0
3.71738e-005
1.23913e-005
0.0146746
0.221726
0.426434
0.188373
0.00347363
0.000660086
0.000405435
0.00229746
0.0030084
0.0581914
0.127639
0.277265
0.148502
0.0431903
0.0619276
0.0707233
0.01784
0.0372726
0.034708
0.135567
0.3627
0.165011
0.0502488
0.0258405
0.0102484
0.00963045
0.0646622
0.0401005
0.185767
0.444015
0.245614
0.0150796
0.0068205
0.000705986
0.00400058
0.00622325
0.0550414
0.152018
0.454375
0.255215
0.0661612
0.00975361
0.000837493
0.000571512
0.00281598
0.018721
0.105637
0.338379
0.287128
0.133344
0.0816453
0
0.0351859
0.0891545
0.0692754
0.0262466
0.247424
0.324817
0.202698
0.141916
0.0153867
0.0430876
0.116334
0.151467
0.202882
0.325509
0.262027
0.0822582
0.0519636
0.00340083
0.00143921
0.00617936
0.0125469
0.131333
0.178649
0.207336
0.0964129
0.0909576
0.0318187
0.0415001
0.0579687
0.0867629
0.0037776
0.0158923
0.0239696
0.0621366
0.124086
0.0377681
0.0148092
0.00925953
0.00630323
0
0.00176051
0.0111767
0.319297
0.385321
0.0444305
0.00821248
0.00540718
0.00616594
0.0213441
0.0373613
0.0534101
0.105644
0.200035
0.0359018
0.0121539
0.00285006
0.000702768
0.00298782
0.0141487
0.0271126
0.361214
0.669598
0.0590722
0.00150153
0.00290675
0.00338072
0
0
0
0.158553
0.410762
0.00638011
0.000257142
0.00270848
0.00331037
0.00309237
0.00162798
0.00173941
0.109603
0.430481
0.0175639
0.00429103
0.00182991
0.00108392
0.00475577
0.00598363
0.00149591
0.177973
0.515695
0.0413785
0.00179999
0.0122219
0.0104188
0.10524
0.136491
0.0247632
0.0978273
0.454272
0.0474815
0.0130137
0.0178935
0.0388244
0.0233758
0.0190131
0.00526698
0.0259361
0.076593
0.0106148
0.00618338
0.00488075
0.00539917
0.078908
0.158248
0.0138649
0.0134748
0.00664976
0.00825314
0.00352524
0.00561406
0.0137699
0.227196
0.365368
0.075342
0.0101384
0.0621447
0.013342
0.00757203
0.00475331
0.0269063
0.383738
0.729508
0.114768
0.00391917
0.00114633
0.0049435
0.0011184
0.00270856
0.0178743
0.0744278
0.197953
0.0201904
0.00421147
0.00195714
0.00189675
0.00116451
0.00112103
0.00567381
0.164315
0.428747
0.0406445
0.000363067
0.00129588
0
0.00136515
0.000601967
0.0151959
0.197491
0.503043
0.0773814
0.00168213
0.000104835
0.00113805
5.98976e-005
0.000253806
0.00595666
0.253512
0.560106
0.100528
0.00021784
0
0
0
0
0.0263954
0.136087
0.401582
0.0239392
0
0.000236676
0
0.000187408
6.24692e-005
0.0240687
0.199407
0.522235
0.044109
0
0
0
0
0
0.0200802
0.167083
0.435198
0.0557904
0
0
0
0
0
0.025899
0.228454
0.411613
0.068016
0.0262459
0.00483111
0.0017483
0.000941389
0
0.0315795
0.199073
0.501492
0.0930595
0.00229601
0
0
0
0
0.00680158
0.204813
0.474094
0.188682
0.016072
0
0
0
0.0011253
0.00489378
0.157451
0.356064
0.124899
0.0552654
0.0250879
0.0125638
0.00407392
0
0.0290907
0.101813
0.331984
0.174202
0.0460652
0.0218342
0.0214337
0.00872826
0.0112482
0.0123052
0.212472
0.479652
0.294771
0.0137508
0.000346509
0.0109559
0.00522485
0.00509431
0.0481021
0.147044
0.481599
0.293604
0.00557056
0.00253178
0.0408811
0.0304945
0.0231977
0.0849156
0.0903889
0.248435
0.160135
0.021038
0.00580411
0.0501616
0.0215595
0.0456414
0.0470472
0.0332645
0.145092
0.120121
0.00846564
0.0206121
0.117628
0.0413776
0.112501
0.0639122
0.152409
0.465835
0.257757
0.0237874
0.0292982
0.0485138
0.0433293
0.0280484
0.108213
0.223732
0.264103
0.196016
0.0558759
0.0606849
0.033933
0.0456277
0.0252668
0.143811
0.0504847
0.139613
0.0960081
0.0640236
0.0542357
0.120703
0.0440231
0.159847
0.127141
0.246386
0.0852987
0.086142
0.0892502
0.0873904
0.144153
0.0760841
0.122979
0.256127
0.28012
0.165432
0.113155
0.057553
0.0852753
0.0668539
0.0927226
0.053189
0.101028
0.212321
0.088755
0.0380763
0.0893476
0.0950943
0.0749811
0.111209
0.114254
0.1567
0.199975
0.151872
0.145015
0.0460549
0.14992
0.259758
0.168391
0.0864603
0.157904
0.0548162
0.153214
0.205969
0.101099
0.132823
0.152872
0.127822
0.075101
0.194877
0.0215763
0.0348817
0.0244702
0.0683896
0.180782
0.0255604
0.0193993
0.00318205
0.000802036
0.00397245
0.013572
0.0112259
0.213473
0.57927
0.05536
0.017193
0.00564123
0.000955853
0.00393052
0.0108322
0.0124895
0.130782
0.247434
0.0670805
0.022089
0.0119988
0.00818222
0.0441748
0.0266106
0.00480033
0.279229
0.559812
0.0866102
0.0318709
0.0464698
0.0217956
0.0472965
0.0278626
0.00498187
0.0900762
0.353172
0.0696763
0.0202829
0.0454751
0.0307361
0.24245
0.36515
0.0532357
0.0359838
0.218641
0.055186
0.0171067
0.0649288
0.0807533
0.151679
0.111252
0.0239249
0.0469891
0.157172
0.0387137
0.0354306
0.0514239
0.0470826
0.34845
0.565136
0.105767
0.00238735
0.0338722
0.0201086
0.0194716
0.0462539
0.0659551
0.201301
0.370565
0.0682508
0.000693475
0.0138966
0.0035193
0.00171595
0.00653816
0.0268563
0.243996
0.485897
0.0950057
0.00207954
3.37877e-005
0
0
0
0.0168732
0.197324
0.415638
0.0840699
0.0134874
0.000918342
0.000393575
0
0.0039229
0.0274286
0.18428
0.431469
0.10507
0.0412824
0.000745681
0.00167539
0.0020477
0.000315097
0.022495
0.248745
0.437196
0.157537
0.00310293
0
0
0
0
0.0107481
0.291236
0.47103
0.192865
0.000443275
0
0.00114923
0.000127692
0.00183592
0.0179798
0.169334
0.344072
0.145031
0.0310727
0.00639772
0.00954069
0.0089168
0.00140205
0.00921903
0.192849
0.267763
0.142396
0.0091661
0.0173409
0.0178449
0.00673785
0.00978353
0.0126026
0.274903
0.589138
0.122191
0
0.000712452
0.0107169
0.00551414
0.0150742
0.0392264
0.323666
0.395075
0.0684421
0.0819755
0.0200277
0.0371728
0.0222588
0.0170258
0.076231
0.151314
0.204981
0.0639961
0.0122963
0.0412614
0.0794012
0.0507971
0.031259
0.0491415
0.130648
0.0702075
0.0645671
0.0501922
0.0659688
0.131743
0.139465
0.0367501
0.0742593
0.290988
0.298085
0.102718
0.24024
0.114031
0.178972
0.052676
0.00390189
0.0766718
0.128386
0.224365
0.0861215
0.111474
0.103224
0.263927
0.093832
0.0390727
0.0176513
0.185543
0.0277851
0.0944657
0.10767
0.131646
0.230433
0.145066
0.0146801
0.0796494
0.0957218
0.0152521
0.0319162
0.0932494
0.12032
0.310147
0.12198
0.023237
0.111153
0.0883937
0.125243
0.0683317
0.0172335
0.0263307
0.185433
0.169087
0.203995
0.045448
0.0382471
0.13171
0.195469
0.0533741
0.0913526
0.167262
0.129587
0.327381
0.10081
0.105928
0.0190858
0.0484706
0.0999404
0.0571437
0.221326
0.179359
0.102871
0.106558
0.163104
0.0625846
0.151155
0.0593292
0.122613
0.114364
0.150621
0.12136
0.107296
0.0643554
0.127931
0.106378
0.065284
0.0955639
0.076511
0.0225895
0.175861
0.128896
0.347318
0.150978
0.0947501
0.0511456
0.0665126
0.12798
0.0811997
0.180311
0.298704
0.1285
0.0523933
0.0587821
0.0289763
0.111674
0.059952
0.0272641
0.0849705
0.13564
0.216495
0.0563675
0.0404274
0.0571227
0.0964493
0.122265
0.171611
0.246546
0.252
0.257311
0.236175
0.186506
0.031181
0.0661835
0.127574
0.0799952
0.0586609
0.134016
0.0771218
0.219555
0.258574
0.1273
0.07027
0.079344
0.0659171
0.0216782
0.0826612
0.149399
0.081294
0.0597199
0.0836409
0.110941
0.0751674
0.195327
0.203845
0.146775
0.106224
0.13497
0.0732755
0.120346
0.077812
0.0754616
0.137699
0.114332
0.0889749
0.0275893
0.00351822
0.00800627
0.12396
0.242959
0.150873
0.0297607
0.0561286
0.0313818
0.294894
0.169312
0.0168029
0.202616
0.353907
0.195101
0.0232179
0.205947
0.0787277
0.0756174
0.0224772
0.0102356
0.0535059
0.083057
0.185962
0.0748001
0.0703095
0.0474527
0.392764
0.168547
0.0331128
0.104016
0.078577
0.24281
0.0747757
0.249399
0.0900692
0.237422
0.312269
0.0869325
0.0313137
0.058737
0.0199003
0.012746
0.081297
0.0378766
0.26444
0.647324
0.206123
0.00242403
0.000551552
0.00131735
0.0105577
0.0233926
0.0399813
0.179882
0.210289
0.0848159
0.0691403
0.0151936
0.0345755
0.0474293
0.101392
0.0292328
0.129543
0.227019
0.116639
0.018502
0.00684919
0.0237147
0.0550093
0.0459724
0.0554724
0.262202
0.603939
0.202562
0.0532666
0.00322994
0.00350003
0.0145186
0.00379939
0.0422568
0.235302
0.407797
0.152749
0.163605
0.0161208
0.0247632
0.0196389
0.00493525
0.0403226
0.12723
0.146111
0.111602
0.0259716
0.0361272
0.0313598
0.0454498
0.0123401
0.0378771
0.0682658
0.0613406
0.106923
0.0995816
0.0837364
0.0991933
0.0568621
0.0362258
0.0287451
0.237601
0.392201
0.138393
0.174127
0.0722232
0.100367
0.0563761
0.0367722
0.039717
0.171583
0.218883
0.120676
0.0632661
0.161582
0.114373
0.0881111
0.129292
0.051502
0.0492628
0.0860149
0.0875083
0.129612
0.0919764
0.13139
0.0605026
0.181306
0.0669383
0.0517905
0.160645
0.0756365
0.0968506
0.161792
0.124915
0.101419
0.213255
0.184645
0.103311
0.080004
0.0364722
0.0217433
0.109371
0.0820786
0.0951262
0.0373024
0.0752649
0.214027
0.0973769
0.132531
0.0533189
0.104014
0.139813
0.164064
0.0155544
0.154133
0.174428
0.210525
0.0261825
0.0981816
0.102968
0.06387
0.0816552
0.033034
0.13227
0.39191
0.25786
0.12133
0.0849806
0.0544501
0.0680972
0.0961186
0.00691051
0.460425
0.142129
0.0662223
0.12696
0.0444622
0.12595
0.136557
0.108127
0.011188
0.116062
0.0762348
0.0323301
0.0497048
0.186797
0.123854
0.144932
0.103721
0.0244444
0.154725
0.156614
0.110795
0.114698
0.11881
0.183729
0.180223
0.0726052
0.0235496
0.313375
0.0610679
0.0750201
0.0370338
0.290331
0.271364
0.187488
0.159996
0.196219
0.201472
0.0680224
0.0354463
0.02751
0.182234
0.0535176
0.0839135
0.0717617
0.0519327
0.101189
0.100365
0.120408
0.0710933
0.027803
0.0528769
0.104944
0.0789674
0.0711099
0.06641
0.145948
0.21455
0.0185336
0.188789
0.117773
0.0402447
0.0996933
0.241432
0.241679
0.196659
0.331778
0.0736278
0.0340497
0.252209
0.0616479
0.0954011
0.200989
0.226756
0.0922753
0.124747
0.0588377
0.0249312
0.103635
0.0773597
0.0267196
0.0539257
0.0688359
0.102194
0.153295
0.106663
0.209368
0.130072
0.052675
0.0668234
0.128617
0.107603
0.0822619
0.160693
0.0637502
0.061749
0.279045
0.0612077
0.0753414
0.160892
0.189296
0.0935523
0.248968
0.192764
0.304384
0.220478
0.0154655
0.0452781
0.113861
0.0933545
0.0311818
0.0543846
0.0956775
0.160674
0.116854
0.0333675
0.136336
0.17129
0.0808775
0.0533905
0.0640265
0.0498182
0.0396512
0.0608394
0.0348603
0.165729
0.170873
0.0760862
0.0778796
0.168539
0.251244
0.16968
0.0708875
0.0380402
0.120322
0.0714769
0.0404634
0.107204
0.165513
0.182997
0.0586154
0.0545725
0.0634004
0.276744
0.278307
0.100105