0.0818231
0.235543
0.158821
0.215228
0.130487
0.165421
0.0707345
0.0719346
0.147913
0.0328511
0.235519
0.176091
0.0955111
0.114009
0.124911
0.167206
0.165986
0.0579896
0.0909656
0.211345
0.218457
0.108015
0.0787873
0.149573
0.0378753
0.114119
0.236431
0.143613
0.208089
0.203768
0.157337
0.149523
0.0967175
0.139476
0.291322
0.161201
0.0218746
0.0906619
0.070246
0.0213563
0.0740804
0.184081
0.106171
0.0963625
0.0366872
0.0723351
0.121015
0.0427914
0.0624916
0.135849
0.183601
0.0319855
0.140444
0.305577
0.126863
0.0967646
0.0499629
0.091571
0.13418
0.140535
0.11449
0.181912
0.0492113
0.253199
0.140054
0.0394042
0.0979904
0.0814743
0.129995
0.0919223
0.48368
0.418424
0.0644019
0.148692
0.0271124
0.0558276
0.0942557
0.0868642
0.00540036
0.104818
0.213837
0.153204
0.255457
0.0879385
0.0452274
0.0590831
0.0789274
0.0555183
0.0842873
0.0851639
0.137966
0.0784053
0.0142776
0.0421508
0.0364009
0.0295634
0.177702
0.494264
0.357548
0.115228
0.137111
0.0432301
0.0585505
0.115069
0.0381593
0.314424
0.300779
0.11382
0.309132
0.329116
0.248236
0.0764468
0.0350879
0.030261
0.0800912
0.053646
0.0825832
0.273875
0.122604
0.153591
0.176779
0.157416
0.0471576
0.0161215
0.0586707
0.256459
0.183935
0.185173
0.0597422
0.100049
0.121607
0.0729357
0.224864
0.227009
0.0521906
0.160836
0.063147
0.0288225
0.130084
0.0804036
0.157643
0.120004
0.131406
0.0793497
0.102989
0.02223
0.0249833
0.191752
0.212836
0.106652
0.0171039
0.0900938
0.156023
0.0267004
0.120757
0.0685797
0.134868
0.42621
0.134834
0.0825643
0.240796
0.413434
0.0980468
0.0171685
0.0194033
0.10393
0.0877925
0.0893718
0.0723884
0.0947901
0.0962714
0.116633
0.0433627
0.077152
0.079696
0.14817
0.0780989
0.0622221
0.117728
0.256006
0.0153582
0.0846615
0.184184
0.171881
0.175231
0.107604
0.0975751
0.132147
0.299934
0.149956
0.0241181
0.302869
0.204839
0.298902
0.0949608
0.149023
0.099903
0.32614
0.0686918
0.057869
0.0929951
0.0590849
0.111564
0.128026
0.0601756
0.0504494
0.151842
0.128836
0.153805
0.158046
0.0853165
0.108099
0.130049
0.0765676
0.0707384
0.202138
0.164656
0.0321483
0.0705884
0.0328338
0.247214
0.0308411
0.156174
0.181567
0.358997
0.0737146
0.09221
0.0504674
0.0367268
0.143078
0.106795
0.201376
0.238644
0.209156
0.112981
0.10423
0.108037
0.0168509
0.0593254
0.0648008
0.121012
0.15032
0.280071
0.0846502
0.18686
0.233164
0.070716
0.120504
0.139223
0.17055
0.165215
0.159178
0.131812
0.0764128
0.0694512
0.0660501
0.0523289
0.0712296
0.139891
0.123147
0.0783062
0.265671
0.118612
0.0807507
0.24179
0.293382
0.131008
0.163922
0.136372
0.1591
0.128218
0.129745
0.154262
0.12379
0.144908
0.167503
0.090221
0.0466999
0.019029
0.203949
0.0619069
0.137042
0.113265
0.294478
0.256091
0.160842
0.104643
0.145645
0.246287
0.0355061
0.117913
0.08366
0.185403
0.112677
0.0889716
0.0876607
0.207176
0.250578
0.0328775
0.220421
0.057563
0.406534
0.0699158
0.048991
0.100952
0.214474
0.208688
0.0226124
0.115503
0.0282612
0.137713
0.106483
0.0724832
0.0467902
0.207269
0.294626
0.0241934
0.161214
0.0390209
0.273507
0.0659086
0.0699272
0.0556448
0.172766
0.0653146
0.160896
0.171955
0.110721
0.0971231
0.0193775
0.0293995
0.0400634
0.0955787
0.192389
0.0764822
0.127517
0.17055
0.305627
0.068024
0.111039
0.102526
0.184553
0.0928852
0.141009
0.0611805
0.0921674
0.171489
0.0448557
0.0941053
0.137956
0.153897
0.108866
0.0458531
0.0161268
0.119823
0.461197
0.136894
0.133991
0.119141
0.359846
0.0815711
0.03194
0.0362064
0.127209
0.242776
0.0926357
0.0460002
0.0388056
0.0355717
0.187006
0.0944653
0.0746789
0.147437
0.163309
0.0987054
0.100642
0.212069
0.16401
0.0281618
0.00992358
0.0126794
0.113228
0.4543
0.122207
0.029513
0.00999645
0.0592899
0.0913363
0.0421953
0.0888525
0.156406
0.567892
0.15541
0.0622455
0.0419744
0.0825649
0.0555848
0.0250796
0.015315
0.0172302
0.0111859
0.0202695
0.217065
0.224642
0.116076
0.0338772
0.00811504
0.00193858
0.00770753
0.0204657
0.0279844
0.371588
0.296148
0.0819828
0.103574
0.0219952
0.0472985
0.04852
0.0967273
0.0306618
0.181363
0.106688
0.183284
0.107221
0.00718862
0.0155522
0.0150241
0.00383672
0.0869683
0.386829
0.445632
0.346828
0.0418201
0.00740103
0.000488929
0.00919636
0.0126032
0.02935
0.151434
0.198418
0.0734898
0.0268712
0.00429851
0
0.0102369
0.00769421
0.0551089
0.133975
0.145453
0.0514756
0.0317465
0.000894927
0
0
0.000207214
0.142026
0.301471
0.43419
0.189398
0.0194998
0.000536956
0
0
0.0014505
0.170901
0.44318
0.498829
0.123719
0.0240587
0.00175046
0.00428055
0.0114468
0.0193273
0.0353861
0.0806814
0.0951817
0.0779511
0.0575057
0.0207528
0.0318974
0.0242886
0.0373288
0.0123613
0.0220602
0.0236342
0.066385
0.0697015
0.0011105
0.00142488
0.000967098
0.00713571
0.150143
0.345949
0.569872
0.249575
0.104298
0.0156342
0.0107025
0.0149302
0.0236461
0.0808453
0.197645
0.455503
0.269428
0.182482
0.126312
0.0843998
0.0905747
0.0566629
0.0775033
0.0410298
0.0221146
0.0452939
0.19545
0.233173
0.107402
0.103193
0.0234808
0.121861
0.0568839
0.0469087
0.0423122
0.22214
0.112045
0.0381575
0.0849724
0.0701769
0.114018
0.343523
0.46446
0.153831
0.188877
0.175496
0.0720359
0.117971
0.0373875
0.0980861
0.172439
0.0764726
0.0449538
0.0796276
0.104246
0.146732
0.0192463
0.067144
0.15075
0.0859295
0.0867556
0.101244
0.0280426
0.202984
0.445254
0.116184
0.183709
0.129576
0.069567
0.110323
0.135295
0.0707814
0.0707933
0.0658508
0.0487636
0.0394065
0.0964193
0.11276
0.118489
0.163152
0.0277756
0.151958
0.266883
0.0691236
0.0733288
0.168672
0.109048
0.216819
0.309979
0.0312668
0.143
0.205499
0.196372
0.153382
0.0804664
0.0195015
0.0229353
0.0263844
0.106364
0.103069
0.165764
0.172848
0.25592
0.14135
0.0501901
0.0158534
0.0298032
0.0299864
0.108895
0.15601
0.209187
0.0857546
0.18348
0.08254
0.0711734
0.0879192
0.0971262
0.116393
0.158529
0.316226
0.271654
0.153231
0.10657
0.0851789
0.323128
0.187088
0.0834031
0.118412
0.0608692
0.202018
0.119292
0.0590297
0.0302007
0.10465
0.260187
0.0858497
0.196159
0.0821018
0.156448
0.149044
0.0937686
0.0622002
0.111889
0.180948
0.0791007
0.0864698
0.11145
0.181269
0.138613
0.148843
0.110227
0.312926
0.239904
0.0869166
0.154137
0.137992
0.0929585
0.237503
0.158443
0.118748
0.125316
0.0780383
0.052844
0.0584721
0.086139
0.129884
0.0206796
0.0656703
0.191414
0.171026
0.0505783
0.0790373
0.0122752
0.0341499
0.307851
0.103902
0.0440978
0.167809
0.162175
0.109795
0.309942
0.297706
0.222068
0.126852
0.0314126
0.0917109
0.129116
0.145077
0.0627126
0.22713
0.0893011
0.0523715
0.314813
0.314211
0.134272
0.167894
0.0492655
0.00314283
0.0115431
0.00671225
0.0360942
0.28941
0.0709364
0.00475182
0.017689
0.0175772
0.019814
0.00264065
0.0319839
0.118629
0.529368
0.0661536
0.00429087
0.00254166
0.00836402
0.00392898
0.0211324
0.040589
0.045823
0.311676
0.125314
0.00874048
0.0228775
0.00489253
0.0033134
0.00197155
0.0359478
0.183738
0.625528
0.0571612
0
0.00215905
0.0010375
0.0708965
0.0039495
0.0561009
0.125252
0.205351
0.00998577
0.0307226
0.0247177
0.124962
0.08324
0.00206285
0.0415239
0.0700985
0.05358
0.0245726
0.175911
0.353171
0.319474
0.0190618
0
0.0402411
0.192677
0.523049
0.0133921
0.0101106
0.0142171
0.0444433
0.0342035
0
0.0403162
0.119579
0.322652
0.00690537
0.101554
0.322485
0.198935
0.00904983
0
0.00168145
0.00239677
0.00079724
0.0435742
0.148281
0.353198
0.135507
0.00464586
0
0
0
0
0.0797572
0.237216
0.376251
0.0885804
0.00656775
0
0.00280241
0.00643559
0.0138582
0.00352346
0.112253
0.488659
0.127786
0.00497706
0
0
0
0.000301784
0.0134001
0.220522
0.494101
0.105172
0.0174971
0.00429834
0.000223184
0
0
0.0757817
0.174022
0.232212
0.0842314
0.0164483
0.030781
0.00156229
0.0017401
0.00261015
0.065186
0.192407
0.280271
0.0930451
0.00931362
0.0070675
0.000371973
0
0
0.029495
0.2395
0.494263
0.0986509
0.0206271
0.0494725
0.00260381
0.000248586
0.000372878
0.0362178
0.393501
0.494263
0.0915484
0.00809954
0.0180786
0.00200306
0.00580467
0.00870701
0.0328135
0.189146
0.216177
0.0383298
0.0122165
0.0115825
0.00527026
0.00631309
0.00560901
0.0190798
0.0792048
0.118369
0.0508747
0.00789152
0.0227991
0.0013609
0.000829239
0.00124386
0.0267924
0.418444
0.468644
0.0735284
0.00904026
0.00554112
0.00264578
0.000497543
0.00195087
0.0315218
0.332094
0.5553
0.121927
0.0336062
0.0187501
0.0125544
0.00645746
0.000956432
0.0108096
0.0206065
0.0681793
0.0699741
0.0357245
0.0406971
0.0171535
0.0260313
0.001716
0.0231934
0.0239934
0.0540212
0.0570279
0.0579555
0.0334228
0.013934
0.00278326
0.00350679
0.023105
0.2257
0.740546
0.180951
0.0842113
0.180529
0.0304856
0.0909308
0.0068627
0.00366966
0.0467356
0.423834
0.128019
0.0229256
0.0646227
0.0282837
0.102128
0.0639851
0.0542654
0.0674069
0.0338708
0.0349416
0.0811807
0.0311398
0.0542715
0.203944
0.266291
0.0817416
0.11229
0.0684004
0.276456
0.0879886
0.233069
0.0752579
0.148568
0.0630398
0.0602127
0.0860546
0.119911
0.154182
0.0807751
0.0741786
0.0899387
0.175449
0.348142
0.435767
0.203203
0.192684
0.18632
0.0894766
0.00731987
0.025415
0.0952216
0.113313
0.119918
0.168599
0.0817848
0.236691
0.0648311
0.0125136
0.043622
0.105634
0.043944
0.101532
0.150494
0.067456
0.101529
0.0407909
0.0316957
0.0695363
0.313883
0.219717
0.370962
0.166122
0.15498
0.0985556
0.0132211
0.0308502
0.224665
0.445805
0.154263
0.16266
0.12558
0.0436335
0.0429668
0.0681085
0.235832
0.188671
0.106321
0.0287967
0.0287971
0.0491235
0.0287505
0.0889666
0.0251349
0.167787
0.0769981
0.0891448
0.180419
0.306306
0.0744588
0.0385692
0.0166175
0.242049
0.23602
0.101302
0.145663
0.0626167
0.0485273
0.0256553
0.0618877
0.103391
0.206051
0.200492
0.13827
0.453481
0.17874
0.133296
0.0301663
0.256571
0.110945
0.0018874
0.00961252
0.0165206
0.0485227
0.192255
0.136326
0.00425972
0.00437463
0.00225102
0.000163368
0.000653472
0.00840086
0.0983785
0.596431
0.0667195
0
0.000263261
6.58152e-005
0.0103222
0.0068744
0.0366516
0.242335
0.222053
0.0823597
0.00742964
0.0398169
0.0125322
0
0
0.0101411
0.190363
0.596431
0.0531104
0.000765516
0
0
0.000441007
1.80072e-005
0.00209451
0.0875362
0.550152
0.0170332
0
0.00121529
0.00191705
0.00738048
0.000363765
0.00393355
0.0490651
0.34597
0.0124217
0.00378181
0.045573
0.0338114
4.3196e-005
0.00012605
0.000378151
0.0972002
0.550152
0.00903887
0.000264426
5.75695e-005
0.000561322
0.00421449
0.00155337
0.00673586
0.0648594
0.439296
0.00714366
0.00200336
0.00195799
0.00634496
0.0152799
0.00314074
0.00227064
0.00689173
0.046674
0.008921
0.0368991
0.319132
0.0769036
0.0232673
0.00431278
0.0019168
0.000166867
0.00514797
0.0108429
0.166852
0.852909
0.144677
0.0125862
0.00938415
0.0171232
0.0164787
0.0522473
0.00822813
0.00308846
0.0187314
0.0122776
0.0192866
0.0174714
0.0214749
0.013329
0.00850838
0.0241968
0.0228246
0.131204
0.0639542
0.00670102
0.00162802
0.000299578
0
0.000707122
0.00343058
0.124369
0.481752
0.0920718
0.0184784
0.0072595
0.000370707
0
3.61069e-005
0.000410748
0.248914
0.512638
0.14197
0.00638064
0.00526211
0.003148
0.00495026
0.0027437
0.00892027
0.0357859
0.15552
0.0824155
0.00486207
0.00234537
0.000595365
0.00165841
0.00107892
0.0011421
0.166012
0.499367
0.196433
0.00729696
0.00220972
0.000116301
0
0
0.0067375
0.211594
0.327953
0.0878561
0.0165272
0.000250351
0.000204833
0
0.00211249
0.0340886
0.232952
0.371574
0.080837
0.00371031
0
0.000140666
0.000261236
8.80047e-005
0.0009625
0.183821
0.461623
0.165756
0.0461203
0
0
0
0.00126749
0.0269344
0.244421
0.475184
0.17268
0.0155989
0.00499306
0.00116922
0.000419285
0.00267331
0.0647673
0.142302
0.336188
0.0570851
0.0103851
0.0603438
0.0154957
0.027009
0.00134027
0.0821091
0.0841179
0.297231
0.111292
0.0407553
0.000405931
7.1635e-005
0
0.00152013
0.0976601
0.193446
0.505332
0.130957
0.00470199
0.0200339
0.0121085
0.00654322
0.000217161
0.206868
0.213552
0.4822
0.217187
0.0133637
0.0803469
0.0386669
0.0390941
0.00282885
0.0978198
0.0660073
0.134736
0.140229
0.00665256
0.037101
0.027057
0.0203906
0.0329089
0.20086
0.0772355
0.154668
0.0764279
0.000279811
0.0327534
0.026513
0.0101695
0.0017602
0.242353
0.188128
0.45862
0.210231
0.000740487
0.026286
0.0122576
0.00315311
0.0288575
0.315088
0.253026
0.492221
0.186144
0.00254286
0.100631
0.0459476
0.154304
0.104146
0.189843
0.0511908
0.134442
0.0391718
0.0102059
0.0851076
0.119887
0.216109
0.130312
0.0525262
0.0188625
0.0266376
0.0190173
0.0942208
0.0949751
0.023646
0.0197586
0.0632767
0.255429
0.333023
0.4298
0.171747
0.374075
0.161959
0.0505039
0.0319361
0.0719315
0.0650053
0.0836959
0.147666
0.281658
0.18388
0.102429
0.0625042
0.145647
0.0846697
0.0383444
0.0207557
0.0450966
0.092581
0.28095
0.0874866
0.0755223
0.405177
0.107262
0.0357729
0.0334369
0.176973
0.100572
0.17275
0.0591844
0.106551
0.173682
0.0915706
0.0255812
0.0254928
0.0571877
0.123099
0.455517
0.060927
0.0630717
0.300492
0.188848
0.198741
0.020285
0.154321
0.125092
0.0332004
0.00520708
0.0249146
0.211022
0.184802
0.0339878
0.0152365
0.0371007
0.00841515
0
0
0.00811972
0.135289
0.582793
0.0299727
0.00194528
0
0
0.0702759
0.00595802
0.00634571
0.119664
0.283591
0.179149
0.0107656
0.0320921
0.00806017
0
0
0.00112156
0.126789
0.582793
0.107659
0.00258559
0
0
0.000117609
4.64462e-005
0.000139339
0.0649498
0.557995
0.00561872
0.000264853
7.80376e-006
0.000187842
0.00173344
0.000500099
0.00476051
0.0420806
0.337857
0.00634794
0.00200659
0.00251829
0.0029889
7.05651e-005
0
0
0.102108
0.557995
0.0162116
0.000198307
0.000931986
7.05651e-005
0.00166568
8.42527e-005
0.000754871
0.0553811
0.433464
0.0147848
0.00267428
0.0104475
0.00466102
0.0224445
0.05559
0.105635
0.0715598
0.273585
0.0621468
0.019331
0.0560183
0.0322331
0.0210492
0.195089
0.144436
0.129441
0.0394884
0.0598385
0.0202426
0.0386949
0.0251234
0.023055
0.0590439
0.0601734
0.0829376
0.449459
0.112897
0.0580114
0.114007
0.0711744
0.0432748
0.253651
0.124538
0.103668
0.112655
0.0856361
0.136756
0.0828359
0.104938
0.0188206
0.0582122
0.0277089
0.0655894
0.0299932
0.0242008
0.0266689
0.0649508
0.0832175
0.0110392
0.0144269
0.0151602
0.0343748
0.023786
0.0133681
0.192183
0.699836
0.372225
0.0347163
0.0627269
0.0262366
0.0447407
0.0246157
0.0773061
0.0744294
0.0336127
0.0468675
0.0791144
0.0206757
0.0384604
0.0428459
0.0295727
0.0749047
0.0549128
0.119122
0.0513458
0.00201328
0.000145726
0.0012567
0.00152197
0.000624359
0.00258143
0.0768136
0.306491
0.139268
0.0319434
0.000677795
6.24538e-005
0
0
0.00637055
0.198836
0.74236
0.217488
0.0410033
0.0346597
0.00801537
0.00203174
0.00136919
0.00599674
0.00947299
0.0379951
0.0299465
0.18775
0.264122
0.0346512
0.000280844
0
0.00226374
0.0240218
0.213175
0.106027
0.0178943
0.00522021
0.00190634
0.000635446
0
0.0130378
0.131792
0.453218
0.080445
0.00647947
0.00768667
0.0248051
0.0274917
0.00882236
0.0580562
0.210088
0.479396
0.0788798
0.125061
0.240114
0.0551111
0.00444812
0
0
0.0532577
0.2212
0.042589
0.107162
0.311607
0.175632
0.13889
0.0301599
0.0214991
0.158562
0.34969
0.0178595
0.00975392
0.00206032
0.0247454
0.0430625
0.0359992
0.0875672
0.179884
0.401502
0.0714477
0.0201204
0.0153961
0.00598795
0.0190349
0.0377894
0.142793
0.309025
0.403195
0.0982349
0.133557
0.177736
0.118724
0.208401
0.111531
0.0393241
0.147837
0.1996
0.0296793
0.182413
0.29478
0.125979
0.111214
0.099182
0.0266481
0.227265
0.205851
0.042872
0.0671605
0.0455557
0.0194371
0.0212743
0.040744
0.0759781
0.261233
0.32786
0.105458
0.258167
0.149439
0.0454047
0.0230812
0.0482153
0.0122059
0.0549168
0.127493
0.213812
0.0916535
0.396507
0.206597
0.160131
0.0949274
0.0130236
0.16159
0.18332
0.0493821
0.155355
0.327095
0.227202
0.164966
0.0921407
0.0193288
0.0481718
0.164089
0.122695
0.105651
0.0973941
0.0867793
0.101753
0.0733221
0.00621725
0.0122031
0.020773
0.0328286
0.244418
0.088743
0.0642354
0.147763
0.190399
0.137761
0.00333814
0.0734391
0.0464842
0.378693
0.221538
0.0391021
0.0575218
0.0314869
0.000888179
0.0138177
0.0320957
0.146372
0.54639
0.235952
0.124583
0.125277
0.08949
0.0685434
0.00291582
0.15853
0.271006
0.0383984
0.00724425
0.0133107
0.0772533
0.206822
0.124812
0.002505
0.0150537
0.00694253
0
0.000363954
0.00219623
0.105891
0.612019
0.0674018
0.001503
0
0
0.153662
0.0348791
0.059439
0.118894
0.20096
0.054335
0.0014389
0.0503409
0.0600006
0.0311037
0.00739429
0.0139963
0.119093
0.612019
0.0316571
0.000863339
0.0123238
0.00219025
0.000452712
0
0
0.064608
0.566218
0.0114414
0.000330176
0.00147144
2.3827e-005
0.00365349
0.000228785
0
0.0383294
0.32566
0.010352
0.00396242
0.0163486
0.00136347
0.00075452
0.000858712
0.000286237
0.0533708
0.566218
0.0149237
0.00144194
0.00086153
3.97117e-005
0.0101051
0.00776085
0.00200366
0.0368366
0.430435
0.0188708
0.0111811
0.0192345
0.00370664
0.0172754
0.00613229
0.00376316
0.0270426
0.0923007
0.0180478
0.0226478
0.0455269
0.0077342
0.0368734
0.0195371
0.00992603
0.0191246
0.0427613
0.0242792
0.0369562
0.0327259
0.0297308
0.0893579
0.113885
0.00512059
0.0234963
0.0978094
0.0324486
0.0333039
0.0776072
0.0292319
0.426142
0.779608
0.0196247
0.00930823
0.0328095
0.0225974
0.0254429
0.0446973
0.0259799
0.0238039
0.0195123
0.00204507
0.00341273
0.00463278
0.0117411
0.00820214
0.00685617
0.00850352
0.0803397
0.164663
0.0149206
0.00443115
0.00288279
0.00811391
0.00299627
0.00563243
0.00708329
0.174007
0.516979
0.0159708
0.00149575
0.00362775
0.00347429
0.0028654
0.00599948
0.00473436
0.25289
0.720371
0.114771
0.00189373
0.00124869
0.00164752
0.000377233
0.00114924
0.0032312
0.0640269
0.208124
0.0230174
0.000594136
0.000351775
0.000681873
0.00114754
0.00317776
0.00411572
0.154279
0.483781
0.0775689
0.000144124
0
0.000157221
0.000885634
0.00467079
0.011789
0.110748
0.51903
0.108586
0.000188975
0.000103106
0
0
0.00257896
0.00486034
0.169045
0.51903
0.204352
0.0136908
0
0.00187266
0.00153217
0.0161606
0.0557731
0.162101
0.403134
0.107298
0.0041176
0
0
0.00165069
0.0122784
0.00601601
0.184285
0.39156
0.212727
0.0722772
0.00849484
0.00280898
0.0123038
0.0277094
0.00278851
0.134131
0.372981
0.226986
0.052571
0.0255681
0.00621005
0.00416941
0.00677396
0.0472701
0.202066
0.354222
0.345064
0.0797338
0.076284
0.0108562
0.00250165
0.00139476
0.0504956
0.193322
0.241472
0.184496
0.0893106
0.024831
0.00486622
0.014513
0.00971592
0.006978
0.203267
0.345573
0.239185
0.0456588
0.0238398
0.00282948
0.0194773
0.0135377
0.0131949
0.293269
0.388408
0.236699
0.0359245
0.025416
0.00353959
0
0.000232884
0.0725707
0.337053
0.332094
0.174594
0.0102863
0
0
0
0.0234677
0.180517
0.13826
0.40465
0.248119
0.0753143
0.0390363
0.0147385
0.015185
0.0233109
0.0335842
0.083909
0.182673
0.160606
0.0970773
0.0413563
0.0479061
0.036318
0.0905889
0.0467352
0.286083
0.177184
0.110493
0.00406261
0.0104448
0.00854571
0.00385032
0.0971608
0.317871
0.225494
0.047449
0.035238
0.00899613
0.0174079
0.0276081
0.0364862
0.186131
0.506768
0.148885
0.0723822
0.0278584
0.0432721
0.0736976
0.037841
0.0314635
0.023673
0.0824308
0.35007
0.131585
0.0754548
0.0531417
0.0828358
0.0522715
0.00735522
0.0632846
0.193268
0.0459542
0.0266603
0.0398593
0.0822656
0.367728
0.211227
0.0646057
0.0671109
0.0312413
0.130493
0.11525
0.115964
0.188537
0.548927
0.319466
0.0357458
0.0652631
0.0963773
0.164013
0.031977
0.0245197
0.0332051
0.149863
0.0589751
0.00471228
0.0598416
0.0817213
0.029985
0.00471344
0.00415733
0.0503848
0.541608
0.0719766
0.00176792
0.0280724
0.00754022
0.0638433
0.029488
0.0324217
0.126356
0.453414
0.117307
0.0176597
0.0651531
0.063325
0.00993209
0.000564236
0.00118526
0.130613
0.541608
0.121032
0.00509341
0.0505448
0.0166562
0.00184326
0.00513009
0.000255131
0.0514887
0.497581
0.0267289
0.000947024
0.00291143
0.00422572
0.0506472
0.0865361
0.0121844
0.0337046
0.261797
0.0216009
0.00680936
0.010888
0.0101245
0.0473221
0.0744489
0.000321101
0.0452704
0.497581
0.0949397
0.0021914
0.088109
0.0516367
0.195847
0.497581
0.0892808
0.0137586
0.189944
0.053929
0.0026052
0.0723794
0.0635562
0.0807109
0.185101
0.0248709
0.00202503
0.0101381
0.00380707
0.00314363
0.00844162
0.00657481
0.159868
0.472705
0.0599536
3.11914e-005
0.000797547
0.00099293
0.00107404
0.00501239
0.0036103
0.191466
0.489875
0.125777
0.0140481
0.00372984
0.00268767
0.000808827
0.00497624
0.00719533
0.285373
0.489875
0.188655
0.0870053
0
0
0
0.000642759
0.00049718
0.103326
0.444614
0.0386283
0
0.00451749
2.90542e-005
0.000116217
0.000697195
0.000420121
0.0988347
0.454593
0.086672
0.0149005
0.00735736
0
0
2.92463e-005
0.00144886
0.144759
0.454265
0.157876
0.0285614
0.0309009
0.000612536
0.000204179
7.0353e-005
0.00473837
0.149927
0.454593
0.17575
0.0248341
0.0515015
0.00428775
0.00142925
0.00265322
0.0601954
0.115855
0.481617
0.125366
0.0185166
0.00123735
0
0
0.000917465
0.015752
0.181126
0.452944
0.13203
0.0174486
0
0.00551237
0.00451011
0.00642225
0.0991482
0.224979
0.277356
0.120477
0.0308609
0.00866146
0.00336835
0.00393913
0.00464376
0.156415
0.3491
0.171104
0.0414904
0.00652347
0
0.00565438
0.0081823
0.010252
0.322054
0.143575
0.187966
0.119495
0.0675722
0.0356365
0.0208598
0.0157966
0.00621482
0.14994
0.262701
0.127175
0.137984
0.0641031
0.106323
0.0224539
0.00947799
0.00528433
0.259357
0.291125
0.0698562
0.0124109
0.0121438
0.00509092
0.0122153
0.0104329
0.0204869
0.342887
0.427848
0.0449696
0.00613093
0.012339
0.0151891
0.00850334
0.00568679
0.0130513
0.51265
0.303503
0.13074
0.0446598
0.00612272
0.0268929
0.00374527
0
0.000669828
0.212805
0.334885
0.12578
0.0136564
0
0
0
0
0.0102776
0.316264
0.316805
0.0359666
0.000564592
0.00100072
0.00384184
0.000535039
0
0.00833288
0.413753
0.333696
0.217946
0.00579392
0
0
0
0
0.0332239
0.356955
0.206361
0.0502892
0.00517009
0
0.00113156
0.00210146
0.00448988
0.0695923
0.29916
0.235871
0.00579746
0.0016999
0.0121478
0.015424
0.0147102
0.0127278
0.142524
0.475396
0.158927
0.156203
0.00626931
0
0.00188593
0.00350244
0.027277
0.155406
0.258304
0.171288
0.0164844
0.000895616
0.0202463
0.0257067
0.0245171
0.0454617
0.378546
0.427624
0.0621597
0.00369877
0.0192199
0.0489754
0.214872
0.162291
0.0536668
0.0553246
0.0930129
0.0219537
0.011406
0.0486084
0.13022
0.414869
0.378095
0.0540571
0.0208788
0.0282751
0.116501
0.0171435
0.0189335
0.0300718
0.165827
0.0849268
0.194651
0.11982
0.279089
0.156411
0.0269942
0.0270025
0.113829
0.315371
0.264002
0.312141
0.0975791
0.147188
0.00884779
0.00415455
0.0307657
0.16755
0.418842
0.116863
0.0130103
0.0152598
0.00662555
0.018528
0.00773918
0.014493
0.148568
0.496508
0.0566955
0.00618174
0.0465213
0.0239653
0.151588
0.0291209
0.0177203
0.162802
0.351899
0.118931
0.0614789
0.0372929
0.0781943
0.116381
0.0734636
0.158475
0.155428
0.420075
0.0660743
0.00318676
0.0674762
0.0600628
0.09617
0.087942
0.0503727
0.0242106
0.198914
0.0475996
0.00532878
0.0904153
0.0750388
0.194967
0.456572
0.19084
0.00480767
0.0358282
0.0181197
0.000761254
0.0551085
0.0589597
0.0859464
0.187312
0.323037
0.0519041
0.0662171
0.0111733
0.0101725
0.0362
0.0572267
0.122736
0.49731
0.400295
0.0215859
0.000858401
0.00294871
0.0120821
0.00845394
0.045247
0.134008
0.449556
0.173891
0.0241898
0.000202418
0.000375919
0
0.0017642
0.00357408
0.210372
0.453901
0.175756
0.137289
0.00134556
0.000724533
0
0
0.000903792
0.128765
0.458924
0.160411
0.0106629
0.00354772
0.00343502
0.00353462
0.00552301
0.0220103
0.19785
0.310171
0.0866014
0.0501988
0.0199246
0.00870219
0.00333008
0.0105068
0.0221643
0.220376
0.598066
0.22297
0.0905325
0.0302853
0.00897456
0.00134206
0
0.0204864
0.242401
0.462785
0.184378
0.00902599
0.0467615
0.0344307
0.0093944
0.0177948
0.159947
0.14037
0.257717
0.0746342
0.0404036
0.0305506
0.0278509
0.00317105
0.00405066
0.0182565
0.0769187
0.114243
0.0726374
0.011103
0.00926966
0.0483154
0.0157904
0.0153152
0.0537391
0.30953
0.19124
0.109543
0.0148441
0.0112956
0.0354735
0.046651
0.0566703
0.383409
0.396901
0.072715
0.0126057
0.00208957
0
0.029874
0.0958876
0.120825
0.514123
0.0602457
0.0494749
0.0388667
0.0282035
0.0382909
0.0612974
0.0575221
0.0628025
0.0800836
0.0365947
0.133353
0.00279271
0.0336978
0.115862
0.105691
0.141078
0.189859
0.0891556
0.279978
0.0519968
0.0179459
0.022491
0.0140291
0.0184332
0.0394416
0.0823099
0.364351
0.469187
0.103785
0.0299099
0.0515649
0.0431433
0.0442993
0.0680835
0.036477
0.461037
0.0288137
0.0641847
0.0179415
0.0467909
0.0742016
0.098245
0.0906318
0.121277
0.140266
0.0800795
0.0542274
0.109994
0.193652
0.131954
0.181672
0.145781
0.0533982
0.10883
0.227569
0.0709185
0.0369469
0.0380394
0.0366554
0.0158265
0.021957
0.0167032
0.344276
0.277705
0.197754
0.0604477
0.0434006
0.0376253
0.0389453
0.00312246
0.098168
0.401299
0.0627758
0.0574462
0.116212
0.26821
0.11289
0.0526809
0.0605142
0.0247363
0.0728762
0.103242
0.166696
0.260704
0.328401
0.144187
0.0658967
0.0185369
0.0890599
0.275246
0.123752
0.149684
0.0225008
0.0218438
0.0714391
0.052232
0.0398833
0.248138
0.259521
0.165893
0.0419422
0.0192227
0.010049
0.0838224
0.0346612
0.0677904
0.385582
0.509654
0.045982
0.14105
0.247848
0.178003
0.169092
0.0871465
0.0261247
0.0943643
0.138879
0.114531
0.123542
0.126389
0.0315341
0.135596
0.048611
0.0457383
0.0628665
0.136614
0.192032
0.0409806
0.0437873
0.0370429
0.120539
0.0727066
0.174869
0.0529155
0.155459
0.213348
0.0748863
0.0397215
0.0456204
0.115935
0.111184
0.345129
0.118393
0.171978
0.20899
0.0519805
0.046453
0.16971
0.142943
0.198253
0.174608
0.116743
0.0663897
0.217646
0.0570794
0.0413995
0.125184
0.0575223
0.249855
0.425865
0.248628
0.127919
0.243022
0.0736225
0.0308236
0.0639127
0.175315
0.07687
0.105324
0.0936801
0.160789
0.173963
0.138649
0.251291
0.0998992
0.235293
0.0915006
0.00699999
0.0680655
0.113227
0.158541
0.0500726
0.0718879
0.0383478
0.0747179
0.288859
0.295903
0.184887
0.173762
0.260186
0.119636
0.169347
0.0792593
0.108686
0.160987
0.088054
0.127392
0.355744
0.0494903
0.183089
0.38448
0.0794203
0.0492493
0.0345425
0.0297741
0.0367981
0.0944906
0.0709061
0.388425
0.270783
0.0289162
0.00884651
0.0542939
0.0817487
0.0998088
0.160049
0.121634
0.0970226
0.152094
0.0716519
0.0881454
0.0730852
0.0934051
0.0979326
0.268082
0.113838
0.104924
0.0756669
0.0315102
0.0983424
0.290371
0.178715
0.200169
0.323829
0.167699
0.414943
0.0894072
0.000784055
0.043276
0.116826
0.0758888
0.0853641
0.118244
0.137583
0.15138
0.0184644
0.0105602
0.109067
0.113208
0.0447908
0.0491565
0.0765375
0.087483
0.0510303
0.0147551
0.0348939
0.255678
0.498382
0.148854
0.122454
0.143476
0.00611848
0.0245448
0.00900831
0.045103
0.25558
0.314729
0.120289
0.0377071
0.0265466
0.112853
0.0877273
0.0613069
0.036298
0.190867
0.181296
0.0917829
0.0541219
0.068777
0.125961
0.0513106
0.0970292
0.0367908
0.110432
0.110486
0.107907
0.0433336
0.0342036
0.0169061
0.0542428
0.0122432
0.0919682
0.391625
0.358191
0.24233
0.0913479
0.0351495
0.139561
0.130625
0.0264599
0.0359094
0.367669
0.128073
0.118024
0.0572398
0.0185876
0.0653605
0.034355
0.019958
0.0532279
0.0769099
0.0438929
0.0380431
0.0313223
0.0157742
0.0895612
0.178349
0.0927023
0.0725017
0.166422
0.111026
0.0474658
0.16165
0.0669861
0.137754
0.0720943
0.0134757
0.150106
0.201368
0.125671
0.0279015
0.0313796
0.058013
0.364987
0.295172
0.28908
0.28918
0.186445
0.293508
0.0432685
0.109759
0.297909
0.0329824
0.0995911
0.112867
0.0309478
0.0731271
0.15201
0.090374
0.130646
0.162984
0.0418184
0.0827082
0.16802
0.150875
0.0573924
0.168777
0.185458
0.110412
0.151218
0.138522
0.138176
0.404985
0.130464
0.0339875
0.213061
0.193622
0.100421
0.206185
0.156111
0.047651
0.194765
0.108363
0.0290218
0.118959
0.300859
0.171863
0.130959
0.132748
0.0836179
0.119983
0.238301
0.0499205
0.0316575
0.123094
0.0650603
0.0816855
0.170194
0.314012
0.333685
0.318709
0.0720732
0.0182325
0.0670815
0.0585299
0.145881
0.267479
0.0940407
0.0627047
0.100211
0.0485265
0.0111004
0.0969884
0.069483
0.1036
0.266355
0.266747
0.165907
0.271358
0.0385046
0.0178597
0.053574
0.0270794
0.09888
0.0449378
0.196488
0.350806
0.244421
0.0556043
0.0232897
0.0257264
0.0118581
0.0420476
0.149501
0.136288
0.177558
0.114605
0.0713439
0.0651617
0.0477114
0.061052
0.0272939
0.0521696
0.190738
0.227963
0.375125
0.0060261
0.0123877
0.0204637
0.0119588
0.0459184
0.12976
0.29456
0.167478
0.299467
0.156923
0.0872366
0.0378195
0.075097
0.196462