0.105449
0.0942349
0.094607
0.0339438
0.0572751
0.0692359
0.0455075
0.0769522
0.0839582
0.203488
0.248198
0.112656
0.017021
0.0224546
0.0309168
0.0491737
0.153782
0.243227
0.22237
0.125544
0.184091
0.017171
0.0602317
0.0510509
0.0672028
0.0370576
0.152463
0.219232
0.134648
0.0767696
0.0339441
0.0413012
0.050853
0.0576682
0.193808
0.430463
0.0493414
0.0948451
0.0546445
0.00634241
0
0.02625
0.119108
0.16214
0.146484
0.0171481
0.0430671
0.121411
0.0503476
0.0377428
0.115223
0.24813
0.150475
0.195708
0.142307
0.118289
0.0483061
0.0242189
0.00419569
0.0297836
0.0815373
0.182556
0.218582
0.177708
0.288324
0.488696
0.0952222
0.0119639
0.0669645
0.177169
0.0870416
0.0841389
0.0428954
0.0455851
0.100471
0.0730568
0.0931999
0.0549473
0.125105
0.0201244
0.0635259
0.291418
0.174039
0.094284
0.0597817
0.0887334
0.0116732
0.0848508
0.0194777
0.210443
0.186403
0.073466
0.285394
0.103846
0.0489571
0.0344741
0.122853
0.0469739
0.0934405
0.42928
0.0783615
0.0581028
0.0857401
0.14266
0.0784737
0.285914
0.119158
0.32254
0.234316
0.24081
0.0526861
0.0354157
0.0173212
0.00400228
0.00935078
0.0127137
0.114103
0.506382
0.201093
0.0812859
0.0551277
0.0190411
0.00689768
0.0138811
0.103581
0.250557
0.221022
0.171231
0.0571361
0.0405288
0.031465
0.0348252
0.121808
0.081284
0.190517
0.276857
0.168087
0.113422
0.0569384
0
0.0420494
0.158367
0.198116
0.167526
0.385268
0.0192921
0.0288833
0.018294
0.0103392
0.0103067
0.0432958
0.201755
0.315838
0.274437
0.0472449
0.0115793
0.0112511
0.0132977
0.0113102
0.0455113
0.299603
0.258373
0.147166
0.0218985
0.0263697
0.00958575
0.00732502
0.117716
0.268583
0.262104
0.139866
0.131183
0.0798742
0.0284712
0.0456057
0.0738503
0.153826
0.153643
0.163018
0.105001
0.224837
0.063562
0.0235942
0.00601526
0.00810723
0.00115278
0.00844076
0.121265
0.291733
0.366715
0.0902618
0.0185593
0.000859324
0.00331895
0.00972797
0.0281932
0.0887703
0.444051
0.157228
0.101006
0.0520687
0.0461394
0.0640834
0.0495086
0.0198662
0.0466801
0.13773
0.440779
0.0969652
0.0361038
0.0084348
0.0242802
0.0159928
0.0248243
0.0497027
0.261087
0.252913
0.0455306
0.00200323
0
0
0.0379083
0.0536977
0.0621799
0.30348
0.356234
0.00811206
0
0
0
0.0333554
0.0372905
0.0257821
0.393986
0.36861
0.0577063
0.010908
0
0
0.00541547
0.0290824
0.0283419
0.168785
0.360698
0.0469228
0.023014
0.00621122
0
0.00476506
0.026752
0.0346267
0.29302
0.334842
0.00964837
0
0
0
0.00182274
0.00273411
0.00172548
0.208557
0.420314
0.0256761
0
0
0
0
0
0.00511226
0.332754
0.28805
0.0344566
0.0198149
0.00504587
0
0.000260391
0.00224763
0.00676195
0.206486
0.420099
0.0430907
0.00926447
0.000720839
0
0
0.00267239
0.0265843
0.341791
0.165294
0.0293446
0
0
0
0
0
0.0105725
0.281033
0.104825
0.0243692
0
0
0
0.000614418
0.0034817
0.0557698
0.37398
0.146087
0.0118582
0.00155872
0
0
0
0.00273117
0.0477782
0.413694
0.1366
0.00322713
0.00190476
0
0
0.00324172
0.00451658
0.0456516
0.63523
0.0968703
0.018738
0.0369205
0.00479598
0.0137296
0.0272033
0.127078
0.0767687
0.103924
0.105136
0.0269618
0.0415716
0.0209215
0.0206135
0.0483328
0.0782888
0.0776028
0.170816
0.0786382
0.0219079
0.0177723
0.0352632
0.00340609
0.0288471
0.15287
0.211633
0.335818
0.243251
0.0788719
0.0559116
0.0253571
0.00401132
0.0363476
0.0938288
0.196486
0.635455
0.0805009
0.0672055
0.0479538
0.0351639
0.0290856
0.0247453
0.0140074
0.0387584
0.0925111
0.122923
0.188736
0.250134
0.155495
0.119246
0.0087163
0.00882428
0.0157001
0.0365851
0.112484
0.0891904
0.0985808
0.0618528
0.0697595
0.0425361
0.0411009
0.100394
0.211363
0.0520153
0.120192
0.207343
0.348236
0.613099
0.045911
0.0273068
0.0405006
0.0167284
0.147519
0.0582839
0.166321
0.0974022
0.0474814
0.0287141
0.0524298
0.0694527
0.0556141
0.14023
0.021655
0.0508496
0.0332701
0.0349642
0.175595
0.323141
0.200079
0.106771
0.0950144
0.144995
0.164458
0.204032
0.283661
0.0414728
0.0743294
0.0547164
0.0250978
0.189872
0.224402
0.199851
0.074467
0.0288946
0.214492
0.327728
0.219395
0.254402
0.0582049
0.0231898
0.0166786
0.0293316
0.0168399
0.121481
0.22236
0.181043
0.104747
0.0553102
0.0338394
0.025897
0.0451126
0.00941579
0.109323
0.229118
0.19315
0.0999627
0.117509
0.0622387
0.0456615
0.0422539
0.00941579
0.137326
0.257321
0.281944
0.279894
0.0881667
0.0450292
0
0.0627719
0.015693
0.165197
0.413341
0.377463
0.147336
0.0482808
0.0276273
0.00704832
0.00770556
0.00425137
0.153053
0.295031
0.113104
0.0491999
0.0639196
0.0359512
0.0285628
0.020034
0.031404
0.154169
0.174504
0.0473133
0.0846285
0.0548199
0.0430822
0
0.0107219
0.00268047
0.199025
0.41088
0.412902
0.103541
0.0753191
0.0610718
0.0149443
0.00248289
0.00282906
0.221723
0.243971
0.278886
0.234425
0.0961509
0.0625877
0.0719496
0.0606903
0.0623702
0.100336
0.0652246
0.0932621
0.121524
0.204106
0.104732
0.076336
0.068114
0.0473575
0.0320074
0.0882587
0.139865
0.101094
0.174979
0.103403
0.0348086
0.0234403
0.0183394
0.203249
0.153916
0.178208
0.393163
0.164839
0.253949
0.0623938
0.0913482
0.0518864
0.0500456
0.189626
0.2365
0.23575
0.247677
0.0899742
0.0857635
0.0367008
0.018685
0.00733543
0.108704
0.0781468
0.0966081
0.30887
0.1082
0.109545
0.020638
0.0218862
0.00708299
0.0989097
0.100844
0.16346
0.0841836
0.205279
0.0832088
0.0611679
0.0311417
0.051348
0.191118
0.239458
0.0639646
0.122421
0.0591332
0.0698437
0.0178376
0.036477
0.0495809
0.207361
0.273011
0.125897
0.272006
0.119347
0.114188
0.0189154
0.0166311
0.00683429
0.0296177
0.0288688
0.135955
0.369489
0.19445
0.0895739
0.0205282
0.0151378
0.00410057
0.0371445
0.0451268
0.299298
0.0979659
0.0478187
0.0895621
0.0946889
0.0922488
0.04784
0.0784555
0.0662299
0.0926569
0.128999
0.105449
0.151613
0.220175
0.206266
0.042117
0.0585818
0.0151157
0.10934
0.0991116
0.0726964
0.0281869
0.0176427
0.0020612
0.00635146
0.0203932
0.0747037
0.380642
0.124036
0.0267668
0.0257476
0.00919893
0.0105362
0.107836
0.0618353
0.121995
0.618773
0.0634511
0.0717365
0.0872829
0.0719438
0.0575906
0.0407962
0.0359704
0.0225065
0.0843156
0.0467764
0.0339389
0.0635858
0.0218144
0.0624991
0.179545
0.151499
0.135272
0.107203
0.0456468
0.011762
0.00974966
0.0212141
0.00124738
0.00693607
0.0121708
0.125613
0.334338
0.155438
0.0298324
0.0146656
0.0116153
0.000686177
0.0100047
0.0241597
0.109205
0.52946
0.0817781
0.00620705
0.00139281
0.0157525
0.0126134
0.0263785
0.0166977
0.10051
0.3105
0.192463
0.0554991
0.0113762
0.00919915
0.0266957
0.0292063
0.0347217
0.112798
0.516911
0.114643
0.0433888
0.0398638
0.0473777
0.0431676
0.0347058
0.0396221
0.0881448
0.213768
0.0270706
0.0458254
0.0731686
0.316942
0.327358
0.0340549
0.0216973
0.0327141
0.0152445
0.097651
0.0513082
0.0264706
0.100204
0.188213
0.086019
0.0375241
0.10508
0.211312
0.016415
0.0160432
0.0608887
0.46619
0.48342
0.0619687
0.018274
0.0380163
0.0159153
0.0189622
0.0603896
0.0645263
0.212975
0.180656
0.00507687
0.00903365
0.00320252
0.00917216
0.109414
0.121073
0.120921
0.18269
0.0915174
0.0197379
0.0388309
0.109117
0.212601
0.0060717
0.00989943
0.0382785
0.338486
0.406389
0.0029794
0
0
0.00131031
0.0454741
0.0335466
0.0767504
0.320171
0.525502
0.0267985
0.0273743
0.0909917
0.107626
0.0467967
0.0273952
0.0238488
0.0259616
0.011081
0.0109582
0.1014
0.226353
0.194818
0.0151289
0.00709841
0
0.00429484
0.00107371
0.0369391
0.250198
0.352893
0.0849522
0.0239227
0.00950741
0.0188112
0.04363
0.0882519
0.0174074
0.128625
0.259
0.140907
0.0255173
0.000228032
0
0.000265142
1.39548e-005
0.00617816
0.252328
0.630322
0.221716
0.0127774
0.00314639
0
0.000635174
0.000158793
0.0483948
0.146734
0.26128
0.0670185
0.0226664
0.0190346
0
0
0.000767822
0.0967269
0.0866848
0.166318
0.128961
0.0175512
0
0
0
0
0.0125983
0.168507
0.593645
0.210221
0.0185413
0.0203419
0
0
0.000109689
0.0644389
0.293913
0.447218
0.211147
0.0271713
0.0293559
0
0.000430001
0.00340304
0.0750098
0.0687794
0.138261
0.180636
0.0285589
0.0370095
0.00190216
0.00364406
0.00387649
0.0147115
0.131862
0.210686
0.116602
0.0159195
0.0303729
0
0
0.00339658
0.0617028
0.28622
0.384005
0.254175
0.0165992
0.00740196
0
0
0.0209268
0.123024
0.37724
0.473716
0.26103
0.0304368
0.03536
0.00330557
0.00302615
0.00411759
0.00845302
0.105831
0.198854
0.0572275
0.0465039
0.0112657
0.00454761
0.00453691
0.0198431
0.00666771
0.0654756
0.143399
0.0852919
0.0467941
0.0107704
0
0
0.0175026
0.128217
0.280372
0.566452
0.243907
0.104518
0.0326737
0.00217604
0.000625643
0.0300641
0.0989227
0.302693
0.325692
0.196683
0.121954
0.0467461
0.0455209
0.0856164
0.0525261
0.0150147
0.0302089
0.0766695
0.126664
0.0858357
0.0597369
0.122571
0.161366
0.138942
0.0204519
0.0304622
0.0126666
0.0633572
0.281556
0.164983
0.0390809
0.0205518
0.0309491
0.0381252
0.201515
0.25464
0.350026
0.23339
0.208
0.096688
0.0344155
0.0457476
0.00163473
0.0424892
0.164915
0.238826
0.0706982
0.0439223
0.103045
0.0764169
0.108095
0.10855
0.0757139
0.0160057
0.0660905
0.0856537
0.030058
0.0755411
0.0290201
0.121574
0.221924
0.131299
0.157483
0.0852884
0.166832
0.125578
0.0694558
0.0112568
0.0546967
0.0810536
0.0886895
0.101214
0.139765
0.25274
0.140401
0.079176
0.0318918
0.0814544
0.24628
0.115562
0.237825
0.201847
0.157514
0.0981868
0.0383018
0.0233081
0.0253878
0.0306709
0.0313504
0.0677304
0.170987
0.311003
0.331329
0.0636432
0.0893129
0.0626058
0.0252126
0.0472571
0.0769704
0.195585
0.146978
0.150434
0.138882
0.0592034
0.0455319
0.0380348
0.0231798
0.0494671
0.244502
0.264224
0.377124
0.1775
0.183767
0.0561229
0.00652222
0.0112821
0.016959
0.0719723
0.0500669
0.0691498
0.0191417
0.147513
0.153268
0.0256443
0.00692296
0.0210713
0.0255054
0.00383069
0.00605852
0.0213883
0.291669
0.419315
0.0196406
0.00223976
0.00581696
0.00160382
0.0500241
0.0672159
0.0227115
0.231197
0.152934
0.00261277
0.00140769
5.08116e-005
0.00221945
0.00481083
0.00537729
0.00443315
0.414325
0.561735
0.0351405
0.000159966
0
0.000317064
0
0
0.00631315
0.171195
0.318751
0.00284778
0
0
0
0.00263571
0.00028697
0.00626442
0.159456
0.430771
0.0161255
0.012225
0.0115084
0.00404511
0
0
0.000534661
0.200902
0.460105
0.0198065
0
0
0
0.00126106
0.000277244
0.00132963
0.161881
0.553828
0.0172386
0.00709808
0.00110107
0.000902952
0.0307321
0.00255467
0.0103818
0.0727013
0.262083
0.0352853
0.0921758
0.156855
0.0937717
0.0742886
0.0100468
0.0055087
0.00309886
0.000366131
0.00390533
0.123384
0.659437
0.342121
0.0167773
0.00529208
0.0156258
0.0593206
0.317584
0.0452443
0.0424076
0.0251244
0.0261355
0.0409851
0.0349624
0.0391099
0.00867751
0.00944909
0.0151198
0.0366558
0.111842
0.069584
0.0105101
0.0031684
0.000465744
0.0010887
5.73e-005
0.00100167
0.102527
0.376548
0.103451
0.00198981
0.00335478
0
0.00065322
3.438e-005
0.0137211
0.301736
0.619895
0.0868273
0.00983254
0.0130861
0.00460529
0.0076209
0.00377038
0.00298103
0.031183
0.114206
0.0291058
0.00313048
0.00579005
0
0.00457254
0.000721985
0.0034491
0.114519
0.489419
0.0487913
0.00322625
0.00210272
0
0
0.00150977
0.017255
0.142076
0.343444
0.0574759
0.0131654
0.00726043
0
0
0.0105684
0.0747205
0.14035
0.295342
0.0861302
0.00173759
0.000378582
0
0
0.000215681
0.00484107
0.0856553
0.4403
0.0376486
0.0107913
0.00889412
0
0
0.00150977
0.0233988
0.123517
0.670393
0.0631507
0.0294509
0.0163722
0
0
0.00716511
0.0699086
0.0927039
0.226042
0.0686586
0.0268698
0.0107774
0.000288075
0
0.0107908
0.0861315
0.183419
0.175574
0.0804288
0.0215279
0.0166477
0
0
0.00296014
0.0279356
0.143072
0.630607
0.0656347
0.0120866
0.00511405
0
0
0.0150974
0.0858182
0.284952
0.489801
0.106682
0.037365
0.0241603
0.0020478
0
0.00677597
0.0726516
0.144088
0.243892
0.161605
0.0462438
0.0431647
0.00603774
0
0.00146056
0.0553811
0.0667322
0.195054
0.115864
0.0138028
0.00237485
0.00370666
0.00759473
0.0112312
0.130456
0.298081
0.493939
0.195043
0.0182223
0.0110388
0.00791566
0.0290012
0.0143004
0.107895
0.195947
0.414297
0.289251
0.0418319
0.0310099
0.0149675
0
0.00825626
0.0183957
0.036436
0.121388
0.0938597
0.0584547
0.0384908
0.0154682
0.00290016
0.0128309
0.038286
0.0294792
0.10311
0.102703
0.0178619
0.00870694
0.00909205
0.0145748
0.00964219
0.0218414
0.0873469
0.491841
0.40822
0.0583107
0.00734146
0.010002
0
0.00173271
0.0174521
0.123871
0.478548
0.289189
0.0541151
0.0491366
0.0692708
0.0250044
0.132633
0.11508
0.163595
0.0799108
0.114046
0.0789365
0.124631
0.108289
0.0865416
0.141243
0.0460893
0.0341713
0.0244613
0.042732
0.116605
0.0571678
0.0981778
0.0551586
0.504353
0.112495
0.272763
0.0528901
0.0109574
0.0149007
0.0443392
0.0861106
0.0631032
0.411375
0.0541362
0.0698431
0.0499124
0.00994327
0.00996207
0.0147615
0.0111886
0.112598
0.129454
0.00885079
0.0037932
0.00140088
0.0022751
0.00071386
0.00113823
0.00245501
0.256683
0.466871
0.0205975
0.000397301
0.000200126
0.000325014
0.00104275
0.00434635
0.018249
0.113082
0.165895
0.00782947
0.00977885
0.0119473
0.0020202
4.13854e-005
0.000234628
0.0114163
0.334054
0.65586
0.00236063
0.000836078
0.00160011
0.0002886
0
0
0.000163659
0.176176
0.389514
0.0129508
0
0
0
0.00068923
0.000859902
0.00149555
0.14032
0.393244
0.00906921
0.00654988
0.000935372
0.000483419
0
0
0.000779081
0.241366
0.535194
0.00310447
0
0
0
0.00128953
0.00144692
0.00246958
0.1699
0.440747
0.0242214
0.00159132
0.00159007
0.00116497
0.017685
0.0219904
0.0253678
0.10891
0.483025
0.0635754
0.104517
0.0295115
0.0241152
0.0436307
0.0529528
0.0529265
0.0190179
0.0264596
0.0761734
0.104315
0.0500434
0.050892
0.0247025
0.0283726
0.0216511
0.135618
0.491113
0.122806
0.0392582
0.0438115
0.0386352
0.0412541
0.0718496
0.0104837
0.160025
0.0725699
0.070727
0.0607581
0.0686348
0.0583181
0.0586881
0.0839479
0.0216835
0.0272943
0.0286895
0.0436381
0.07832
0.0861828
0.0798883
0.0629347
0.111375
0.0100729
0.0133837
0.0130173
0.0357949
0.220666
0.52612
0.147978
0.0694408
0.12518
0.0287402
0.0953599
0.0546924
0.0329028
0.0415155
0.054152
0.0608228
0.120045
0.201388
0.122917
0.0318939
0.059391
0.0504775
0.0464181
0.0408637
0.0922807
0.00506948
0.00976211
0.000863647
0
0.0085206
0.00635093
0.0588374
0.253944
0.0428169
0.00217174
0.00396409
0
0
0.00846825
0.00405848
0.129035
0.845843
0.0906817
0.0352035
0.0367729
0.016363
0.00117681
0.0230967
0.00719946
0.0175651
0.0206288
0.0175268
0.0779542
0.0868447
0.0217524
0.00231084
0.0186774
0.00586639
0.0648429
0.164193
0.0560986
0.000843487
0.00126523
0
0
0.000604873
0.00224163
0.113697
0.44085
0.0340688
0.00547698
0.000180747
0
0
0.00179138
0.0143402
0.19615
0.584964
0.0475981
0.0438493
0.091673
0.00376233
0.000418036
0.000581602
0.00232537
0.0562877
0.172881
0.0298538
0.100569
0.240459
0.00857209
0
0
0.0114194
0.169266
0.434253
0.0280711
0.0208878
0
0.0130183
0.0140056
0.01617
0.0459298
0.143761
0.447185
0.0782879
0.0254499
0
0.0562332
0.0487682
0.0411547
0.0530086
0.0727384
0.254872
0.175646
0.0845817
0.29173
0.0946387
0.0278767
0.0988912
0.0693905
0.22804
0.395092
0.0275468
0.0425523
0.156201
0.225192
0.169812
0.234317
0.0852823
0.130923
0.1877
0.0990346
0.0169671
0
0.0271505
0.0186147
0.0138505
0.019754
0.0913368
0.311707
0.19896
0.0237514
0.000142248
0.00150267
0.000119547
0.00649535
0.0484212
0.225143
0.34915
0.143494
0.0369637
0.0804195
0.101584
0.0940376
0.10005
0.103957
0.180256
0.23975
0.124594
0.0112435
0.0484667
0.0120612
0.0680796
0.0975901
0.345898
0.392924
0.282487
0.0944705
0.236108
0.122408
0.115833
0.114546
0.272945
0.0144221
0.0543885
0.00419889
0.00966142
0.0198014
0.0293645
0.0981221
0.160153
0.262191
0.0136668
0.0372141
0.0231893
0.00872434
0.194922
0.305255
0.150008
0.210666
0.0992779
0
0.00101274
0.0174726
0.0554638
0.0868186
0.1066
0.161804
0.354533
0.215703
0.0133832
0.00483932
0.0191615
0.0908848
0.000604891
0.00241496
0.0155397
0.135385
0.0904515
0.0074517
0.00694583
0.00582265
0.00124971
0
3.21624e-005
0.00981614
0.315694
0.446933
0.00548175
0.00206495
0.000723792
9.21165e-005
0.00533279
0.00684145
0.0207578
0.251247
0.11082
0.0142383
0.00613636
0.00229248
0.0101822
0
0.000561863
0.00307411
0.497349
0.493834
0.0281626
0.0365349
2.88284e-005
0
0
0
0.000749593
0.186247
0.459854
0.00169673
0.000379308
0
0
0.000687815
0.000786246
0.00658563
0.107811
0.357498
0.0173516
0.000448427
0.00136282
0.000877206
0
0
0.00064267
0.282741
0.530172
0.00582798
0.00999343
0
0
0.013743
0.00265585
0.00949578
0.161268
0.383202
0.00974612
0.0067876
0.000194689
0.00557572
0.0110628
0.0209452
0.0412652
0.0848374
0.202585
0.047538
0.00200298
0.016313
0.0129123
0.0264291
0.0538483
0.0215741
0.120143
0.0675441
0.00749832
0.00192033
0.0134512
0.033337
0.152806
0.142755
0.0479821
0.115907
0.172317
0.0353299
0.018336
0.00216542
0.0477326
0.521206
0.514253
0.0465242
0.054116
0.045181
0.00466895
0.00183484
0.00129925
0.182367
0.017268
0.0180652
0.00790012
0.021924
0.0146428
0.00122119
0.00100158
0.00368565
0.00819647
0.0435153
0.0770822
0.0238649
0.00881534
0.0130226
0.00596288
0.00284245
0.00454888
0.00820029
0.371214
0.19126
0.0144816
0.01153
0.00811864
0.000121692
5.21536e-005
0.00433463
0.0477627
0.659451
0.515732
0.0521174
0.00489509
0.00528372
0.000851841
0.000365075
0.00722438
0.0197509
0.066628
0.0853495
0.0171138
0.000525502
0.00582002
0.0013407
0.00235474
0.000749868
0.00494777
0.236611
0.189229
0.017787
0.0010319
0.00289084
0.000324009
0.00509743
0.00305642
0.00681126
0.216334
0.424602
0.0976417
7.50717e-005
0.0014244
0.000184916
7.92497e-005
0.000576928
0.00792612
0.412173
0.639459
0.0868398
0.000147414
0.000291128
0
0
0
0.00511648
0.185324
0.245207
0.00397792
0.000726035
6.86217e-005
0.000549168
0.00701679
0.010265
0.00679213
0.168866
0.482154
0.028719
0.00253109
0
0.00366247
0.0392493
0.0342941
0.0105053
0.31509
0.43062
0.0116981
0.00258316
0
0.00109594
0.0158926
0.00420159
0.00387788
0.194397
0.489829
0.076902
0.0177176
0
0.00182656
0.0264876
0.0082261
0.0142202
0.131653
0.529843
0.121306
0.0147707
0.0375956
0.01783
0.0710043
0.0453175
0.0442513
0.0973822
0.313645
0.150543
0.0945124
0.0972674
0.0215798
0.0544481
0.0393662
0.056236
0.177256
0.419672
0.142092
0.0147255
0.000417742
0.00416135
0.00956977
0.0211466
0.0937158
0.171622
0.348422
0.126101
0.0141839
0.00292419
0.0263254
0.028465
0.0314
0.104645
0.0922786
0.300082
0.0624918
0.0955081
0.0861997
0.0596431
0.104194
0.0693946
0.0296519
0.0455547
0.163576
0.0215419
0.218536
0.140735
0.252238
0.200916
0.0813068
0.0440818
0.190814
0.492085
0.0816946
0.0272264
0.00983868
0.0189317
0.0432773
0.0170482
0.0201698
0.261832
0.285067
0.0314991
0.156365
0.0873668
0.0939767
0.0626449
0.0232997
0.047697
0.104348
0.241567
0.0724605
0.0623298
0.0745839
0.0137118
0.00280453
0.0517267
0.0484102
0.0756422
0.0924735
0.0648892
0.212377
0.32114
0.04289
0.0071131
0.0500508
0.0670177
0.101943
0.142588
0.0452422
0.043044
0.116445
0.0711668
0.0099942
0.102223
0.0803121
0.0628838
0.061921
0.0174809
0.296547
0.529974
0.136063
0.0497917
0.0743272
0.0343136
0.00223756
0.00413043
0.0108305
0.145574
0.140018
0.0100832
0.00905404
0.00296326
0.00655082
0
0.000473301
0.0014199
0.313588
0.418711
0.0184742
0.02853
0
0
0.00103757
0.00123389
0.00162654
0.117512
0.285025
0.0551309
0.0385662
0.00239377
0.00109611
0
6.76144e-005
0.000202843
0.247213
0.635092
0.15757
0.0589937
0.0131832
0.024104
0.012302
0.00345396
0.00057325
0.227851
0.42059
0.0188408
0.0170822
0
0
0.118014
0.0729957
0.00614269
0.10279
0.231259
0.0218167
0.0238911
0
0.00663988
0.0826688
0.0690123
0.000744515
0.158249
0.379895
0.131266
0.0435834
0.0250185
0.058811
0.312904
0.525624
0.0259297
0.0409002
0.124645
0.058667
0.0306628
0.0131097
0.0375158
0.14256
0.156422
0.00356568
0.00848207
0.0131758
0.00469158
0.00578629
0
0.00872463
0.213262
0.400063
0.013905
0.000302068
0.000735714
0.000352098
0.000150899
0
0.0253145
0.276705
0.476013
0.0218054
0.000656909
0.0032736
0.0028215
0.00432336
0.00314148
0.017609
0.303813
0.518283
0.0512416
0.008552
0
0
0
0.0113251
0.0784572
0.269586
0.341875
0.0179737
0.000397508
0.000282003
0
0
0.00037377
0.0192653
0.471759
0.374791
0.0226629
0.000238505
0
0
0
0.00205118
0.0212514
0.177027
0.37077
0.0516183
0.0089106
0
0
0
0.00353341
0.0386241
0.256803
0.355284
0.0446569
0.00127294
0
0
0
0.00999759
0.0399775
0.258685
0.427389
0.0837982
0.000108991
0
0
0
0.00192436
0.0239978
0.231337
0.531697
0.0928219
0.000762938
0
0
0
0.000259585
0.0156404
0.20141
0.280397
0.0524655
0.000181652
0
0
0
0.0127197
0.0380945
0.282398
0.315682
0.049507
0.00127156
0
0
0
0.00181709
0.0154615
0.318313
0.436931
0.0303633
0.00247038
0
0.00652846
0.0297472
0.00338727
0.0236475
0.257386
0.399107
0.0884917
0.0142838
0.000869348
0.0108808
0.0495787
0.00600831
0.0232937
0.363679
0.230576
0.0270203
0.000716407
0
0.00466431
0.0140295
0.00034554
0.0426462
0.320275
0.204193
0.0486239
0
0.00608543
0.0117591
0.0274915
0.00137624
0.0585276
0.341369
0.325797
0.149359
0.0171914
0.00389543
0.00551152
0.0141446
0.0140028
0.0636618
0.231445
0.444775
0.21306
0.0176169
0.00317267
0.0215889
0.0215889
0.024292
0.0669708
0.272048
0.208683
0.0812647
0.0152239
0.027268
0.00462836
0.0113007
0.00174313
0.0352233
0.167208
0.277361
0.127276
0.0274139
0.0222087
0
0.02202
0.0153189
0.020832
0.172966
0.521187
0.189664
0.0205518
0.0041059
0.0126901
0.0205901
0.0289168
0.0229731
0.315117
0.289081
0.0983781
0.0278016
0.0404514
0.0460018
0.0349817
0.0473621
0.111257
0.0947262
0.197217
0.140035
0.0301559
0.0253992
0
0.0333599
0.0609179
0.043789
0.0780037
0.0897207
0.118034
0.031661
0.0581735
0.0337163
0.106872
0.159864
0.078324
0.0667851
0.0398843
0.0168238
0.0222552
0.0449751
0.0540876
0.0725141
0.122688
0.121515
0.025577
0.025809
0.0194958
0.195125
0.404166
0.086795
0.0344849
0.0555307
0.0272596
0.0637966
0.0102959
0.0399726
0.0456451
0.0213697
0.218668
0.236502
0.127963
0.0971575
0.0143932
0.0059045
0.0391355
0.339834
0.380592
0.272055
0.114565
0.0507234
0.0131284
0.00369619
0.00818406
0.0030257
0.0871823
0.384214
0.0868197
0.0278001
0.00535346
7.7059e-005
0.0191147
0.0728312
0.015929
0.0859133
0.504539
0.254375
0.108684
0.0430593
0.0542607
0.00849575
0.0267832
0.0105719
0.106374
0.309675
0.137187
0.041126
0.0558378
0.0219265
0.101798
0.330768
0.0442103
0.0217212
0.23387
0.155947
0.10001
0.108984
0.0809103
0.103259
0.145611
0.036625
0.0465661
0.164088
0.147519
0.0847657
0.0602398
0.139973
0.291483
0.536262
0.101007
0.0140202
0.0301713
0.0331875
0.0158382
0.0273312
0.083984
0.114205
0.313314
0.0991143
0.0354833
0.0367885
0.0276915
0.0440446
0.0345722
0.0684076
0.190388
0.422328
0.15062
0.0409467
0.010893
0.00165848
0.00515475
0.00866315
0.0323407
0.227424
0.407803
0.071133
0.00307479
0
0.000557272
0.000557272
0.0151507
0.0383221
0.201607
0.329794
0.128289
0.0170179
0
0
0
0.0546184
0.0990471
0.138047
0.396354
0.0728133
0.0087657
0
0
0.00145851
0.00957661
0.018572
0.100923
0.522493
0.111766
0.00524237
0.00185444
0
0.0071099
0.035141
0.0366249
0.164975
0.367931
0.126472
0.021503
0
0
0.000352599
0.0232664
0.0440411
0.206635
0.548843
0.0782388
0.00531949
0
0
0.00246819
0.00949254
0.0297897
0.111827
0.394456
0.0888373
0.00307186
0.00872355
0.00751441
0.0167091
0.0181975
0.0187081
0.127699
0.338008
0.0299456
0.0161723
0.0511925
0.012524
0.0313141
0.00720909
0.0124892
0.239873
0.506039
0.0739658
0.00346774
0
0
0.00189881
0.0239186
0.0318529
0.422153
0.367063
0.0501319
0.000978682
0.00238764
0
0.00368472
0.0197862
0.0299598
0.0953926
0.282356
0.0323126
0.0237808
0.0603329
0.00256188
0.0331049
0.0265944
0.0138728
0.101122
0.15693
0.0588148
0.00339726
0.0514164
0
0.0485613
0.0445148
0.0369773
0.503496
0.206384
0.0772757
0.00032307
0.00582494
0.00676819
0.0230491
0.0130459
0.113808
0.372208
0.109184
0.0720463
0.0087233
0.0335388
0.0473774
0.0756303
0.0495248
0.169513
0.0852929
0.0780007
0.165434
0
0.0887684
0.00406092
0.0356982
0.025224
0.0577884
0.0616826
0.056683
0.178706
0.0145388
0.119425
0.0284264
0.0907131
0.0829275
0.0703529
0.138399
0.18475
0.187358
0.0476947
0.0680332
0.0242042
0.0672799
0.036747
0.0633678
0.0629927
0.23159
0.251723
0.044366
0.0494301
0
0.178844
0.0633144
0.0274069
0.0289437
0.104641
0.205141
0.0648508
0.106312
0.0145225
0.135175
0.0756821
0.0319512
0.0961809
0.176794
0.187245
0.0692101
0.045561
0
0.259946
0.0913268
0.0796626
0.0383752
0.0689439
0.148002
0.0268641
0.0169428
0.0187652
0.126792
0.0631377
0.033622
0.0256185
0.0629261
0.161815
0.0399788
0.0520778
0.0500992
0.275584
0.200884
0.0452664
0.0516894
0.0553351
0.111757
0.0397215
0.014281
0.0312754
0.265019
0.0998067
0.0491929
0.0402283
0.0436107
0.145346
0.0304697
0.0860016
0.0521256
0.419223
0.235677
0.0589057
0.0565203
0.00413823
0.0356268
0.0501875
0.0158811
0.175261
0.103178
0.106141
0.136979
0.046302
0.0250254
0.0647805
0.157868
0.15891
0.256462
0.0810951
0.161298
0.060841
0.0339259
0.0088381
0.0314047
0.0427844
0.123964
0.326151
0.0931336
0.14668
0.210679
0.124811
0.111475
0.0649712
0.0528776
0.0690421
0.199952
0.0584992
0.298305
0.362496
0.0374459
0.0940066
0.0450602
0.0661237
0.143649
0.167744
0.0321667
0.104888
0.0414589
0.208171
0.424898
0.0769572
0.00774111
0.0675388
0.105731
0.0358156
0.0959831
0.0967957
0.119286
0.284959
0.0731464
0.0138097
0.0301424
0.0628453
0.0134261
0.110414
0.103809
0.289978
0.49103
0.096268
0.0041327
0.0343959
0.0319856
0.0245053
0.0321462
0.0319228
0.191001
0.39488
0.0729789
0.0303587
0.00497527
0.00573796
0.00438776
0.0114706
0.0244523
0.203876
0.52555
0.0949292
0.0468958
0.00231791
0
0
0.00407816
0.0136972
0.246106
0.282242
0.0296677
0.0131713
0.0468845
0.0036701
0.026626
0.0167545
0.0264315
0.286253
0.233623
0.0255957
0.0231889
0.0295839
0.0368426
0.0410361
0.0279639
0.0932034
0.143405
0.575197
0.0753176
0.00982118
0
0.00226691
0.0106999
0.0184625
0.034623
0.116053
0.523975
0.060242
0.000942849
0.00420173
0.00491078
0.0631834
0.0434733
0.0536438
0.140667
0.136909
0.0424104
0.0569612
0.00888702
0.0578138
0.0389481
0.0539475
0.097043
0.062103
0.0776436
0.0323553
0.0536256
0.056883
0.0606291
0.131004
0.0831105
0.0665387
0.0917468
0.295734
0.0474078
0
0.033508
0.0273479
0.148802
0.068485
0.041055
0.0963783
0.182317
0.0501588
0.0162183
0.18708
0.0383306
0.111851
0.0324401
0.0368546
0.031875
0.0533673
0.0309183
0.021395
0.262983
0.111646
0.259266
0.0993069
0.0284437
0.0865551
0.196337
0.0921388
0.0763996
0.386376
0.0629728
0.143002
0.0384428
0.043321
0.0741164
0.206631
0.0597915
0.0208299
0.182918
0.00609976
0.10893
0.0402102
0.0223274
0.0693906
0.161676
0.0933495
0.00297569
0.120468
0
0.203084
0.0774049
0.0434529
0.0825703
0.276741
0.142726
0.133317
0.149575
0.000871394
0.113002
0.0368147
0.0384281
0.0903554
0.211929
0.14409
0.0679274
0.127029
0
0.267579
0.0840959
0.0750498
0.059038
0.074
0.183517
0
0.149156
0
0.0613216
0.0241924
0.0578404
0.0741781
0.0736799
0.222435
0.00325522
0.148259
0
0.0934861
0.0444913
0.0765303
0.117549
0.0494484
0.0806577
0
0.211255
0
0.145117
0.0460532
0.116384
0.110198
0.0258456
0.101939
0.045319
0.26345
0
0.257926
0.0859754
0.110198
0.0514679
0.0446657
0.122234
0.038515
0.0917798
0
0.109947
0.0447187
0.0500561
0.0923291
0.0984062
0.136009
0.114997
0.158227
0
0.120831
0.0584767
0.0767735
0.105201
0.0104714
0.0595197
0.0605776
0.141734
0
0.215985
0.0882744
0.107698
0.169013
0.0401304
0.0676982
0.0720777
0.349311
0
0.12372
0.155196
0.181498
0.0371493
0.0316931
0.0843732
0.1215
0.130366
0.00714477
0.162136
0.0652361
0.0327962
0.0272143
0.00935791
0.0735678
0.0828809
0.152331
0.0222132
0.315776
0.160319
0.0376182
0.121278
0.0413488
0.0969987
0.0764436
0.226152
0.0135256
0.0738662
0.0626635
0.122648
0.136986
0.0546047
0.172259
0.074536
0.126765
0.0946792
0.223116
0.0861524
0.140772