0.0824717
0.0284213
0.023585
0.0559062
0.12601
0.134141
0.0912764
0.137443
0.238002
0.11503
0.152551
0.16133
0.0588728
0.136794
0.0807557
0.0483253
0.159836
0.193849
0.0775961
0.192953
0.244842
0.188386
0.194312
0.0556766
0.0185085
0.0629106
0.050751
0.143731
0.315838
0.417141
0.17277
0.176082
0.0317544
0.0157592
0.0365056
0.0743471
0.0157719
0.0602968
0.0732115
0.0339489
0.116866
0.173006
0.176472
0.121609
0.0485299
9.85194e-005
0.00429343
0.00764036
0.0222442
0.121901
0.272023
0.537696
0.160164
0.00860567
0.0392248
0.061311
0.17461
0.0957462
0.158708
0.0746289
0.111476
0.0236786
0.0173354
0.00404994
0.00257606
0.101931
0.26845
0.282917
0.152128
0.276156
0.0680841
0.00167217
0.00151088
0.00136225
0.00352336
0.0177227
0.200915
0.164673
0.337409
0.142087
0.018004
0.0363119
0.0238552
0.0239803
0.0207757
0.155935
0.0764674
0.103815
0.128578
0.08586
0
0.000194608
0.0512711
0.232499
0.479776
0.245009
0.142463
0.0377258
0
0.0722323
0.016864
0.0121269
0.0724743
0.296503
0.258863
0.125012
0.043382
0.0527356
0.105638
0.148604
0.10248
0.0153415
0.0296559
0.043618
0.0679061
0.184885
0.162865
0.138029
0.253179
0.149262
0.0180024
0.0481455
0.0471101
0.0568388
0.109415
0.120085
0.246295
0.122096
0.104172
0.0524233
0.0369799
0.105096
0.10704
0.111526
0.219587
0.312563
0.19838
0.167862
0.0637933
0.0537798
0.0501561
0.0112156
0.1083
0.276021
0.150807
0.0849753
0.0640432
0.0235268
0.0191341
0.00986041
0.0227124
0.125799
0.186084
0.309421
0.108046
0.043634
0.0667049
0.000888068
0.0167086
0.0924251
0.250623
0.210471
0.207495
0.0997004
0.0855279
0.058368
0.029353
0.0440054
0.000511405
0.128762
0.200114
0.266658
0.123347
0.0762417
0.167084
0.0103387
0.0417622
0.0157996
0.212571
0.246989
0.134039
0.180124
0.0894916
0.0856376
0.0187874
0.0519972
0.186911
0.152012
0.0508783
0.0201962
0.164316
0.226922
0.0977323
0.143175
0.196366
0.167152
0.0661546
0.00957555
0.107701
0.170723
0.117638
0.210194
0.0561672
0.164899
0.0404636
0.0671471
0.0564422
0.0131592
0.166156
0.244441
0.134944
0.155283
0.253516
0.0670777
0.0567559
0.0113548
0.0428262
0.0503601
0.157762
0.0988919
0.121655
0.181128
0.109125
0.0419538
0.044889
0.0991058
0.0446027
0.133808
0.0130834
0.0627105
0.080672
0.173148
0.0502856
0.0994005
0.0422464
0.0744094
0.209239
0.0729926
0.236618
0.106446
0.0434425
0.0853376
0.0566854
0.0851489
0.0523356
0.135588
0.00785002
0.322084
0.0634754
0.0991212
0.0358849
0.0854267
0.0522936
0.035384
0.106152
0
0.0752413
0.0994399
0.173541
0.0436413
0.0522936
0.0894885
0.0324589
0.0973768
0
0.12864
0.0364
0.138155
0.0408516
0.0894885
0.0736807
0.0644209
0.125194
0
0.179688
0.103752
0.174311
0.043282
0.0680083
0.113029
0.0575186
0.131715
0
0.23294
0.0463135
0.253837
0.077996
0.109626
0.0533103
0.0115149
0.0345447
0
0.126896
0.00769386
0.131858
0.0428535
0.0533103
0.0295699
0.0484884
0.0651799
0
0.252553
0.0171648
0.208326
0.0880369
0.0265936
0.0591528
0.0252591
0.0757774
0
0.295878
0
0.122157
0.040719
0.0591528
0.0567816
0.102001
0.176833
0
0.337427
0.0209141
0.163995
0.0546841
0.0465481
0.0530067
0.185142
0.340166
0.197073
0.0489302
0.00482839
0
0.0223386
0.0239555
0.06119
0.193716
0.285781
0.277906
0.0974047
0.0316481
0.0356015
0.0343446
0.0393568
0.127026
0.184721
0.241074
0.170646
0.0211998
0.0255185
0.0437098
0.240052
0.180011
0.179843
0.143942
0.183546
0.260025
0.09664
0.0561616
0.0629855
0.0478761
0.145784
0.0438623
0.0339056
0.13171
0.143312
0.141124
0.0411215
0.0896159
0.0398869
0.0436929
0.00564111
0
0.242976
0.360898
0.266504
0.113253
0.107054
0.0365901
0.0175516
0.130697
0.0213644
0.109662
0.151321
0.0907577
0.0498726
0.0815975
0.0749037
0.196626
0.0704468
0.0386707
0.318085
0.298976
0.23105
0.212824
0.0792797
0.0972699
0.178358
0.00967422
0.0259031
0.088101
0.183322
0.224556
0.0920552
0.0419371
0.0149698
0.00460346
0.127204
0.0788342
0.0295446
0.0876154
0.136528
0.0990115
0.0604165
0.0277792
0.0514186
0.0375575
0.0543816
0.146077
0.336632
0.378013
0.121398
0.047297
0.0298727
0.0391154
0.278736
0.175699
0.0883138
0.34183
0.322429
0.100665
0.0440255
0.114499
0.149194
0.161165
0.0872921
0.0719894
0.0572
0.010152
0.0470836
0.0518682
0.0621704
0.126461
0.0789794
0.0706955
0.123517
0.101894
0.0101153
0.0412191
0.0246541
0.113271
0.171677
0.251896
0.215452
0.121342
0.10311
0.0920136
0.17571
0.159191
0.192454
0.18847
0.0371967
0.178955
0.139457
0.0796478
0.0381136
0.17006
0.199905
0.382877
0.307176
0.0439285
0.027266
0.0737478
0.0837183
0.0150898
0.0365691
0.0238994
0.142477
0.0880578
0.0379663
0.0433676
0.0514005
0.0616462
0.00811234
0.0280888
0.0403828
0.153128
0.0947575
0.00154694
0.0474311
0.049898
0.0477707
0.010778
0.241372
0.174278
0.498687
0.208753
0.00587602
0.0311309
0.0291253
0.0313215
0.0460194
0.28428
0.301431
0.333385
0.0396316
0.0248205
0.110279
0.0877096
0.154206
0.0631882
0.09977
0.0419083
0.0954458
0.0572537
0.0349126
0.0662676
0.107116
0.196745
0.1625
0.162293
0.0466734
0.0281055
0.0373651
0.0211559
0.142425
0.0724161
0.165954
0.221194
0.0894348
0.253608
0.159412
0.0181802
0.0825295
0.0838713
0.0816193
0.295377
0.276488
0.082627
0.0993437
0.0206462
0.0755849
0.0451654
0.0184749
0.0645179
0.0473432
0.192817
0.104725
0.050841
0.0307608
0.0500825
0.0468043
0.0479583
0.0767174
0.0589312
0.261663
0.0627426
0.0951605
0.0267374
0.0415394
0.0712402
0.00735447
0.0479186
0.0865186
0.234132
0.092336
0.0923329
0.0325507
0.0746086
0.0322434
0.137216
0.237124
0.2715
0.274774
0.0720993
0.136694
0.0485288
0.0375403
0.0400514
0.0938773
0.103098
0.0485712
0.0944304
0.0173618
0.0578045
0.0310389
0.0378635
0.0476601
0.0679723
0.0786032
0.00693874
0.161694
0.0686424
0.118302
0.0551596
0.0582742
0.101522
0.287785
0.19463
0.185278
0.126468
0.0334139
0.0425124
0.0666215
0.073213
0.142343
0.216873
0.114643
0.0358904
0.242764
0.335643
0.106787
0.0995153
0.0873337
0.0220809
0.0312027
0.0695409
0
0.274397
0.0388611
0.0709833
0.0242158
0.0234454
0.0726319
0.123927
0.205554
0
0.174139
0.00480855
0.0569207
0.0185975
0.0587797
0.068039
0.0994431
0.128621
0.0154322
0.23708
0.263614
0.0569143
0.0214328
0.0461759
0.156222
0.203167
0.195758
0.00220459
0.115778
0.0254592
0.129773
0.0432577
0.122065
0.0508292
0.0520899
0.0218383
0.0399675
0.0243206
0.141852
0.202215
0.121414
0.074815
0.120043
0.0819183
0.041355
0.0743888
0.0466625
0.082879
0.0388502
0.0159733
0.0660745
0.00825849
0.00537112
0
0.0245515
0.0843304
0.509322
0.577593
0.0411929
0.0230696
0.0311352
0.0824733
0.0375545
0.12174
0.101555
0.246691
0.211751
0.0534448
0.0699117
0.120386
0.0631333
0.0798778
0.0634002
0.0269293
0.0466347
0.0225732
0.0434223
0.167308
0.0700812
0.0608835
0.17935
0.167753
0.127002
0.117778
0.0423192
0.150712
0.201776
0.0726692
0.214701
0.14964
0.139269
0.0606771
0.0670683
0.0620419
0.0487429
0.130834
0.087031
0.177812
0.267502
0.261577
0.363515
0.313989
0.152347
0.16979
0.149819
0.0147032
0.0110795
0.0655102
0.208917
0.199914
0.0547359
0.0106647
0.0258034
0.0196354
0.112226
0.0909036
0.0695475
0.22921
0.20989
0.043562
0.0124734
0.0244817
0.0445835
0.00926942
0.0121011
0.0633749
0.263903
0.388078
0.13561
0.0276628
0.0305151
0.0108728
0.0539324
0.0886179
0.103068
0.440993
0.474589
0.0220154
0.00112362
0.0023664
0.0251474
0.0971553
0.0970177
0.0558754
0.0514724
0.0469682
0.037683
0.0401053
0.0812257
0.0948909
0.0268882
0.0348939
0.0319318
0.0125101
0.0143414
0.0395241
0.0781452
0.284817
0.1659
0.073914
0.132248
0.114437
0.198597
0.150508
0.00270072
0.0164108
0.112337
0.147668
0.043911
0.0481942
0.0448324
0.0252486
0.0128436
0.00337525
0.079499
0.703384
0.309805
0
0.0073497
0.0109097
0.00217759
0.0181668
0.0913847
0.0785105
0.260444
0.107939
0.000404494
0.0114323
0.0269339
0.0109975
0.0593413
0.11574
0.112774
0.156914
0.0233138
0.00406409
0.00458365
0.00970602
0.00130656
0.0366653
0.0632218
0.152661
0.668163
0.228749
0
0.0633273
0.0972754
0.021096
0.0756919
0.172909
0.219591
0.316513
0.114359
0.00279036
0.0282497
0.0751905
0.0504295
0.145954
0.0560393
0.143831
0.0899919
0.0105294
0.0174646
0.0101062
0.0309319
0.0541798
0.0988799
0.0468647
0.190907
0.0740856
0.0311469
0.00149141
0.1097
0.226587
0.0681208
0.0762355
0.166278
0.280337
0.198562
0.142098
0.0193571
0.0435707
0.0685155
0.0273465
0.0306934
0.0940881
0.505645
0.313384
0.224461
0.0221073
0.00489592
0.0223415
0.02314
0.0646728
0.0331632
0.100184
0.12156
0.0432233
0.0379854
0.0608198
0.0957272
0.120108
0.135092
0.0221801
0.0357361
0.0570428
0.0368427
0.019488
0.0250965
0.0095966
0.00436829
0.0228362
0.127484
0.32009
0.509098
0.169996
0.0566507
0.0445253
0.0488952
0.0298349
0.0780324
0.18411
0.188827
0.314369
0.097854
0.166628
0.167957
0.087264
0.109263
0.133704
0.0143029
0.0205634
0.0624267
0.139647
0.181535
0.145921
0.129835
0.0438671
0.144184
0.140916
0.0370711
0.120399
0.162915
0.171559
0.0748534
0.0471844
0.0202303
0.085639
0.0557954
0.170389
0.195
0.152601
0.165792
0.0697499
0.0910357
0.0208556
0.0809462
0.013196
0.151149
0.237208
0.236612
0.0528727
0.110372
0.161548
0.0426071
0.125557
0.13855
0.0291276
0.0373121
0.0438503
0.0677205
0.117581
0.0917495
0.00608672
0.15117
0.0160777
0.146232
0.0486699
0.0461249
0.0651995
0.159898
0.115102
0.0255642
0.109691
0.0103854
0.112993
0.158731
0.0826145
0.117947
0.392545
0.048065
0.00365203
0.155761
0.00148363
0.186549
0.0950938
0.0296127
0
0
0.0011251
0.019211
0.255721
0.343704
0.228546
0.00601679
0.00504083
0.0106149
0.020713
0.0119536
0.0671029
0.13534
0.243548
0.235797
0.0183189
0.0332839
0.0017371
0
0.0141225
0.0508468
0.430433
0.264209
0.162905
0.0794825
0.0022111
0.0391407
0.0160215
0.0150482
0.0711157
0.274762
0.234975
0.233105
0.189106
0.0470901
0.11711
0.0949806
0.0694583
0.0835147
0.0389374
0.0696568
0.105376
0.0108163
0.0722319
0.150888
0.141986
0.33342
0.294385
0.200181
0.0854326
0.0466041
0.0160052
0.0446268
0.192557
0.0990974
0.0833361
0.0913695
0.0705631
0.0969402
0.0855462
0.0731878
0.110167
0.216011
0.134588
0.321306
0.317351
0.369248
0.0451261
0.00398752
0.00779108
0.0544082
0.00734953
0.0125513
0.077436
0.196429
0.179026
0.0334035
0.00633707
0.00248283
0.000549679
0.00131771
0.0101614
0.0283885
0.27833
0.357787
0.00963833
0
0.000224423
0.00201981
0.0118062
0.0104322
0.0680699
0.201385
0.301613
0.0119998
0
0.00039758
0.000738363
0
0.000150516
0.00678638
0.28016
0.654535
0.0103388
0
0
0
0.0245835
0.0407694
0.0699921
0.274914
0.317643
0.00207317
0.00269971
0.031262
0.0552534
0.0368541
0.0228654
0.0349582
0.0505907
0.0432137
0.0041832
0.038592
0.398357
0.189202
0.00652381
0.0019502
0.0139557
0.30346
0.613196
0.00345528
0.000426858
0.00108704
0.00481542
0.0200357
0.00576743
0.0218893
0.0710521
0.0971774
0.006972
0.0174334
0.0809063
0.0422765
0.00453808
0.00176625
0.00197341
0.00049936
0.00666505
0.0286632
0.133631
0.422268
0.097134
0.000945123
0.0202112
0.0281745
0.00573116
0.0111084
0.104244
0.231173
0.489974
0.127431
0.0115037
0.004012
0.00423104
0.00197439
0.00474195
0.00487711
0.0631703
0.18047
0.0446555
0.0112315
0.00264761
0.00354364
0.000537661
0.00742781
0.0129917
0.104172
0.527159
0.210579
0.000861765
0.0255819
0.0298895
0.0113969
0.0036751
0.0489175
0.0935726
0.293249
0.115355
0.0195163
0.0388486
0.019117
0.00602699
0.0178548
0.0433043
0.133337
0.187752
0.0847306
0.00273117
0.0082025
0.00379278
0.00135523
0.00473392
0.0188702
0.15808
0.530227
0.151226
0.0261237
0.0295447
0.026334
0.000813136
0.0277449
0.0944189
0.348119
0.498979
0.134077
0.0390033
0.0423219
0.0659711
0.00372065
0.0250756
0.0915301
0.125097
0.171074
0.0556825
0.0302441
0.022961
0.0681066
0.00620108
0.0160748
0.0929944
0.102449
0.161822
0.101853
0.0680676
0.0495059
0.20762
0.0172587
0.0333033
0.122
0.292667
0.390662
0.276092
0.0517642
0.0835859
0.233706
0.0287646
0.0483126
0.0985397
0.312328
0.258884
0.28162
0.0206206
0.0172746
0.013516
0.0010301
0.0185724
0.0319883
0.119877
0.167401
0.0759497
0.0293326
0.0110323
0.0102039
0
0.0441228
0.0166034
0.0967186
0.0940432
0.0448118
0.017408
0.0792816
0.0636337
0.00477824
0.0255676
0.0625297
0.37873
0.364122
0.227464
0.0615795
0.0441607
0.016996
0
0.0274544
0.0597726
0.520526
0.284483
0.13016
0.0464025
0.104782
0.0900002
0
0.0727201
0.00361224
0.0718258
0.0898
0.0442419
0.0671266
0.241759
0.0873308
0
0.126875
0
0.0692324
0.0661505
0.0225061
0.155615
0.187901
0.108146
0
0.0892469
0.0652317
0.301244
0.197917
0.210587
0.0607053
0.178143
0.104212
0
0.244932
0.0655532
0.0935239
0.134588
0.0909136
0.00535519
0
0.0100097
0.0214888
0.122437
0.116785
0.202436
0.187843
0.0297262
0.0274702
0.012007
0.00780637
0.0255282
0.0857434
0.0651035
0.204737
0.433654
0.131286
0.0386715
0.001067
0.000976876
0.00119396
0.0165079
0.0456531
0.141274
0.234776
0.284239
0.101076
0.0289669
0.000418478
0
0.00235827
0.0250052
0.199669
0.492489
0.261857
0.0766492
0.0537883
0.035237
0.0312396
0.0242164
0.0280951
0.0351806
0.209591
0.279493
0.137864
0.0784662
0.092018
0.161047
0.306399
0.0410796
0.000288978
0.0501874
0.191713
0.0963923
0.0394307
0.0024954
0.000242205
0.00384683
0.0108504
0.0911423
0.376134
0.36573
0.134169
0.0404307
0.124256
0.202126
0.12467
0.0378793
0.0595022
0.160933
0.334818
0.0160175
0.0073862
0.0153763
0.116874
0.257792
0.00680438
0
0.00221572
0.0097778
0
0
0.000841214
0.164611
0.549813
0.00190716
0
0
0
0.0181669
0.00664416
0.0501307
0.195955
0.17845
0.00495583
0.00392434
0.00941454
0.0226294
0.000614673
0.000342565
0.00776083
0.293752
0.599155
0.00074041
0
0
0.000614673
0.00061365
0.000390393
0.00421234
0.170851
0.586607
0.00120502
0.000991929
0.000212542
0.00061365
0.0137175
0.00495201
0.0142437
0.0376931
0.0933621
0.00578694
0.00770402
0.00511554
0.0133995
0.000502409
0.00284727
0.00168478
0.235889
0.648661
0.00498253
0.00752918
0.00234937
8.76643e-005
0.00781139
0.0193621
0.0171301
0.0386645
0.0831466
0.0101734
0.0291779
0.0086035
0.00355854
0.0635876
0.0306143
0.0296733
0.00419442
0.032855
0.00700943
0.0289695
0.0753456
0.0808996
0.062387
0.0535006
0.0511146
0
0.0348766
0
0.0319851
0.451085
0.287267
0.0820338
0.124836
0.0895507
0.0166139
0.0199811
0.00951722
0.0562609
0.0178475
0.0216845
0.451893
0.23974
0.10985
0.00975642
0.00645854
0
0.0226039
0.0323072
0.127373
0.00564512
0.00870803
0.0120013
0
0.0022447
0.00789855
0.12734
0.2627
0.0555223
0.00982218
0.0126132
0.0205029
0
0.00558844
0.0628387
0.32356
0.581977
0.2005
0.184928
0.0605409
0.0144343
0
0.000206622
0.000597394
0.0216759
0.0429511
0.0616908
0.175116
0.344188
0.120703
0
0
0.0224274
0.077329
0.252301
0.109291
0.010951
0.0105211
0.0514513
0.00562821
0.0110246
0.0890382
0.148939
0.262691
0.166056
0.00740452
0.0207421
0.0985568
0.0235987
0.0696568
0.188008
0.232025
0.161577
0.110038
0.0225866
0.265968
0.290362
0.025803
0.0139338
0.107095
0.0679358
0.136045
0.0471394
0.00851138
0.218774
0.479694
0.191453
0.170595
0.268714
0.104017
0.0803766
0.0220915
0.00133701
0.0236981
0.0625973
0.021577
0.0645708
0.11469
0.25273
0.171792
0.102201
0.0235107
0.0103258
0.00837463
0.0158691
0.00960894
0.0645238
0.438501
0.189592
0.0702562
0.00555216
0.105359
0.216186
0.215866
0.209613
0.18401
0.171146
0.0839038
0.0307927
0.00499113
0.0352048
0.0595218
0.0865751
0.0734599
0.146158
0.469725
0.149464
0.0363966
0.0513245
0.0339085
0.00989658
0.0568711
0.05939
0.105372
0.257426
0.181175
0.102
0.0519861
0.117452
0.0125155
0.0341227
0.119884
0.15365
0.0604307
0.0635189
0.0358023
0.010595
0.0257543
0.0336689
0.210898
0.186911
0.161575
0.355989
0.203558
0.0500481
0.110915
0.34026
0.131521
0.200317
0.206096
0.195446
0.0957867
0.0362623
0.0100774
0.15522
0.00963695
0.00120602
0
0
0.00866345
0.0411811
0.164291
0.462345
0.223848
0.052064
0.00897717
0
0
0.00748847
0.0791276
0.220494
0.291862
0.247317
0.137919
0.109259
0.0696424
0.032872
0.0169179
0.106067
0.181206
0.301257
0.142402
0.0637452
0.095301
0.0564103
0.108669
0.038261
0.195556
0.211303
0.208292
0.23068
0.0758156
0.0190054
0.00698105
0.00629142
0.0224216
0.125004
0.217946
0.221069
0.0747152
0.0188638
0.149061
0.168907
0.0859889
0.176792
0.193
0.149922
0.1608
0.245316
0.0658478
0.101847
0.0644219
0.058145
0.030179
0.121559
0.14218
0.220904
0.144524
0.0301466
0.127237
0.286943
0.229306
0.220756
0.160965
0.085073
0.12454
0.00557524
0.002797
0.0439407
0.124895
0.140861
0.0318698
0.0138626
0.0065529
0.00910715
0.00247426
0.000399572
0.0071156
0.212859
0.53557
0.00914039
0.000462123
0
0.00247426
0.00582187
0.00463643
0.0178818
0.111432
0.245082
0.0556189
0.0194217
0.00288534
0.00340118
0.0152907
0.0156847
0.00316067
0.149496
0.668636
0.0416462
0.0378431
0.00651252
0.0214274
0.00882351
0.0123367
0.00324102
0.114888
0.387534
0.0187595
0.00363938
0.00119472
0.00368304
0.0470047
0.0758058
0.0178602
0.0147476
0.0322012
0.0102713
0.0107473
0.00345361
0.00372296
0.170928
0.121
0.00968352
0.0581986
0.413623
0.0349867
0.0466129
0.0104312
0.0520729
0.581713
0.381797
0.0153606
0.00199009
0.0253907
0.00992144
0.00642292
0.00267578
0.0588533
0.0341957
0.103008
0.0450019
0.00309619
0.000385269
0.00024525
0.00355274
0.00114921
0.000698059
0.218362
0.216597
0.0702866
0.00185771
4.16056e-005
0
0.000723134
0.000241045
0.017239
0.20901
0.395807
0.13166
0.000442312
0
0
5.22148e-005
0.00208046
0.0300192
0.26388
0.652585
0.284369
0.000265387
0
0
0
0.00482226
0.0477725
0.35309
0.116387
0.0132938
0
0
0
0.000150707
0.0027699
0.0337962
0.377114
0.292104
0.0676501
0.00462224
0
0.00646881
0.00317763
0.0195893
0.0316404
0.398472
0.337062
0.0749277
0
0
0
0
0.0150863
0.0448029
0.440685
0.236577
0.0603299
0.0140253
0.0133478
0.0424569
0.00176624
0.0559823
0.0381295
0.117061
0.391734
0.308537
0.0487982
0.0021998
0.0330833
0.0126103
0.0123044
0.0116785
0.0705039
0.345153
0.430691
0.162056
0.0513952
0.0590219
0.0139084
0.00145501
0.0386667
0.164368
0.202739
0.171134
0.0782199
0.0189766
0.078688
0.014729
0.027094
0.0212945
0.160386
0.278627
0.218795
0.0895998
0.00271095
0.0391679
0.020722
0
0.0631655
0.118178
0.291993
0.225748
0.176195
0.0870347
0.0510498
0.0316307
0.00423476
0.0266231
0.070495
0.162062
0.158354
0.0908877
0.0815042
0.0842039
0.150282
0.0293735
0.0103235
0.409094
0.331947
0.10191
0.0355216
0.00061296
0.00747922
0.00457751
0
0.0586624
0.37351
0.270022
0.13545
0.0542168
0.022184
0.00602353
0.00519843
0.00534116
0.0730278
0.0219422
0.0490378
0.0997172
0.189102
0.203226
0.0693935
0.13062
0.0550912
0.0242199
0.045193
0.121062
0.141623
0.173057
0.188167
0.104211
0.153464
0.123149
0.0593464
0.206144
0.119985
0.117673
0.116667
0.1019
0.0121646
0.0204501
0.0564962
0.1538
0.189779
0.0130139
0.0337131
0.0537175
0.116607
0.0514518
0.113909
0.292144
0.432565
0.132734
0.31529
0.239238
0.217502
0.0654424
0.0260803
0.0719837
0.0680668
0.0926699
0.104231
0.140271
0.201582
0.145635
0.18565
0.0768216
0.12441
0.160678
0.128374
0.09051
0.175525
0.096313
0.209282
0.0915318
0.0835316
0.10487
0.0936103
0.0788125
0.314604
0.180399
0.100246
0.101056
0.0380659
0.0526775
0.0850074
0.191731
0.178052
0.130754
0.0263742
0.0589177
0.0296856
0.0515829
0.0371504
0.0416479
0.151178
0.165996
0.112098
0.03119
0.0603642
0.149807
0.204706
0.105071
0.0655698
0.0827849
0.108309
0.203025
0.0505729
0.0542979
0.0301248
0.0711374
0.0664639
0.0788162
0.197073
0.169664
0.0662404
0.0324286
0.038728
0.091236
0.579307
0.301749
0.154941
0.152938
0.0929899
0.0212192
0.029204
0.0171288
0.121773
0.311199
0.0949461
0.0436433
0.0150213
0.00781594
0.0910468
0.0781358
0.0236039
0.0936604
0.541406
0.170107
0.128427
0.0856409
0.122938
0.0286947
0.0298196
0.00326844
0.0424582
0.304761
0.174817
0.143213
0.0751986
0.0295847
0.174815
0.0688377
0.0383414
0.0395295
0.179902
0.161963
0.173555
0.20717
0.184827
0.199751
0.242438
0.0466365
0.0122726
0.124352
0.0355377
0.0536705
0.0341085
0.0899016
0.552411
0.40996
0.0325918
0.000432022
0.0112468
0.024224
0.00582072
0.0114622
0.0948241
0.16287
0.182691
0.093731
0.0225643
0.0480112
0.0376894
0.0361801
0.0879509
0.0892976
0.29972
0.266999
0.129062
0.00617053
0.018942
0.0459606
0.0202069
0.0636759
0.0757316
0.302511
0.371959
0.12716
0.00261784
0.00845087
0.0422685
7.05122e-005
0.0104914
0.133574
0.138507
0.460878
0.272212
0.0144362
0.0105821
0.0156463
0
0.0186137
0.151153
0.254328
0.138932
0.096806
0.00738759
0.0140848
0.0704475
0.00345209
0.0164621
0.152799
0.17536
0.202559
0.240069
0.0262471
0.018491
0.0260771
0
0.0104292
0.140219
0.261124
0.328345
0.107396
0.00669934
0.00446623
0
0
0.0476248
0.121253
0.427905
0.201207
0.0654538
0.0105586
0.0289111
0.046014
0.00140737
0.0653774
0.0593366
0.215109
0.21432
0.196733
0.0133915
0.0124596
0.000940847
0.00040322
0.0342573
0.0667157
0.473024
0.149968
0.0356949
0.000897172
0.00934821
0.00933937
0.0102268
0.0337238
0.102002
0.32896
0.188016
0.190513
0.0707281
0.0436618
0.0751973
0.00592988
0.022933
0.024325
0.197528
0.298768
0.368468
0.127286
0.00968408
0.0194384
0.00664439
0
0.0234882
0.399432
0.162955
0.0663258
0.00906166
0.0143868
0.00781723
0.0262562
0.0116896
0.0792928
0.137095
0.164943
0.217728
0.0459506
0.0374248
0.000594038
0.0400323
0.0133441
0.0178936
0.387456
0.252323
0.194879
0.0872967
0.0135506
0.00204087
0.00136058
0
0.0746856
0.434782
0.172597
0.108458
0.0591258
0.0400254
0
0
0.00431545
0.173219
0.0840939
0.0684838
0.162908
0.0488926
0.0961089
0
0.0290907
0.00969692
0.0607927
0.0941013
0.0507843
0.185995
0.0899899
0.122212
0
0.00278068
0.000926894
0.0830006
0.218818
0.0919785
0.0875785
0.0493636
0.073595
0
0.030634
0.0389761
0.162939
0.230604
0.0341522
0.0497887
0.00937768
0.139027
0
0.0567209
0.141576
0.415718
0.0450772
0.0597585
0.202193
0.0960123
0.111465
0
0.0302388
0.0100796
0.038839
0.0560542
0.0455245
0.136331
0.0316199
0.356783
0
0.050398
0.0202684
0.0687927
0.233873
0.101583
0.00385706
0.0436785
0.0419095
0.0562404
0.0548549
0.0653659
0.0375672
0.462309
0.115701
0.0160148
0.010539
0.00239064
0.00560382
0.045003
0.0878792
0.0689604
0.366006
0.232376
0.00603424
0.00818385
0.00753663
0.026852
0.0269821
0.0132789
0.0387297
0.521631
0.160368
0.00372376
0
0.0159737
0.00425759
0.0328025
0.0313414
0.0770722
0.321343
0.0685951
0.0644468
0.0306875
0.0753842
0.0436389
0.0474613
0.0542427
0.060121
0.0742664
0.0527551
0.0615968
0.0593304
0.440667
0.276725
0.198712
0.0726113
0.027525
0.286626
0.0630371
0.0184597
0.0224908
0.110202
0.0429051
0.0474241
0.0329277
0.0714241
0.0652801
0.0497318
0.0349156
0.0988956
0.308675
0.233788
0.218706
0.0611813
0.0169756
0.0609474
0.029186
0.00957948
0.0156383
0.207693
0.171657
0.238648
0.139701
0.0520897
0.274962
0.105618
0.0399338
0.0505066
0.118353
0.0400569
0.125708
0.173225
0.132783
0.0496992
0.144722
0.0510419
0.0891991
0.117448
0.14669
0.214794
0.0933068
0.0223892
0.351667
0.441529
0.070119
0.0637625
0.0396786
0.039956
0.061558
0.0786473
0.0426522
0.154773
0.136828
0.211112
0.0524615
0.0574494
0.0149986
0.0318391
0.0740344
0.0609078
0.176861
0.230235
0.394511
0.0568591
0.0169324
0.0184142
0.0397564
0.0639746
0.0308663
0.243512
0.368011
0.179545
0.0292864
0.0157925
0.011098
0.00698118
0.0124462
0.0215823
0.0827964
0.26991
0.350826
0.0871086
0.047723
0.00943513
0.015621
0.0131819
0.00578055
0.409871
0.206949
0.169465
0.0479995
0.0118802
0.0229696
0.0227692
0.0183188
0.140217
0.389364
0.261229
0.240701
0.0166719
0.0123854
0.00850254
0.0564419
0.0321955
0.186194
0.119745
0.101675
0.146956
0.0940575
0.0677768
0.0141222
0.0435037
0.0482206
0.0454109
0.139547
0.0500256
0.0463133
0.0317223
0.0736091
0.0294588
0.112777
0.143795
0.104979
0.18842
0.287117
0.348152
0.0114878
0.0450105
0.00786189
0.0501535
0.060596
0.0707202
0.294795
0.115928
0.0949917
0.000977511
0.0602505
0.0550332
0.12259
0.0863579
0.138625
0.0697258
0.0616836
0.0957123
0.00603428
0.0873942
0.0386852
0.119243
0.135106
0.0769192
0.0645861
0.040002
0.1119
0.000139644
0.0965986
0.0378725
0.252937
0.0955227
0.0666225
0.209152
0.0702492
0.0590299
0
0.0449703
0.0255008
0.163742
0.0598093
0.108676
0.0922575
0.117935
0.218168
0.011907
0.0575622
0
0.165264
0.055088
0.0479701
0.0423331
0.0575796
0.172739
0
0.099825
0.0153005
0.228254
0.0751662
0.0425568
0.0750672
0.177638
0.306817
0.019845
0.0599628
0.0679927
0.203842
0.0582342
0.0553352
0.113545
0.0484127
0.12199
0.0326072
0.0719921
0
0.0753401
0.0251134
0.10921
0.179707
0.0478428
0.181157
0.0828957
0.102979
0
0.0394572
0.0131524
0.179301
0.162674
0.128881
0.144449
0.0543454
0.0121894
0.109864
0.137011
0.0299755
0.140053
0.244767
0.126328
0.135255
0.0385003
0.152832
0.0456101
0.167193
0.0492151
0.222729
0.0631694
0.0490686
0.184749
0.0725201
0.103296
0
0.0301505
0.0100502
0.0631694
0.0461236
0.0478877
0.175162
0.0757695
0.280364
0
0.0188816
0.00629388
0.0450439
0.0684048
0.0754686
0.155485
0.0115838
0.268018
0
0.128706
0.0429019
0.0613812
0.0658576
0.106853
0.26376
0.0409005
0.26877
0
0.132165
0.0524959
0.0597889
0.209184
0.217389
0.0367217
0.0495347
0.0186955
0.0500481
0.0724093
0.0302247
0.040784
0.329784
0.161742
0.048819
0.0447503
0.0866362
0.0331028
0.0881002
0.0473408
0.10768
0.0596268
0.027072
0.0425241
0.0942359
0.068707
0.0891625
0.0851391
0.17543
0.159809
0.118615
0.0572124
0.165863
0.338432
0.199234
0.118418
0.100653
0.087582
0.127761
0.0869306
0.0392002
0.0281746
0.0467663
0.141386
0.0444717
0.0798451
0.059021
0.054124
0.0267043
0.0797525
0.0176246
0.146007
0.27535
0.279203
0.215578
0.0993004
0.0177812
0.0814974
0.0592079
0.109812
0.141725
0.0861751
0.0423917
0.0941949
0.12102
0.0896339
0.232729
0.198107
0.0667549
0.0695688
0.120656
0.209735
0.272112
0.294336
0.151247
0.0195418
0.139729
0.0496723
0.128386
0.196369
0.221591
0.109029
0.0276525
0.000797974
0.111666
0.292089
0.0510017
0.147221
0.23801
0.111742
0.0178372
0.00847415
0.000686042
0.188394
0.229997
0.125544
0.111909
0.195021
0.138655
0.0782101
0.0645864
0.0534195
0.131678
0.191925
0.0868378
0.16411
0.370753
0.086273
0.0117825
0.00873502
0.0203613
0.195665
0.390449
0.0555945
0.0991083
0.167568
0.0857199
0.0272626
0.00619741
0.000439495
0.0681055
0.223166
0.176329
0.0729121
0.103997
0.114975
0.086629
0.0325596
0.00256427
0.12532
0.182544
0.0298973
0.0764997
0.262611
0.117267
0.0566493
0.0120124
0.0214277
0.0392735
0.0911686
0.0850783
0.0485546
0.085938
0.144008
0.208295
0.0706722
0.0264375
0.00638579
0.0340737
0.117562
0.104145
0.123483
0.0986955
0.0927116
0.0686527
0.0136233
0.0154545
0.00268893
0.0408135
0.0624614
0.300383
0.0987005
0.121601
0.106919
0.0310015
0.00215822
0.00712033
0.0611572
0.0793007
0.156613
0.0923288
0.226323
0.114838
0.0431785
0.0078006
0.000179014
0.0195542
0.0353176
0.420629
0.0648465
0.232319
0.0856358
0.032558
0.0614541
0.01306
0.0430344
0.00715824
0.213152
0.0518014
0.0954597
0.0722733
0.0703153
0.126963
0.0352175
0.105652
0
0.194094
0.0068692
0.148946
0.0534508
0.127808
0.0803016
0.0252672
0.042085
0.00102261
0.248293
0.0130642
0.155794
0.0461315
0.077446
0.162447
0.137175
0.198816
0.0478389
0.208884
0.000981314
0.105219
0.0349327
0.142458
0.0559256
0.0340168
0.10205
0
0.234687
0
0.117871
0.0392903
0.0559256
0.0772557
0.0739376
0.127372
0.00296097
0.180972
0.0872484
0.15401
0.0388725
0.0692528
0.0710394
0.0667126
0.142586
0.0469293
0.228287
0
0.143136
0.0891912
0.0711866
0.158093
0.0311918
0.0994322
0.00670418
0.144195
0.0213502
0.215599
0.136703
0.170362
0.100529
0.0616461
0.0531231
0.00830696
0.0486219
0.158559
0.160577
0.0308745
0.0891721
0.167103
0.118127
0.0827005
0.00498418
0.103102
0.0721979
0.137138
0.0353988
0.144239
0.141335
0.0108726
0.0273076
0
0.05303
0.0475813
0.229383
0.0787536
0.142606
0.231624
0.0297496
0.0614381
0.0309332
0.0343638
0.025272
0.188461
0.0592102
0.228527
0.0532266
0.0613618
0.0860696
0
0.172947
0
0.075359
0.0251197
0.0449836
0.0382471
0.0733536
0.156653
0
0.212551
0
0.129086
0.0644406
0.0366168
0.127028
0.118217
0.145806
0.0751008
0.064859
0
0.0237404
0.00791348
0.106379
0.163898
0.339358
0.358352
0.0540465
0.0807185
0
0.0688773
0.0358062
0.110987