0.0423557
0.0656977
0.127132
0.0588431
0.0334941
0.0436471
0.0393596
0.0718673
0.0483001
0.101881
0.0327793
0.149745
0.166804
0.0668039
0.0789881
0.115958
0.0613646
0.109183
0.0889831
0.145251
0.160557
0.120891
0.148161
0.0334147
0.0389775
0.0381031
0.0728639
0.249438
0.167449
0.638542
0.318163
0.222117
0.0493286
0.0320211
0.115368
0.0926923
0.0716179
0.0113
0.0251621
0.0431621
0.0125658
0.0279687
0.100159
0.131303
0.098254
0.0383642
0.00481864
0.00452284
0.00118786
0.0141986
0.0258513
0.0862464
0.243668
0.073256
0.166868
0.0842578
0.169692
0.0920407
0.0224156
0.00625479
0.0213517
0.400594
0.126916
0.0359861
0.0105185
0.00500332
0.00958395
0.00202837
0.0051748
0.0363526
0.720162
0.19441
0.0500599
0.0122614
0.00502657
0
0.0348944
0.0603979
0.0610698
0.135106
0.075455
0.028624
0.0203705
0.027061
0.00689873
0.0307981
0.0782759
0.0650608
0.0686646
0.0616245
0.0482715
0
0
0
0.00498492
0.0188471
0.0352821
0.67855
0.331475
0.0407171
0
0.0024572
0.00285768
0.0104624
0.0242084
0.153439
0.422255
0.239348
0.0262673
0.0121499
0.0920761
0.0659918
0.0800765
0.0529168
0.0835273
0.0797062
0.0605038
0.263058
0.0600633
0.237942
0.140871
0.137182
0.0637617
0.0449958
0.0260363
0.127284
0.00915764
0
0.0367291
0.024959
0.107081
0.052629
0.229156
0.435011
0.190578
0.254919
0.0688776
0.181522
0.12922
0.210679
0.125356
0.159369
0.217842
0.171713
0.138757
0.0350055
0.108497
0.133117
0.0700266
0.0331744
0.00486246
0.0014029
0.0679338
0.0327383
0.0474992
0.193052
0.206181
0.187917
0.0235624
0.0827785
0.00919738
0.0233002
0.141435
0.042438
0.307078
0.254166
0.0501023
0.0364461
0.0258326
0.0202539
0.0368071
0.0208216
0.0447147
0.624548
0.328544
0.0473168
0.0331843
0.0475937
0.0168614
0.00534288
0.0378614
0.141344
0.197048
0.11013
0.0991636
0.0132123
0.141281
0.0175495
0.0202487
0.185103
0.242041
0.222357
0.0787103
0.0797397
0.00374523
0.0342376
0.0168428
0.045645
0.0378806
0.158754
0.380212
0.226224
0.0629367
0.0149103
0.0715783
0.025395
0.000385892
0.250123
0.40282
0.267684
0.180869
0.063815
0.000535033
0.0130456
0.0290471
0.061832
0.152106
0.12675
0.105175
0.0536494
0.110726
0.0098641
0.0132379
0.0559017
0.140617
0.118216
0.152899
0.0423596
0.0873023
0.0489017
0.160064
0.113384
0.0819802
0.172983
0.24581
0.226899
0.149272
0.0445768
0.0480266
0.00140916
0.00523988
0.106014
0.288709
0.148234
0.274437
0.233634
0.150572
0.0433967
0.0724504
0.042711
0.101979
0.358714
0.0399138
0.108826
0.107503
0.11261
0.052981
0.202009
0.107279
0.023222
0.023842
0.0427425
0.232409
0.206724
0.138213
0.0805469
0.191733
0.061504
0.00890789
0.0494303
0.0432308
0.184962
0.21561
0.242341
0.0714054
0.149146
0.103521
0.0271693
0.0596548
0.0469725
0.128461
0.225084
0.371423
0.320249
0.151902
0.1302
0.0223727
0.0623101
0.117642
0.131328
0.168545
0.0672418
0.0661615
0.0437155
0.0295559
0.0116819
0.106994
0.283053
0.168822
0.18115
0.155155
0.141952
0.0159647
0.0575141
0.0533097
0.159967
0.118356
0.14539
0.213291
0.183914
0.274406
0.0212394
0.0247803
0.0180945
0.0728167
0.412524
0.243253
0.152618
0.099677
0.105128
0
0.0341364
0.110897
0.186384
0.0125361
0.0193263
0.0492493
0.142421
0.103925
0.0178394
0.0469758
0.0396492
0.0201189
0.0451651
0.0418141
0.271095
0.363326
0.165488
0.0152475
0.0111368
0.0322002
0.00593772
0
0.000269285
0.0158523
0.163069
0.221637
0.172809
0.0790434
0.0476976
0.00789897
0.00308684
0.00265671
0.0832061
0.440048
0.561813
0.19298
0.00799706
0.00537341
0.000307083
0.0477111
0.0335778
0.142396
0.193641
0.0622815
0.0097298
0.00629803
0.180295
0.031276
0.00804179
0.0079743
0.0319515
0.0397101
0.0130338
0.0131727
0.0165908
0.545764
0.116021
0.00356949
0.00592401
0.0946679
0.332307
0.423264
0.0455353
0.00506722
0.0341307
0.00923534
0.00927011
0.0297358
0.241018
0.168004
0.170546
0.0219545
0.0143993
0.278279
0.173428
0.00325693
0.00139838
0.00419514
0.000207496
0.000829985
0.00160211
0.0136487
0.389342
0.0961296
0.00321735
0
0
0
0.000368148
0.0006007
0.0560022
0.365836
0.0909975
0.00787258
0.00978866
0.0730103
0.0180864
0.0156294
0.00267018
0.0163601
0.483941
0.150527
0.00112465
0
0
0
0
0
0.0333718
0.591258
0.146781
0.000458508
0
0
0
0.00574994
0.00346526
0.0531122
0.263067
0.115461
0.0516367
0.0396846
0.0349523
0.0233223
0.0106445
0.00788977
0.0520693
0.197703
0.0843359
0
0
0
0
0
0
0.0373316
0.63334
0.212422
0.0707651
0.0565009
0.0437332
0.00693046
0
0
0.0574506
0.532251
0.21441
0.102953
0.0894116
0.30754
0.157892
0.0056639
0.00726611
0.0310637
0.0691487
0.0183468
0.026395
0.0484843
0.440272
0.280136
0.0105554
0.0217068
0.00871814
0.00666542
0.000357948
0.143363
0.141536
0.277353
0.0851691
0.00568425
0.000442995
0.0498814
0.264093
0.145379
0.0508016
0.0980318
0.311312
0.319981
0.0397898
0.00310097
0.0304062
0.173693
0.0858888
0.0192691
0.0874254
0.237263
0.275166
0.0209829
0.0124823
0.0131737
0.0152309
0.00356225
0.143165
0.249
0.139109
0.184689
0.0106285
0
0.00628873
0.0276362
0.040773
0.0772472
0.233416
0.205681
0.252488
0.0257285
0.00249513
0.0412482
0.142507
0.0897025
0.184586
0.518882
0.183282
0.112255
0.075878
0.00498364
0.0175186
0.0564065
0.074725
0.121302
0.142686
0.103687
0.0517472
0.00112942
0
0.0101853
0.0687831
0.100912
0.0391027
0.212538
0.297839
0.206677
0.045877
0.00443426
0.00943508
0.0493986
0.10162
0.0968555
0.269249
0.210542
0.12201
0.0957646
0.0270755
0.0142162
0.0302894
0.0470578
0.020105
0.162531
0.320214
0.410003
0.325291
0.0610218
0.0171751
0.0165024
0.0198699
0.0121526
0.200724
0.212673
0.185195
0.0509446
0.0213144
0.0142091
0.00462215
0.0167774
0.00730866
0.0774265
0.141065
0.214438
0.293085
0.213736
0.0426794
0.00586107
0.0166462
0.0125679
0.131821
0.237928
0.231952
0.235731
0.0406139
0.0022371
8.60249e-005
0.00572712
0.0391848
0.130348
0.190344
0.129522
0.232598
0.437524
0.0478784
0
0.00911507
0.0366339
0.0656352
0.079395
0.100568
0.316302
0.214188
0.029119
0.0109175
0.0150583
0.176955
0.165273
0.0666099
0.0355172
0.0839517
0.0842414
0.0225797
0.0598229
0.0872488
0.0189584
0.0452726
0.037584
0.0357597
0.225663
0.563644
0.164786
0.0590101
0.0114836
0.0544723
0.131758
0.115681
0.0463106
0.0960332
0.284484
0.155397
0.116653
0.0972204
0
0
6.81821e-005
0.0343906
0.216102
0.166342
0.0392417
0.0109611
0.00234422
0
0
0.00129733
0.0875385
0.568454
0.16285
0.00298961
0.000203979
0
0
0
0
0.060319
0.292455
0.260868
0.0578075
0.00120261
0.000124341
0
0
0
0.12898
0.568454
0.0940438
0.0150476
0.0010033
0
0
0.00106936
0.0210472
0.133117
0.411236
0.0243256
0.000408386
0.000409551
0.000335087
0.02313
0.00748555
0.135597
0.215929
0.241948
0.00252973
0.00129703
0.0557383
0.0901891
0
0
0.00412531
0.101001
0.525919
0.0169603
0.0102206
0.00255516
0
0.0303191
0
0.0483675
0.234572
0.525919
0.00516766
0.00613238
0.0316931
0.0410819
0.0287271
0.00342015
0.0635676
0.0670546
0.0469055
0.000343216
0.0061753
0.304589
0.138635
0.00410387
0
0.000494015
8.71792e-005
0
0
0.0330767
0.577088
0.113099
0.0386689
0
0.0374007
0.100513
0.213015
0
0.00753593
0.243474
0.0977404
0.00625681
0
0.0034581
0.00289965
0.00162346
0
0.0763984
0.577088
0.079955
0
0
0
0
0
0
0.0362223
0.387146
0.0760372
0.0134606
0.00656228
0.00527809
0
0
0
0.0382595
0.354435
0.131473
0
0
0
0
0
0
0.0762184
0.558111
0.0364448
0.000170041
0
0
0
0
0
0.0667315
0.558111
0.0938107
0.0188558
0.013619
0.0263602
0.012381
0.00100529
0
0.0414789
0.242769
0.101884
0.0162244
0.0208956
0.0317141
0.0418554
0.00703702
0
0.0407557
0.259148
0.0943472
0.00022769
0
0.000710618
0.00131972
0
0
0.0732453
0.595322
0.089671
0.01006
0.00498744
0.00118436
0.00219953
0
0
0.101821
0.62273
0.128876
0.0814637
0.142376
0.0368336
0.0348414
0.0113844
0.00989988
0.0521774
0.189675
0.114646
0.112662
0.212301
0.0566166
0.095622
0.117263
0.0374964
0.0313517
0.0332088
0.0389156
0.0590144
0.051878
0.00243047
0.00891557
0.00499123
0.0215932
0.1461
0.594426
0.23448
0.0675797
0.0774158
0.0179665
0.112018
0.0852008
0.16382
0.395843
0.243474
0.106875
0.0508899
0.123542
0.153784
0.152375
0.169022
0.0497699
0.0180051
0.00329589
0.0116267
0.00929786
0.0655485
0.183184
0.22895
0.352583
0.0620403
0.0117647
0.00271814
0.00458147
0.112989
0.139042
0.218568
0.16196
0.112488
0.17583
0.306838
0.0603056
0.0436432
0.106434
0.166102
0.370091
0.165079
0.227047
0.061723
0.0238445
0.0208346
0.128576
0.0199722
0.0371604
0.12522
0.210023
0.344676
0.0611382
0.00201362
0.0094408
0.0161056
0.0872184
0.125122
0.162812
0.145851
0.186834
0.17226
0.0324812
0.00566448
0.0256833
0.0753303
0.0868207
0.224906
0.207344
0.25526
0.0825958
0.00545876
0.0213507
0.0710123
0.189771
0.1933
0.337835
0.285676
0.149342
0.0654299
0.00738875
0.0094408
0.0371274
0.0400094
0.0508872
0.0674302
0.104529
0.20517
0.242986
0.130607
0.0309442
0.0145633
0.0127155
0.0800831
0.152769
0.184882
0.220034
0.200975
0.133701
0.0534572
0.035858
0.12005
0.173168
0.252201
0.243838
0.15818
0.0446207
0.0319803
0.00316711
0.0277341
0.0805911
0.115625
0.287418
0.381093
0.209399
0.0586842
0.0422736
0.0125045
0.0315005
0
0
0
0.0414816
0.203532
0.234533
0.023959
0.00078462
0
0
0
7.44285e-005
0.107952
0.544899
0.06538
0.0080133
0.000954144
0
0
0
0
0.0118972
0.363344
0.297571
0.0160274
0.0013077
0
0
0.00288877
0.00182345
0.0775419
0.544899
0.10349
0.00062122
0.000136306
0
0
0
0.000167538
0.0468168
0.451359
0.00974562
0.00859109
0.00214777
0
0.00338715
0
0.00612745
0.0626487
0.495195
0.00457078
0.00521243
0.00419297
0.00364148
0
0.0065026
0.00410457
0.0605261
0.495195
0.00641444
0.0012273
0.000306824
0
5.70059e-005
0.00390156
0.00246274
0.0387561
0.495195
0.00267854
0.000832667
0.000569245
5.70059e-005
0.0128653
0.00126362
0.0156851
0.069648
0.432364
0.000266781
0.006159
0.0878493
0.0373554
0.0173046
0.00210603
0.00224073
0.00569678
0.00961077
3.81115e-005
0.06171
0.471582
0.0471175
0.026435
0.0113657
0.0281854
0.0378311
0.659498
0.00237208
0.00279169
0.00764441
0.00576516
0.164208
0.0258921
0.0469757
0.0194565
0.0325714
0.000569552
0.0245976
0.123973
0.0653077
0.00511385
0.000208591
0
0
0
0
0.0707768
0.457196
0.0140714
0.00032746
0
0
0
0
0
0.122604
0.664324
0.0235711
0.0485762
0.00411675
0.00465269
0.0015497
0.00782759
0.00514544
0.0598847
0.186872
0.0441495
0.00137947
0
0
0
0.0143711
0.016353
0.156231
0.442166
0.0124931
0
0
0
0
0
0
0.0664769
0.433423
0.0174565
0.000701055
0
0
0
0
0
0.0508174
0.483663
0.0602634
0
0
0
0
0.00181863
0.0035507
0.0697773
0.420689
0.0141863
0
0
0
0
0
0
0.0193278
0.568573
0.0742499
0.00214441
0
0
0.000485897
0.000121474
0.00386358
0.045524
0.319987
0.0677155
0.0151641
0.00524782
0.00165006
0.00590889
0.00220057
0.0394802
0.182657
0.240433
0.0597714
0
0
0
0
0
0.00214139
0.0399936
0.59609
0.0612694
0.00660862
0.000551322
0
0
0
0.0201764
0.209815
0.569539
0.0779631
0.0846335
0.0408273
0.0346764
0.0114454
0.00318709
0.0449239
0.171612
0.157074
0.145624
0.0943898
0.0570123
0.0673488
0.0135246
0.0116664
0.0161862
0.0277439
0.105899
0.223669
0.042274
0.00480177
0.00138123
0
0
0.0194931
0.211663
0.496833
0.267893
0.0503343
0.00706262
0.00344697
0.000163006
0
0.0160711
0.169623
0.509821
0.29376
0.049764
0.0313707
0.0608277
0.0442082
0.0418978
0.0910869
0.0620697
0.0709426
0.0849994
0.0412146
0.0566291
0.101049
0.0923347
0.0793645
0.161514
0.0577738
0.0089008
0.00876114
0.0243714
0.00350953
0.00471129
0.00460306
0.0168128
0.195994
0.441638
0.298656
0.0821197
0.0152618
0.0068449
0.035269
0.0196026
0.0516883
0.441362
0.489565
0.125175
0.021687
0.0671735
0.142621
0.188059
0.139789
0.0576105
0.102918
0.095279
0.0331737
0.0332269
0.204989
0.0579958
0.13798
0.162294
0.0264975
0.0187913
0.118859
0.0590265
0.130537
0.113857
0.0214354
0.0910265
0.0452966
0.0318719
0.258215
0.33607
0.264705
0.115491
0.272331
0.0109385
0.0290568
0.0225807
0
0.0160193
0.27987
0.185246
0.236471
0
0
0.000379853
0.0514161
0.327931
0.120934
0.00365356
0.000169586
0
0
0.00276811
0.00199074
0.0651106
0.52407
0.0475643
0
0
0
0
0
0.033567
0.313139
0.307799
0.0206307
0.000108609
0
0
0
0.000395444
0.0239975
0.269443
0.52407
0.0110474
0
0
0
0
0.00628399
0.00451925
0.0324774
0.464197
0.00281538
0
0
0
0
0.00377039
0.00271155
0.022449
0.492925
0.000893336
1.2593e-005
5.03721e-005
0
0
0.000897712
0.00339635
0.0542374
0.492925
0.00371359
0
0
0
0
0.000538627
0.0009023
0.0478379
0.492925
0.00203259
0
0
0
0.0192209
0.00821179
0.0335958
0.0542418
0.487961
0.00591681
0.000308477
0.000386109
0.000608655
0.128387
0.0374966
0.0711593
0.0772229
0.0919518
0.03477
0.0168826
0.0551235
0.0375138
0.00555258
0.00498769
0.0141703
0.0888754
0.706327
0.0625683
0.00502887
0.00776729
0.00146507
0.038868
0.0435749
0.116006
0.157214
0.239133
0.166902
0.0170252
0.0705976
0.0238787
0.116696
0.0295366
0.0351885
0.0590098
0.162536
0.116215
0.120341
0.191031
0.0914586
0.00120901
0
0.000271415
0.0149194
0.18512
0.1086
0.159582
0.258489
0.0296614
0.0342199
0.0564914
0.26666
0.329788
0.374631
0.215457
0.0620088
0.0987154
0.0416322
0.0112542
0.00902984
0.0874349
0.146118
0.40467
0.116797
0.0668913
0.0732668
0.0159046
0
0
0
0
0.0155981
0.016461
0.0440755
0.318325
0.0429088
0
0
7.746e-005
0.00218166
0.00244784
0.00101765
0.0162592
0.833452
0.13097
0.0303315
0.0124021
0.000921111
0.00277639
0.0444235
0.0255373
0.0184114
0.0588424
0.0307288
0.078809
0.134795
0.00054222
0.0152716
0.0212561
0.00756773
0.0175745
0.197741
0.0659723
0
0
0.000131542
0.00515725
0.00780789
0.0162521
0.0908266
0.500494
0.045769
0.000167461
0
7.89254e-005
0.018205
0.0324947
0.116426
0.397165
0.411211
0.0293173
0.0531115
0.137615
0.0365743
0.0420109
0.0517477
0.0239758
0.0827039
0.14535
0.0151942
0.0274688
0.16023
0.241367
0.168806
0.20711
0.153995
0.278929
0.0940639
0.00129472
0.000626427
0
0.00107421
0.0241788
0.0396979
0.0884382
0.354298
0.269559
0.0605969
0.00133518
0.0118227
0.0315684
0.0558175
0.0284436
0.0419762
0.280685
0.306257
0.0538133
0
0.0867636
0.271864
0.201763
0.233552
0.117454
0.270199
0.048552
0.000384027
0.00932156
0.0536306
0.252072
0.351483
0.147288
0.0550632
0.172494
0.0466201
0.00860323
0.00265798
0.0141041
0.0273321
0.019139
0.00313438
0.0716471
0.368678
0.140075
0.0119149
0.0101147
0.00361185
0.00681711
0.000973303
0.00246051
0.139132
0.418818
0.308036
0.0462181
0.0282895
0.0456962
0.142741
0.133092
0.014554
0.0193135
0.192586
0.0892185
0.0429225
0.0227454
0.022788
0.0626126
0.0697538
0.0594478
0.0815235
0.293956
0.495172
0.105882
0.0516858
0.00190269
0.00821207
0.00792319
0.0116529
0.0837837
0.182191
0.341214
0.120049
0.0646401
0.00290991
0.00453295
0.0237643
0.0245147
0.0819703
0.151106
0.0978753
0.0938991
0.0089788
0.00433579
0.0526495
0.229874
0.2177
0.209088
0.204994
0.462521
0.102066
0.00819597
0.0117811
0.133973
0.337195
0.18608
0.190176
0.11925
0.0859451
0.0442067
0.00013539
0.00513367
0.0615289
0.320526
0.196249
0.0152684
0
0
0.00121851
0
0
0.0268662
0.24273
0.538211
0.0139006
0
0
0
0.000947733
0.0090994
0.100857
0.242581
0.224165
0.0774533
0.0134695
0.00643695
0.00852956
0
0
0.00753294
0.16246
0.538211
0.101262
0.00808169
0.00386217
0
0
0
0.00230136
0.0544546
0.456044
0.00434345
0
0
0
0
0
0.000206795
0.0582963
0.491333
0.00147595
0
3.26726e-005
0.000185145
0
0
0.00085396
0.0751839
0.491333
0.0112042
0
0
0
0.00109585
0
0.000344659
0.0841648
0.491333
0.00219723
0.00260433
0.00087979
0.00169736
0.000495762
0.000649237
0.000793512
0.066874
0.587003
0.0859548
0.0233599
0.0162357
0.0112466
0.00516901
0.0420666
0.144179
0.0647867
0.111158
0.160088
0.0389331
0.105053
0.0697934
0.0224014
0.0134365
0
0.0571448
0.624821
0.0356527
0.0280949
0.0183853
0.0290944
0.120146
0.185333
0.0757204
0.00881526
0.0224153
0.0539447
0.0355158
0.0557941
0.121234
0.00467921
0.050113
0.184761
0.0789137
0.0552788
0.0327465
0.00515872
0.0355246
0.0237209
0.0259153
0.101455
0.080088
0.0502373
0.0693953
0.0146172
0.00385716
0.00563672
0.000896664
0.145729
0.305116
0.0994103
0.0140959
0.00213208
0.0066136
0.00426456
0.0150786
0.0418375
0.165415
0.827635
0.0778805
0.0141945
0.00431391
0.00122711
0
0
0.00256984
0.0675113
0.0910978
0.00427689
0.00215547
0.0101293
0.00495408
0.00218467
0.00221449
0.00120675
0.147615
0.276697
0.000306366
0.00250684
0.00465158
0.00136752
0.00147337
0.00356366
0.00189055
0.168849
0.550756
0.0171643
0.000970825
0.000990291
0.000411001
0
0
5.98119e-005
0.342385
0.615327
0.00152153
0
0.000262699
2.83136e-005
0
0
0.000489552
0.0865927
0.316381
0.0316391
0.0123207
0.0120862
0.00197888
0.0052062
0.00302621
0.000361551
0.0398294
0.366025
0.217221
0.0566581
0.0479661
0.011687
0.0139223
0.00102216
0
0.160107
0.555789
0.013435
0.00111667
0
0
0
0
0.00404437
0.0844157
0.539467
0.120878
0.0119344
0
0
0
0
0.0057043
0.0120067
0.298349
0.324032
0.105494
0.0806587
0.0138557
0.0202188
0.000388728
0
0.0266532
0.118393
0.194676
0.210711
0.0647208
0.00714316
0.00811091
0.000233237
0.0236608
0.0639947
0.480908
0.182985
0.0264186
0.00660631
0
0
0
0.00136125
0.100743
0.546994
0.130145
0.0465237
0.0183157
0
0
0
0.0172401
0.0543474
0.0933657
0.0879499
0.0865816
0.0103102
0.00103001
0.0129429
0.0179216
0.0467023
0.0537912
0.126711
0.220111
0.139091
0.0517558
0.0465613
0.0592821
0.101026
0.0405059
0.146672
0.519263
0.0970601
0.0176907
0.00552875
0.00308127
0.00779402
0.000201466
0.0251871
0.182142
0.513849
0.37957
0.175021
0.0276138
0.0104257
0.0162135
0.00141026
0.00904858
0.00748732
0.0360334
0.250537
0.333474
0.125547
0.0775992
0.0422179
0.0640975
0.00845827
0.00230822
0.0211854
0.198314
0.316147
0.0850386
0.0350886
0.0393387
0.018033
0.000175501
0.0417261
0.144292
0.510137
0.3444
0.0505827
0.00717432
0.00380945
0.00062187
0.00800395
0.0306651
0.0442328
0.247446
0.267317
0.0525183
0.000905892
0.0408619
0.019823
0.0186677
0.000979292
0.00492962
0.0832006
0.101661
0.175375
0.0769992
0.0147349
0.0191413
0.00343265
0
0
0.00586907
0.0786536
0.612132
0.119903
0.00884097
0.0114848
0
0.0041852
0.0129396
0.0639834
0.0631666
0.305933
0.0460461
0.0198586
0.0158567
0.0010952
0
0
0.0105314
0.0433068
0.612132
0.090558
0.00800742
0.00768363
0
0
0
0.00101092
0.0502132
0.480205
0.0266818
0.00130893
0
0
0.0201523
0.00843711
0.000606552
0.0383185
0.480205
0.0557001
0.0168942
0.00202479
0.00668828
0
0
0.00154336
0.0279388
0.480205
0.0763883
0.0172281
0.00907377
0.000127504
0.11044
0.0724793
0.000926016
0.0131213
0.424538
0.183538
0.0965371
0.0646761
0.0101561
0.0759622
0.0907758
0
0.00898573
0.217046
0.0275996
0.0173257
0.00517569
0.0152064
0.165271
0.374621
0.0027699
0.000248862
0.0031966
0.00183691
0.00313252
0.00406552
0.0172172
0.254442
0.401838
0.00116842
0.000598459
0.114988
0.0739591
0.0554197
0.0362881
0.0153076
0.265964
0.622786
0.00560389
0
0.000239018
0
0.000980527
0.000245131
0.00292427
0.159324
0.311672
0.00339551
0.000553846
0
0.000190226
0.000166016
0.000428476
0.00452739
0.160111
0.515463
0.00963861
0.000332308
0
0
0
0
0.000660489
0.231587
0.456438
0.00153464
0
0
0
0
0
0
0.286853
0.43688
0.00308662
0
0
0
0
0
0.00126404
0.102859
0.44625
0.0122435
0
0
0
0
0
0.000533023
0.172168
0.457012
0.0196905
0
0
0
0
0
0.00124281
0.138965
0.388744
0.0147164
0
0
0
0
0
0.00373116
0.148008
0.54954
0.0496812
0
0
0
0
0
0.00279249
0.172126
0.323775
0.0109039
0.000654032
0
0
0
0
0.0130543
0.246631
0.259718
0.0356308
0.00926502
0
0
0
0
0.0225912
0.309812
0.436855
0.0229761
9.34332e-005
0
0
0
0.00130302
0.0176042
0.556299
0.255179
0.00586583
0.00705132
0.00548242
0
0
0.00912116
0.116424
0.176639
0.341019
0.0518001
0.00976476
0.000585556
0
0.000547115
0.000447639
0.00644507
0.183834
0.494689
0.0888073
0.00366183
0.00158967
0
0.0038298
0.00393462
0.00391744
0.350496
0.374992
0.028339
0.0145093
0.007799
0
0.0038298
0.00790681
0.0886954
0.223703
0.392645
0.0887124
0.0171349
0.0200071
0.0100338
0.0268086
0.0275423
0.0295454
0.156898
0.581621
0.180248
0.00853171
0.0145429
0.0189875
0.0323609
0.00921575
0.00659641
0.123373
0.398012
0.232784
0.167126
0.0953608
0.0316458
0.0529215
0.0380041
0.000942345
0.102853
0.24593
0.134053
0.0433159
0.0695054
0.0564573
0.0451841
0.0427696
0.0396031
0.0416907
0.138259
0.184027
0.178029
0.104678
0.0632183
0.0571528
0.0808736
0.00565759
0.0530474
0.155234
0.399651
0.355348
0.17277
0.00776325
0.0136737
0.0231097
0.0173933
0.0472441
0.103937
0.258963
0.205732
0.104767
0.0102445
0.0178388
0.0136882
0.041323
0.0347731
0.0691647
0.303822
0.345042
0.128377
0.0516218
0.0317368
0.0598414
0.0222444
0.068281
0.0662773
0.207186
0.157029
0.0809387
0.0978677
0.0425813
0.0300075
0.0502697
0.00160958
0.00560491
0.0150789
0.0212259
0.248182
0.0435817
0.0366534
0.0119792
0.00510478
0.000359884
0
0.00310546
0.0194781
0.58765
0.121942
0.0198668
0.00605144
0.00107965
0.0111609
0.011179
0.000583837
0.0202012
0.266578
0.0762095
0.0502647
0.0171903
0.0140554
0.00733448
0.0096675
0.0193466
0.0217212
0.58765
0.27466
0.101776
0.0481451
0.0191409
0.00501416
0.00300317
0.00307118
0.0263447
0.604383
0.117317
0.0400721
0.0398775
0.00481992
0.172434
0.147626
0.00680036
0.026355
0.239036
0.142902
0.103388
0.175483
0.0113477
0.0497793
0.0495233
0.0404128
0.0255345
0.341498
0.156708
0.0631387
0.0769528
0.0614286
0.209792
0.396186
0.0323232
0.0370572
0.0637148
0.0282314
0.0196568
0.0883546
0.0423563
0.191029
0.307377
0.00868662
0.00260728
0.0240283
0.0258032
0.0278289
0.0529846
0.00406562
0.13369
0.526864
0.0639082
0
0
0
0
0
0.000265208
0.226479
0.345907
0.025903
0.00434546
0.00396062
0.00249484
0.00204802
0.0196196
0.00220206
0.180683
0.456047
0.303747
0.0167722
0.00114708
0.00101222
0.00101222
0
0
0.209296
0.322933
0.0410166
0
0
0
0
0
0.00136523
0.413868
0.300879
0.0116172
0.000282778
0
0
0
0
0.0102473
0.210399
0.351474
0.241764
0.0183653
0.00324757
0.00284531
0.00360256
0.00302902
0.0189755
0.474928
0.251615
0.0604741
0.0135462
0.0140054
0.00879173
0.0129978
0.0212031
0.0831102
0.194159
0.422625
0.0361124
0.00116471
1.66417e-005
0
0
0
0.00708653
0.121689
0.666948
0.0809043
0.00272245
0.000750317
0.00147892
0
0
0.00399647
0.186794
0.263642
0.0918757
0.0293814
0.0271082
0.00993569
0.00891457
0.0103638
0.0390348
0.0461086
0.336713
0.12592
0.043942
0.0226663
0.0146381
0.00199405
0.0141335
0.00919217
0.34531
0.562767
0.0455298
0.00469478
0.00114118
0.00249411
0
0.00685935
0.0340392
0.443957
0.17925
0.0540839
0.0882714
0.0321821
0.000356302
0
0.0480154
0.183697
0.104734
0.207108
0.107792
0.0271775
0.0190968
0.0197128
0.000651098
0.014867
0.0378627
0.0803192
0.0752496
0.258927
0.180462
0.046791
0.0426901
0.0170648
0.0292574
0.054129
0.238938
0.200251
0.175564
0.191433
0.0621647
0.00214898
0.00770613
0.0321
0.167096
0.0882915
0.244089
0.238935
0.122065
0.123114
0.0532032
0.0539429
0.0230213
0.0378672
0.014394
0.0357008
0.273844
0.360851
0.126879
0.136416
0.0576916
0.0176885
0.026045
0.00865222
0.0772814
0.212404
0.284053
0.281742
0.182658
0.0754221
0
0.0101247
0.024746
0.104403
0.0873463
0.0818762
0.200939
0.132822
0.0514389
0.0700007
0.0477493
0.0238115
0.111704
0.0808267
0.188455
0.169419
0.146904
0.0670454
0.108872
0.0157517
0.0216732
0.0849209
0.11393
0.217456
0.377967
0.126999
0.0526537
0.0439343
0.0336526
0.0124695
0.0867469
0.0789708
0.339596
0.438555
0.128608
0.0570938
0.0777557
0.0201916
0.0145603
0.0404395
0.110626
0.199559
0.10996
0.125851
0.0597048
0.0607548
0.0263864
0.0662823
0.0118493
0.0918696
0.190247
0.180697
0.147267
0.0564083
0.0463745
0.0496066
0.0185366
0.0365438
0.154126
0.341137
0.257599
0.111463
0.0359515
0.0298261
0.0100358
0.0447103
0.0522385
0.263201
0.340277
0.381695
0.107474
0.0153813
0.015894
0.0221735
0.0333793
0.0548331
0.00447219
0.0246559
0.152942
0.0798613
0.0702621
0.0771457
0.0480945
0.0295728
0.0250649
0.0335204
0.010677
0.272772
0.208955
0.251736
0.367794
0.0607275
0.0431175
0.0589684
0.0311968
0.107755
0.0616123
0.0525144
0.0643541
0.138031
0.0494619
0.0513224
0.0147898
0.0181428
0.0148806
0.0382662
0.084385
0.323083
0.614851
0.0745757
0.127645
0.105948
0.0423215
0.00502669
0.0710013
0.0697947
0.0998243
0.211974
0.11195
0.317171
0.536384
0.0239515
0.0064902
0.00535373
0.00221141
0.00775645
0.0304286
0.0719271
0.132762
0.112278
0.0394186
0.00407673
0.00363427
0.0468183
0.230271
0.314935
0.118723
0.266132
0.344734
0.0672949
0.00571509
0.0011319
0.015061
0.0912498
0.0558832
0.115722
0.325375
0.468932
0.0490077
0.00394213
0.000197174
0
0.00406403
0.00101601
0.00362447
0.223779
0.417586
0.391363
0.0736223
0.00691621
0.00488515
0.0231921
0.0244178
0.00141235
0.158157
0.248864
0.0845666
0.0340734
0.00328659
0.00936187
0.0455215
0.0160395
0.0230676
0.0636992
0.159334
0.169436
0.182512
0.0364707
0.0042685
0.0510432
0.0655234
0.00988643
0.136786
0.318589
0.434709
0.11603
0.0246206
0.0207176
0.0630068
0.0647784
0.0511885
0.267615
0.149773
0.136195
0.112071
0.0741652
0.0363258
0.0575414
0.0784834
0.13269
0.0182854
0.0539975
0.152981
0.277455
0.0556251
0.0124305
0.135369
0.137028
0.0429249
0.0263352
0.0749234
0.323199
0.331035
0.0510844
0.0144288
0.0698861
0.0529996
0.0480378
0.127401
0.0965161
0.204996
0.226921
0.147386
0.0442478
0.0316369
0.0409164
0.0615137
0.0216402
0.0930424
0.193588
0.217461
0.121851
0.0754087
0.0169805
0.0791129
0.0178221
0.0240504
0.0731936
0.51255
0.332438
0.0638744
0.0142568
0.00702457
0.0286921
0.0144509
0.065993
0.0384934
0.264378
0.202562
0.109125
0.0873433
0.0497651
0.17123
0.0409388
0.0183335
0.0734932
0.138919
0.0587951
0.100252
0.107386
0.0288788
0.0321173
0.0179408
0.00870693
0.0920772
0.363517
0.141299
0.102712
0.193698
0.087143
0.00654349
0.0152993
0.0413838
0.0119994
0.0489446
0.100759
0.154682
0.32562
0.107272
0.0654848
0.0161246
0.00746352
0.0150239
0.122831
0.110347
0.191367
0.543833
0.203301
0.0397202
0.0387181
0.0039244
0.0516657
0.172411
0.160397
0.0776223
0.25327
0.151264
0.00245985
0.00735604
0.0299865
0.151073
0.191433
0.30834
0.164236
0.201152
0.0841658
0
0.00345365
0.00734226
0.0391541
0.0698963
0.0515086
0.173221
0.293893
0.168886
0.0212554
0.0452489
0.0230336
0.127478
0.145096
0.154218
0.351736
0.246673
0.155372
0.00672746
0.0070758
0.0835395
0.175886
0.153975
0.284351
0.149829
0.0598607
0.00795685
0.00356019
0.0100945
0.0662426
0.171332
0.144
0.307739
0.280899
0.0594592
0.00729523
0.0100184
0.00803461
0.0719396
0.151884
0.121914
0.139483
0.191518
0.241756
0.0859395
0.00109081
0.00610324
0.0802708
0.158746
0.202828
0.0797475
0.26483
0.237052
0.0316942
0.0504507
0.0371966
0.0490605
0.0484839
0.128946
0.278924
0.23643
0.0619005
0.0132511
0.0147591
0.00448396
0.0906994
0.0586126
0.168376
0.191725
0.175669
0.0767051
0.0604204
0.0187068
0.0227024
0.071563
0.046122
0.0860239
0.0748084
0.299645
0.171718
0.104337
0.148687
0.0782698
0.11149
0.0347594
0.0255891
0.144452
0.411044
0.134556
0.252305
0.1051
0.0580974