0.00546482
0.000137981
0.000413942
0
0.00257183
0
0.000398297
0.000132766
0.00546482
0.0118176
0.00659181
0.0586273
0.0206796
0.050971
0
0
0
0.00522577
0.133709
0.136146
0.0365841
0.0497949
0.0054336
0
0.00973574
0.0448658
0.289855
0.104675
0.0636775
0.20973
0.465772
0.449657
0
0.0677519
0.135212
0.408454
0.0450043
0.0138608
0.0377678
0.0133218
0.0120795
0
0
0.0117686
0.0389688
0.102646
0.0185718
0.0437269
0.0263266
0.00421083
0
0
0.0881984
0.136447
0.0865572
0.0698484
0.186733
0.285376
0.15082
0
0.00590682
0.0514555
0.0954417
0.189568
0.113696
0.225016
0.233769
0.0600238
0
0.0618071
0.552245
0.51076
0.113965
0.00240557
0.0256082
0.0403134
0.0298382
0.00354302
0.0314721
0.0621789
0.0963265
0.0941732
0.0147365
0.0747419
0.108815
0.106716
0.0731899
0.0770894
0.134149
0.066899
0.139733
0.0553647
0.0825553
0.0691593
0.00476964
0.0023664
0.212683
0.543565
0.361991
0.167835
0.0728562
0.0628696
0.0682832
0.128133
0.0794095
0.349419
0.268668
0.253714
0.0428226
0.0450279
0.139357
0.0989076
0.0968717
0.0962321
0.0898445
0.131619
0.0314492
0.0831983
0.105028
0.111576
0.203892
0.105014
0.0421292
0.170211
0.112584
0.0262691
0.210043
0.0454168
0.0655811
0.133294
0.226281
0.0935505
0.210505
0.063731
0.122148
0.121635
0.0731717
0.111046
0.537544
0.220362
0.148149
0.35055
0.103337
0.0298339
0.0653971
0.0461425
0.0516894
0.1436
0.055547
0.0185414
0.152109
0.12679
0.0409934
0.0756916
0.122138
0.0760243
0.0612616
0.061445
0.0268039
0.107269
0.126208
0.17548
0.00582681
0.0246147
0.0955707
0.371029
0.0934396
0.111662
0.313966
0.312736
0.0574611
0.129675
0.215715
0.289843
0.208427
0.0884247
0.0511109
0.183764
0.344927
0.189827
0.131133
0.321393
0.0776218
0.0274574
0.0128457
0.00424071
0.0080664
0.046457
0.161882
0.188648
0.331836
0.107901
0.103325
0.143029
0.0270886
0.014151
0.0410282
0.203419
0.238565
0.346176
0.150649
0.109152
0.0458248
0.014406
0.133769
0.113347
0.180318
0.146693
0.176091
0.136865
0.182282
0.102051
0.0750343
0.183249
0.107761
0.291714
0.0431013
0.10365
0.0645492
0.119353
0.124969
0.0685681
0.0378484
0.0561027
0.101346
0.0193797
0.0869109
0.0384099
0.130358
0.144862
0.279341
0.228843
0.143911
0.145818
0.022796
0.0779513
0.100452
0.148943
0.0716722
0.127254
0.13514
0.109392
0.145593
0.0156534
0.0950125
0.0410093
0.146157
0.113129
0.459582
0.338431
0.362874
0.174662
0.0126728
0.0135007
0.00827773
0.0707636
0.123824
0.225078
0.189789
0.0707133
0.0479124
0.0371605
0.0330016
0.00258217
0.0604323
0.259368
0.344338
0.158057
0.0227264
0.0182384
0.0300675
0.0301243
0
0.0370024
0.0779665
0.358922
0.238773
0.291763
0.177466
0.146849
0.179774
0.0389525
0.073006
0.265304
0.2355
0.202533
0.145776
0.219434
0.0723631
0.0558689
0.00128736
0.11413
0.308555
0.228334
0.0821239
0.0366038
0.0272467
0.0626883
0.0281609
0.0021456
0.117092
0.131818
0.106724
0.336117
0.195886
0.0571373
0.0791045
0.121542
0.0733758
0.284511
0.459342
0.137312
0.0742496
0.0130958
0.0432781
0.00919081
0.0397341
0.0348631
0.265131
0.202517
0.0485391
0.270942
0.111224
0.0148302
0.0690721
0.105759
0.0845974
0.10584
0.00715982
0
0.0238165
0.0578406
0.172116
0.0302489
0.0695713
0.128938
0.279031
0.118939
0
0.161157
0.114674
0.244501
0.0637663
0.130994
0.149257
0.27898
0.0620059
0.0458911
0.0624606
0.204241
0.222099
0.0143563
0.152378
0.233937
0.34579
0.218682
0.0883919
0.317782
0.126744
0.225193
0.0190002
0.0271311
0.12264
0.345118
0.150934
0.000122726
0.0319717
0.0280449
0.0412873
0.0678505
0.0296089
0.105755
0.284759
0.121245
0.000859081
0.0428949
0.32448
0.187863
0.00419042
0.0290023
0.116441
0.356743
0.325394
0.0504049
0.0615463
0.0172093
0.0191497
0.0913229
0.00657527
0.0701556
0.328174
0.373904
0.0288302
0.00712644
0.122061
0.0496854
0.0289571
0.024979
0.0200276
0.0289794
0.00930123
0.00132559
0.106562
0.414346
0.134661
0.0315541
0.0365301
0.00950743
0.0072104
0.0501669
0.0411454
0.290367
0.340667
0.108026
0.129231
0.0134928
0.0534233
0.0451532
0.0589562
0.0028986
0.0531152
0.291603
0.142535
0.0672321
0.0113748
0.0169954
0.0024724
0.00836495
0.0174503
0.321145
0.506519
0.169891
0.0485659
0.00724906
0.00388289
0.0173487
0.0593462
0.049204
0.182855
0.177098
0.0314832
0.0275945
0.00848828
0.0105046
0.0922441
0.0496294
0.105905
0.215814
0.18093
0.013006
0.00538544
0.00064323
7.147e-005
0.000869198
0.00601641
0.0247588
0.306659
0.524945
0.0231091
0.00247264
0
0
0.00608439
0.00483296
0.0608798
0.344873
0.524945
0.0449887
0
0.00444404
0.0162516
0.0615434
0.0234434
0.0803839
0.249697
0.181331
0.0397487
0.0316841
0.0320252
0.0798486
0.0539404
0.0773647
0.086637
0.159959
0.147081
0.0800059
0
0.00020252
0.00114761
0.00246117
0.0141992
0.10697
0.38635
0.483399
0.0845517
0.00292925
0.00141764
0.0080333
0.0158952
0.126478
0.340113
0.448987
0.162183
0.0655007
0.0605665
0.0407658
0.0471161
0.0595298
0.0806546
0.0576172
0.16764
0.141468
0.0650729
0.0221027
0.00730263
0.0341696
0.0550484
0.0571622
0.0458741
0.274635
0.304386
0.100323
0.0137354
0.0134677
0.00484431
0.024061
0.106345
0.271212
0.302323
0.160179
0.0513023
0.0178495
0.0211749
0.00365289
0.00653044
0.0224618
0.102771
0.361733
0.561064
0.121995
0.0239597
0.00600336
0.0217027
0.0384023
0.0396301
0.0585281
0.147887
0.245748
0.171884
0.0422414
0.0199321
0.024505
0.0404136
0.11622
0.143635
0.198123
0.336755
0.174716
0.0631188
0.00585059
0.0182185
0.0082
0.0320083
0.0503296
0.172711
0.492259
0.277229
0.109282
0.0539642
0.165253
0.111197
0.191884
0.0708257
0.0976267
0.268457
0.251629
0.1068
0.0540163
0.0180358
0.0170639
0.101269
0.152519
0.168889
0.340247
0.244115
0.365678
0.219063
0.0753869
0.0638952
0.0947952
0.0447224
0.0586984
0.157197
0.333665
0.148631
0.140921
0.146661
0.138675
0.177986
0.0713876
0.051587
0.105415
0.133833
0.299872
0.136016
0.0648825
0.0546519
0.0446535
0.023177
0.0455911
0.152171
0.188108
0.279164
0.22296
0.279447
0.359042
0.243184
0.0266486
0.0171106
0.0108644
0.0988187
0.0352118
0.0839114
0.199239
0.32061
0.12097
0.00646361
0.0795597
0.0447394
0.0602212
0.184855
0.0729183
0.224631
0.126824
0.191968
0.0460699
0.0432008
0.117137
0.0959615
0.0363657
0.041775
0.220247
0.0957981
0.214922
0.0393765
0.0320131
0.0259234
0.0873187
0.0279666
0.124007
0.135316
0.211589
0.0865437
0.0748861
0.0327438
0.135762
0.100001
0.00782994
0.125935
0.102129
0.22732
0.34121
0.133606
0.112286
0.0906546
0.0895701
0.24341
0.115903
0.157442
0.130642
0.0785825
0.0707764
0.0302483
0.106388
0.200525
0.179798
0.120806
0.101414
0.374764
0.367557
0.0694324
0.0469046
0.131831
0.137761
0.000734012
0.0145727
0.0262032
0.156459
0.330834
0.0492647
0.0160858
0.00857453
0.00776407
0.0391861
0.00824262
0.054587
0.1755
0.470618
0.0232142
0.000133226
0.00455187
0.00585618
0.0157395
0.0198264
0.0177441
0.259605
0.398068
0.0101242
0.00387302
0.0110561
0.0132285
0.0037933
0.00518361
0.0179171
0.234315
0.520563
0.00619417
0
0
0
0.0959218
0.0230529
0.0907671
0.0668923
0.224909
0.00329946
0.0127429
0.102717
0.0885252
0.0547518
0.0138317
0.0390288
0.00746436
0.051912
0.00152647
0.127879
0.521066
0.141661
0.0109909
0.012059
0.0392116
0.0851382
0.521066
0.0171666
0.00326429
0.0523363
0.0311466
0.00659455
0.0077366
0.022492
0.0117848
0.210273
0.0189404
0.0397234
0.450485
0.0846958
0.00037614
0
0
0
0.000219721
7.32402e-005
0.132082
0.476363
0.0186879
0
0
0
0
0
0.00504658
0.153137
0.476363
0.0265522
0
0.000142771
0.000333132
0
0.00252342
0.00130357
0.0736993
0.452441
0.0294755
0
0
0
0
0
0
0.137231
0.476363
0.0185483
0
0
0
0
0.00256449
0.0330239
0.11348
0.48192
0.060724
0.00204673
0
0
0
0.03141
0.172831
0.226366
0.314377
0.0717584
0
0
0
0
0.000536409
0.00402848
0.106654
0.48192
0.0329779
0.0143271
0
0
0
0.0194572
0.0442424
0.164177
0.48192
0.099636
0.0299201
0.0158773
0.00240198
0
0.0436956
0.225812
0.293585
0.163988
0.0397685
0.046651
0.0501779
0.0183634
0
0.016191
0.137023
0.222186
0.179339
0.0372762
0.0891766
0.00470829
0.00400329
0
0.0494347
0.106161
0.268795
0.596548
0.0741566
0.0726302
0.0666569
0.03887
0
0.0414323
0.183604
0.312685
0.241975
0.0215196
0.0717504
0.0678287
0.0255995
0.0552834
0.0646175
0.110355
0.166551
0.280438
0.158242
0.16031
0.0902278
0.13187
0.219669
0.241766
0.102293
0.107396
0.152389
0.145961
0.119137
0.162324
0.0328198
0.0566939
0.0911265
0.201573
0.171621
0.127165
0.0865413
0.455931
0.211552
0.0238855
0.14835
0.197187
0.125763
0.0689778
0.0780105
0.194782
0.106551
0.128697
0.125542
0.215786
0.284608
0.126754
0.139082
0.048721
0.0575171
0.0809068
0.0769966
0.0451616
0.0609481
0.0955234
0.0354949
0.228124
0.27673
0.116251
0.298279
0.193572
0.0465667
0.190741
0.235033
0.0704145
0.17996
0.0626894
0.144916
0.0917406
0.115383
0.0258244
0.22958
0.131714
0.0214063
0.235201
0.243235
0.0898162
0.0480852
0.0300984
0.0713693
0.0518825
0.111859
0.0490559
0.0931585
0.255426
0.112221
0.0376489
0.0800951
0.117557
0.109887
0.144964
0.0629339
0.0425548
0.04659
0.0714076
0.0653702
0.0599075
0.0369729
0.117536
0.0366045
0.0386073
0.0983318
0.332138
0.197461
0.0749286
0.184063
0.555646
0.284211
0.032916
0.0397598
0.0356966
0.108298
0.197419
0.288848
0.0203631
0.0168292
0.00886086
0.00777236
0.00949956
0.0107167
0.0304283
0.300906
0.225797
0.0463357
0.0464777
0.099267
0.0762677
0.0145911
0.0202171
0.0676284
0.260587
0.391898
0.00950094
0.0027503
0.00513797
0.00570513
0
0.0108416
0.01478
0.448106
0.253209
0.0287381
0.0369849
0.119584
0.116493
0.0622397
0.08513
0.115365
0.392127
0.036261
0.0295428
0.0323442
0.196089
0.238362
0.0081772
0.00587505
0.0274455
0.0548745
0
0.00317696
0.00392903
0.201024
0.562758
0.00261788
0.000292042
0.00243338
0.00162225
0.0290811
0.0156117
0.022822
0.194645
0.240222
0.0577703
0.0376472
0.0563756
0.0792932
0
0.00190618
0.00232977
0.237949
0.562758
0.014967
0.0020443
0.00405563
0.00270375
0.000181056
0.000754399
0.000645347
0.10836
0.621625
0.0146385
0.00016483
0.00446479
0.00411996
0.00126739
0.00556415
0.00536749
0.0230459
0.228527
0.0199847
0.0041712
0.0901594
0.0211639
0.00131821
0.000962316
0.000387208
0.1501
0.621625
0.0228542
2.35471e-005
0.000289291
0.000571313
0.00922749
0.00720847
0.00412723
0.0283383
0.259284
0.0287212
0.0044778
0.00656937
0.00580155
0.00486285
0.00357538
0.00403455
0.000122891
0.00885022
0.00644127
0.0433489
0.336799
0.0456792
0.0148358
6.5016e-005
0.000349085
0.00114631
0.00117797
0.00187583
0.131877
0.851137
0.0585502
0.0123089
0.00509955
0.0050776
0.00319221
0.0138177
0.0220833
0.00719845
0.0302519
0.0161157
0.0265682
0.00563117
0.00559596
0.0100349
0.00852439
0.0151704
0.0150246
0.221726
0.0310867
0.00206857
0
7.17136e-005
0.000280516
9.64347e-005
3.87191e-005
0.0978571
0.529747
0.0140931
0.00672853
0
1.02448e-005
1.90261e-005
0.0027129
0.00189151
0.162982
0.529747
0.035791
0.00479429
0.00232914
0.00165602
0.00238093
0.0018224
0.000617715
0.0293424
0.235029
0.00892553
0.000546143
0.000327322
0.00137691
0.000659577
0.00191226
0.00025843
0.106141
0.529747
0.0256908
0.0172906
0.000209684
0.000314526
0
0.00553755
0.011399
0.118134
0.431735
0.0170385
0.0109744
0.00838677
0.00451823
0
0.0110679
0.0454963
0.180653
0.331739
0.0209732
0
0
0.000417792
0.000179054
0.000244654
0.0006641
0.105018
0.521204
0.03514
0
0
0
0
0.000701186
0.00910786
0.213222
0.521204
0.028444
0.0287436
0.0283468
0.00407962
0.00248606
0.0218796
0.0839451
0.144026
0.209863
0.0409919
0.118587
0.0481812
0.00330976
0.00866304
0.0180028
0.0459716
0.115747
0.186396
0.0931615
0.00283802
0.00208645
0
0
0.00248707
0.0308918
0.226005
0.581018
0.0247136
0.0128335
0.00368712
0
0
0.00149224
0.022917
0.244862
0.581018
0.0536829
0.130623
0.0618536
0.011507
0.0342091
0.0152181
0
0.103357
0.141442
0.13569
0.103999
0.0981963
0.0449149
0.0937793
0.0189815
0.00320323
0.0303932
0.0580715
0.0930167
0.0356418
0.0130768
0.00835135
0.00830478
0
0.00745799
0.267517
0.653825
0.191406
0.110741
0.119003
0.097553
0.0588207
0.000116922
0.0034522
0.155321
0.375673
0.255943
0.108822
0.0934302
0.0683928
0.0475699
0.00750111
0.0114588
0.00992762
0.0395511
0.0695154
0.0752183
0.121041
0.488974
0.136408
0.0290243
0.0171788
0.00499228
0.0188543
0.0781204
0.189193
0.139611
0.169299
0.0771425
0.00257381
0.0156144
0.0668503
0.0793785
0.109056
0.20944
0.120113
0.594973
0.222227
0.0553678
0.0621957
0.0279174
0.00533323
0.0632448
0.192848
0.0259338
0.0120703
0.0223015
0.026354
0.011463
0.0110146
0.0190398
0.250228
0.124504
0.0281144
0.0763267
0.324693
0.242901
0.0520743
0.0532227
0.0487707
0.134203
0.0760628
0.05368
0.0340885
0.0340626
0.184015
0.135105
0.0625091
0.0386771
0.184635
0.0238534
0.0251826
0.088466
0.37619
0.588407
0.110345
0.0104311
0.00510833
0.0228022
0.0065277
0.00218735
0.0161421
0.170771
0.235032
0.0232592
0.0140115
0.0122109
0.0113445
0
0
0
0.142371
0.569896
0.00967634
0.000760844
0.000555284
0.000370189
0.00157965
0.00195925
0.0130051
0.175172
0.364868
0.0222887
0
0
0
0
0
0
0.153717
0.569896
0.00731426
0
0
0
0.00100247
0.000351389
0.000356838
0.111857
0.638891
0.0203048
0
0.00045322
0.000510576
0.00709747
0.00596276
0.002958
0.0242046
0.185437
0.025378
0.00452837
0.00334927
0.00379003
0.000679651
0.00129023
0.000968067
0.157944
0.638891
0.0059828
0
0.000271932
0.000186821
0.00655233
0.0172887
0.00557529
0.0551438
0.208825
0.00824317
0.00121264
0.00251772
0.00139118
0.0514599
0.0950687
0.060875
0.0703224
0.0882108
0.1851
0.0708411
0.0457063
0.0504565
0.0662064
0.117269
0.133122
0.085522
0.0494345
0.141306
0.0643485
0.183603
0.106585
0.0720463
0.241294
0.0872814
0.112371
0.116295
0.0573002
0.0335779
0.0412324
0.0454617
0.152186
0.234719
0.165732
0.0777647
0.086534
0.0568084
0.108539
0.0813163
0.155887
0.0178902
0.0340379
0.0329565
0.0215268
0.0227792
0.00816534
0.0301407
0.145611
0.0374972
0.00682647
0.0122432
0.0378827
0.0254132
0.0346716
0.00461623
0.0997689
0.842681
0.127365
0.0370397
0.0588179
0.0525978
0.0217108
0.0247875
0.0156864
0.0331398
0.0213193
0.0330583
0.016315
0.0273537
0.0519149
0.0319342
0.0306725
0.0357715
0.0838883
0.0860076
0.0674879
0.000210578
0
0.00262774
0.002726
0.0027799
0.00171111
0.041716
0.41486
0.05244
0.00238988
0.000610555
0
0.0020279
0.00247855
0.00109387
0.165855
0.758277
0.0337653
0.0208562
0.0124453
0.00518874
0.00356273
0.0034888
0.00965183
0.0225562
0.0565458
0.0199927
0.135884
0.120946
0.00185834
0.00337984
0.00413092
0.00434064
0.0410113
0.324577
0.0178965
0.000815611
0.000341523
0
0.000153516
0.000267249
0.00353578
0.119471
0.49262
0.00372202
7.31834e-005
4.8789e-005
0
0.000656726
0.00493399
0.0418211
0.22568
0.49262
0.00813673
0.0556506
0.171587
0.000950677
0.00025586
0.000870044
0.0247504
0.0719066
0.266206
0.00382788
0.0200874
0.298662
0.0586454
0.0151454
0.037175
0.199333
0.196632
0.341563
0.00151914
0.000565669
0.00199897
0.00167318
0.00346146
0.0184523
0.0655615
0.235008
0.444907
0.0481424
0.0267613
0.0216944
0.0169832
0.00716222
0.0126321
0.0335914
0.243825
0.425747
0.0948951
0.0304447
0.166142
0.0813265
0.0615033
0.139875
0.234413
0.185073
0.244516
0.0233067
0.0608917
0.160166
0.0403756
0.0466335
0.0948498
0.119448
0.246047
0.313651
0.0471155
0.0499075
0.0196913
0.0392274
0.0287508
0.0106126
0.0606326
0.189664
0.211113
0.0561807
0.135637
0.0109053
0.141185
0.144175
0.0804808
0.152389
0.110068
0.0434882
0.033952
0.0283969
0.106912
0.0785132
0.0530218
0.102334
0.200662
0.241569
0.243149
0.0178944
0.0510715
0.0274794
0.1031
0.22083
0.54052
0.398786
0.155283
0.0629982
0.0113067
0.0334544
0.0392345
0.0302217
0.0197447
0.259181
0.217163
0.0735146
0.0236226
0.0768107
0.0247216
0.0506441
0.0565648
0.0984828
0.419338
0.138752
0.00884153
0.000767834
0.00271603
0.0258564
0.0417403
0.0231696
0.164709
0.478015
0.343198
0.0618109
0.00959188
0.00825692
0.0707605
0.158395
0.0504747
0.130868
0.346171
0.200755
0.0571807
0
0
0.00324026
0.00539273
0.00675391
0.0579397
0.287159
0.0622315
0.00245229
0
0
0
0
0
0.103248
0.592577
0.0121638
0.000350327
0
0
0.0130029
0.033943
0.00875104
0.0387303
0.298189
0.139329
0.0395012
0
0
0
0
0
0.154326
0.592577
0.0458245
0.00564303
0
0
0.000449766
0.000828276
0.000506333
0.105307
0.646826
0.00314398
0
0.00012936
0.000158106
0.00461299
0.00982649
0.0045527
0.0356771
0.159945
0.00475684
0.000575386
0.00235639
0.0013374
0.000162932
0.000164956
0.000367571
0.14055
0.646826
0.00985871
0
0.0002156
0.000263511
0.00437272
0.00808505
0.0102034
0.0408481
0.199123
0.0100783
8.2198e-005
0.00231396
0.00198297
0.0186116
0.0401019
0.0358263
0.0458055
0.0328584
0.0112166
0.00813849
0.0128098
0.00572978
0.0469831
0.0606676
0.0369225
0.0412384
0.0315015
0.0167355
0.0293381
0.0221348
0.0245028
0.0654529
0.165466
0.077646
0.0684184
0.0304477
0.0184052
0.00223556
0.0107542
0.00867209
0.46574
0.710137
0.0509427
0.0320993
0.022782
0.0239386
0.0165691
0.0295465
0.0579499
0.0194719
0.0207633
0.00510606
0.00179226
0.0111903
0.00217947
0.00695318
0.004976
0.00934662
0.0774656
0.0858629
0.00569618
0.0010387
0.00702079
0.00694227
0.00941404
0.0101794
0.0318241
0.158491
0.399915
0.00798531
0.000701423
0.012423
0.0011858
0.00352859
0.00329917
0.014446
0.302905
0.790969
0.0540758
0
0.0074538
0.000808151
0.00075584
0.00134237
0.0275447
0.0521851
0.137228
0.0148912
0.000250312
0.000264016
0.00428915
0.00494941
0.00377966
0.0102792
0.142042
0.422795
0.0266057
0.000280962
0.000343398
0.0014999
0.00351584
0.00946662
0.00235396
0.13686
0.583715
0.0530636
0
0
0.000564835
0.00028508
0.000321547
0.00741338
0.108791
0.583715
0.0768361
0
0
0.000170343
0.00014659
2.48209e-005
0.00187342
0.0815257
0.42488
0.00962581
3.20753e-005
0.000229124
0.00843423
0.00721647
0.0165232
0.000564899
0.0312385
0.491173
0.0866626
0.0113376
0.0142123
0.0638218
0.018571
0.0293111
0.000529511
0.0527921
0.491173
0.0499149
0
0
0
0
0
0.00310961
0.0692749
0.491173
0.125604
0.0031098
0.000706636
0.000834564
0
0.00365696
0.0096253
0.0770736
0.440703
0.123027
0.0548821
0.0623909
0.0788414
0.0217092
0.0231459
0.010352
0.136014
0.388558
0.0978651
0.0533817
0.041741
0.0396508
0.0548216
0.0414104
0.0155544
0.117519
0.49883
0.17627
0.0259789
0.00964892
0.00392033
0.003554
0.0089845
0.0204047
0.0991303
0.336409
0.304932
0.0409069
0.041731
0.00986941
0.024878
0.0195573
0.00927428
0.062875
0.24
0.207342
0.0954264
0.0714118
0.076117
0.0634636
0.0373745
0.00261271
0.00558461
0.103162
0.156697
0.2342
0.361881
0.235366
0.17134
0.0626857
0
0.0360785
0.178561
0.337715
0.0731941
0.0982759
0.0437884
0.0318771
0.00907512
0.000265104
0.00335076
0.0920646
0.171047
0.115142
0.178083
0.403145
0.250605
0.089492
0
0.00386935
0.0204595
0.118925
0.34022
0.198685
0.109378
0.0112839
0
0
0.0155274
0.130712
0.0939726
0.218696
0.202665
0.0902017
0.0342126
0
0
0
0.0230934
0.278607
0.463618
0.133283
0.0269913
0.00453318
0
0
0
0.0494592
0.153092
0.402018
0.35992
0.0785616
0.0355425
0
0
0.00423278
0.0381662
0.0145806
0.0610958
0.266076
0.0836393
0.0274332
0
0
0.000543269
9.58711e-005
0
0.12652
0.557762
0.0353283
0.00546283
0.000385953
0
0.00228173
0.0149922
0.0195977
0.13893
0.414284
0.0574059
0.0124156
0
0
0.0209953
0.00811988
0.000767136
0.13177
0.557762
0.0837923
0.0309858
0.0261807
0.00466668
0.00549125
0.00367239
9.73361e-005
0.0949302
0.506753
0.00676628
0.00477824
0.00380673
0.000729363
0.0337603
0.0811097
0.00589079
0.0280005
0.10822
0.00364262
0.00286695
0.00520177
0.00137622
0.136047
0.107726
0.000118212
0.070663
0.475661
0.0618778
0.0559271
0.0394082
0.0169032
0.253583
0.563095
0.0291657
0.0140317
0.0681082
0.00785103
0.02328
0.0160239
0.0127653
0.0443513
0.175908
0.008793
0.00515399
0.00196614
0.000373542
2.38167e-005
0.000629886
0.000462791
0.109997
0.477104
0.00895754
0.000487908
0.000272933
0.000459836
8.92706e-005
0.000585618
0.00312872
0.0932038
0.568865
0.053742
0.00107858
0.000528433
0
0
0.000821111
0.000468272
0.0943849
0.568865
0.0581719
2.80753e-005
1.47765e-006
0
0
0
0
0.0976304
0.418172
0.0136336
0
0.00062169
5.42021e-005
2.37015e-005
0.000187639
0.00187364
0.10627
0.484317
0.0464382
0
0.000373014
0
0
0
0.00101536
0.0699884
0.484317
0.0784637
0
0
0
0
0
0
0.134996
0.484317
0.143448
0
0
0
0.00299744
0.00245245
0.0235444
0.0827985
0.558657
0.0670025
0
0
0
0
0
0.00160644
0.055281
0.558657
0.0899208
0.006789
0
0
0
0
0.0123704
0.143342
0.379175
0.0943088
0.00147968
0
0
0.0113164
0.0156121
0.0540599
0.0774617
0.288779
0.170468
0.0309525
0
0
0.00716258
0.0164489
0.0422724
0.067472
0.588611
0.157973
0.0312655
0
0
0
0
0.025527
0.201793
0.414976
0.222476
0.0419397
0.0501653
0.0128667
0.00092035
0.0287241
0.0486833
0.0662602
0.235067
0.245938
0.0819442
0.000940347
0.00141052
0.000141829
0.00747181
0.0257315
0.23633
0.124694
0.205013
0.0846369
0.131254
0.0255955
0.00153392
0.056237
0.0459769
0.17265
0.265421
0.256143
0.0471088
0.164663
0.0465663
0.0124197
0.0708479
0.0649066
0.0301489
0.111233
0.371897
0.072809
0.27523
0.0555237
0.0586489
0.0508184
0.0132025
0.263356
0.162075
0.146289
0.0848965
0.300069
0.0657981
0.031488
0.095187
0.0446969
0.0826175
0.118569
0.147936
0.185005
0.290891
0.113183
0.120819
0.0702782
0.00435132
0.000433101
0.0296555
0.141035
0.0737048
0.27783
0.0566911
0.0207505
0.00869788
0
0
0.0106209
0.0423052
0.0547364
0.348093
0.447656
0.155585
0.0175363
0
0
0.00622132
0.0471994
0.202279
0.304061
0.0481368
0.0361977
0.0118043
0
0
0
0.00913595
0.166311
0.395305
0.315702
0.117866
0
0
0.0133815
0.0224764
0.119394
0.135256
0.212616
0.103349
0.014976
0.00380729
0.000704292
0.00191164
0.00029119
0.036796
0.148075
0.471172
0.190126
0.068241
0.0212312
0.000100613
0.0223025
0.0230533
0.0431453
0.0240503
0.229724
0.298817
0.0778441
0.0216205
0.00117382
0.00318607
0.00203833
0.00283089
0.135416
0.445915
0.40024
0.162491
0.0776824
0.00430702
0.001431
0.00030148
0.00593101
0.0826025
0.463858
0.0944917
0.0250073
0.00967847
0
0.0561604
0.0389688
0.0053289
0.0642632
0.481119
0.153715
0.0500594
0.102014
0.0422829
0.0170522
0.0182295
0.00394392
0.172751
0.432387
0.14087
0.0610464
0.0469865
0.0439312
0.102094
0.265284
0.0910588
0.0766943
0.228452
0.10791
0.0381051
0.094737
0.122766
0.161215
0.196884
0.00474835
0.0109426
0.12232
0.0676517
0.0382465
0.0737865
0.0417589
0.216294
0.546136
0.0334764
0.000908185
0.00897251
0.00638002
0.00993644
0.0119895
0.0132687
0.139641
0.374728
0.0807958
0.00991489
0.0139857
0.0206401
0.0122453
0.0482098
0.0543152
0.157258
0.546136
0.102701
0.008476
0
0.000911431
0.000688388
0.00565768
0.00987463
0.0599236
0.496204
0.0549898
0
0
0
0
0.000113176
0.000423533
0.0876983
0.505492
0.0737815
0
0
0
0
0
4.03434e-005
0.0694133
0.447882
0.100096
0.00677717
0
5.07908e-005
0.000965021
0
0.00603577
0.212473
0.399564
0.0807265
0.00645584
0
0.000355535
0.00675515
0.0051135
0.0406595
0.100518
0.562446
0.135756
0
0
0
0
0
0.000348792
0.176563
0.462712
0.221767
0
0
0.00666764
0.0202715
0.0136217
0.0860721
0.223253
0.35197
0.0888402
0.00602398
0.000875823
0.000212387
0.0100753
0.0105737
0.0457291
0.10024
0.249527
0.145246
0.00915034
0.0114246
0.012759
0.031767
0.0211711
0.073979
0.313281
0.279935
0.141494
0.00425113
0
0.0369119
0.114952
0.167928
0.244436
0.14783
0.189986
0.209766
0.0665212
0.0209598
0.0405622
0.0985594
0.200926
0.137931
0.117648
0.0931838
0.0736216
0.00605729
0.0440267
0.0820241
0.132095
0.219477
0.185249
0.153376
0.0620012
0.0244933
0.0158346
0.136219
0.199439
0.2083
0.325258
0.185441
0.0583275
0.168039
0.244459
0.0969937
0.056066
0.0376045
0.0401133
0.0426499
0.0327841
0.15711
0.167542
0.2644
0.131991
0.258605
0.0770895
0.0128221
0.0802483
0.0419011
0.0687028
0.170945
0.105714
0.0408227
0.190129
0.183694
0.150643
0.122403
0.0867086
0.0233833
0.346366
0.366264
0.155919
0.243858
0.123445
0.0645937
0.0573824
0.0397067
0.178047
0.242922
0.130783
0.125087
0.278264
0.0714571
0.0689028
0.0585572
0.0267518
0.0821907
0.176281
0.118079
0.18806
0.127139
0.103822
0.159915
0.0755822
0.0689447
0.0255983
0.172132
0.162205
0.170301
0.324779
0.167385
0.123045
0.0354303
0.0339249
0.0238633
0.0568601
0.0605595
0.17521
0.239273
0.209499
0.224892
0.0846416
0.188463
0
0.00782568
0.058199
0.233687
0.17548
0.044604
0.0348155
0.0163013
0.0193347
0
0
0.0250335
0.219244
0.41442
0.186339
0.0419697
0
0
0.00404641
0.00246676
0.0425614
0.231351
0.18776
0.109331
0.0634564
0.0188668
0.0527492
0
0
0.0195894
0.292987
0.521746
0.222876
0.0204116
0
0
0.00436827
0.012477
0.032787
0.0648105
0.309541
0.25443
0.0797174
0.0156744
0.00022991
0.00117773
0.00108524
0.000723491
0.113049
0.297537
0.381786
0.189255
0.0543136
0.0233661
0
0.00684243
0.0458737
0.179904
0.426527
0.140687
0.0704433
0.00174981
0
0.0265461
0.069949
0.0316609
0.0409021
0.280381
0.271093
0.225159
0.0571585
0.0677298
0.0876304
0.0518127
0.00457118
0.136914
0.183455
0.169832
0.0838829
0.0748746
0.136412
0.2102
0.491615
0.149492
0.0905322
0.0936653
0.0680399
0.0156813
0.0510009
0.174488
0.179626
0.114173
0.0181173
0.0218156
0.0699345
0.130181
0.143795
0.0745781
0.233151
0.272666
0.321171
0.0598923
0.122754
0.162269
0.0628494
0.102055
0.0251422
0.213773
0.101138
0.3908
0.22033
0.0794378
0.00808759
0.000902319
0.00255332
0.00384981
0.0252348
0.0969763
0.583436
0.234591
0.0872306
0.00750963
0.00157401
0.0241152
0.00330002
0.00287226
0.0598067
0.155675
0.161366
0.245957
0.131827
0.0091456
0.0172969
0.00232524
0.0185575
0.0290695
0.178851
0.1891
0.267053
0.121189
0.0230167
0.0905516
0.0265924
0.00944529
0.0827626
0.616678
0.195696
0.061844
0.0348192
0.0334685
0.0431201
0.00674965
0.0135088
0.188706
0.368361
0.134395
0.0639949
0.0705975
0.0666137
0.0666822
0.0417606
0.113655
0.0661242
0.162213
0.0894418
0.0800665
0.114444
0.0763192
0.14423
0.0495588
0.0149706
0.0371553
0.0428296
0.0723165
0.0653576
0.165112
0.195411
0.217951
0.171596
0.0378881
0.244533
0.177805
0.06511
0.0542559
0.0698889
0.0390321
0.0582588
0.0745284
0.122418
0.16998
0.119929
0.0531745
0.0679435
0.0680033
0.0292112
0.0685485
0.0699931
0.0485781
0.110337
0.068332
0.0345209
0.0465487
0.270466
0.38867
0.166631
0.206232
0.028934
0.228354
0.134469
0.0102025
0.0523668
0.230417
0.392506
0.111755
0.214225
0.0127536
0.0462817
0.0272665
0.0115814
0.0188729
0.0813812
0.0675806
0.122411
0.135151
0.0439412
0.0552492
0.00207442
0.000345917
0.00101777
0.110304
0.244994
0.392566
0.28336
0.0722568
0.0432878
0.0260288
0.000888129
0.0153772
0.124813
0.192022
0.187281
0.140527
0.0241227
0.00526047
0.000197667
4.94167e-005
0
0.164867
0.299507
0.482122
0.17416
0.0521911
0.0273581
0.0777394
0.0255038
0.0115386
0.0819046
0.189158
0.27761
0.181186
0.0576419
0.0468443
0.187475
0.149068
0.0492652
0.0526564
0.0885564
0.0908507
0.0862372
0.0639008
0.017949
0.00926548
0.00211729
0.00455051
0.0592179
0.244604
0.435137
0.300027
0.0991474
0.0505663
0.0337692
0.0382893
0.0103825
0.0474968
0.112651
0.218032
0.344082
0.231381
0.0328281
0.0653093
0.0803457
0.0498783
0.172923
0.195089
0.0650354
0.0319497
0.0533115
0.0471105
0.0171137
0.0102925
0.0973906
0.242356
0.281732
0.150474
0.0582559
0.17595
0.0474821
0.0176515
0.0394775
0.00427164
0.107219
0.147931
0.111501
0.170173
0.208773
0.0429331
0.00983703
0.00497195
0.0335013
0.267485
0.353282
0.205366
0.174311
0.350199
0.012032
0.00401065
0.0050968
0.13428
0.166121
0.105911
0.050527
0.0189797
0.0552561
0
0
0.00145175
0.255125
0.395311
0.122289
0.01015
0.00139459
0.00209188
0.00721917
0.00240639
0.00421412
0.104427
0.241688
0.270347
0.0762497
0.0396207
0.100035
0
0.0420832
0.164509
0.309055
0.476649
0.216171
0.00940658
0.00232431
0.00348646