0.0277985
0.0453235
0.0594913
0.0712269
0.249158
0.0644623
0.0543124
0.0737539
0.0677239
0.019209
0.124407
0.15978
0.150386
0.092839
0.0608867
0.0872133
0.034011
0.0341524
0
0.00312768
0.0927574
0.125028
0.445588
0.188904
0.147038
0.0458726
0.00828744
0.0700616
0.0713395
0.246863
0.23358
0.185475
0.0519855
0.148619
0.0525788
0.0141074
0.0407759
0.0949733
0.128591
0.119184
0.0921414
0.0982013
0.0314489
0.0235806
0.0132781
0.172876
0.145742
0.0840002
0.0732009
0.140498
0.185051
0.00636727
0.0531054
0.0548575
0.113081
0.0905163
0.143595
0.108626
0.0908216
0.115833
0.036886
0.0759635
0.042668
0.065423
0.128403
0.101915
0.129047
0.3371
0.327178
0.00359353
0.0923969
0.084385
0.0463998
0.0664348
0.0995405
0.113123
0.122245
0.0733269
0.000445772
0.017497
0.0212036
0.0166099
0.0343167
0.162528
0.268657
0.328003
0.0593222
0.0131884
0.0055806
0.012515
0.0154519
0.084554
0.107707
0.236485
0.229286
0.134428
0
0.0159917
0.0195454
0.00565553
0.0338964
0.185271
0.451295
0.296048
0.0875905
0.0129299
0.0263255
0.0242719
0.0626874
0.0727817
0.0679742
0.158957
0.276686
0.0459928
0.0266761
0.0104362
0.04541
0.183461
0.166417
0.031616
0.0865153
0.154019
0.0143151
0.0189502
0.0112159
0.0721824
0.0199549
0.0229387
0.12142
0.260453
0.195187
0.120612
0.0575085
0.109917
0.106515
0.0706999
0.100227
0.065379
0.232542
0.306349
0.155972
0.0627256
0.0857929
0.0653995
0.222716
0.127859
0.0182545
0.0449232
0.0499918
0.00651267
0.0181916
0.0213323
0.130553
0.183478
0.105832
0.0266148
0.00699175
0.0265225
0.0349488
0.0510888
0.142319
0.244966
0.10418
0.117627
0.0583377
0.110001
0.187904
0.0569687
0.0375149
0.0781293
0.0974887
0.166463
0.112501
0.0440671
0.0200639
0.115097
0.0618462
0.0676319
0.180442
0.421436
0.0901387
0.0551752
0.0896906
0.00676753
0.0180307
0.0300132
0.0281694
0.0753707
0.108719
0.16591
0.182672
0.364967
0.0415386
0.00448795
0.0074762
0.011165
0.0108532
0.0484767
0.209384
0.100524
0.082271
0.0358822
0.0545777
0.0419091
0.0143508
0.067126
0.228409
0.285951
0.306777
0.345794
0.0751666
0.0187529
0.00598701
0.00118574
0.00688159
0.122305
0.163283
0.188442
0.1488
0.0233743
0.0108004
0.00290844
0.00986874
0.0164549
0.0266141
0.15278
0.145072
0.030576
0.0629297
0.161968
0.0580493
0.112908
0.163788
0.0798507
0.0862413
0.232121
0.204581
0.0800224
0.041911
0.00431246
0.00571713
0.00163547
0.0125418
0.0628706
0.148341
0.084018
0.380327
0.488156
0.0516875
0.046621
0.01571
0.00381611
0.0316033
0.0218584
0.00797764
0.111574
0.244402
0.0649079
0.112719
0.120422
0.0423378
0.00823592
0.0176572
0.0122803
0.0711189
0.220088
0.0717552
0.0981195
0.078972
0.00802942
0.0128106
0.020154
0.0200766
0.395958
0.511111
0.0668877
0.0379812
0.0142839
0.00382077
0.0208251
0.0409486
0.0499737
0.132193
0.210451
0.0957574
0.0885345
0.0472883
0.0146269
0.00174387
0.00706099
0.00279618
0.0212023
0.181648
0.136708
0.102729
0.0706796
0.00378518
0
0.00699844
0.025251
0.0961634
0.326551
0.132095
0.0805356
0.0404816
0.00412256
0.00976516
0.0322182
0.10221
0.12028
0.119439
0.145315
0.102197
0.058861
0.00685872
0
0.00714084
0.101365
0.203682
0.508284
0.157069
0.0455865
0.0238972
0.000348708
0
0
0.0753948
0.139455
0.133647
0.130576
0.145684
0.0181909
0
0.0477341
0.0144866
0.189284
0.277942
0.0640295
0.0193667
0.0309229
0.0127559
0.00295439
0.044525
0
0.0563485
0.17405
0.0569409
0.165047
0.499161
0.107269
0.10845
0.0394418
0.00821559
0.165388
0.410046
0.130466
0.0761604
0.0615304
0.0231468
0.0626296
0.0761634
0.0243381
0.130832
0.141563
0.0544648
0.055667
0.0181337
0.0395103
0.0177421
0.0272845
0.0787055
0.0634621
0.137172
0.165783
0.145839
0.0695084
0.0670115
0.0465116
0.0453312
0.0550346
0.30416
0.297714
0.131515
0.0697325
0.0255446
0.0178536
0.0150756
0.0915629
0.114612
0.200464
0.19024
0.100675
0.155004
0.261032
0.160619
0.306363
0.00712464
0.0524478
0.0349061
0.136789
0.103708
0.087587
0.0314235
0.0162669
0.0111045
0.0122887
0.0198323
0.0439837
0.188131
0.13791
0.110568
0.0408926
0.0564272
0.0439786
0.0928482
0.0329766
0.0107548
0.0646435
0.0436595
0.120045
0.146765
0.109829
0.338325
0.209949
0.00764627
0.00471777
0.0494134
0.0471511
0.114023
0.10843
0.313457
0.589177
0.0356577
0.00386305
0.0440025
0.134686
0.0791425
0.0876371
0.0282171
0.0868293
0.0651797
0.0208605
0.0329114
0.0547559
0.213752
0.106081
0.065633
0.030877
0.0529536
0.042542
0.131829
0.00643842
0.0273555
0.0750875
0.04284
0.059286
0.064381
0.47495
0.406136
0.0796594
0.0577115
0.0740624
0.20081
0.0585665
0.0386074
0.0906869
0.29769
0.249446
0.00858294
0.0773166
0.0628419
0.114735
0.113207
0.0384936
0.0744599
0.0889725
0.0981859
0.0370038
0.04743
0.0456868
0.0919493
0.154943
0.102663
0.0846897
0.132749
0.252472
0.081376
0.110724
0.119257
0.191985
0.0663649
0.0382389
0.175715
0.143369
0.174063
0.0566825
0.0332022
0.110137
0.260949
0.160168
0.0758432
0.166758
0.126329
0.327599
0.0709746
0.0344283
0.0513084
0.144026
0.146633
0.0679805
0.00923739
0.0288001
0.102066
0.135536
0.192774
0.164094
0.127252
0.122031
0.00939228
0
0.000384739
0.0714128
0.015303
0.0354071
0.0787797
0.294678
0.223233
0.0331774
0.0165379
0.0356479
0.098374
0.0429798
0.311546
0.353625
0.259081
0.21854
0.00420759
0.0130237
0.00764917
0.0138779
0.0484368
0.17113
0.17192
0.0971863
0.030499
0.000529454
0
0
0.0116994
0.0289412
0.105062
0.169298
0.43353
0.250943
0.00370618
0.0057317
0.00530942
0
0.0658696
0.270398
0.303214
0.12054
0.0404857
0.0042795
0.0101887
0.0142614
0.0219191
0.06237
0.133675
0.232314
0.289407
0.178887
0.0310322
0.0318477
0.0635813
0.0432902
0.0168974
0.0286325
0.0455307
0.341876
0.336651
0.0199836
0.0333729
0.0154361
0.0185068
0.0702219
0.128393
0.0882601
0.0527818
0.119873
0.0422447
0.0516633
0.0167333
0.0568288
0.0883178
0.131281
0.053001
0.154526
0.179143
0.0278665
0.075637
0.0859291
0.0586275
0.205759
0.451324
0.105296
0.0084356
0.0349438
0.0155472
0.0567012
0.0303671
0.061037
0.0402705
0.140587
0.216025
0.0892425
0.0459706
0.0329963
0.0208661
0.00874544
0.0284595
0.0120207
0.05763
0.16254
0.129405
0.334512
0.0911326
0.0154752
0.00306934
0.0167185
0.188617
0.368698
0.184541
0.0164117
0.0275
0.0105307
0.0203496
0.0258921
0.0864791
0.122893
0.155248
0.116467
0.0875424
0.243893
0.114697
0.0277475
0.0339809
0.117029
0.0199563
0
0.0010179
0.0137358
0.00451863
0.022882
0.0734073
0.145966
0.123122
0.0313448
0.010112
0.00867143
0.0465185
0.031395
0.0144455
0.0164046
0.0750118
0.0919562
0.0414133
0
0
0.00160522
0.000980435
0.00289001
0.0257365
0.453262
0.440911
0.0394913
0.0149235
0.000488536
0.0121912
0.0115146
0.00506899
0.0830013
0.546443
0.394179
0.0218264
0.0246125
0.032541
0.0476695
0.0528433
0.0310073
0.017381
0.0188895
0.0324321
0.0791002
0.0810724
0.0876501
0.0589179
0.0849343
0.0445808
0.0385706
0.0273077
0.0926247
0.0263299
0.0251232
0.0021517
0.0275496
0.0927145
0.0281594
0.271223
0.334407
0.165021
0.0914874
0.122687
0.222445
0.277713
0.651074
0.0542342
0.188293
0.0591057
0.0312955
0.128427
0.052409
0.0398093
0.0173834
0.0161372
0.0105612
0.0160132
0.0226779
0.190858
0.157361
0.0228807
0.00967447
0.00138154
0.000466284
0.0033409
0.00974989
0.128786
0.400681
0.180223
0.138585
0.16778
0.161636
0.206729
0.00855991
0.00655069
0.0280241
0.194825
0.226883
0.286847
0.127558
0.0348893
0.0219257
0
0.00330992
0.198737
0.536772
0.031086
0.00769346
0.00478578
0.000999435
0.00115346
0.00233425
0.0256898
0.228982
0.20214
0.0286378
0.0111053
0.00759089
0.00556643
0.00784639
0.0105594
0.0665457
0.21296
0.117962
0.0993745
0.181883
0.0568678
0.00104814
0.000349378
0.0171108
0.182336
0.32899
0.262284
0.0733463
0.0246645
0.00676044
0.000146026
0.00636186
0.0777716
0.570234
0.39639
0.13272
0.0608888
0.0284634
0.0344464
0.0238526
0.0505488
0.0337913
0.0869836
0.116002
0.0696396
0.0287343
0.0156745
0.0283844
0.0329078
0.0658845
0.0236663
0.0256536
0.0379285
0.0721185
0.254595
0.0286878
0.00775353
0.0127814
0.0706318
0.10189
0.605681
0.313563
0.155539
0.341524
0.0710189
0.00958959
0.0202198
0.0770805
0.0401875
0.09614
0.126884
0.272875
0.0442875
0.0428516
0.0298913
0.0758157
0.126174
0.00476947
0.00470404
0.0502016
0.0844379
0.062311
0.168302
0.150054
0.130426
0.0889345
0.00186986
0.0351285
0.0760884
0.0761214
0.233489
0.0574518
0.00513139
0.0114524
0.045944
0.018827
0.0680181
0.277734
0.448484
0.174484
0.042999
0.0740091
0.0605072
0.026224
0.013089
0.0652947
0.285647
0.335546
0.0888582
0.193553
0.151976
0.077305
0.034102
0.047025
0.0550344
0.116045
0.153938
0.0993312
0.0676593
0.0731681
0.0708549
0.120323
0.145836
0.0762954
0.126962
0.139782
0.0584858
0.0288179
0.128681
0.17447
0.0916591
0.102263
0.0757236
0.202995
0.229613
0.0934756
0.0739633
0.0908651
0.298028
0.23611
0.212439
0.10284
0.0849778
0.113148
0.104452
0.0886192
0.0235272
0.0278139
0.0714253
0.0978148
0.116467
0.0723755
0.0689975
0.162979
0.340257
0.102883
0.00793299
0.0152966
0.0583886
0.103792
0.0239064
0.0786598
0.0984976
0.103628
0.110215
0.16208
0.177459
0.116574
0.114808
0.0252724
0.040633
0.119152
0.193303
0.192155
0.273575
0.170339
0.0696106
0.0768829
0.0101409
0.115834
0.225194
0.227111
0.0602138
0.00954523
0.0150402
0.00896044
0.0435749
0.0334263
0.111922
0.222328
0.115899
0.0774656
0.142106
0.114179
0.0293232
0.0165483
0.0395936
0.077844
0.303106
0.175103
0.0650888
0.124894
0.0609543
0.00694582
0.0344745
0.0337614
0.173084
0.343427
0.144159
0.0820223
0.0936879
0.0277419
0.0251388
0.060665
0.0644877
0.0982701
0.0733817
0.00942371
0.0011739
0.00196544
0.00458603
0
0.00175093
0.21666
0.250433
0.0290611
0.0150326
0.00437248
0.0137581
0.0321022
0.000306098
0.134229
0.438775
0.206314
0.444399
0.030963
0.00528792
0.00327574
0.00764338
0
0.00213456
0.0334963
0.345305
0.271583
0.0943024
0.0306074
0.0247983
0.066663
0.0219429
0.13789
0.20258
0.306419
0.00323303
0.0054753
0.00133161
0.00953646
0.0431942
0.00293808
0.269418
0.198067
0.0379261
0.0059663
0.0116784
0.0364435
0.126804
0.426655
0.008646
0.20138
0.0561616
0.00106574
0.0291511
0.0279638
0.00932126
0.0358176
0.0637559
0.0812541
0.314685
0.158957
0.0543518
0
0
0.00178741
0.257211
0.535546
0.0929606
0.275185
0.0614039
0.00235638
0.0239852
0.0337071
0.0671441
0.137342
0.313269
0.0124736
0.0128559
0.0172723
0.0318054
0.0684107
0.213982
0.150659
0.113666
0.100027
0.0168376
0.00582834
0.0564566
0.0833176
0.000486016
0.00215296
0.0117254
0.192994
0.557357
0.0584694
0.0215784
0.00581549
0.00101507
0.0169778
0.0899119
0.127566
0.287459
0.495827
0.0769028
0.003497
0.00778317
0.00169178
0.0858884
0.183423
0.083417
0.034712
0.0139794
0.0134937
0.138401
0.120155
0.0589756
0.071498
0.0281883
0.00838133
0.000872301
0.000479381
0.0407287
0.398045
0.37128
0.11088
0.0594813
0.11715
0.124209
0.149579
0.16813
0.0122226
0.0511246
0.0765355
0.0507876
0.0695899
0.0393577
0.0316865
0.0145236
0.0102224
0.00709746
0.226051
0.598478
0.158082
0.105297
0.00777747
2.62624e-005
0.00101657
0.00305734
0.0123251
0.125175
0.224314
0.0894425
0.134104
0.015807
0.000183837
0.00169428
0.0038871
0.00261402
0.054001
0.15129
0.136057
0.052078
0.00342868
0
0
0.000129267
0.00348725
0.187714
0.567933
0.0913644
0.0532966
0.00505256
0
0
1.84667e-005
0.00120958
0.29634
0.567933
0.118501
0.0380068
0.00435409
9.54707e-005
0.000323691
0.000612757
0.0111096
0.112522
0.141913
0.103188
0.0209193
0.0014204
0.00871626
0.00373736
0
0.0154692
0.0770001
0.129845
0.0722356
0.0101001
0.000965284
0
0
0
0.0167331
0.334762
0.562343
0.0911619
0.00274118
0.000177061
0.00152872
0.00138474
0
0.0243737
0.245004
0.579343
0.152199
0.0141142
0.00474768
0.0339951
0.0433506
0.0190483
0.0124798
0.0618939
0.146867
0.0560029
0.038044
0.0443005
0.0233574
0.0620814
0.043558
0.0207161
0.0443698
0.0452065
0.0257591
0.00352428
0.00307089
0.00745703
0.0111496
0.0055368
0.00987471
0.257403
0.614154
0.295526
0.0438289
0.031078
0.00469626
0.00968411
0.0102648
0.022263
0.356867
0.342562
0.201499
0.0809934
0.123877
0.060045
0.0727797
0.0923096
0.0389516
0.0379813
0.0221612
0.0226658
0.0381283
0.0760567
0.0651359
0.185471
0.226585
0.050274
0.0135946
0.00724746
0.0209946
0.162425
0.109634
0.00775899
0.00929338
0.0523081
0.0590861
0.338051
0.275149
0.303614
0.089633
0.122484
0.0154383
0.0407587
0.222516
0.110071
0.0602718
0.145607
0.323622
0.128524
0.0898366
0.0337712
0.148592
0.177208
0.0351855
0.0251523
0.0506542
0.0847926
0.139445
0.0703984
0.0425545
0.0215661
0.0349489
0.0512778
0.102441
0.0870695
0.0800915
0.159896
0.10211
0.0461232
0.0306308
0.1654
0.0856483
0.0772768
0.126958
0.288729
0.264777
0.0687699
0.0584603
0.0574004
0.0767542
0.0776702
0.135719
0.0809476
0.280254
0.347364
0.0208227
0.00143505
0.000367224
0.000856855
0
0.00480632
0.00176417
0.263601
0.272931
0.0971914
0.0167505
0.00677693
0.0356285
0.0265269
0.0485656
0.0411862
0.253848
0.432947
0.0749288
0.0210189
0.0067528
0.0042087
0.00109152
0.0028838
0.00446769
0.227571
0.499972
0.155797
0.0135568
0.00252382
0.0198422
0.0167824
0.0347834
0.0369655
0.268811
0.0581693
0.0738469
0.0235802
0.0452724
0.101517
0.107454
0.0823695
0.0514079
0.0742207
0.000588671
0.0116068
0.0107534
0.303542
0.424829
0.124365
0.0690151
0.0157357
0.00575424
0.142987
0.108886
0.032671
0.0304114
0.104889
0.0954401
0.0572426
0.0619745
0.143554
0.0041207
0.0193447
0.0179223
0.266479
0.637404
0.172859
0.0403046
0.024935
0.0236701
0
0
0
0.118686
0.332474
0.050087
0.00421083
0.000351007
0
0.000996278
0.0056122
0.0175755
0.118676
0.51161
0.045389
0
0
0
0
0
0
0.125325
0.465234
0.0751561
0.0019407
0
0
0
0
0.000736005
0.123278
0.534516
0.056341
0
0
0
0.0232254
0.0448969
0.0618466
0.144219
0.432882
0.00824048
0.00285839
0.0194417
0.0220332
0.0330307
0.0478831
0.0316669
0.0218332
0.0513497
0.0149283
0.0958037
0.302225
0.0799048
0.00653551
0.044054
0.0214867
0.132516
0.708371
0.037923
0.00442199
0.0220858
0.00998077
0.0288197
0.0771373
0.0420731
0.0375395
0.165942
0.0696177
0.0704078
0.12089
0.0709923
0.00336067
0.00382092
0.00130728
0.000153026
0.00122841
0.013361
0.17538
0.406471
0.0339922
0.00343969
0
0.00102017
0.000255043
0.00052169
0.00310312
0.293465
0.686001
0.0977159
0.00843219
0.0094905
0.0168625
0.0238663
0.0463145
0.040995
0.0615053
0.130074
0.0352054
0.0300692
0.0376419
0.0216348
0.0101429
0.0205941
0.0124477
0.0484955
0.343926
0.134373
0.00297098
0
0.000102404
2.56011e-005
0
0.0024822
0.127077
0.460132
0.0819342
0.0010118
0
0
0
0
0.0153595
0.171377
0.531356
0.0987265
0.0257175
0.0572163
0.0524815
0.00114172
0.000646035
0.006209
0.0711426
0.279503
0.116583
0.00813034
0.0630129
0.161536
0.0311571
0.0064659
0.10095
0.294271
0.391418
0.0629549
0.00195135
0.000368609
0
0
0
0.0157962
0.159566
0.384842
0.131923
0.0239143
0.00258026
0
0
0
0.0104729
0.231974
0.3001
0.167598
0.0153532
0.0400402
0.109615
0.0495205
0.0271741
0.143979
0.315128
0.358342
0.0720771
0.12731
0.0593259
0.0240458
0.0100441
0.0163045
0.0774149
0.200607
0.367077
0.299385
0.0326209
0.00490145
0
0
0.00119443
0.00640183
0.119641
0.223219
0.237349
0.0231939
0.0128263
0.00186014
0
0.00640126
0.0111427
0.0418534
0.189681
0.208059
0.0785399
0.0329483
0.0431879
0.0237437
0.0438872
0.106786
0.15701
0.433097
0.392222
0.0330155
0.00247921
0.0433817
0.0719534
0.132573
0.12598
0.198512
0.41649
0.253694
0.0855952
0.0190606
0.00874056
0
0.00553613
0.00912328
0.0222713
0.0969672
0.16392
0.198434
0.0111763
0.00753758
0.0125367
0.012854
0.0120482
0.00880438
0.00989164
0.221233
0.180963
0.00251707
0.00906704
0.033917
0.0625661
0.0405688
0.100827
0.220626
0.318386
0.346821
0.00141573
0.0010046
0.00179095
0.00182439
0.00169341
0.0165581
0.0913338
0.632713
0.313134
0.19483
0.0926409
0.104016
0.0299665
0.0119142
0
0.0104769
0.101652
0.441357
0.211226
0.0216398
0.0328436
0.0233141
0.0282454
0.0477093
0.0496555
0.173182
0.141284
0.162938
0.0896841
0.170389
0.0416969
0.049614
0.010924
0.0438566
0.0928154
0.361147
0.454333
0.120889
0.0574336
0.0275282
0.0194477
0.0199341
0.0214879
0.0417207
0.0634317
0.0384089
0.023726
0.0381399
0.0644406
0.0842985
0.047894
0.0321156
0.0529872
0.00344819
0.013768
0.0281873
0.0822799
0.532543
0.197045
0.0286851
0.0100143
0.00896066
0.0910591
0.231081
0.117895
0.0625886
0.0659892
0.0502523
0.0131748
0.00289219
0.00322478
0.0186681
0.16251
0.0997521
0.0492866
0.635169
0.228495
0.00431157
0.00041317
0.000275447
0
0.000690248
0.00355645
0.0650674
0.368451
0.0601073
0.000950876
0
0
0
0
0.00210991
0.112984
0.487165
0.0459927
0
0
0
0
0.00998172
0.0158334
0.0682172
0.487165
0.0922327
6.75494e-005
0
0
0.00467615
0
0.0147694
0.134626
0.487165
0.222372
0.00706422
0.00291839
0.00181756
0.0179898
0.0122887
0.00648702
0.104516
0.512745
0.055676
0.0056669
0.0372013
0.0140078
0.10298
0.0390342
0.0386481
0.033509
0.133051
0.0487601
0.0400922
0.076031
0.0543371
0.0876417
0.0746802
0.00982034
0.0801675
0.423317
0.289686
0.0171065
0.0385291
0.0406315
0.431172
0.326395
0.0336556
0.00979948
0.0561082
0.0317773
0.00787369
0.0486572
0.0958475
0.0536644
0.037139
0.0301936
0.0274347
0.0422549
0.0155083
0.015563
0.0200508
0.016263
0.0567517
0.220139
0.0690828
0.0145553
0.0185514
0.00413652
0.00111738
0.0248603
0.0274332
0.298744
0.392403
0.0447885
0.00756169
0.00661298
0.000653637
0.00125093
0.00829383
0.0195786
0.380302
0.677895
0.125047
0.00623963
0.00299615
0
0.00882935
0.00486267
0.0188523
0.0315192
0.245061
0.120199
0.00198979
0.000676638
0.00239236
0.0173221
0.0229728
0.0244443
0.0141147
0.247325
0.369932
0.0370351
0.0067722
0.045318
0.0842713
0.0412485
0.00960031
0.16868
0.478758
0.148948
0.000934399
9.66626e-005
0
0.00712515
0.000820538
0.0145398
0.22107
0.429786
0.376723
0.0095771
0.000967457
0.00145118
0.00101788
5.35728e-005
0.00206588
0.00909698
0.109964
0.266977
0.0609308
0.0322613
0.0858759
0.0877515
0.053584
0.0127782
0.0547679
0.145395
0.142082
0.0202912
0.0279794
0.0841364
0.0586345
0.0725774
0.0672082
0.176923
0.294529
0.36026
0.0319276
0.0169268
0.0226367
0.0031979
0.00194305
0
0.0520657
0.521735
0.482084
0.025281
0.0245272
0.0364916
0.0076134
0.00323842
0
0.0300067
0.142951
0.218103
0.0511091
0.0379096
0.0872489
0.0571297
0.0873217
0.0652726
0.0186794
0.0427611
0.235895
0.146722
0.108105
0.0826895
0.0705091
0.119995
0.0635256
0.02116
0.462019
0.497997
0.0331464
0.00864961
0.0161588
0.00584475
0.000510124
0.000145413
0.0772612
0.160463
0.446731
0.0918145
0.0154435
0.0101468
0.00352288
0.0239893
0.0539409
0.0853122
0.00263574
0.0670238
0.0741202
0.0562117
0.0222612
0.047905
0.147889
0.236713
0.164831
0
0
0
0
0
0.0149236
0.0914403
0.535359
0.167386
0.0142717
0.13871
0.0471297
0.00803025
0.00200916
0.00389463
0.0806821
0.258907
0.207495
0.00301159
0.00511941
0
0
0
0.00213195
0.108476
0.521917
0.208475
0.147881
0.0261661
0.0249682
0.00716842
0.0162181
0.0089097
0.0542361
0.131164
0.262492
0.431739
0.149559
0.0136964
0.0104799
0.00177138
0
0.00546712
0.0309013
0.462677
0.1605
0.011098
0
0
0.000545492
0.00127281
0.0448753
0.201903
0.371761
0.292088
0.110786
0.0153506
0.0133273
0
0
0.0181656
0.172793
0.0638224
0.200616
0.137369
0.0243799
0.0561958
0.01278
0
0
0.00278933
0.00995837
0.116942
0.0771896
0.0352561
0.60971
0.110211
0
0
0.000142119
0.0468431
0.0654977
0.0820029
0.0384264
0.0812786
0.00974203
0
0.0150737
0.0738495
0.00471071
0.0145308
0.0330563
0.0995075
0.638017
0.135947
0.0170055
0.00841458
0.0321031
0
0.00938042
0.00907196
0.0441363
0.516002
0.0940789
0.0215555
0.00228877
0.000559191
0.0383427
0.0173937
0.00922323
0.0603716
0.357225
0.280426
0.101319
0.0166776
0.0472666
0.00299155
0.00106077
0.00153214
0.0372908
0.495297
0.144286
0.0833688
0.0477906
0.0120835
0.138292
0.0341844
0.00322106
0.0097634
0.183968
0.133422
0.203257
0.142715
0.173767
0.122789
0.144421
0.0515407
0.0115121
0.109337
0.191925
0.046853
0.0177716
0.067719
0.329803
0.365247
0.109738
0.000264931
0.00544025
0.0187807
0.00184661
0.00780342
0.0566113
0.285954
0.18475
0.10393
0.000680843
0.0304977
0.0609131
0.066211
0.0494857
0.19494
0.456992
0.380944
0.207701
0
0
0.00573631
0.000446885
0.00107365
0.103789
0.219877
0.318726
0.0718214
0
0
0
0
0.000245386
0.0258927
0.26197
0.365424
0.124776
0.0131842
0
0
0.0195162
0.00106223
0.0209652
0.43502
0.183729
0.0685161
0
0
0
0
0
0.0583073
0.520196
0.219887
0.126458
0.0219737
0
0
0.0117097
0.000616304
0.0425283
0.222122
0.286783
0.170284
0.0320411
0
0
0.0275244
0.00144866
0.0209965
0.412779
0.355275
0.200573
0.0157706
0
0
0.00393206
0.000206951
0.00731076
0.284914
0.256318
0.237985
0.0602438
0
0
0.0165146
0.000869195
0.0295417
0.316687
0.251851
0.222847
0.0369518
0
0
0.00235923
0.00255928
0.0695588
0.326507
0.356267
0.123282
0.00502143
0.00210425
0.00172166
0
0.000663831
0.00464489
0.174042
0.526631
0.279068
0.00648918
0.00350708
0.00286943
0
0.00464681
0.0327913
0.292253
0.191394
0.0480009
0.00216036
0
0
0
0.0140237
0.0823815
0.283319
0.177872
0.0493367
0
0
0
0
0.0406253
0.204009
0.15491
0.381245
0.289693
0.0016358
0.000702747
0.000574974
0
0.00253106
0.0754229
0.24013
0.106186
0.179126
0.0034259
0
0
0
0.00209751
0.154376
0.306466
0.0744772
0.0431247
0
0
0
0
0.0184912
0.313887
0.394913
0.00997832
0.00971191
0
0
0
0
0
0.397419
0.169535
0.00719722
0.0327316
0.00150196
0
0
0
0.019195
0.211881
0.117673
0.00275764
0.00468771
0
0
0
0
0.101109
0.336938
0.282647
0.00245089
0.00094723
0
0
0
0
0.00721917
0.37868
0.200893
0.00334341
0.000669673
0
0
0
0
0.0606244
0.634533
0.493386
0.206538
0.0411054
0.0124858
0.00296333
0.00972841
0.00365359
0.0256344
0.173492
0.398495
0.141096
0.0247252
0.0110908
0.00547153
0.00531737
0.0018097
0.112375
0.426626
0.0730344
0.108458
0.079474
0.0435696
0.0547238
0.0856546
0.0255751
0.0254586
0.0286456
0.0619651
0.0550052
0.0144835
0.00669511
0.0772511
0.0592851
0.0126679
0.119793
0.254573
0.0460137
0.0103083
0.0100789
0.0267616
0.0652543
0.0136902
0.000805729
0.070287
0.235809
0.0124529
0.000292689
0.00170218
0.080776
0.596499
0.302464
0.167986
0.132333
0.131676
0.0333274
0.0235051
0.00965075
0.000506538
0.037412
0.0160115
0.0056401
0.090695
0.167145
0.050449
0.177793
0.0569507
0.00354576
0.12598
0.158458
0.237625
0.337739
0.119827
0.0306687
0.00363899
0
0.014291
0.196561
0.152648
0.132615
0.146523
0.0620004
0.338152
0.0608428
0.000546423
0.000931016
0.0322067
0.0426409
0.0900974
0.16869
0.172322
0.13182
0.144984
0.0209163
0.000649631
0.0270021
0.0566714
0.12432
0.210214
0.104003
0.581464
0.219755
0.00254918
0
0.000975246
0.00824316
0.0309204
0.172074
0.332121
0.335063
0.150731
0.0508155
0
0
0.00153568
0.0108722
0.031348
0.088283
0.350679
0.364978
0.104474
0
0
0
0
0.00287577
0.0370293
0.390799
0.154135
0.0150989
0
0
0
0.00431342
0.168538
0.2369
0.360909
0.270755
0.0355495
0
0
0
0.0579128
0.212597
0.0957116
0.478197
0.208427
0.0258155
0
0.000194845
0.000292267
0
0.000143898
0.0345663
0.641604
0.10707
0.0197456
0.00403016
0.00136392
0.00267196
0.00116273
0.00023983
0.0850749
0.298888
0.139679
0.0097073
0
0.00194742
0.00744
0.0616923
0.0773221
0.058824
0.300968
0.0312838
0.000750592
0.000750592
0.0169297
0.0365746
0.0348476
0.016578
0.0905533
0.561976
0.183044
0.0804125
0.018274
0.000931713
0.00256015
0.00215908
6.02703e-005
0.120793
0.364686
0.119781
0.0777546
0.0151335
0
0.000166083
0.000308439
0.00682652
0.274765
0.349732
0.0498526
0.00378868
0.00378868
0.0154358
0.0274452
0.0232671
0.00421922
0.106888
0.248676
0.0439261
0.0062343
0.00444224
0.0008748
0.00453628
0.0260911
0.048948
0.288267
0.228866
0.0705634
0.0145798
0.00542811
0.000891526
0
0
0.0262546
0.331783
0.336023
0.0921917
0.000822968
0.00831791
0.00624068
0
0
0.0504873
0.459888
0.149423
0.0816449
0.0146907
0.0337379
0.00624068
0.00421211
0.0219805
0.0464918
0.265825
0.336835
0.242157
0.0228169
0.0626422
0.0436848
0.00060173
0.00271445
0.0275145
0.280272
0.208814
0.0228479
0.00129111
0.0014236
0.00187011
0
0
0.0390189
0.342991
0.25265
0.0170489
0.00880858
0
0
0
0
0.0318489
0.381371
0.212362
0.228691
0.049766
0.0099652
0.0130908
0
0
0.0532437
0.232244
0.270846
0.442095
0.113003
0
0
0
0
0.0530815
0.266291
0.264687
0.0246192
0.00385913
0
0
0
0.0201224
0.00691878
0.228628
0.209503
0.0249126
0.00700379
0.0386976
0.00343077
0
0.0605163
0.0303848
0.315937
0.432959
0.323055
0.0438853
0
0
0.00203314
0.036587
0.0136706
0.169662
0.354996
0.178395
0.01903
0.0644959
0.0089886
0.039495
0.161061
0.134614
0.255282
0.00344212
0.0106194
0.071155
0.116813
0.11126
0.0790982
0.0274373
0.0153125
0.0170132
0.0134777
0.018617
0.0738903
0.112046
0.208231
0.0816084
0.0363119
0.0312751
0.0647535
0.0530632
0.0112659
0.0658175
0.141849
0.0990022
0.0460026
0.0363384
0.0728773
0.209213
0.149261
0.0794541
0.473732
0.453334
0.201244
0.0304704
0.0471828
0.0199757
0.135674
0.0167142
0.0388614
0.0625172
0.0380371
0.0224304
0.00770902
0.00763996
0.0171495
0.0155028
0.0328547
0.264234
0.256377
0.0334219
0.00366975
0.00671503
0.029254
0.0827564
0.0166729
0.01291
0.0374563
0.308396
0.227702
0.0263604
0.00586463
0.0136757
0.00112995
0.00275208
0.0301255
0.232265
0.692771
0.284703
0.00765556
0.000824816
0.0237553
0.00705463
0.000690464
0.130722
0.337903
0.178062
0.00992778
0.000547334
0.0037361
0.0238752
0.0699146
0.0370623
0.384852
0.298904
0.0512762
0.0106705
0.00173566
0.0130033
0.0170252
0.126956
0.293303
0.0981532
0.243298
0.368745
0.110523
0.0151982
0.0522556
0.0288499
0.0382532
0.0441726
0.145722
0.183902
0.106882
0.0292956
0.0959027
0.235786
0.0978267
0.104106
0.172581
0.139878
0.0580151
0.00505078
0.00123628
0.00411481
0.0082583
0.0603058
0.289932
0.271231
0.0925081
0.0354591
0.00459139
0
0.00246889
0.0118863
0.327255
0.436095
0.0992761
0.0286445
0.0447651
0.0427261
0.00836438
0.0711982
0.12635
0.120939
0.146723
0.108436
0
0.0320969
0.0648326
0.013217
0.0363255
0.0871485
0.499961
0.290892
0.0545222
0.0591175
0.0132581
0.000710367
0
0.00296629
0.0216971
0.286904
0.198921
0.0311559
0.0402336
0.00690795
0.00246878
0.00246878
0.0316107
0.0577931
0.110217
0.0775948
0.0265816
0
0.00496593
0.0100307
0.00472416
0.0115884
0.0458057
0.632498
0.297782
0.0245187
0.00146528
0.000533356
0.00148127
0.00192393
0.0239807
0.134482
0.456822
0.220059
0.0075441
0.177157
0.04503
0.0267003
0.0283469
0.0779579
0.0705836
0.0963868
0.108651
0.0446934
0.16879
0.0405918
0.0341954
0.0428328
0.0559671
0.060035
0.171798
0.195458
0.131575
0.0163321
0.00243544
0.0164294
0.0432935
0.0661893
0.242142
0.428507
0.29854
0.00308795
0.0962633
0.0167893
0.032431
0.220213
0.157084
0.0999642
0.256838
0.240157
0.0128717
0.0648813
0.0661724
0.0454149
0.0486471
0.0327278
0.0391739
0.10455
0.0654193
0.0500126
0.209477
0.294252
0.124362
0.0712526
0.0407406
0.00981394
0.0372918
0.0394491
0.106738
0.0625608
0.0328084
0.0597829
0.164937
0.276647
0.0643831
0.193042
0.0666274
0.0137212
0.14036
0.377617
0.257206
0.307543
0.367666
0.0387213
0.101367
0.0424362
0.0603855
0.113245
0.311455
0.18509
0.0399003
0.00703417
0.000435577
0
0.0137186
0.0465618
0.152392
0.573858
0.232686
0.0307673
0.00700009
0.012128
0
0.0129001
0.033958
0.0855243
0.293693
0.237565
0.137812
0.0381702
0.00304904
0.00097963
0.00938591
0.0659052
0.0900117
0.249714
0.212245
0.0977163
0.0184201
0.0202133
0.00685741
0.0750223
0.116313
0.210049
0.343457
0.0717975
0.00816815
0.00723585
0.0160753
0.0112224
0.0110635
0.0760273
0.168604
0.215441
0.0675811
0.048928
0.0100289
0.0955215
0.089749
0.101178
0.168117
0.10322
0.293486
0.0845268
0.0814837
0.0290739
0.0216352
0.00668929
0.0469115
0.0545418
0.183973
0.612716
0.164868
0.109543
0.0174992
0.0590258
0.035617
0.0179168
0.0481987