0.0489671
0.0751969
0.180342
0.0452341
0.0485788
0.0514831
0.0469731
0.0866755
0.052664
0.131176
0.172082
0.170917
0.049966
0.0367406
0.0728834
0.0518849
0.0533442
0.0646447
0.0747122
0.134522
0.288989
0.0688271
0.053345
0.024739
0.0402624
0.0425855
0.0642431
0.102382
0.277158
0.330179
0.462
0.366348
0.0663187
0.0466084
0.0253769
0.0802921
0.121658
0.147202
0.0207593
0.0154885
0.0221247
0.029796
0.0124671
0.00459506
0.0312369
0.174341
0.135676
0.0311315
0.0106438
0.0235251
0.0261068
0.0217081
0.0465057
0.144795
0.171681
0.318046
0.224486
0.256434
0.146722
0.0274825
0.00669742
0.0140121
0.048144
0.307963
0.254637
0.219228
0.115636
0.0272289
0.0799579
0.0423987
0.227601
0.49239
0.071103
0.0418749
0.0136733
0.00506097
0.0198065
0.0420821
0.0414828
0.0849516
0.125901
0.0801051
0.0910629
0.027299
0.00845775
0.0136619
0.0249457
0.0486955
0.0755242
0.0756986
0.0809023
0.0399203
0.0326599
0.0124936
0.00958544
0.230623
0.300265
0.339974
0.391717
0.0444987
0.0900175
0.0798587
0.021384
0.00907084
0.148268
0.417148
0.432296
0.119307
0.151493
0.137079
0.0414302
0.0608692
0.0252652
0.0171284
0.0553244
0.071781
0.102968
0.108863
0.0960438
0.0443939
0.0919468
0.0764358
0.0612426
0.0851278
0.0770857
0.113004
0.165613
0.152649
0.10612
0.117154
0.0511089
0.0838492
0.2324
0.480743
0.138157
0.180526
0.172881
0.0728397
0.156133
0.108044
0.132451
0.245799
0.227211
0.213013
0.0688986
0.133009
0.0627014
0.0280017
0.12051
0.0862583
0.0499323
0.0518402
0.0638022
0.0891905
0.14575
0.0393484
0.0140296
0.0863274
0.139048
0.117589
0.170942
0.0911309
0.0965538
0.205407
0.0944641
0.0888039
0.0550685
0.0848983
0.250942
0.161159
0.216731
0.296999
0.299124
0.0505572
0.0367911
0.0100629
0.13502
0.269689
0.265648
0.259588
0.136598
0.0673834
0.0269471
0.0323143
0.02653
0.103892
0.137037
0.133228
0.0602295
0.168702
0.169466
0.0553786
0.0193886
0.0176221
0.0422021
0.129549
0.0356273
0.04763
0.302708
0.118701
0.011063
0.00375362
0.00978083
0.194542
0.243904
0.281815
0.155141
0.293119
0.267227
0.0697852
0.0147889
0.00580135
0.0694102
0.0797318
0.226946
0.207308
0.135198
0.151506
0.0576285
0.000206024
0.0213567
0.026214
0.0757967
0.0488208
0.0559381
0.119942
0.115825
0.134302
0.00700286
0.0971661
0.0732527
0.0756261
0.159865
0.165571
0.267453
0.349581
0.126469
0.0442376
0.016105
0.0162613
0.0265868
0.0621812
0.117135
0.247461
0.156112
0.126934
0.107648
0.315476
0.223005
0.0727247
0.0794306
0.172768
0.0364963
0.0397137
0.062008
0.00530271
0.089718
0.0917733
0.175502
0.10343
0.09577
0.155315
0.125167
0.112851
0.0798461
0.0468174
0.106899
0.238543
0.0602493
0.0544875
0.0480924
0.0711012
0.0726045
0.117718
0.292846
0.192778
0.0683219
0.033988
0.0812337
0.111083
0.453742
0.267688
0.164242
0.150614
0.0666499
0.0733042
0.0332303
0.145109
0.0806855
0.127305
0.223864
0.146632
0.0925907
0.0931726
0.0540299
0.0203149
0.0169952
0.0210223
0.178109
0.380197
0.097434
0.139438
0.140795
0.0843798
0.0852891
0.00167431
0.118107
0.293096
0.277135
0.0635194
0.0312988
0.038185
0.028479
0.0616276
0.133409
0.171345
0.152021
0.174699
0.0441731
0.0280059
0.142453
0.142026
0.151473
0.0651201
0.01662
0.0264959
0.0446601
0.0290294
0.0553737
0.0243908
0.0257212
0.0131672
0.0234526
0.015286
0.036116
0.0774126
0.309254
0.333229
0.0195765
0.0152481
0.00144358
0.0323908
0.0199005
0.00209867
0.0195325
0.0748077
0.135414
0.0743551
0.0550537
0.0316241
0.0536229
0.0138328
0.000566946
0.027103
0.606071
0.525904
0.0356064
0.0300873
0.00210733
0.0309628
0.0219007
0.053139
0.113028
0.259722
0.181625
0.00377515
0.00132606
0.00230558
0.0144012
0.0719243
0.0667318
0.136451
0.190249
0.0717879
0.0167525
0.0373018
0.0998261
0.164898
0.00298691
0.00312683
0.0294493
0.43278
0.438293
0.00268849
0.00186066
0.00010032
0.00245849
0.0845363
0.0557582
0.188368
0.379698
0.377448
0.000470813
0.0274792
0.0511958
0.0276867
0.0308773
0.0170588
0.022143
0.0202204
0.00632948
0.0429202
0.206367
0.146371
0.1138
0.00888362
0.00970307
0.0135627
0.00347947
0.00776682
0.047366
0.328413
0.320686
0.0451955
0.17674
0.0607633
0.149983
0.0952366
0.0534583
0.00122285
0.151133
0.228593
0.0398433
0.102022
0.021659
0.0278524
0.00737676
0.0121662
0.029776
0.369208
0.589359
0.0556486
0.00601781
0.010571
0.00775069
0.00940331
0.014408
0.0312227
0.150012
0.220535
0.0167638
0.0174726
0.0434218
0.00780959
0.0107436
0.012389
0.0158795
0.137694
0.158609
0.0302253
7.41157e-005
0.00200957
0.00035463
0.000364691
0.0128496
0.032404
0.335984
0.476161
0.0324446
0.00835477
0.0254221
0.00282246
0.000607819
0.00313234
0.0146186
0.441354
0.533176
0.0396518
0.0322353
0.0733043
0.0157066
0.0150046
0.00489765
0.00966014
0.1195
0.142329
0.0928196
0.102643
0.0621446
0.00845663
0.0136837
0.00324943
0.0237448
0.0535179
0.0769131
0.13979
0.0259041
0.053776
0.00269357
0.00631124
0.00319658
0.0541148
0.44074
0.662287
0.0684741
0.0436271
0.0502924
0.0134885
0.0524016
0.0195581
0.076313
0.217533
0.313743
0.0798108
0.207678
0.0724721
0.0045648
0.00756126
0.0141253
0.082797
0.078827
0.12011
0.170436
0.270172
0.0849219
0.0244907
0.00969839
0.00829896
0.0396852
0.0680856
0.177241
0.161313
0.159368
0.146146
0.0385984
0.121733
0.0586211
0.0556897
0.120428
0.278158
0.163541
0.325488
0.132831
0.0186226
0.0345616
0.0237133
0.0199175
0.0834961
0.344047
0.335698
0.261224
0.112056
0.056956
0.0319163
0.0110927
0.00412038
0.0109051
0.0790514
0.0894033
0.243698
0.122261
0.0857466
0.0673237
0.181114
0.128314
0.0123611
0.0317711
0.0455654
0.340698
0.155929
0.0121541
0.00667645
0.00158467
0
0.0202141
0.17646
0.244487
0.404473
0.352311
0.0344128
0.018515
0.0608374
0.0431871
0.0251188
0.100634
0.119665
0.0730885
0.0734859
0.0418586
0.136196
0.276606
0.202689
0.0130713
0.00838625
0.0127798
0.0322242
0.210845
0.0956967
0.241277
0.20296
0.125682
0.073469
0.0668672
0.0913718
0.177214
0.180034
0.0206899
0.0650074
0.215145
0.138494
0.0330204
0.0804817
0.0590416
0.0649306
0.0617127
0.0249956
0.124542
0.22561
0.212287
0.190498
0.34071
0.13664
0.0794833
0.17348
0.0784644
0.062003
0.030372
0.0299455
0.0536473
0.0997287
0.135051
0.181871
0.17595
0.0470582
0.0148328
0.0328399
0.0207602
0.0623471
0.157119
0.0928819
0.0621761
0.0685226
0.0394966
0.0353214
0.0360283
0.159793
0.225323
0.376773
0.218138
0.161841
0.12551
0.0689981
0.0280396
0.0652386
0.0944999
0.19767
0.362998
0.213043
0.0181633
0
0.00286893
0.0480779
0.0690862
0.050017
0.0558999
0.0953763
0.0821136
0.010898
0
0.00271292
0.36131
0.327368
0.0321638
0.0361176
0.00742871
0.0242153
0.00707326
0
0.0113128
0.221654
0.177229
0.0781047
0.0823407
0.147634
0.0687235
0.00424396
0
0.0104301
0.537344
0.497013
0.0417153
0.0313417
0.0299953
0.0248391
0
2.37223e-005
0.00117714
0.209388
0.273054
0.00165784
0.00170842
0.000180302
0
0.0292803
0.015066
0.0926332
0.272922
0.353356
0
0.0013225
0.00201637
0
0
0
0.000386258
0.285992
0.3542
0.0016397
0.000973632
0.000983372
0.000471257
0.00301858
0.00309673
0.0231886
0.433781
0.478839
0
0
0
0
0.0931207
0.0354118
0.131384
0.190637
0.119741
0
0.0320856
0.147941
0.0116263
0.0558724
0.0179993
0.0372139
0.0305761
0.0151937
0.00311033
0.22326
0.507862
0.0363432
0.00989183
0.00984858
0.0436332
0.327969
0.389251
0.000124656
0.0136655
0.071776
0.0139009
0.0078025
0.00590915
0.0190003
0.0607193
0.071469
0.00020776
0.135701
0.487741
0.0396948
0.000597963
0
0
0
0.00113403
0.00289677
0.206494
0.347976
0.0278589
0.00492634
0.000462551
0
0
0.000162004
0.0105631
0.25201
0.375703
0.0266353
0.00163583
0
0.000199436
0.000163175
0.000750339
2.39203e-005
0.160037
0.486312
0.0220264
0.00697623
0
0
0
0.000107191
0.00586034
0.286529
0.486312
0.025655
0.0031262
0.00151337
0
0.000324696
0.000371203
0.0358697
0.19722
0.287128
0.0193241
0.00196727
0.0040465
0.00192568
0.0129927
0.00595299
0.0429208
0.22758
0.200946
0.0247985
0.00508971
0
0
0
0
0.0195688
0.2677
0.509192
0.0387346
0.00333453
0
0
0.00144256
0.000762045
0.0384185
0.490452
0.393209
0.0486416
0.00662537
0.0115712
0.00746089
0.0254726
0.0128628
0.013123
0.188213
0.142617
0.0254708
0.0244108
0.0103733
0.00795279
0.0106216
0.010725
0.00365323
0.0754756
0.101145
0.0702441
0.000862165
0
0.00271173
0.00448678
0.00260936
0.0730365
0.54381
0.425614
0.0328135
0.0252892
0
0.00451956
0.00373966
0.0111766
0.0464849
0.319516
0.504284
0.108966
0.10226
0.0543822
0.00492395
0.0026092
0.0255706
0.010048
0.0500129
0.118139
0.14575
0.141693
0.124028
0.0118772
0.00897153
0.0176685
0.0104547
0.0494163
0.0758618
0.0613141
0.146474
0.00895342
0.0153177
0.00415149
0.0465377
0.0520273
0.322111
0.662268
0.222862
0.141119
0.0656083
0.0986845
0.0495633
0.0324012
0.0373192
0.195085
0.160992
0.11329
0.133608
0.141262
0.0180757
0.0346819
0.0557609
0.0381507
0.0474531
0.102144
0.0863633
0.0327796
0.135608
0.0443786
0.0242939
0.0656016
0.158792
0.146053
0.316081
0.143902
0.101962
0.141254
0.156359
0.14028
0.0465297
0.0282519
0.142531
0.0829237
0.141241
0.0646481
0.391873
0.289286
0.112638
0.127708
0.118041
0.0915685
0.118959
0.148916
0.0137035
0.0425273
0.0184893
0.00213785
0.00479818
0.0881063
0.167219
0.240098
0.109646
0.0314625
0.0152847
0.0213114
0.00702232
0.0154489
0.0536132
0.194384
0.459082
0.16935
0.0534288
0.151517
0.0784607
0.0178285
0.077262
0.0823526
0.0902495
0.153348
0.0929509
0.0445961
0.0540938
0.0906325
0.0113536
0.0423533
0.0796436
0.140944
0.495156
0.226651
0
0
0.00594221
0.137915
0.105657
0.0680586
0.165329
0.143694
0.0672297
0
0
0.00698986
0.346123
0.311569
0.0322071
0.0412329
0.0659564
0.0435211
0.00518739
0.0231249
0.0865678
0.202046
0.179397
0.110308
0.34146
0.154685
0.0717647
0
0.00698144
0.0770712
0.396692
0.451676
0.0649689
0.0721498
0.0501869
0.038174
0
0
0.000372626
0.213373
0.218739
0.00132846
0.0017834
0.00229506
0.0012358
0
0
0
0.327792
0.467813
0.000279787
0
0
0
0
0.000486179
0.00586128
0.220316
0.308842
0.00562518
0.00297233
0.00137704
0.00074148
0
0
0
0.413776
0.467813
0.0046568
0
0
0
0.000450367
0.000363559
0.00176001
0.314831
0.529237
0.00331845
0.00404413
0.00988286
0.00629213
0.00315257
0.000605931
0.00293335
0.0466585
0.0974876
0.00807791
0.0200474
0.151972
0.0271308
6.43382e-005
0.00254491
0.00131985
0.346013
0.623214
0.00969432
0.00577431
0.00442773
0.000869024
0.000450367
0.00424152
0.00219975
0.0329254
0.0894689
0.0204256
0.0297748
0.0227536
0.0078951
0.00156156
9.11755e-005
0.000441387
0.000329164
0.00411444
0.0032157
0.0723199
0.370266
0.0192357
0.00190455
0
0
0
0.000587778
0.00028269
0.329699
0.741591
0.0200846
0.000484633
0.00130793
0.00086712
0.000227335
0.00246867
0.012103
0.02735
0.0603267
0.0159147
0.00382934
0.0012005
0.00331972
0.00160076
0.000606092
0.00425966
0.0666003
0.338164
0.0422832
0.00210984
0
0
0
0
0
0.172392
0.439777
0.0171088
0.00290865
0
0
0
0
0.0129733
0.276776
0.493779
0.0251309
0.00155047
9.79551e-005
0.000835357
0.00072067
0.000203078
0.0018277
0.0593847
0.334656
0.0214812
0.00054388
0
0.000154755
0.000287403
0.000137476
0.00305785
0.210864
0.495427
0.0225642
0.000444057
0
0
0
6.61057e-005
0.0349042
0.192574
0.297479
0.0165003
0.00779678
0
0
0
0.000880416
0.0220343
0.220652
0.336327
0.0357686
0.000436757
0
0
0
1.5891e-005
0.00504121
0.238993
0.485383
0.0163624
0.00343648
0
0
0
0
0.00293892
0.363224
0.485383
0.0282108
0.0220242
0.00086102
0.00136321
0.000229465
0.00165281
0.00392751
0.196646
0.280078
0.0304416
0.0233847
0.0128324
0.0141591
0.0126157
0.00270758
0.00253865
0.135471
0.169473
0.0487239
0.00399002
0.000118155
6.36219e-005
0
0.00289676
0
0.355001
0.527682
0.0208878
0.0146165
0.00512698
0.00476826
0.00537554
0.00527267
0.00114475
0.262254
0.544817
0.0795241
0.0311273
0.0565386
0.057861
0.049975
0.010834
0.00108985
0.0572836
0.0934022
0.0873762
0.031464
0.097729
0.0841599
0.0520786
0.0511412
0.00899254
0.00798431
0.0233071
0.0381719
0.0459822
0.0466879
0.0405901
0.020514
0.00359631
0.0353079
0.296519
0.68629
0.260602
0.0369545
0.0578851
0.0790579
0.0414992
0.0562497
0.0746515
0.264133
0.305793
0.158674
0.0648863
0.124408
0.110316
0.140303
0.192668
0.0701819
0.0195642
0.0859356
0.0697187
0.0891286
0.107129
0.12024
0.0843991
0.072848
0.0919138
0.0395598
0.199762
0.242303
0.0478474
0.0428627
0.104798
0.182285
0.209669
0.157616
0.280431
0.335939
0.0784581
0.143577
0.115953
0.0639569
0.106611
0.0864425
0.18581
0.0899365
0.132277
0.186427
0.0317169
0.0940281
0.242458
0.160005
0.123728
0.0409899
0.0704237
0.0148501
0.00562247
0
0.0285621
0.150865
0.305812
0.297318
0.0361122
0.0105716
0.00192082
0.00208138
0.0420132
0.168558
0.333132
0.127463
0.112037
0.0271146
0
0
0.005116
0
0.0373069
0.120178
0.442892
0.482922
0.0477648
0
0
0
0
0.0012713
0.0119774
0.160731
0.276609
0.00526431
0.00038696
0
0
0
0
0
0.269878
0.472331
0.00402345
0
0
0
0
0.00076278
0.00633244
0.24147
0.428649
0.00547647
0
0
0
0
0
0
0.299402
0.472331
0.000711531
0
0
0
0.000184421
0.00183772
0.000471442
0.244832
0.550188
0.00660248
0.00385668
0.00668246
0.00108648
0.000518978
0.00306286
0.000907441
0.0201749
0.0647206
0.00853525
0.022588
0.0212161
0.0143487
0.000781672
0.00216317
0
0.23817
0.702123
0.00394252
0.00543899
0.00762632
0.000885245
0.00213454
0.00755022
0.00144395
0.0183409
0.0803266
0.00791847
0.0140407
0.0281781
0.0213091
0.0400496
0.0341118
0.0118752
0.0338481
0.00656673
0.0438546
0.127819
0.145458
0.159148
0.177122
0.0679378
0.0598887
0.0411522
0.020482
0.0317786
0.0292959
0.329256
0.168098
0.0814831
0.106337
0.0210514
0.122776
0.0977251
0.0403142
0.0707779
0.118446
0.202419
0.26043
0.203625
0.0884763
0.144172
0.144254
0.0308834
0.0260645
0.0332755
0.0766541
0.0157397
0.00285169
0.0106599
0.0060079
0.00505076
0.0103921
0.015515
0.189665
0.0343655
0.00196926
6.06019e-005
0.00453516
0.00309019
0.00306346
0.0109011
0.196757
0.883747
0.0379682
0.0212308
0.0106028
0.019143
0.0115084
0.028776
0.00581476
0.00297013
0.011167
0.0138776
0.0434516
0.00803587
0.00814072
0.00740018
0.0251499
0.00626553
0.0367224
0.146032
0.0284263
0.00034766
0
0
0
0.000126604
0.000678956
0.132897
0.455824
0.00551419
0.00130848
0
0
0
0
0.000690164
0.307404
0.570679
0.0121828
0.0275665
0.0406673
0.00487052
0.000257363
0.00154089
0.00149475
0.0309769
0.142624
0.00470321
0.0584936
0.234876
0.0263051
0
0
0.00483115
0.199368
0.418476
0.00406737
0.000430239
0
0
0
0.0114783
0.01214
0.262796
0.450414
0.0108045
0.00223916
0.00322904
0.000309126
0
0.0265473
0.0384164
0.233818
0.445729
0.0318057
0.036776
0.211532
0.0843213
0.00774683
0.032909
0.0746623
0.30365
0.258707
0.00225879
0.0310132
0.142108
0.121839
0.0542278
0.106765
0.191968
0.264462
0.20958
0.00440748
0.00477501
0.0062826
0.00218451
0
0.00746356
0.0435094
0.231543
0.373239
0.0530682
0.00360999
0.00369998
0.00843792
0.0017915
0.006891
0.0654922
0.309339
0.324345
0.0531856
0.0285967
0.0996368
0.101598
0.0316635
0.0386083
0.0959281
0.214849
0.298648
0.0110955
0.00962295
0.0675122
0.199296
0.0563698
0
0.0781993
0.449773
0.329904
0.039858
0.0180208
0.00136352
0.00709433
0.00518826
0.0142742
0.0612059
0.207499
0.205354
0.0568074
0.104393
0.00968791
0.0158994
0.00454904
0.0130757
0.0467619
0.0505551
0.045918
0.150756
0.106377
0.0506087
0.0839404
0.0548882
0.0015145
0.103618
0.377117
0.251058
0.151649
0.474213
0.0283682
0.0104034
0.00629601
0.00334204
0.0518947
0.0735705
0.104865
0.525784
0.0134598
0.0723184
0.0958572
0.0833131
0.122109
0.0460109
0.000339487
0.0051601
0.0232648
0.000575893
0.00956487
0.0153205
0.297717
0.470908
0.0936268
0
0.000307962
0.000575893
0.0169645
0.022051
0.0171868
0.137684
0.146087
0.0638246
0.00640205
0.0223967
0.0281862
0.00161775
0.0058202
0.0145474
0.431209
0.574138
0.125746
0
0.00215573
0.00161775
0
0
0
0.159493
0.351107
0.0102958
0
0
0
0
0
0
0.201639
0.483162
0.000788752
0.000432728
0
0
0
0
0.00217976
0.193252
0.45273
0.0143299
0
0
0
0
6.80016e-005
0.000158671
0.231021
0.483162
0.00166383
0.00146039
0
0
0.00169535
0.00440421
0.0033094
0.176552
0.592519
0.00746148
0.00548909
0.00585958
0.00012933
0.00623764
0.0212732
0.015662
0.0128679
0.0540768
0.00768192
0.0064051
0.0214131
0.00906706
0.00290468
0.00507814
0.00668528
0.173244
0.701583
0.0170206
0.0139163
0.00188878
0
0.0315455
0.0432128
0.0305866
0.0147318
0.0454068
0.0152854
0.0167437
0.0125207
0.00113312
0.0122986
0.0184954
0.0124932
0.0188582
0.01216
0.00410367
0.00525884
0.0162742
0.0191436
0.0322256
0.030108
0.00635106
0.0199483
0.0223464
0.0138858
0.00527875
0.00912312
0.0195418
0.129551
0.16791
0.0305388
0.0190358
0.00290772
0.00243551
0.00918932
0.0227362
0.00861552
0.458061
0.79197
0.018335
0.00509336
0.00665954
0.0111899
0.00835908
0.0200762
0.0189895
0.0286019
0.0307843
0.00226344
0.00327727
0.00941534
0.00293659
0.000437138
0.00229867
0.00846983
0.0932825
0.2042
0.00912002
0.00220375
0.00747289
0.000175488
0.0018052
0.0040112
0.0169411
0.207061
0.550522
0.0158183
0.000461055
0.00270502
0.00307227
0.000519274
0.00256268
0.00924701
0.258493
0.676081
0.101827
0.000310546
0.00106285
0.00029248
0
0.00117545
0.0120115
0.0937445
0.229777
0.0108732
0.000195411
0.000908877
0.000332205
0.00257578
0.00624783
0.0053391
0.112105
0.520635
0.0437874
0
0
0.00134945
0.0261429
0.0254896
0.00167554
0.151722
0.520635
0.0618738
0.00115685
0.000110275
0
0
5.75734e-005
0.00295088
0.162878
0.520635
0.0660911
0.00790252
0.00161994
0.0024299
0
0
0.00163425
0.0658943
0.439775
0.107483
0.00700327
0.00946544
0.0241526
0.0525519
0.0177381
0.00256913
0.0664866
0.335473
0.175481
0.0490229
0.0330418
0.0665272
0.0392096
0.0178072
0.00145345
0.10242
0.498123
0.119943
0.00827295
0.00477152
0.00715727
0
0
0.00403737
0.109843
0.498123
0.215813
0.0138738
0.00286291
0.00610549
0.000452781
0
0.00242242
0.0479744
0.267954
0.163242
0.0276828
0.0120064
0.0332748
0.0311196
0.0439002
0.000491753
0.0616278
0.272498
0.255518
0.0492831
0
0.0220913
0.0927732
0.0463239
0.0114261
0.103035
0.554601
0.123422
0.00510069
0
0.0022322
0.00055805
0
0
0.165986
0.554601
0.116735
0.00808679
0.000261589
0.00186105
0.000465261
0.00574728
0.0133612
0.149255
0.207029
0.104084
0.0492311
0
0.0529532
0.0865099
0.0614431
0.125337
0.32801
0.0497611
0.00311757
0.00474994
0
0.0288183
0.0169207
0.0778638
0.455109
0.213563
0.318915
0.0491482
0.0116336
0.00115015
0.00678056
0.00169514
0.0350793
0.154139
0.27606
0.057129
0.00776768
0.00343893
0.000690091
0.00406834
0.00670778
0.0547411
0.483963
0.0495243
0.0509421
0.0240257
0.110736
0.119745
0.0149316
0.00501637
0.0106502
0.0262467
0.0058173
0.0225589
0.0226722
0.386198
0.416442
0.0306098
0
0.000811905
0.00196396
0.13285
0.117681
0.0507981
0.0870099
0.15964
0.0124836
0.0352318
0.0161095
0.0229851
0.0133444
0.040425
0.0293966
0.283961
0.65118
0.037603
0.00361435
0.000903587
0.00109858
0
0
0.00243707
0.194034
0.339173
0.0058439
0
0
0
0.00508949
0.00264683
0.000482225
0.1817
0.490564
0.0126372
0.000473212
0
0.00685465
0.00266377
0
0.000348153
0.185844
0.436778
0.0273395
0.0125328
0
0.00217945
0.0765336
0.115114
0.000289335
0.157531
0.490564
0.0711142
0.0710386
0
0.0632387
0.0383307
0.0347726
0.00385916
0.0542421
0.261265
0.0158066
0.0029128
0.00132849
0.0091597
0.145361
0.210215
0.0110438
0.00221094
0.0130459
0.00463773
0.00579376
0.00616336
0.00130853
0.210443
0.439701
0.0140306
0.0360599
0.199814
0.0371027
0.0335456
0.000722511
0.0716176
0.359483
0.616689
0.0546952
0.00450094
0.0037753
0.00251974
0.000803955
0.00176836
0.0091597
0.0928923
0.26864
0.0169255
0.00119033
0.000338507
0.000158962
0.00147832
0.00364763
0.000785503
0.168454
0.507566
0.0253883
0.000168503
0.000152629
0.000183071
0.0005538
0.00184192
0.00153497
0.159346
0.507566
0.0828036
0.000425426
4.55151e-005
0
0.000177401
0.000480778
0.000112215
0.145943
0.507566
0.115505
0
0
0
2.41798e-006
4.59414e-005
0.000187025
0.110573
0.467273
0.0223918
0.000466178
0.00013955
0.000170562
6.76931e-005
0.000252071
0.000736923
0.0856916
0.467273
0.12036
0.00326325
1.99358e-005
2.4366e-005
0
3.81235e-005
0.000343112
0.0791781
0.467273
0.0661111
0.00326325
0
0
0
0
2.35815e-005
0.0602391
0.467273
0.176276
0.0228427
0
0
0
0
0
0.0634449
0.469409
0.103185
0.00478594
0
0
0
0
0
0.0788317
0.495974
0.052925
0.0235576
0.00177651
0.00266477
0.00043252
0.000144173
0.000203433
0.0775769
0.438585
0.124976
0.0119632
0
0
0.000565775
0.000691504
0.00306637
0.0911607
0.485584
0.0435155
0.0143743
0.000572638
0.00325034
0.0039706
0.00216172
0.00511061
0.15149
0.523869
0.0936387
0.0224723
0.00807214
0.012039
0.00195406
0.000651355
0.000919081
0.199123
0.560387
0.138644
0.0159151
0.00513842
0.00722342
0.00117244
0.000390813
0.00132363
0.126322
0.382909
0.0320313
0.0186582
0.00199932
0.00654892
0.0144271
0.00481872
0.00545989
0.181663
0.230377
0.0283972
0.0328097
0.00302331
0.00213057
0.0119628
0.00332956
0.0209718
0.244646
0.674037
0.0582489
0.00547329
0.000348793
0.00259969
0.00112353
0.000177486
0.00182796
0.2334
0.473859
0.0297512
0.00703337
0.00269978
0.012287
0.00786468
0.00907525
0.0157325
0.167723
0.174949
0.0241344
0.0190609
0.00823416
0.0111179
0.00719256
0.00323644
0.0364199
0.127432
0.128038
0.0181736
0.0046367
0.0174036
0.0345203
0.0372424
0.0133178
0.0265025
0.254485
0.349257
0.0599984
0.0443524
0.0183835
0.0181184
0.00677461
0.0385809
0.139938
0.345498
0.136892
0.067115
0.0608586
0.0202283
0.026373
0.0201824
0.0438896
0.380241
0.161002
0.197322
0.0730051
0.0287841
0.0542767
0.0673019
0.0383802
0.0203749
0.0555559
0.170309
0.275407
0.234221
0.13333
0.0653785
0.0783894
0.00430691
0.0119195
0.0957757
0.0625422
0.101978
0.0806539
0.138237
0.137405
0.0169943
0.0517371
0.0186787
0.00172764
0.00597454
0.0268306
0.0249552
0.14224
0.576602
0.0394753
0.00519735
0.00291185
0.00104329
0.0648051
0.101754
0.144438
0.214703
0.154079
0.0334633
0.0316691
0.0269201
0.0627017
0.0454137
0.0176914
0.0278406
0.178341
0.580703
0.158815
0.0516472
0.0670802
0.048487
0.0143514
0.00517048
0.00458512
0.0937061
0.428077
0.0666409
0.0299803
0.0177729
0.0192257
0.202839
0.263431
0.0308244
0.0515851
0.283092
0.102103
0.120865
0.0243234
0.128111
0.103338
0.0948947
0.0520155
0.0393079
0.26332
0.12614
0.0576276
0.0856367
0.0535199
0.244083
0.455442
0.300686
0.00690508
0.042604
0.0522347
0.036041
0.0571818
0.130382
0.172786
0.393635
0.0275467
0.00994517
0.0356914
0.0175966
0.028745
0.00212664
0.0482784
0.146242
0.511072
0.0648449
0.0128276
0.000113018
0.00543115
0.000271972
0
0.00748969
0.146079
0.390296
0.130488
0.00379283
0.00143766
0.0270309
0.00859235
0.00389141
0.0407929
0.0905898
0.511072
0.0869078
0.0111759
0.00472324
0.0407117
0.00657471
0.00242909
0.00995291
0.0781876
0.456882
0.127164
0.0115079
0
0.000792023
4.16856e-005
0
0.00458837
0.0825416
0.537166
0.140928
0.00602508
0
0
0
0
0.000655481
0.0350251
0.412779
0.120864
0.0226322
0.00534923
0.0113711
0.00437674
0.00163484
0.00884991
0.0548328
0.441634
0.120772
0.0184021
0.000764176
0.0107312
0.020719
0.00667801
0.00373758
0.0890428
0.564438
0.0764578
0.00274126
0
0.00019787
8.48014e-005
0
0
0.0731442
0.621964
0.0974075
0.018903
0
0.00138509
0.00059361
0
0
0.0806424
0.332942
0.0367071
0.00530225
0
0.00613195
0.0185187
0.00863249
0.0143139
0.0510544
0.27677
0.0307586
0.024441
0
0.00976106
0.00617995
0.0139138
0.0349937
0.187274
0.666125
0.104343
0.0183738
0.000791228
0.00106866
0.00545694
0.00610982
0.00996698
0.215823
0.428219
0.0681237
0.00843409
0.00657499
0.0114422
0.0130906
0.0113898
0.0202361
0.0858049
0.282219
0.0395387
0.0472661
0.0111921
0.00748065
0.00620536
0.0198334
0.0321258
0.129832
0.183699
0.0715486
0.0675028
0.0857202
0.0422625
0.0195014
0.0194645
0.0205231
0.220393
0.342812
0.120238
0.0354933
0.00703369
0.0424028
0.037692
0.00991065
0.0457602
0.241758
0.125809
0.10914
0.0751303
0.0104106
0.0676412
0.0764026
0.00875303
0.136993
0.195634
0.169185
0.113811
0.0780601
0.0770063
0.215296
0.0846474
0.078133
0.114587
0.156311
0.092386
0.133143
0.0946735
0.0316485
0.241748
0.118602
0.101971
0.417516
0.161896
0.0597175
0.051459
0.0345857
0.0370504
0.0718478
0.0407272
0.0364875
0.152575
0.234013
0.110608
0.0965175
0.0345471
0.0452296
0.0623766
0.0738547
0.0751649
0.12388
0.100531
0.0407095
0.150035
0.139805
0.0903983
0.132936
0.0832285
0.118716
0.271692
0.130691
0.0995003
0.489092
0.29597
0.072251
0.0929562
0.0970356
0.157714
0.1401
0.166357
0.108395
0.0544725
0.0408351
0.0302616
0.068222
0.0607579
0.0382306
0.0850043
0.135882
0.294937
0.178545
0.103947
0.0390723
0.0502385
0.0163834
0.0284314
0.103089
0.110488
0.131771
0.349321
0.319373
0.072725
0.0837891
0.0696844
0.0584386
0.0851103
0.18674
0.260121
0.229023
0.296147
0.112935
0.0629943
0.0253947
0.0568517
0.0972002
0.105166
0.081333
0.118579
0.144269
0.138684
0.0529598
0.0266056
0.064025
0.127935
0.223903
0.0815104
0.0695041
0.157922
0.251302
0.141387
0.074805
0.143211
0.127571
0.0493455
0.172826
0.205385
0.169507
0.109143
0.0741784
0.0852618
0.12382
0.0825091
0.353447
0.384956
0.394437
0.0980616
0.0453398
0.0224113
0.0310655
0.0737227
0.0875957
0.274358
0.153197
0.0657119
0.022058
0.0610245
0.0612979
0.0545318
0.0770272
0.0709446
0.244345
0.483153
0.286515
0.0122241
0.00312682
0.00871178
0.0143964
0.019925
0.0530452
0.362239
0.254533
0.10242
0.0208163
0.00749963
0.00328627
0.00765295
0.0200135
0.0564602
0.276025
0.357668
0.0961563
0.0198909
0.00674434
0.0109509
0.0334718
0.0204918
0.0273608
0.176176
0.535106
0.195281
0.00230192
0
0.0382539
0.0342529
0.00432787
0.0534677
0.138694
0.534048
0.0807385
0.00310407
0.0316427
0.0723935
0.0420492
0.0268462
0.0290546
0.226303
0.229264
0.0472417
0.00380652
0.00129067
0.0302152
0.0697112
0.0396628
0.0586875
0.238
0.165915
0.059211
0.00870215
0.0206725
0.0360689
0.0432889
0.1074
0.0962843
0.0843631
0.581436
0.180007
0.0336731
0.0668489
0.0937041
0.0418961
0.0327914
0.0343511
0.0705297
0.360101
0.160449
0.0539009
0.0444632
0.122038
0.140929
0.081019
0.0399313
0.116676
0.186197
0.195814
0.0426297
0.0689387
0.0949772
0.0425979
0.143415
0.0773561
0.070253
0.0795156
0.126289
0.089815
0.102904
0.162795
0.128601
0.13102
0.0560708
0.11241
0.214525
0.0634791
0.0500192
0.0773777
0.0940911
0.148834
0.12253
0.0909531
0.190818
0.235311
0.129278
0.0788694
0.0389149
0.0342236
0.0459229
0.131635
0.238881
0.165224
0.106242
0.0810785
0.143943
0.145191
0.132135
0.134441
0.200912
0.0595728
0.265253
0.202565
0.167698
0.164947
0.0842576
0.0632287
0.093555
0.237043
0.179312
0.161317
0.212036
0.0830354
0.0570095
0.0251782
0.020294
0.0565837
0.08909
0.173777
0.131516
0.21943
0.209702
0.159824
0.215695
0.0903186
0.0573759
0.0625375
0.109391
0.167874
0.118615
0.120271
0.0608522
0.0453778
0.0905222
0.104863
0.109587
0.220537
0.206227
0.273719
0.247809
0.0769658
0.0974744
0.101285
0.0850772
0.0653517
0.234135
0.091282
0.113296
0.0877272
0.113186
0.123865
0.155019
0.0775488
0.102814
0.116476
0.160051
0.0899441
0.0844316
0.0715043
0.0222275
0.130036
0.11989
0.152664
0.448455
0.163404
0.176298
0.0902959
0.0723175
0.0788325
0.0799775
0.122282
0.0680345
0.096316
0.202139
0.127136
0.107758
0.0720765
0.0991593
0.0598284
0.223868
0.175223
0.220761
0.076349
0.0436846
0.0824034
0.0860266
0.0280027
0.124222
0.109921
0.103685
0.184907
0.056913
0.0630527
0.35661
0.25363
0.0329956
0.157915
0.107479
0.11835
0.0794361
0.207501
0.0758007
0.056659
0.142027
0.0326432
0.13655
0.101958
0.133883
0.122728
0.136169
0.047134
0.136943
0.374944
0.0705683
0.26124
0.0694721
0.213593
0.0720678
0.0317258
0.106919
0.409387
0.319267
0.0524641
0.0528299
0.0414843
0.0344217
0.0252373
0.0548099
0.134105
0.204414
0.229561
0.159146
0.0924743
0.0543739
0.0162663
0.0119526
0.0203594
0.0309492
0.16814
0.308164
0.114179
0.181622
0.0783798
0.115643
0.0253173
0.0648226
0.0416241
0.118496
0.17724
0.177736
0.158203
0.145413
0.114875
0.0119587