0.00195982
0
0
0
0.0127336
0
0
0
0.00195982
0.0678714
0.0526298
0.056885
0.014226
0.159701
0.0138503
0.0765168
0.0140769
0.0106864
0.0173237
0
0
0
0.0581225
0
0
0
0.0173237
0.0841473
0.08313
0.181671
0.195
0.873783
0.0230839
0.105005
0.00844613
0.0759781
0.060738
0.0928498
0.10538
0.0127151
0.0518683
0.00676672
0.0549782
0.0261799
0.0664868
0.143119
0.0934783
0.107561
0.00726597
0.0179624
0.00816996
0.148915
0.166483
0.221363
0.0350287
0.152857
0.303066
0.20259
0.383777
0.00967713
0.0663623
0.0272721
0.059191
0.104387
0.155527
0.287711
0.137398
0.113565
0.00241149
0.23303
0.413425
0.298626
0.0604825
0.00740187
0.00855972
0.000128649
0.00176904
0.00246997
0.0962639
0.173433
0.115001
0.0199994
0
0
0
0.00209785
0
0.0266046
0.11328
0.0591172
0.0592365
0.0123365
0.0204414
0.00518259
0.00314948
0.000352853
0.243676
0.512848
0.256997
0.0340729
0
0
0
0.00295896
0
0.391024
0.512848
0.256769
0.0186867
0.000484315
0.000484315
0
0.0150463
0
0.00708305
0.0339065
0.0352305
0.044024
0.00561234
0.0100566
0.00293794
0.0478965
0.0106977
0.00617014
0.00845919
0.0513173
0.0288286
0
0
0
0.023451
0
0.513801
0.56296
0.413327
0.0372034
0.00133328
0.00399984
0.000604418
0.0778509
0.074884
0.215292
0.124562
0.298232
0.0705731
0.0171928
0.0381511
0.00578706
0.0830914
0.0387794
0.00572305
0.0640818
0.0863071
0.204424
0.0854459
0.053605
0.0121992
0.206537
0.0411913
0.0391866
0.103235
0.111913
0.0907048
0.0118689
0.0214166
0.0118991
0.200868
0.271456
0.0640337
0.16897
0.225876
0.39023
0.111788
0.0947289
0.0848113
0.418913
0.177623
0.0502485
0.203062
0.301465
0.120238
0.0713893
0.0301133
0.0135366
0.149117
0.0433621
0.14061
0.0908221
0.0808067
0.0680773
0.0401564
0.0232562
0.00605806
0.159953
0.0527034
0.153774
0.076603
0.0566253
0.30721
0.150144
0.0766007
0.0681636
0.301109
0.0415811
0.18641
0.154347
0.227086
0.300241
0.109481
0.0425335
0.0253539
0.407974
0.0696399
0.191525
0.138689
0.273372
0.0590616
0.0639044
0.0380378
0.0258352
0.0885033
0.0336621
0.0621098
0.0373144
0.119672
0.319002
0.135708
0.0372986
0.0726689
0.256239
0.0171144
0.0382414
0.0961982
0.29479
0.134935
0.0948434
0.0350334
0.00485219
0.188408
0.0943005
0.0607926
0.076365
0.270638
0.194401
0.0817148
0.0148928
0
0.410261
0.0544695
0.0716964
0.174002
0.407029
0.300766
0.0442544
0.00488146
0.0214755
0.293915
0
0.00146025
0.0309961
0.192638
0.188884
0.0299182
0.0138618
0.0114814
0.314102
0
0
0
0.173593
0.126748
0.00928983
0.000989259
0.00985172
0.349142
0
0.0102218
0.0598043
0.172779
0.246027
0.0498637
0.0562478
0.16116
0.423069
0.0314632
0
0.0063872
0.255705
0.142042
0.0506858
0.0388376
0.0435117
0.142633
0
0
0.0138124
0.138556
0.301108
0.0326968
0.0398563
0.0615362
0.268228
0.0553886
0.0516201
0.11226
0.26315
0.187311
0.0839322
0.0911378
0.134475
0.137884
0.0544214
0
0.0274646
0.250286
0.264905
0.0832495
0.087966
0.141425
0.105942
0.205381
0.162701
0.275621
0.433877
0.0196448
0.00108896
0
0.00196899
0.040774
0
0
0
0.013474
0.0879592
0.0141351
0.079937
0.220664
0.541689
0.00181777
0.0072711
0
0.0447637
0.0247258
0.00287176
0.000265797
0.0161751
0.0915994
0.00735289
0.0124918
0.00910633
0.0131885
0.0994233
0.0133387
0.0841178
0.358247
0.625411
0.161387
0.066142
0.0133756
0.027176
0.0252842
0.0258018
0.113159
0.28519
0.488275
0.00474481
0.00681243
0.00246751
0.0148699
0.0566527
0.0450321
0.0798712
0.163607
0.209206
0.00601155
0.0293276
0.100301
0.104065
0.0277361
0.0258788
0.068896
0.323379
0.497778
0.0940532
0.0185031
0.0102568
0.00582657
0.0573379
0.114006
0.0461767
0.132409
0.318444
0.0220061
0.0231955
0.0691248
0.0415436
0.0424483
0.016545
0.00857697
0.00729638
0.00831804
0.00206265
0.0973106
0.310055
0.18332
0.0161121
0.00114652
0.000321109
0
0.000934075
0.00194859
0.415643
0.532182
0.311308
0.0398911
0.0594647
0.0215936
0.00552963
0.0113245
0.0277732
0.0819261
0.127699
0.106266
0.0159231
0.00400403
0.00580051
0.00543135
0.00203908
0.0411641
0.2625
0.317932
0.199989
0.00675847
0
0
0
0.00206527
0.00016436
0.30157
0.304284
0.185513
0.0144591
0
0
0.000590307
0.00599619
0.00989784
0.291614
0.275898
0.210167
0.00993455
0
0.000814579
0.000458123
0.000171992
0.00345121
0.205613
0.258598
0.133826
0.0194782
0.00144783
0
0.000354184
0.000354184
0
0.309074
0.398463
0.393736
0.0419233
0.000144938
0
0.00732345
0.0303661
0.0264256
0.0943902
0.163284
0.154352
0.0821087
0.0127177
0.00872067
0.0177949
0.0801499
0.0403886
0.0545275
0.095532
0.132599
0.0568563
0.00179719
0
0.00439407
0.0122638
0.00635837
0.20983
0.479994
0.40868
0.081405
0.0137902
0.0211452
0.0201455
0.0383884
0.0473436
0.305671
0.479994
0.25419
0.137122
0.0467472
0.015451
0.0171341
0.0872402
0.0175638
0.0844296
0.0468734
0.117976
0.213008
0.0296093
0.0228067
0.0283113
0.197536
0.010759
0.0412947
0.030062
0.20745
0.131402
0.0558499
0.0377717
0.050299
0.129329
0.0376597
0.236546
0.465674
0.172849
0.179327
0.0568182
0.054512
0.104818
0.526189
0.0290335
0.143521
0.115843
0.233431
0.112811
0.0186982
0.0137032
0.015514
0.143272
0.0283524
0.00725638
0.0670987
0.22229
0.114066
0.0260707
0.00908933
0.00148151
0.135224
0.031818
0.0363991
0.124876
0.194415
0.145511
0.0515093
0.0311205
0.0511111
0.480217
0.0970278
0.082492
0.120044
0.251333
0.147724
0.0688585
0.0716802
0.0296801
0.333864
0.173412
0.0998057
0.404397
0.263613
0.0558708
0.0360788
0.0129974
0.0124862
0.128428
0.00594826
0.0367631
0.0589689
0.0673435
0.164242
0.084356
0.0560207
0.11618
0.190712
0.045198
0.0334395
0.0314004
0.111645
0.0762587
0.1553
0.118621
0.0557135
0.23922
0.0764266
0.113908
0.332989
0.109399
0.316741
0.365439
0.146729
0.190922
0.344133
0.0707667
0.13434
0.31988
0.150793
0.111872
0.0538683
0.0479355
0.0727998
0.111022
0.114198
0.0245635
0.0274461
0.183248
0.129881
0.0991615
0.0248509
0.118947
0.141701
0.133911
0.0628948
0.083767
0.279761
0.163677
0.184835
0.0403079
0.147248
0.17894
0.126342
0.120591
0.258109
0.188038
0.208697
0.194983
0.00876727
0.184298
0.334683
0.143645
0.144302
0.308099
0.277369
0.021154
0.00520578
0.000922789
0.01009
0.0508406
0.00598548
0.00929938
0.00677908
0.00658634
0.0181336
0.00292717
0.00932654
0.234892
0.536101
0.123724
0.0492385
0.00995725
0.0042462
0.0399777
0.0173292
0.00762186
0.0183249
0.0657074
0.00122514
0.00132848
0.00287616
0.0133368
0.0266352
0.0047697
0.00335497
0.536101
0.536101
0.0202654
0.00703407
0.00256709
0.00806163
0.00347389
0.00765751
0.0110122
0.229807
0.475633
0.0820193
0.0201368
0.019666
0.0050221
0.006167
0.0342109
0.0137059
0.0765539
0.229488
0.0250278
0.0397388
0.108608
0.0420785
0.0021379
0.000345516
0.000330222
0.475633
0.475633
0.0136151
0.00700995
0.0103962
0.0056685
0
0
0
0.165404
0.320579
0.0342222
0.0412371
0.0556354
0.0400586
0.0172641
0.0763352
0.0349831
0.0399065
0.0640936
0.167861
0.19919
0.368966
0.150813
0.0143876
0.0298706
0.0420561
0.0513018
0.0310654
0.163251
0.338892
0.382174
0.125827
0.00732691
0.0199128
0.0119676
0.205566
0.353507
0.220449
0.121579
0.162979
0.0831488
0.0281542
0.0471618
0.0357952
0.0624048
0.15266
0.130254
0.0380368
0.0981932
0.0559331
0.0143141
0.00517636
0.00864864
0.00422181
0.00300275
0.014301
0.181405
0.28849
0.123096
0.0325744
0.0149643
0.00104851
0
0.000268445
0.000723763
0.246971
0.569481
0.491872
0.0112216
0.0173163
0.0118613
0.00319405
0.00518014
0.0131941
0.0484173
0.105428
0.0473034
0.0228428
0.0220639
0.0120174
0.000298418
0.000447408
0.00172569
0.158498
0.319691
0.102891
0.0245216
0.00678971
7.1883e-005
0
0
0.00119054
0.120667
0.344588
0.253035
0.0442136
0.00349958
0.0107623
0.00717489
0
0.0189958
0.306551
0.560168
0.291851
0.0127663
0.0059357
0.00206773
0.000410924
0
0
0.111505
0.169569
0.0739089
0.0163634
0.000752744
0.000575293
0.000246554
0
0.00639718
0.202338
0.337844
0.221621
0.0419599
0.0090975
0.0121917
0.0144263
0.0278441
0.0224112
0.188563
0.378587
0.167177
0.0524223
0.0383446
0.0355503
0.0302942
0.114727
0.0167552
0.264497
0.271081
0.174449
0.0120173
0.00294866
0.00259925
0.000615429
0.00184629
0.0120304
0.142596
0.269162
0.199351
0.0439288
0.0195143
0.0189533
0.00406007
0.00307714
0.00721824
0.300057
0.432889
0.374358
0.100204
0.0591976
0.0234507
0.0250896
0.114773
0.0326235
0.156381
0.128473
0.127378
0.117891
0.0949047
0.053281
0.0402291
0.0961859
0.110408
0.0975966
0.228365
0.131919
0.118525
0.0303163
0.0106485
0.00953964
0.00104419
0.0181859
0.188553
0.370982
0.41693
0.222337
0.065854
0.0154538
0.0434653
0.0106115
0.139496
0.18521
0.359383
0.373219
0.067273
0.116722
0.0776802
0.0969802
0.174157
0.118299
0.071631
0.238149
0.0988687
0.165028
0.178339
0.10223
0.14463
0.270616
0.0618865
0.0654599
0.194184
0.246315
0.127115
0.0887977
0.0389453
0.147865
0.0523364
0.11457
0.211632
0.29156
0.218802
0.220576
0.150884
0.225072
0.143156
0.116799
0.0477809
0.163681
0.115174
0.292136
0.136431
0.0924746
0.043686
0.0979681
0.103747
0.0206552
0.0944639
0.133226
0.120327
0.236684
0.084541
0.0312856
0.0935538
0.112401
0.0297556
0.22105
0.317141
0.118149
0.24105
0.14003
0.236006
0.0649389
0.067324
0.0229021
0.137724
0.0308922
0.127357
0.455572
0.202365
0.269904
0.208237
0.0319376
0.0113544
0.193633
0.134192
0.103343
0.0171758
0.0133238
0.00866855
0.0237618
0.042932
0
0
0.00165847
0.00498225
0.011003
0.00541929
0.00846565
0.464352
0.477762
0.000717028
0
0.000995079
0.00254142
0.0163258
0.0198253
0.0054434
0.0512879
0.0776877
0.00138874
0
0.000497437
0.00635698
0.00451785
0.00831367
0.00776658
0.49702
0.49702
0.0147404
0
0.000142154
0.000955817
0.00100573
0.000563424
0.00103843
0.422808
0.403333
0.00371773
0.00125798
2.89921e-005
0.000568961
0
0
0
0.169318
0.215379
0.0198888
0.0115755
0.000202945
0.00385594
9.17139e-005
0.000256438
0.000959765
0.430687
0.462037
0.0177781
0.000133346
0
0
0
0
0
0.174124
0.327559
0.0190977
0.000933424
0
0
0.00516929
0.00394286
0.00573841
0.308539
0.417024
0.0862078
0.0291976
0.000362756
0.0117768
0.0316752
0.0196749
0.0117852
0.0547555
0.16831
0.0393859
0.00510336
0.00881097
0.0323109
0.00341852
0.00725397
0.00188209
0.376591
0.603193
0.0370369
0.00166846
0
0.00181965
0.0256533
0.0487585
0.00857589
0.0656017
0.190787
0.0141186
0.00414043
0.00212661
0.0166695
0.052175
0.0719667
0.0385528
0.0110423
0.0159849
0.0140322
0.0531904
0.0595393
0.0725596
0.0828517
0.103641
0.0845604
0.0176655
0.0413896
0.0247317
0.171962
0.249797
0.144874
0.0506892
0.13727
0.0653936
0.0437134
0.0402407
0.00160861
0.035836
0.0199214
0.0306895
0.0544348
0.113832
0.229907
0.0971152
0.588205
0.179824
0.0891739
0.121231
0.0325002
0.0525486
0.0559075
0.0286751
0.00951015
0.0122726
0.00678968
0.0977854
0.145106
0.102079
0.0808868
0.0556349
0.0154782
0.00560847
0.00770887
0.0113578
0.307143
0.423487
0.352398
0.104542
0.134553
0.132401
0.0450159
0.169518
0.0988158
0.0258989
0.0686551
0.079702
0.208325
0.28283
0.164532
0.0424471
0.0763029
0.119443
0.146362
0.250526
0.267302
0.022543
0.00428359
0
0
0.0115259
0.00712221
0.186992
0.295619
0.18568
0.0619136
0.00156851
0
0
0.00853822
0.00152563
0.259761
0.528697
0.372928
0.0333004
0.05345
0.0542607
0.0270808
0.100909
0.0533767
0.12113
0.193819
0.0720423
0.0136333
0.00694609
0.0147298
0.0162485
0.0762281
0.0219184
0.213649
0.364773
0.0900402
0.0480416
0.00176681
0.00163207
0
0.000318223
0.0125234
0.0989212
0.306441
0.286237
0.0976027
0.00887539
0.00572843
0.0211679
0.000788864
0.087664
0.212964
0.4966
0.358814
0.0085747
0.00177388
0.00461557
0
0.00307342
0.00555554
0.105624
0.228082
0.0948808
0.022015
0.00363029
0.00486905
0.00234892
0.000196938
0.0114751
0.154273
0.428326
0.191827
0.0425584
0.0147757
0.0123952
0.0586105
0.000267807
0.0297606
0.25536
0.382403
0.181265
0.0983165
0.123359
0.265245
0.0828408
0.0184346
0.00562539
0.202222
0.217296
0.180711
0.0362642
0.0177498
0.00186506
0.0274292
0.00555294
0.0036037
0.150966
0.430472
0.142119
0.13192
0.182115
0.172021
0.0744646
0.0437752
0
0.101942
0.329586
0.187125
0.159095
0.253452
0.55
0.0513829
0.0263581
0.0169463
0.0755662
0.0289201
0.107155
0.260014
0.270009
0.368713
0.114086
0.00500784
0.0191098
0.0451824
0.00516557
0.0342068
0.0765441
0.221693
0.340488
0.0340627
0.0504988
0.0121809
0.00984764
0.0576613
0.0792272
0.0435246
0.0870753
0.175578
0.00608158
0.0139886
0.0334782
0.00951842
0.023393
0.0241171
0.0105234
0.0102549
0.000808997
0.0272587
0.0958096
0.00204979
0
0.00262924
0.00933692
0.00238239
0.00334649
0.000786085
0.338043
0.531816
0.0166517
0
0.00142246
0.00221426
0.0143829
0.00947544
0.000655967
0.0492618
0.131951
0.000778792
0.000508863
0.00576959
0.0084529
0.00399085
0.00144073
3.37047e-005
0.486563
0.531816
0.00623697
0
0.00237077
0.00330738
0
0
7.92189e-005
0.306467
0.498164
0.0139108
0
0
0
0
0
3.91518e-005
0.140732
0.270697
0.0132419
0
0
0
0
0
0
0.394538
0.498164
0.0168937
0
0.00123554
0.0018533
0
0
0.000274062
0.130535
0.296653
0.0780205
0.000107088
0.00238049
0.00308884
0.00176225
0.00519225
0.0014906
0.314241
0.473634
0.02455
0.000413616
0.00165446
0.00111057
0.0129776
0.0454069
0.00905085
0.0706243
0.102897
0.013624
0.0120948
0.0138811
0.00777396
0.00507409
0.00433642
0.00923898
0.245281
0.628687
0.165266
0.0020978
0.00833116
0.00654415
0.0211808
0.0331075
0.0359863
0.118598
0.0958657
0.0171856
0.0122093
0.0240573
0.0156237
0.0489283
0.145017
0.053888
0.0423191
0.0247821
0.00509162
0.0340194
0.0230974
0.0327163
0.0598247
0.0873812
0.146618
0.0552527
0.51139
0.246036
0.0481934
0.188637
0.0823791
0.0805265
0.148345
0.113934
0.131556
0.0497396
0.0100664
0.026216
0.0321659
0.0428462
0.131994
0.172664
0.155147
0.0358384
0.157478
0.0893788
0.0172387
0.108252
0.113201
0.103791
0.0793639
0.0778963
0.0284731
0.191326
0.163173
0.0256992
0.184147
0.193794
0.308373
0.38913
0.172365
0.0503095
0.0712901
0.112817
0.0602715
0.173044
0.316001
0.103778
0.0342244
0.0191883
0.00770631
0.0758927
0.0465778
0.00594265
0.11259
0.179601
0.262056
0.150513
0.0233863
0.0174213
0.0580083
0.0320255
0.0122148
0.107041
0.269273
0.214643
0.321343
0.224118
0.164364
0.21233
0.0907192
0.0728563
0.105093
0.108491
0.0487985
0.0490128
0.0670209
0.0986181
0.183438
0.0655919
0.144637
0.292999
0.131125
0.219315
0.174995
0.0389238
0.0777445
0.0316095
0.016685
0.0265896
0.0482237
0.131405
0.258886
0.203565
0.0626947
0.0635678
0.0617341
0.0272354
0.0698342
0.0325249
0.133665
0.0090704
0.00405404
0.00864807
0
0.0158051
0.013362
0.100909
0.223209
0.0948061
0.0505373
0.00920593
0.00223356
0.0076498
0.00547154
0.00596914
0.262718
0.550306
0.171423
0.178861
0.117699
0.0554474
0.00270216
0.0293729
0.00614801
0.0225938
0.0232529
0.0591588
0.43725
0.267459
0.213558
0.0151596
0.018601
0.00300657
0.0790588
0.168242
0.100591
0.0747778
0.0898029
0.0100476
0.0730506
0.0151664
0.0123106
0.177293
0.419784
0.106964
0.138294
0.263742
0.121562
0.173642
0.143771
0.033211
0.101353
0.230184
0.0898044
0.270644
0.224857
0.11485
0.108061
0.0301533
0.0775712
0.115503
0.195674
0.0827313
0.0919221
0.16736
0.170041
0.182496
0.168423
0.209948
0.174038
0.0867451
0.054962
0.0799995
0.179716
0.161652
0.0539502
0.148857
0.0374588
0.0317585
0.0821991
0.0575569
0.199601
0.163174
0.233286
0.00119309
0.0269705
0.0323723
0.0248493
0.103385
0.129788
0.040938
0.0977771
0.184687
0.050436
0.148925
0.180821
0.108506
0.180053
0.0807388
0.229416
0.177219
0.20087
0.00252284
0.0268633
0.0747606
0.211567
0.491053
0.211862
0.0127501
0.00578771
0.000208786
0.0534527
0.0932396
0.001909
0.00257578
0.00535353
0.0073455
0.00381099
0.00181676
0
0.387447
0.501886
0.00150438
0.000299182
0.000303597
0.00234075
0.0400838
0.00296759
0.0143138
0.105317
0.110385
0.00915218
0.035547
0.0394319
0.0549675
0.0188781
0.00148545
0.0294996
0.501886
0.501886
0.00722625
0.000498637
0.00162927
0.02211
0
0
0.000205915
0.295994
0.544044
0.0164855
0
0.00142322
0.00213483
0
0
0.00155754
0.0806897
0.251677
0.0750593
0.000335315
0.00337798
0.00355805
0
0
0.00989504
0.285957
0.544044
0.0322801
0.000720496
0.000203317
0.000304976
0
0
0.00240234
0.138998
0.295455
0.0378209
0.00140202
0.000942429
0.000508293
0.00936238
0.00677976
0.00681376
0.107628
0.542655
0.151661
0.00403921
0.0136025
0.00989861
0.0215648
0.0200625
0.0255159
0.0654198
0.0911171
0.0168114
0.00589148
0.01214
0.0193943
0.0121949
0.00639392
0.00812417
0.222385
0.656422
0.0427785
0.00306892
0.00729601
0.0110021
0.0529569
0.0267388
0.0205524
0.0326014
0.123606
0.00798629
0.00313132
0.00566973
0.0367539
0.0271821
0.0396079
0.0516175
0.0661296
0.0884344
0.0145939
0.00679697
0.0161854
0.0298389
0.0605193
0.0552165
0.0641043
0.021284
0.114969
0.00589604
0.00252688
0.0163512
0.0519911
0.174804
0.0937873
0.0475394
0.027644
0.130041
0.00875632
0.00375271
0.00840938
0.0687744
0.608534
0.371368
0.246021
0.0566382
0.111372
0.00760291
0.00325839
0.00981073
0.0983408
0.0384895
0.0173059
0.013559
0.00581025
0.0331471
0.0062385
0.00506369
0.0105628
0.0303658
0.10883
0.0789058
0.0369361
0.00148899
0.0263208
0.0172492
0.0128833
0.0190927
0.0515189
0.259679
0.201661
0.186082
0.0218607
0.00751797
0.0084483
0.00560736
0.00582031
0.0764172
0.502122
0.559663
0.329895
0.011729
0.00431876
0.0151042
0.0107419
0.00444122
0.114844
0.0774093
0.0950489
0.0330546
0.00161767
0.00358713
0.00317797
0.00583942
0.00526692
0.0270062
0.169749
0.257113
0.0750177
0.00518932
0.00290681
0.00188976
0.00598566
0.00240886
0.0532367
0.261131
0.341802
0.122029
0.000786829
0.0014575
0.00216069
0.00188411
0.00156636
0.0466667
0.486901
0.575666
0.118404
0.000659174
0.000201621
0
0.000261233
0.00905091
0.112248
0.133599
0.157613
0.0551902
0.00121524
0.00343208
0.000497701
0.00150744
0.0040539
0.0358166
0.215998
0.199477
0.111128
0.00372209
0.00555889
0
0.000903433
0.0292335
0.0429059
0.335103
0.354387
0.0620563
0.000173605
0
0
0.00702639
0.0135714
0.096347
0.411571
0.573045
0.152256
0.0152808
0.0266936
0
0.0117106
0.0303437
0.111591
0.150099
0.210293
0.0765407
0.0398491
0.0347583
0.0376648
0.0171051
0.0604866
0.0314098
0.0566895
0.131281
0.0648953
0.0685755
0.10375
0.0934283
0.0734913
0.052529
0.0186531
0.317259
0.568591
0.140783
0.0585652
0.100623
0.00963782
0.072652
0.0275206
0.0802115
0.127932
0.289419
0.090008
0.047119
0.101438
0.20457
0.357546
0.0600662
0.146299
0.0202287
0.0527553
0.0610018
0.0377886
0.116656
0.102725
0.0906611
0.150784
0.0588421
0.065943
0.0279471
0.0189863
0.0053307
0.0211304
0.040431
0.2708
0.511956
0.111793
0.0310817
0.0654242
0.0342053
0.016376
0.0766305
0.402393
0.381938
0.111243
0.114962
0.0688708
0.0107499
0.025188
0.0408812
0.0235577
0.0850045
0.159029
0.219532
0.0840615
0.0579934
0.0150274
0.0396561
0.0874094
0.064653
0.0043856
0.0565191
0.0555748
0.100338
0.0312039
0.00482891
0.0818347
0.424838
0.463712
0.00378029
0.000985002
0.00963962
0.0458417
0.0833453
0.0386761
0.0244723
0.143589
0.0888854
0.00537867
0.123173
0.0666466
0.138316
0.039802
0.0171124
0.053082
0.463712
0.463712
0.00194741
0.0250237
0.0454391
0.0401836
0
0.00555819
0.0362606
0.281167
0.530979
0.026887
0.00362784
0.00107424
0
0.00360679
0.00368496
0.00368944
0.116186
0.239015
0.0320205
0.00674251
0.00404823
0.000456351
0.000846827
0.0129409
0.037846
0.377047
0.532729
0.0157393
0.00523177
0.0133173
0.000846827
0.0318477
0.0642199
0.0137427
0.0778682
0.249835
0.039001
0.0176229
0.0691195
0.0127271
0.049547
0.0194034
0.011208
0.0888253
0.264855
0.012364
0.00402287
0.00911033
0.00750665
0.178144
0.12736
0.0418575
0.00548005
0.0378834
0.0007239
0.000325369
0.00130148
0.0397019
0.219907
0.287658
0.0638551
0.0478392
0.189629
0.0255396
0.0249707
0.100001
0.0641422
0.511125
0.518787
0.151913
0.000659856
0.0143828
0.00105481
0.00446117
0.0126478
0.146942
0.14876
0.158127
0.0509714
0.00308911
0.00599795
0
0.00175621
0.00632573
0.0343383
0.204883
0.258444
0.134869
0.00946172
0.00558293
0.00116825
0.00811647
0.0421085
0.0408891
0.385996
0.349522
0.0857342
0.000441302
0
0
0.0122934
0.0149656
0.0983987
0.343961
0.535785
0.145297
0.00516241
0
0.0104561
0.0442022
0.0810727
0.0739695
0.154718
0.204258
0.177228
0.0202773
0.000667078
0.00622553
0.010856
0.0182718
0.0943516
0.292002
0.306715
0.203305
0.0376183
0
0.0193594
0.013745
0
0.149478
0.163165
0.36592
0.169847
0.0318581
0.0088453
0.0382248
0.0372367
0.0695446
0.113534
0.392596
0.259082
0.173418
0.117694
0.0619171
0.0521303
0.0334262
0.091298
0.231646
0.149533
0.140239
0.105298
0.034986
0
0.0030759
0.00991777
0.00285215
0.0340056
0.344886
0.358401
0.185759
0.173962
0.0193135
0
0.016166
0.0199651
0.0727196
0.164715
0.110618
0.152033
0.111656
0.0180491
0.0091096
0.0640964
0.037401
0.0529081
0.412799
0.225604
0.279461
0.345931
0.0814182
0.0248183
0.118313
0.127017
0.158895
0.291455
0.246331
0.0559093
0.102599
0.0617407
0.00972656
0.0176339
0.0166392
0.0890826
0.270769
0.25817
0.0815809
0.0504782
0.0819576
0.0263263
0.0830561
0.0265085
0.145097
0.385531
0.125718
0.0617617
0.186194
0.125926
0.122767
0.0799054
0.0465782
0.146666
0.230841
0.127246
0.0281684
0.0902884
0.123699
0.222787
0.377019
0.10472
0.179523
0.225531
0.265326
0.102307
0.0723032
0.0983074
0.0165856
0.118214
0.0385246
0.10273
0.116502
0.127306
0.0884834
0.0552554
0.0590861
0.180343
0.26671
0.0807141
0.134402
0.142006
0.208984
0.0928665
0.139797
0.0836042
0.117473
0.347545
0.142888
0.108501
0.138717
0.123409
0.103548
0.139806
0.105974
0.349235
0.190564
0.28023
0.0906499
0.0539738
0.0134725
0.0205219
0.0253381
0.011041
0.256101
0.287518
0.0940045
0.0615356
0.0154766
0.000958478
0.00990208
0.0295859
0.00968107
0.0996703
0.136487
0.0825891
0.0257807
0.0908386
0.0541897
0.0352498
0.137911
0.110454
0.379853
0.238523
0.386097
0.124303
0.0177832
0.03898
0.0251306
0.141514
0.216275
0.324599
0.231511
0.266772
0.106971
0.026409
0.0120257
0.025758
0.195567
0.102761
0.0423711
0.169841
0.0413953
0.0800269
0.0110988
0.00786857
0.0373227
0.493243
0.375347
0.0141696
0.0472767
0.0228609
0.011494
0.00948672
0.0148087
0.182222
0.159803
0.146895
0.178876
0.146485
0.0269192
0.0510579
0.0762013
0.0299969
0.226311
0.373014
0.328629
0.0679002
0.134898
0.0588903
0.0679639
0.00620257
0.00435005
0.0158847
0.310912
0.346722
0.00354055
0.00361644
0.0104403
0.00664704
0.0721401
0.0736643
0.0150128
0.0224043
0.101841
0.00932342
0.0115602
0.0590664
0.0517293
0.28605
0.130916
0.0414191
0.173114
0.245766
0.00747899
0.0541512
0.0594618
0.128516
0.525852
0.390567
0.0493397
0.0143587
0.0277483
0.0321658
0.00850789
0.0389317
0.209962
0.11384
0.145064
0.045102
0.00357792
0.0176279
0.00286324
0.00919453
0.030178
0.054544
0.261124
0.337048
0.0725284
0.00375344
0.00300098
6.68997e-005
0.00317434
0.00571575
0.0541654
0.278278
0.223502
0.236072
0.0187921
0.00858877
0.031062
0.0151566
0.0357667
0.125599
0.286108
0.511989
0.398132
0.0334041
0.0241359
0.0311653
0.0127773
0.0386643
0.0492164
0.274572
0.317895
0.0227815
0.00455451
0.00281898
0.00125088
0.0097845
0.00453113
0.0707296
0.293021
0.304365
0.0362542
0.00956645
0.0203157
0.0332087
0.0600209
0.0117433
0.0846621
0.267427
0.444684
0.112808
0.0318816
0.0232459
0.0222772
0.0181801
0.0554525
0.194684
0.269774
0.178661
0.0722193
0.0593628
0.0516091
0.0828883
0.117921
0.0621554
0.313071
0.182831
0.240911
0.0654783
0.0466691
0.0560891
0.132062
0.0633272
0.0712586
0.0552793
0.208338
0.147356
0.0605742
0.20978
0.0795386
0.1159
0.0387283
0.139061
0.0857586
0.18904
0.0807656
0.0657182
0.138251
0.109257
0.243671
0.185782
0.0535956
0.128375
0.262875
0.404398
0.0551742
0.343175
0.0560388
0.168132
0.149998
0.0893714
0.0591298
0.138269
0.103616
0.06194
0.168786
0.0492358
0.0273729
0.062544
0.0821944
0.0622381
0.273985
0.064547
0.0727739
0.242908
0.221314
0.1124
0.123559
0.187681
0.257489
0.123994
0.245263
0.0291073
0.17719
0.0551379
0.0359719
0.106947
0.134763
0.108529
0.108788
0.0544825
0.0398562
0.138483
0.213244
0.14838
0.275531
0.260921
0.337569
0.25321
0.0332512
0.0133951
0.100292
0.122141
0.210982
0.103518
0.0701395
0.161498
0.16795
0.131921
0.0128119
0.0520641
0.0945281
0.314069
0.353783
0.148421
0.121744
0.203655
0.0295236
0.0144203
0.0478912
0.133483
0.191685
0.0829571
0.0807691
0.145204
0.230787
0.0745453
0.0225693
0.0682235
0.092463
0.39938
0.223853
0.122125
0.0838558
0.0793751
0.138478
0.0277046
0.101525
0.131789
0.132391
0.172152
0.107218
0.108881
0.0923972
0.106993
0.0209243
0.109415
0.216496
0.294926
0.094211
0.199318
0.20134
0.0839107
0.0853805
0.0192321
0.114749
0.136831
0.194655
0.200727
0.150188
0.1515
0.152002
0.421005
0.0993965
0.148073
0.201093
0.0983693
0.113196
0.117374
0.267999
0.0803737
0.115008
0.0813898
0.105226
0.122572
0.182709
0.0824939
0.19768
0.120017
0.0412569
0.0902518
0.1327
0.206465
0.26561
0.145861
0.108029
0.099407
0.0438027
0.158311
0.291838
0.228142
0.255738
0.0942415
0.0321739
0.0819416
0.0537761
0.110468
0.0729529
0.0899891
0.251965
0.451433
0.236381
0.0343725
0.0418229
0.028993
0.0335927
0.0367715
0.0710245
0.127649
0.0441287
0.0510582
0.266288
0.172823
0.124211
0.0194063
0.28416
0.0943306
0.171813
0.0861932
0.103545
0.112237
0.16951
0.136205
0.164179
0.142233
0.231671
0.070178
0.0102422
0.00575119
0.18664
0.225611
0.180835
0.0919783
0.409368
0.191595
0.0881843
0.0582596
0.0861848
0.118694
0.182474
0.219132
0.23218
0.378361
0.138551
0.0331942
0.0258963
0.0460284
0.0182553
0.0361727
0.0473006
0.168226
0.367579
0.27639
0.066626
0.0756072
0.0281081
0.0804114
0.00337585
0.034631
0.174019
0.409289
0.0836501
0.0668982
0.0463309
0.0719827
0.0489091
0.0614922
0.0515915
0.231973
0.27096
0.156766
0.231872
0.235801
0.0501308
0.0740761
0.00810128
0.0161873
0.167797
0.215071
0.176153
0.16768
0.190359
0.0695903
0.139829
0.0368902
0.0655442
0.157507
0.156042
0.219453
0.26407
0.122121
0.0528871
0.146153
0.0716308
0.0811967
0.0752159
0.12186
0.118059
0.1905
0.477874
0.125791
0.106457
0.0348347
0.0250868
0.0646902
0.275843
0.0996497
0.0654422
0.216066
0.0691441
0.147123
0.178642
0.0587732
0.0727906
0.118742
0.214165
0.119137
0.0789952
0.0491436
0.110662
0.0664052
0.176771
0.272832
0.143005
0.0383377
0.0609965
0.0742575
0.0874339
0.0775379
0.107257
0.195604
0.434522
0.195867
0.0764587
0.0424968
0.100258
0.0901354
0.147184
0.232144
0.194911
0.166816
0.148631
0.0620442
0.126679
0.104918
0.211853
0.0786103
0.165732
0.211614
0.188337
0.168396
0.0173307
0.031716
0.0956346
0.0600637
0.10846
0.171107
0.0624539
0.13867
0.211752
0.169771
0.0398517
0.1608
0.0600985
0.110616
0.338325
0.186928
0.0618007
0.103098
0.0201622
0.088316
0.153102
0.122668
0.0486264
0.188553
0.179388
0.101028
0.0971667
0.0401784
0.102218
0.137976
0.118161
0.0627296
0.344958
0.443073
0.117296
0.0643175
0.091779
0.0248345
0.108358
0.121552
0.0535011
0.167151
0.138999
0.0989013
0.085383
0.0198551
0.0430987
0.0958968
0.160464
0.0936851
0.163381
0.131299
0.279256
0.0744301
0.0342651
0.0948966
0.153712
0.120222
0.0759327
0.195089
0.196365
0.102228
0.319894
0.108293
0.165006
0.219644
0.134275
0.140354
0.116794
0.078255
0.495272
0.133843
0.00927384
0.0254435
0.0389851
0.087745
0.0866373
0.0414678
0.0908018
0.111654
0.207703
0.0553417
0.0297942
0.0755914
0.048163
0.15758
0.173356
0.15998
0.0957571
0.21472
0.081267
0.116119
0.0637784
0.0587925
0.067577
0.027315
0.214866
0.338534
0.318283
0.304473
0.135603
0.136815
0.039056
0.0416802
0.132527
0.356677
0.326781
0.129378
0.062522
0.0323185
0.0585527
0.0302281
0.0490775
0.102799
0.0948075
0.131636
0.175929
0.265086
0.138047
0.0651287
0.0819906
0.0105794
0.0226876
0.0726205
0.191406
0.314481
0.193132
0.0841863
0.0814732
0.017329
0.0064861
0.144712
0.155732
0.239558
0.384599
0.147091
0.162235
0.0747213
0.106492
0.153766
0.147213
0.311292
0.3052
0.133391
0.264832
0.210819
0.211752
0.140978
0.00731783
0.0137291
0.0359871
0.0689398
0.0390852
0.0781403
0.116956
0.30135
0.170817
0.0303472
0.00609109
0.0174822
0.0259153
0.173764
0.169244
0.170079
0.274363
0.374673
0.211182
0.0423525
0.235473
0.0861484
0.0289536
0.0915597
0.0732373
0.215817
0.316849
0.0497571
0.0142195
0.0463929
0.0111893