0.117731
0.0024472
0.00140964
0.00328917
0.221287
0.0239419
0.0103129
0.0375685
0.146223
0.152433
0.117936
0.0721484
0.0230242
0.187931
0.0125928
0.00541313
0.0149705
0.0964489
0.084226
0.0139999
0.00986751
0.0452786
0.124464
0.0220607
0.0138503
0.00648634
0.0569239
0.177308
0.283109
0.483373
0.504675
0.317035
0.119104
0.0204181
0.00238234
0.0464479
0.0852117
0.0749579
0.0422138
0.00402124
0.0236592
0.000481036
0.00273308
0.0163672
0.109326
0.100154
0.0262119
0.0136832
0.00477414
0.0599673
0.00119987
0.0580181
0.14209
0.278011
0.124527
0.184935
0.285211
0.173903
0.0913866
0.0298959
0.0148816
0.070261
0.223721
0.147936
0.0699273
0.0943127
0.0394223
0.019894
0.00647305
0.214231
0.487819
0.509498
0.0625827
0.000183567
0.0115297
0.0161348
0.046943
0.023944
0.0467075
0.117312
0.177915
0.0481928
2.62239e-005
0.0192161
0.019874
0.0676269
0.039197
0.0074449
0.037511
0.103286
0.0813558
0
0.0016471
0.00197545
0.001343
0
0.182569
0.442735
0.485414
0.0862458
0
0.00274516
0.00274516
0.00704689
0
0.168258
0.485414
0.364686
0.0239158
0
0.00927224
0.00927224
0.0821018
0.0189135
0
0.000921391
0.0322083
0.000453708
0
0
0
0
0
0
0
0.000453708
0.0951872
0
0.00132461
0.00132461
0.00924296
0
0.259758
0.784987
0.343168
0.0159863
0
0
0
0
0
0.0211854
0.156881
0.196417
0
0
0
0
0
0
0
0
0
0
0
0
0
0
0
0
0
0
0.0541338
0
0
0
0
0
0
0.104976
0.293579
0.0120033
0
0
0
0
0
0
0
0.0180958
0
0
0
0
0
0
0
0
0
0.0413808
0.0179201
0
0
0.272314
0.023738
0
0
0.0369008
0
0
0
0
0
0
0
0
0
0.0541932
0.125441
0
0
0.674354
0.0507641
0
0
0.022833
0.160187
0.01157
0
0
0.15412
0.0161718
0
0
0.155354
0.251843
0.00694201
0
0
0.25144
0.0151141
0
0
0.246874
0.133791
0.0809902
0
0
0.315873
0.0412763
0
0.0046549
0.232355
0.192533
0.0485941
0
0
0.487422
0.0791699
0
0.00775816
0.378403
0.142226
0
0
0
0.30005
0.00860341
0
0
0.140496
0
0
0
0
0.0198006
0
0
0
0
0.105746
0
0
0
0.618805
0.0865009
0
0.00414892
0.211643
0.00409948
0
0
0
0.020618
0
0
0
0.00409948
0.0341555
0.00729271
0.0218099
0.0211211
0.168008
0
0
0.0194233
0.0358098
0.225022
0.127856
0.388128
0.0632275
0.225224
0.0592959
0.0487763
0.188258
0.24835
0.0185355
0
0
0.0023929
0.0249254
0
0
0.011654
0.0222081
0.124018
0.0226706
0.0347974
0.00681692
0.029419
0
0
0.0194233
0.0959198
0.00792069
0.00314344
0.00226303
0.0191541
0.0800708
0.0281121
0.0199742
0.00221936
0.000585984
0.0187874
0.0408755
0.109876
0.252809
0.550253
0.208658
0.0332904
0.00369893
0.00123179
0
0
0
0.0111391
0.0881702
0.019486
0.0119845
0.00133161
0
0
0
0
0.134975
0.668386
0.164298
0.0199742
0.00221936
0
0.0316828
0.050198
0.120495
0.188634
0.419687
0.103592
0.00969476
0.0282959
0.0693428
0.0653535
0.0232413
0.0424043
0.0577009
0.120451
0.0233232
0.0893617
0.222138
0.339997
0.00274805
0
0.000414055
0.136205
0.589002
0.0873694
0.00237619
0.000528025
0.00322191
0.019382
0.0207292
0.00808069
0.0791292
0.333617
0.0373006
0.000623445
0.0284815
0.0638943
0.0496842
0.00266861
0.00124367
0.0022212
0.00390948
0.000294052
0.106499
0.302072
0.343142
0.0880708
0.00841804
9.53076e-005
0
0
0
0.320682
0.51917
0.269824
0.0260056
0.0186803
0.00563094
0.0056843
0.0428579
0.00999296
0.0390355
0.119862
0.0932245
0.0918785
0.0160633
0.000667153
0
0.00332724
0.00153954
0.249105
0.403283
0.109111
0.0422201
0.00594706
0
0
0
0
0.200611
0.353234
0.137552
0.021461
0.00084958
0
0
0
0
0.125116
0.279519
0.175583
0.0585502
0.00991176
0
0
0
8.89431e-005
0.230737
0.395303
0.156123
0.0331893
0.00141597
0
0
0
0
0.238601
0.464764
0.363024
0.0207569
0
0
0
0
0
0.0247481
0.136435
0.10161
0.00501931
0
0
0
0
0
0.000850472
0.0415779
0.039259
0.0323545
0
0
0
0
0
0.22679
0.541096
0.295003
0.0179013
0
0
0
0
0
0.280857
0.541096
0.330253
0.000815965
0
0
0
0
0
0
0.00851352
0.011868
0.00252599
0.0078969
0
0
0.126027
0.0271792
0.00152805
4.78807e-005
0.000982693
0.0741829
0
0
0
0.0011048
0.00331439
0.206898
0.60489
0.61067
0.0588405
0
0
0
0.0567465
0.0433114
0.0615033
0.228744
0.173816
0.0503676
0.0155878
0
0
0.209605
0.0616983
0.00301623
0.00243532
0.132027
0.118343
0.00935267
0
0
0.357147
0.0808809
0.011059
0.00505591
0.267838
0.0551277
0
0
0
0.218661
0.0707612
0.00724029
0.0128895
0.125943
0.242612
0
0
0
0.540107
0.116503
0.0184317
0.00755912
0.443086
0.065355
0
0
0
0.284665
0.0541873
0.0202795
0.00714673
0.123046
0.00352512
0
0
0
0.0261202
0.0067687
0.00289708
0.0035654
0.0111268
0.216961
0
0
0.0196961
0.650458
0.117461
0.0337992
0.0417684
0.447627
0.0293302
0
0
0.0328268
0.198397
0.0186305
0.00482846
0.0249578
0.133256
0.0019761
0
0
0
0.0137967
0
0
0
0.00943173
0.00569059
0
0
0
0
0
0
0
0.00569059
0.00289942
0
0
0.0468435
0.274776
0
0
0
0.0550888
0.011575
0
0
0
0
0
0
0
0.011575
0
0
0
0.021292
0.0662797
0.00104623
0
0
0
0
0
0
0.257661
0.58444
0.0143422
0
0
0
0
0
0
0.0221945
0.147378
0
0
0
0
0
0
0
0.406957
0.58444
0.00084532
0
0
0
4.35672e-005
0.000827777
5.22245e-005
0.220857
0.543085
0.013585
0
0
0
0.000184171
0.00848674
0.00214235
0.0829793
0.252655
0.0241974
0.00186623
0.00732147
0.00546065
0.000462363
0.00626662
0
0.366061
0.543085
0.00217525
0
0
0
0.000770605
0.0104444
0.000111036
0.104407
0.301497
0.0124823
0.0017882
0.000347605
0.000420869
0.00246572
0.0302384
0.0119342
0.0452982
0.274393
0.0703322
0.109069
0.151067
0.0486194
0.0478745
0.0119815
0.0146628
0.0166795
0.0350668
0.0215769
0.449941
0.500389
0.0659702
0.000432361
0.00623263
0.00905346
0.0742022
0.450622
0.0737222
0.0404088
0.0114456
0.00474291
0.00920724
0.00351268
0.0261028
0.0555385
0.122872
0.059158
0.141643
0.121735
0.00878773
0.0212863
0.00299765
0.00152574
0.00184709
0.000779609
0.000540289
0.173859
0.300138
0.102071
0.0152751
0.000428236
0
0.000122311
6.43742e-006
0
0.189877
0.71527
0.351756
0.0105516
0.00311144
0.00607534
0.0156263
0.0111029
0.00367037
0.065901
0.111627
0.0144596
0.00846814
0.00215124
0.0104487
0.00933109
0.00191703
0
0.126077
0.298851
0.0623687
0.00422455
0
0
0
0
0
0.164377
0.457944
0.15038
0.0112657
0
0
0
0
0
0.272931
0.467386
0.367141
0.00394862
6.13446e-005
0.00172588
0.00123742
0.000653114
0
0.0724925
0.180521
0.0721757
0.0162651
0
0.000135683
0.000251983
9.33021e-005
0
0.128151
0.366705
0.268981
0.0175578
0
0
0
0.000709346
0.00212804
0.181401
0.340452
0.201872
0.0284069
0
0
0
0.00644119
0.0150862
0.216323
0.266884
0.118188
0.0078293
0
0
0
0.000425607
0.00127682
0.231416
0.337061
0.16644
0.0268296
0
0
0
0.00300611
0.00893775
0.414832
0.414832
0.309986
0.0342181
0
0
0
0.0430759
0.0112503
0.0749503
0.089044
0.113531
0.066722
0
0.000974107
0.000324702
0.136623
0.0310073
0.0168124
0.0262889
0.155234
0.0485147
0
0
0
0.00572919
0.00424778
0.378839
0.47724
0.284203
0.0973873
0
0.00681875
0.00227292
0.0477341
0.0177173
0.313263
0.47724
0.285713
0.0953196
0
0.00229708
0.0249631
0.257919
0.0625274
0.00224628
0.0122438
0.217843
0.0323233
0
0.000328154
0.0404384
0.151829
0.0117529
0.000295335
0.00414961
0.0821328
0.226707
0
0.0160796
0.0198783
0.170182
0.0452405
0.207345
0.506348
0.472681
0.115566
0
0.0099637
0.0249631
0.19181
0.0140531
0.119978
0.227511
0.194689
0.000557665
0.000369458
0
0.00467933
0.0190932
0.000351129
0
0
0.0013933
0.025517
0.0357664
0.0126856
0.00273732
0.00147394
0
0
0
0.0155292
0.026145
0.0446381
0.10015
0.0028076
0.0341517
0.00154429
0.0227515
0.0174618
0.0128589
0.129631
0.68019
0.656429
0.0268904
0.00501456
0
0
0
0.0310268
0
0
0
0.00674228
0.137171
0
0
0
0
0
0
0
0.160585
0.644223
0.00788444
0
0
0
0
0
0
0.00805779
0.191869
0
0
0
0
0
0
0
0.156727
0.644223
0.0204038
0
0
0
0.000595093
0.00376338
0.000903795
0.168955
0.598676
0.00914394
0
0.000141729
0.000566918
0.00139586
0.00641753
0.00212817
0.0587121
0.252942
0.00806677
0.000470783
0.000236215
0.000944863
0.000282877
0.00084863
0.00150632
0.145931
0.598676
0.0371209
0.00316435
0.000992105
0.00396842
0.00329975
0.00176984
0.00344349
0.0466823
0.317643
0.0462141
0.00533098
0.00165351
0.00661404
0.00734821
0.0106578
0.0311887
0.119302
0.4878
0.0629331
0.00913315
0.000184183
0.000736732
0.016276
0.021826
0.0666381
0.0659279
0.180082
0.0801817
0.0186818
0.00770095
0.00246405
0.0463916
0.0211905
0.0783157
0.129588
0.596055
0.130952
0.00625465
0.00153858
0.00515712
0.0399414
0.0693524
0.192364
0.108515
0.17551
0.0468562
0.0189078
0.00357171
0
0.0544919
0.0443346
0.059002
0.0748161
0.13299
0.0485913
0.028893
0.0582808
0.0222859
0.0759811
0.0501569
0.108073
0.0583758
0.0498885
0.0164236
0.130593
0.281031
0.078946
0.0235658
0.0560484
0.123283
0.144868
0.202266
0.0510553
0.0248955
0.00364931
0.0107381
0.341726
0.101138
0.121109
0.440724
0.327853
0.0638767
0.0252465
0.036668
0.0963161
0.0472268
0.00817659
0.0157381
0.00866978
0.0154979
0.00774326
0.0781683
0.16723
0.0954999
0.0763137
0.0094031
0.00950252
0.00346099
0.0107468
0.00464596
0.174012
0.395806
0.323255
0.362435
0.0578113
0.016038
0.182761
0.122721
0.029528
0.0915043
0.0812357
0.153589
0.302812
0.0684067
0.0172797
0.126984
0.251785
0.0294042
0.15208
0.183867
0.269076
0.0112978
0.00142955
0.00153554
0.000521518
0.000550366
0
0.107792
0.267426
0.165276
0.01048
0
0.00016849
0.000312911
0
0
0.289834
0.677247
0.392097
0.0112208
0.00837477
0.00781095
0.0134205
0.0376367
0.00323383
0.0216992
0.124578
0.0685783
0.0031504
0.00453258
0.0108361
0.00242127
0
0.00239413
0.0843793
0.291214
0.0992797
0.00801052
0
0
0
9.73814e-005
0
0.199217
0.446068
0.165494
0.0424546
0
0.00256155
0.00085385
0.00471048
0.0010072
0.288086
0.482416
0.286261
0.00155544
0.00155475
0.00143553
0
0
0.00125774
0.0596871
0.189678
0.0749266
0.0103286
0.000884566
0
0
0
0.000179677
0.0960302
0.432703
0.212142
0.0487638
0
0.00204225
0.000680751
0.00859317
0.00135209
0.162792
0.412772
0.161655
0.0272494
0.0155717
0.021905
9.72501e-005
0.0223989
0.00320413
0.234142
0.308953
0.111742
0.0114245
0.000331793
0
0
0.000311272
0.000244607
0.139889
0.412285
0.135547
0.0465369
0.0646627
0.0443202
0.00152306
0.00217891
0.00171225
0.299752
0.415806
0.299203
0.0112577
0.100228
0.199066
0.00264916
0.00738194
0.00113587
0.0600254
0.0501198
0.0695463
0.0326657
0.390628
0.431565
0.0338224
0.0030808
0
0
0.000657284
0.0140549
0.0635523
0.266246
0.291315
0.00707991
0.00103107
0.00173456
0.0812299
0.131114
0.24161
0.0436523
0.348732
0.431565
0.0447704
0.00207976
0.00178856
0
0.0035204
0.0379038
0
0
0
0.0092291
0.139544
0
0
0
0
0
0
0
0.118902
0.585259
0.0120738
0
0
0
0.00509613
0.00023592
0.00070776
0.0523725
0.173009
0.00154421
0.000212498
0
0.00509613
0.00113566
0
0
0.436666
0.585259
0.00480248
0.000127499
0
0.00113566
0
0
0.000214036
0.109844
0.5971
0.0333082
0.00538051
0.000383195
0.00153278
0.00109241
8.68517e-005
0.00161497
0.0572069
0.215813
0.0421346
0.00896752
0.000638658
0.00255464
0
0
0
0.304039
0.5971
0.0202105
0.00764664
0
0
0
5.9051e-005
0.001395
0.110608
0.233786
0.0568773
0.0129835
0
0
0.0231475
0.0142941
0.0600744
0.207298
0.47414
0.109649
0.010908
0.001341
0.00390499
0.0320055
0.0411413
0.130841
0.11255
0.101246
0.0460457
0.0468142
0.011302
0.0118754
0.00879229
0.0184904
0.0398607
0.286567
0.494095
0.237741
0.0192231
0.00204212
0.00626538
0.0471677
0.0562051
0.0709635
0.0962596
0.113786
0.10518
0.0352839
0.0139208
0.0438576
0.01072
0.0243414
0.0573649
0.0839086
0.086837
0.0487693
0.0349676
0.00815821
0.00534975
0.264879
0.058008
0.0475678
0.411784
0.449893
0.101325
0.0482121
0.0760041
0.107741
0.0186295
0.0297452
0.0448433
0.0507893
0.0984755
0.101379
0.0222472
0.00734648
0.0168508
0.165844
0.0284122
0.0335842
0.193745
0.350133
0.110891
0.0595168
0.0484064
0.143167
0.344047
0.0451847
0.00553654
0.276269
0.215373
0.0444892
0.12201
0.129792
0.150253
0.268772
0.0433209
0.00834041
0.300664
0.331166
0.0359823
0.153235
0.132863
0.148584
0.222254
0.0163216
0.00748504
0.132126
0.123529
0.0423239
0.0677141
0.0643275
0.168511
0.193904
0.0192715
0.0192319
0.189616
0.121526
0.0495932
0.0622407
0.0477836
0.132908
0.0603962
0.0440122
0.053461
0.203822
0.379635
0.0480961
0.0862611
0.165629
0.159363
0.05994
0.0670569
0.109092
0.0170643
0.0117631
0.0478546
0.117205
0.403672
0.175825
0.0774074
0.0671827
0.0859351
0.131693
0.15909
0.0892693
0.0449682
0.0271137
0.0841839
0.138625
0.170508
0.125972
0.0495712
0.0558735
0.0893705
0.0703857
0.0334689
0.0823177
0.0235618
0.0254906
0.0172509
0.00505834
0.00112168
0.0165591
0.0626307
0.264038
0.0516478
0.0248634
0.0161477
0.00834212
0.0062593
0.000876915
0.00596159
0.107834
0.721882
0.206933
0.0677897
0.100635
0.0252282
0.0354084
0.0150292
0.0219497
0.00917961
0.0291831
0.0535359
0.17334
0.297492
0.0211454
0.0438151
0.00489564
0.00850652
0.0175641
0.179864
0.142164
0.0226242
0.00442049
0.00057309
0.00118269
0.00093092
0
0.115484
0.397158
0.146011
0.193985
0.0974669
0.0705765
0.0303806
0.0105675
0
0.19857
0.476749
0.487707
0.129927
0.153292
0.011065
0.00945397
0.0069823
0.00419273
0.0444113
0.120663
0.0747599
0.180553
0.0881714
0.0659178
0.0771716
0.111681
0.00971352
0.0775505
0.0940007
0.142965
0.262188
0.353765
0.281959
0.0449161
0.0155401
0.0128816
0.0522917
0.149298
0.388339
0.170308
0.404934
0.317078
0.0447174
0.016688
0.0221433
0.000362884
0.0115226
0.061018
0.0867265
0.0422404
0.0893918
0.0877828
0.155232
0.0283814
0.0379854
0.0338629
0.072624
0.0851825
0.165811
0.0575087
0.0620374
0.114764
0.0406535
0.0442226
0.166771
0.050926
0.00733415
0.00359658
0.0116774
0.0605948
0.12791
0.00361814
0.000481295
0
0.00791788
0.00217255
0.000882715
0.0612914
0.453507
0.465244
0.00176366
0.000288777
0
0.00215685
0.00780636
0.0106189
0.0264219
0.114928
0.205713
0.0408941
0.000288777
0
0.00877923
0.00283271
0.00458796
0.113618
0.465244
0.465244
0.0617921
0.000173266
0
0.00280654
0
0
0.036554
0.408057
0.479104
0.0078735
0.0110004
0
0
0
0.0001774
0.000731251
0.110202
0.177149
0.0458405
0.0185983
0.00057575
0.000101603
0
0
0.0706566
0.385848
0.528534
0.037988
0.00521929
0
0
0
0.00010644
0.0138373
0.167206
0.18347
0.0280944
0.00941535
0.000959583
0.000169338
0.00442999
0.015575
0.0283203
0.186512
0.414763
0.268851
0.0311285
0.0170037
0.00919621
0.0304746
0.0618933
0.0715161
0.111724
0.0747743
0.0697627
0.0160466
0.0368055
0.0541689
0.00724597
0.010086
0.0452852
0.387398
0.381185
0.150088
0.0265436
0.0232517
0.0128054
0.0319005
0.0546466
0.0749428
0.195711
0.0981754
0.0577812
0.0392629
0.0451513
0.0611138
0.0174549
0.0352827
0.0648589
0.147195
0.0919063
0.0785744
0.0139683
0.035087
0.0331531
0.0493453
0.00860167
0.035473
0.150284
0.165655
0.145436
0.0964683
0.0267501
0.0512613
0.0732661
0.0853222
0.0491491
0.144759
0.0832301
0.0842747
0.0695385
0.0906461
0.071515
0.174259
0.512974
0.03407
0.0410946
0.092811
0.203518
0.20477
0.130304
0.0339729
0.0545436
0.0140249
0.0116747
0.0272506
0.0205415
0.0369003
0.0522543
0.0102507
0.0449834
0.0824038
0.0500307
0.0210396
0.0177263
0.00452766
0.0423004
0.0487907
0.0118486
0.0628238
0.11964
0.35341
0.0417812
0.0035727
0.0135803
0.0485776
0.0490622
0.0161734
0.0217487
0.325091
0.711261
0.121361
0.00159457
0.00244903
0.0263953
0.0268391
0.0079094
0.110507
0.0429282
0.0582272
0.0169132
0.00185286
0.00448402
0.00833466
0.0079484
0.00277727
0.0233979
0.102617
0.234392
0.0275741
0.00409547
0.0102493
0.00641715
0.0116206
0.0032893
0.0175179
0.213009
0.304957
0.0662943
9.47874e-005
0.00186684
0.00331475
0.00374631
0.00228212
0.090977
0.423479
0.673625
0.134485
0
0.00220726
0.00707421
0.0033261
0.000739238
0.148058
0.0483942
0.104237
0.00390144
0.00344
0.0033913
0.00293079
0.00217024
0.00205235
0.012253
0.114098
0.160357
0.00259675
0.00425673
0.000707977
0.00569342
0.0017402
0.00398141
0.0337995
0.242172
0.311578
0.0857143
0
0.000457959
0.00921943
0.00259789
0.000222874
0.0420959
0.550026
0.534252
0.354214
0
6.54228e-005
0.0126934
0.0038261
0.000260464
0.114016
0.109204
0.098124
0.0145111
0.00213761
0.00125502
0.00505782
0.00198571
0.00340015
0.0171317
0.176112
0.107451
0.0375712
0.0139383
0.0226969
0.0109415
0.0173452
0.0345763
0.0511164
0.437294
0.335157
0.243893
0.000656574
0.000340811
0.0042652
0.000869627
0.000176013
0.075326
0.444031
0.442598
0.165198
0.00459602
0.00979541
0.0295128
0.145225
0.207729
0.175394
0.0907737
0.0476637
0.0186498
0.0132448
0.0412533
0.0258705
0.0453035
0.059941
0.0727951
0.0172896
0.01407
0.00490113
0.00865648
0.0234341
0.0222669
0.0468848
0.10283
0.044807
0.198062
0.170626
0.0292827
0.00259016
0.0151734
0.157017
0.569335
0.373308
0.168677
0.0156231
0.0060512
0.000246829
0
0.00335892
0.157425
0.507565
0.180445
0.042478
0.00487488
0.00326974
0.00683516
0.0622329
0.212075
0.0832034
0
0.00123317
0.005237
0.00225382
0.00172552
0.0207168
0.211063
0.535588
0.138401
0.00101713
0
0.00224994
0.00333003
0
0.0151637
0.161029
0.28313
0.045774
0
0.00205529
0.00369272
0.00117015
0
0.0244914
0.372237
0.535588
0.0762098
0.00227232
0
0.00117015
0
0
0.0287774
0.16732
0.555239
0.0723271
0.00504421
0
0
0.000905673
0.000301891
0.030178
0.141617
0.115207
0.0228651
0.00660476
0.000550195
2.76247e-005
0.00275171
0.000416663
0.0173779
0.203267
0.685985
0.0455455
0.0112691
0.0045651
0.00222633
0.0202132
0.0414067
0.0344775
0.081583
0.169777
0.0298673
0.0112762
0.0326118
0.00979735
0.0257353
0.0108379
0.0175231
0.141974
0.0691186
0.0363355
0.0240862
0.015202
0.00333788
0.0725055
0.135572
0.0222936
0.0393262
0.0189104
0.0285311
0.0274752
0.0276135
0.0257014
0.177661
0.253638
0.118821
0.0792942
0.0851288
0.0420072
0.0273456
0.0569506
0.0187847
0.439288
0.655514
0.148531
0.0127115
0.00214133
0.0146941
0.0189116
0.0440588
0.12564
0.0351145
0.0897382
0.0121261
0.00326306
0.00421907
0.00624189
0.00632587
0.00671356
0.0137951
0.0662114
0.2161
0.0254272
0.000109069
0.00171313
0.0052966
0.00944869
0.012669
0.0179025
0.170496
0.295308
0.0473233
0.000507208
0.00028341
0.00145432
0.00115346
0.0134878
0.111663
0.517548
0.627074
0.0464169
0
3.66736e-005
8.55717e-005
0.000632946
0.0272638
0.268867
0.0518934
0.136003
0.0134477
0
0.000193066
0.00190371
0.00212997
0.00353566
0.0117524
0.129887
0.221843
0.0267953
0
2.75808e-005
0.000599056
0.000359113
0.00085841
0.0429149
0.358634
0.3394
0.0733048
0
0
0
7.62475e-005
0.00643515
0.189031
0.352193
0.577814
0.277413
0.00874825
0.000460434
0
0
0.00124021
0.181587
0.125289
0.143425
0.0187152
0
0
9.95825e-005
4.26783e-005
5.30117e-005
0.0492167
0.19843
0.389798
0.0826592
0
0
0.000661777
0.000165444
7.5731e-006
0.05295
0.283797
0.441567
0.0919671
0.00566976
0.000298408
0.00475775
0.0142732
0
0.11928
0.439964
0.441567
0.129199
0.0239948
4.26298e-005
0.00792958
0.0237887
0
0.10688
0.173273
0.41926
0.168057
0
0.000964178
0.00193217
0.00049083
0
0.0172678
0.313503
0.425585
0.321544
0
0.00167048
0.00175735
0.000493846
0
0.0596324
0.163871
0.426447
0.170858
0.0236982
0.00770293
0.00109692
0.00329075
0
0.0227112
0.143021
0.236297
0.142366
0.00338546
0.0142015
0
0
0
0.0357406
0.452667
0.404068
0.363018
0
0.000824222
0.00044281
0.000147603
0
0.134446
0.38504
0.301387
0.148541
0
0.0362403
0.0586491
0.220277
0.182699
0.190546
0.12833
0.0738077
0.0607872
4.40317e-005
0.00452594
0
0
0
0.0610739
0.052562
0.0110047
0.0133349
7.33862e-005
0.0251213
0.0328384
0.04347
0.0247242
0.0370198
0.041191
0.0332599
0.00475712
0
0.019523
0.113315
0.420014
0.17134
0.0369024
0.000899774
0.000378506
0
0
0.00972632
0.141046
0.4812
0.180529
0.00283197
0.00473612
0
0.000102115
5.37447e-006
0.0171646
0.0879256
0.234436
0.0912863
0.00428845
0
0
0
0
0.0278369
0.276861
0.4812
0.254557
0
0.000996449
0
0.0351895
0.188357
0.203471
0.00988465
0
0.000252519
0.00104101
0
0
0.0604391
0.373439
0.451241
0.0208304
0.00347331
0.0003657
0.000156729
0.00014235
0
0.0209042
0.126257
0.367231
0.140391
0.0298402
0.00534533
0.00014235
0.0361933
0.0119008
0.0402304
0.220786
0.451241
0.284956
0.131324
0.0493851
0.0425376
0.00922506
0.00113705
0.0195211
0.143307
0.282245
0.0205382
0.00807471
0.00526221
0.00566366
0.0887744
0.0578557
0.0200342
0.0103225
0.0542021
0.0165162
0.00351665
0.0266551
0.0213361
0.189135
0.160335
0.0333339
0.0703396
0.193578
0.105231
0.0863062
0.0490756
0.10404
0.5439
0.590075
0.18795
0.00290167
0.00531264
0.010818
0.00506428
0.0125537
0.0898957
0.100347
0.0842499
0.0257801
0.00109589
0.00564907
0.00322412
0.000605197
0.00658656
0.00804972
0.198424
0.277801
0.0481556
5.51993e-005
1.83998e-005
0.000285551
0.000285495
0.00236731
0.02848
0.400758
0.405184
0.125912
0.000681028
0.000362774
0.00150606
0
0.000862928
0.0564397
0.455346
0.467701
0.195536
0.00233407
0.00269663
0
0
0.000226492
0.089195
0.170027
0.33249
0.0335818
0
0
0
4.63664e-006
0.004185
0.0503341
0.337033
0.433837
0.0185183
0
0
0
4.62318e-005
0.00702967
0.117293
0.235316
0.433837
0.0855515
0.00176599
0.0029172
0
0
0.000541734
0.053629
0.272587
0.405851
0.0198159
0.00262882
0.00346063
0
0.000323622
0.00220694
0.0690237
0.384962
0.348138
0.0638758
0
0
0
0.000172477
0.00219983
0.26355
0.252392
0.492578
0.273907
0.0214876
0.0177357
0.00422584
0.00149485
0.00127699
0.25003
0.218047
0.156013
0.013902
0.00326167
0.00680827
0.00130985
0.00120734
0.00907814
0.165964
0.143714
0.0731529
0.0661744
0.0133585
0.046461
0.0104627
0.010464
0.0173756
0.172755
0.199763
0.401968
0.127933
0.0262935
0.0441604
0.0211516
0.0446106
0.00309289
0.15666
0.433052
0.232153
0.0384666
0.0433104
0.0559516
0.0337539
0.0757216
0.0302587
0.222365
0.0661918
0.0358641
0.0276593
0.0157761
0.129477
0.0692986
0.0603902
0.0323907
0.0768767
0.26057
0.00418735
0
0.00790432
0.313395
0.184791
0.113278
0.257078
0.270382
0.20026
0.127768
0.0306782
0.0396728
0.0194567
0.0177927
0.0256775
0.0729169
0.130707
0.115163
0.0308694
0.0117015
0.0134971
0.0192298
0.0113921
0.0155105
0.0557995
0.0832475
0.20295
0.000985648
0
0.00566755
0.175454
0.236214
0.136166
0.33249
0.314976
0.253684
0.000429433
0
0.013859
0.226902
0.212937
0.278081
0.289096
0.396667
0.101433
0.00162204
0.00387537
0.0148703
0.0359734
0.0165963
0.0116001
0.015613
0.0650853
0.0457045
0.00520273
0.00645894
0.00243514
0.0504048
0.0139195
0.00332065
0.00498548
0.0406628
0.281843
0.00134761
0.00232522
0.0245663
0.164426
0.121298
0.33219
0.447758
0.407916
0.216156
0.00867122
0.00387537
0.00369596
0.0804784
0.0598967
0.139826
0.266074
0.377932
0.00441934
0.000981594
0.000448298
0.000376437
0.0298165
0.0303888
0.047936
0.0239909
0.00441934
6.58234e-006
0.0312829
0.0398268
0.0893959
0.132157
0.253633
0.495493
0.102719
6.58234e-006
0.0741365
0.0511852
0.0303127
0.00871445
0.0463827
0.00985738
0.0181615
0.0159373
0.0716636
0.0535031
0.160669
0.560687
0.390595
0.267692
0.0540841
0.064148
0.00222985
0.0134484
0.00529234
0
0
0.0166669
0.2625
0.194461
0.111571
0.0295865
0.0296592
0.230424
0.0511989
0.0170663
0.0271827
0.283917
0.377005
0.356208
0.18814
0.300169
0.0152999
0
0
0
0.0401162
0.0452608
0.065294
0.0247815
0.0559113
0.2684
0.0307193
0.0102398
0
0.0235744
0.0743799
0.171779
0.116688
0.394467
0.303517
0.247098
0.0375727
0.0029659
0.0323297
0.0565392
0.0804495
0.0598269
0.193128
0.422743
0.498318
0.147583
0.00124242
0.00926448
0.00258238
0.00119944
0.00342553
0.0672402
0.2815
0.129136
0.0212895
0
0.00136216
0.010522
0.032992
0.0301118
0.213299
0.271077
0.241518
0.0309217
0.0035181
0.0820812
0.0102549
0
0.00182718
0.0868971
0.413825
0.502702
0.176511
0.00366739
0.0156774
0.00654252
0
0
0.107779
0.352215
0.392179
0.128215
0.00511136
0.0148577
0.0103327
0
0
0.147003
0.166477
0.112788
0.024256
0.00890037
0.145189
0.064129
0
0.00605369
0.154374
0.0988515
0.0172356
0.00396291
0.0220264
0.142464
0.107406
0
0.00555561
0.158975
0.377356
0.571521
0.146496
0.0105457
0.033165
0.00586286
0
0
0.136825
0.253661
0.181357
0.0169994
0.0411513
0.113242
0.0356219
0.00193547
0.0236732
0.103191
0.091566
0.00363263
0
0.0256894
0.193389
0.0629103
0
0.00636485
0.18225
0.0502732
0.0227371
0.00257177
0.0308383
0.332944
0.115992
0.00857174
0.0222087
0.0795299
0.167007
0.0551765
0.00463794
0.0609732
0.102378
0.0863114
0.00788228
0.111783
0.119548
0.140334
0.0439161
0.000662563
0.066703
0.143946
0.100091
0.0250995
0.139275
0.188077
0.108773
0.0672816
0.00278276
0.129218
0.337341
0.191514
0.0357002
0.0984744
0.154207
0.0937999
0.0429604
0.0373738
0.250573
0.404356
0.247917
0.0904575
0.184213
0.30331
0.0457096
0.00428799
0
0.0102758
0.103719
0.0714838
0.035529
0.0526358
0.11989
0.164106
0
0
0
0.254614
0.232261
0.0833596
0.437417
0.34314
0.0425109
0.00061257
0.0590491
0.0816863
0.147683
0.0847083
0.152074
0.0569328
0.331312
0.0710326
0
0.0354295
0.033492
0.204323
0.0410611
0.225882
0.0910797
0.336788
0.0471727
0
0
0
0.108713
0.162337
0.0859332
0.255939
0.18649
0.0634664
0
0
0.00167107
0.218069
0.23118
0.472395
0.321836
0.250559
0.0106177
0
0
0
0.0480814
0.02969
0.0515632
0.0894565
0.0791632
0.00385608
0
0.00866579
0.0571654
0.174281
0.217095
0.400334
0.179243
0.0979396
0.0473345
0.00773574
0.00641886
0.00129431
0.0603828
0.100356
0.266688
0.278989
0.159544
0.178673
0.0695596
0.023377
0.000184901
0.00914056
0.0575551
0.160819
0.202604
0.262066
0.0115248
0.0685294
0.150433
0.124517
0.121282
0.182176
0.238466
0.147133
0.0881158
0.253125
0.343613
0.378678
0.0854576
0.0318615
0.0829415
0.134802
0.10847
0.197129
0.25584
0.152208
0.0403926
0.00487029
0.00602569
0.0125795
0.0340899
0.0190703
0.140937
0.202064
0.29316
0.44272
0.153976
0.079788
0.000289838
0
0.000469177
0.0431676
0.373214
0.301945
0.101714
0.00347443
0
0.00824143
0.0245257
0.00895943
0.147365
0.281625
0.332345
0.163222
0.0429551
0.0212402
0
0
0.000281506
0.087518