0.124604
0.0276283
0.00637758
0.00231258
0.00713173
0.00410887
0
0.0228825
0.214594
0.157232
0.00963762
0.0151045
0.00168125
0.0088838
0.00750259
0.00261786
0.0343169
0.300074
0.337267
0.00496106
0.00382655
0.00138755
0.00427904
0.00246532
0
0.0101023
0.443463
0.277468
0.008137
0.0118822
0.0272775
0.0493561
0.046057
0.018325
0.10539
0.539854
0.111828
0.021034
0.0411382
0.00885467
0.0012595
0.00173414
0.00456066
0.00684837
0.106595
0.232803
0.188044
0.213257
0.0184296
0
0.000684098
0.0027364
0.00049168
0.0823796
0.0439841
0.0144302
0.130905
0.173056
0.0712184
0.0367869
0.0319246
0.0573817
0.122682
0.0222159
0.145634
0.707821
0.379285
0.0420381
0.0121081
0.0191548
0.00756359
0.0100742
0.251461
0.213293
0.0975289
0.00350092
0
0
0
0
0.0244358
0.613129
0.175963
0.0170667
0.000222282
0
0
0
0
0.0463501
0.0884532
0.20411
0.333259
0.10051
0.000419155
0
0
0
0.00216019
0.392387
0.265463
0.0903877
0.017935
0
0
0
0
0.022146
0.463162
0.0307205
0
0
0
0
0
0
0.107975
0.475407
0.00349818
0
0
0
0
0
0
0.273629
0.364195
0.13278
0.00445779
0
0
0
0
0
0.0518128
0.461728
0.0794051
0.00272132
0
0
0.000315075
0.000472612
0
0.184433
0.352862
0.000191047
0
0
0
0
0
4.4388e-005
0.247532
0.413411
0
0
0
0
0
0
0.000967323
0.370591
0.336092
0.0198963
0.00307594
0
0
0.000919109
0.00137866
0.000310716
0.218396
0.29661
0.015084
0.00536779
0.000459845
0
0.000551465
0.000827198
0.00843266
0.433366
0.250691
0.000727599
0
0
0
0
0.00014523
0.0063686
0.35678
0.171892
0.00121267
0
0
0
0
0.00187834
0.0366672
0.579116
0.135852
0.00788193
0.0192625
0.00430768
0
0
0.00161881
0.0591263
0.366066
0.0822445
0.00408637
0.0501362
0.0116194
0
0.00918879
0.0352507
0.130782
0.434836
0.0531435
0.000157512
0
0
0
0.00328964
0.0383527
0.179351
0.34373
0.0134963
0
0
0
0
0.0774295
0.31051
0.356241
0.127962
0.0373046
0.00786208
0.0222587
0.00311149
0.000271721
0.0334075
0.122855
0.130638
0.231979
0.0131874
0.00597269
0.00204308
0
0.00190205
0.302317
0.562219
0.169836
0.075602
0.0512764
0.0205752
0.0148981
0.00677702
0
0.0881571
0.290546
0.17023
0.0587627
0.0690225
0.0527213
0.0309335
0.0127263
0.00446854
0.0155722
0.12191
0.137776
0.138565
0.00421628
0.0117036
0.013987
0.00406621
0.0026897
0.334578
0.66076
0.0979482
0.00797315
0.00309276
0.0367506
0.0407442
0.0465103
0.0510876
0.16067
0.344144
0.108225
0.0228469
0.0289414
0.0946662
0.0543512
0.0758514
0.157841
0.0191739
0.205276
0.223453
0.177847
0.00107258
0.0470275
0.0515552
0.179064
0.279189
0.12028
0.127456
0.0869553
0.043379
0.000543496
0.0563694
0.0569403
0.220029
0.266595
0.167024
0.244831
0.122284
0.0472814
0
0.022573
0.0361386
0.284844
0.340007
0.162391
0.171275
0.0489897
0.0193622
0.216233
0.0011519
0.000800862
0.00240258
0.0026501
0.00479519
0.00112829
0.000791949
0.224992
0.162665
0.000483086
0.0474231
0.144003
0.0464331
0.073303
0.00413333
0.0317678
0.25844
0.12293
0.0113178
0.0288818
0.0809231
0.00817179
0.0175959
0.0106429
0.00764383
0.123823
0.0743137
0.00182287
0.424097
0.677884
0.0441452
0.0840718
0.00638571
0.0076223
0.104903
0.0173013
0.000421517
0.0884533
0.247987
0.0465258
0.0407053
0.00611479
0.0199414
0.0524845
9.1332e-005
0.0114837
0.237328
0.336767
0.0250951
0.00745401
0.00366887
0.00280528
0.00295178
0.00564519
0.00180922
0.393847
0.458221
0.0176243
0.0288562
0
0.00214605
0.0148948
0
0.047915
0.495934
0.28744
0.00590484
0.00290516
0
0.000306579
0.000306579
0.0100005
0.101823
0.237331
0.154561
0.0012241
0
0
0
0.000588715
0.0837244
0.370761
0.152032
0.0259737
0
0
0.000556036
0.000185345
0.00412101
0
0.23156
0.445546
0.0836118
0.00105954
0
0
0
0
0.0116345
0.522206
0.368378
0.0450487
0.00734742
0.00186707
0.00389225
0.00129742
0
0.131813
0.263762
0.0472996
0.00204939
0
0
0.00362069
0.00745683
0.00446311
0.312578
0.211423
0.067138
0.00341566
0
0.000816251
0.00589676
0.011974
0.0334088
0.0345588
0.272003
0.259437
0.139975
0.00937636
0.00157741
0.012845
0.0146982
0
0.302876
0.36456
0.518571
0.205449
0.00733887
0.000715095
0.0126082
0.0213188
0.0126455
0.249372
0.0537582
0.0205765
0.000370365
0
0.00177772
0.00309014
0.001352
0.075788
0.315931
0.0301706
0.0103823
0.000889421
0
0.00106663
0.00159995
0.00295462
0.207802
0.538069
0.167051
0.121948
0.0303081
0.000862095
0.00106663
0.00230587
0.00211778
0.0495049
0.602232
0.0519937
0.00744842
0.000919837
0
0.000639979
0.000959968
0.00016888
0.155818
0.225393
0.0254358
0.0385902
0.00862993
0
0
0.000719455
0.0274221
0.159701
0.230365
0.0425955
0.100442
0.0232781
0
0.00822402
0.02421
0.0748581
0.0991029
0.601422
0.0304215
0.0233009
0.00545052
0
0
6.34031e-005
0.00260149
0.141456
0.601422
0.0623884
0.0603533
0.0141304
0.0159017
0.0325974
0.032816
0.0260609
0.155448
0.137911
0.0495006
0.069608
0.0306397
0.0153432
0.040177
0.0785326
0.0924658
0.0567425
0.0727405
0.051177
0.0101058
0.0353988
0.0299503
0.276635
0.307884
0.0689335
0.0237919
0.318786
0.0661554
0.044282
0.0561219
0.216983
0.258005
0.125792
0.0751373
0.117477
0.196636
0.128983
0.0102589
0.164578
0.30006
0.440694
0.232982
0.0954399
0.0498157
0.0163692
0.0104564
0.00104447
0.00362633
0.00510749
0.188167
0.322531
0.0209918
0.00341312
0.000829432
0.00838657
0.011546
0.037142
0.0328551
0.2089
0.268697
0.0209995
0.000355471
0.0732159
0.032718
0.000671542
0.0354444
0.0287404
0.178127
0.371026
0.0580689
0.0227843
0.00607443
0.00365618
0.00149669
0.0165447
0.0204667
0.311996
0.629832
0.0467272
0.00323603
0
0.0312754
0.0195181
0.110666
0.0831318
0.176851
0.0998922
0.00625829
0
0
0.0180671
0.0131912
0.110203
0.0864693
0.0796281
0.0686693
0.00165918
0
0
0.0180671
0.0027208
0.0519039
0.0770316
0.321795
0.750656
0.0266173
0
0
0.0108403
0.0153964
0.147327
0.200975
0.132553
0.238562
0.00279124
0
0.0102234
0.00830811
0.0314133
0.127371
0.00932776
0.00324978
0.00345639
0.00451339
0.0115948
0.00291079
0.00172848
0.275154
0.550635
0.0121649
0.00761987
0.00207384
0.00227336
0.00370047
0.0137652
0.0101084
0.039108
0.355145
0.039272
0
0.000239862
0.00101596
0.00433088
0.00196646
0.00174838
0.203829
0.60829
0.0470839
0
0.000143917
0.000348776
0.000618697
0.000115318
0.00241348
0.322508
0.299467
0.00207271
0.00158158
0
0
0.000269075
0
0.0349419
0.438125
0.0888322
0.000579016
0.000127076
0
0
0
0.000368671
0.00955818
0.286517
0.503402
0.0156706
0
0
0
1.94038e-005
0.0025807
0.0367961
0.438033
0.158936
0.00441715
0.000889533
0
0.000313879
0.00107746
0
0.185219
0.640386
0.0363439
0.00395223
0.00177187
0.00222443
0.00118558
0.000542792
0.00075714
0.256688
0.305995
0.133539
0.0810717
0.012558
0.00595966
0.00509527
0.00379955
0.00490232
0.0617276
0.421333
0.053143
0.010362
0.0124031
0.00370739
0.00453126
0.00778972
0.00403038
0.0305448
0.0691712
0.119229
0.240974
0.0841232
0.00617898
0.0108402
0.0107498
0.000915419
0.040552
0.120526
0.210569
0.127723
0.0110085
0.00338405
0.00280408
0.000621708
0.0828323
0.103451
0.287402
0.309142
0.207287
0.0189939
0.00258692
0.00273348
0.00227804
0.000242609
0.00191656
0.0115711
0.119467
0.430767
0.111776
0.00402402
0.00134154
0.00110144
0.00693999
0.00804589
0.0408082
0.158898
0.580157
0.216735
0.0592143
0.0144013
0
0.410228
0.162579
0.162575
0.110723
0.1005
0.0156884
0.00122341
0.000513242
0.018275
0.719256
0.0651919
0.00692689
0.00303161
0.00846922
0.00356237
0.000631397
0
0.0691732
0.0464179
0.0239235
0.0372787
0.0606757
0.311251
0.150268
0.0928767
0.0343735
0.00029151
0.0781148
0.0191997
0.00521518
0.00304753
0.0406859
0.0374664
0.0241612
0.0117244
0.00420009
0.694605
0.0236194
0.00123608
0.00191226
0.000252563
0.000217555
0
0
0.130937
0.554957
0.0209309
0.000617808
0.00114736
0.100692
0.0732002
0.0289488
0.0110615
0.223283
0.0500603
0.00688472
0.000961812
0.00114736
0.00693983
0.00345554
0
0
0.0105889
0.0209045
0.000539599
0.000370685
0.000688415
0.0789694
0.02587
0.000493584
0.000883846
0.0202463
0.047398
0.00545165
0.000297068
0.0110911
0.136354
0.228055
0.0408274
0.00670256
0.0354343
0.0343402
0.0200597
0.000495113
0.0633786
0.190834
0.451868
0.0725842
0.0287348
0.0171705
0.000991285
0
0
0.0012025
0.157542
0.235905
0.0252902
0.000365088
0.0029678
0.003825
0.00383756
0.00146532
0.00905382
0.517937
0.517937
0.0503201
0.00360796
0.00466898
0.0236622
0.0090639
7.33491e-005
0.0243884
0.0614947
0.227978
0.123477
0.0377425
0.0142346
0.00271201
0.000741639
0
0.000374523
0.0530243
0.264391
0.437434
0.0678931
0.00203352
0.00713213
0.011419
0.00436021
0.0060275
0.288117
0.355176
0.0354206
0.006498
0.0047941
0.00314871
0.0068514
0.00261612
0.00237661
0.213804
0.560512
0.171529
0.0456922
0.000684872
0
0
0
0.00362818
0.0418232
0.177565
0.373479
0.0393804
0
0
0
0.00088705
0.0349527
0.105293
0.137313
0.137428
0.00418827
0
0
0
0
0.000946889
0.17694
0.551839
0.210338
0.0343106
0
0.00678145
0
0.00416966
0.0160495
0.140085
0.551839
0.124246
0.00410707
0.00138703
0.014031
0.0305558
0.103887
0.266705
0.0201365
0.000457501
0
0
0.000796949
0.00200442
0.00521881
0.101114
0.526638
0.0530746
0.00320251
0
0
0.00011385
0.00605546
0.0404055
0.214654
0.341585
0.10082
0.00320251
0
0
3.02967e-005
0.000865065
0.00722378
0.119451
0.526638
0.327667
0.0224175
0
0
4.32811e-006
0.00129851
0.00535006
0.15816
0.597337
0.0465802
0.00214346
0
0
6.83428e-005
0.00908955
0.0200831
0.191167
0.202246
0.0146748
0.00394855
0.000347538
0.00103729
0.0016985
0.000931964
0.000233144
0.0581757
0.577187
0.32294
0.0154789
0.000214717
5.91791e-005
0.000193866
0.00732573
0.00175657
0.0442847
0.168568
0.0781875
0.0105784
0.00280227
0.00703415
0.00568872
0.0363485
0.0719478
0.263009
0.096465
0.0480792
0.0395272
0.00596651
0.0148994
0.0244961
0.0299321
0.041284
0.0144605
0.141815
0.520092
0.28117
0.0134871
0.0297219
0.026186
0.0286678
0.0109048
0.0714985
0.0690555
0.087431
0.0523461
0.017229
0.0580845
0.0366753
0.0324642
0.0199631
0.0651378
0.0734199
0.325696
0.346698
0.0668334
0.0430281
0.0279724
0.000949809
0.000879607
0
0.0175395
0.316536
0.16298
0.0428322
0.0125043
0.000815992
0
0
0
0.0193129
0.442845
0.286419
0.243607
0.0969123
0
0.00253609
0.0018147
0.0640266
0.0591207
0.132158
0.155562
0.093736
0.0402976
0.00203309
0.000225133
0.000225876
0.29948
0.304401
0.251184
0.225934
0.286789
0.148899
0.000168664
4.92503e-005
0.000391399
0.000167743
0.0453791
0.279621
0.187975
0.286337
0.119558
4.92503e-005
0.000541865
0.000652332
0.000279571
0.0193435
0.144917
0.0488786
0.0547129
0.0206022
0.000541865
0.000133615
0
0.314483
0.493549
0.362883
0.126504
0.25253
0.108248
0.000133615
0.000497825
0.000349728
0.0726125
0.178712
0.242799
0.0244788
0.0357086
0.0072575
0.000497825
0.00627865
0.000343089
0.000147038
0.00115824
0.0652499
0.00980748
0
0
0.00627865
0.0126829
0
0
0
0.0217001
0.0126101
0.0015589
0.000519632
0.0126829
0.308608
0.0226825
0.20204
0.0301207
0.0978462
0.00254704
0
0.0532904
0.0847991
0.541973
0.0357331
0.112002
0.00899076
0.00372408
0.0657392
0.0466761
0.373107
0.284946
0.000342047
0
0
0
0.171524
0.0767378
0.0038574
0.000148998
0.000342047
0.00115468
0.00278296
0.00168919
0.00184128
0.592623
0.273942
0.0059522
8.93991e-005
6.02045e-006
0.0088728
0.000507349
0
0
0.240561
0.0381062
0.004964
0.0144971
0.00893784
0.000934623
0.0012322
0.000334838
0.00110477
0.592623
0.26278
0.000738334
0.00197198
0.00390428
0.00307247
0.00769317
0.00440535
0.00772939
0.309945
0.150648
0.0039234
0
0
0.00192542
0.00508022
0.00264321
0.0101462
0.238575
0.513733
0.0137433
0.00223794
0
0.00571392
0.011081
0.00177321
0.014426
0.433393
0.143058
0
0.00510957
0.0106202
0.00704047
0.0150405
0.0068237
0.0712371
0.412322
0.352853
0.0204611
0.00306574
0.00695648
1.29609e-005
7.34452e-005
0
0.00236513
0.175572
0.436809
0.0261993
0.00167404
0
0.0136478
0
0.00295816
0.00539569
0.0771549
0.418784
0.0489858
0.00154269
0.0153624
0.000571361
0.00132743
0.00173359
0.0204743
0.343944
0.420393
0.0483746
0
9.24355e-005
0.00879661
0
0.000422594
0.00302626
0.238711
0.436809
0.0633798
0.00889191
0.0227508
0
0.0043748
0.0488531
0.171428
0.266802
0.0123283
0
0
0
0
0.000806796
0.0217729
0.219075
0.477924
0.0531022
0
0
0
0
0
0.000302315
0.0361272
0.398749
0.175688
0.0367205
0
0
0
0
0.000181389
0.0367535
0.477924
0.383701
0.0209871
0
0
0.000403208
0.000790766
0.00405165
0.191481
0.529063
0.0603322
0.000653403
0.000180087
0.000248181
0.00480067
0.00222812
0.00675277
0.0429665
0.106781
0.0197907
0.00470877
0.00607938
0.00869502
0.00164903
0.00462518
0.000853292
0.028229
0.620172
0.427381
0.00208122
0.000108052
0.000563837
0.010662
0.0092256
0.00630159
0.00613445
0.152102
0.0974323
0.00472733
0.0016165
0.0121647
0.00527785
0.000868992
0.00933754
0.00399746
0.0121054
0.0162136
0.00406958
0.0125604
0.012865
0.00452959
0.0288386
0.151668
0.014566
0.0283013
0.0456316
0.00731648
0.00640444
0.00496724
0.00990455
0.00256726
0.0875681
0.0207311
0.0185039
0.0283193
0.0029391
0.0034819
0.0217116
0.00231845
0.0566242
0.928593
0.0695934
0.0133921
0.0302566
0.000788425
0.001721
0.00826547
0.00151396
0.0140931
0.246187
0.0469054
0.0213411
0.021954
0.0145365
0.00757062
0.00082268
0.000207266
0.00534049
0.523843
0.187248
0.0480014
0.0279088
0.0273758
0.0173378
0.000108511
0.000523281
0.0270576
0.528621
0.0458325
0.00282533
0.00255834
6.71666e-005
0
0.000108511
0.000209887
0.00964395
0.528621
0.0902224
0.00497806
0.000154919
0
0
0.000150634
0.000243865
0.000926367
0.379631
0.235812
0.0648705
0.0143631
0.0170353
0.00759283
0.000243865
0.000474401
0.00187714
0.161918
0.0923642
0.0387405
0.000895849
0.0014954
0
0.000474401
0.000837245
0.0147697
0.336222
0.0700613
0.00852905
0
0
0
0.000837245
0.000658421
0.0394394
0.737338
0.152669
0.0100841
0
0
0
0.000658421
0.0784027
0.0413534
0.167989
0.0166543
0.00364262
0.00347995
0.00949773
0.0175681
0.00812888
0.131876
0.0652429
0.0848861
0.00342096
0.00886928
0.0981385
0.0809427
0.122976
0.0313765
0.0708931
0.0905907
0.589549
0.11639
0.00950092
0.0423313
0.0247381
0.014031
0.0012443
0.118116
0.133853
0.248884
0.0344948
0.128246
0.568812
0.149882
0.096427
0.00601566
0.0150278
0.00701918
0
0.000777544
0.173292
0.0829234
0.0318897
0.0370716
0.00804015
0.0010236
0.000142393
0
0.00553754
0.567037
0.161528
0.00169256
0.00294788
0.00592559
0.0130988
0.0281619
0.00929869
0.0453774
0.261118
0.338884
0.0540379
0.0372675
0.00166288
0.00178079
0.0238705
0.0338359
0.176115
0.567037
0.109338
0.00516631
0.00713373
0.00402075
0.0118037
0.0115898
0.00938482
0.0192328
0.448905
0.119642
0
0.0109426
0.023985
0.0156792
0.0187525
0.0502036
0.159929
0.281412
0.183705
0.028091
0.00656558
0.0165718
0.0105268
0.0140086
0.0273267
0.112852
0.580431
0.0565522
0
0.00440373
0.0161519
0.0104937
0.0120498
0.103161
0.401927
0.220705
0.0509105
0.00401299
0.00264224
0.0109996
0.00140401
0.00192689
0.0190877
0.110015
0.338322
0.273347
0.0589733
0
0.000356161
0.0015383
0
0.00948877
0.067741
0.431915
0.246438
0.0486435
0.0119339
0.00578373
0.000682263
0.00100795
0.158944
0.36351
0.256351
0.0729839
0.00842475
0
0.000213697
0.00949261
0
0.185697
0.297341
0.364612
0.0478154
0.0120414
0.0303811
0.0124732
0
0
0
0.00144339
0.119205
0.244529
0.15509
0.0176804
0.00149449
0
0
0
4.68859e-005
0.231758
0.554721
0.109971
0.00549436
0.000213499
0
0
0.000588795
0.00449165
0.0303816
0.276821
0.197966
0.0374379
0.0104614
0
0
0
0.000415591
0.0923278
0.554721
0.196847
0.0102959
0.00149449
0.000491291
0.00134433
9.49294e-005
0
0.213432
0.510435
0.0346438
0.000193741
0.000163118
0.00445011
0.00240932
0.00216001
0.0161176
0.0733372
0.16336
0.0258149
0.00135619
0.00474229
0
0
0
0
0.0911
0.603594
0.206818
0.00172745
0
0.0011938
0
0.00170943
0.0373531
0.0875114
0.319195
0.270989
0.0206142
0.0011938
0.00282311
0.000327435
0.106049
0.0672329
0.0137295
0.00967963
0.00254052
0.00043266
0.00473701
0.000342092
0.00566132
0.547592
0.110354
0.00559807
0.00239788
0
0
0.00152894
0.00103527
0
0.0998221
0.219582
0.19671
0.0263934
0.0436902
0.0112481
0.00103527
0.000147895
0
0.523943
0.419247
0.260437
0.00864636
0
0.00105576
0.000147895
0
0.00827407
0.648591
0.0665402
0.000509914
0.000291814
0
0
0
0.000202987
0.00280242
0.369641
0.0685313
0.00297868
0
0
0
0.000202987
0
0.00795165
0.40943
0.15296
0.0707897
0.00135697
0
0
0
2.89982e-005
0.0263899
0.410811
0.0639823
0.00403889
0
0
0
2.89982e-005
0.000401208
0.0190155
0.171317
0.0274133
0.00226415
0
0
0
0.000401208
0.000240725
0.0533659
0.546395
0.0715607
0.00580668
0.00288257
0
0
0.000240725
5.73155e-005
0.0278113
0.546395
0.0573254
0.000610176
0
0
0.000745454
5.73155e-005
0.000689095
0.0575831
0.546395
0.0605716
0.0279108
0.0109362
0
0.00521817
0.0037444
0.0115332
0.0381041
0.553805
0.119052
0.0406681
0.0565057
0.0112269
0.00202822
0
0.0273275
0.0314031
0.133004
0.0463883
0.197869
0.517434
0.101293
0.0206005
0.0136363
0.000885921
0.0207046
0.320868
0.0614444
0.133391
0.0510315
0.00142096
0.00278036
0.00502024
0.0586672
0.00181485
0.0400129
0.0402019
0.239624
0.239842
0.141406
0.0339004
0.0435732
0.0249708
0.100728
0.0641424
0.0648216
0.177235
0.367689
0.091544
0.0386893
0.0375732
0.0147529
0.195016
0.202332
0.286583
0.419803
0.0611153
0.0226822
0.0225378
0.0287485
0.162174
0.135835
0.135576
0.0194755
0.0663949
0.162352
0.150475
0.0537178
0.103187
0.103532
0.325081
0.351608
0.128845
0.0649347
0.0205447
0.0281137
0.0311775
0.0697102
0.00337729
0.0374863
0.0683954
0.144065
0.259648
0.0116988
0
0.00167981
0.015492
0.00202637
0.00318247
0.182547
0.310939
0.153956
0.00668572
0
0.00100789
0.00929521
0.00368068
0.123557
0.20277
0.241147
0.0980572
0.0024707
0
0.00726626
0.0209519
0.000971187
0.0344142
0.403758
0.573438
0.27477
0.00476591
0
0.00214622
0.0103324
0
0.00015147
0.290587
0.363453
0.133733
0.00161129
0
0
0
0.00463497
0
0.25736
0.32586
0.131228
0.0195233
0.0212801
0.0402497
0.00967126
0
0.00232242
0.238053
0.428067
0.338633
0.0121441
0.00138795
0.000962052
0
0.00450069
0.0116856
0.0998008
0.280956
0.238384
0.0912113
0.0307538
0.021214
0.00646545
0.00427854
0.002394
0.00266754
0.00928051
0.0424157
0.197373
0.047947
0.00916783
0.00470474
0.00155641
0.000496391
8.26627e-005
0.000809908
0.0630843
0.601434
0.176951
0.00212825
0.000672106
0.00713089
0.0041543
0.00849467
0.0136225
0.0391869
0.110712
0.0168423
0.00229939
0
0.00259401
0.000827318
0.00212264
0.00291273
0.0531452
0.601434
0.348548
0.000328484
0
0
0
0
0
0.0197762
0.434383
0.21287
0.000698889
0
0.00191891
0.000639635
0.00517274
0.0139264
0.0484673
0.177011
0.316461
0.0459782
0
0
0
0
0
0.00727818
0.396235
0.42331
0.00197577
0
0.0199785
0.00563266
0.00839136
0.00675903
0.0139166
0.155002
0.453978
0.112958
0.00164646
0.00615094
0.00205031
0.0276752
0.10761
0.308169
0.0457815
0.0993163
0.0505715
0
0.00369057
0.00123019
0.0791981
0.211828
0.55018
0.0649924
0.00239717
0.00942776
0
0.0640401
0.0180552
0.026898
0.0769327
0.23165
0.0634426
0.14729
0.124913
0.00280709
0.0525387
0.0337003
0.0669781
0.141291
0.536315
0.203104
0.0222943
0.0359932
0.00102698
0
0.0367317
0.107423
0.0696344
0.13303
0.0184029
0.000280804
0.00252724
0
0
0.138588
0.522947
0.0247461
0.00353665
0.00075156
4.01148e-005
0.000361034
0
0.0142318
0.0837161
0.342135
0.112874
0.145235
0.0712454
0.00740603
0.0176907
0
0.0139618
0.311563
0.587656
0.0806505
0.0171589
0.00623935
0.000280804
0.00252724
0.00409278
0.000756379
0.0799317
0.630114
0.0313227
0.000159135
0
0
0.00274552
0.0014047
0.0116219
0.0473716
0.44885
0.0318455
0.0180784
0.00597656
0
0.0192186
0.0400687
0.0174841
0.169736
0.498802
0.0468464
0.00437725
0.00214229
0
0.00249165
0.0075752
0.0393613
0.0415922
0.182481
0.0643336
0.00732801
0.000366541
0
0.0233705
0.0695782
0.0267794
0.0603369
0.20724
0.0781413
0.156331
0.0265773
0
0.0185417
0.0931429
0.114655
0.0706473
0.141852
0.145269
0.232601
0.0624393
0.0809487
0.0662239
0.0786123
0.126277
0.143966
0.120277
0.104912
0.0225306
0.000930746
0
0.035469
0.197392
0.129509
0.652696
0.247658
0.188851
0.0325838
0.00686135
0
0.0183395
0.104471
0.10471
0.053688
0.0850843
0.0179237
0.0202809
0.0166555
0.028827
0.0373646
0.0424726
0.0784088
0.216631
0.296664
0.0190653
0.0058469
0.00383297
0.00411814
0.030102
0.0274367
0.0454612
0.341892
0.217939
0.0280268
0.00872572
0.0065132
0
0.0121002
0.0109878
0.045508
0.486792
0.602813
0.0307786
0.00504387
0.00390792
0
0.0150112
0.00809061
0.0395501
0.231525
0.262482
0.112406
0.0208672
0
0
0.00652305
0.00722603
0.0328413
0.098318
0.23761
0.333262
0.287507
0.00339377
0
0.000654858
0.00222236
0.0817129
0.26833
0.430285
0.0836405
0.0443716
0
0
0.00229039
0.00886887
0.0659929
0.102939
0.258669
0.316099
0.301848
0.00203626
0
6.28947e-005
0.00501943
0.00367086
0.0102899
0.0976404
0.311686
0.483511
0.0136911
0.00211737
0.00329661
0.00171854
0.00862569
0.0369923
0.0475297
0.151219
0.198157
0.0642452
0.0209017
0.0313996
0.0231743
0.0066005
0.0174546
0.173787
0.463053
0.429717
0.0143477
0.0206706
0.00197797
0.0120298
0.00833457
0.0324944
0.0574874
0.19997
0.161883
0.0820984
0.0567403
0.0258832
0.0389596
0.00268892
0.00887801
0.0326911
0.0361389
0.0321679
0.062752
0.0286371
0.0106538
0.00019584
0.00221541
0.00241602
0.0148662
0.0178386
0.0464673
0.582971
0.594892
0.00142566
0.00137088
0.00562654
0.0527163
0.070191
0.0631643
0.0308689
0.00845767
0.0113609
0.00576612
0.00137088
0.0146884
0.0309252
0.048158
0.0348657
0.0285853
0.196953
0.364476
0.000663213
0.00959617
0.000183297
0
0.000204334
0.000266817
0.00227465
0.191315
0.414741
0.00768064
0.000183297
0.0121051
0.00295299
0.00119669
0.000797791
0
0.0703229
0.424633
0.136206
0.00471608
0.00153356
0.00078202
0.00143034
0.00281933
0.00394042
0.0937345
0.421525
0.0153785
0.00128308
0.000985435
0.0001739
0
0.000339233
0.000938788
0.0463041
0.534321
0.245412
0.00282965
0.0577808
0.0144719
0.00784569
0.0587444
0.083455
0.0602176
0.185399
0.205157
0.0119733
0.0568165
0.077493
0.0886495
0.167478
0.228264
0.229022
0.104557
0.060867
0.00438046
0.00470373
0.0034657
0.027618
0.0242305
0.0891589
0.0472275
0.47475
0.400949
0.00718399
0.00598624
0.0505036
0.220504
0.150935
0.211486
0.112204
0.294177
0.226237
0.00262828
0.0188901
0.0796937
0.277188
0.198027
0.114376
0.0658978
0.0574522
0.0322517
0.0142142
0.0399233
0.162528
0.394778
0.150708
0.0795398
0.0182172
0.0445751
0.0448051
0.135212
0.00269858
0.0341738
0.108651
0.132225
0.117383
0.0251388
0.205322
0.199255
0.0859643
0.0653597
0.0168474
0.0365679
0.0761432
0.0747555
0.0107953
0.139278
0.215496
0.579481
0.0875626
0.0844537
0.115017
0.030071
0.0101014
0.00674961
0.00528941
0.0130653
0.120913
0.21272
0.0316444
0.0422896
0.0478697
0.00669359
0
0
0.0373015
0.0900835
0.229058
0.0100331
0.00784268
0.00588509
0.00560152
0.00404977
0.00935338
0.0472487
0.503167
0.650237
0.040054
0.0066398
0.00507487
0.000915514
0
0
0.0258712
0.30875
0.150485
0.125006
0.0227973
0.0238137
0.0038402
0
0
0.0213282
0.0394217
0.0824387
0.532946
0.121141
0.0228855
0.0011129
0.000338066
0
0.00310858
0.0160592
0.346901
0.195245
0.0681005
0.014675
0.0005486
0
0
0.0124592
0.0756228
0.110558
0.546311
0.332058
0.0580831
6.20727e-005
0
0
0.0013023
0.011069
0.0206637
0.510661
0.193288
0.0073034
0.00102758
0.000886132
0
0.00012242
0.00110178
0.00935948
0.36727
0.427962
0.0330318
0.00920052
0.00157997
0
0
0.00115049
0.00618122
0.396361
0.226561
0.0271892
0.000702294
0
0
0
0
0.00119556
0.248841
0.227569
0.0403453
0.0144408
0.00174715
0
0
0
0.0190752
0.0858299
0.203721
0.136632
0.0708345
0.00313388
0
0
0.00343943
0.0140859
0.028268
0.234702
0.459256
0.140334
0.00414119
0
0
0.00206366
0.000130106
0.0647612
0.182167
0.229141
0.0880777
0.0089823
0.000141813
0
0
0
0.0154681
0.202618
0.624427
0.20974
0.0763772
0.01096
0.00276208
0
0.00130997
0.0123201
0.252354
0.566225
0.144867
0.0428668
0.0365707
0
0.00557157
0.00900043
0.00544662
0.0432324
0.180669
0.0839744
0.175748
0.0911749
0.0027272
0.0406935
0.0161806
0.0102251
0.163388
0.494482
0.183506
0.173223
0.0420584
0.0124878
0.0125447
0.0364192
0.0503723
0.0876555
0.126651
0.0706668
0.210853
0.0601302
0.00866859
0.0530063
0.0304092
0.0829797
0.131555
0.265491
0.117172
0.020762
0.0156607
0.000499854
0.00165773
0.0571041
0.0719442
0.0960893
0.122721
0.0894233
0.264508
0.259422
0
0.0116041
0.01638
0.0129582
0.0613492
0.343856
0.299219
0.0369679
0.0704866
0.0156329
0
0.0273
0.0626223
0.0734594
0.131304
0.250424
0.303135
0.158865
0.0260548
0
0.00236258
0.00204078
0.001957
0.00884531
0.023354
0.0893822
0.269462
0.0194683
0.000967294
0.00169174
0.00274253
0.000685632
0.00292594
0.0154734
0.0741117
0.734306
0.377728
0.00394738
0.00128333
0.00928476
0.00457714
0.00937346
0.0491897
0.0887408
0.0544098
0.0106308
0
0.0149653
0.0316901
0.0094659
0.00609807
0.0687889
0.124278
0.260119
0.208825
0.0276317
0.000958043
0.00121216
0.012156
0.0206627
0.132015
0.0437046
0.2713
0.20688
0.00223543
0.000136863
0.0044856
0.0852421
0.119909
0.295624
0.0590716
0.171838
0.115701
0.000319347
0.00735695
0.0066021
0.00316948
0.0223282
0.387134
0.165468
0.173114
0.106501
0.015648
0.000958043
0
0.00838195
0.088519
0.610733
0.174248
0.126848
0.0360498
0.00223543
0.0046827
0.00325509
0.0586339
0.0801091
0.127232
0.0171938
0.25987
0.249531
0.0711149
0.0927136
0.00167703
0.000300241
0.000986365
0.00816259
0.0015581
0.151135
0.264275
0.532592
0.015045
0.00274883
0.00944303
0.0591475
0.422219
0.0532109
0.193997
0.109146
0.0150781
0.182734
0.0260765
0.0266569
0.0160784
0.020151
0.012458
0.134051
0.176008
0.22074
0.167132
0.00465072
0
0
0
0
0.00543048
0.074389
0.447305
0.450959
0.0424086
0
0
0
0
0
0.0254589
0.37901
0.184188
0.0336556
0.00893362
0.00250988
0.000617029
0
0.00707533
0.118849
0.245765
0.28927
0.148115
0.00282129
0
0
0
0
0.0665592
0.346182
0.310429
0.139134
0.110083
0.0210004
0
0
0
0
0.238755
0.0788271
0.266098
0.500099
0.104949
0
0
0
0
0.0638425
0.174316
0.193685
0.0516382
0.00334086
0
0.000929313
0.00026385
0.00504371
0.361223
0.0632503
0.294754
0.269922
0.0186325
0.000670815
0.00650519
0.00184695
0.00072053
0.136961
0.00746986
0.243506
0.453592
0.0863632
0.0163684
0.00573284
0
0
0.000839126
0.00746019
0.211305
0.421171
0.196683
0.102008
0.019672
0.0029361
0.000518136
0.000185673
0.0140891
0.141952
0.217526
0.0285818
0.065083
0.0161968
0.00898388
0.00175099
0.00680837
0.00631375
0.0551247
0.187459
0.23987
0.327933
0.16008
0.172075
0.0238542
0.00129971
0.000607927
0.0859264
0.339414
0.233441
0.0931896
0.0306601
0.0340822
0.00402109
0
0.000616087
0.0423319
0.213918
0.348487
0.226365
0.245364
0.130403
0.0364875
0.0226331
0.000364756
0.0355077
0.165619
0.143776
0.120596
0.126604
0.23128
0.0689028
0.00370362
0.00431261
0.0493574
0.0864601
0.0471951
0.0547036
0.297129
0.392688
0.148345
0.0693457
0.0867808
0.0308057
0.0334617
0.143626
0.120667
0.22835
0.121767
0.068284
0.132406
0.235901
0.155624
0.0690855
0.080537
0.0265426
0.115
0.0616007
0.0604634
0.171615
0.175954
0.133688
0.0568345
0.0055835
0.0154247
0.158461
0.197731
0.117238
0.224576
0.434223
0.18465
0.0638593
0.0102494
0.152669
0.235609
0.107501
0.143314
0.310963