0.22737
0.0398467
0.00279504
0
0
0.00106142
0.00272789
0.00377668
0.157282
0.191561
0.0172293
0.00107877
0.000266244
0.00214491
0.00766656
0.0197351
0.0127781
0.322226
0.367549
0.0266984
0.000497831
0
0
0
0.000356065
0.0256355
0.321999
0.38948
0.00194762
0
0
0
0
0.00681049
0.0086993
0.574385
0.201556
0.00623113
0.000180287
0.00027043
0.00572216
0.00342966
0.00890187
0.00432667
0.213126
0.331919
0.0384256
0.00812435
0.000554844
0.00920586
0.000600607
0.00106001
0.00131174
0.240759
0.315887
0.00709188
0.00905476
0.0156629
0.0365005
0.00257149
0.0128535
0.0128306
0.364513
0.571517
0.184108
0.0787205
0.0676004
0.076787
0.00428581
0.00715331
0.00698139
0.269757
0.174449
0.0584628
0.0551707
0.145784
0.156646
0.00168073
0
0.000278609
0.0717242
0.0707934
0.0619319
0.0766281
0.384996
0.500847
0.00928258
0.00156396
0.00448196
0.00687923
0.342779
0.194178
0.10697
0.13482
0.0597883
0.00923503
0
0.000870528
0.07181
0.192119
0.273205
0.146491
0.227389
0.249024
0.061614
0.000167937
0.00676545
0.0674876
0.0644774
0.0639408
0.0144845
0.134058
0.226248
0.00540315
0.00528581
0.0223239
0.0186101
0.164171
0.109874
0.0147654
0.000442471
0.0068474
0.000518127
0.00357002
0.0309358
0.0854916
0.33596
0.390369
0.0467693
0.0575379
0.121448
0.0317772
0.000235439
0.00408456
0.0330107
0.643507
0.286644
0.00770069
0
0.000273303
0
0.000116193
0.00568507
0.16316
0.0807679
0.0379352
0.0104619
0.00119579
0.00792293
0
0.00156181
0.0480352
0.128823
0.0368699
0.00217134
0.00115085
0.000717471
0.00674227
0
0.000937087
0.0726971
0.166613
0.372155
0.0469449
0.00206894
0
0
0
0.000223116
0.0931291
0.481039
0.114536
9.9268e-006
8.93413e-005
0
0
0
0.00013387
0.226276
0.654965
0.057342
0.0267157
0.00627424
0.00110722
0.0269612
0.00162609
0.00814203
0.029489
0.0908412
0.0928852
0.0616781
0.0104571
0.00184537
0.0427812
0.0561408
0.172545
0.121218
0.0330806
0.222469
0.0418224
0.00376454
0.000664332
0.0010879
0
0.00211446
0.126801
0.690558
0.251149
0.0834485
0.00627424
0.00110722
0.00181317
0.0322594
0.138402
0.335464
0.322322
0.083916
0.0540476
0.0146713
0.00394708
0.0231096
0.143995
0.270757
0.122635
0.0323388
0.102619
0.0949343
0.0238193
0.0687525
0.227931
0.315255
0.160558
0.0669043
0.0258324
0.128019
0.0461598
0.00880275
0.000198273
0.0183945
0.0627768
0.247404
0.305634
0.16968
0.213273
0.0845155
0.0127987
0.114977
0.389209
0.299629
0.170641
0.151919
0.132825
0.0548813
0.0558255
0.0579597
0.0920829
0.225559
0.196494
0.0620082
0.038742
0.0176273
0.0855732
0.109473
0.100478
0.0919994
0.360395
0.093275
0.0417025
0.0700286
0.0403464
0.0547415
0.0711172
0.0926193
0.159282
0.379223
0.322511
0.134688
0.0320475
0.0122982
0.0344663
0.172626
0.175908
0.269806
0.378102
0.148215
0.112258
0.0163077
0.00862092
0.0892857
0.152472
0.0479434
0.0646204
0.204541
0.135444
0.0898986
0.0965427
0.0696969
0.0334456
0.0883729
0.0929254
0.202386
0.0414056
0.157145
0.0757319
0.042954
0.0430964
0.0488023
0.148514
0.0813756
0.26536
0.289501
0.340884
0.130333
0.0439801
0.0376735
0.0579139
0.0690703
0.111967
0.191424
0.252346
0.460301
0.0917735
0.0641563
0.0336074
0.267876
0.0100261
0.000214681
0.000373893
0.00045698
0
0
0.0321261
0.366169
0.323223
0.000107017
0.0165212
0.0434679
0.00319886
0
0.0300346
0.0412595
0.472978
0.187462
0.00747421
0.0111023
0.0270417
0.0282728
0.00575405
0.00656737
0.0185856
0.224803
0.167051
0.00272957
0.309674
0.317006
0.104688
0.00959008
0.0458517
0.0630939
0.25608
0.0947336
0.00217622
0.0521551
0.125645
0.0477805
0.00203182
0.0367497
0.0362984
0.157409
0.110376
0.0843996
0.142606
0.230337
0.112555
0.00338636
0.0169558
0.0150542
0.0457685
0.0243642
0.00260815
0.474894
0.365737
0.0448037
0.00117885
0.034906
0.0367331
0.061616
0.00853583
0.0996932
0.529116
0.348123
0.0536006
0.000483766
0.0118715
0.0103228
0.00589664
0.144489
0.17078
0.0874492
0.113721
0.0485232
0.00438364
0
0.00103949
0.0311459
0.242376
0.433023
0.0636691
0.0620599
0.0483566
0.0270659
0
0.00727644
0.0934332
0.0544554
0.305987
0.340564
0.0901431
0.0202948
0.000241336
7.17716e-005
0.000148499
0.010993
0.220207
0.561658
0.135096
0.0123638
0.00386225
0.00187153
0.000502401
0.00103949
0.0321019
0.271001
0.354983
0.0235214
0.00748687
0.0127963
0.00898908
0
0.00241664
0.0326434
0.52373
0.196365
0.0055687
0.000441444
0.000441444
0
0
0
0.092948
0.174192
0.287165
0.0703718
0.0274577
0.00420003
0.00210535
0.000166856
0.000345234
0.0274233
0.334238
0.380391
0.214724
0.0356693
0.00434853
0.00102961
0
0
0.0480739
0.222915
0.0442142
0.00298293
4.96814e-005
4.96814e-005
0
0
0.0248926
0.22468
0.13319
0.020083
0.000872572
0
0
0
0
0.0768128
0.507772
0.433804
0.241334
0.0620862
0.00342406
0.00034777
0
0
0.00351829
0.06693
0.507772
0.0795555
0.00237434
0
0
0
0
0.0156599
0.214564
0.131782
0.0258309
0
0.00462207
0
0
0.00107864
0.0842287
0.383658
0.123321
0.0308913
0
0.0355853
0.0333223
0.00256452
0.0449338
0.260735
0.19674
0.527376
0.0440676
0
0.00770345
0
0
0.000154091
0.0384198
0.187997
0.527376
0.0596538
0
0.0593088
0.0643735
0.0298945
0.017942
0.140127
0.145663
0.0809254
0.0142811
0.00564138
0.0242838
0.0692704
0.00805191
0.0771065
0.238631
0.178782
0.175368
0.036982
0.0094023
0.0207383
0.0969309
0.175042
0.078838
0.0708371
0.222849
0.366969
0.0528703
0.0394897
0.0453065
0.182502
0.223298
0.0767623
0.187591
0.189769
0.243307
0.0616354
0.0658161
0.0350685
0.118084
0.325742
0.121274
0.170632
0.399132
0.0712796
0.0385922
0.0168818
0.0321699
0.104053
0.292547
0.199197
0.00841546
0.0452238
0.00810968
0.10194
0.0326522
0.119642
0.159899
0.155205
0.206206
0.00281782
0.0435111
0.132162
0.0322903
0.00905801
0.0137397
0.0161671
0.339754
0.280855
0.0958392
0.146279
0.0279681
0.0866811
0.0181755
0.0595242
0.0450304
0.462277
0.434059
0.0274518
0.0771636
0.00809996
0.0992572
0.0357108
0.178785
0.233852
0.14632
0.0522154
0.00708755
0.0338769
0.0138881
0.0381502
0.0984622
0.19632
0.323611
0.296068
0.0314227
0.0158845
0.00339864
0.0503896
0.208793
0.0882535
0.173839
0.135466
0.27289
0.194744
0.00692547
0.0752668
0.0346082
0.110221
0.139722
0.266596
0.262978
0.362128
0.105757
0.0157361
0.0345751
0.0148329
0.00556167
0.0159264
0.0587669
0.052944
0.0160479
0.0051324
0.00390612
0.0129471
0.00862105
0.00191423
0.314218
0.428074
0.110478
0.0166208
0.0100271
0.00728159
0.0120822
0.000182574
0.00229234
0.0400878
0.183249
0.139296
0.0292597
0.00991239
0.00264436
0.000688367
0
0.000737377
0.437346
0.583947
0.228448
0.0192218
0.00288149
0.000342992
0
0.000292326
0.00117227
0.36001
0.256355
0.0195249
0.00102895
0.00236155
0.00237283
0.00164025
0.00129291
0.0496385
0.426803
0.113909
6.81015e-006
0
0.000243411
0.000243411
0
0
0.000362101
0.407983
0.426803
0.0352522
0.000536166
0.000128532
0
0
0.00139582
0.015782
0.426803
0.179345
0.00407309
0.00140919
0.000572183
0.00122951
0.000137547
0.0273096
0.314366
0.671192
0.0460015
5.96111e-005
0.00128021
0.00276837
0.0013176
0.000101946
0.0867573
0.337301
0.157682
0.0389632
0.0370595
0.00937012
0.00662712
0.00527703
0.00825751
0.0154503
0.0771667
0.392075
0.0631658
0.00319794
0.00922744
0.00737614
0.00864553
0.00104347
0.0177805
0.0486837
0.0451124
0.0674741
0.191689
0.0267834
0.0106815
0.0115174
0.0062163
0.0237501
0.0473725
0.112018
0.111655
0.0532969
0.00311925
0.000652761
0.000714617
0.00681687
0.0903793
0.24306
0.421579
0.174449
0.0527581
0.00102624
0
0
0.00631716
0.0017809
0.00402835
0.0694532
0.209489
0.364616
0.0105714
0.00251855
0.00119103
0.00150982
0.0142426
0.05457
0.275263
0.3628
0.498508
0.022716
0.0156834
0.00221101
0.0130557
0.444418
0.331142
0.223786
0.0452654
0.0107152
0
0
0
0.0114227
0.683095
0.0795226
0.00694636
0.00012699
0.000253724
0
0
0
0.0841047
0.0881499
0.0790019
0.157701
0.104823
0.136856
0.0144689
0.0117232
0.00333801
0.0331928
0.145764
0.0163626
0.00654304
0.00021165
0.00177607
0.00055707
0.000680864
0.000476859
0.04043
0.699021
0.0173079
0
0.00183881
0
0
0
0
0.0858325
0.633132
0.0294186
0
0.014157
0.0626507
0.0515281
0.00691408
0.0128404
0.0995557
0.082178
0.000902201
0
0
0
0
0
0
0.026416
0.0524997
0.00150367
0
0
0.0608873
0.00733434
0
0
0.0169313
0.125653
0.0130457
0.0101366
0.0136323
0.150781
0.250879
0.049267
0.0238236
0.0449901
0.0636433
0.0118599
0.0168943
0.0722313
0.253177
0.333207
0.112272
0.088943
0.106707
0.00846944
0.000129183
0
0.0100002
0.368957
0.190585
0.0224017
0
0.00482501
0.00534534
0
0
0.0856913
0.57826
0.314233
0.0693357
0.0283648
0.00935377
0.0310367
0.00300795
0.00220281
0.0276559
0.0665776
0.178068
0.162262
0.0820606
0.0491265
0.00541803
0.0133713
0.0049976
0.0110803
0.0525821
0.462086
0.277006
0.0232888
0.00941224
0.00174262
0
0
0.039927
0.262805
0.266619
0.119467
0.0393775
0.0049391
0
0.00112042
0.000280105
0.0021595
0.108479
0.575965
0.273046
0.0143395
0.000401319
0.0111021
0.0455492
0.0189981
0.0237536
0.060181
0.32003
0.197459
0.000481401
0.0136542
0.00995995
0.0321771
0.0316137
0.0376553
0.0644355
0.171038
0.0864553
0.0100613
0.0164405
0.000463834
0.00494243
0.00354126
0.000618545
0.147334
0.62557
0.378997
0.00016873
0.0013915
0.0199876
0.0142329
0.0353896
0.00432981
0.15397
0.343589
0.211267
0.0131093
0.0107021
0.0171031
0.0283767
0.0412727
0.169367
0.0741321
0.00695393
0.00942289
0.00476243
0.0018107
0.00380931
0.0155492
0.215782
0.47595
0.169275
0.00284271
0.00137948
0.000664409
0.000103447
0.0282153
0.0961771
0.238946
0.231862
0.112517
0.00371269
0.00423076
0.00285746
0.00185882
0.00634884
0.0473687
0.337379
0.47595
0.370898
0.00252635
0.000472
0.000398645
0.000172411
0.000709899
0.000156069
0.334596
0.544594
0.0842663
0.000890335
0.000144718
0.000947692
0.000389314
0.00341311
0.00116068
0.202158
0.209026
0.017929
0.00622939
0.00209703
0.00347251
0.00236308
0.0037849
0.00109249
0.172559
0.544594
0.312653
0.00990008
0.000566604
0.00169943
0.000648857
0.0150388
0.004318
0.0365461
0.129307
0.0544616
0.0109901
0.00453744
0.0044856
0.00544318
0.0130981
0.0334577
0.149836
0.0972214
0.0301453
0.0499682
0.0174376
0.0311279
0.0145427
0.0117355
0.0704057
0.0347855
0.0930164
0.590902
0.104946
0.0122953
0.0299227
0.0248598
0.0406883
0.0186511
0.0184969
0.0330167
0.0503981
0.0619197
0.0282153
0.0297911
0.0358656
0.00439524
0.0289084
0.0553488
0.0699645
0.553319
0.203447
0.0567642
0.0464562
0.0610844
0.00182296
0.00279177
0.00482721
0.10184
0.405965
0.0662823
0.00574618
0.0135173
0.0123948
0.018111
0
0.0162581
0.15446
0.508953
0.128979
0.0577519
0.060469
0.152293
0.00900617
0.00141798
0.0140202
0.0441605
0.240371
0.13662
0.0183239
0.0759395
0.0707485
0.0764156
0
0.14873
0.169491
0.231427
0.228556
0.103001
0.203706
0.36323
0.0301979
0
0.0149844
0.0612378
0.222191
0.065545
0.0917168
0.0858513
0.253687
0.00705195
0
0.000844353
0.00624489
0.0780578
0.00306056
0.0261226
0.0259346
0.0535909
0.0780018
0
0.277321
0.391863
0.351045
0.0995842
0.202732
0.201256
0.388902
0.00628277
0
0.0679454
0.158633
0.350578
0.00378395
0.055133
0.0481896
0.0458341
0.000803106
0
0
0
0.0340025
0.00114852
0
0
0.000803106
0.00307025
0
0
0
0.126699
0
0
0
0.00307025
0.0717501
0.0608401
0.119351
0.0147256
0.136169
0.00191419
0
0
0.0848061
0.445982
0.1014
0.189067
0.006589
0.259385
0
0
0
0.592471
0.000118108
0
0
0.00141731
0.299267
0.0467404
0
0
0.000118108
0
0
0
0.0226505
0.566618
0.107722
0.00367449
0.00177042
0
0.0167376
0.00143499
0.00259934
0
0.393055
0.0421916
0
0
0.0227915
0
0
0
0.00869773
0.566618
0.202431
0.00365886
0.000181667
0
0
0
0
0.0190279
0.257349
0.153901
0.017403
0.00585017
0
0
0
0
0.00211255
0.0844794
0.566107
0.140033
0.00378681
0
0
0
0.000495242
0.0129927
0.340806
0.126616
0.00627676
0.00238958
0
0
0
0.000825404
0.0121322
0.201224
0.566107
0.113193
0.00337072
0
0
9.61354e-005
0.000224316
0
0.110985
0.484263
0.148689
0.000154115
0
0.0241095
0.00940776
0.00800843
0
0.112197
0.289893
0.0753128
0.00219431
0.0100812
0
0
8.74633e-005
0.00253651
0.230093
0.484263
0.0908747
0.000336173
0
0.0176261
0.0190626
0.0174019
0.00688984
0.219879
0.484263
0.0214562
0.000166543
0.00483963
0.0037183
0.0277191
0.159541
0.236652
0.179153
0.0112074
0.00318293
0
0.00015997
0.000841531
0.0129068
0.167713
0.34927
0.446782
0.0185448
0.00515931
0
2.28529e-005
0
0
0.0235352
0.20706
0.347045
0.125611
0.0658675
0.0106539
0
0
0
0.0238656
0.245195
0.446782
0.197495
0.0873654
0.00639236
0
0.00171931
0.000960984
0.0455719
0.298929
0.577467
0.0182254
0.00370624
0.000455512
0.000115575
0.00771471
0.00302711
0.00726671
0.0372158
0.0829885
0.0115474
0.00911852
0.00481727
0.00209136
0
0.00302413
0.00776929
0.142872
0.64705
0.222785
0.0272785
0.000544736
0
0.000277097
0.00508912
0.00632497
0.0126008
0.103562
0.0409669
0.0155468
0.00687284
0.000652069
0.0144072
0.00581976
0.0136375
0.0089898
0.0257013
0.0479369
0.0215824
0.0149187
0.00852897
0.00147444
0.00352332
0.0694478
0.0746044
0.118107
0.0878177
0.0423875
0.0117169
0.014052
0.000947737
0.00338292
0.0176656
0.0388356
0.0246813
0.0564529
0.0490153
0.0197495
0.0044081
0.000135391
0.001495
0.816588
0.32392
0.0817644
0.101312
0.0454302
0.00596387
0.00220474
0.00266261
8.67205e-005
0.101799
0.045374
0.0338312
0.0313119
0.0128118
0.0241834
0.0330191
0.0200976
0
0.495965
0.183025
0.0316227
0.0667207
0.0260221
0.0522129
0.0953659
0
3.70247e-005
0.537175
0.118543
0.0168496
0.00716388
0.00357681
0.000653767
0.00323102
0
0
0.537175
0.20202
0.0189564
0.006996
0.00118899
0.000775195
0.00538502
0.0132457
0
0.460699
0.272691
0.080274
0.0298119
0.0334786
0.0310265
0.0482163
0.00033205
0.00134769
0.115839
0.100549
0.0892715
0.000312196
0.00722925
0.00537474
0.00188162
0
0
0.493409
0.146992
0.0182141
0.003844
0
0.000128979
0.00116082
0
0.0200406
0.574641
0.103179
0.0102494
0
0
0
0
0.0108579
0.0336192
0.150447
0.00812146
0.0099743
0.00149956
0.00513369
0.00420029
0.0166515
0.0700099
0.0534249
0.176357
0.00346338
0.14361
0.0102996
0.0359359
0.029402
0.11656
0.00390537
0.0864129
0.525472
0.0427171
0.0447039
0.0123963
0.00855615
0.00700048
0.0078954
0.0264811
0.112284
0.495532
0.0131592
0.525472
0.128325
0.0598931
0.0490034
0.0552678
0.0208914
0.00580202
0.0154864
0.000354292
0.327504
0.028801
0.010908
0.00892474
0.0353809
4.66602e-005
0.000186641
0
0.00311757
0.51452
0.143485
0.00103783
0
0
0.00798675
0.0109525
0.0306358
0.0248821
0.51452
0.0734925
0.01818
0.0148746
0.0167761
0.000940093
0.00168935
0.000467943
0.0941032
0.51452
0.0856419
0
0
0.000613472
0.000214212
0.000981844
0.00166861
0.00808339
0.360278
0.0977193
0.00265067
0.000946116
0
0.000128527
0.00138909
0.00838316
0.0424932
0.320983
0.28151
0.024665
0.00157686
0
0.00679725
0.00996363
0.00505919
0.0514397
0.508035
0.0605719
0.00314206
0.00276903
0.00636582
0.00834486
0.0201095
0.0211944
0.148285
0.570115
0.0546021
0.00523677
0.00461506
0.00922525
0
0.000204496
0.00180705
0.04114
0.300215
0.364905
0.0181393
0.000135576
0
0.00161657
0.00485591
0.006522
0.0392843
0.238153
0.375346
0.0262352
0
0
0.000808901
0.00361232
0.0108231
0.255572
0.468174
0.102028
0.00481758
0.000396797
0.00096195
0.0134709
0.00238899
0.0436138
0.268333
0.355071
0.179622
0.0305713
0
0.0091716
0
0
0
0.0335728
0.164167
0.219885
0.139575
0.0836204
0.00154022
0
0
0.000125577
0.0441654
0.319433
0.480358
0.119549
0.0401239
0.000209457
0
0
0.00847251
0.0179267
0.103353
0.301587
0.148458
0.127872
0.0107815
0
0
0.00187377
0.00623969
0.269007
0.515405
0.121338
0.0477026
0.0014662
0
0.0011299
0.00119526
0.0234241
0.302076
0.481286
0.0305364
0.000470194
0.000179687
0
0.00230227
0.00302558
0.00466646
0.0712712
0.0960261
0.0116091
0.00740122
0.001608
0
0.000130968
0.000305593
0.000377735
0.23612
0.647376
0.148257
0.000369536
0.00125781
0
0.000916779
0.00251985
0.0134684
0.107668
0.273411
0.117538
0.0123804
0.00885469
0
0.000378826
0.0315905
0.0243493
0.00789982
0.00566128
0.00722554
0.00561068
0.00121937
0
0
0.51373
0.146104
0.00988285
0.00860978
0.00433592
0.00139331
0.000492315
0
0.000290708
0.148961
0.140768
0.0844461
0.0150713
0.01196
0.00957454
0.00290915
0
0
0.605944
0.48044
0.0740901
0.00224669
0.00125165
0.00147668
7.03307e-005
0
0
0.509916
0.12419
0.00467463
0.00183738
0.00037149
0
0
0
0.000709355
0.484547
0.111311
0.00642379
6.15324e-005
2.63711e-005
0
0
0
0
0.509916
0.214722
0.0118626
0.000199936
0
0
0
0
0.0056575
0.336666
0.085553
0.0046307
0
0
0
0
0
0.00746176
0.166472
0.034154
0.00446002
0
0
0
0
0.000790534
0.0196914
0.542861
0.0918915
0.0010164
0
0.00236827
0.00337482
0.000790534
0
0.0790321
0.528741
0.0284133
0.00140514
0
0
0
0
0.0114298
0.129343
0.542861
0.12185
0.00612533
0
0.0158392
0.0205146
0.0144731
0.00992789
0.0346774
0.500859
0.0780895
0.0511893
0.00574969
0.00369192
0.00868418
0.00287667
0.0142944
0.039336
0.226061
0.0627736
0.500859
0.162207
0.00845319
0.0107999
0.00254233
0.0814382
0.0401802
0.307273
0.104552
0.032574
0.00029261
0.0159523
0.027561
0.0492085
0.114458
0.0318642
0.127669
0.180246
0.367243
0.190201
0.00905324
0.00929225
0.0562485
0.0016864
0.0122933
0.0638651
0.0921451
0.480312
0.132026
0.00278627
0.00227967
0.000165114
0.000830793
0.00688583
0.0789543
0.228258
0.483383
0.030343
0.00530955
0.00173889
0.000694722
0.0182249
0.0393388
0.216546
0.156307
0.271886
0.204087
0.0275788
0.0180334
0.01048
0.00335334
0.0239181
0.241651
0.232105
0.270494
0.0781409
0.0856175
0.094288
0.0081817
0.0145275
0.0160756
0.028704
0.114968
0.332274
0.0147636
0.0104392
0.00951852
0.0146837
0.0251447
0.0383349
0.0301994
0.269287
0.43054
0.00188901
0.0035176
0.0113181
0.0260818
0.0214679
0.0587064
0.0874601
0.153788
0.165414
0.0217511
0.0560936
0.100693
0.0228285
0.0309842
0.179138
0.181343
0.559611
0.299397
0.000648985
0.00273239
0.0167852
0.0273103
0.00239569
0.00551811
0.0112255
0.282878
0.379307
0.00226428
0.000609717
0.000762018
0.00248789
0.0193708
0.00280216
0.043882
0.300161
0.267559
0.0103112
0.00318265
0
0.0127472
0.00233889
0.0257761
0.0687269
0.44545
0.293795
0
0
0.000433953
0.00193741
0.00850989
0.00329911
0.0658735
0.427183
0.300901
0
0
0
0.00483075
0.00270404
0.00598515
0.03128
0.0517288
0.0970715
0.215756
0.0451009
0.0282982
0.00488709
0.00123473
0.00185209
0.00588723
0.0159297
0.196283
0.574195
0.168016
0.00674202
0.000664603
0.0093402
0.0205077
0.0273074
0.0742082
0.0524622
0.153143
0.0240591
0.000668598
0
0.00205788
0.00507156
0.0055167
0.0202524
0.0782916
0.574195
0.337987
0
0
0
1.21445e-005
2.83371e-005
0
0.0694808
0.414779
0.214281
0.00066963
0.000317045
0
8.50112e-005
0.000907402
0.0103744
0.0589814
0.164207
0.243563
0.0112021
0.00221931
0
0.000236622
0.000101409
0
0.0142156
0.422366
0.441697
0.00260647
0
0.00123718
0.0133234
0.00560105
0.0133114
0.0439147
0.126771
0.49403
0.0475998
0
0
3.28576e-005
0.0584455
0.135805
0.212095
0.0190073
0.0540395
0.0086563
0.000857785
0
0.00117944
0.28009
0.395319
0.310027
0.0040131
0.00141518
0.000977797
0
0.0035333
0.0380508
0.0192029
0.132806
0.356772
0.026964
0.22111
0.039346
0
0.029136
0.0551633
0.0450182
0.266161
0.512817
0.0847129
0.0557519
0.0145768
0.0124265
0
0.00481159
0.203039
0.179858
0.0839592
0.00236266
0
0
0
0
0.0113741
0.558358
0.0893175
0.00733749
0.000280605
0
0.000257669
0.000601228
0.031068
0.139997
0.278821
0.0855457
0.181918
0.0429407
0.0175548
0.0043029
0.0142903
0.00443829
0.132396
0.603119
0.130723
0.0206753
0.00781612
0
0.00200514
0.00672013
0
0.0648041
0.55211
0.0667479
0.00515781
0
0
0.000692405
0.00161561
0.00912732
0.104317
0.433167
0.135292
0.0369493
0.00433618
0.00664339
0.0158736
0.0135986
0
0.0214437
0.55211
0.137852
0.0342726
0.0173855
0.00162198
0.00538818
0.0125724
0.00363047
0.0155879
0.169462
0.19183
0.118519
0.0734764
0.0399075
0.0174576
0.0141957
0.163935
0.0861024
0.23684
0.189194
0.0509712
0.0139272
0.0130211
0.0350492
0.112298
0.291627
0.0686244
0.248854
0.220502
0.193326
0.174961
0.0167132
0.0255194
0.182382
0.108074
0.0318568
0.12922
0.225382
0.184601
0.137773
0.111061
0.0787715
0.130885
0.281865
0.0764988
0.128298
0.137883
0.171447
0.170451
0.225496
0.0931684
0.251307
0.0542207
0.0492031
0.214829
0.111792
0.134617
0.16877
0.0773944
0.111954
0.0430652
0.0337004
0.0282295
0.163885
0.0829238
0.0975588
0.118422
0.344016
0.364937
0.0555228
0.0629011
0.0649481
0.0952166
0.0654881
0.178503
0.1192
0.245019
0.125492
0.0494705
0.0841186
0.108956
0.0564889
0.0525397
0.213857
0.135246
0.384724
0.309387
0.0958511
0.0897245
0.0943605
0.0601533
0.0599005
0.0360268
0.0244612
0.150138
0.196155
0.0796123
0.0754685
0.307873
0.262923
0.326947
0.121301
5.46029e-005
0.00588498
0.0257242
0.0484321
0.247271
0.135624
0.0254976
0.0582779
0.101424
0.0588372
0.154592
0.180864
0.182708
0.1799
0.258363
0.395211
0.210607
0.186899
0.0238999
0.00840484
0.0595062
0.121162
0.00439295
0.0756698
0.263475
0.423283
0.138405
0
0
0.000630585
0.00097319
0.000398119
0.00293941
0.219066
0.421075
0.179896
0
0
0
0
0.00662917
0.0728697
0.453672
0.194162
0.0953024
0.0110609
0.00251306
0.00441409
0.00539501
0.00197083
0.00482029
0.241796
0.268666
0.14212
0.0180437
0.00418843
0
0.000656944
0.0145466
0.0280369
0.0201681
0.0535731
0.0372226
0.0899738
0.0334839
0.00634557
0.000188517
0.00529849
0.0178452
0.0162915
0.0171018
0.0702678
0.67215
0.467563
0.00567928
0.00073148
0.0259654
0.0408246
0.031038
0.0211801
0.0139701
0.0219158
0.0325621
0.0243354
0.00131962
0.0181061
0.0401131
0.0447099
0.0242843
0.0536716
0.332687
0.323482
0.0387554
0.00512036
0
0.000836357
0.000635284
0
0.00799682
0.240798
0.381247
0.00399032
0.000124303
0.00335965
0.0196813
0.00517048
0.00383392
0.00718836
0.0836225
0.477307
0.0634619
0
0.000519757
0.00245801
0.00447156
0.00951015
0.0173097
0.209835
0.396992
0.0358116
0.000870122
0.00201579
0.00741913
0.00087257
0.00135859
0.00192004
0.104173
0.492733
0.227045
0
0.0138462
0.0811131
0.0213093
0.0578714
0.185231
0.0331879
0.293225
0.098083
0
0.0833953
0.119376
0.117697
0.0848552
0.348071
0.117621
0.17149
0.0938952
0.0179145
0.00830775
0.0305767
0.00304418
0.00312651
0.0275488
0.0173835
0.414556
0.361509
0
0.0418477
0.0572484
0.180525
0.00693075
0.0459146
0.0426153
0.261099
0.407809
0.0130727
0.0837514
0.252036
0.37586
0.0192438
0.0747645
0.0611486
0.0508442
0.0290544
0.0198777
0.0186484
0.225376
0.632841
0.0565035
0.0244842
0.0473843
0.00703408
0.0143629
0.0150524
0.0734796
0.120391
0.305312
0.00665985
0.00672568
0.0672162
0.0714946
0.168383
0.0345941
0.084118
0.112525
0.178856
0.00991018
0.0071983
0.0821769
0.0201988
0.131992
0.153513
0.0127379
0.030948
0.321025
0.0958904
0.0701179
0.0874755
0.0216156
0.0312904
0.042837
0.0715043
0.00636498
0.0543014
0.0900313
0.132621
0.161194
0.147202
0.0825423
0.110217
0.137102
0.0273117
0.0325515
0.00515742
0.014712
0.0642335
0.024702
0.17595
0.360588
0.555606
0.0603608
0.0210725
0.000393798
0.0110654
0.0446597
0.0613024
0.100906
0.395237
0.0871781
0.0325404
0.0412376
0.0332966
0.0708058
0.0789971
0.125162
0.138331
0.185422
0.182759
0.097458
0.0449911
0.0434402
0.0963719
0.0783743
0.295457
0.140262
0.251949
0.317758
0.252622
0.0568329
0
0.00213568
0.00814435
0.0279728
0.079994
0.173188
0.2008
0.527075
0.151375
0.0717936
0.079167
0.0154182
0.0941174
0.0840974
0.133097
0.0608696
0.0811867
0.0331305
0.0531919
0.178703
0.122916
0.417188
0.111189
0.0545241
0.0441333
0.140877
0.0289139
0.138698
0.23586
0.140482
0.213177
0.127576
0.0479813
0.0777517
0.190695
0.141617
0.184488
0.175545
0.111837
0.15342
0.0622865
0.0373583
0.026376
0.0419283
0.14316
0.462136
0.203446
0.15878
0.0716857
0.0530308
0.0184239
0.0606075
0.045085
0.0333601
0.134843
0.086316
0.0261688
0.0121896
0.0255246
0.0415834
0.039229
0.0247854
0.226655
0.284337
0.176806
0.0185727
0.00219509
0.0129088
0.0278841
0.00390358
0.012834
0.20524
0.38577
0.0550052
0.0137215
0.000909971
0.00293245
0.0025977
0.0017353
0.00782375
0.458246
0.572758
0.0899075
0.0200984
0.00236819
0
0.000934392
0.00164045
0.0211296
0.44988
0.278716
0.162803
0.0552709
0.0257899
0.00296921
0.00362903
0.00979574
0.00630832
0.141113
0.163678
0.20533
0.109277
0.0348124
0
0.00326525
0
0.00504574
0.317554
0.411364
0.156325
0.147035
0.0296597
0
0
0.00587745
0.0167935
0.0566465
0.243186
0.279881
0.189517
0.0358149
0
0.00195915
0.0582539
0.206976
0.141012
0.067171
0.0171806
0.0073022
0.018763
0.0295199
0.00322826
0.119979
0.228462
0.218188
0.149351
0.10804
0.296556
0.220953
0.0580194
0.0175116
0.0684666
0.263191
0.18589
0.119418
0.0978856
0.0681285
0.00705094
0.012606
0.0128582
0.196636
0.219932
0.269542
0.29024
0.0903824
0.0941021
0.0409198
0.0469199
0.0850872
0.0174202
0.0131751
0.0160877
0.0291276
0.0216788
0.114957
0.22138
0.0822672
0.016145
0.00975084
0.00442586
0.00345769
0.00554012
0.00309697
0.0614197
0.6346
0.394414
0.024638
0.0314289
0.027115
0.0530328
0.0802051
0.00827593
0.0153263
0.049527
0.0515125
0.0314862
0.0171166
0.0266938
0.0354058
0.0460596
0.0558034
0.0417333
0.459644
0.248185
0.0446116
0.000433347
0.000361242
0.000154818
0
0
0.00164688
0.297899
0.303932
0.00372556
0
0.00179441
0.0294974
0.000182488
0
0.00519449
0.137997
0.416094
0.0400239
0.00970951
0.00252869
0.00219404
0.00127059
0.0272252
0.0183519
0.338397
0.318827
0.0300914
0.01313
0
0
0
0.00276085
0.00201406
0.141263
0.554848
0.152381
0.0141808
0.0109059
0.0480415
0.000601239
1.92041e-005
0.0164942
0.0282947
0.257293
0.104053
0.0478136
0.0301673
0.0198086
0.000360744
0.000134429
0.0148742
0.0147974
0.167414
0.218345
0.00299099
0.00108609
0.000724058
0
0
0
0.012808
0.534672
0.300675
0.0371348
0.0109932
0.00120676
0
0
0
0.0166902
0.383147
0.504803
0.0838717
0.0187207
0.00123894
0
5.35942e-005
0.00286493
0.0121982
0.0822033
0.224281
0.296864
0.0271868
0.00154674
0
0
0.000524921
0.00205627
0.0191673
0.22942
0.16805
0.0102174
0.000176992
0
0
0
0.0180876
0.141705
0.431059
0.395946
0.0074415
0
0
0
0
0.00258394
0.0139646
0.582185
0.213276
0.122675
0.0071854
0
0
0
0
0.00219737
0.084227
0.222689
0.254125
0.0432415
0.0170352
0.00700673
0.0010509
0
0.00188934
0.0283754
0.383661
0.0527934
0.000379657
0
0
0
0
0
0.31566
0.642841
0.276592
0.00292263
0.0011709
0
0
0
0
0.111765
0.157558
0.0819387
0.0414667
0.0594474
0.0176447
0.0115509
0.000568844
0.000231683
0.0422319
0.147893
0.0571114
0.0998659
0.198906
0.0248276
0.0173283
0.000948074
0
0.0547727
0.58724
0.14262
0.0033263
0.00781658
0.000431727
0
0
0.021169
0.139218
0.568008
0.0956642
0.0748195
0.0786262
0.000719545
0
0
0.0811507
0.29867
0.0418176
0.060959
0.243538
0.406013
0.0208669
0.00398926
0.00142203
0
0.00849246
0.00154526
0.0270076
0.346615
0.452262
0.0659136
0.0344906
0.00931392
0
8.13296e-005
0.190668
0.110625
0.190708
0.287631
0.066741
0.0216734
0.00576528
0.0365889
0.110337
0.0161585
0.0420746
0.145778
0.342464
0.198553
0.0909772
0.0358449
0.00328225
0.00724637
0
0.0135643
0.153409
0.241317
0.159552
0.159092
0.0100176
0
0
0
0.0128062
0.0278193
0.403576
0.290602
0.135403
0.00406596
0
0
0
0.00813856
0.0486638
0.220029
0.251297
0.156727
0.0359924
0.000888019
0
0
0.00167698
0.0385481
0.424786
0.385393
0.157336
0.0219104
0.0252982
0.00872939