0.0124397
0.00892557
0.00550486
0.0130543
0.0580718
0.116847
0.178842
0.304493
0.180554
0.00841567
0.00759886
0.0159257
0.0400959
0.0711228
0.137308
0.120875
0.193004
0.0643204
0.0299541
0.0890163
0.0796478
0.17626
0.305893
0.172958
0.117913
0.18614
0.218801
0.00317295
0.0261203
0.109054
0.332408
0.316454
0.184108
0.0675788
0.128003
0.0292222
0.0439811
0.0564252
0.0460249
0.0397114
0.0182995
0.0290028
0.0887592
0.0732848
0.0904979
0.20792
0.293771
0.0607447
0.0135827
0.00163213
0.0126362
0.0457164
0.0404961
0.196503
0.0308082
0.16852
0.17748
0.250721
0.0824752
0.0215512
0.0376152
0.0461405
0.0326104
0.157411
0.610609
0.202922
0.0579421
0.0189472
0.00137144
0.0147778
0.00219209
0.0568913
0.157208
0.350134
0.10397
0.0140527
0
0.0245556
0.0536892
0.029238
0.0679085
0.139241
0.245262
0.157522
0.0888108
0.0397964
0.0263945
0.0986629
0.027705
0.07263
0.176663
0.472269
0.111
0.00846982
0.0120285
0
0
0.012185
0.0274048
0.290847
0.309846
0.115441
0.042879
0.0144052
0
0.012025
0.0489604
0.114453
0.0365187
0.0406581
0.0449112
0.109646
0.0670911
0.0231457
0.0464497
0.0131286
0.0449644
0.0576776
0.0449271
0.0783224
0.148756
0.0449468
0.0361093
0.0295807
0.0135631
0.0531175
0.148544
0.159279
0.0423851
0.0349668
0.0219051
0.00824901
0.0246952
0.0438679
0.176995
0.629712
0.226992
0.0858757
0.0405242
0.0392299
0.014726
0.0198546
0.0415292
0.482559
0.0311192
0.0198838
0.0272666
0.0432336
0.00673934
0.018521
0.0161191
0.0216939
0.03438
0.0453103
0.0369671
0.0240398
0.0080323
0.00430702
0.0248947
0.0285383
0.0449807
0.067705
0.512043
0.0723322
0.0456149
0.0154308
0.0401516
0.00669324
0.00688484
0.0252436
0.176221
0.512424
0.0548005
0.0215196
0.00542585
0.0291458
0.0125121
0.0418158
0.100893
0.54831
0.0505793
0.0653957
0.0444875
0.0200555
0.00340588
0.00531213
0.0100477
0.0133573
0.0223667
0.0395525
0.104053
0.0680077
0.0492924
0.00630683
0.00483034
0.0247945
0.00780803
0.000761399
0.147231
0.0258622
0.0554925
0.0206809
0.0170174
0.0123849
0.0349904
0.11951
0.659542
0.0438556
0.0808549
0.123647
0.109565
0.0134074
0.00696983
0.00958339
0.230922
0.542561
0.0203159
0.24912
0.132615
0.0499905
0.0396699
0.0409596
0.110485
0.0347736
0.00333351
0.0551657
0.142193
0.15453
0.128432
0.0914015
0.0518629
0.0604611
0.0299055
0.0179142
0.0793303
0.296101
0.203285
0.145154
0.0312881
0.00740508
0.0590758
0.355053
0.343732
0.199301
0.236555
0.196361
0.0554232
0.0644014
0.0261725
0.0648136
0.120012
0.130177
0.0927559
0.037823
0.106379
0.168831
0.0515735
0.0129753
0.045804
0.0558907
0.0423809
0.177336
0.10062
0.0615374
0.100015
0.0734613
0.0182959
0.102205
0.106224
0.155938
0.344392
0.1377
0.113354
0.075123
0.0384076
0.019779
0.0281258
0.0509734
0.204663
0.285266
0.163292
0.188722
0.269496
0.176971
0.0225689
0.0349723
0.0303804
0.1905
0.0748485
0.0801077
0.0429468
0.0658859
0.165251
0.085649
0.0447617
0.0185008
0.0463735
0.0331531
0.0212831
0.023835
0.0462441
0.276537
0.280642
0.0823426
0.0427366
0.0510982
0.0707249
0.138125
0.145735
0.149416
0.181224
0.128809
0.0947963
0.058637
0.0695094
0.0911455
0.0670233
0.0467162
0.0600358
0.304204
0.370331
0.20668
0.172229
0.159944
0.0928282
0.140337
0.132929
0.114401
0.101716
0.0290272
0.0141504
0.0661649
0.145177
0.0334176
0.0492221
0.136962
0.260547
0.245571
0.0858371
0.00438142
0.0270151
0.0189523
0.310554
0.358765
0.103817
0.0130986
0.0114541
0.0322519
0.0349377
0.113769
0.106116
0.116138
0.109227
0.0724701
0.0852878
0.245535
0.278327
0.306847
0.178012
0.0687888
0.0139127
0.0700458
0.11345
0.273998
0.179614
0.0369536
0.00586783
0.0109502
0.0287293
0.0754498
0.287051
0.128499
0.106043
0.0470483
0.010632
0.014381
0.0224608
0.0484472
0.0529572
0.00851814
0.0409448
0.178785
0.267111
0.170032
0.276717
0.182138
0.042539
0.189231
0.136198
0.27467
0.307248
0.165957
0.075336
0.10175
0.15305
0.0567029
0.0372054
0.0754621
0.0176346
0.0015244
0.00364621
0.00167316
0.00286463
0.00669254
0.00557358
0.0988738
0.246795
0.0188519
0.00243767
0.000418483
0.000170753
0.000805567
0.0198488
0.0144932
0.0570994
0.208778
0.217806
0.0927791
0.0191609
0.0117121
0.0125658
0.0107805
0.00766057
0.222339
0.784099
0.268784
0.0594759
0.00168285
0.00119527
0.00179511
0.0116279
0.0090577
0.048703
0.225077
0.0164447
0.00117498
0
0
0.000607694
0.0114415
0.0256679
0.312097
0.272395
0.0176469
0.000167854
0.00195656
0
0.000364616
0.00393634
0.0809695
0.120792
0.526161
0.0786602
0.00639402
0
0
0
0.00580479
0.00551246
0.345651
0.526161
0.145394
0.0103518
0
0
0
0.000829256
0.0139884
0.380275
0.0685491
0.0040077
0
0.00457566
0
9.97601e-005
0.00164572
0.0666092
0.357023
0.0143948
0.00064201
0.000120162
0.00336591
0.000413681
0.0038678
0.0173073
0.324763
0.431182
0.157123
0.0385967
0.00332798
0.00128578
8.81973e-005
0.000132296
0
0.0619709
0.444883
0.0219536
0.0019598
0.000350704
0.00214296
0.000617381
0.000926071
0.0124067
0.391475
0.0830388
0.000758431
0.00289932
0.00139359
0.00176691
0.00114337
0.00348386
0.0815595
0.389853
0.0112887
0.00210625
0.00770681
0.0101119
0.00139209
0.000686019
0.0122091
0.304737
0.330969
0.113574
0
0
0
0.000294883
0.000230932
0.00820503
0.118441
0.454691
0.00888332
0
0
0
0
0
0.101722
0.468392
0.348917
0.00881712
0.00446765
0.00686953
0.00660744
0.00387574
0.001141
0.052225
0.309307
0.0910234
0.0113986
0.00930227
0.0145801
0.000645612
0.011167
0.00798701
0.0504452
0.201682
0.0381623
0.00120752
1.18587e-005
0.000225316
0
0.000957169
0.000684601
0.148205
0.590589
0.114046
0.0008322
0.00152003
0.00476706
0
0.00458263
0.00717437
0.209419
0.590589
0.114496
0.0228855
0.0160001
0.0191292
0.00522744
0.0130183
0.0109488
0.0226993
0.0962702
0.060361
0.0329311
0.0389101
0.103524
0.0515706
0.0577935
0.013371
0.0247383
0.0192828
0.0276926
0.0230749
0.0175006
0.0320629
0.0415982
0.0177041
0.0210303
0.325113
0.585044
0.144037
0.0805186
0.139518
0.43148
0.397242
0.104733
0.0239088
0.139301
0.0917712
0.0783549
0.0505643
0.0392925
0.0697176
0.0213498
0.0231478
0.00880769
0.00776275
0.0213999
0.0596178
0.154109
0.018434
0.012931
0.0038828
0.026774
0.0166614
0.0106518
0.061473
0.186077
0.20376
0.201688
0.273889
0.161886
0.0355841
0.00369201
0.00386035
0.0139659
0.129668
0.581637
0.125625
0.0638575
0.0295838
0.0159264
0.00112398
0.00184731
0.0367261
0.548242
0.129357
0.162772
0.0775067
0.0109272
0.00346129
0.028453
0.0577348
0.0598915
0.0767721
0.0530642
0.0459064
0.0212015
0.00867529
0.0302845
0.125043
0.357192
0.142568
0.0928687
0.0415623
0.107557
0.273631
0.0895421
0.00415877
0.111232
0.18623
0.0277311
0.0591867
0.125893
0.263582
0.419874
0.153017
0
0.0877595
0.233577
0.118331
0.350891
0.0147213
0.00563535
0.0173172
0.0118657
0.0143103
0.0315071
0.107246
0.0913302
0.0209953
0.0529634
0.116077
0.251182
0.074278
0.0242976
0.00900994
0.0220582
0.0779246
0.0145579
0.0717619
0.12068
0.144842
0.0488079
0.000127445
0.0212602
0.0580851
0.0967798
0.235349
0.0567496
0.332249
0.74277
0.137994
0.00312724
0.00263739
0.0104107
0.0731486
0.105406
0.0165444
0.133857
0.28788
0.0950665
0.0123322
0.00250309
0.00236947
0.004343
0.00169084
0.0812101
0.398002
0.336058
0.112023
0.030331
0.00299069
0.00196278
0.000511181
0.000276468
0.0298198
0.243527
0.505709
0.100993
0.00768435
0.00118296
0.00177444
0.00361644
0.000822015
0.0807675
0.241101
0.334256
0.187602
0.083794
0.0274274
0.0237911
0.00947813
0.046306
0.153306
0.558076
0.177187
0.0319799
0.0209036
0.00799137
0.00989306
0.00182644
0
0.160319
0.473775
0.224947
0.0216506
0.00437858
0.0131259
0.0264922
0.00733495
0.00395499
0.109621
0.214206
0.156481
0.0734245
0.084124
0.0693964
0.0632056
0.0683488
0.104348
0.113258
0.28357
0.159484
0.0365803
0.0400821
0.107313
0.0769078
0.0858997
0.0543565
0.20532
0.150791
0.0769383
0.0111549
0.00619567
0.00339887
0.00873299
0.00454404
0.0460038
0.333592
0.0419898
0.00662645
0.00140919
0.00861078
0.00248074
0.00395618
0.00936327
0.269435
0.164135
0.300867
0.160998
0.04785
0.0303074
0.0268039
0.0155989
0.014109
0.0357282
0.589905
0.261897
0.0812244
0.0218129
0.0326979
0.0071693
0.00262445
0.00274851
0.330141
0.126929
0.00135687
0
0
0.000902624
0.000706872
0.0181577
0.0583958
0.220909
0.0848684
0.00947066
0.00105229
0
0
0.00207525
0.135054
0.247349
0.171766
0.451282
0.0217213
0.00330989
0.000881571
0.00497277
0.00101962
0.00904357
0.0102497
0.398688
0.361652
0.0164165
0.00175382
0
0
0.00445537
0.0539013
0.0774664
0.511232
0.0214926
0.0101189
0.00104639
0
0.00169425
0.010857
0.127972
0.349522
0.0889437
0.00700579
0.00261343
0.000545822
0
0.0118597
0.0472269
0.342122
0.492226
0.0728538
0.0990715
0.0206056
0.00174398
0
0.00882413
0.0343355
0.101751
0.167688
0.407125
0.0490405
0.0104252
0.0057466
0.00137437
0.0617689
0.128398
0.373044
0.209482
0.12473
0.0127617
0.00318212
0.0100694
0.0324472
0.0064954
0.0332817
0.389735
0.220978
0.0708681
0.0259797
0.0465401
0.178892
0.355921
0.0617948
0.0115685
0.142146
0.0756089
0.0892188
0.0083874
0.00274364
0.0172619
0.0231904
0.0329693
0.063287
0.450443
0.217006
0.0606311
0.00297501
0.0186738
0.141906
0.297419
0.192192
0.0288263
0.261889
0.246751
0.0785192
0.0826522
0.122895
0.21225
0.319144
0.0768277
0.000314718
0.000483715
0.00776439
0.0422553
0.270823
0.108324
0.149925
0.162389
0.0410541
0
0
0
0.201082
0.00669115
0.0320449
0.189423
0.45585
0.268664
0.0179368
0.0347512
0.0366678
0.0126831
0.0978483
0.138977
0.220781
0.419281
0.14063
0.00646875
0.0169071
0
0.0222964
0.00211158
0.0199483
0.13394
0.106557
0.0338388
0.0908385
0.114398
0.00264456
0.00211158
0.0623889
0.132423
0.274528
0.25041
0.0981758
0.0253289
0.0192291
0.016675
0.134899
0
0.00161584
0.0508175
0.113812
0.193561
0.253261
0.138112
0.000451644
0
0.0187705
0.0533475
0.110818
0.274499
0.621008
0.263237
0.0319554
0.000795989
0.0313241
0.0805228
0.171195
0.118768
0.0745461
0.0275547
0.00449454
0.00276311
0.0213955
0.18584
0.0605055
0.238842
0.573694
0.155505
0.0172948
0.000244257
0.00050013
0.0113188
0.0911111
0.0422605
0.123689
0.0672393
0.120555
0.25316
0.100379
0
0.00156717
0.0540238
0.0442171
0.146328
0.252378
0.433554
0.185934
0.0471049
0
0.000940305
0.0303795
0.0298115
0.190273
0.39975
0.229848
0.0241247
0.0136635
0.00858924
0.000428305
4.75894e-005
0.0675368
0.205398
0.153788
0.180979
0.040989
0.113813
0.090988
0.0150017
0.0743338
0.0076479
0.0510953
0.148732
0.578301
0.172764
0.032902
0.00713897
0
0
0.0396323
0.0927135
0.0727012
0.27058
0.133555
0.207713
0.0916879
0.031335
0.0815853
0.0912422
0.167207
0.119745
0.0683065
0.0493963
0.163913
0.133503
0.121908
0.22708
0.0965784
0.217005
0.247937
0.146566
0.0805238
0.212043
0.09345
0.161643
0.131503
0.146151
0.280679
0.0794358
0.0352174
0.0294123
0.182795
0.121746
0.0904555
0.227523
0.126735
0.222481
0.147829
0.113317
0.0489904
0.19686
0.106382
0.198671
0.289079
0.0694707
0.18361
0.175911
0.129945
0.0734423
0.066398
0.0499651
0.0626327
0.0658246
0.392532
0.189295
0.0959713
0.065729
0.100892
0.0403966
0.0476078
0.144698
0.273009
0.024691
0.0390448
0.138331
0.138778
0.0496595
0.12908
0.0948301
0.161779
0.231982
0.0446822
0.130453
0.303313
0.137155
0.144765
0.165241
0.147864
0.292307
0.288114
0.371126
0.0254662
0.00480901
0.00348173
0.0476739
0.0153006
0.0286936
0.0624544
0.332608
0.305066
0.00560013
0.000344858
0.000342648
0.0485163
0.0113433
0.0373935
0.0562465
0.625654
0.0594465
0.0595023
0.138305
0.0444581
0.204795
0.0930918
0.0716787
0.110273
0.101993
0.065492
0.00495805
0.020628
0.0275717
0.251145
0.0268714
0.0376034
0.0265167
0.112481
0.064604
0.0051663
0.000310239
0.00427744
0.0782581
0.0833146
0.101754
0.13034
0.338679
0.023714
0.00435578
0.019687
0.0338548
0.17345
0.236086
0.192774
0.153841
0.08989
0.0113003
0
0
0.0784712
0.353728
0.0737052
0.0507668
0.0271271
0.051767
0
0
0.0117856
0.284105
0.590319
0.221097
0.0632442
0.022721
0.00991223
0.00261376
0.00107016
0.0206213
0.0337522
0.106115
0.114736
0.155372
0.12426
0.0175027
0
0.00426238
0.0477008
0.128305
0.250199
0.142302
0.195154
0.140818
0.00904513
0
0
0.0101513
0.134818
0.330084
0.27199
0.0381025
0.0131713
0.00188682
0
0
0.00311445
0.0934941
0.490895
0.509176
0.0987417
0.0260707
0.0056869
0.00156001
0.0119556
0.053374
0.167671
0.271498
0.0998192
0.0599343
0.0251626
0.00717061
0.0208594
0.184037
0.27016
0.166865
0.159185
0.0306474
0.0350465
0.00927628
0.011122
0.0299067
0.0817395
0.0301996
0.0405449
0.271353
0.290714
0.0930659
0.0446835
0.0578256
0.0512838
0.424266
0.518417
0.0677907
0.106491
0.0779055
0.0580897
0.0355272
0.0812876
0
0
0.000394083
0.013899
0.166523
0.155073
0.0401492
0
0
0.000440266
0.00176106
0.00136849
0.0282034
0.52785
0.198498
0.0111927
0
0
0
0
0
0.00976206
0.325036
0.156546
0.013874
0
0
0
0
0
0.0601182
0.641292
0.138009
0.0020238
0
0
0.00229548
0.0109342
0.00856927
0.0397577
0.338051
0.152494
0
0
0
0.00249873
0.0129153
0.0226996
0.282613
0.336388
0.103254
0
0
0
0
0
0
0.14052
0.458828
0.128709
0.0147086
0
0
0
0
0
0.232464
0.492582
0.221652
0.0356529
0
0
0.000314359
0.00178136
0.0121874
0.43829
0.346713
0.0324976
0.00117544
0.000351819
0
0.0390158
0.0257132
0.0081827
0.163476
0.23332
0.0756857
0.0157949
0.0172613
0.0549953
0
0
0.000860285
0.194495
0.583599
0.172122
0.0124633
0.00190116
0.00166286
0.027901
0.0431727
0.0562694
0.103611
0.300906
0.0462305
0.00912595
0.0133081
0.0163254
0.051895
0.0563947
0.0216411
0.0147613
0.0207035
0.0264793
0.0104288
0.0219969
0.0676461
0.0397061
0.156626
0.184557
0.043764
0.00167174
0.0347719
0.0146272
0.0511598
0.0948997
0.0385836
0.159454
0.222495
0.0546181
0.0139698
0.0095227
0.00399206
0.00504239
0.0125389
0.0211173
0.488393
0.704931
0.162988
3.64566e-005
0.0146834
0.00227535
0.00315384
0.0132002
0.00966172
0.119353
0.214311
0.0779482
0.000981219
0.036561
0.0122417
0.0290353
0.0532253
0.00680782
0.152015
0.3728
0.115494
0.0239576
0.0449806
0.026027
0.0347457
0.0386875
0.00400142
0.343993
0.469877
0.0876253
0
0.00509951
0.000389333
0.000822321
0.00329813
0.00997595
0.343901
0.474621
0.0979616
0.00209031
0.00247377
0.000130199
0.00228935
0.00702266
0.0387616
0.141172
0.254684
0.0697255
0.104644
0.0414093
0.0246955
0.0263517
0.0727049
0.0455995
0.030541
0.0286831
0.0384345
0.20297
0.0132205
0.0350683
0.0441968
0.11473
0.0665543
0.350474
0.478228
0.0773156
0.0234502
0.0507763
0.0275521
0.0533786
0.189158
0.0709677
0.136883
0.137876
0.0543105
0.226725
0.30175
0.192865
0.158178
0.31967
0.00367679
0
0
0.0881051
0.258147
0.00515312
0.00664601
0.00909149
0.0110451
0
0
0
0.269799
0.462114
0.030751
0.000191699
0
0
0.0042673
0
0.0476441
0.203023
0.289189
0.0747469
0.0411345
0.0308508
0.0291497
0
0.00165911
0.0580258
0.481199
0.466973
0.0090988
0
0.0014641
0.000488032
0
0
0
0.11795
0.281835
0.162829
0.000537836
0
0
0.00475273
0.00467565
0.000961953
0.0206983
0.369022
0.403058
0.0261041
0.0139337
0.0135565
0
0.00171242
0.0110448
0.210271
0.372689
0.0734793
0
0
0
0.00792121
0.012235
0.00710062
0.165263
0.517842
0.21072
0.00322107
0.00353985
0.00813391
0.0566306
0.186316
0.0323667
0.00832481
0.213314
0.293332
0.0694592
0.0626466
0.0837617
0.0722931
0.517587
0.349904
0.0260019
0.0371381
0.044866
0.0331336
0.0396453
0.0765905
0.0427313
0.154156
0.0419589
0.102198
0.454226
0.129265
0.00739789
0.0154253
0.0354444
0.0344002
0.238589
0.110157
0.0100153
0.06822
0.008661
0.00267264
0.00925517
0.0212667
0
0
0
0.0147067
0.307565
0.166174
0.011763
0.00106467
0
0
0
0
0.0495199
0.527695
0.25259
0.0962329
0.04492
0.0172874
0
0
0
0.00563728
0.293718
0.262617
0.0508995
0.0112968
0.00278677
0
0.00927093
0.00231773
0.00730129
0.175535
0.348424
0.244878
0.252749
0.141101
0
0
0
0.076006
0.172113
0.129451
0.0989771
0.0688724
0.028128
0
0
0
0.0760233
0.168251
0.322682
0.118321
0.0524433
0.0147894
0
0.00709719
0.0017743
0.00720003
0.0298962
0.181916
0.254591
0.283901
0.150614
0
0.00101388
0.000253471
0.00597172
0.0601267
0.586241
0.375209
0.160794
0.0583637
0
0.00409065
0.00620363
0.0220961
0.214228
0.256921
0.022183
0.007259
0.00102933
0.00617305
0.0782765
0.213083
0.0489246
0.134247
0.0833526
0.0016252
0.00768512
0.00720533
0.0258406
0.0164504
0.0293585
0.0188691
0.12336
0.547934
0.100361
0.0266453
0.00154084
0.0463586
0.175121
0.554849
0.188795
0.101742
0.190471
0.029866
0.030799
0.00828343
0.0097735
0.150558
0.277462
0.0345046
0.00516158
0.00232597
0.000412311
0.001206
0.00176826
0.00794347
0.278777
0.440343
0.0588894
2.52643e-006
0.000840815
0.000148379
0
0
0.00985577
0.170744
0.440343
0.0950819
0.00781891
0.00716294
0.0129348
0.00279832
0.00940415
0.00505489
0.403866
0.427468
0.0431397
0
0.000601287
0.00180386
0
0.00536509
0.00668431
0.188798
0.293768
0.0364964
0
0.000113873
2.00953e-005
0.000103665
0.000310994
0.0113343
0.349025
0.331082
0.0247219
0
0.000419939
0.000419939
0.000725654
0.00319535
0.00718825
0.356594
0.356643
0.0199968
0
0
0
0
0.00135665
0.0214678
0.391425
0.437279
0.0387486
0.00219691
0.00293957
0.00293957
0.000135666
0.0051794
0.0307145
0.338206
0.345608
0.0291817
0.0286629
0.10182
0.0169485
0.0356865
0.0571845
0.0538181
0.0843756
0.166848
0.0303137
0.161952
0.422642
0.104678
0.109069
0.141576
0.0460086
0.287238
0.219769
0.0237194
0.038298
0.125365
0.0459436
0.0192114
0.019806
0.190912
0.0737091
0.108122
0.00461586
0.0900208
0.331723
0.166759
0.11156
0.192782
0.0321425
0.0217957
0.266069
0.184619
0.131004
0.14295
0.0358363
0.0484751
0.0614131
0.00447897
0.0239772
0.333378
0.401804
0.164041
0.00415322
0.00219241
0.0102325
0.00721787
0.169276
0.0978734
0.350958
0.0384291
0.0235832
0.0830514
0.0522981
0.0499167
0.148009
0.0334159
0.103281
0.507697
0.147929
0.0435119
0.000557547
0.0068101
0.0126482
0.0200725
0
0.00665324
0.0492336
0.199946
0.236905
0.00888128
0.00185793
0.00433515
0
0.00113165
0.00376739
0.00366793
0.268474
0.529211
0.0274244
0.000265418
0.000619308
0
0.001164
0.0390173
0.124537
0.228152
0.224214
0.0147795
0.00877816
0.00734591
0
0.00194
0.0228643
0.0224377
0.274447
0.529211
0.136528
0.03768
0.00103218
0
0.00866694
0.0318129
0.0164259
0.209918
0.55919
0.0226734
0
0
0
0.00759051
0.0342653
0.0156257
0.0217655
0.121055
0.00202407
0
0
0.000156244
0.000560962
0.00511124
0.000187743
0.142465
0.678773
0.158153
0.029269
0
0
0.0211161
0.00545367
0.00800954
0.0211859
0.173187
0.0154435
0
0
0.00276119
0.0143553
0.0126727
0.00405123
0
0.227713
0.361033
0.195226
0.0344853
0.0156033
0.101829
0.140028
0.0392838
0.000969919
0.0453368
0.275935
0.250171
0.325775
0.24309
0.0412661
0.127557
0.0437717
0.0034128
0.0668909
0.194693
0.173865
0.0597413
0.0511177
0.170051
0.280548
0.14741
0.00970142
0.0235398
0.155117
0.191136
0.139715
0.101485
0.0280562
0.0397555
0.0120679
0.000787453
0.000935588
0.120659
0.111291
0.128829
0.068182
0.0117095
0.00595287
0.00234351
0.000472472
0.00976864
0.51842
0.366326
0.0653252
0.0182263
0.047601
0.0639216
0.0400286
0.00556676
0.00779501
0.117022
0.0620236
0.0410859
0.01769
0.020917
0.00854199
0.0100368
0.0033073
0.0118318
0.437963
0.51842
0.0355962
0.010514
0.0560137
0.00757253
0.0116312
0.0200384
0.0247775
0.343244
0.238105
0.0098775
0.0121369
0.138255
0.0496513
0.180594
0.185497
0.0728079
0.103996
0.117127
0.0119417
0.0631532
0.0422174
0.000737886
0.000624984
0.00664534
0.0188176
0.261598
0.53664
0.027972
0.0178819
0.140446
0.0147034
0.00922139
0.0904574
0.144724
0.118442
0.449208
0.114593
0.0870916
0.141848
0.144082
0.236294
0.115963
0.0289573
0.0184232
0.0553214
0.0016576
0.0892808
0.108311
0.484894
0.430235
0.0294135
0.00172094
0.00245465
0.00736395
0.000249879
0.0405941
0.242268
0.124734
0.0273515
0.0674805
0.0767283
0.0228762
0.164674
0.131759
0.109947
0.252073
0.340522
0.206556
0.0215238
0.00594732
0.0117507
0.125148
0.0674003
0.0535231
0.0345146
0.578719
0.491363
0.0404951
0.00642824
0
0
0.000990954
0.00895223
0.0431134
0.317811
0.32274
0.085094
0.0114171
0.00236768
0.00236768
0.00140199
0.0221842
0.0717209
0.228554
0.226146
0.0439992
0.0107137
0.0055162
0.0374917
0.0268907
0.0503895
0.0677727
0.0705418
0.0487517
0.042969
0.0120416
0
0.000945064
0.00683409
0.0774365
0.0558297
0.13845
0.147868
0.080482
0.0483856
0.0796282
0.0693067
0.0318056
0.0597027
0.390516
0.0644697
0.0410132
0.0079599
0.0540716
0.146985
0.186197
0.139446
0.372512
0.128857
0.109995
0.0173892
0.0394558
0.0186057
0
0.00491422
0.00636235
0.0828325
0.289356
0.505968
0.0834637
0.0104127
0.0370512
0
0.00819037
0.0137402
0.160421
0.136127
0.0581038
0.0953602
0.0175345
0.00921483
0.00951809
0.023055
0.0175747
0.0901255
0.0352963
0.15037
0.359411
0.111693
0.0186115
0
0.0104387
0.0046174
0.0138171
0.115029
0.270713
0.126417
0.0396848
0.0142253
0
0.00392785
0.00231798
0.0383798
0.0675202
0.377163
0.647154
0.240859
0.0149126
0
0.00592187
0.00197396
0.00675824
0.00570602
0.136574
0.205506
0.116354
0.0550467
0.0140542
0.0215749
0.00125018
0
0.00951003
0.117494
0.0713258
0.0938712
0.238812
0.182429
0.141679
0.00013374
0
0.0260392
0.216666
0.511045
0.105053
0.00601218
0.0348457
0.0230958
0.000188401
0
0.0393373
0.202349
0.229822
0.0289554
0.164309
0.511045
0.164923
0.00981758
0
0.00160617
0.0216595
0.00477022
0.0159584
0.248777
0.162355
0.0650181
0
0
0.0240049
0.0783532
0.0836551
0.00702628
0.0796066
0.0256369
0
0
0.00115746
0.00664375
0.0678766
0.106569
0.0053471
0.236753
0.544382
0.0814016
0.033304
0
0.0135143
0.283097
0.589188
0.0649826
0.078221
0.116463
0.00388465
0.0199824
0.000133209
0.0427905
0.208504
0.131476
0.0239945
0.037066
0.0701348
0.0758537
0.111684
0.177629
0.0687226
0.182437
0.182293
0.0269337
0.0675949
0.261854
0.307624
0.160381
0.109054
0.0412655
0.0378488
0.0572051
0.0161358
0.0987089
0.0437061
0.151216
0.200823
0.19086
0.0776113
0.011353
0.0305162
0.021159
0.213054
0.176935
0.242864
0.214985
0.158425
0.0215168
0.0345828
0.0414466
0.0112591
0.0211992
0.120288
0.0994186
0.074718
0.0256056
0.0116506
0.00492259
0.0200163
0.0118182
0.0247608
0.355666
0.785186
0.0826391
0.0370344
0.00811674
0.00187083
0.0199653
0.0355804
0.089488
0.0647273
0.0547388
0.040887
0.0141271
0.000576902
0.00808854
0.0507657
0.0503088
0.0685249
0.137783
0.235399
0.0382393
0.0309437
0.00295245
0.000142247
0.000736028
0.000611862
0.00641641
0.113073
0.446587
0.0659273
0.0128652
0.0138124
0.00464136
0
0.0149329
0.0402115
0.0784067
0.398906
0.407018
0.0528174
2.61263e-005
0.00497448
0.00418729
0.00355749
0.0101478
0.0499615
0.181776
0.0954475
0.0585454
0
0.0278513
0
0.00635911
0.0121853
0.0271905
0.224178
0.520542
0.157789
0.0326636
0.0179536
9.1353e-005
0.0125157
0.0183594
0.00782576
0.162959
0.326547
0.0330721
0.0556033
0.037511
0.00717483
0.00322347
0.00133773
0.00788062
0.189425
0.190715
0.07404
0
0.0092315
0
0.00183788
0.00299242
0.00189547
0.243336
0.48747
0.0705266
0.0298776
0
0
0
0
0.0011258
0.299747
0.48589
0.323285
0.0548262
0.0147846
0.00814501
0.00336007
0.000837668
0.00318684
0.0441825
0.0515404
0.161249
0.152031
0.00525183
0.00318587
0.00274018
0.000976009
0
0.000545986
0.004307
0.216695
0.145102
0
0
0
0
0.000455262
0.053266
0.135881
0.517121
0.517121
0.00326165
0
0
0
0
7.7998e-005
0.0170399
0.517121
0.174869
0.0512516
0.00117246
0.000998089
0.000694306
0
0
8.32664e-005
0.0784948
0.16095
0.247658
0.0747857
0.00474882
0.00124922
0
0
0.000138777
0.0186697
0.539205
0.058002
0
0
0
0
0
0
0.212012
0.539205
0.398616
0.15155
0.00737086
0
0
0
0
0.0501752
0.0521485
0.299041
0.102499
0.00876463
0.00108662
0
0
1.50792e-005
0.00429383
0.0329593
0.452536
0.296704
0.045113
0.00113912
0
0
0
0.000524383
0.14804
0.483385
0.180186
0.00591791
0
0.00185958
0.00100131
0
0.00567175
0.0578994
0.483385
0.168221
0.00433698
0
0.0030993
0.00166886
0
0.00970554
0.0254018
0.269327
0.434615
0.0498605
0.00165947
0.0306422
0.0142707
0.00362738
0.0103009
0.0327956
0.111181
0.197341
0.0166292
0.0508647
0.468844
0.182395
0.083941
0.0256687
0.0521259
0.420594
0.188607
0.0107138
0.000210775
0.0093641
0.0142439
0.0104227
0.0292298
0.0468485
0.0910197
0.0793709
0.00588163
0.00340404
0.153119
0.237458
0.193098
0.12396
0.0280985
0.0486153
0.083465
0.00507317
0.0469805
0.33607
0.117245
0.143621
0.0503718
0.046969
0.118033
0.394755
0.0792634
0.0150748
0.0712802
0.0248861
0.0926411
0.188471
0.0520561
0.0224933
0.0218631
0.00229609
0.00248618
0.110253
0.176228
0.268741
0.292653
0.121128
0.0339554
0.0912202
0.0338707
0.000781819
0.0209968
0.0376306
0.186499
0.538233
0.129768
0.0636364
0.0526567
0.00705545
0.157476
0.0434174
0.08407
0.123191
0.118571
0.183176
0.0318126
0.00130282
0.0114884
0.182991
0.106549
0.15407
0.160255
0.153766
0.187251
0.200389
0.118868
0.061078
0.0789669
0.0893242
0.0717142
0.0400706
0.169995
0.284555
0.180428
0.0412259
0.0328496
0.0781621
0.226087
0.242133
0.0628354
0.217782
0.0222586
0.00633845
0.0151778
0.0587586
0.192315
0.186878
0.0595835
0.0241518
0.0203758
0.00968977
0.0072896
0.0419583
0.0769503
0.204583
0.231408
0.079764
0.0520588
0.0422557
0.041924
0.0201574
0.00199122
0.0068562
0.150943
0.384992
0.224786
0.0468463
0.0311585
0.0161496
0
0
0.00842977
0.218264
0.446107
0.249955
0.201373
0.0311662
0.004913
0.0161285
0.0200816
0.0276246
0.0723168
0.0477261
0.071101
0.105965
0.100061
0.0127424
0.104483
0.0327691
0.101417
0.189009
0.0291329
0.20452
0.715834
0.251616
0.0109708
0.00971538
0.0407224
0.0247545
0.0596345
0.0511786
0.0699046
0.114304
0.0308868
0.169976
0.0550146
0.113505
0.128708
0.188453
0.0357657
0.111641
0.0922105
0.11583
0.00477102
0.0155068
0.0103504
0.0551092
0.029495
0.00190057
0.235919
0.417443
0.0733375
0.0226146
0.00479982
0.005426
0.0496632
0.00971283
0.00099035
0.26564
0.46806
0.504038
0.0697344
0.0109319
0.0527925
0.118845
0.0555033
0.0181851
0.0737191
0.0666192
0.045784
0.074704
0.0462229
0.0294917
0.113165
0.0503698
0.0278974
0.110336
0.147864
0.232764
0.120144
0.0234484
0.00269954
0.00366259
0.000983351
0.00027255
0.0251029
0.102
0.497866
0.539564
0.0502806
0.00896481
0.00245413
0
0
0
0.0164059
0.429829
0.101141
0.0890264
0.0188968
0.00880351
0.00577726
0.00616279
0.0251742
0.0393979
0.197635
0.317334
0.108619
0.0627537
0.0187602
0.00726473
0.0108588
0.0208567
0.0111815
0.129105
0.557519
0.0384209
0.00446858
0.00153663
0.000155585
0.000127297
0
0
0.123616
0.557519
0.214002
0.0564657
0.0015561
0.0010891
0.000891078
0
0
0.0454515
0.327506
0.0432177
0.03128
0.0113176
0.0052044
0.0141139
0.0146037
0.0045026
0.0344588
0.369294
0.0676583
0.0162841
0.00165236
0.00797107
0.0151582
0.00755577
0.0107601
0.0443171
0.392423
0.556661
0.174057
0.00349571
0.000692177
0.0119729
0.006142
0
0.0314738
0.10171
0.555145
0.132573
0.0102724
0.00173625
0.019011
0.0102367
0
0.0347563
0.234123
0.118387
0.0372462
0.00281406
0.00484524
0.0122523
0.00549794
0.00959662
0.071207
0.0729166
0.0786003
0.0455771
0.00918461
0.00930892
0.0143872
0.012998
0.0287127
0.0469085
0.155048
0.577953
0.242145
0.0633532
0.0102549
0.0220192
0.0155761
0.0214793
0.063986
0.119804
0.127473
0.108149
0.048632
0.02942
0.0726798
0.221656
0.317276
0.304711
0.0572176
0.0752774
0.126914
0.0651932
0.0366513
0.0339975
0.0330757
0.0601479
0.0333938
0.0198223
0.100652
0.154404
0.100267
0.0432611
0.0419584
0.0306795
0.0196562
0.0196846
0.0357278
0.00659555
0.00544305
0.00751534
0.0134588
0.0257051
0.0743425
0.154733
0.316929
0.120599
0.00480879
0.0133743
0.029783
0.00854909
0.0118771
0.021532
0.138043
0.847927
0.0101293
0.0157391
0.0226322
0.0269993
0.0348422
0.0156987
0.00923964
0.0126841
0.0276249
0.0289599
0.00831096
0.0233206
0.0802317
0.0906383
0.0478541
0.00622892
0.0303307
0.0841612