0.12112
0.0578245
0.0590622
0.0582742
0.0563542
0.0373613
0.0704154
0.0677775
0.0454233
0.117276
0.124547
0.120447
0.203705
0.0651328
0.0182407
0.0779736
0.132094
0.0648488
0.2075
0.155318
0.0952304
0.0838277
0.0324631
0.152356
0.0464494
0.020377
0.0487239
0.186629
0.264713
0.241772
0.236757
0.0079349
0.107039
0.0766822
0.104895
0.0137221
0.0804764
0.194782
0.132228
0.173953
0.0230071
0.0117572
0.027657
0.0539926
0.0430298
0.132517
0.196241
0.0954247
0.0885903
0.00135455
0.0420583
0.0497186
0.166178
0.182436
0.10015
0.206639
0.193694
0.190295
0.00791557
0.0335973
0.0512531
0.0607779
0.0333447
0.169518
0.170533
0.0959779
0.0566758
0.012803
0.152669
0.11083
0.0845547
0.156905
0.0976358
0.0764489
0.0409109
0.0420626
0.0303334
0.0247315
0.039742
0.0964036
0.101402
0.0774398
0.0890777
0.0607477
0.0264744
0.117013
0.0530409
0.0623246
0.0987224
0.0504147
0.152407
0.142904
0.0300089
0.00952299
0.00766322
0.0950547
0.0926241
0.0692108
0.0994681
0.290117
0.509139
0.10108
0.00311853
0.0112139
0.0150292
0.0609008
0.19477
0.125159
0.00902352
0.0145703
0.00975356
0.0055351
0.0732194
0.100471
0.0388115
0.0228735
0.0201449
0.0334691
0.00446019
0.0129867
0.0121981
0.296293
0.358415
0.364112
0.280899
0.17817
0.138042
0.112756
0.038173
0.00574641
0.018111
0.0418715
0.0217534
0.0419159
0.0395903
0.272683
0.100737
0.105238
0.0394334
0.0928451
0.309014
0.356803
0.123178
0.0309647
0.0344595
0
0.00497378
0.0182212
0.153967
0.27427
0.338148
0.273597
0.107812
0.0618144
0.0586657
0.0394458
0.0784253
0.164617
0.182666
0.140886
0.0776204
0.0383884
0.240143
0.0401598
0.0400776
0.0317946
0.0935522
0.290144
0.314805
0.119061
0.0351659
0.17209
0.119062
0.114132
0.112333
0.126147
0.259851
0.166502
0.070007
0.147648
0.0408165
0.137889
0.108561
0.0754517
0.102025
0.0567068
0.0505569
0.0159351
0.0168005
0.0342427
0.17339
0.159684
0.141651
0.170749
0.142781
0.0828447
0.0923435
0.0479983
0.0462259
0.199506
0.130561
0.0438998
0.0560345
0.139835
0.164353
0.142107
0.16979
0.0404171
0.217961
0.120262
0.0824813
0.207942
0.177964
0.220377
0.50404
0.305621
0.0485871
0.0840785
0.106779
0.112038
0.175574
0.147661
0.0594443
0.0682029
0.106962
0.0772599
0.193435
0.0921336
0.121133
0.248965
0.0677832
0.0341321
0.0367356
0.0864781
0.0822971
0.119807
0.104108
0.077892
0.230422
0.14688
0.0959481
0.432625
0.2863
0.174009
0.148981
0.161889
0.0857981
0.237521
0.122385
0.156815
0.17074
0.115039
0.0641568
0.135657
0.0187992
0.0450379
0.081048
0.0328769
0.00818037
0.0104878
0.0218137
0.0694263
0.162729
0.0541514
0.296259
0.334955
0.156178
0.0279726
0.00247034
0.0148159
0.0889177
0.0673616
0.0215882
0.0266721
0.118118
0.102864
0.0761916
0.0204242
0.047307
0.0746955
0.0508243
0.0127477
0.177157
0.60457
0.414935
0.073472
0.00561608
0.0756887
0.00558741
0.0470192
0.0318603
0.165767
0.335177
0.086092
0.0218377
5.41808e-005
0.00105711
0
0.00578349
0.00443964
0.161373
0.406077
0.0373286
0.00716127
0
0
0.00483754
0.00774106
0.0119909
0.180833
0.479618
0.162074
0.0229512
0.000379266
0.00720602
0
0.000826212
0.0102206
0.247437
0.497985
0.0270159
0.00309447
0
0
0.107768
0.138737
0.0826652
0.103307
0.00757292
0.0927964
0.0337209
0.0108167
0.0151305
0.0976939
0.188064
0.203711
0.156984
0.0131252
0.0697546
0.0468489
0.0358844
0.021366
0.155098
0.312146
0.192477
0.105682
0.00147857
0.0195945
0.0391446
0.0089181
0.00698637
0.206788
0.257354
0.215947
0.175218
0.0351342
0.0211441
0.0874581
0.0154376
0.0320075
0.0372099
0.0519849
0.0600949
0.0587743
0.0210338
0.0165031
0.0266558
0.0192775
0.0201539
0.112371
0.0884359
0.0687341
0.0545284
0.0337651
0.0620131
0.027965
0.0164503
0.0355904
0.0815332
0.0875345
0.174126
0.069328
0.0698719
0.0142243
0.0532
0.0133289
0.0184928
0.152355
0.450792
0.614522
0.105724
0.0856335
0.0461543
0.0200757
0.0063865
0.0104309
0.0677721
0.120908
0.0803271
0.00696148
0.00472005
0.0184484
0.00932433
0.00391238
0.0154357
0.0936297
0.344526
0.189624
0
9.59005e-005
0.00186638
0.00339952
0.0168233
0.0146388
0.0659125
0.338972
0.362949
0.0342298
0.00789704
0.00973104
0.00290244
0.000127268
0.00552025
0.0978004
0.460087
0.421708
0.0265547
0.000902817
0.00215406
0.0113069
0.00249607
0.0151651
0.218072
0.352583
0.198143
0.00629522
0.00166959
0.00360909
0.000600154
0.0257933
0.0378288
0.366096
0.287649
0.206313
0.0440666
0.0153008
0.0593087
0.0966476
0.0263576
0.0691911
0.129429
0.327441
0.266366
0.0235203
0.0181096
0.000403036
0.0117508
0.0159426
0.0352869
0.104712
0.210056
0.153976
0.0500628
0.0532338
0
0.0109947
0.036836
0.0757973
0.424643
0.156863
0.0790468
0.0273814
0.0295197
0.107414
0.145181
0.0299941
0.134256
0.292664
0.136046
0.0885663
0.0525389
0.0436201
0.139849
0.113331
0.113581
0.439562
0.118262
0.121788
0.0444296
0.0263718
0.0837956
0
0.0314044
0.0550082
0.0959322
0.113537
0.0759564
0.0173161
0.0453521
0.0917111
0
0.0350749
0.0957134
0.170674
0.029526
0.0385401
0.0226324
0.0112734
0.0199947
0.0589716
0.0740898
0.180947
0.270845
0.0354952
0.0513308
0.00708904
0.0187243
0.0855382
0.0654784
0.121031
0.56086
0.534326
0.0235786
0.00647894
0.00264152
0.0169449
0.0297592
0
0.00824913
0.0643357
0.102621
0.0403215
0.00313846
0.00112485
0.0156527
0.0313712
0.0121913
0.0162606
0.195909
0.270544
0.0513029
0.0636242
0.0323523
0.0171051
0.0566159
0.0313492
0.0642846
0.364241
0.351663
0.0613387
0.0457075
0.0602849
0.0234927
0.043724
0.0747423
0.202943
0.354296
0.171725
0.0368588
0.00837652
0.00648976
0.00434935
0.0081591
0.0148892
0.0290443
0.211983
0.241311
0.0194009
0.00502591
0.0105951
0.00383419
0.00985883
0.134542
0.238461
0.438203
0.149644
0.0188005
0.0211614
0.00461467
0.025361
0.0629005
0.0635945
0.108037
0.0840892
0.0200625
0.0116891
0.0292472
0.0125741
0.225925
0.472239
0.1365
0.0696527
0.0152096
0.0241013
0.000211106
0.026071
0.000655062
0.0187174
0.0848852
0.142847
0.128682
0.136847
0.0112055
0
0.0434517
0.0184719
0.229917
0.662829
0.164911
0.0796599
0.120732
0.0100975
0.00053708
0.00314465
0.0168099
0.164907
0.416234
0.0757923
0.0104334
0.000607735
0.00281944
0
0
0.0114543
0.171667
0.374874
0.0332546
0.0088726
0.0032154
0
0
0.00850342
0.0183257
0.19828
0.535096
0.0679443
0.0261742
0.0605134
0.00358105
0
0.00570052
0.0081847
0.142421
0.445421
0.0812914
0.0412127
0.0300411
0.000396489
0.0733891
0.129206
0.0992896
0.0761851
0.0177388
0.0119684
0.0478697
0.0409135
0.0583297
0.0681558
0.117762
0.196233
0.126372
0.0363976
0.0346236
0.149835
0.027142
0.0198902
0.0450159
0.0217028
0.0546078
0.0775064
0.080571
0.0154748
0.0814988
0.143373
0.131418
0.00554279
0.0333102
0.371949
0.44909
0.134752
0.0417144
0.208395
0.0970772
0.10351
0.0208627
0.048721
0.186971
0.0486128
0.0118404
0.00571447
0.023554
0.00188133
0.00237131
0.0187814
0.172935
0.496678
0.062656
0.0115007
0.00429572
0.00461951
0.000853294
0.000157492
0.00248715
0.0615647
0.349724
0.168471
0.0110431
0.00472285
0.0212209
0.00352374
0.00896534
0.00147134
0.144006
0.584213
0.133204
0.0303758
0.0105531
0.0150757
0.00702537
0.000583073
0.018882
0.180166
0.388975
0.053078
0.00322373
0.00833978
0.00918109
0.000498203
0.00311013
0.130414
0.207636
0.253381
0.0338512
0.00189339
0.00782117
0.0453423
0.0782806
0.0357798
0.0121412
0.0962714
0.388089
0.107692
0.0893228
0.0781495
0.0477192
0.0178887
0.00209713
0.104601
0.203427
0.376851
0.0487443
0.0701667
0.115282
0.262647
0.232999
0.0219108
0.0945771
0.0808924
0.0767299
0.0157347
0.0257761
0.00279073
0.0853546
0.104655
0.0286967
0.0314712
0.0563251
0.0332668
0.0129492
0.0705225
0.00323646
0.0562031
0.0275419
0.0112606
0.0613128
0.0794684
0.0917268
0.00308802
0.0303504
0.0436441
0.538733
0.352858
0.0172224
0.01142
0.0329937
0.011429
0.00453477
0.0559372
0.0269216
0.48897
0.296844
0.00537185
0.0980166
0.183925
0.0289398
0.0199512
0.140527
0.00148244
0.0492636
0.0602138
0.0562866
0.103318
0.118901
0.0546963
0.06576
0.0898579
0
0.0579046
0.144434
0.101478
0.0914418
0.191218
0.0389002
0.0428925
0.0873822
0.0169944
0.261783
0.333768
0.0421657
0.155723
0.19266
0.148557
0.120407
0.0211468
0.011029
0.0504051
0.10963
0.0918128
0.0688733
0.035912
0.0559603
0.0851947
0.143517
0
0.0455602
0.114217
0.0730065
0.110115
0.0349675
0.0488534
0.0727768
0.214246
0.0593457
0.0306488
0.17983
0.186631
0.0912021
0.136279
0.155546
0.0680475
0.0329532
0.00180131
0.0394406
0.10241
0.0580532
0.136533
0.182097
0.240239
0.0555014
0.0850788
0.00685557
0.009185
0.157037
0.127971
0.0665323
0.0236773
0.0482482
0.0246491
0.0647343
0.0478151
0.0269916
0.111578
0.109644
0.0612178
0.0211758
0.0542792
0.0320843
0.0846435
0.394354
0.408607
0.339274
0.0806529
0.0769942
0.0871057
0.118804
0.0482416
0.075261
0.00584347
0.00831946
0.0259839
0.0597459
0.0916263
0.0786372
0.117492
0.0645804
0.0855096
0.0900338
0.152551
0.0765151
0.0465311
0.0022399
0.00544343
0.00112056
0.00281786
0.0708158
0.150759
0.128602
0.0638085
0.00754906
0.00257608
0.00984282
0.00306785
0.0701748
0.537286
0.324256
0.174429
0.157878
0.0223591
0.00823303
0.00666071
0.0171367
0.00717133
0.0303789
0.107478
0.0955723
0.0159928
0.00644154
0.0181066
0.0167142
0.0128356
0.0141348
0.252637
0.447081
0.283606
0.213218
0.0696174
0.00845338
0.0235215
0.0103908
0.177131
0.512692
0.172977
0.0895831
0.124904
0.0168916
0.0071368
0.0302979
0.021266
0.153695
0.392226
0.118074
0.0605934
0.0500229
0.00380538
0.0591737
0.0551231
0.00543144
0.0402294
0.287282
0.2437
0.164588
0.268221
0.0882047
0.0592074
0.047115
0.0282005
0.073505
0.24821
0.113315
0.0759657
0.126436
0.0301936
0.00713179
0.0165031
0.0305023
0.0538229
0.0408886
0.0161483
0.0144902
0.0526847
0.0305104
0.00141968
0.0268925
0.259404
0.316155
0.110329
0.0222415
0.0214599
0.0311678
0.0282849
0.020164
0.0420814
0.0439973
0.107951
0.0763615
0.0520988
0.0370273
0.0310777
0.0102012
0.0100832
0.0463085
0.297421
0.597391
0.323262
0.0332741
0.0136689
0.0128133
0.00562814
0.000789474
0.0450268
0.425556
0.255338
0.0500008
0.00273487
0.00395042
0.00404363
0.00611026
0.00552632
0.0700739
0.355831
0.180101
0.0661436
0.0197532
0.0169541
0.0207803
0.00823932
0.00281367
0.0370506
0.299948
0.400581
0.22251
0.0164403
0.00123855
0.00404302
0.00184098
0.0235404
0.0453953
0.156089
0.194871
0.0969239
0.016416
0.0196067
0.0368321
0.0253281
0.00358802
0.0239961
0.102713
0.0563309
0.0993075
0.0987107
0.109059
0.0486332
0.00409144
0.00944837
0.046124
0.120249
0.0223055
0.0762623
0.138638
0.488802
0.241323
0.00887887
0.0279051
0.0217204
0.0429911
0.0308819
0.0254464
0.0361157
0.0994342
0.0528001
0.0286822
0.0350477
0.00961532
0.02124
0.0101731
0.0227555
0.0445004
0.591223
0.27154
0.0621142
0.00192842
0.00964811
0.0143177
0
0.00832215
0.0202294
0.289826
0.177858
0.00388571
0.00104171
0.00465379
0.000449963
0.000676057
0.00543805
0.00702202
0.345706
0.268779
0.003357
0.00587583
0.000860593
0
0
0.00293829
0.00398535
0.37626
0.251515
0.014206
0.000495681
0.000318878
0
0
0.00134246
0.000339649
0.475457
0.390419
0.00447372
0.00753705
0.016997
0.00557721
0.00553408
0.00915571
0.00511128
0.225529
0.174556
0.0115604
0.013131
0.0288949
0.0398813
0.0229739
0.00474911
0.00747121
0.0674373
0.0415531
0.0165762
0.000378238
0.00151295
0.00312562
0.00145687
0.00466508
0.00252986
0.554331
0.369469
0.0185904
0.00211135
0.0103434
0.0323212
0.0190157
0.00279905
0.00732311
0.500274
0.259434
0.0251989
0.0189993
0.066323
0.0621435
0.0270839
0.0174634
0.00651463
0.0226908
0.0237254
0.00976051
0.081036
0.0832994
0.118864
0.0729153
0.0504577
0.0143549
0.00984402
0.0677695
0.101755
0.00849956
0.0394317
0.051281
0.0520425
0.10726
0.0361976
0.28
0.139484
0.00692302
0.0726315
0.0546343
0.188845
0.182261
0.639215
0.127246
0.0506768
0.136571
0.133702
0.0709781
0.0410452
0.0659181
0.0435177
0.0208652
0.00411909
0.0315044
0.12412
0.0938178
0.0360425
0.0668911
0.0519267
0.0193058
0.00909552
0.00424092
0.0707936
0.155191
0.0375297
0.0698276
0.0347438
0.141193
0.0995041
0.297481
0.100899
0.252427
0.338592
0.157141
0.0272355
0.0659402
0.0426613
0.0177196
0.141169
0.164039
0.380727
0.359652
0.0794938
0.0146026
0.0397986
0.0761448
0.0209483
0.0172406
0.0842234
0.0611065
0.0452226
0.0184973
0.0245541
0.027831
0.0711579
0.0318066
0.141435
0.507828
0.399515
0.353561
0.0969279
0.0196255
0.0445236
0.0434463
0.0203504
0.0553672
0.0507471
0.0511226
0.0802957
0.0374405
0.0294056
0.0274407
0.0450137
0.053775
0.166457
0.354465
0.0811773
0.0453532
0.0347318
0.0479316
0.0368007
0.0050225
0.00731727
0.136663
0.261207
0.248842
0.364801
0.0869716
0.134305
0.103707
0.0393947
0.0205969
0.207568
0.21181
0.165359
0.20592
0.039835
0.00845859
0.00436594
0.00854104
0.0111217
0.169135
0.318144
0.147944
0.0800684
0.0156778
0.131755
0.183748
0.0761219
0.0433595
0.15722
0.164242
0.248583
0.136546
0.0681756
0.0116397
0.0243636
0.0378267
0.0699171
0.0905938
0.0611757
0.0393135
0.00323743
0.00171841
0.00391478
0.00899655
0.0588898
0.39169
0.375199
0.090903
0.0298417
0.00111402
0.000188598
0.0297259
0.0494256
0.0739786
0.0719755
0.12731
0.0951523
0.0138196
0.0131736
0.0155337
0.0390754
0.0581002
0.0143777
0.251787
0.501761
0.298969
0.0523707
0.00657395
0.00150468
0.00287066
0.0183248
0.0551988
0.329525
0.383686
0.0629378
0.0045866
0.00144375
0.000403011
0.0253323
0.0531294
0.0679659
0.109537
0.165845
0.0215433
0.00780907
0.0167512
0.0197702
0.0134918
0.0237422
0.0117341
0.17677
0.527008
0.194366
0.065917
0.00590903
0.00512339
0.0240788
0.0774289
0.103515
0.104735
0.205139
0.0491618
0.032694
0.00151453
0.0109603
0.0740827
0.0794254
0.0941721
0.0742574
0.0267648
0.00472843
0.0319093
0.0538337
0.0905266
0.136076
0.0813823
0.05751
0.0313478
0.0717032
0.0185945
0.416781
0.259971
0.173229
0.0825685
0.143606
0.187253
0.156582
0.0250263
0.00826857
0.00807288
0.0153003
0.0630172
0.16718
0.152811
0.144011
0.092901
0.0571013
0.0812501
0.0554267
0.0597716
0.240737
0.0173713
0.0112414
0.00559175
0.000364116
0.0108178
0.0116455
0.27833
0.180302
0.0161323
0.00168241
0.00149062
0.000642772
0
0.0022048
0.0101057
0.523486
0.419056
0.00672892
0.0154462
0.0182599
0.019125
0.00528033
0.0228971
0.0555868
0.0868862
0.0599057
0.042397
0.00100944
0.0030335
0.00924313
0.0156468
0.0264277
0.0542684
0.411161
0.323058
0.0123159
0
0
0.000176997
7.58559e-005
0
0.00428996
0.276418
0.202336
0.00899687
6.55241e-005
0.000397725
0.00322891
0.00347093
0
0.00684542
0.387739
0.200146
0.00651471
0
0.000208981
0.00103384
0.00361095
0.00269076
0.0146631
0.396308
0.202916
0.0056974
0
0
9.90194e-005
0.000183893
0
0.0156722
0.569139
0.258926
0.00270492
0.000237883
0.00228255
0.00721508
0.0112275
0.0413078
0.00732293
0.249724
0.159206
0.000362676
0.00509065
0.0149349
0.029258
0.0511186
0.402767
0.02941
0.0721456
0.0755659
0.0138524
0
0.00804913
0.00487596
0.00264891
0.0215573
0.0060316
0.443782
0.34692
0.0113866
0.00501942
0.0630205
0.0261412
0.0560346
0.386489
0.00937825
0.235175
0.258115
0.0772654
0.00944115
0.0154082
0.0209929
0.0372275
0.298446
0.0746587
0.0688594
0.0422643
0.0280095
0.0105708
0.0143308
0.00846453
0.0102231
0.251418
0.140312
0.102375
0.0383029
0.0185854
0.00590614
0.0295241
0.00854019
0.0494019
0.488184
0.0640219
0.024645
0.0310672
0.0292201
0.00625777
0.00995403
0.00805234
0.0312554
0.640788
0.132563
0.0115988
0.00330679
0.00308524
0.035754
0.0484128
0.0320098
0.0350244
0.220295
0.0951449
0.0451132
0.0293128
0.0195863
0.053275
0.0483371
0.0218207
0.0828007
0.218658
0.219926
0.0129377
0.0342318
0.039226
0.0313508
0.0431283
0.0724744
0.0779971
0.514028
0.118326
0.0180764
0.0396629
0.0198559
0.0624699
0.0348468
0.0636471
0.226625
0.350787
0.194422
0.0194368
0.0857273
0.0644759
0.0286737
0.0116584
0.0196244
0.0474224
0.257518
0.207985
0.0345275
0.0175193
0.0272759
0.147649
0.0835417
0.0933121
0.0730761
0.172335
0.105169
0.0927974
0.0534467
0.167648
0.0629748
0.0110929
0.0175355
0.202861
0.417283
0.151897
0.0111703
0.0248971
0.0599805
0.162312
0.0628158
0.0384804
0.087195
0.27887
0.138248
0.0860187
0.0413436
0.395181
0.0210862
0.0326333
0.0231404
0.0643454
0.09581
0.0547708
0.0204763
0.0296953
0.0131221
0.037208
0.0743008
0.0091992
0.132259
0.253151
0.221704
0.110761
0.0601646
0.00612652
0.0138547
0.00770461
0.00583977
0.0459292
0.103808
0.130726
0.0607825
0.0465934
0.011973
0.037567
0.0297038
0.00442145
0.0956776
0.299376
0.664444
0.196879
0.136098
0.0335641
0.0129089
0.0211478
0.00530198
0.0515878
0.161302
0.199421
0.136401
0.0564375
0.0102022
0.010925
0.0255857
0.0401059
0.0469185
0.0540951
0.102756
0.0684238
0.0182346
0.0317863
0.0347193
0.0142131
0.00491285
0.0487926
0.12486
0.584712
0.326041
0.200237
0.0366073
0.0129985
0.0416752
0.0392179
0.0379432
0.0438656
0.322621
0.246371
0.109829
0.0494584
0.0810695
0.121967
0.190624
0.140726
0.0189759
0.0329097
0.0300583
0.0265798
0.0741352
0.154215
0.119803
0.126493
0.0798875
0.0374321
0.101381
0.0489892
0.0296287
0.188144
0.0708173
0.141744
0.132498
0.165188
0.0566508
0.116716
0.0854451
0.0796029
0.113073
0.166827
0.156396
0.0948733
0.154777
0.0542515
0.174272
0.0804896
0.0361421
0.133549
0.0233623
0.0217663
0.0396268
0.0135647
0.0365653
0.0686381
0.0441057
0.0453384
0.0814724
0.0878914
0.0301693
0.0582075
0.0423653
0.0542276
0.0621386
0.233433
0.164727
0.109511
0.049737
0.0712183
0.0546013
0.0286078
0.0497237
0.170718
0.065341
0.0380917
0.055496
0.530129
0.227601
0.0730607
0.0196347
0.0800096
0.267427
0.17856
0.107546
0.23895
0.0563082
0.00329121
0.00389009
0.00488645
0.00348154
0.0106995
0.251987
0.090732
0.0387722
0.0560085
0.00489105
0
0.00125573
0.00484624
0.0399073
0.530238
0.192872
0.0298457
0.342852
0.0374516
0.00395928
0.000853045
0.00655933
0.0265301
0.0842475
0.0526707
0.153878
0.445846
0.057873
0
0.00879013
0.0205148
0.0556845
0.237464
0.0777073
0.228187
0.0215134
0.0126167
0.00245336
0.00574471
0.0315414
0.104375
0.463398
0.275655
0.0398548
0.0315606
0.052062
0.0171735
0.0678142
0.150662
0.0611654
0.189246
0.243591
0.206614
0.307214
0.11371
0.00318081
0.040213
0.127954
0.167885
0.22908
0.0601856
0.133314
0.184521
0.0605247
0.0222656
0.0585888
0.130073
0.111508
0.0421101
0.0640553
0.169498
0.0147533
0.0196453
0.0040979
0.0426779
0.268261
0.0321767
0.0115169
0.0295817
0.0489406
0.00494043
0.00271385
0.00238081
0.0297
0.543371
0.0824408
0.00143678
0.0041151
0.00470454
0.05563
0.0114478
0.0168854
0.0405684
0.23655
0.0310257
0.00623906
0.0207198
0.0597411
0.0167862
0.00140008
0.0204393
0.0546877
0.639565
0.0828085
0.0153727
0.00327903
0.0256201
0.0197014
0.0111166
0.0295639
0.0475444
0.322444
0.0653196
0.00784408
0.032538
0.0359841
0.0222558
0.0124703
0.102223
0.156497
0.204965
0.118904
0.0132283
0.0587649
0.041961
0.0108426
0.0060792
0.053676
0.0679336
0.407749
0.0644422
0.0329019
0.014218
0.0763537
0.0642329
0.0603441
0.474627
0.298485
0.186263
0.0338476
0.0198748
0.0313474
0.0512761
0.0175961
0.0116271
0.0662543
0.174386
0.214928
0.0902345
0.0147408
0.0283529
0.0174848
0.0394312
0.0870591
0.0727986
0.108361
0.227546
0.0853117
0.0675792
0.0430863
0.107848
0.0613976
0.12102
0.426605
0.233923
0.142417
0.0247666
0.0095367
0.0165186
0.0127128
0.160449
0.274769
0.332853
0.1466
0.277979
0.0295897
0.0510637
0.115469
0.145291
0.0293894
0.00740575
0.00566646
0.00771034
0.0549064
0.0670526
0.0404549
0.0195647
0.0155021
0.0293917
0.0250976
0.0310126
0.0499141
0.234339
0.527435
0.152443
0.0912776
0.0208636
0.128971
0.0164264
0.0428158
0.0170677
0.0358101
0.0210191
0.045392
0.0370645
0.0595001
0.161438
0.0500358
0.0720879
0.078002
0.241568
0.485266
0.285523
0.0422796
0.072599
0.00785694
0.0131167
0.00368853
0.00984189
0.0357597
0.151933
0.131978
0.0950212
0.00436603
0.00457853
0.0157963
0.00506206
0.00334376
0.0198633
0.0971247
0.159044
0.106963
0.00221263
0.0124442
0.0206861
0.00562632
0.0154063
0.0576157
0.28619
0.276391
0.157084
0.0121388
0.00425325
0.0132579
0.000401563
0.00189165
0.018138
0.311275
0.537052
0.510416
0.0358656
0.00833123
0.0263865
0.0122148
0.0197916
0.0317034
0.0614517
0.0701756
0.0425181
0.00376873
0.0225814
0.0304924
0.019132
0.029238
0.0147991
0.0314348
0.0165578
0.00519124
0.00588438
0.00537702
0.0106862
0.00306913
0.00342171
0.0290747
0.245351
0.6864
0.517672
0.0425596
0.0402096
0.0325208
0.0284791
0.0154508
0.0181002
0.0455849
0.136151
0.120276
0.0241252
0.0476645
0.0511882
0.0292069
0.0243673
0.0368192
0.146128
0.0775164
0.0194894
0.0201038
0.243616
0.12368
0.0153243
0.00513136
0.0701226
0.249451
0.375348
0.313197
0.113079
0.0843765
0.059148
0.0433528
0.0209071
0.0272635
0.0740196
0.0570205
0.0303033
0.0578153
0.06641
0.038562
0.0264701
0.0022354
0.0381787
0.0813291
0.283332
0.384434
0.145032
0.219934
0.0305935
0.000766939
0
0.00734902
0.026789
0.117766
0.225949
0.129142
0.480897
0.0760462
0
0.00379249
0.00770828
0.00852434
0.036892
0.135225
0.272015
0.0499734
0.0102284
0.0116008
0
0.00269256
0.010277
0.0854314
0.296573
0.158778
0.378805
0.048487
0.0151299
0.00501516
0.00908262
0.00786902
0.0188994
0.178373
0.303501
0.362237
0.0903027
0.000764345
0.00966315
0.0271882
0.0158721
0.00958647
0.00788647
0.101663
0.395548
0.0409002
0.00535042
0.0119957
0.0259373
0.0133043
0.00182453
0.013298
0.137936
0.448723
0.0503009
0.00961473
0.0075114
0.015999
0.00403847
0.000344282
0.0100705
0.106966
0.540794
0.0332548
0.0257269
0.00559849
0.0115938
0.00535696
0
0.0151064
0.167029
0.294999
0.00686304
0.0538929
0.0481728
0.136665
0.0148734
0.00323897
0.0225751
0.224929
0.122071
0.00735399
0.100782
0.102003
0.428514
0.0719765
0.0219822
0.0101637
0.119394
0.394747
0.0339139
0.0574963
0.0195544
0.0241227
0.0149452
0.00135226
0.0520107
0.291507
0.261292
0.141532
0.141691
0.111596
0.0854449
0.0586546
0.0140435
0.0649447
0.155386
0.00918133
0.0196879
0.0554558
0.0580075
0.077207
0.0204649
0.011271
0.00369684
0.0177479
0.155915
0.0808274
0.223409
0.242251
0.0512751
0.022288
0.00313034
0.00781474
0.0202204
0.0362929
0.111779
0.192001
0.206975
0.0361843
0.0288885
0.00427996
0.008682
0.00901756
0.194192
0.135073
0.296801
0.658575
0.204729
0.104647
0.00034726
0.0640333
0.0301096
0.171208
0.10125
0.200529
0.133728
0.105402
0.0748004
0.000227337
0.00570336
0.0270477
0.156741
0.0916483
0.121618
0.0679462
0.152413
0.110238
0.0382961
0.0481401
0.14997
0.203141
0.060362
0.0921835
0.339621
0.308605
0.240518
0.00132126
0.0622145
0.0396948
0.127428
0.0499927
0.0809535
0.335644
0.329022
0.273805
0.0436338
0.0206435
0.0979487
0.12089
0.0419525
0.107865
0.0433884
0.0460296
0.0240978
0.0439043
0.0793394
0.0783693
0.163429
0.0940774
0.0911738
0.203432
0.115088
0.311207
0.284476
0.0265296
0.0629537
0.0800742
0.163432
0.0750201
0.0308442
0.0582828
0.0251562
0.0826923
0.175731
0.0690042
0.0851603
0.480627
0.117599
0.216094
0.0223076
0.107624
0.0812667
0.094422
0.0669007
0.0040184
0.00609665
0.00205507
0.0261852
0.0176873
0.184421
0.157155
0.0688929
0.00824831
0.000436203
0.00149957
9.27793e-005
0.0067498
0.00307087
0.272598
0.47966
0.443605
0.0411957
0.00506137
0.0263022
0.00623284
0.0348143
0.00393812
0.0734912
0.0741289
0.0440355
0.0117173
0.00652569
0.00133672
0.000709643
0.0183925
0.00365796
0.129215
0.378418
0.443138
0.0434273
0.000988178
0.000125431
7.21235e-005
0.000218319
0.00065753
0.0849542
0.343029
0.255318
0.0165689
0.00772264
0.00247103
0.00333049
0.00126587
0.00101199
0.0336497
0.13058
0.184584
0.0178014
0.00172612
1.79188e-005
4.47196e-005
0.00139492
0.00060625
0.0943751
0.407419
0.395095
0.0331286
0.00187586
0.000125431
0.00355488
0.000318615
0.000203044
0.185003
0.343498
0.463275
0.0608675
0.0124821
0.00533359
0.00875278
0.00458278
0.00371349
0.0326051
0.0321929
0.13629
0.056442
0.017547
0.00518821
0.0132307
0.00310882
0.00386826
0.0163552
0.018617
0.0405257
0.057721
0.0126379
0.00640373
0.0285444
0.00430796
0.000606402
0.204882
0.314126
0.590981
0.24322
0.085379
0.0119088
0.0259813
0.00530339
0.000141169
0.0373546
0.135181
0.304104
0.436321
0.0305312
0.0153941
0.0246798
0.00780949
0.00119708
0.0140136
0.0197572
0.0741085
0.0857048
0.115256
0.0222794
0.0247793
0.018555
0.025363
0.0288796
0.0142121
0.0464009
0.112823
0.173179
0.014313
0.0253989
0.0130158
0.000624774
0.00963829
0.0575565
0.216831
0.585772
0.393179
0.0362976
0.029351
0.0207394
0.0201718
0.0315016
0.0427249
0.101357
0.418493
0.172313
0.0203223
0.0223732
0.0147469
0.0466651
0.038618
0.00285951
0.00784058
0.0589974
0.207065
0.104933
0.0694754
0.0201959
0.0426165
0.0231156
0
0.00918771
0.0771296
0.416587
0.0978967
0.0266531
0.00495789
0.0394134
0.0517583
0.0261089
0.0504472
0.184983
0.533212
0.324298
0.129457
0.0577913
0.055602
0.0232995
0.00317748
0.00534325
0.217122
0.0560346
0.102445
0.0618957
0.0141413
0.0173571
0.00898674
0.000314595
0.0168914
0.0343682
0.196073
0.289453
0.138829
0.0509137
0.0280997
0.0139276
0.00265141
0.0290294
0.0182539
0.177172
0.328059
0.139869
0.071012
0.050455
0.00128382
0
0.00120413
0.0331579
0.299441
0.568573
0.199458
0.188287
0.19199
0.000770292
0.0126147
0.111043
0.0253724
0.135333
0.151283
0.154743
0.157658
0.0229023
0.0300024
0.00427569
0.0141063
0.0046051
0.0708068
0.0863992
0.150299
0.360817
0.172384
0.164537
0.00560864
0.0584111
0.0217095
0.238948
0.216715
0.0696645
0.139074
0.0876704
0.0579985
0.0156855
0.129644
0.0386377
0.212908
0.110612
0.0432375
0.442659
0.327878
0.20928
0.0118067
0.0720525
0.104112
0.0322854
0.0242664
0.0212927
0.185961
0.207362
0.121416
0.00343994
0.0488876
0.0181774
0.0233081
0.0278862
0.0478674
0.266962
0.220822
0.0997889
0.0217821
0.0353516
0.0228844
0.109443
0.0586641
0.0203203
0.330583
0.320334
0.129751
0.00289578
0.0230736
0.0672022
0.0174325
0.054718
0.0835572
0.381119
0.470165
0.215177
0.0117216
0.0505757
0.0346062
0.125613
0.141536
0.0335625
0.0365743
0.0300726
0.0561245
0.0790821
0.115969
0.0516728
0.128778
0.420894
0.141654
0.102545
0.0245715
0.0678423
0.046972
0.122086
0.167395
0.100003
0.0497027
0.0408693
0.0884612
0.0919808
0.0821959
0.0442591
0.0502315
0.0321819
0.0601495
0.168522
0.212319
0.19272
0.272506
0.168859
0.0612112
0.0967739
0.122699
0.0561991
0.0936758
0.0552367
0.0512197
0.0467262
0.0413614
0.0690151
0.0867319
0.107738
0.0586636
0.0101579
0.0281519
0.0396276
0.0831604
0.0699331
0.346143
0.625437
0.16481
0.0308678
0.108257
0.175716
0.0494642
0.169714
0.0644256
0.0466251
0.0632151
0.0603702
0.0539939
0.052835
0.144012
0.0303625
0.202476
0.087943
0.0467609
0.0678708
0.0521907
0.00442013
0.000241869
0.00962454
0.00295954
0.00725008
0.0541874
0.213764
0.359043
0.0718733
0.000195799
3.45528e-005
0.0239737
0.00255933
0.00125757
0.252314
0.389351
0.594827
0.138492
0.0149814
0.00997925
0.0290485
0.0107757
0.0261332
0.0114552
0.0265078
0.063807
0.0292468
0.00604304
0.0120194
0.0287191
0.0146686
0.042109
0.213113
0.200915
0.190042
0.0650459
0.0377378
0.0300573
0.0661293
0.00356639
0
0.194114
0.294764
0.361814
0.132927
0.16654
0.0538115
0.0793898
0.00237732
0.00149094
0.0466636
0.159613
0.264925
0.306521
0.0897005
0.0482996
0.0459455
0.0684185
0.0865113
0.300856
0.235223
0.121124
0.0454633
0.277848
0.100195
0.0878692
0.106784
0.0606884
0.189342
0.158835
0.120698
0.126538
0.149919
0.0130932
0.0469235
0.00737041
0.00513527
0.00054734
0.0698575
0.192736
0.403272
0.265406
0.0193374
0.0334221
0.0838424
0.0189518
0.00512741
0.0539814
0.120286
0.358347
0.16274
0.0455659
0.0710276
0.0313147
0.0434211
0.154338
0.180624
0.220616
0.161508
0.289508
0.0502131
0.0556409
0.209366
0.13347
0.0476288
0.148229
0.231763
0.160157
0.268915
0.0663064
0.0345566
0.0662861
0.0370264
0.0182437
0.0375841
0.0396797
0.0945775
0.292839
0.146391
0.0980292
0.132174
0.0592425
0.0440883
0.0051622
0.00858258
0.083076
0.231435
0.064925
0.089134
0.277267
0.154184
0.0216322
0.0350986
0.0442143
0.0312123
0.150903
0.13111
0.467726
0.399762
0.155994
0.0854625
0.00419169
0.0140335
0.0312669
0.180086
0.193233
0.0880676
0.152282
0.0479635
0.0125089
0
0.0150362
0.0502416
0.19361
0.313934
0.0868603
0.167293
0.128337
0.000556962
0.012477
0.0933892
0.0780289
0.104118
0.112686
0.342752
0.249847
0.060654
0.0312871
0.00102257
0.033022
0.122603
0.207711
0.327087
0.366691
0.122859
0.0965817
0.00521347
0.00192851
0.0302329
0.171045
0.0971014
0.112334
0.028771
0.0611753
0.114823
0.0788795
0.0100551
0.0751717
0.0444123
0.1554
0.117166
0.0195273
0.272313
0.369164
0.21357
0.00736331
0.0225743
0.0670283
0.0652569
0.120305
0.124885
0.0806408
0.189538
0.117726
0.00133706
0.00764514
0.0368764
0.118543
0.0691551
0.0359731
0.398368
0.414359
0.316211
0.0694554
0.0588947
0.0213254
0.101663
0.0808198
0.0304603
0.318428
0.203401
0.121246
0.00374121
0.000898716
0.0475416
0.0144699
0.0528056
0.106815
0.329487
0.252123
0.209888
0.000495127
0.00629101
0.00994975
0.0926621
0.0438918
0.0325921
0.338296
0.242385
0.13474
0.0621307
0.0516929
0.014589
0.0132374
0.0121645
0.0898037
0.418422
0.301104
0.140562
0.00887307
0.0073847
0.00208415