0.220508
0.0230579
0
0
0
0
0.000889779
0.0120375
0.333341
0.234236
0.00977937
0
0
0
0
0
0.0155022
0.504358
0.206886
0.00251474
0
0
0
0
0.0166896
0.112004
0.27592
0.275632
0.00050535
0
0
0
0
0.000878563
0.0234928
0.480906
0.181602
0.0018023
0
0
0
0
0
0.00790004
0.356813
0.30985
0
0
0
0
0
0.000320781
0.00484742
0.476629
0.1793
0.0030351
0.000903211
0
0
0
0
0.00282929
0.365971
0.227417
0.0442239
0.0126896
0
0
0
0.00224547
0.0205394
0.462685
0.230746
0
0
0
0
0
0.000886329
0.00446687
0.388373
0.275319
0
0
0
0
0
0.000531798
0.00338959
0.542009
0.165202
0.0354814
0.0088361
0.00107488
0.00185476
0.00333949
0.0062043
0.0364285
0.311837
0.202982
0.0113172
0.000924557
0.00752419
0.00339299
0.00556581
0.00372258
0.0313696
0.416694
0.225619
0.000166244
0
0
0
0
0
0.000976821
0.373796
0.338614
0.000277073
0
0
0
0
0
0.000126666
0.448733
0.189959
0.00421483
0
0.00269561
0.000536865
0.000733554
0
0.007845
0.316923
0.308807
0.00301658
0
0
0
0
0
0.00088666
0.424258
0.260369
0.000844142
0
0
0
0
0
0
0.327485
0.380552
0.0242048
0
0
0
0
0
0
0.336299
0.255736
0.000542976
0
0
0
0
0
0
0.331086
0.35994
0.00229612
0
0
0
0
0
0
0.426286
0.289242
0.0712644
0.00115683
0
0
0
0
0
0.221305
0.231165
0.152627
0.0387511
0.00137588
0
0
0
0.0258592
0.320276
0.263043
0.00718239
0.000110223
0
0
0
0
0.000878145
0.365015
0.191769
0.0106618
0.00319909
0
0
0
0.000800235
0.0634029
0.596075
0.0452094
0.0462486
0.0445412
0.00882946
0
0
0.00029897
0.0543686
0.235607
0.00877109
0.0127484
0.0398861
0.0162262
0.000379546
0.00151819
0.00209279
0.0868302
0.325997
0.0320921
0.00202979
0.00223977
0
0
0
0.00107099
0.0809949
0.457957
0.0311745
0.000476636
0.000286471
0
0
0
0.000711449
0.0722876
0.724195
0.020047
0.0127811
0.0130139
0.00673781
0.0011878
0.00664385
0.00160085
0.0498301
0.237781
0.128318
0.0165302
0.00124705
0.004589
0.00775192
0.0153187
0.00599026
0.0380321
0.207686
0.0319344
0.00144206
0
0
0
0
0.00133371
0.0780222
0.597351
0.141958
0.00225344
0
0
0
0
0.0176339
0.177409
0.624921
0.245734
0.00816461
0
0.00207213
0.00939602
0.0133988
0.018446
0.0400796
0.156559
0.341289
0.0817474
0.00553696
0
0.00126651
0.00179933
0.0109069
0.0210846
0.188924
0.28258
0.00115021
0
0
0
0.00146729
0.0286652
0.13137
0.481416
0.329444
0.0665859
0.00103418
0
0.00670472
0.0116464
0.0296037
0.0539095
0.460152
0.0875306
0
0
0
0
0
0.0535582
0.289446
0.222769
0.239139
0
0
0
0
0
0.00286343
0.0529802
0.481197
0.080448
0
0
0
0.0398219
0.042116
0.133064
0.242276
0.228959
0.266204
0
0.000337636
0.00381824
0.00494199
0.00371598
0.0247733
0.0592234
0.490912
0.240043
0.00916677
0.00137249
0
0
0
0
0.00407905
0.370046
0.320342
0.117137
0.0192827
0
0.0024849
0.0111121
0.00949328
0.0174546
0.314922
0.267577
0.016629
0.00828126
0.0179368
0.00410409
0.000736828
0.00516005
0.00722942
0.371469
0.367258
0.0728894
0.0275904
0.067912
0.0393233
0.0645656
0.0520478
0.0150285
0.332892
0.165966
0.109877
0.0245832
0.00845837
0.0501946
0.058367
0.0199955
0.0341944
0.189466
0.164236
0.0727847
0.0639272
0.0484017
0.0760488
0.0562748
0.00857988
0.0315027
0.154741
0.136973
0.127634
0.143567
0.169965
0.186427
0.156678
0.074298
0.0188457
0.166242
0.13919
0.419838
0.498664
0.17362
0.210971
0.0881778
0.0168445
0.00456903
0.0305537
0.138034
0.0563131
0.0147383
0.00862929
0.00510555
0.00227868
0
0.00348913
0.0719454
0.31763
0.0731176
0.00143231
0
0
0
0
0.000323074
0.141023
0.166084
0.270724
0.189952
0.0201519
0.0119108
0.00169115
0
0.000142521
0.0107657
0.688449
0.377763
0.0785185
0.00371713
0
0
0
0
0.0698223
0.207094
0.0114334
6.08037e-005
0
0
0
0
0
0.122433
0.229888
0
0
0
0
0
0
0.00917256
0.228125
0.512881
0.0689805
0.00300436
0
0
0
0
0
0.162183
0.496443
0.00145762
0
0
0
0
0
0.0222329
0.482113
0.15605
0
0
0
0
0
0.00214083
0.0540409
0.249422
0.0580336
0.000549208
0.000710237
0.00213071
0
0.00961554
0.0298273
0.123702
0.259035
0.289882
0
0
0
0
0
0.0119905
0.154308
0.560198
0.122729
0.00384446
0.00118373
0.00355119
0
0.0721668
0.178422
0.317855
0.40923
0.0224134
0.00320122
0.0102534
0.0117555
0
0.0189528
0.0424714
0.107384
0.373967
0.0761713
0.00482452
0.0130299
0.00792713
0.000767761
0.0046349
0.00704157
0.0310125
0.625069
0.0997203
0.0210292
0.017089
0.0195925
0
0.142245
0.266472
0.264722
0.214253
0.111516
0.0174572
0.0217165
0.0159417
0.00537433
0.0400003
0.0809024
0.158695
0.208712
0.0663856
0.007306
0.0155613
0.0039467
0.00208036
0.00192124
0.00852261
0.0741974
0.530804
0.0564925
0.0091736
0.0513397
0.0545986
0.0025957
0.000274462
0.111196
0.308606
0.572103
0.0420772
0.0121767
0.0488044
0.020586
0.035665
0.0468722
0.0659493
0.0725456
0.0887961
0.00813774
0.0152893
0.151633
0.226404
0.0949386
0.0447752
0.0927122
0.0603435
0.0422568
0.0708325
0.00141894
0.0547151
0.0725993
0.00396532
0.00691622
0.135116
0.205311
0.383543
0.0967286
0.0180136
0.133971
0.0569371
0.0342656
0.0444167
0.12382
0.102953
0.374066
0
0.00290335
0.149762
0.333006
0.106854
0.0111934
0.0810697
0.0390736
0.0280987
0
0.0179792
0.399107
0.310822
0.116557
0.0278943
0.0701096
0.0234223
0.0332107
0.0738095
0.0109026
0
0.00493898
0.124392
0.0978148
0.0831811
0.0519381
0.0946928
0.156166
0.00857529
0.000476836
0.00728406
0.0104503
0.0143302
0.0539721
0.0353067
0.184697
0.260935
0.0562884
0
0.0476404
0.206749
0.093858
0.0640252
0.0789422
0.219343
0.563276
0.0197375
6.81194e-005
0.0024086
0.00400298
0.0157427
0.0539314
0.0927388
0.478542
0.0840694
0.0371755
0.0144561
0.0352834
0.0115903
0.00535043
0.0229683
0.0076383
0.0966241
0.0951501
0.1038
0.128724
0.254998
0.0719649
0.0474054
0.030194
0.00566949
0.0991445
0.320617
0.0695024
0.0228954
0.0170806
0.00695416
0.0164921
0.0378215
0.0816291
0.273514
0.202766
0.427509
0.420856
0.30613
0.0608712
0.077471
0.0512564
0.118061
0.17502
0.0230592
0.0628778
0.148299
0.264021
0.0642161
0.0333371
0.0139023
0.00303078
0.0178874
0.0814689
0.195094
0.32492
0.169664
0.0536368
0.0109407
0.00238429
0.000432968
0.00513283
0.0374018
0.172764
0.299889
0.385226
0.0928919
0.0197369
0.00674867
0.00923921
0.00864856
0.114845
0.150789
0.391199
0.393795
0.123249
0.0345656
0.00225899
0
0.0078942
0.0933989
0.162113
0.255589
0.0204429
0.0300973
0.011715
0.0154261
0.00937504
0.0137769
0.389616
0.245684
0.132544
0.00928577
0.0163295
0.0188219
0.0662783
0.0510783
0.0436791
0.146735
0.075349
0.198658
0.164732
0.0747223
0.0738812
0.0484798
0.0692355
0.129019
0.145291
0.0820488
0.0736946
0.0623595
0.0379751
0.0678821
0.442347
0.406954
0.227709
0.450899
0.0826386
0.00906869
0.0059034
0.00147585
0.00642998
0.0386735
0.018276
0.120749
0.474073
0.0148148
0
0.00354204
0.00088551
0.0045177
0.0106044
0.0140915
0.390135
0.119088
0.0364035
0.00532233
0.00983899
0.00360121
0.0337476
0.367237
0.284933
0.0729557
0.15544
0.0218805
0
0.0059034
0.00147585
0.034439
0.112001
0.171377
0.121914
0.277332
0.00314365
0
0
0
0.00133541
0.0205032
0.0807146
0.481588
0.137063
0.00152953
0.000173253
0.00051976
0
0.0412809
0.260412
0.280376
0.447534
0.105187
0.00523941
0
0
0
0.0127471
0.0643958
0.0783347
0.164095
0.0484444
0
0
0
0
0.00624999
0.290624
0.227077
0.209492
0.0361145
0.0039752
0.00120399
0.00138037
0
0.039454
0.240333
0.254797
0.119074
0.0228408
0.00272609
0.00153001
0.0015569
0.00188548
0.0344801
0.148516
0.26337
0.0946909
0.00642585
0
0
0
0.00347894
0.0217595
0.328906
0.362735
0.0742716
0.00163052
0
0
0
0.0117918
0.263944
0.462993
0.379051
0.0400226
0.00556547
0.00123892
0.0102131
0.00641595
0.051357
0.109224
0.142094
0.106894
0.030484
0.000120609
0.00155562
0.0343171
0.118391
0.183673
0.115158
0.0477078
0.00733902
0.000731154
0.00031766
0
0
0.000282702
0.106509
0.532863
0.341155
0.102954
0.0080306
0
0.00870829
0.0387587
0.151836
0.39253
0.412834
0.0817069
0.00478064
0
0
0.000574969
0.0629326
0.296273
0.209877
0.0262864
0
0
0
0
0.0501321
0.221736
0.277944
0.172056
0.0113096
0
0
0
0.00449099
0.0497961
0.214232
0.344812
0.303439
0.0845971
0.00399337
0
0.00449099
0.00748499
0.0945527
0.453404
0.244245
0.105082
0.0192187
0
0.016269
0.0102752
0.172659
0.0631771
0.0325307
0.0184249
0.0485291
0.0262884
0.0318122
0.0508421
0.177095
0.459326
0.0936738
0.0242455
0.00700827
0
0.00637057
0.0196488
0.0504714
0.355255
0.163488
0.114626
0.162769
0.0469754
0.0717904
0.00957554
0.0463961
0.0236602
0.127341
0.454155
0.242846
0.168826
0.0986501
0.13565
0.0538151
0.0759145
0.0191288
0.253175
0.252851
0.0491182
0.012341
0.00408843
0.00768903
0.0527714
0.0449211
0.0573826
0.131548
0.122829
0.150988
0.110965
0.0316192
0.060653
0.18695
0.0841697
0.0885399
0.0775251
0.215475
0.0847456
0.0968677
0.0609158
0.183339
0.208138
0.153593
0.0254166
0.0876115
0.0803889
0.0615587
0.14016
0.110311
0.485994
0.492969
0.184914
0.0397717
0.0469992
0.03695
0.276363
0.242527
0.111946
0.057446
0.0760048
0.0222966
0.016407
0.00948006
0.0829913
0.253045
0.229881
0.207947
0.0578961
0.130012
0.054516
0.00365654
0.0218806
0.0188966
0.234464
0.330264
0.115109
0.285507
0.19717
0.0404599
0.0107918
0.012622
0.0888776
0.277246
0.28416
0.148819
0.0985142
0.234541
0.127682
0.0255958
0.069194
0.051981
0.0359206
0.0377553
0.118941
0.0365151
0.205141
0.115819
0.0335166
0.0643391
0.0179983
0.000389807
0.00264562
0.0474749
0.0250453
0.157475
0.405464
0.316537
0.107403
0.0244259
0.0333726
0.0548942
0.131021
0.0860586
0.355078
0.219914
0.0120316
0.0241801
0
0.0111734
0.0462136
0.0947228
0.147001
0.381779
0.368731
0.175904
0.0331585
0.000178772
0.000830338
0
0.00288399
0.00318966
0.0213247
0.280223
0.304178
0.0194352
0.0020035
0.00176126
0
0.000778463
0.000280427
0.0240952
0.229691
0.232005
0.0220783
0
0.00266962
0.00614347
0.0178611
0.0343647
0.0749207
0.351934
0.256627
0.0346397
0.000451259
0
0
0.00208235
0.00112127
0.0289768
0.548614
0.404128
0.0558044
0.0223732
0.0165408
0.0153502
0
0
0.0216203
0.153831
0.0793231
0.0658161
0.0877244
0.028212
0.0255837
0
0
0.00230391
0.0644634
0.124448
0.145047
0.0388829
0.110747
0.0641875
0.00281515
0.0023033
0.0211935
0.412862
0.420012
0.241206
0.257956
0.230945
0.134542
0.019706
0.0161231
0.000782223
0.0630507
0.388592
0.334593
0.0254642
0.00387548
0.00306993
0
0.00878924
0.0237885
0.109435
0.177296
0.0735878
0
0
0
0
0.0182398
0.235488
0.393803
0.152553
0.0270098
0.095297
0.04026
0.0236034
0.00642774
0.0109226
0.0486754
0.198641
0.413366
0.145839
0.00294847
0
0
0.014041
0.0761211
0.262661
0.510824
0.231541
0.0442198
0
0
0
0.00150421
0.0379351
0.253052
0.213495
0.0319297
0.00108401
0
0.00846343
0.0228884
0.0753876
0.199382
0.232294
0.093833
0.00476864
0
0
0
0
0.0300763
0.207745
0.287014
0.240828
0.0363724
0.00163192
0
0.00523191
0.0154629
0.0946331
0.609652
0.36109
0.135753
0.0125944
0.00211884
0.00849284
0.0598634
0.161522
0.184219
0.243598
0.0855992
0.0279086
0.00762842
0.00849284
0.0171729
0.0503889
0.220468
0.10255
0.0395259
0.0122395
0.0142751
0.0424456
0.0224494
0.0464694
0.0545045
0.129261
0.2036
0.650902
0.242149
0.126932
0.0500323
0.0367582
0.121325
0.0619158
0.187688
0.149154
0.092839
0.0242007
0.0666761
0.0739539
0.169962
0.0666599
0.0402464
0.0824095
0.0570865
0.098615
0.0115362
0.158816
0.0969316
0.0883731
0.196513
0.111272
0.146136
0.111293
0.222465
0.154457
0.228463
0.0655741
0.177681
0.164447
0.0447114
0.0387129
0.0263791
0.0450908
0.00963834
0.118018
0.13888
0.240581
0.212745
0.0356427
0.0891322
0.0275406
0.208137
0.201368
0.228763
0.0895915
0.491359
0.0307624
0.0191107
0.127881
0.121816
0.2002
0.11836
0.0947833
0.00368572
0.0286807
0.00545505
0.00374086
0.130868
0.2776
0.487434
0.187023
0.0576125
0.00064285
0.00709181
0.0207909
0.00278473
0.0929732
0.114172
0.19367
0.14462
0.107247
0.0157237
0.101784
0.00075224
0
0.0820996
0.264766
0.430337
0.295133
0.142211
0.0201351
0.0285462
0.00174967
0.0301689
0.109953
0.163584
0.340718
0.181076
0.0444194
0.00484068
0.00304697
0.0122477
0.0391879
0.167558
0.267024
0.170358
0.147984
0.073248
0.0155619
0.0213288
0
0
0.0159778
0.112213
0.265241
0.334418
0.251592
0.0750411
0
0
0
0.0738883
0.23794
0.248605
0.337541
0.254098
0.0794519
0
0.00827205
0.0152933
0.157565
0.338984
0.166467
0.126008
0.0681155
0.00414613
0.00947285
0.0391773
0.050425
0.21115
0.212339
0.194488
0.182423
0.11562
0.0443222
0.0539417
0.0311144
0.0191246
0.109424
0.290958
0.293134
0.26959
0.0917157
0.0316486
0.0588057
0.198935
0.154687
0.299576
0.212031
0.153125
0.178083
0.0405162
0.0556536
0.16
0.029143
0.0177328
0.0468156
0.0262789
0.0341774
0.0512107
0.162809
0.115663
0.0734993
0.0130003
0.0041262
0.00488933
0.00269861
0.000498467
0.00993486
0.41645
0.460703
0.0692619
0.0841823
0.0910255
0.15317
0.0521954
0.0248516
0.0211528
0.0656238
0.149391
0.0870072
0.0235895
0.0483409
0.035003
0.0249463
0.0205944
0.0543592
0.405598
0.492237
0.0653098
0.00968809
0.0570802
0.0219719
0.00575942
0.00471226
0.00196203
0.230834
0.445047
0.162629
0.133666
0.164902
0.0573643
0.040316
0.0358989
0.0210427
0.0855594
0.251396
0.22845
0.0155212
0.0236473
0.00439101
0.0389276
0.0292999
0.112525
0.305346
0.392939
0.147043
0.166686
0.0976341
0.00575792
0.065594
0.0867155
0.142978
0.088532
0.207338
0.262573
0.0785713
0.0415202
0.012197
0.0128343
0.0534923
0.119365
0.172611
0.1635
0.0650674
0.00814034
0.000965623
0
0.0273258
0.157611
0.252035
0.253125
0.0792755
0.0103267
0.0853096
0.0366985
0.00145703
0.0269787
0.280372
0.302931
0.0716744
0.0630974
0.0540124
0.00728754
0.00160937
0
0.0372693
0.552211
0.42952
0.0911152
0.0219326
0.00931973
0
0
0
0.0955351
0.268271
0.170945
0.0736427
0.00757889
0.000230711
0.00634687
0.000269606
0.00152776
0.0996004
0.45021
0.304154
0.080939
0.0453013
0.020826
0
0
0
0.163539
0.386026
0.163756
0.0439067
0.0112635
0.00774767
0.0277495
0.00721578
0.0169013
0.287568
0.350793
0.281299
0.095252
0.0631879
0.029399
0.0948378
0.0115466
0.0102087
0.0306839
0.167374
0.138898
0.0788367
0.0744191
0.095504
0.228548
0.0244975
0.0225642
0.0200578
0.0242338
0.0138076
0.026164
0.0400314
0.333378
0.191676
0.0233959
0.0239562
0.113139
0.143503
0.11904
0.0567671
0.0726599
0.163412
0.454779
0.0593664
0.0102036
0.0127495
0.067649
0.0176675
0.00799836
0.0242702
0.593871
0.149772
0.0704854
0.0328657
0.0583732
0.12968
0.0371041
0.0317689
0.0541518
0.120638
0.201541
0.082451
0.0254057
0.016837
0.10034
0.088885
0.0889557
0.0596964
0.302734
0.200244
0.0509757
0.00775959
0.0391718
0.178265
0.117173
0.0679628
0.166178
0.202198
0.491306
0.341445
0.0496624
0.0184598
0.040149
0.0326988
0.0434762
0.0819161
0.304108
0.0304621
0.0158374
0.00831839
0.0126786
0.0621618
0.154457
0.0801889
0.0248766
0.0654289
0.00529655
0.00204451
0.00386126
0.0267467
0.126153
0.572182
0.174567
0.0326789
0.0189669
0.126608
0.0951029
0.0153044
0.0265659
0.0426894
0.137151
0.033274
0.0191101
0.0703225
0.0522506
0.0273886
0.0172856
0.0541874
0.229982
0.633957
0.0748479
0.0180439
0.0260188
0
0
0.000379564
0.00746648
0.0461025
0.349311
0.17001
0.0546761
0
0
0.000790633
0.0112445
0.0233591
0.0527754
0.321658
0.204213
0.057741
0
0.00057084
0.00228336
0.00474605
0.0102499
0.138687
0.600523
0.0814126
0.0205758
0.00169529
0.00324076
0.00887949
0.0221628
0.00842996
0.0556923
0.441809
0.172384
0.125709
0.0357912
0.0430743
0.0114836
0.0243307
0.0595143
0.131534
0.345364
0.210193
0.0804219
0.102654
0.179579
0.100164
0.115177
0.119525
0.162016
0.210396
0.0893131
0.100606
0.238516
0.0320377
0.0616567
0.0887351
0.152377
0.0510361
0.215798
0.181358
0.21982
0.0934937
0.172313
0.155037
0.0758656
0.383825
0.176804
0.176766
0.0670519
0.140933
0.154508
0.0778807
0.110516
0.114744
0.0699407
0.0856038
0.0829932
0.0515311
0.081316
0.134257
0.0595701
0.198521
0.0791087
0.0861247
0.0875709
0.120106
0.33048
0.189567
0.116273
0.204632
0.134513
0.015972
0.128575
0.0976977
0.158606
0.1014
0.103364
0.171223
0.365869
0.293333
0.0678977
0.0524477
0.137005
0.118082
0.184469
0.1005
0.363204
0.0345905
0.0508885
0.0306146
0.0723778
0.0883653
0.134062
0.153373
0.0800537
0.0686677
0.0945363
0.0142324
0.0251953
0.0881353
0.111618
0.126639
0.0518557
0.0665173
0.13537
0.335582
0.112888
0.0428894
0.0361671
0.0918425
0.0417066
0.0485559
0.0324287
0.326257
0.325633
0.042821
0.0481574
0.0931273
0.070656
0.0314711
0.0355575
0.141868
0.626358
0.0372679
0.00610242
0.0203688
0.119345
0.313581
0.153392
0.0122692
0.021829
0.0343259
0.0106259
0.00569083
0.0116417
0.0941942
0.546402
0.233074
0.0144266
0.0192172
0.0200422
0.10474
0.076922
0.0754347
0.286443
0.175899
0.0254949
0.0116355
0.0613416
0.213062
0.100618
0.14677
0.177669
0.29358
0.289633
0.0922696
0.0457868
0.0200535
0.0337969
0.00726432
0.0238972
0.0369575
0.0570787
0.222858
0.0791653
0.0323699
0.0246104
0.0163589
0.0168896
0.0549301
0.139697
0.253694
0.181942
0.0877082
0.0530968
0.0240439
0.00518337
0.0781045
0.290196
0.267146
0.083917
0.078106
0.0328771
0.0282174
0.019541
0.0169396
0.0623069
0.558764
0.451547
0.201404
0.0460195
0.0383868
0.0480285
0.0288434
0.0462439
0.156643
0.0695845
0.16691
0.267048
0.106751
0.0452673
0.035898
0.0178614
0.0849502
0.415649
0.0642782
0.0466341
0.0358372
0.065188
0.0349987
0.0461453
0.013616
0.418883
0.0695909
0.30026
0.289702
0.189359
0.0236118
0.102883
0.181447
0.0424249
0.0665364
0.160951
0.0586839
0.0509063
0.0294444
0.0489019
0.11028
0.260672
0.0614648
0.131276
0.146547
0.0287633
0.00753288
0.00878613
0.0139829
0.0163727
0.0167202
0.0491878
0.184987
0.259172
0.0891645
0.00788312
0.00079932
0.00225795
0.0013318
0.00130768
0.0289687
0.31829
0.206682
0.0522081
0.012337
0.0138442
0.00653444
0.000519513
0.00185564
0.0299398
0.352402
0.357668
0.0200115
0.000412836
0
0
0
0
0.0610153
0.62555
0.235647
0.131653
0.0208295
0.0426706
0.0321794
0.0374086
0.00169817
0.0140763
0.210974
0.118154
0.106719
0.085168
0.12007
0.318088
0.33177
0.0101543
0.00867713
0.0556743
0.40538
0.0607437
0.0120896
0.00978934
0.00240914
0.0152585
0.0205856
0.0847774
0.420284
0.187226
0.091053
0.0817132
0.0709869
0.195223
0.184232
0.0938335
0.130674
0.177841
0.00872912
0.0163392
0.0353695
0.0412011
0.28902
0.506832
0.0630669
0.018895
0.0130825
0.0406852
0.0139242
0.00970612
0.00657788
0.0716275
0.359726
0.169692
0.211381
0.146901
0.0169122
0.0176189
0.0369072
0.0568328
0.242333
0.290378
0.122328
0.0758967
0.0362971
0.140137
0.0422379
0.0703768
0.0508016
0.0510802
0.21561
0.14098
0.141861
0.204644
0.0274557
0.0588231
0.0416488
0.0603747
0.0254781
0.100524
0.0556667
0.187855
0.0957908
0.152126
0.213672
0.0633014
0.135422
0.107019
0.121078
0.0144781
0.120593
0.0568009
0.142571
0.0481071
0.0769888
0.0363459
0.0276627
0.113345
0.0471056
0.190431
0.256575
0.115159
0.102337
0.0461122
0.0211603
0.139156
0.154669
0.0447448
0.357562
0.607499
0.19202
0.120242
0.0235869
0.0376837
0.0419604
0.062451
0.0583556
0.102551
0.0888099
0.311649
0.143708
0.0190023
0.0145362
0.0298515
0.0285354
0.0911245
0.117211
0.271131
0.0749843
0.0572615
0.0290234
0.0139421
0.0491851
0.0534197
0.0281857
0.246389
0.44012
0.258283
0.096
0.0249424
0.0229382
0.00358423
0.00559966
0.0214403
0.195565
0.49381
0.267453
0.0970159
0.00545809
0.00675299
0.0105413
0.00310118
0.0104324
0.0260054
0.199774
0.249854
0.0653117
0.0221575
0.0196631
0.0034401
0
0.00250695
0.149218
0.375117
0.295497
0.161133
0.00712383
0.011255
0.00125055
0
0.00192044
0.0256783
0.173022
0.581697
0.295405
0.026372
0.00879053
0.00017865
0
0
0.0695953
0.1151
0.0773691
0.0752952
0.0777211
0.0949773
0.0100446
0.0014248
0.00208997
0.0769522
0.1499
0.0702716
0.194415
0.318404
0.147988
0.0164799
0.00997361
0.0125282
0.0077049
0.0215961
0.310065
0.216518
0.174131
0.0705013
0.000410782
0
0
0.0381009
0.040581
0.112043
0.42872
0.571123
0.131218
0.0107742
0.00703496
0
0.00349056
0.00859421
0.0444572
0.237315
0.370506
0.122884
0.0149092
0.00997788
0.00422288
0.00111247
0.00715461
0.0521737
0.329275
0.277855
0.100859
0.0760427
0.0751948
0.0169112
0.0138905
0.0630512
0.0143425
0.232797
0.509653
0.12569
0.0786718
0.0762078
0.00468895
0
0.00362528
0.0119749
0.076669
0.201959
0.120609
0.25829
0.220923
0.0566658
0.00196165
0.0283194
0.0457827
0.209995
0.102686
0.036153
0.151796
0.271417
0.160165
0.0387269
0.0930455
0.0670181
0.129176
0.0460621
0.0143193
0.0617971
0.163369
0.186723
0.0414258
0.0582476
0.012164
0.0304019
0.0326947
0.0909233
0.529258
0.387881
0.125424
0.00531538
0.0307569
0.0865219
0.139028
0.0899099
0.107487
0.293932
0.15568
0.0577022
0.00889957
0.00782658
0.203595
0.0304611
0.0110591
0.00346567
0.00994857
0.0163273
0.0012012
0.0184746
0.191216
0.365764
0.0188688
5.83623e-005
0.00273757
0.00400831
0.00198715
0
0.0355905
0.341472
0.167675
0.0166556
0.0143738
0.0025142
0.0110416
0.0267243
0.00840843
0.0680245
0.391663
0.283823
0.0280768
0
0.00456262
0.00668051
0.00331192
0
0.11455
0.561591
0.274225
0.0132818
0.0042012
0.0191588
0.0388936
0.0445963
0.0371756
0.0990521
0.223509
0.0786463
0.00722339
0.0122176
0.0578643
0.247367
0.30997
0.107243
0.134666
0.113433
0.171836
0.0536505
0.0347963
0.0900394
0.0648226
0.0425236
0.0190548
0.131173
0.369418
0.0917601
0.0953161
0.137148
0.32223
0.380151
0.254162
0.0394951
0.0565165
0.134265
0.00389078
0.00284111
0.00621528
0.0510663
0.214007
0.196691
0.0467973
0.0315799
0.0117069
0.0593379
0.0414549
0.0968919
0.193464
0.145124
0.058573
0.023858
0.0219669
0.0438245
0.0117846
0.0280578
0.0534126
0.195548
0.371465
0.148799
0.00933199
0.00519572
0.00207147
0.00601248
0.0132928
0.0442029
0.314727
0.669643
0.0230371
0.0024105
0
0.000496775
0.0692797
0.0432266
0.0891736
0.112467
0.0588112
0.0114911
0.00616881
0.0421659
0.140476
0.0923854
0.0291915
0.0525974
0.0363354
0.0359374
0.0234038
0.0106339
0.118408
0.571899
0.0183997
0.0296192
0.0608755
0.206303
0.433693
0.0110737
0.00193235
0.00328068
0.0538037
0.0955447
0.0323674
0.0584836
0.108062
0.309811
0.132316
0.0131633
0.0162279
0.396105
0.0458425
0.0018961
0.00440957
0.00153359
0.00755552
0.00727651
0.00348863
0.0880859
0.455088
0.201692
0.00678515
0.00203048
0.0019004
0.00830661
0.00234758
0.000356109
0.078136
0.47434
0.0651655
0.00244418
0.0045392
0.00487162
0.0648137
0.0747089
0.00625984
0.0508891
0.400368
0.202849
0
0.00392313
0.00904363
0.100677
0.0432483
0.00260915
0.0940458
0.47434
0.332708
0.0435315
0.00178576
0.00221963
0.0203704
0.00201635
0
0.011212
0.257464
0.511477
0.183559
0.00326998
0.00153897
0.0162666
0.00028805
0
0
0.0984736
0.26593
0.00956404
0.0043223
0.015944
0.240327
0.0520387
0.00495199
0.022637
0.254795
0.44831
0.127271
0.000617471
0.00660257
0.18352
0.0568142
0.0449556
0.00169937
0.107879
0.513914
0.263292
0.104589
0.0161883
0.00170723
0
0
0
0.0203071
0.180201
0.304322
0.455072
0.0280202
0.0303305
0.00971911
0.00211321
0.000528303
0.0215737
0.395222
0.17043
0.0231587
0.00220453
0.0266564
0.035266
0.0318676
0.000807136
0.0310219
0.181058
0.129909
0.118101
0.00537564
0.0719361
0.0472258
0.0238083
0.00369812
0.0359562
0.0117725
0.128647
0.294197
0.0540922
0.218417
0.0830674
0.0102052
0.000658522
0.00603354
0.000432895
0.01405
0.0850141
0.117213
0.359636
0.247131
0.120195
9.40746e-005
0.000432895
0.0204845
0.0398826
0.0683536
0.0465581
0.376688
0.137834
0.0299249
0.00460966
0.0100559
0.000721491
0.117931
0.161987
0.117291
0.47454
0.298114
0.0846813
0.000658522
0.000721491
0
0.00304298
0.0287328
0.0653228
0.278225
0.328303
0.160587
0
0
0.0312285
0.0191816
0.0362368
0.0601991
0.206315
0.211025
0.0645854
0.0161598
0.0139617
0
0.154847
0.211097
0.0927548
0.228353
0.43533
0.118003
0
0
0.00306084
0.0447603
0.0707991
0.116204
0.252618
0.420644
0.0587968
0.0304804
0.0485214
0.148161
0.00234399
0.00210256
0.00037104
0.00140002
0.00390341
0.00337311
0.0296944
0.455586
0.232511
0.00603455
0
0.000673342
0.000985895
0.000488765
0
0.0620935
0.643289
0.168392
0.012664
0.00135379
0.000472181
0
0
0.000104393
0.00380578
0.203967
0.270159
0.0155258
0.0196006
0.00487683
0
0
6.26359e-005
0.00665173
0.28057
0.246187
0.058345
0.0252042
0.0367264
0.0107681
0.00493392
0
0.0661728
0.542384
0.286153
0.1869
0.158681
0.191463
0.103076
0.0273971
0
0.00880233
0.236086
0.300829
0.0294468
0.0191576
0.00348428
0.000117221
0.0025765
0.00298018
0.0076521
0.266923
0.315065
0.0820678
0.0368739
0.0219123
0.0258535
0.0140328
0.00585656
0.00235063
0.169578
0.0476844
0.0570221
0.0632813
0.130337
0.12939
0.0180522
0.00419669
0
0.0184655
0.00121532
0.00336937
0.0052377
0.17995
0.560089
0.00824646
0.00699449
0
0.00121532
0.0563139
0.0303688
0.0233247
0.0425338
0.0684233
0.0154839
0.0079587
0.00192933
0.0285279
0.00202554
0.00248238
0.0054323
0.18593
0.698068
0.0152117
0.0118453
0.0029673
0.00202554
0.00147876
0.00203072
0.00377135
0.10081
0.494609
0.00814325
0.00476085
0.000232542
0.00195149
0.0130938
0.00338454
0.00628558
0.0476425
0.379066
0.120864
0.0495339
0.0166752
0.0525093
0.0162687
0.0157297
0.00522149
0.123903
0.577693
0.00934275
0.00685253
0.00189509
0.00922416
0.122105
0.0399369
0.00849495
0.0416153
0.315719
0.0492231
0.0717224
0.0465757
0.210484
0.0239091
0.000505214
0.000938254
0.00273722
0.0942337
0.126285
0.0433755
0.0667591
0.152042
0.101622
0.0397035
0.0265137
0.0328067
0.115842
0.0647635
0.0136173
0.110375
0.229599
0.195764
0.0106037
0.00126805
0
0.0361995
0.0453191
0.0562125
0.0740614
0.432643
0.513927
0.106492
0.0280792
0.0234034
0.0240116
0.0168455
0.011141
0.0472666
0.520053
0.0939082
0.0784657
0.0775394
0.0842173
0.356571
0.102006
0.0106144
0.033794
0.093129
0.0901193
0.0942966
0.0829861
0.075205
0.272337
0.189535
0.0918775
0.00325872
0.0219391
0.456362
0.328127
0.128698
0.0847069
0.0854608
0.0271252
0.0023252
0.0081272
0.187081
0.249958
0.302194
0.178701
0.108428
0.0749306
0.0869211
0.0172259
0.0171769
0.0755343
0.1717
0.116293
0.0714748
0.0843271
0.164116
0.278683
0.132155
0.00305441
0.0153592
0.101165
0.0549286
0.0464288
0.0432152
0.319471
0.275898
0.0719427
0.00514833
0.0184147
0.242262
0.127583
0.180194
0.151429
0.152587
0.149738
0.0272388
0.0407608
0.109993
0.0381124
0.0111053
0.0732569
0.16442
0.4481
0.187178
0.019797
0.0109677
0.0204693
0.00632693
0.0170478
0.0296353
0.0124132
0.276278
0.251531
0.0377289
0.00237578
0.00190662
0.000136796
0.18696
0.347848
0.0558108
0.24399
0.322176
0.0490143
0.000339397
0.000136796
0
0.00287391
0.0736226
0.0967237
0.276861
0.154021
0.0212402
0.000230332
0.000153555
0
0.0535565
0.391356
0.227409
0.307799
0.167119
0.0303451
0
0
0
0.265013
0.430925
0.123739
0.0869477
0.152304
0.0189664
0
0
0
0.122029
0.209182
0.200157
0.176606
0.129248
0.00624934
0.0204922
0.0190119
0
0.108978
0.389679
0.266101
0.162136
0.0284564
0.00526441
0
0
0
0.106581
0.266824
0.22294
0.220987
0.0579356
9.96244e-005
0.00263607
0.000131155