0.101557
0.239149
0.0629235
0.0225853
0.00549778
0.013486
0.0421637
0.171694
0.0943057
0.105276
0.151281
0.100831
0.04299
0.0173304
0.00978262
0.0884874
0.157011
0.150424
0.153905
0.274006
0.162486
0.0393414
0.00916297
0.036594
0.0389535
0.0529979
0.107258
0.292959
0.150567
0.143721
0.0216331
0.0280259
0.0140572
0.067971
0.124351
0.35144
0.117635
0.0820304
0.0899156
0.019814
0.0189149
0.0123866
0.105904
0.102413
0.121044
0.100821
0.097034
0.141156
0.0264032
0.0468286
0.015221
0.147371
0.190501
0.124633
0.305798
0.062608
0.0779504
0.00861168
0.037303
0.0557694
0.0782906
0.135208
0.30186
0.17439
0.0532679
0.151108
0.0215776
0.113075
0.233046
0.135787
0.148815
0.184454
0.0823356
0.0635066
0.0837988
0.0171129
0.0509324
0.0341578
0.132251
0.0652861
0.0686759
0.127506
0.258886
0.199537
0.0392521
0.0151806
0.0610364
0.16421
0.0837797
0.0742535
0.0904987
0.069789
0.19876
0.0513255
0.0898274
0.0838568
0.0803584
0.0424833
0.0693957
0.217388
0.337185
0.323092
0.105598
0.0237673
0.0339218
0.0931202
0.18236
0.123781
0.0359583
0.176991
0.0713847
0.0098891
0.0183623
0.0373948
0.052735
0.0611229
0.0236791
0.0643159
0.154601
0.0340143
0.000437874
0.0444118
0.0303724
0.0649163
0.0757603
0.0568506
0.215573
0.21689
0.0938485
0.0168501
0.0110174
0.0305699
0.0338226
0.120402
0.0534099
0.664949
0.175342
0.0210286
0
0.0266471
0.0337765
0.0333328
0.0505373
0.273169
0.030952
0.0367772
0.00473365
0
0.016943
0.0105877
0.0669724
0.0631087
0.0450156
0.0261369
0.00335311
0
0
0.0331399
0.0508281
0.110219
0.0762368
0.0614484
0.271175
0.0463482
0.000676235
0
0.0072625
0.0142653
0.0236109
0.0486474
0.391801
0.221565
0.00516476
0
0
0.0114675
0.0365916
0.0461235
0.107258
0.705718
0.0208482
0.00373775
0.0106906
0.00356381
0.0797177
0.0729143
0.0846913
0.0371559
0.0504719
0.0188138
0.0261642
0.0768003
0.0891058
0.078501
0.05923
0.0784868
0.0258484
0.0316716
0.302806
0.00302035
0.00741451
0.000509115
0.0397651
0.031567
0.043082
0.0976552
0.621325
0.232644
0.0211424
0.0519016
0.00925945
0.137964
0.060101
0.0929444
0.176849
0.313334
0.060745
0.0443821
0.071696
0.152567
0.0500018
0.0274616
0.101784
0.0890442
0.087224
0.139169
0.0549464
0.0715486
0.139668
0.124394
0.0128457
0.0821019
0.100476
0.155928
0.177602
0.0647038
0.063396
0.0221389
0.245597
0.104405
0.094951
0.194346
0.245183
0.216299
0.124502
0.117153
0.0661664
0.25138
0.0613566
0.059287
0.120096
0.23416
0.0872683
0.0337717
0.0318227
0.068955
0.162398
0.107855
0.101423
0.0374411
0.0825072
0.0723889
0.0614228
0.115525
0.17066
0.165518
0.272409
0.156645
0.0226635
0.057419
0.0719302
0.0859706
0.0587469
0.0270861
0.260928
0.0807645
0.0985691
0.098507
0.0936811
0.0471038
0.13928
0.209995
0.0562181
0.17859
0.264846
0.173811
0.0847163
0.0822019
0.0792121
0.0784531
0.131964
0.12756
0.0666788
0.173037
0.133776
0.00943326
0.0577329
0.0643013
0.103712
0.0824166
0.165661
0.14325
0.100359
0.0982876
0.129875
0.0870548
0.0796029
0.0970346
0.157385
0.155032
0.124517
0.165134
0.143864
0.0237107
0.0761099
0.199795
0.140139
0.0440125
0.228762
0.100241
0.0791066
0.164113
0.143626
0.15446
0.13981
0.180356
0.165135
0.0956535
0.0519167
0.0351359
0.0218112
0.0388418
0.0641791
0.236117
0.114284
0.109941
0.0933603
0.0189084
0.0479603
0.0592913
0.129822
0.225693
0.182252
0.238894
0.163416
0.103343
0.105099
0.0161716
0.0147917
0.0598058
0.0566402
0.204189
0.201319
0.195562
0.170445
0.0961062
0.0642487
0.0702362
0.0886361
0.120596
0.114541
0.0224457
0.0479065
0.0222834
0.0158465
0.051846
0.0764689
0.0951504
0.137848
0.0751501
0.0151452
0.0805715
0.0247013
0.118112
0.194453
0.119106
0.0632591
0.0909151
0.0818933
0.0465833
0.0785972
0.0522447
0.0807729
0.115947
0.121694
0.0770403
0.174356
0.118993
0.349489
0.302185
0.0468347
0.144582
0.367149
0.188373
0.0697542
0.245821
0.0293833
0.0588551
0.0460999
0.0163066
0.0262838
0.0273549
0.020785
0.00515689
0.0127101
0.0756928
0.329039
0.0950576
0.0219228
0.00268825
0.000863062
0.011296
0.0155192
0.0150043
0.0623706
0.329071
0.245678
0.0434211
0.0218684
0.0511541
0.0230821
0.0037915
0.027316
0.206114
0.662437
0.27483
0.093015
0.010741
0.00143844
0.00375378
0.000525749
0.00412279
0.180988
0.289602
0.0762952
0.00387414
0
0.00103652
0.00326978
0.0178178
0.0147966
0.49789
0.134
0.0332496
0
0
0.00259668
0.0113165
0.00983752
0.150894
0.223088
0.433508
0.168243
0.0431085
0.00613783
0.00751361
0
0.00913633
0.036762
0.309675
0.209165
0.122395
0.0200398
0.0304397
0.0676936
0.08781
0.0260217
0.14676
0.315993
0.0230061
0.00226931
0
0.000912812
0.00369215
0.0140546
0.0178927
0.294428
0.319964
0.00365949
0
0
0.00638968
0.00469685
0.00596554
0.0558531
0.566302
0.211031
0.0238334
0.0158852
0.0159747
0.0278666
0.069574
0.118488
0.0402813
0.149799
0.28846
0.00806839
0
0.00228209
0.0595555
0.0432484
0.0531825
0.0811606
0.271095
0.200183
0.000980026
0.000227742
0
0.00301079
0.00160604
0.00585693
0.0877713
0.415024
0.119594
0.000660557
0.00159419
0
0.0386554
0.00910371
0.068716
0.281403
0.29787
0.137352
0.00632878
0
0
0.0374737
0.0027703
0.0121735
0.131076
0.28749
0.0456082
0.000904112
0
0
0.0271229
0.00661022
0.182594
0.471573
0.300703
0.0461723
0.00649751
0.00551729
0
0.0594077
0.0121531
0.0756018
0.204842
0.108105
0.0408612
0.0300216
0.0125246
0
0.0632224
0.0249673
0.0582569
0.0791492
0.0721928
0.0208674
0.00178433
0.000619311
0
0.0154081
0.00784778
0.333615
0.504476
0.125078
0.0286621
0.0152958
0.00390789
0
0.0175538
0.041044
0.40871
0.463806
0.0929461
0.0323329
0.0628943
0.0228137
0.0120411
0.142975
0.0613399
0.0911673
0.0670766
0.0581078
0.00507308
0.0443591
0.06704
0.0691466
0.172109
0.130213
0.0784935
0.0594564
0.0345523
0.0257502
0.0412946
0.0398799
0.0812597
0.0844473
0.102965
0.480295
0.401849
0.0463061
0.00217275
0.0343989
0.137578
0.253038
0.21624
0.071983
0.137176
0.105871
0.00490853
0.0163403
0.0278363
0.0794668
0.11957
0.263818
0.0709407
0.0365595
0.0183843
0.0225923
0.124449
0.0713049
0.0970273
0.0733017
0.171157
0.0418117
0.0904675
0.10455
0.110802
0.0224002
0.0343501
0.149664
0.206803
0.283894
0.0504386
0.0294714
0.0431611
0.0361955
0.105765
0.0724412
0.173968
0.0775995
0.29905
0.0328711
0.0690681
0.24936
0.178446
0.1282
0.17509
0.0946946
0.044635
0.0495217
0.00499815
0.0252573
0.0429899
0.0518195
0.207452
0.182026
0.225566
0.0862056
0.113706
0.0143032
0.0179111
0.0283942
0.0921687
0.121172
0.112644
0.078913
0.0475254
0.135536
0.100094
0.0867102
0.0619736
0.0900438
0.222164
0.173292
0.229519
0.287351
0.219293
0.129143
0.0760274
0.0311204
0.0692231
0.0397047
0.0315028
0.0547163
0.0292361
0.0393192
0.0161267
0.00928542
0.012356
0.0421105
0.0350237
0.197261
0.340195
0.0641872
0.0448143
0.055376
0.0154546
0.00900789
0.0502404
0.0401295
0.0927929
0.203882
0.169772
0.0432893
0.0175288
0.00217727
0.00658553
0.0133349
0.0162024
0.240881
0.676885
0.316056
0.044446
0.0113342
0.00704219
0.00394427
0.0126204
0.0191719
0.293911
0.339586
0.0569811
0.0198157
0.0278175
0.00583855
0.00035909
0.0107753
0.0722574
0.291999
0.273237
0.172865
0.0391599
0.0183869
0.00144478
0.00414985
0.00761995
0.00187177
0.156038
0.381385
0.179452
0.0664896
0.0732995
0.0327748
0.000709025
0.00139501
0.0568707
0.0985966
0.23334
0.333058
0.160016
0.212855
0.141144
0.00734184
0.0254847
0.10056
0.214288
0.192923
0.122754
0.0502811
0.0325225
0.0147991
0.0495309
0.0682753
0.0509602
0.114818
0.0689482
0.0292104
0.115248
0.131493
0.15948
0.0989533
0.0979512
0.0904136
0.0656713
0.173425
0.190899
0.227355
0.22173
0.218988
0.0644192
0.0664518
0.0273973
0.0385845
0.0215937
0.0230126
0.227138
0.249578
0.50527
0.13301
0.0398187
0.0274128
0.0122187
0.011037
0.0349095
0.090016
0.148544
0.253354
0.166179
0.0452791
0.0699328
0.00486583
0
0.0122084
0.168107
0.11811
0.152185
0.200478
0.0655074
0.0306987
0.0664891
0.0115291
0.050682
0.180087
0.174079
0.429788
0.169133
0.0134717
0.0330542
0.0724531
0.0192152
0.0638235
0.293152
0.234508
0.216974
0.246202
0.0357391
0.0778871
0.00695365
0
0.0016402
0.198836
0.033107
0.071659
0.146023
0.12069
0.0251722
0.000993378
0
0
0.172842
0.0211238
0.287489
0.364332
0.18392
0.0398096
0.0106801
0.00399031
0.0114814
0.218791
0.161145
0.167686
0.30255
0.0675744
0.0302335
0.00396346
0.00863105
0.0023592
0.20536
0.0943893
0.184771
0.184854
0.0542683
0.00137029
0.000342989
0.00137195
0
0.0343988
0.0101282
0.234621
0.222697
0.0379696
0.00337348
0.000787131
0.00268677
0
0.00391256
0.0692466
0.505383
0.430099
0.0337254
0.00303918
0.00664826
0.0188529
0.00252818
0.0591575
0.0233768
0.0892231
0.0559617
0.0160568
0.00202545
0.00654994
0.0215557
0.00151691
0.0339273
0.13888
0.480144
0.19706
0.0209046
0.00112698
0.00156645
0.00915581
0.0156511
0.00656827
0.0784774
0.341466
0.22423
0.00516464
0
0.0108717
0.0489377
0.0457748
0.0355904
0.0365419
0.14412
0.0802067
0.000535853
0.000240293
0.0010811
0.00438694
0.00091697
0.0398438
0.170151
0.595759
0.206524
0.00275176
0.0143486
0.0198853
0.0302692
0.0105097
0.161684
0.138607
0.406717
0.117799
0.00321692
0.0317592
0.0359021
0.122827
0.0965042
0.0819934
0.0876695
0.089901
0.0927113
0.0447203
0.121766
0.0545252
0.0661258
0.0580024
0.162343
0.0486907
0.0741299
0.235111
0.151261
0.112227
0.0951923
0.0885109
0.0380233
0.244779
0.21582
0.226201
0.0959794
0.0633345
0.225141
0.223176
0.071147
0.0428873
0.125441
0.113408
0.102443
0.0827487
0.12598
0.0642257
0.0367508
0.0272918
0.0150623
0.0751504
0.0413574
0.025739
0.00640025
0.0580337
0.0687378
0.0179225
0.11824
0.297759
0.10658
0.0622538
0.0259945
0.00425899
0.0534728
0.0901767
0.0624129
0.0641211
0.0450972
0.0617748
0.0105424
0.0472611
0.0188778
0.066842
0.088677
0.0409125
0.382032
0.614974
0.267113
0.0171853
0.0381238
0.00916927
0.0606524
0.00873095
0.0496905
0.188297
0.29491
0.0377166
0.0185218
0.00137223
0.000240686
0.0021495
0.00540133
0.124705
0.329769
0.329259
0.0473087
0.0212404
0.00428881
0.00406309
0.0025916
0.0039363
0.0129915
0.278893
0.475527
0.110376
0.0120524
0.00221942
0.00052867
0.00227798
0.0194457
0.0382649
0.252382
0.352136
0.124551
0.0433933
0.00407407
0.00829146
0.00431933
0.037015
0.0623655
0.177395
0.148064
0.0708588
0.100451
0.0548356
0.0156262
0.00457125
0.0812176
0.0250922
0.0765177
0.187177
0.167548
0.334226
0.469077
0.0142282
0.0123766
0.172429
0.0898175
0.0902407
0.117834
0.101286
0.0521733
0.0335114
0.0318881
0.0142388
0.245143
0.131946
0.0558942
0.125657
0.176227
0.147982
0.367425
0.0480975
0.0262189
0.0303974
0.0101319
0.022674
0.0736096
0.117395
0.127832
0.299131
0.0222632
0.00889013
0.0164569
0.0317728
0.0180728
0.0353638
0.0827981
0.127057
0.379636
0.0474348
0.00237298
0.0284403
0.0247396
0.0155551
0.0611415
0.0836991
0.101799
0.39226
0.0758789
0.0245175
0.00830691
0.0381554
0.0291368
0.0685873
0.0689008
0.203959
0.579705
0.137345
0.0196641
0.0226425
0.0488777
0.0145642
0.028639
0.0567339
0.112299
0.272819
0.0411089
0
0.0232126
0.0464871
0.0184644
0.0226151
0.0630295
0.0988579
0.127086
0.0844384
0.0165877
0.0139052
0.0241258
0.0149098
0.0325528
0.0382898
0.171672
0.593148
0.196415
0.018034
0.0132725
0.0175392
0.0281485
0.0303915
0.0408289
0.126913
0.50295
0.200932
0.0199261
0.0116192
0.0101024
0.0126817
0.00443563
0.0688455
0.143709
0.101571
0.189461
0.0463817
0.0143989
0.00267441
0.0101508
0.0052786
0.0794491
0.146431
0.0908003
0.172478
0.0805931
0.00505128
0.0243409
0.104774
0.161516
0.151725
0.175029
0.208789
0.118998
0.0486108
0.023817
0.0122358
0.182363
0.307173
0.164759
0.17608
0.134791
0.340881
0.400788
0.021722
0.0112601
0.0331868
0.0150826
0.0580015
0.0440769
0.0440837
0.0983594
0.0655715
0.0200656
0.00954572
0.0303488
0.00904956
0.148591
0.116142
0.264261
0.0917134
0.0303065
0.0272666
0.00262574
0.0746126
0.104554
0.102264
0.163037
0.274534
0.408781
0.372877
0.0279628
0.0235241
0.0715116
0.00542974
0.254019
0.186887
0.168577
0.104602
0.0822131
0.00104296
0.000476248
0.00160837
0
0.080379
0.158215
0.240361
0.0517411
0.00132452
0.0165414
0.0149982
0.00407144
0.0193329
0.147462
0.317404
0.267877
0.0345588
0.00224248
0.00464378
0.00698372
0.020511
0.0063584
0.127995
0.201418
0.105608
0.00462576
0.00464378
0.00881578
0.00760645
0.0023434
0.0221971
0.161409
0.563145
0.413321
0.0118835
0.00198713
0.0704636
0.0637591
0.0111744
0.0480545
0.130606
0.201904
0.139783
0.0266628
0.0231154
0.0772245
0.0966311
0.0348725
0.0381578
0.066313
0.0209562
0.0455255
0.0413758
0.0356441
0.0654342
0.0503137
0.00132374
0.0320937
0.160458
0.545614
0.440338
0.0428484
0.0311694
0.169376
0.170085
0.0352201
0.0433562
0.108109
0.0642708
0.0923998
0.0855853
0.0662984
0.0282789
0.0337142
0.0275637
0.0485188
0.0520175
0.00739869
0.0426711
0.0118281
0.0143517
0.039857
0.0658957
0.29141
0.302277
0.278604
0.033585
0.0322515
0.00363396
0.00724435
0.0128727
0.0477024
0.0440028
0.099159
0.163649
0.0380327
0.0629884
0.0155459
0.00596434
0.110761
0.0798595
0.175528
0.263189
0.570837
0.250775
0.173591
0.0638927
0.026438
0.0154278
0.0415174
0.229835
0.267535
0.283015
0.0438547
0.0031951
0.00182484
0.000517046
0.00893296
0.0175459
0.0939346
0.161003
0.249631
0.0917673
0.0158155
0.019945
0.00376723
0.0936648
0.0573373
0.10901
0.153583
0.509031
0.167779
0.0676664
0.0497834
0.0232132
0.016178
0.0106385
0.0182571
0.0871029
0.429246
0.144049
0.0420075
0.0484012
0.0157587
0.115884
0.0729997
0.0493097
0.0986134
0.178135
0.0830252
0.0796101
0.0586882
0.0737574
0.245473
0.119965
0.0407022
0.0956193
0.259678
0.0512552
0.0929077
0.0565734
0.172956
0.0700912
0.0536645
0.0162741
0.0288517
0.146521
0.108323
0.106754
0.109838
0.176258
0.421906
0.199557
0.0142599
0.0184609
0.0828052
0.0289159
0.0521534
0.0728362
0.41359
0.0540901
0.0143425
0.0115184
0.0339879
0.0757505
0.0907406
0.177051
0.0592329
0.0675584
0.0277664
0.0107508
0.00928626
0.0313012
0.0284163
0.307731
0.538692
0.134542
0.0481093
0.220875
0.0647792
0.0126491
0.00916294
0.0275572
0.0590787
0.0750866
0.0306432
0.11576
0.108036
0.0346341
0.0159716
0.0116771
0.0722874
0.33335
0.42252
0.0982008
0.0471993
0.0322432
0.0101342
0.00142456
0.00747575
0.00610981
0.122985
0.329557
0.108174
0.0367738
0.0193459
0.0082554
0.010696
0.0319422
0.034268
0.114279
0.468084
0.102298
0.0255446
0.0451901
0.0163375
0.00550853
0.0262269
0.0347916
0.169032
0.307392
0.0870142
0.0245285
0.0322089
0.0113329
0.0321935
0.17486
0.0358467
0.135389
0.560447
0.108482
0.0481741
0.000451517
0.00881841
0.0412164
0.166085
0.0651131
0.0563477
0.204354
0.0336837
0.0151834
0.00462022
0.00521319
0.0901797
0.384287
0.0846001
0.0478618
0.0863534
0.0740099
0.116181
0.0366984
0.0141793
0.0321549
0.246938
0.0600655
0.0565881
0.422574
0.116729
0.0524693
0.0640345
0.0265969
0.0414358
0.478475
0.272066
0.0501858
0.132793
0.083324
0.125343
0.00529388
0.00057468
0.0356211
0.149205
0.153887
0.154068
0.17112
0.0900109
0.122793
0.0144943
0.00989946
0.028405
0.0268324
0.179597
0.131775
0.0938698
0.0230248
0.0323595
0.026122
0.0078625
0.0131679
0.278304
0.515701
0.205253
0.0699732
0.0273771
0.140506
0.0186782
0.00537308
0.0116976
0.103399
0.456581
0.20558
0.0519777
0.0128167
0.0365793
0.0117002
0.00690619
0.0195044
0.0209537
0.147831
0.0640966
0.0403041
0.00484516
0.0117002
0.00536813
0.00123144
0.00219094
0.0400183
0.315337
0.326018
0.213887
0.00323005
0.00470317
0.0150249
0.00470309
0.00995831
0.0326146
0.291802
0.0251503
0.0166792
0.00642636
0.0150249
0.00550652
0.000643517
0.036305
0.180715
0.6643
0.14669
0.0604581
0.00447425
0.00913147
0.064921
0.0246686
0.00545682
0.0143921
0.129637
0.290429
0.206045
0.00972569
0.0196299
0.2985
0.17773
0.0168224
0.00562438
0.0235685
0.051386
0.0628279
0.0182794
0.103071
0.0885242
0.0399047
0.0822287
0.133089
0.29029
0.160233
0.147885
0.0447398
0.0511039
0.408501
0.28434
0.0752306
0.0129935
0.0358095
0.0279804
0.0934596
0.140416
0.316372
0.0134072
0.0587507
0.0595407
0.0402249
0.0966313
0.0519488
0.0653345
0.0208199
0.00704812
0.0520153
0.0296876
0.0275241
0.0747446
0.369185
0.344657
0.32536
0.113502
0.0335856
0.0319047
0.0486125
0.0492493
0.0358877
0.0340788
0.0614257
0.0409857
0.0741618
0.0262185
0.0075504
0.0171235
0.0561155
0.179114
0.418902
0.393957
0.162996
0.078364
0.0100447
0.0346913
0.00899919
0.00437921
0.0415696
0.253357
0.238862
0.14576
0.0603005
0.0230242
0.00781831
0.00319387
0.0121572
0.0428645
0.227272
0.181563
0.0599683
0.0292219
0.00797905
0
0
0.0108635
0.0595687
0.291975
0.441702
0.15448
0.0215386
0.00327994
0.000408916
0.000272611
0.0122639
0.0263942
0.166964
0.505961
0.199719
0.012036
0.00065607
0.0513133
0.0730511
0.0358565
0.0327391
0.137603
0.0680544
0.0302863
0.0373086
0.0439244
0.395506
0.264506
0.0179253
0.0156012
0.0861551
0.0259071
0.00849435
0.024447
0.154
0.0365769
0.0390305
0.0318419
0.0475128
0.282822
0.197543
0.0938095
0.0292555
0.0290562
0.405784
0.159229
0.0256327
0.0439897
0.239701
0.0475905
0.0639676
0.0816872
0.346015
0.312316
0.123824
0.0265933
0.00444535
0.0139123
0.0277162
0.0250721
0.0121116
0.0911916
0.165784
0.0704457
0.0543415
0.0269205
0.0973941
0.132294
0.117947
0.038506
0.0855505
0.319539
0.124531
0.0202585
0.0065044
0.0193257
0.0755133
0.192225
0.0569549
0.21909
0.423009
0.159973
0.0432922
0.0161523
0.0226639
0.147803
0.257242
0.0638633
0.343287
0.0554307
0.0369636
0.0291576
0.0456414
0.0816094
0.132647
0.20548
0.0665738
0.0407682
0.038745
0.028824
0.0628664
0.261533
0.0970016
0.227543
0.353585
0.0823938
0.0532012
0.325597
0.101565
0.0346211
0.0166081
0.0508671
0.0817502
0.145318
0.085127
0.253265
0.20131
0.140767
0.0470667
0.139416
0.172096
0.28926
0.277209
0.0717502
0.0765575
0.0830915
0.0372806
0.0292412
0.172791
0.095315
0.124933
0.28222
0.114865
0.0640693
0.144131
0.100722
0.0139008
0.206494
0.277879
0.14663
0.137004
0.0815286
0.108872
0.0727465
0.0559913
0.0152295
0.114797
0.197311
0.22225
0.21564
0.0458273
0.0387796
0.0885531
0.0806325
0.0266188
0.169238
0.353228
0.318543
0.179941
0.0347541
0.0630574
0.0252014
0.0245949
0.00232493
0.142711
0.353197
0.191843
0.023151
0.01201
0.0690167
0.00414118
0.0042329
0.00917469
0.0707052
0.30679
0.199852
0.0234584
0.00753459
0.0130993
0.0135327
0.0225514
0.0183766
0.257699
0.366781
0.289369
0.0451699
0.00395212
0.0170807
0.00534623
0.014349
0.0183444
0.220903
0.353476
0.275033
0.0216212
0.00139368
0.00111656
0.00555227
0.0112183
0.0525672
0.0408965
0.185749
0.0341497
0.0146646
0.00463883
0.00555227
0.00632279
0.0153173
0.185417
0.238363
0.362752
0.014733
0.0128923
0.00528392
0.0135047
0.00586376
0.0519763
0.153308
0.156526
0.206516
0.0791955
0.00910463
0.0016878
0.000577168
0.00985785
0.0702937
0.363155
0.567852
0.200241
0.0185141
0.00344919
0.00616685
0.0107372
0.0423042
0.0309772
0.166187
0.180336
0.148526
0.0142931
0.0516164
0.0511806
0.134104
0.131942
0.0973413
0.046321
0.0168007
0.0142523
0.00508289
0.0564316
0.237816
0.499529
0.0475895
0.0514635
0.20408
0.337389
0.0892269
0
0.00956735
0.0257777
0.128012
0.0826473
0.0556729
0.0616258
0.0205664
0.00797977
0.0197002
0.0398263
0.113302
0.403239
0.0464332
0.0235348
0.0265619
0.0244012
0.0338951
0.123052
0.0512481
0.0701452
0.0328019
0.0226153
0.0107621
0.054416
0.118448
0.216445
0.509775
0.122073
0.039849
0.0130875
0.0715841
0.0367591
0.011769
0.0103747
0.0197315
0.147756
0.127796
0.0905903
0.0711629
0.0491255
0.022613
0.00781613
0.00821886
0.0437583
0.493167
0.337017
0.0479833
0.0420894
0
0
0.00699949
0.0198348
0.0766168
0.272479
0.135114
0.0044835
0
0
0
0.00078027
0.00369545
0.0338796
0.270111
0.273197
0.0177948
0
0.0080887
0.00517952
0.00187067
0.00116923
0.00968127
0.209064
0.341792
0.00685461
0.0080887
0.00115553
0.00310771
0.00054842
0
0.0108685
0.208038
0.67026
0.0682195
0.00115553
0.0174572
0.00744083
0.00727019
0.00923868
0.0896621
0.157549
0.209921
0.0435289
0.0164859
0.145928
0.0324192
0.0407718
0.0329822
0.0900704
0.0246541
0.0681324
0.0686521
0.169652
0.00691759
0.00928332
0.0122387
0.00594662
0.0210825
0.142366
0.690961
0.227723
0.00828717
0.087892
0.0698147
0.0889997
0.0725029
0.0426383
0.0169759
0.226292
0.213413
0.0977177
0.131905
0.0666898
0.0152276
0.0199768
0.0150288
0.0927365
0.192542
0.0485101
0.131764
0.330884
0.112493
0.00292713
0.00251321
0.00171824
0.224113
0.362229
0.12593
0.219331
0.131654
0.164214
0.0641921
0.0438626
0.016035
0.0419636
0.0627249
0.0755926
0.125555
0.401026
0.201637
0.0730794
0.00418868
0.0013288
0.112259
0.155386
0.156439
0.204022
0.291993
0.0432783
0.00964089
0
0.00437347
0.0474584
0.12725
0.0857008
0.214902
0.22299
0.094799
0.048657
0.043866
0.0294446
0.0419171
0.110199
0.0833192
0.290642
0.327318
0.0589457
0.0166112
0
0
0.0235043
0.0599291
0.0715113
0.221458
0.241806
0.0676657
0.0284065
0.00615924
0.000684359
0.00037708
0.0250689
0.118948
0.548576
0.161609
0.0316363
0.0180701
0.0466526
0.0431855
0.0385392
0.0985839
0.0654718
0.19024
0.207458
0.0184377
0.0484332
0.126101
0.143417
0.0698749
0.0919037
0.0512459
0.204168
0.290026
0.0414153
0.0107963
0.00636323
0.0017486
0.000313117
0.0239799
0.0985493
0.410895
0.49553
0.157725
0.0683427
0.053082
0.0288139
0.00182276
0.0245604
0.0481511
0.322644
0.0832458
0.0225433
0.0610252
0.288725
0.195298
0.0741258
0.015106
0.00908469
0.0631299
0.0302754
0.0659113
0.0991384
0.300154
0.216827
0.0689915
0.00358461
0
0
0.251086
0.168789
0.145921
0.15724
0.0750533
0.000721917
0.00302353
0.00935516
0.0851536
0.112893
0.290177
0.52042
0.200617
0.0894173
0
0
0
0
0.0165684
0.0871909
0.187867
0.174462
0.118036
0.0199335
0.000593455
0
0.000215238
0.00920647
0.0738605
0.20232
0.396498
0.121495
0.00876101
0.00437776
0.00521102
0.00318827
0.0335028
0.215799
0.554236
0.134988
0.0340746
0
0
0
0.00150666
0.0201028
0.122509
0.361946
0.225388
0.0653396
0.0216866
0.0119323
0.00451342
0.0110375
0.0279709
0.087249
0.197291
0.436089
0.190648
0.0103236
0.0229987
0.0567075
0.0397335
0.0453065
0.151198
0.21008
0.0355728
0.0312964
0.0176775
0.0544906
0.0712341
0.0959686
0.0362577
0.0895575
0.192418
0.199848
0.174969
0.0722655
0.0728493
0.0564489
0.040754
0.0508939
0.212085
0.224386
0.0428396
0.247615
0.0200146
0.0703283
0.076227
0.0568386
0.136843
0.11433
0.0345893
0.0307692
0.0150596
0.0661544
0.127827
0.139346
0.0725725
0.0984285
0.0686863
0.00682089
0.0220386
0.0592942
0.235245
0.33386
0.123937
0.0831648
0.142783
0.165705
0.0825837
0.132289
0.0981456
0.00680489
0.0640421
0.108735
0.0695
0.0789758
0.140524
0.0538552
0.186419
0.303964
0.078232
0.268085
0.141286
0.053737
0.0157461
0.0179007
0.0039239
0.00292379
0.0196486
0.0733627
0.23435
0.0173359
0.0157461
0.0019899
0.0107404
0.00317028
0.00191236
0.0137986
0.114067
0.69875
0.124593
0.0019899
0.0120443
0.0274128
0.012884
0.0415985
0.0932442
0.0318365
0.100794
0.0283253
0.0114221
0.00729451
0.010326
0.0108664
0.0500486
0.0503794
0.0443583
0.497711
0.16976
0.00694091
0.000145191
0.000580764
0.00260248
0.00251575
0.00170351
0.0277376
0.389302
0.186045
0.00150672
0.0208823
0.0212439
0.0178691
0.01833
0.00380973
0.0121432
0.182962
0.243006
0.0481862
0.0026663
0.00336806
0.00113662
0.00972584
0.0012339
0.0158123
0.424563
0.283464
0.0124785
0.0124152
0.00522353
0.000972549
0.00180616
0.00863732
0.079632
0.27655
0.50641
0.135021
0.0669018
0.0705426
0.0329364
0.0119547
0.00228577
0.0102048
0.0419736
0.184745
0.103793
0.151286
0.109498
0.0572412
0.000464743
5.1638e-005
0.000918432
0.0126189
0.125466
0.113743
0.0268163
0.0105484
0.00353178
0.000975342
0.00466422
0.0714337
0.133543
0.546824
0.223439
0.0798257
0.0417774
0.00795519
0
0
0.00642903
0.0981479
0.534139
0.258283
0.163326
0.073306
0.0194399
0.00225349
0
0
0.00879843
0.0811415
0.122511
0.144697
0.0389881
0.0127228
0.0247179
0
0.00171807
0.0208281
0.115687
0.239301
0.290472
0.0436928
0.0042488
0.00375582
0
0
0.0196856
0.218696
0.337018
0.590251
0.118004
0.0212046
0.0411965
0
0.00286345
0.00908414
0.0501821
0.258752
0.128646
0.0435113
0.0154595
0.0111062
0
0.00351731
0.0137429
0.0606189
0.145193
0.255927
0.242141
0.0874029
0.0107342
0.00703336
0.00211039
0.00555561
0.0159919
0.0986719
0.246721
0.213711
0.0742773
0.0185104
0
0.00586219
0.0144693
0.0389725
0.0675661
0.248181
0.635256
0.303349
0.0141468
0.00100477
0.00351731
0.00829725
0.0374381
0.0553772
0.0872153
0.185491
0.158345
0.0320432
0.0149561
0
0
0.000638987
0.010833
0.0416722
0.238874
0.456566
0.0510406
0.0130407
0
0.000404733
0.000134911
0
0.0819734
0.391331
0.32891
0.030366
0.00227163
0.00264005
0
0.00307779
0.00562395
0.0423155
0.302655
0.439253
0.037425
0.0323048
0.0245116
0.014034
0.000944377
0.00117955
0.0293134
0.274653
0.666804
0.081004
0.0212521
0.0020762
0.00582741
0.00164587
0.00130002
0.02005
0.0865608
0.292029
0.114571
0.0629649
0.0459739
0.0261969
0.00436653
0.01092
0.0394771
0.177244
0.306852
0.0382163
0.0941319
0.0288958
0.0582523
0.0115211
0.0092205
0.0422306
0.0370785
0.0840315
0.0764088
0.0731516
0.0871525
0.075836
0.0139501
0.0295073
0.029442
0.0270464
0.108958
0.100621
0.166115
0.120612
0.0764874
0.0324363
0.0396245
0.0734304
0.130537
0.128092
0.0535112
0.294591
0.0473435
0.0481719
0.117389
0.119964
0.0328666
0.0100552
0.0936464
0.123613
0.0740894
0.301556
0.136039
0.0733535
0.0472935
0.0677461
0.0536643
0.139586
0.178875
0.069495
0.189695
0.113431
0.25926
0.171896
0.0793144
0.0902113
0.141582
0.163583
0.0961208
0.00851507
0.0514507
0.0867079
0.0848767
0.0268878
0.149483
0.106537
0.150248
0.237537
0.114928
0.219951
0.0949819
0.012585
0.122007
0.0474616
0.170601
0.110285
0.110527
0.0336976
0.0669671
0.108364
0.2026
0.0697836
0.189057
0.184151
0.0871164
0.247613
0.102138
0.162706
0.0803078
0.0529478
0.0392859
0.107978
0.0427944
0.121781
0.20248
0.134083
0.111354
0.0368139
0.0273032
0.061553
0.063209
0.0345218
0.180607
0.108995
0.125376
0.422524
0.207688
0.0497676
0.0484567
0.115863
0.0808926
0.0369754
0.180778
0.110072
0.151416
0.0689105
0.033739
0.110842
0.120865
0.0929934
0.0919959
0.167687
0.0832217
0.130815
0.195313
0.122925
0.0233374
0.0252591
0.0168322
0.0298632
0.00505135
0.0157259
0.25609
0.219478
0.0646308
0.0757187
0.0167691
0.0180128
0.00864458
0.00886253
0.058357
0.187169
0.587514
0.41756
0.0678506
0.0766219
0.0357741
0.0298111
0.035923
0.0062898
0.0318389
0.0551092
0.0703209
0.120468
0.0912202
0.0311261
0.0144076
0.0329373
0.011373
0.0412496
0.151333
0.265407
0.020788
0.000380197
0.00148046
0.000634482
0.00274518
0.0224735
0.0483
0.406948
0.239029
0.108717
0.0017747
0
0
0.000182541
0.00202261
0.0460121
0.456108
0.307399
0.0389256
0.0115329
0.00246743
0.00254313
0.0277939
0.00571705
0.0126501
0.226879
0.178899
0.150167
0.00194532
0.0194186
0.0167219
0.0242456
0.00213825
0.00840189
0.292691
0.380641
0.258654
0.00210967
0.000133358
0.000311169
0
0
0.00624224
0.101812
0.293163
0.465093
0.0889868
0.0017568
0.00341312
0
0.000237236
0.00055355
0.00571925
0.258676
0.25358
0.01175
0.0211387
0.00970624
0.00247681
0.000631374
0.00123953
0.0785357
0.302309
0.421504
0.0670519
0.0186035
0.00696306
0.000677688
0.00441962
0.00189412
0.0415335
0.293014
0.298522
0.297381
0.0244769
0.00363347
0
0.000759973
0.00207667
0.018735
0.0707096
0.193606
0.609572
0.149646
0.0132837
0
0.000455984
0.00318774
0.0308683
0.0213301
0.288062
0.178499
0.0190903
0.0296356
0.0193632
0.00191608
0.00294496
0.0154509
0.108295
0.168879
0.299732
0.035582
0.0519972
0.0524272
0
0.0148665
0.0143503
0.0226123
0.15009
0.595188
0.357889
0.0413218
0.000670392
0.00603353
0.00187443
0.00765873
0.0102721
0.0803774
0.256519
0.276238
0.064765
0.0647512
0.0560184
0.0347947
0.00306546
0.00974741
0.133088
0.239198
0.0889841
0.0716935
0.023904
0.00528106
0.0171639
0.0138852
0.0308498
0.0792868
0.0662147
0.0987064
0.103538
0.0310666
0.0153678
0.0501975
0.0164139
0.0468405
0.0594727
0.115201
0.129985
0.105315
0.191501
0.0640673
0.110458
0.0179769
0.0253729
0.0547885
0.0556698
0.179011
0.286748
0.114931
0.0639199
0.0951475
0.0197464
0.0443783
0.0678896
0.0561314
0.160057
0.222332
0.0996901
0.0111256
0.0855213
0.0237962
0.0562429
0.0322505
0.0639828
0.261398
0.34597
0.16429
0.011368
0.182419
0.041276
0.0237327
0.0124805
0.0181825
0.113058
0.135924
0.0447823
0.123219
0.0697526
0.0572446
0.0213204
0.0273163
0.0429812
0.12316
0.18808
0.0249139
0.113092
0.0732159
0.169185
0.0874687
0.0245912
0.0223142
0.134161
0.132575
0.134975
0.0729449
0.127495
0.0950768
0.0379271
0.0387698
0.0262042
0.160894
0.222264
0.130442
0.214811
0.114528
0.458405
0.153778