0.0765336
0.0275581
0.099823
0.0310876
0.0347795
0
0.0959525
0.137433
0.142341
0.0521984
0.0448404
0.143998
0.0186525
0.241784
0
0.0657896
0.0861834
0.0915714
0.0816926
0.0255925
0.12257
0.0619392
0.0632397
0
0.136608
0.181549
0.133555
0.0643704
0.0227275
0.0899708
0.0371635
0.260611
0
0.186976
0.303625
0.123628
0.0342147
0.059149
0.0952795
0
0.202081
0.0324808
0.0912357
0.0384418
0.0301096
0.162173
0.10014
0.0501504
0
0.130943
0.0541347
0.139483
0.048124
0.143273
0.0367241
0.0213083
0.0639249
0
0.20284
0.00464011
0.250446
0.144628
0.047704
0.0948144
0.0839256
0.180941
0.0467406
0.140567
0.00773352
0.284878
0.0936087
0.086814
0.153191
0.0502057
0.0586754
0
0.0767772
0.00675638
0.0671475
0.0228008
0.145773
0.213209
0.0607528
0.130676
0
0.0914765
0
0.0304833
0.0216965
0.210946
0.0805694
0.150189
0.248458
0.071603
0.0684519
0.000965197
0.0911539
0.0302468
0.060514
0.149722
0.225102
0.319689
0.0536554
0.110178
0
0.0434038
0.0144679
0.11768
0.141228
0.034269
0.0510816
0.00153123
0.11833
0
0.0257916
0.0447446
0.143228
0.0906181
0.109118
0.139163
0.0254764
0.168506
0
0.0552235
0.0683846
0.0826119
0.118069
0.135624
0.109938
0.006893
0.19825
0
0.0749193
0.0410376
0.0961326
0.110183
0.0799046
0.164862
0.042487
0.20781
0
0.0886858
0.302645
0.197395
0.0273707
0.0795856
0.111346
0.0456723
0.142261
0.005052
0.0798615
0.0429859
0.0176917
0.0263818
0.039416
0.0890718
0.0652748
0.136473
0.0301921
0.229999
0.203813
0.0352139
0.0815802
0.0380942
0.117973
0.103342
0.129533
0
0.0647589
0.240453
0.156333
0.18155
0.194252
0.166356
0.103364
0.15909
0
0.133661
0.199548
0.100728
0.0394187
0.0491107
0.0550941
0.0158681
0.0410014
0.0240612
0.128551
0.243799
0.0587288
0.0697581
0.118836
0.12096
0.0407888
0.0436142
0.0368389
0.113601
0.163395
0.0706171
0.202311
0.196909
0.109043
0.0407888
0.0408866
0
0.0652249
0.145501
0.113968
0.208988
0.128523
0.0842212
0.0116539
0.00840017
0
0.214723
0.24918
0.206027
0.0260066
0.0597661
0.11523
0.0448071
0.149106
0.0287245
0.0712905
0.0742669
0.0282935
0.0537394
0.0392627
0.104628
0.0362467
0.253287
0.0226002
0.0924821
0.0923059
0.0624351
0.0955605
0.0777813
0.207109
0.0495533
0.0664335
0
0.181987
0.156613
0.108083
0.0802107
0.0862389
0.337025
0.14543
0.213147
0.0114386
0.0718405
0.0741584
0.08936
0.113907
0.0854454
0.0967377
0.0580197
0.111676
0.0842687
0.0960549
0.0289883
0.0727855
0.188673
0.188156
0.101274
0.0315349
0.0497109
0.0777019
0.165476
0.0425049
0.108542
0.101866
0.0414174
0.153064
0.0535079
0.158934
0.0777019
0.0958892
0.0252736
0.102919
0.124536
0.0735877
0.209808
0.00450498
0.126252
0.0918556
0.229608
0.0608248
0.124536
0.0763637
0.0816199
0.0789589
0.0274556
0.101389
0.00454276
0.0794387
0.0664664
0.0681018
0.100544
0.0737797
0.215917
0.0457594
0.102565
0
0.036883
0.142934
0.161772
0.0570946
0.0531194
0.150879
0.00392223
0.117985
0.00757126
0.130061
0.114822
0.0822483
0.11768
0.035869
0.109614
0.00653705
0.0961924
0
0.145543
0.372314
0.31748
0.0208121
0.0147525
0.0370615
0.0140531
0.0495631
0
0.0987246
0.111848
0.135954
0.0637172
0.063137
0.00875371
0.00843183
0.104369
0.00769368
0.103062
0.112359
0.0853746
0.0269032
0.0173929
0.00260052
0
0.021103
0.0853086
0.212502
0.423819
0.363068
0.116382
0.150529
0.000371502
0
0.0279804
0.0755096
0.177083
0.292693
0.204681
0.0518886
0.0576817
0.00340043
0
0.124559
0.0235865
0.163878
0.109403
0.0495077
0.0855659
0.0784456
0.0972602
0.042493
0.14474
0.0288958
0.214402
0.089064
0.0759865
0.0824184
0.12671
0.0152334
0.00308386
0.0755959
0.181711
0.185814
0.211174
0.094098
0.188042
0.165781
0.0894871
0.0276574
0.126902
0.145827
0.204792
0.0941493
0.168462
0.0570833
0.0918501
0.140139
0.0484347
0.0282142
0.0241471
0.0554669
0.0180813
0.0398846
0.0603812
0.10397
0.16078
0.0478944
0.051374
0.0139345
0.0518007
0.061767
0.0345632
0.194885
0.241397
0.0663658
0.0123684
0.0194261
0.0451678
0.0628801
0.0377731
0.112493
0.353229
0.411158
0.198988
0.0443753
0.0166828
0.0232241
0.0754474
0.226686
0.177711
0.0308787
0.0493704
0.0401238
0.0202163
0.0394871
0
0.0337642
0.0332996
0.0490113
0.161672
0.0355515
0.0288066
0.0146442
0.018068
0
0.0534904
0.0728695
0.1896
0.146191
0.267047
0.210591
0.0603729
0.0104452
0
0.0223316
0.0683841
0.0993807
0.56429
0.36579
0.130806
0.0401088
0.0027033
0
0.0296417
0.0225391
0.257977
0.163346
0.00934813
0.00686677
0.00750916
0.0041256
0
0.0120672
0.0460815
0.116307
0.153168
0.0334577
0.0163945
0.0158954
0.00550805
0
0.0148207
0.0856141
0.167718
0.514185
0.10762
0.00886177
0.00771776
0.000857528
0
0.00540636
0.00829894
0.172212
0.419533
0.0363536
0.00944563
0.00625779
0.000514517
0
0.0131556
0.0888815
0.493519
0.0713731
0.025851
0.0125299
0.0131841
0.00178855
0
0.0140266
0.0707845
0.180887
0.068534
0.00768537
0.00461848
0.00188344
0
0
0.0569396
0.0767511
0.196953
0.110426
0.00358333
0.0023566
0.00188344
0
0
0.0263904
0.155729
0.560511
0.0640526
0.00514959
0.00014488
0.00962288
0.000492306
0
0.0758198
0.314954
0.509791
0.0576399
0.0102482
0.036951
0.0177877
0.00597875
0
0.0793849
0.123278
0.12875
0.0498438
0.0278553
0.0829207
0.0426314
0.0508347
0
0.0315759
0.0533419
0.0649878
0.0489021
0.0111493
0.00166195
0.0176088
0.00279062
0
0.278607
0.483135
0.272372
0.0730736
0.0582546
0.0115276
0.00585768
0.0259651
0
0.235491
0.4247
0.14145
0.0801901
0.0453212
0.0803831
0.0188112
0.117331
0.00494493
0.0403382
0.0139516
0.0770371
0.0900329
0.132868
0.177882
0
0.113626
0.00824155
0.108784
0.0389988
0.0770776
0.166932
0.161677
0.0602273
0.012602
0.0728659
0
0.0623518
0.230076
0.160899
0.205118
0.315901
0.229231
0.081521
0.0631643
0
0.0798853
0.0681091
0.154235
0.0538718
0.075646
0.149601
0
0.110305
0.00115441
0.0900548
0.0553953
0.059299
0.113908
0.0345394
0.104851
0.00345412
0.0836491
0
0.160991
0.15333
0.179316
0.0925737
0.145624
0.19232
0.0420953
0.142935
0
0.0856252
0.111588
0.0873389
0.147804
0.185172
0.284357
0.0426052
0.194463
0
0.098875
0.0818044
0.132089
0.0105651
0.00226267
0.00835931
0.0195051
0.00479454
0.0507859
0.100019
0.204895
0.183256
0.0309406
0.0183122
0.00119419
0.00278644
0
0.0612997
0.127473
0.202421
0.148277
0.0426084
0.0130068
0.0310671
0.0325085
0.00936815
0.190818
0.285071
0.29566
0.410068
0.0472046
0.0153775
0.0305485
0.00464406
0.0293405
0.241142
0.276625
0.194532
0.27908
0.024691
0.0233294
0.0181538
0.00722809
0.00311325
0.119221
0.138979
0.134288
0.0673545
0.0674636
0.105209
0.107566
0.0606851
0.00518874
0.0594528
0.0667621
0.0276737
0.0552881
0.0299637
0.0872373
0.0336643
0.00740392
0.0343857
0.188202
0.280322
0.290296
0.14358
0.156471
0.488425
0.232819
0.0686416
0.00429635
0.0513343
0.116697
0.130298
0.173909
0.0977111
0.144247
0.0442442
0.01669
0.000408336
0.00335096
0.00492172
0.00547662
0.0406335
0.249229
0.35108
0.0824763
0.0124887
0.00812765
0.00138304
0.00449303
0.0377224
0.0700713
0.140475
0.33834
0.138585
0.0208642
0
0
0.0390554
0.0241085
0.0864812
0.218361
0.568755
0.209238
0.0124799
0.0135461
0
0.0303088
0.0768743
0.051963
0.148836
0.312987
0.138557
0.0383499
0.0249179
0
0.00102667
0.024752
0.0370206
0.244549
0.363549
0.0897098
0.0791766
0.0465698
0
0
0.00727075
0.0591817
0.163147
0.305399
0.124935
0.0533789
0.0811381
0.0150704
0.0439247
0.106707
0.0858876
0.228181
0.216226
0.0674769
0.229768
0.292881
0.0251174
0.0707222
0.0587928
0.218261
0.289926
0.181593
0.0206692
0.0422299
0.0232267
0
0.000376632
0.000398524
0.0672752
0.307029
0.115425
0.0234641
0.0152158
0.00898735
0
0.0418233
0.0876326
0.285356
0.251825
0.166741
0.0332747
0.119403
0.153807
0.0110363
0.0175266
0.0638659
0.227362
0.229598
0.145548
0.0462394
0.0671053
0.148685
0.0827564
0.169198
0.297543
0.327431
0.0768582
0.0120653
0.0024105
0
0.000643937
0
0.0499807
0.110502
0.246499
0.0476515
0.00924668
0
0.0167958
0.000883991
0
0.0677915
0.190128
0.240322
0.13913
0.0263897
0.0563554
0.0571032
0.0806395
0.0371391
0.1194
0.190096
0.32359
0.148229
0.023602
0.0335536
0.037685
0.0121032
0.00291268
0.272207
0.493384
0.394898
0.0139679
0.00516742
0
0.0190262
0.00100138
0.00510849
0.137618
0.218872
0.0841862
0.00975802
0.0101355
0.00281173
0.00271804
0.000582143
0.0157918
0.200429
0.325028
0.0473179
0.023881
0.00507984
0.000145674
0.0114157
0.00246094
0.0387949
0.373932
0.398508
0.122912
0.00609853
0.000133892
0.000401676
0.00163082
0.0131066
0.115602
0.439284
0.322999
0.0829585
0.0313201
0.0366648
0.0322434
0.0149137
0.00528752
0.00945915
0.161337
0.215346
0.0402784
0.0367714
0.0654998
0.0843982
0.0619913
0.0433437
0.000495442
0.0580703
0.0459577
0.030552
0.0158673
0.00427771
0.0168445
0.0158684
0.0148354
0.0940128
0.520477
0.403716
0.103039
0.0168094
0.0121359
0.0379216
0.0404038
0.0723527
0.135079
0.34724
0.252016
0.0660798
0.0354881
0.0990991
0.11767
0.0703371
0.142444
0
0.0712685
0.0561859
0.0237746
0.0488902
0.168594
0.18528
0.0515854
0.126776
0
0.105789
0.0711698
0.0260463
0.0281387
0.0365041
0.0371233
0.0374974
0.167948
0.136781
0.296778
0.124391
0.0359181
0.0176269
0.0553107
0.064475
0.0262837
0.0858573
0.00958119
0.360129
0.294606
0.0387999
0.0181469
0.00890574
0.00933922
0.00745876
0.0361766
0.206464
0.233987
0.0857213
0.0695751
0.00722282
0.00902713
0.0194656
0.000510028
0.0505834
0.229661
0.154394
0.0428295
0.0341318
0.00814031
0.0038315
0.0089277
0.0485128
0.259165
0.414951
0.203845
0.0312641
0.00405849
0
0.00473271
0.0130932
0.0024158
0.226436
0.581178
0.18224
0.00964666
0.000318505
0.00451635
0.0553901
0.0570449
0.0187243
0.102715
0.108514
0.115736
0.112409
0.0298594
0.0857364
0.251836
0.170544
0.0709556
0.038969
0.0502194
0.0955969
0.0727961
0.150898
7.89755e-005
0.0247737
0.0666777
0.03063
0.274539
0.408537
0.162054
0.0543518
0.0122881
0.0326817
0.0865756
0.176538
0.124728
0.136382
0.342958
0.214496
0.272099
0.206148
0.101638
0.178
0.0765158
0.0246259
0.00113833
0.0150588
0.128542
0.0828947
0.154193
0.163011
0.363192
0.115203
0.00477489
0.0087926
0.019921
0.0925662
0.144007
0.0933698
0.0562724
0.0939953
0.103231
0.0738481
0.0415883
0.123161
0.186888
0.243769
0.229376
0.247141
0.363128
0.157548
0.0432063
0.0978056
0.102395
0.163942
0.257588
0.136833
0.10158
0.162203
0.0625857
0.0318082
0.119847
0.0686698
0.0350744
0.0904507
0.0436887
0.118978
0.0390186
0.0279742
0.139938
0.28048
0.0679837
0.062252
0.0561337
0.162431
0.114981
0.146848
0.043704
0.0357386
0.231737
0.225238
0.140112
0.225884
0.0377032
0.161417
0.0311776
0.00439148
0.0895284
0.356571
0.209779
0.186734
0.324842
0.286725
0.11536
0.0291135
0.00979272
0.0606966
0.0834785
0.0208369
0.0161417
0.0899504
0.207771
0.0539655
0.0269632
0.0199907
0.199019
0.22533
0.129492
0.0642267
0.197123
0.148504
0.235235
0.102991
0.0124793
0.0536745
0.0692886
0.0237168
0.0369882
0.133684
0.284149
0.134637
0.165411
0.0838439
0.455467
0.402376
0.0693228
0.00807449
0.08756
0.140934
0.0591254
0.0299308
0.063083
0.219911
0.216454
0.0610128
0.0531126
0.0824654
0.0839315
0.0822961
0.0445506
0.0525214
0.0768731
0.0501984
0.0141993
0.348008
0.292906
0.0960435
0.0151936
0.0482113
0.0586884
0.392057
0.478835
0.0356371
0.0150637
0.0178183
0.0129477
0.0141789
0.0267304
0.0399342
0.104924
0.194194
0.0896482
0.252628
0.0795779
0.00464823
0.00917954
0.00533972
0.00274764
0
0.00823541
0.0576345
0.410896
0.198795
0.0208049
0.00863237
0.000276233
0.000644544
0.00322564
0.0541875
0.115333
0.298822
0.096878
0.0357646
0.00254769
0.00320383
0.00427963
0.00100763
0.0789172
0.301897
0.329093
0.0664308
0.00140538
0.00517942
0.00193363
0.00451181
0.00537607
0.239733
0.496109
0.21837
0.0400987
0.0107297
0.0147218
0.00128056
0.0036655
0.0162117
0.0590729
0.121548
0.211715
0.141885
0.0624776
0.00478788
0.00182004
0.00292199
0.0110692
0.104953
0.284981
0.191644
0.104519
0.0248726
0.00883307
0.00896393
0.0209158
0.0249224
0.254746
0.350377
0.0767506
0.0399527
0.0193615
0.00371584
0.0127403
0.0125495
0.0149534
0.427101
0.47005
0.0497844
0.0175473
0.0123974
0.0196242
0.00992947
0.000310241
0.000576161
0.126383
0.241976
0.119801
0.0629317
0.0239234
0.0322759
0.0103585
0
0
0.0411096
0.0176754
0.171659
0.213363
0.0479287
0.0819111
0.074508
0
0
0.364944
0.346633
0.0251702
0.0575163
0.0884277
0.199161
0.0943872
0
0
0.044325
0.0420814
0.179373
0.365035
0.149274
0
6.17402e-005
0.00649468
0.0879784
0.289269
0.157459
0.021622
0.00151683
0
0
0.000432182
0.00129654
0.0441293
0.384901
0.263844
0.0315022
0.000216691
0
0
0
0.0423998
0.313524
0.316849
0.0630889
0.010315
0
0
0
0
0.0350163
0.426184
0.430114
0.0548804
0.000106699
0
0
0.0033596
0.00118955
0.00717652
0.0210276
0.331342
0.257408
0.0734563
0.0477613
0.0279086
0.0246142
0.00587931
0.0204799
0.0210027
0.116815
0.202839
0.157191
0.353297
0.222983
0.00559934
0.00139983
0.0171812
0.237786
0.387528
0.119053
0.0245955
0.0364702
0.0167452
0.0470615
0.0333974
0.0142681
0.0297149
0.263733
0.16184
0.128306
0.206945
0.108366
0.010148
0.01513
0.0275336
0.033898
0.149452
0.0848279
0.0861493
0.171507
0.111052
0.0352608
0.0558538
0.096205
0.0930201
0.217539
0.0811763
0.0936741
0.112842
0.0436833
0.0137872
0.01707
0.00569377
0.0239061
0.46092
0.196828
0.0753427
0.0903726
0.0418042
0.00378581
0.0037677
0.0375343
0.123323
0.516689
0.376312
0.11073
0.0544226
0.0172404
0.0196102
0.0214525
0.0348817
0.0350943
0.0790473
0.0888457
0.139771
0.240442
0.0703067
0.104119
0.00966516
0.00402761
0.00522702
0.0581126
0.0723359
0.130292
0.385003
0.467767
0.00930482
0.000685354
0.0256849
0.0838364
0.0847023
0.113655
0.0782409
0.166732
0.0966012
0.032832
0.00066499
0.0617562
0.13294
0.0455743
0.0188887
0.0706888
0.245086
0.463791
0.223183
0.0725302
0.0276513
0.0111296
0.0112858
0.00591228
0.0239603
0.122134
0.446462
0.168948
0.195243
0.107311
0.221445
0.196313
0.0107746
0.00554107
0.0308277
0.208972
0.0631478
0.0938238
0.156855
0.117632
0.0336753
0.0248116
0.0584446
0.0951199
0.363976
0.0614616
0.220842
0.13356
0.161406
0.117217
0.143973
0.129004
0.0760636
0.201176
0.0287817
0.0815004
0.058512
0.345996
0.411405
0.025638
0.00878182
0.00580174
0.0308491
0.00792486
0
0.00951131
0.137959
0.270363
0.0750023
0.0604554
0.00992981
0.00792486
0.0160931
0.0737598
0.0240021
0.274859
0.318449
0.249086
0.0961264
0.0259912
0.0528127
0.0108816
0.00295013
0.0166284
0.21052
0.335647
0.0809219
0.00955428
0
0.0108816
0.00147961
0
0.000653286
0.0100306
0.166199
0.173753
0.0425131
0.00291039
0.00147961
0
0.00064362
0.00150178
0.01588
0.390044
0.340616
0.0256323
0.00410644
0.000911836
0.00203165
0.000550805
0.013885
0.165979
0.251437
0.0388339
0.0014065
0
0.00203165
0
0
0.0178759
0.336829
0.590887
0.125654
0.00517014
0
0
0
0.00237941
0.00555197
0.0122866
0.27655
0.219434
0.011065
0.00526015
0.00124012
0.00065139
0.00338182
0.00743352
0.0296599
0.333136
0.208292
0.00545438
0.00890731
0.0103703
0
0
0.0151312
0.187642
0.444564
0.134043
0.00990649
0
0
0
0
0.0181006
0.195171
0.530039
0.142697
0.00697139
0.0222626
0.00828855
0.0624455
0.025389
0.00841982
0.0456135
0.260576
0.1289
0.00485478
0.0887492
0.0790439
0.230409
0.0407855
0.00120283
0.00591326
0.0140248
0.0272816
0.0395833
0.208802
0.185771
0.0366309
0.00967268
0.0156316
0.177191
0.431787
0.0960218
0.0421681
0.230951
0.0664212
0.253736
0.0846467
0.00924517
0.0157325
0.028994
0.0173308
0.0507642
0.32364
0.235486
0.00736681
0.00499311
0.207895
0.380621
0.145398
0.0337401
0.00462882
0
0
0.000546539
0.00490065
0.144087
0.493857
0.109689
0.0101023
0.000353793
0
0
0.0360766
0.148182
0.401258
0.283899
0.0340022
0.0057015
0.00557606
0.00788803
0.00733609
0.0158122
0.050087
0.259754
0.272005
0.0169992
0.00533156
0.00566139
0.0131467
0.0119864
0.0014748
0.00551684
0.126723
0.33996
0.150591
0.081816
0.0260163
0.0160215
0
0.0173387
0.0330573
0.117486
0.0781147
0.196364
0.187403
0.157431
0.0741392
0
0.01309
0.056213
0.380215
0.262368
0.0641293
0.0555724
0.0175609
0.00918934
0.00974963
0.00147936
0.0114934
0.276192
0.147485
0.307013
0.255377
0.144646
0.0380765
0.00404651
0.00510192
0.012517
0.00514444
0.00457255
0.191132
0.155434
0.102713
0.0163544
0
0.00153901
0.00175192
0.00330907
0.017436
0.173747
0.295762
0.326594
0.0205707
0.00254119
0.00465358
0.00456953
0.00903597
0.0144723
0.119082
0.125242
0.17058
0.0186343
0.00645975
0.0068661
0.00477206
0.000378399
0.00221116
0.0458781
0.176572
0.707091
0.116198
0.00979896
0.00928432
0.0052624
0.0126995
0.0444185
0.061431
0.133001
0.225535
0.0505096
0.0316552
0.0112779
0.00877067
0.0504886
0.173052
0.225434
0.0343586
0.0404209
0.0461086
0.0852952
0.0205277
0.012795
0.00167129
0.00791309
0.0282747
0.0936942
0.599311
0.321445
0.0763275
0.0695209
0.036297
0.00550995
0.126809
0.334539
0.0485118
0.118867
0.215481
0.124668
0.00106666
0.0477247
0.0889521
0.175339
0.184013
0.0558926
0.0404361
0.0137442
0.0379806
0
0.0808554
0.0606714
0.248987
0.194152
0.141109
0.186805
0.0241476
0.0336113
0.0339753
0.02256
0.0096748
0.177957
0.363197
0.115524
0.092454
0.0247335
0.0483032
0.0763492
0.0798171
0.00773648
0.295376
0.436056
0.259609
0.279395
0.00875946
0.0713991
0.00362916
0.0155863
0.00608583
0.202162
0.233884
0.136098
0.0870921
0.0081019
0.0112497
0.00799227
0.0218059
0.110168
0.149515
0.160009
0.039472
0.012818
0
0.00351128
0.0872566
0.147725
0.00521716
0.211752
0.339866
0.22655
0.102999
0.000586798
0.0282976
0.107632
0.549705
0.301194
0.110456
0.100441
0.080792
0.0224863
0
0.0101491
0.00137042
0.00748842
0.165533
0.268922
0.0866538
0.00147359
0.00149963
0
0.00087422
0.00169796
0.00734244
0.124897
0.489364
0.219043
0.0171105
0.0168268
0.00115262
0.00172892
0.0317887
0.24304
0.429105
0.193005
0.00938883
0.00722438
0.00565958
0.0033743
0.00664845
0.00848296
0.0753928
0.291839
0.31667
0.0349365
0.0480982
0.0403571
0.0316884
0.0180445
0.00253318
0.0158708
0.0507457
0.295125
0.227921
0.0324198
0.0331926
0.00171958
0.00257937
0.000991269
0.00702881
0.0318856
0.284224
0.432138
0.0396117
0.0157242
0.0123059
0.00334075
0.00422197
0.0845666
0.162749
0.256254
0.0737089
0.0456609
0.0604199
0.0250006
0.019496
0.00616654
0.0400209
0.131953
0.448778
0.316726
0.0179422
0.0211517
0.00319673
0.00832666
0.0114376
0.0203003
0.0197916
0.178141
0.477326
0.0515323
0.0554347
0.11611
0.0246812
0.10706
0.152086
0.0531514
0.00679143
0.0673447
0.0121048
0.0676107
0.158277
0.0824174
0.0353193
0.0197475
0.058171
0.33067
0.38824
0.0688747
0.0356516
0.0197296
0.0371733
0.0463305
0.0764881
0.0974684
0.0172225
0.064665
0.0783256
0.0918155
0.1459
0.0594667
0.144794
0.294563
0.258877
0.121594
0.0463084
0.0196871
0.0233666
0.0156614
0.0463867
0.0361392
0.141862
0.317259
0.135155
0.0277835
0.0216398
0.0181963
0.0261023
0.0271884
0.298019
0.288861
0.110359
0.0397866
0.0698548
0.0216398
0.0171399
0.00509294
0.0634303
0.174959
0.338734
0.362899
0.0811105
0.0421147
0.0293632
0.0161177
0.0149896
0.0180343
0.016601
0.120565
0.386812
0.127586
0.0279697
0.0452632
0.0118032
0.00669116
0.0152533
0.00502543
0.0279276
0.180167
0.0797782
0.217603
0.226566
0.189394
0.0985157
0.0272976
0.0658762
0.243011
0.377653
0.0577507
0.0193191
0.0258385
0.0213721
0.0317341
0.0381604
0.0242081
0.0634941
0.0944807
0.0141589
0.043695
0.154227
0.197836
0.274752
0.11777
0.00732063
0.00511868
0.00431422
0.0086918
0.095006
0.0894919
0.166587
0.105253
0.0346596
0.0130123
0.00772235
0
0.00119469
0.0295016
0.132088
0.521096
0.266689
0.0452916
0.0042793
0.000953076
0.000679374
0
0.0109027
0.0497536
0.227568
0.235366
0.0758784
0.0161044
0.00110319
0
0
0.00610688
0.0672551
0.386704
0.37585
0.138722
0.0109503
0.00434132
0
0.00109475
0.00421858
0.0397412
0.305774
0.341915
0.0678039
0.0732882
0.0197082
0
0.0459121
0.0599815
0.0245129
0.184453
0.360408
0.181444
0.0212579
0.000478928
0
0
0.00240373
0.0286895
0.17691
0.315782
0.117378
0.0718311
0.00258002
0
0.00427198
0.00332112
0.0234816
0.173171
0.433901
0.296767
0.11749
0.0154609
0.000252132
0.0541087
0.0841649
0.0710726
0.0852131
0.0973201
0.19894
0.286068
0.0971411
0.00042022
0.0580685
0.162124
0.11891
0.122015
0.021058
0.247453
0.222985
0.00217782
0
0.00414064
0.00175137
0.0162173
0.0347237
0.144734
0.367819
0.488305
0.0592426
0.00085011
0.0110745
0.0244927
0.0099855
0.012875
0.0391404
0.371096
0.206698
0.244305
0.00428757
0.0355768
0.126289
0.100776
0.031023
0.000454397
0.0711595
0.157365
0.610433
0.0986732
0.0103419
0.0228861
0.0488448
0.00737364
0.00356062
0.0117877
0.302963
0.204727
0.0163858
0.0312278
0.0246521
0.00774283
0.00254981
0.00661456
0.102791
0.19908
0.379547
0.0878575
0.0252124
0.00352173
0.0131859
0.00340348
0.0249243
0.0163985
0.0747653
0.37835
0.207553
0.0385895
0.000356595
0.0283168
0.0141958
0.00912443
0.0218556
0.017316
0.160969
0.263393
0.0797509
0.00249616
0.0648373
0.0408575
0.0366004
0.0218333
0.0693441
0.358582
0.157545
0.0069856
0
0.0316825
0.0147672
0.0325873
0.0168655
0.0101606
0.462709
0.419637
0.0360316
0.000763698
0.0467367
0.0217074
0.00912443
0.0083295
0.00278234
0.174197
0.351001
0.114144
0.0168291
0.0399703
0.0331667
0.0225507
0.0124605
0.0165852
0.0762245
0.292359
0.289638
0.0958912
0.0318705
0.014971
0.00388145
0.0177027
0.0159437
0.367221
0.467218
0.0372821
0.00322685
0.0425536
0.0134355
0.0283561
0.0178803
0.041458
0.137626
0.230987
0.0546845
0.00687674
0.0385203
0.057237
0.111923
0.0508031
0.0771846
0.0226254
0.134957
0.314714
0.152525
0.12763
0.0799396
0.0321403
0.0795581
0.047613
0.0352848
0.104312
0.0178558
0.0776543
0.0911777
0.182325
0.142878
0.0654934
0.104608
0.0330522
0.127437
0.0530306
0.0282835
0.069516
0.2084
0.229694
0.126548
0.0837027
0.0179088
0.0537264
0.00167635
0.207572
0.0248057
0.182631
0.152305
0.10122
0.239265
0.397826
0.217686
0.0554288
0.0288513
0.0201101
0.0306785
0.0354611
0.0324764
0.256037
0.35272
0.215765
0.0477381
0.0118242
0.015992
0.0680354
0.108154
0.0605197
0.137728
0.144016
0.134428
0.090877
0.0201796
0.0273826
0.0310195
0.106137
0.0763073
0.120059
0.0734459
0.0643052
0.0268717
0.00288281
0.0164296
0.114765
0.191727
0.135122
0.142465
0.213395
0.222198
0.0505241
0.0112066
0.0233036
0.0894334
0.0996576
0.106381
0.0522995
0.0680786
0.10439
0.0400073
0.0252543
0.192736
0.13971
0.267576
0.178849
0.159162
0.084552
0.0973334
0.0313815
0.000934252
0.00944716
0.163866
0.102819
0.1692
0.117351
0.122255
0.183294
0.0607946
0.00653977
0.0716274
0.170662
0.149887
0.149016
0.0139384
0.00291444
0.0102673
0.00708653
0.00525579
0.0551557
0.175389
0.220015
0.126324
0.0295441
0.00210442
0.00631326
0
0.0141065
0.0191274
0.309813
0.549799
0.298204
0.0229449
0.022937
0.0587682
0.0207933
0.00456256
0.0166574
0.0868347
0.128733
0.0737891
0.0276768
0.0285518
0.0686024
0.0358808
0.0345016
0.0116634
0.133178
0.259865
0.171006
0.0133253
0.000684784
0.00205435
0
0.00384317
0.0117507
0.11956
0.365505
0.151682
0.0288089
8.43782e-005
0.000253135
0
0.00316283
0.030064
0.122373
0.387346
0.333638
0.00687818
0.0077455
0.0187565
0.00686871
0.0124456
0.0192207
0.104056
0.220927
0.114496
0.0103719
0.0021714
0.00651421
0
0.00372724
0.0151901
0.108854
0.308503
0.449921
0.101398
0
0
0
0.000975357
0.00877823
0.0156798
0.101373
0.35178
0.270464
0.0158452
0.00115771
0.0104194
0.017727
0
0
0.040159
0.333736
0.0679071
0.000495506
0.00148652
0
0.00586635
0.00125403
0.0173738
0.104439
0.436225
0.312802
0.00404908
0.000165387
0.00148848
0.00945178
0
0.00340544
0.0319046
0.466249
0.281429
0.11198
0.0268538
0.0498285
0.0231596
0
0
0.0117179
0.156731
0.226732
0.351209
0.195676
0.0552924
0.00330851
0.00207411
0.000691369
0.0161101
0.0476464
0.384082
0.0536575
0.00543782
0.00711835
0.0075566
0
0.000534268
0.0193027
0.338479
0.292286
0.251392
0.119513
0.0313412
0.00450113
0
0
0.0422863
0.216775
0.0482339
0.401507
0.290159
0.0532362
0.000748508
0.00730173
0.00649192
0.0197172
0.00678169
0.00465167
0.509334
0.3536
0.0515507
0.00239388
0.0372222
0.0307116
0.0195673
0.00409123
0.0767315
0.19749
0.183061
0.0988902
0.00184432
0.00380733
0.0245706
0.0268791
0.0574214
0.0338605
0.134368
0.120504
0.0843456
0.00505932
0.0375166
0.106426
0.108821
0.0556376
0.0195453
0.347633
0.317317
0.0110187
0.00628561
0.0973729
0.0712832
0.109279
0.0298318
0.0289921
0.0790387
0.0896705
0
0.044907
0.0627844
0.145541
0.306401
0.0593834
0.0228064
0.0731464
0.0505541
0.01023
0.0160389
0.0964538
0.186828
0.237069
0.0848596
0.0399866
0.015936
0.0386531
0
0.0943578
0.0763037
0.234458
0.266039
0.0770338
0.0459313
0.0107523
0.0315485
0
0.132716
0.0450023
0.163763
0.194684
0.064874
0.067055
0.020877
0.062631
0
0.276732
0.0270014
0.0759034
0.0590386
0.0739584
0.0853361
0.00629781
0.0188934
0
0.298203
0.0336895
0.149264
0.127768
0.0988944
0.146867
0.0224943
0.0706425
0.00586786
0.392476
0.0162008
0.0236852
0.0206301
0.149684
0.199995
0.117257
0.043038
0.0349485
0.0836259
0.00703871
0.0568068
0.1453
0.130734
0.178574
0.0464386
0.0462273
0.0046607
0.0390832
0.00422323
0.146825
0.171102
0.172182
0.135787
0.0945675
0.0485517
0
0.219285
0.0435395
0.0802139
0.1171
0.128274
0.187405
0.125504
0.101353
0.0061028
0.206139
0.00621993
0.132684
0.103395
0.17045
0.135817
0.0614968
0.0640359
0.00146784
0.00680594
0
0.142942
0.0568062
0.13165
0.159372
0.109656
0.170124
0.0102749
0.00256119
0
0.152043
0.0590657
0.147756
0.126302
0.190738
0.144838
0.0176059
0.0902374
0
0.105021
0.033756
0.089696
0.238768
0.208071
0.201143
0.0105635
0.0685641
0
0.0716353
0.022757
0.203038
0.086313
0.0712433
0.184468
0.0472556
0.00828434
0
0.102826
0.0572052
0.0860828
0.0688403
0.128872
0.210747
0.123484
0.0411439
0.010122
0.167827
0.0806865
0.0668985
0.139328
0.0811766
0.195067
0.0216092
0.0966946
0
0.0586582
0.0195527
0.13432
0.0700142
0.114636
0.221827
0.0433375
0.0458094
0
0.30079
0.0940739
0.0578962
0.0367267
0.036029
0.0517819
0.0253953
0.0251862
0.0215956
0.178132
0.0997137
0.0914229
0.0442057
0.0167454
0.0502362
0
0.0698913
0.0129573
0.20351
0.218694
0.365158
0.0271246
0.0274243
0.0437084
0.00635748
0.0225071
0
0.284596
0.0900074
0.0236256
0.0326394
0.025866
0.0775979
0
0.295574
0
0.26248
0.0933616
0.0337974
0.0957065
0.029242
0.0190551
0
0.0909918
0
0.0633227
0.129802
0.322848
0.342135
0.0711091
0.0140548
0
0.0665016
0
0.0287299
0.0646327
0.414329
0.0393046
0.0558583
0.0544195
0.00240674
0.247778
0.0223167
0.101827
0.0400458
0.0314067
0.142119
0.157848
0.107455
0.0168472
0.0776585
0.0371945
0.0948327
0.0333822
0.112106
0.295247
0.024888
0.0111064
0
0.0271463
0
0.0034141
0.0411838
0.310831
0.286764
0.0948685
0.0345164
0.012003
0.025743
0
0.00171472
0.0999799
0.31553
0.169983
0.0767269
0.103715
0.00613315
0.022408
0.00498127
0.0178335
0.0109537
0.160104
0.259784
0.0680182
0.13115
0
0.0256462
0.0124222
0.0431485
0.0268094
0.255694
0.199833
0.139843
0.0596683
0.0477211
0.0144768
0.0013363
0.0280868
0.0476938
0.185263
0.177256
0.132381
0.0746824
0.0450292
0.0488889
0.0243556
0.141609
0.145646
0.208371
0.19397
0.0755113
0.0546107
0
0.073013
0.0629808
0.123277
0.0366542
0.180216
0.120512
0.128712
0.0703605
0.0526591
0.279117
0.140845
0.195173
0.0885595
0.145822
0.0661986
0.0313656
0.0235845
0.00881501
0.0577122
0.0683937
0.181367
0.151973
0.118701
0.113179
0.0217815
0.0307038
0.00100788
0.0512769
0.100928
0.203004
0.168924
0.126263
0.0650737
0.0512753
0.0758546
0.055128
0.144177
0.0779018
0.244893
0.105827
0.0936959
0.272367
0.15508
0.224672
0.0472483
0.0274756
0.0877759
0.212
0.104222
0.209617
0.112234
0.00820491
0.0215206
0.0152387
0.0981069
0.0582323
0.0718398
0.119187
0.125344
0.120882
0.00204645
0.0310564
0.0402275
0.210825
0.020528
0.0407678
0.061455
0.129868
0.280448
0.0926481
0.107562
0.0405383
0.0238749
0.0986824
0.0835058
0.135841
0.335452
0.152878
0.0130732
0.0511295
0.0512275
0.164644
0.11194
0.179579
0.164793
0.218489