0.140448
0.0748257
0.0419888
0.135647
0.0804037
0.0132769
0.0470818
0.0147738
0.0867247
0.10724
0.0333218
0.0252251
0.0950447
0.0761657
0.132679
0.151367
0.0426311
0.0976206
0.308404
0.182884
0.0683119
0.103228
0.0136897
0.013374
0.00854504
0.0717486
0.131424
0.117256
0.0956075
0.0707634
0.0701308
0.00331196
0.142554
0.183614
0.309267
0.14689
0.0373889
0.0140688
0.0413577
0.0853506
0.106684
0.137303
0.130722
0.0286845
0.0382571
0.0766036
0.0529899
0.145753
0.0512104
0.0966046
0.0809173
0.106205
0.0211601
0.0756593
0.034072
0.023808
0.0441427
0.0512104
0.0162357
0.121487
0.27359
0.300503
0.117321
0.165726
0.04736
0.0627619
0.0307262
0.0677175
0.0500252
0.200512
0.174614
0.214859
0.075174
0.0632173
0.161416
0.00853014
0.0399897
0.00704383
0.0582633
0.0254899
0.0742931
0.104226
0.0496608
0.161554
0.059711
0.0747589
0
0.0444669
0.111353
0.120017
0.177607
0.103054
0.0926044
0.00511809
0.0262031
0.0042263
0.0904297
0.06922
0.171058
0.139657
0.0975613
0.128607
0.0358266
0.00992298
0
0.188977
0.382456
0.175686
0.0800697
0.0210726
0.0743801
0.0207302
0.0212615
0.0186123
0.104827
0.11843
0.0964414
0.0800972
0.0295993
0.088798
0
0.0664127
0.0310204
0.173529
0.0937133
0.0884634
0.0790146
0.0562462
0.0426037
0.0124381
0.00240285
0.0310204
0.234073
0.314323
0.113311
0.197483
0.0588889
0.073356
0
0.00351593
0.0517007
0.283285
0.204288
0.18679
0.0497779
0.0613735
0.111064
0
0.0910417
0.00471756
0.109679
0.0376714
0.0441362
0.0267257
0.0977057
0.171355
0
0.16961
0
0.123899
0.0384064
0.0165788
0.235441
0.100228
0.111886
0
0.016559
0.0078626
0.167926
0.0673516
0.186181
0.177763
0.216538
0.159358
0
0.104788
0
0.172805
0.144325
0.118838
0.00512594
0.0642272
0.174879
0.0013032
0.0974939
0
0.117978
0.0363866
0.00373085
0.0225868
0.110492
0.329929
0.020051
0.0565373
0
0.104956
0.0345653
0.0225868
0.0702199
0.0889172
0.132632
0
0.145323
0
0.101279
0.152068
0.0665198
0.0720683
0.0864047
0.267258
0.0182143
0.150812
0.0433581
0.0690763
0.179381
0.116978
0.0895616
0.0544114
0.176899
0.0340681
0.0267381
0.00487882
0.0847855
0.0275648
0.0895616
0.142659
0.0487381
0.147018
0.0183661
0.0464705
0.0341517
0.131343
0.0389022
0.142659
0.0546923
0.0806134
0.268642
0.0510168
0.0782152
0.0446763
0.0434279
0.0895031
0.08641
0.0971879
0.105051
0.326183
0.0306101
0.186556
0.00638233
0.0485687
0.0305817
0.102367
0.071986
0.0433709
0.120629
0
0.0375393
0.0365666
0.116396
0.0579257
0.0762832
0.0928702
0.0411114
0.058145
0
0.0777861
0.0390874
0.14242
0.271477
0.128066
0.0946427
0.0701755
0.204836
0
0.109209
0
0.0776061
0.0349661
0.0962481
0.136653
0.0354699
0.0672961
0
0.282064
0.00681675
0.0914875
0.12752
0.150961
0.0601607
0.0790595
0.0428384
0
0.177715
0.0356914
0.0832446
0.142924
0.0655312
0.0731582
0.19679
0.0906647
0
0.174161
0.051257
0.127594
0.130731
0.0489404
0.0643084
0.0773407
0.115418
0
0.211187
0.0216878
0.0887329
0.0792149
0.0642936
0.0919726
0.170126
0.237394
0
0.141129
0.0248091
0.193625
0.0636432
0.0700587
0.116551
0.114787
0.0601676
0.00299919
0.00714942
0.00552141
0.0131774
0.0761635
0.0587691
0.0706598
0.0768833
0.0255342
0.00702764
0.00644698
0.0738476
0.0514118
0.229587
0.0827116
0.154272
0.147876
0.16591
0.0382129
0.0615072
0.0297103
0.065261
0.144486
0.158994
0.1911
0.0943471
0.0720283
0.0167486
0.0259863
0.104257
0.0398538
0.360667
0.504746
0.0411861
0.0137127
0.00964891
0.0121273
0.00480579
0.0540872
0.061185
0.156298
0.0636808
0.115232
0.027672
0.0149105
0.00727635
0.0097721
0.0146127
0.0759628
0.105282
0.120861
0.215114
0.0152759
0.0112709
0.0202121
0.00576002
0.063153
0.0224797
0.144439
0.412436
0.307696
0.0368035
0.0154729
0.0121273
0.000539429
0.0116425
0.0709628
0.0957577
0.547308
0.136286
0.0677357
0.0388364
0
0.00432176
0
0.0446827
0.0361149
0.0955444
0.108981
0.0661286
0.0295887
0
0
0
0.153324
0.167
0.104372
0.399733
0.0962552
0.0302249
0.00296966
0.00296966
0.0132769
0.0529046
0.0652805
0.298964
0.43459
0.135908
0.0640716
0.0207876
0.0207876
0.0394892
0.158029
0.147285
0.196079
0.0658759
0.0210013
0.00112647
0
0
0.00146255
0.0659091
0.0801842
0.0881249
0.242438
0.0230582
0.00433132
0
0
0.00243759
0.0347514
0.0361148
0.141242
0.31493
0.0769501
0.0363186
0.00457586
0.00457586
0.00636842
0.0428913
0.0474693
0.142592
0.689339
0.0830428
0.0115755
0
0
0
0.00353008
0.0215374
0.276867
0.187923
0.0182314
0.0120215
0
0.000922052
0.000302905
0.0125737
0.00545694
0.124944
0.168437
0.0449586
0.0147696
0
0.0113668
0
0.0162816
0.079272
0.126504
0.475507
0.0346126
0.00088731
0
0
0
0.000200141
0.00913126
0.252952
0.553481
0.0456034
0.00147885
0
0.000452654
0
0.00448072
0.121374
0.300608
0.0659504
0.0192186
0.0114891
0
0.0215055
0
0.0116785
0.135666
0.098701
0.0509459
0.00877253
0.0267335
0.000772321
0.0171743
0.0135846
0.00800557
0.170077
0.131894
0.224348
0.0112244
0.00455456
0
0.00137584
0
0.00627737
0.276374
0.352211
0.0861364
0.00748266
0.00776993
0
0.000825507
0.00194065
0.0104176
0.466689
0.480075
0.0214092
0.0144849
0.0450062
0.00288102
0.0273374
0.0186423
0.0109034
0.149934
0.0898394
0.0153836
0.0353048
0.0977459
0.00172861
0.0806897
0.00266318
0.0242983
0.0552926
0.0410995
0.0258011
0.00827864
0.00469301
0
0.0253724
0.00301621
0.0327321
0.559627
0.357117
0.0429484
0.0348678
0.0380309
0
0.0670581
0.0381254
0.10959
0.388871
0.22605
0.0435879
0.0689774
0.187511
0
0.111304
0
0.0320298
0.0157577
0.0416753
0.0659293
0.0264326
0.0765233
0
0.290865
0.018845
0.0661227
0.0166515
0.0645421
0.14113
0.0936224
0.144921
0
0.0753003
0.0772263
0.133645
0.188664
0.175373
0.15927
0.0670601
0.181759
0
0.255173
0.0701099
0.0945377
0.0579849
0.172876
0.0277501
0.0228582
0.0685747
0
0.165568
0.0495288
0.106888
0.0492692
0.0318659
0.0214857
0.0625244
0.136903
0
0.16629
0.0468002
0.178177
0.091206
0.024123
0.119811
0.0220886
0.0662657
0
0.236002
0.108444
0.120443
0.0689087
0.127199
0.0767379
0.0826991
0.0913595
0
0.404287
0.0626644
0.15498
0.107836
0.0753562
0.0196363
0.020655
0.0363487
0.0169947
0.044109
0.0464493
0.183206
0.0468775
0.0422925
0.0538249
0.0208723
0.0200104
0.0222419
0.0276517
0.03884
0.0621118
0.0595642
0.226372
0.00623992
0.00516711
0.00512826
0.0117387
0.0284389
0.07679
0.655907
0.152534
0.0268616
0.0362797
0.00861185
0.0119577
0.062267
0.0883236
0.236556
0.458727
0.060983
0.0987443
0.089434
0.00352006
0.00152767
0.014696
0.00702557
0.01144
0.00625511
0.054678
0.358245
0.112685
0.00319578
0.00532966
0.016998
0.0085779
0.000397333
0.00502433
0.0537804
0.469603
0.0830815
0.00152868
0.0376213
0.0834414
0.100451
0.131644
0.0727494
0.069312
0.271013
0.0708928
0
0.2155
0.286237
0.0630967
0.00703464
0
0.151822
0.406799
0.0978946
0.0165517
0.0470359
0.0417812
0.0168056
0.0139531
0.0104787
0.0241552
0.188275
0.0927957
0.0521343
0.208733
0.0990207
0.0333188
0.0311984
0.032691
0.027491
0.0539078
0.0225876
0.0739518
0.360869
0.324016
0.0489665
0.00769104
0.00360011
0.0379995
0.136179
0.0493906
0.236892
0.56077
0.275504
0.0405747
0.0139531
0.00810755
0.00981123
0.0255518
0.153754
0.107782
0.175283
0.0445298
0.0115052
0.00681671
0.0102109
0.0129917
0.0237902
0.428489
0.129136
0.0580805
0.00470751
0.000250129
0
0
0.0330127
0.140563
0.110151
0.249919
0.295246
0.134271
0.0219305
0.00229188
0.00501041
0.0362548
0.0140142
0.433162
0.32759
0.127239
0.0766408
0.00812017
0
0.022578
0.113569
0.166927
0.249248
0.0375923
0.000973659
0
0
0
0
0.0153507
0.13217
0.315938
0.0386583
0
0
0
0
0
0.0269334
0.220825
0.337925
0.0721986
0.00681562
0.00600927
0.000582725
0
0.00612747
0.0497858
0.287395
0.388598
0.0268996
0.0102079
0.00175312
0.00409061
0.013549
0.00509233
0.0464408
0.53759
0.17172
0.0141739
0.00637403
0
0.00015376
0.00597229
0.00438384
0.117709
0.235863
0.0404189
0.0215692
0.0106234
0
0.00107632
0.041806
0.0534631
0.263561
0.189993
0.196014
0.0231787
0.0233845
0.00595744
0.014977
0.0390103
0.0855712
0.179787
0.433878
0.0353666
0.0277729
0.0195287
0.00357446
0.0158747
0.156926
0.368296
0.430264
0.163405
0.00524059
0.0129864
0.00180529
0
0.00246863
0.0294606
0.0978764
0.292988
0.112281
0.00881201
0.00668989
0.00160991
0
0.00851565
0.0496974
0.186793
0.308316
0.0821761
0.00215599
0.0101454
0.00300881
0
0.00908593
0.12463
0.3048
0.433787
0.0328718
0.000307998
0.000923994
0
0.00694055
0.0507891
0.188233
0.327334
0.360281
0.0609037
0.0239823
0.015587
0.0213296
0
0.04326
0.0876036
0.163726
0.22993
0.0800314
0.037737
0.0247325
0.0705643
0
0.0965673
0.0740987
0.0472852
0.0709591
0.0754095
0.00189244
0.00172057
0.00516171
0.0127536
0.171348
0.425978
0.373515
0.231913
0.0604758
0.0295579
0.0123497
0.0370491
0.00182194
0.227331
0.303881
0.107384
0.0628477
0.0616793
0.110155
0.0220278
0.0660833
0
0.136203
0.0982244
0.0476127
0.0522542
0.151063
0.099031
0.0695518
0.0553249
0
0.236193
0.0355752
0.151978
0.0715379
0.111184
0.0923835
0.0156783
0.0470349
0
0.118206
0.0742512
0.0868807
0.0965626
0.161034
0.0709544
0.0141238
0.020467
0
0.108393
0.0854525
0.398449
0.165146
0.116673
0.00169742
0
0
0.0108202
0.00676897
0.0660343
0.290732
0.115129
0.0210796
0.00439393
0
0.00475699
0.0160886
0.0718131
0.290159
0.257011
0.0411667
0.00787901
0.00256061
0
0.00402001
0.0156691
0.082065
0.281693
0.173719
0.0991039
0.0387666
0.00203647
0
0.00067957
0.00377684
0.148605
0.693089
0.128275
0.0464503
0.0188616
0.0116441
0
0.0531048
0.0490097
0.0923642
0.170694
0.0612548
0.0240122
0.0213631
0.00755804
0
0.319478
0.224072
0.0346069
0.0129459
0.0114219
0.0386489
0.0340826
0.00633019
0.00645285
0.157677
0.0532183
0.0853399
0.390793
0.0783939
0.0421464
0.0359824
0.00379811
0.0107547
0.646795
0.274561
0.0319485
0.035368
0.0332031
0.0245559
0.0211352
0.00045747
0.0245418
0.322348
0.190802
0.00941855
0
0
0.00816371
0.00806532
0.0268594
0.150966
0.295026
0.0977921
0.00953867
0.0097151
0.00242877
0.00929969
0.0072588
0.000535999
0.00935276
0.496407
0.253947
0.0270704
0
0
0.00031314
5.526e-005
0.034001
0.120086
0.52721
0.16178
0.0821754
0.0306588
0.00480937
0.00557981
0.00847792
0.0724089
0.207148
0.119756
0.0910924
0.0679826
0.0397274
0.0125125
0.0441519
0.0265069
0.205074
0.175209
0.0306641
0.113859
0.0872559
0.0238364
0.0240237
0.0814047
0.148393
0.0587366
0.159666
0.196923
0.0949156
0.433852
0.154945
0.0180672
0.0235018
0.0223692
0.17935
0.159103
0.0324039
0.116189
0.487846
0.195498
0.0126761
0.0387301
0.133838
0.202599
0.0508657
0.00471314
0.0152841
0.0102675
0.00614533
0.0217995
0.0867149
0.32884
0.149992
0.00729509
0.0121917
0.00569163
0.0419946
0.134725
0.0731504
0.140151
0.37463
0.164853
0.0746169
0.0206928
0.015071
0.0713542
0.0659572
0.08508
0.0946883
0.255089
0.0444431
0.0162441
0.0161802
0.00341498
0.249702
0.455659
0.22144
0.150035
0.157099
0.0378525
0.0070798
0.01787
0.0324819
0.0889952
0.100013
0.110956
0.0943567
0.141061
0.00432824
0.00320844
0.0138282
0.0399633
0.0545907
0.0758433
0.451896
0.276318
0.0644461
0.00106036
0.00217848
0.0135403
0.0649325
0.356483
0.312938
0.0832627
0.0456237
0.0143691
0
0.000115061
0.0174909
0.099717
0.217667
0.221917
0.373956
0.185005
0.0248424
0
0.00029004
0.00148851
0.00386127
0.00919849
0.0848011
0.30476
0.192242
0.00877737
0
0
0
0.0117931
0.0397314
0.208865
0.207076
0.0750464
0.0105631
0
0
0.00208534
0.0114584
0.022204
0.346591
0.404011
0.107708
0.00714666
0
0
0
0.0121847
0.127413
0.521424
0.269606
0.0214014
0
0.000378513
7.96948e-005
0.000239084
0.0225685
0.0941632
0.361792
0.15325
0.0156591
0.00617371
0.00860404
0.00331519
0.00994559
0.00492458
0.136156
0.263597
0.0591599
0.0127978
0.011128
0
0
0
0.0373481
0.254246
0.507164
0.136387
0.0209972
0
0.000740944
0.0016544
0.0049632
0.017239
0.19113
0.387839
0.196024
0.0341022
0.00238483
0.0338902
0.00867739
0.0260322
0
0.1227
0.100046
0.0775769
0.0958725
0.0539854
0.0162747
0.00115375
0.00806015
0.00854079
0.11354
0.0538746
0.236248
0.131783
0.0440584
0.0267534
0.00484577
0.0145373
0
0.115403
0.315457
0.354441
0.149615
0.0398419
0.0783511
0.000692252
0.00974156
0.0142346
0.105767
0.0469584
0.279343
0.217731
0.136784
0.000992568
0
0.00590328
0.0197527
0.221623
0.25342
0.0361417
0.0112329
0.00908357
0.00583289
0
0
0.00122839
0.236881
0.478671
0.0325771
0.0118361
0.0202274
0
0.000674628
0.00935556
0.108005
0.441179
0.135395
0.00149352
0
0
0.00349974
0.00374147
0.0142912
0.0969878
0.444206
0.267419
0.0152043
0.00471987
0.0131251
0.0248932
0.00933516
0.157194
0.054427
0.0736101
0.361721
0.0517634
0.032034
0.0818425
0.0149359
0.0155586
0.477971
0.288508
0.0924072
0.0366531
0.0164638
0.0187976
0.0489646
0.0149359
0.0173012
0.0742317
0.0859526
0.211649
0.212453
0.057028
0.0370768
0.0560146
0.00896157
0.0118032
0.129666
0.232929
0.408378
0.0924295
0.0636308
0.0403087
0.0336088
0.00158308
0.00592564
0.221085
0.30561
0.113633
0.00119431
0
0
0
0.0218587
0.0380361
0.249568
0.249866
0.175009
0.0618052
0.00800424
0.00221861
0.00190186
0.000949847
0.00204495
0.0405756
0.261986
0.48613
0.070649
0.00705007
0.00282287
0
0.00664893
0.0134256
0.0372376
0.216082
0.430733
0.170735
0.0461901
0.0304262
0.00445109
0.0167333
0.0229085
0.0642798
0.0501043
0.297096
0.174171
0.0313556
0.0232448
0.0108188
0.0519292
0.0384964
0.00933897
0.0268875
0.305421
0.234172
0.0359343
0.124765
0.13768
0.00265313
0.00635742
0.0108827
0.0309035
0.154009
0.182421
0.100744
0.15976
0.0846261
0.0332854
0.00328509
0.00172018
0.00745889
0.134373
0.160253
0.109785
0.432016
0.475216
0.136046
0.0663512
0.0289031
0.00792989
0.0718508
0.0703591
0.0503232
0.100784
0.186373
0.0970371
0.0657753
0.0574211
0.0650681
0.322161
0.213651
0.0890818
0.0343057
0.0691356
0.152239
0.0621537
0.0563219
0.0109143
0.0733032
0.0406535
0.0794711
0.246627
0.487794
0.196367
0.137545
0.120662
0.20027
0.305983
0.0350388
0.0361146
0.0523857
0.223992
0.00614588
0.00924963
0.0139511
0.0785717
0.416049
0.20318
0.0193086
0.00538055
0.00231919
0
0
0.00247733
0.0676923
0.280305
0.220539
0.122391
0.030716
0.00312332
0.0346552
0.0316703
0.0270679
0.303947
0.435614
0.0440324
0.00179502
0.00236646
0.0209368
0
0.0123311
0.0256092
0.276339
0.360925
0.0787551
0.0355441
0.00591456
0
0
0
0.000263315
0.00915184
0.0801639
0.322825
0.137459
0.0150875
0.000902407
0
0
0
0.00309213
0.231488
0.411828
0.0919018
0.00646934
0
0
0.00356277
0.0170987
0.104629
0.286777
0.173111
0.0332474
0.00464518
0
0
0.00519696
0.0124482
0.0832637
0.576385
0.261562
0.0190528
0.00201004
0
0
0.000986888
0.00342622
0.0209926
0.33988
0.310009
0.100275
0.0294304
0
0.00411936
0.0135866
0.0368335
0.0221956
0.159999
0.24117
0.166984
0.0346619
0.00455638
0
0.0127532
0.0342732
0.1373
0.528905
0.18619
0.0339868
0.00782317
0
0.0288355
0.0242312
0.114942
0.190453
0.244262
0.110316
0.0491361
0.0364957
0.0307518
0.0428419
0.0227186
0.0528158
0.00629769
0.0545252
0.201398
0.172805
0.0868152
0.0556389
0.11822
0.0122603
0.025049
0.00152817
0.0281207
0.0511862
0.085356
0.124572
0.22655
0.0865369
0.0459503
0.118844
0.0772972
0.121048
0.0795414
0.0709476
0.195082
0.174371
0.13505
0.0345645
0.0429941
0
0.0260723
0.0400492
0.0530538
0.296535
0.469577
0
0.00061305
0.0141868
0.229825
0.214185
0.0228429
0.0016401
0
0
0.00298194
0.0194146
0.061806
0.281893
0.203765
0.0448756
0.000861248
0.00121774
0.00158301
0
0.0220324
0.198822
0.374885
0.073556
0.00855268
0.00983961
0
0
0.00496989
0.0469856
0.178161
0.678757
0.0695943
0.00233198
0.0129434
0
0
0.0111388
0.0725221
0.096197
0.12294
0.0874786
0.0555371
0.0647562
0.0400569
0.00591324
0.0066833
0.0435133
0.0269031
0.0488346
0.206672
0.189409
0.134828
0.0641557
0.00354794
0.0185647
0.141326
0.215772
0.39223
0.0184089
0.117218
0.132736
0.0258548
0
0.0111388
0.0840016
0.0650965
0.0465188
0.0755699
0.533796
0.417931
0.0588156
0
0
0
0.000527226
0.0495988
0.330702
0.224284
0.0368012
0.0091843
0
9.54011e-005
0.00212959
0.00524396
0.0310055
0.243872
0.295099
0.0406411
0.0209022
0.00428996
0
0
0
0.0133526
0.146227
0.415235
0.258027
0.0420743
0
0.000667808
0.00372002
0.00314638
0.00190751
0.103026
0.421526
0.357953
0.0716854
0.00382744
0.000527593
0.00833343
0.0250859
0.0251937
0.0709426
0.165442
0.0698002
0.152507
0.0882891
0.00656262
0.00408385
0.0209507
0.0918978
0.247224
0.062614
0.0919991
0.361556
0.311666
0.00662025
0.0204578
0.0218961
0.0573826
0.061814
0.200217
0.280119
0.098901
0.0251686
0.00709439
0.0138065
0.0259015
0.19307
0.46385
0.194096
0.0619547
0.0528071
0.0200404
0.0218499
0.0365271
0.0690653
0.0445529
0.190412
0.0193265
0.0608858
0.0952467
0.138966
0.0679212
0.0829652
0.116127
0.10721
0.271558
0.0415773
0.0362073
0.0178081
0.111028
0.00191281
0.0197322
0.0629573
0.116403
0.480463
0.0902303
0.0314981
0.0116468
0.00504802
0.0107191
0.0436276
0.183181
0.226477
0.570607
0.0799883
0.0429213
0.00731289
0.0309209
0.0227316
0.0229525
0.0214626
0.16175
0.359101
0.0398674
0.00438246
0.000809625
0.0248223
0.000695002
0.026417
0.0389563
0.229908
0.280928
0.0182269
0.00116335
0.000290838
0
0.00612839
0.024424
0.0725875
0.116239
0.54564
0.107044
0.0131986
0.00097804
0.0121407
0.0134378
0.112746
0.120672
0.225881
0.409882
0.0893332
0.00493402
0
0
0.000250473
0.00952048
0.0769181
0.256343
0.197369
0.0182717
0.00113968
0.000982403
0.000174371
0
0.0235399
0.101651
0.233778
0.385666
0.039397
0.000162811
0.00492309
0.0012206
0.00484286
0.0476604
0.272383
0.425295
0.126573
0.0105466
0.000654156
0.00488239
0.0012206
0
0.0229429
0.271856
0.387343
0.226507
0.0350873
0
0.0341767
0.00854417
0
0.0701625
0.0961424
0.185696
0.341187
0.0550127
0.00191309
0.00356884
0.000892209
0.0239411
0.0319558
0.0676513
0.176341
0.201686
0.104861
0.0452036
0.0225109
0.034364
0
0.0810044
0.11049
0.278209
0.478814
0.0655047
0.00318848
0.0249819
0.00624546
0.0495477
0.0551044
0.0450201
0.184667
0.372516
0.0907618
0.0415873
0.0108958
0.0458499
0.12558
0.0451185
0.028562
0.0627856
0.106921
0.0707023
0.0940343
0.124144
0.122734
0.141408
0.0606493
0.0133465
0
0.00811817
0.0131625
0.0357033
0.297982
0.299834
0.264016
0.0939498
0.0228487
0.0725001
0.108246
0.0611731
0.0744046
0.0833671
0.122318
0.217728
0.0818389
0.00907112
0.00324677
0.0363388
0.0530538
0.0603055
0.317151
0.223475
0.000446167
0.0895742
0.260394
0.114883
0.00551196
0.000876463
0.00637204
0
0
0.000535969
0.0787645
0.237902
0.397806
0.0120618
0.000542849
0.0103141
0
0
0.00500157
0.276834
0.464062
0.0364158
0.000154619
0.000657588
0.00434672
0
0.000186383
0.0157406
0.292398
0.435595
0.216298
0.00108233
7.75499e-005
0.00147344
0
0.00272719
0.00200019
0.0677332
0.151312
0.285058
0.00498882
0.0777908
0.0852617
0.00108637
0
0.00120011
0.0349762
0.0371521
0.0249574
0.0116884
0.307617
0.431533
0.00641579
0
0.0140865
0.0865297
0.189583
0.184182
0.000909164
0.0437502
0.0738839
0.00263989
0.00394605
0.00387493
0.015088
0.0298411
0.0183935
0.00412686
0.20377
0.609824
0.00439981
0.00159874
0.000265495
0
0
0.0011782
0.0255357
0.173104
0.290601
0.0331234
0.000265495
0.00204161
0.000732583
0
0.000168314
0.0169674
0.149728
0.375174
0.0919365
0.00554451
0.00185846
0
0
0
0.00440559
0.147429
0.537163
0.0527151
0.00189728
0.0191081
0
0
0
0.00217362
0.114009
0.513917
0.196171
0.0284777
0.00987218
0.00677035
0.000834613
0.0123736
0.00959445
0.0659765
0.288472
0.14946
0.0312011
0.0398777
0.0141534
0.0136468
0.0354213
0.125296
0.108979
0.0719828
0.0900381
0.0526612
0.0428848
0.00279821
0
0.000940003
0.000706178
0.0522191
0.365355
0.347544
0.209479
0.124326
0.0317153
0.0200354
0.0135584
0.0391229
0.0485693
0.0862757
0.285112
0.559111
0.0238825
0.0251095
0.0379331
0.0528485
0.337326
0.134336
0.0592865
0.0458508
0.0369045
0.040926
0.0939875
0.205497
0.138978
0.334844
0.0630464
0.0693331
0.0725678
0.0497658
0.155651
0.0927769
0.0307513
0.0256355
0.118291
0.0642619
0.0353378
0.107239
0.406589
0.395416
0.193845
0.0966343
0.0235291
0.0853628
0.0287768
0.0398825
0.135325
0.242523
0.0376171
0.0749863
0.113671
0.0664963
0.184284
0.0790373
0.0141891
0.0159946
0.0235897
0.0263082
0.247403
0.283783
0.0802069
0.124917
0.0984514
0.00908461
0.00401077
0.00755471
0.350599
0.188444
0.0879186
0.0121512
0.032146
0.0262107
0.00729848
0.0333339
0.0562133
0.17707
0.449906
0.480292
0.0160423
0.0261699
0.0344756
0.00438941
0.00668461
0.0142175
0.00450703
0.129038
0.379099
0.166444
0.030771
0.0129038
0.0011519
0.00167447
0.000418616
0.00214281
0.0440741
0.274978
0.27094
0.105362
0.0228802
0
0.0117213
0.00293031
0.0128372
0.309927
0.456152
0.0426496
0.00268248
0.00406476
0.000556561
0
0
0.01968
0.238242
0.369305
0.182402
0.0208619
0.00423342
0
0
0
0.00458129
0.0290284
0.136043
0.370147
0.316977
0.0265314
0.00043286
0.009219
0.00230475
0.0312957
0.0739523
0.0685802
0.19059
0.287994
0.00737456
0.0127789
0.00403109
0.00909393
0.0334232
0.125319
0.385475
0.331998
0.0725665
0.012285
0.00266247
0.000887489
0
0.019411
0.13124
0.225793
0.164492
0.13222
0.00621421
0.0227321
0.00681155
0
0.131996
0.161792
0.0458865
0.0746623
0.126799
0.0262895
0.103879
0.0763341
0.0397129
0.0718028
0.0532579
0.0417366
0.0394922
0.0568649
0.0770433
0.177422
0.250686
0.0737789
0.0378196
0.214914
0.116665
0.042896
0.161853
0.104177
0.1859
0.0485696
0.00102982
0.00949233
0.051095
0.113497
0.059406
0.11704
0.236262
0.297683
0.102913
0.0105581
0.0483334
0.366057
0.587046
0.0166483
0.000128151
0.00217887
0.00589618
0.000339855
0.000850272
0.0479339
0.284885
0.36123
0.0455151
0.000897057
0.0107021
0.00244831
0.00504368
0.0132062
0.175693
0.28569
0.232003
0.00988716
0.00756938
0.00272028
0.0121007
0.00915842
0.0168097
0.0370376
0.0795605
0.120822
0.0111265
0.00807049
0.0191571
0.0215076
0.0442025
0.0161272
0.0728785
0.13407
0.17728
0.069713
0.00374349
0.0364424
0.0721271
0.0262921
0.0369358
0.028385
0.00835247
0.0229647
0.00930592
0.0205694
0.218504
0.736377
0.0384946
0.0250026
0.0344997
0.0206528
0.0243567
0.00624386
0.0202629
0.0339794
0.0703281
0.0875075
0.0462811
0.024546
0.00158604
0.00348946
0.00231912
0.0458555
0.0991086
0.24667
0.111806
0.0366613
0.00215248
0
0
0
0.00260449
0.073872
0.382224
0.100006
0.00228162
0.0133213
0
0
0
0
0.0316572
0.407065
0.389599
0.044449
0.0021929
0.00040242
0.000938979
0
0.00578084
0.0313839
0.134184
0.161458
0.00321352
0.0010663
0.000241452
0.000563388
0
0.000388861
0.00707376
0.174867
0.584014
0.0726297
0.019603
8.51938e-005
0
0
0.000539007
0.007283
0.134509
0.265185
0.144903
0.0311062
0.00586703
0.00177259
0.00106094
0.00565337
0.0119018
0.0358077
0.217964
0.373765
0.00243648
0
0
0
0.000323404
0.00136926
0.059495
0.440468
0.171858
0.00183434
0
0
0
0.00226383
0.00684849
0.0174964
0.450276
0.431839
0.0900972
0.0235455
0.00236341
0.00249153
0.00866556
0.00555202
0.00366202
0.0840332
0.37136
0.326452
0.0550933
0.0177134
0.00539709
0.00484111
0
0.000122323
0.0344824
0.222778
0.0351248
0.000423913
0
0.000859462
0.00692675
0.00798902
0.00219721
0.292101
0.500945
0.241048
0.00992526
0.0136143
0.0160095
0.0213453
0.00776302
7.33939e-005
0.204209
0.377205
0.424872
0.112452
0.0445531
0.0162333
0.0255938
0
0
0.00964494
0.072699
0.262564
0.309554
0.310884
0.015318
0.0396006
0
0
0.00105972
0.0225382
0.402394
0.042246
0.0300693
0.0288153
0.0257179
0.00147201
0
0.0622753
0.17748
0.342228
0.217069
0.154001
0.0511501
0.0314727
0
0
0.00339887
0.0641075
0.0948039
0.386544
0.481462
0.0187706
0.00810945
0
0
0.00234686
0.0130002
0.0648845
0.297377
0.348754
0.0834151
0.00335728
0.0118297
0.000963929
0.00391143
0.0194419
0.17682
0.22638
0.226018
0.0616813
0.0273867
0
0.00187108
0.0170517
0.0303737
0.0915892
0.108233
0.135444
0.0506052
0.028699
0.0214925
0.0198451
0.0317459
0.0391922
0.0479433
0.169694
0.413192
0.16239
0.0408371
0.0711466
0.041876
0.0144818
0.01214
0.0179866
0.0957686
0.259675
0.077012
0.189716
0.045951
0.0868676
0.026722
0.00859215
0.0408297
0.107356
0.140554
0.169762
0.0686252
0.0788869
0.0768805
0.0292891
0.0225439
0.0225151
0.0720761
0.180133
0.145023
0.152175
0.109032
0.118482
0.0320972
0.0152016
0.0141649
0.0674265
0.110938
0.0346201
0.138901
0.116889
0.122779
0.026274
0.00901826
0.0287401
0.0206534
0.0619337
0.0254283
0.109573
0.294541
0.213768
0.0484384
0.0300167
0.0182955
0.0345676
0.134742
0.0724242
0.10621
0.200595
0.132209
0.0348744
0.0178959
0.115629
0.054858
0.0839292
0.0406372
0.132124
0.248812
0.232209
0.0766102
0.0804026
0.339512
0.254269
0.0467959
0.00301216
0.105211
0.0498124
0.13739
0.0769566
0.0848376
0.048456
0.0848651
0.0569969
0.013178
0.0652081
0.0339453
0.183596
0.145479
0.0391956
0.0306308
0.0381199
0.00435386
0
0.114362
0.304004
0.198305
0.0650013
0.0209012
0.0944286
0.0369153
0.0241099
0.00489461
0.137772
0.164371
0.200859
0.0545841
0.0893361
0.0207342
0.0421402
0.0650139
0.0304265
0.0700614
0.0512923
0.144024
0.101283
0.0401897
0.0107457
0.0133882
0.0411834
0.024878
0.226755
0.131092
0.196021
0.121036
0.0218535
0.105794
0.0607513
0.0729423
0.0177132
0.104444
0.0519287
0.121658
0.0333819
0.0960314
0.0251147
0.027053
0.0750192
0.0225693
0.286434
0.329728
0.137205
0.018806
0.0236998
0.00141455
0.00428844
0.0148173
0.00838527
0.0564495
0.0351055
0.0635958
0.208003
0.0117411
0.00260008
0.00304628
0.01031
0.00947033
0.00944318
0.0115108
0.146021
0.748107
0.0903012
0.00260008
0.00686026
0.0277186
0.0178079
0.107787
0.134308
0.0420403
0.031263
0.0101994
0.0182006
0.0116082
0.0555378
0.0771485
0.0742383
0.0507363
0.117496
0.1372
0.0335472
0.000524912
5.4914e-005
0.000164742
0.0024361
0.00354359
0.0137209
0.0526806
0.444348
0.109771
0
0
0
0.000348015
0.00206754
0.0169961
0.0408423
0.637871
0.348595
0.0109399
0.00719786
0.0188132
0.0358786
0.0283364
0.0268329
0.0694288
0.0976144
0.0165174
0.029225
0.0249944
0.00747882
0.0097391
0.0146563
0.0553715
0.100492
0.239845
0.0559697
0.00484632
0
0
0.00398336
0.0569348
0.04879
0.0357983
0.400518
0.324156
0.0809465
0.00250224
0.0147794
0.0623466
0.186113
0.107799
0.0360648
0.304097
0.252074
0.0164045
0.0196063
0.00276528
0.00239002
0.0661371
0.148555
0.130074
0.179887
0.04518
0.013672
0.00360892
0.00923991
0.037408
0.206895
0.231546
0.246017
0.326516
0.0860037
0.227207
0.0181205
0.037584
0.099841
0.113719
0.0393647
0.0117005
0.131067
0.182222
0.205024
0.0894507
0.101431
0.0859853
0.0241249
0
0.0197086
0.0477867
0.113247
0.0539575
0.00166255
0.0195674
0.0599046
0.131976
0.0765078
0.198931
0.457078
0.247815
0.0502057
0.0274758
0.052776
0.0288017
0.0165844
0.0480326
0.211075
0.302297
0.249581
0.103778
0.104359
0.123954
0.0772189
0.0447967
0
0.0337593
0.0694725
0.0565134
0.109919
0.127277
0.128336
0.0677037
0.0563732
0.0115208
0.0461943
0.0495573
0.0430082
0.162936
0.114553
0.108545
0.00909214
0.00763723
0.0288741
0.120128
0.201381
0.186689
0.428148
0.219714
0.106723
0.018775
0.0130631
0.00839979
0.0806347
0.119298
0.338906
0.0523223
0.0785294
0.0913963
0.133443
0.0608172
0.0343885
0.0663584
0.017441
0.0114304
0.00915587
0.0300184
0.126307
0.183541
0.110759
0.0930351
0.0691387
0.0206409
0.00485382
0.178306
0.0908354
0.0458475
0.0532337
0.100929
0.12377
0.225941
0.109616
0.168511
0.0118878
0.0303843
0.241274
0.280536
0.268777
0.225644
0.184562
0.0412429
0.01472
0.00880506
0.0101894
0.0530451
0.0465207
0.042577
0.0664281
0.0261525
0.0209047
0.0106838
0.144588
0.0568508
0.0427186
0.0115906
0.0602495
0.0524609
0.0295423
0.0188214
0.063707
0.034405
0.0381433
0.269887
0.210713
0.061023
0.0664383
0.0167125
0.0116976
0.0363086
0.524877
0.0996039
0.197154
0.187672
0.0355698
0.0475018
0.00218326
0.00701854
0.444901