0.0826635
0.050543
0.0831707
0.0377429
0.0503372
0.0814653
0.160928
0.130283
0.054365
0.0577674
0.0367446
0.121922
0.144043
0.147671
0.0116379
0.122586
0.191207
0.126302
0.21459
0.0960697
0.109022
0.0573807
0.0368571
0.0594702
0.115425
0.133161
0.126524
0.103728
0.0661768
0.142703
0.119355
0.0533113
0.0532191
0.0817786
0.338246
0.264209
0.0811277
0.0298329
0.0211999
0.0922785
0.167525
0
0.0782121
0.135581
0.101359
0.25831
0.118251
0.0210679
0.0789798
0.106366
0
0.05975
0.143146
0.126814
0.0686962
0.0320631
0.0271454
0.0839211
0.0980977
0.0222719
0.107147
0.276495
0.146828
0.303462
0.103239
0.0274215
0.106191
0.0911575
0.00165325
0.104739
0.197889
0.230714
0.179044
0.112299
0.0516078
0.0139644
0.0735205
0
0.0226667
0.0378857
0.100775
0.153783
0.190351
0.0933146
0.0232094
0.113013
0
0.00314737
0.0202881
0.181786
0.297689
0.102768
0.0448868
0.0425485
0.0551743
0
0.0452718
0.0450971
0.199388
0.272835
0.178266
0.139609
0.0420332
0.0819308
0.018796
0.0094625
0.0715594
0.322903
0.102494
0.174837
0.0979934
0.0157127
0.0172554
0
0.00245946
0.0303702
0.098724
0.170292
0.200961
0.118613
0.0227646
0.00156636
0.003867
0.0242998
0.164169
0.103286
0.127093
0.213774
0.178057
0.0216729
0.0388223
0.0593599
0.0246628
0.0449391
0.154138
0.346601
0.249946
0.175464
0.0159712
0.0172056
0.0615481
0.0513141
0.232709
0.325765
0.113602
0.0923822
0.0268563
0.0232673
0.00651912
0.0229561
0.0215197
0.131605
0.076095
0.101396
0.1208
0.0366784
0.0388544
0.0372665
0.0416609
0.0220312
0.0781151
0.126459
0.22277
0.0629284
0.0445454
0.0115922
0.00161797
0.0130346
0.0199729
0.343683
0.264894
0.276488
0.041768
0.0265804
0.00695531
0.0172079
0.015443
0.0179298
0.306693
0.445877
0.0767552
0.0728586
0.0316073
0.0225793
0.0836699
0.103383
0.049711
0.0701819
0.099651
0.225452
0.0669652
0.0581218
0.00212296
0.0811845
0.148296
0.0496268
0.120861
0.208534
0.21278
0.089579
0.0103608
0
0.0341616
0.0479618
0.0769756
0.201307
0.326104
0.191929
0.12875
0.0392574
0
0.0559032
0.133576
0.168366
0.273317
0.243051
0.139066
0.0984338
0.0545584
0
0.0136604
0.0348966
0.0677894
0.11964
0.20669
0.224908
0.129383
0.0156962
0
0.0335066
0.0256963
0.113903
0.122118
0.216259
0.184118
0.201306
0.0511026
0
0.0142007
0.0354976
0.116141
0.161323
0.169098
0.273274
0.293609
0.0313184
0
0.00478665
0.00367091
0.102202
0.236194
0.239119
0.234622
0.098905
0.00138711
0
0.0267451
0.0774311
0.0590573
0.0998523
0.101153
0.174186
0.10646
0.0055403
0.00831045
0.0102538
0.1697
0.13913
0.154626
0.0803553
0.264364
0.184629
0.0201677
0
0.00382073
0.0185959
0.0270552
0.206566
0.199473
0.328845
0.139334
0.0215526
0.00118721
0.00874881
0.0769827
0.127802
0.174067
0.188929
0.125975
0.0478366
0.0169504
0.0254256
0.0151062
0.0614474
0.0872962
0.210834
0.0959657
0.150658
0.0679089
0.0346396
0.0482299
0.0273419
0.07452
0.0736911
0.220034
0.119098
0.323067
0.0619085
0.0156565
0.0225771
0.0244432
0.0295419
0.0978958
0.166005
0.16064
0.303577
0.0889431
0.0205996
0.0377375
0.0455699
0.00559807
0.128905
0.254436
0.179415
0.130615
0.037647
0.0334874
0.0273791
0.0289617
0.0814531
0.0388075
0.114704
0.102472
0.127648
0.0536055
0.0154839
0.00948489
0.0121147
0.126211
0.0406996
0.196686
0.204159
0.238867
0.00638256
0.011209
0.00370608
0.0434615
0.0472555
0.0606897
0.133477
0.310545
0.302989
0.0620196
0.00488638
0.00052944
0.0214439
0.0754956
0.0434281
0.138431
0.345042
0.0900857
0.0906094
0.00572372
0.048792
0.0244371
0.064675
0.0526611
0.18083
0.105816
0.13074
0.126705
0.0559081
0.111088
0.0863154
0.0203122
0.0787445
0.0828631
0.0667557
0.137
0.126442
0.0227023
0.026456
0.0311275
0.0531388
0.0831108
0.298707
0.151868
0.0729964
0.202607
0.224842
0.128996
0.262572
0.112524
0.114337
0.231513
0.042587
0.0425079
0.0513604
0.0250953
0.0143343
0.0123178
0.00175388
0.0159427
0.0055975
0.0191648
0.0792135
0.132651
0.0657628
0.0314395
0.00559861
0.00583797
0.00489536
0.0139863
0.044477
0.0278637
0.205449
0.177923
0.0267822
0.0450331
0.0122771
0.0114023
0.00715046
0.00566685
0.103469
0.779298
0.328246
0.0361857
0.00425564
0.000833996
0.00253832
0.00226262
0.0162354
0.0494552
0.0860237
0.0584496
0.019528
0.00893297
0.0184914
0.00757336
0.0131565
0.0450734
0.206536
0.0716001
0.0340833
0.00550016
0.00535978
0.0191731
0.0129737
0.029612
0.195452
0.104973
0.495041
0.126159
0.0236002
0.00127614
0.00264164
0.00108191
0.00363743
0.0313644
0.4251
0.540586
0.0367959
0.00464526
0.000765683
0.00273902
0.00180318
0.00517904
0.177787
0.182502
0.0132382
0.00850696
0
0
0.00145511
0.00211087
0.033393
0.150813
0.255108
0.0102849
0.00442014
0
0
0
0.00158782
0.0331892
0.18087
0.427966
0.168864
0.0032286
0
0
0.000207872
0.000207872
0.00196243
0.227712
0.450622
0.0387223
0.000860089
0
0
0
0.00318044
0.0831419
0.516622
0.175235
0.0393272
0
0
0.000219091
0.00244519
0.0151251
0.0490841
0.145041
0.0781312
0.0510839
0.00399416
0
0.00153364
0.0126302
0.0754932
0.123211
0.0910001
0.199941
0.0421169
0
0
0
0.000718294
0.0293693
0.345232
0.385251
0.0755703
0.031941
0.00239649
0
0
0.00502806
0.192028
0.627231
0.191093
0.0632237
0.0398126
0.0164512
0
0.000827154
0.0103133
0.0777785
0.122874
0.0593414
0.0682508
0.0493941
0.0127117
0
0
0.0139039
0.0715517
0.123989
0.0830509
0.0564797
0.013316
0.00955057
0
0
0.0261468
0.314991
0.53518
0.100382
0.0427197
0.0054492
0.00605488
0
0
0.0697408
0.438177
0.399105
0.0925316
0.101559
0.0698833
0.015466
0
0
0.00969228
0.0454399
0.168318
0.171001
0.147916
0.0538218
0.0217923
0
0.000917805
0.00432159
0.0381957
0.201084
0.174583
0.0607479
0.0288193
0.0129283
0
0.000354451
0.0616873
0.350808
0.411219
0.204335
0.113001
0.177447
0.0434994
0.00574162
0.0340685
0.0344249
0.0930438
0.236259
0.200233
0.128039
0.0334418
0.0172289
0.01164
0.00202679
0.00129155
0.0256032
0.07284
0.100666
0.0949911
0.0340011
0.0159045
0.0194001
0.0122317
0
0.0534457
0.152659
0.121299
0.156835
0.0902183
0.0275337
0.0143421
0.0344174
0.00667369
0.00928606
0.0808246
0.275093
0.285048
0.0518012
0.0114699
0.010379
0.0246779
0
0.00711428
0.17973
0.63409
0.184275
0.0248936
0.019428
0
0.0300702
0
0.0540374
0.108856
0.260709
0.25458
0.0471534
0.0116568
0
0.0468125
0.000633442
0.0211016
0.146007
0.283186
0.195919
0.0548658
0.0131402
0
0.0315385
0
0.0953038
0.17322
0.221042
0.228261
0.0540049
0.00699409
0.00767077
0.0736497
0.0416426
0.136543
0.237971
0.239088
0.0447934
0.0514736
0.0262879
0.00891389
0.00985167
0.00269779
0.0154061
0.0917044
0.0554546
0.0171993
0.155716
0.215007
0.12362
0.0723797
0.0144637
0.0145465
0.0602126
0.0131106
0.0441203
0.0735919
0.0557484
0.0641907
0.0282235
0.0322801
0.08251
0.0660633
0.0439499
0.0163975
0.298953
0.606445
0.467584
0.0369594
0.0158748
0.0515874
0.0313512
0.00525558
0.00162259
0.0958821
0.161794
0.0342634
0.014216
0.00174015
0.000590594
0.00161662
0.000250545
0.0168257
0.291511
0.280674
0.00879229
0.00118669
0
0
0
0
0
0.12338
0.35571
0.129152
0.00306835
0
0.000772155
0.00114657
3.57922e-005
0.0182639
0.298135
0.689758
0.0408114
0.00124667
0.00323141
0.00691322
0.00121998
0
0.0688405
0.332155
0.121177
0.00289922
0.000461447
0.00261486
0
0
0.00446491
0.195675
0.471176
0.0221814
0.000247066
0.000769078
0.0043581
0
0.00339457
0.0213384
0.0780657
0.331592
0.336332
0.021228
0.0586001
0.0280154
0.0207762
0.0036664
0.000595529
0.261448
0.437674
0.142946
0.0503575
0.0997718
0.0363335
0.0124657
0.00785745
0.0259855
0.2247
0.185558
0.00495255
0
9.64294e-005
0.000546433
0
0.0112161
0.112335
0.214057
0.0243376
0.000418521
0
0
0
0.000787882
0.081347
0.406112
0.285235
0.161063
0.0448042
0.0126005
0.0138378
0.00443094
0.00112525
0.0198557
0.217781
0.2129
0.0164709
0.00183688
0.00197852
0.00109261
0.0104328
0.00934032
0.0818002
0.631732
0.0509627
0.00462837
0
0
0
0
0.0159972
0.27462
0.259057
0.0115543
0.000661195
0
0
0
0
0.103647
0.499372
0.105276
0.0874903
0
0.00199268
0.0196125
0.00995371
0.0120454
0.0388317
0.232556
0.372919
0.0602572
0
0.00119561
0.0575134
0.0555512
0.025272
0.173601
0.482197
0.160117
0.00340025
0
0
0
0
0.00429115
0.174486
0.259289
0.0271066
0.00111384
0
0
0
0
0.0233071
0.299357
0.184025
0.0106792
0.0177145
0
0
0.02221
0.0194481
0.0225721
0.391382
0.276802
0.0469675
0.00677987
0.000254967
0
0.00148424
0.0147794
0.0780128
0.657667
0.158013
0.00603833
0.00599635
0.012602
0.00455869
0
0.000408322
0.0867823
0.307494
0.189383
0.0234662
0.0353722
0.0721631
0.0179072
0.00826109
0.0606421
0.0919218
0.0800053
0.0435009
0.0343789
0.027289
0.0338069
0.00283938
0.0415747
0.0955022
0.302792
0.612825
0.145085
0.00663045
0.0537809
0.0706201
0.027121
0.110578
0.22658
0.253591
0.156073
0.0946886
0.0524864
0.0912075
0.0412804
0.0466654
0.0308061
0.0898816
0.0292011
0.00334287
0.00853975
0.0825114
0.347998
0.035402
0.0667501
0.0332739
0.0437021
0.0113598
0
0.0249455
0.324968
0.0680773
0.0370108
0.0863946
0.177322
0.421978
0.0641726
0.0165949
0.0216302
0.0353337
0.37453
0.120673
0.147752
0.215891
0.340756
0.0249131
0
0.0017353
0.170523
0.0882548
0.0253889
0.00996054
0.00174658
0.0389861
0
0.0444945
0.135986
0.177974
0.10361
0.0257431
0.0433399
0.0731498
0.0919871
0.0597928
0.0927833
0.171468
0.0987936
0.112982
0.0306419
0.0641062
0.0189461
0.0698789
0.0105976
0.0570819
0.19658
0.361743
0.114438
0.0542324
0.184055
0.350193
0.233037
0.104122
0.22665
0.190212
0.0871972
0.00904344
0.0206295
0.046025
0.0661285
0.0548783
0.0223995
0.0295056
0.0206504
0.00541203
0.00100678
0.089322
0.2471
0.284936
0.0927644
0.00841775
0.0185538
0.0114532
0.000438886
0.00775019
0.0217791
0.0835448
0.264386
0.125599
0.0235095
0.0252806
0.0141654
0.000560175
0
0.0368255
0.116159
0.734971
0.273658
0.00395574
0.00306443
0.00161852
0
0
0.0440931
0.214536
0.217679
0.0271583
0
0.000720215
0.000880263
0
0.00435885
0.107804
0.432173
0.195554
0.0232043
0.00819303
0.00644819
0.00113792
0
0
0.00788144
0.0668632
0.523794
0.136779
0.000329146
0.000432033
0.000125752
0
0
0.0133792
0.14503
0.511281
0.125975
0.0114453
0.00322519
0.00016256
0
0.0164886
0.0930317
0.226008
0.0828121
0.196562
0.0368633
0.0219549
0.0038744
0
0.105601
0.104727
0.140906
0.166137
0.33887
0.043893
0.013173
0.00313375
0.0111308
0
0.0082689
0.0688678
0.184109
0.37585
0.0764072
0.0346999
0.0031413
0.00480595
0.0556525
0.012373
0.0326189
0.19474
0.574459
0.186157
0.127534
0.0184468
0.111808
0.252576
0.11039
0.103592
0.0928556
0.111675
0.0173744
0.00572636
0.0104191
0.187128
0.159081
0.0261935
0.0174543
0.0648338
0.0812021
0.0655722
0.0428244
0.0814059
0.515179
0.181195
0.0464102
0.05088
0.10264
0.20105
0.10103
0.0688268
0.0139688
0.299206
0.188256
0.0949088
0.0416688
0.164019
0.236688
0.133979
0.0244421
0.0144956
0.279292
0.0414406
0.000124196
0.034564
0.166775
0.0660972
0.0636187
0.0430837
0.137
0.205702
0.0452854
0
0.0408482
0.333793
0.154782
0.070264
0.128242
0.180481
0.080971
0.0608667
0.0468426
0.0576125
0.245397
0.196156
0.279824
0.0143804
0.0181066
0.0572889
0.0152101
0.0371049
0.0863276
0.40755
0.352002
0.313076
0.0366103
0.0133831
0.012835
0.0147097
0
0.0027855
0.0771882
0.0434
0.0598172
0.297444
0.0626363
0.0218316
0.0152968
0.000918055
0
0.00513881
0.0264486
0.202885
0.537443
0.0342465
0.00290946
0.00188784
0.00369547
0.0124953
0.108815
0.143043
0.145203
0.13576
0.00304443
0.00188784
0.0119296
0.00237921
0.00111192
0.0136178
0.256825
0.516203
0.283087
0.00740205
0.000269691
0.0243601
0.00893591
0.00192004
0.027442
0.0720041
0.249537
0.304324
0.0400554
0.00133841
0.0113621
0.0131302
0.0180154
0.107536
0.142958
0.157017
0.143374
0.0597448
0.01004
0.0272247
0.00739337
0.00117644
0.00960065
0.33542
0.487434
0.213703
0.0278965
0
0.0111372
0.00416246
0.0186863
0.123106
0.373706
0.268601
0.154966
0.0292561
0
0.00393502
0.00547883
0.0213073
0.12626
0.351382
0.03623
0.0201951
0.0127003
0.00410466
0.0425497
0.0406546
0.0488585
0.118768
0.366378
0.0163188
0.0038902
0.00286053
0.0117674
0.000474872
0.000580399
0.0142633
0.145891
0.536914
0.0610173
0.0199974
0.00326824
0
0.029026
0.0190763
0.0192893
0.0936246
0.520643
0.0582627
0.03747
0.0200237
0.0109045
0.0822842
0.0124767
0.0252054
0.0227192
0.0336031
0.0263741
0.0395994
0.100358
0.159724
0.0402089
0.0129113
0.0695614
0.243063
0.155018
0.282288
0.226017
0.184237
0.0420855
0.100789
0.104941
0.0168737
0.0170988
0.0672981
0.0463579
0.0301357
0.0896559
0.0686555
0.126384
0.0963656
0.0647326
0.363191
0.167337
0.375751
0.10034
0.222647
0.0153043
0.000933657
0.00376278
0.0286474
0.185854
0.130997
0.0879112
0.0352741
0.0180204
0
0
0.00215881
0.0160245
0.377132
0.390588
0.0445986
0.00526089
0
0
0.00982936
0.00309609
0.020769
0.141478
0.201628
0.171051
0.0245836
0.0221609
0
0
0
0.00509847
0.113029
0.597727
0.285171
0.0418605
0
0
0
0
0.00367811
0.306425
0.349192
0.0246799
0.00182129
0
0
0
0.00125986
0.0196792
0.258741
0.249653
0.0329711
0.0102475
0.00549731
0.000177665
0
0
0.00241854
0.0566705
0.543151
0.286976
0.0121551
0
0
0
0.000755919
0.0191976
0.053335
0.371944
0.219807
0.0189386
0.0125078
0.000296108
0.0152076
0.00202919
0.0161403
0.0923555
0.247409
0.116201
0.102168
0.024763
0.0399007
0.192617
0.000431092
0.00289411
0.0513771
0.281607
0.190688
0.273414
0.084724
0.497354
0.025346
0.00121752
0.0136839
0.0178357
0.0874976
0.0779377
0.0833379
0.0472152
0.0494238
0.173177
0.00146367
0.0252976
0.0190277
0.055941
0.0443916
0.115282
0.0794221
0.467348
0.1744
0.00815384
0.00781637
0.0145279
0.0333552
0.0310024
0.0488483
0.0202238
0.45393
0.230629
0.0572141
0.0201735
0.0542093
0.0457647
0.0301958
0
0.0121229
0.421213
0.107552
0.0033321
0.054949
0.0659986
0.0500958
0.00763582
0.0143839
0.0152741
0.386155
0.227636
0.0774062
0.102344
0.161234
0.143167
0.00664006
0.00234104
0.0635835
0.376186
0.217056
0.148994
0.0298202
0.0914508
0.098858
0.184119
0.0117392
0.0260523
0.182508
0.0619414
0.193554
0.107504
0.226963
0.223353
0.229499
0.0238481
0.0119284
0.034206
0.30578
0.219707
0.0613392
0.119929
0.198624
0.0443553
0.0692157
0.233337
0.186341
0.0857424
0.21076
0.0849359
0.183811
0.264295
0.13172
0.119452
0.13383
0.0358595
0.00193696
0.0203078
0.0321527
0.0894064
0.120064
0.0717676
0.0153074
0.000424265
0
0.00209755
0.00186355
0.0041547
0.0722209
0.47605
0.276523
0.0266891
0.000907991
0
0.0110251
0.0269724
0.0326667
0.125372
0.100897
0.037699
0.0148785
0.000707108
0
0.00715224
0.00414195
0.0201463
0.448657
0.584517
0.0557273
0.00625484
0.000424265
0.0017091
0.00408462
0.00175055
0.00190995
0.0539679
0.393454
0.167018
0.0159812
0.0016289
0
0.00245077
0.00105033
0.00404194
0.0628004
0.367799
0.116881
0.0143442
0.000977339
0
0.00426051
0
0.0310585
0.351126
0.451771
0.0364247
0.0112551
0
0.00426051
0.00255631
0
0.0409072
0.254943
0.419363
0.0908654
0.0072577
0
0.00255631
0.00136695
0.00167072
0.00238446
0.109576
0.442107
0.069752
0.00433861
8.04282e-005
0
0.0717852
0.0373185
0.000695617
0.0706629
0.340304
0.0617819
0.0219986
0.00780068
0.0279906
0.000820173
0.00100243
0.00753678
0.202605
0.515332
0.117817
0.0010661
0
0
0.0771357
0.0694883
0.0113741
0.186569
0.404624
0.128509
0.00538233
0
0.0295978
0.145488
0.11754
0.00543914
0.00130743
0.0227734
0.0118682
0.0174505
0.104204
0.167902
0.161678
0.168022
0.0383841
0.229537
0.078872
0.0931913
0.0171643
0.0946689
0.0872601
0.1815
0.0448891
0.00052674
0
0
0.00361987
0.0338647
0.25637
0.450214
0.0748569
0.164827
0.0381614
0.0750567
0.0440484
0.0600863
0.0634433
0.213684
0.30806
0.0136064
0.0122496
0.0126272
0.0854796
0.113817
0.139535
0.0501109
0.0078128
0.00310835
0
0.00551097
0.00698283
0.043165
0.294265
0.40488
0.201202
0
0
0.00405108
0.0271192
0.0117872
0.0263873
0.0543338
0.134104
0.119421
0.0170271
0.0200414
0
0.0109557
0.0102517
0.00821417
0.0918456
0.512125
0.492198
0.00632426
0.00130516
0
0.00286961
0.00356741
0.00775857
0.179554
0.330298
0.0696234
0.00379734
0
0
0.000409944
0.00529458
0.0144039
0.140876
0.287594
0.0970724
0.0230878
0.000766306
0
0.00478268
0.00478268
0.00100435
0.0533454
0.321716
0.299106
0.0248863
0
0
0.00068324
0.00068324
0.00179051
0.0447238
0.264681
0.621584
0.117574
0.00122057
0.00704537
0.00390806
0.0053716
0.0257027
0.0855873
0.105275
0.10435
0.0510429
0.0162382
0.0280271
0.0102161
0.0422337
0.0657813
0.160417
0.031806
0.0294809
0.0222655
0.0835284
0.0102075
0.00651343
0.0021341
0.0143542
0.0322772
0.130815
0.71056
0.324938
0.0299299
0.0275475
0.0126784
0.0306457
0.105579
0.248619
0.0743169
0.0990365
0.191744
0.0637152
0.00841872
0.00577596
0.0621065
0.0763011
0.162409
0.0170122
0.00294578
0.00130502
0.042691
0.072526
0.0686095
0.0916161
0.20185
0.417246
0.0211241
0.00332977
0.0392203
0.0383691
0.0040536
0.00338961
0.0254291
0.089791
0.282843
0.0910878
0.0310449
0.0106934
0.0114916
0.0128996
0.0278782
0.0382938
0.212018
0.667355
0.179353
0.0277878
0.00693289
0.0612332
0.0706012
0.0694176
0.0381011
0.181201
0.319485
0.014294
0.022931
0.0993089
0.0147831
0.0151545
0.0220324
0.0183672
0.214731
0.289618
0.0424303
0.0336275
0.0589977
0.00394855
0.0155825
0.0285316
0.0258479
0.250352
0.53115
0.0967049
0.0176815
0.0131615
0.0632732
0.0240114
0.111614
0.110961
0.272589
0.375293
0.086162
0.0191456
0.00697798
0.0408687
0.00492507
0.00526556
0.0773461
0.106059
0.0576014
0.0146923
0.00423759
7.91967e-005
0
0.00666858
0.00279086
0.174369
0.386885
0.179795
0.00158241
0.00396201
4.7518e-005
0.00384479
0.0062809
0.0878486
0.363184
0.124495
0.0336215
0.013781
0.00180526
9.17725e-005
0.00862345
0.00257053
0.0356824
0.63801
0.355659
0.02844
0.000226059
0.000538848
0
0.00230688
0.0136738
0.000160834
0.150836
0.385695
0.178982
0.00647556
0.0134487
0
0.0136738
0.00820425
0
0.14239
0.28075
0.197961
0.072919
0.00968872
0
0.00820425
0.00820425
0.00963541
0.394146
0.376914
0.0434084
0.00309421
0.00203692
0
0.00820425
0.00492255
0.00119299
0.242661
0.365348
0.260678
0.0328338
0.00219386
0
0.00492255
0
0
0.0213663
0.192505
0.335638
0.0642381
0.000957884
0
0
0.011715
0.0179846
0.0282314
0.242216
0.326964
0.0673214
0.00266048
0
0.00359616
0
0
0.0361276
0.230328
0.517938
0.0269717
0.00441258
0.0010296
0.000441256
0
0
0.0166433
0.211301
0.422194
0.113999
0.10625
0.0117482
0.00308879
0.108934
0.0228175
0.0012967
0
0
0.00327824
0.0363089
0.200017
0.26341
0.0967107
0.0954495
0.0151401
0.00473344
0.00804424
0.0299366
0.0608344
0.160663
0.177779
0.22319
0.106896
0.00722219
0
0
0.00298199
0.0295773
0.119521
0.357005
0.42102
0.153944
0.0120636
0
0
0.00401612
0.0228416
0.121489
0.330626
0.0181335
0.024746
0.00578934
0.00291452
0.0312927
0.0895006
0.117062
0.0495648
0.0542555
0.00357435
0.00342936
0.00251342
0.00041636
0.0572572
0.435724
0.568017
0.0931551
0.0168342
0.134444
0.0172886
0.00159181
0
0.0122888
0.0315318
0.0567071
0.0783305
0.17935
0.0537305
0.00937759
0
0
0.106002
0.121874
0.330258
0.241295
0.113517
0
0.000716658
0.000716658
0
0.0143587
0.123206
0.279669
0.0705882
0.00035493
0
0.00010238
0.00010238
0
0.00701701
0.0818314
0.592405
0.219523
0.000366934
0.00772832
0.00520984
0
0
0.0259408
0.0247706
0.218661
0.168753
0.00517934
0.00202226
0.00268404
0
0
0.00883051
0.0159243
0.444213
0.37727
0.00747791
0.00157598
0.000310883
0.000276883
0.000664822
6.45471e-005
0.0168209
0.281886
0.273654
0.0124476
0.00939245
0.000518138
0.00211556
0.00872231
0.0264314
0.0196798
0.0780329
0.261224
0.105061
8.70475e-005
0
0
0
0.000774138
0.00302574
0.219534
0.447246
0.0534913
0.0122824
0
0
0
0.00155985
0.00390181
0.0769712
0.529083
0.386682
0.0295624
0.0108359
0.00145909
0.0175814
0.0801251
0.0930545
0.0470633
0.0654113
0.117934
0.0942045
0.0285568
0.00359441
0.0572441
0.188464
0.19671
0.0549462
0.0268153
0.127441
0.150676
0.0179172
0
0
0.00546342
0.0356327
0.0287412
0.179003
0.514565
0.572151
0.0759154
0.00308976
0.0117884
0.0127851
0.0805739
0.0470317
0.0486561
0.325998
0.0916199
0.0530709
0.0104945
0.096739
0.16854
0.0820369
0.0370318
0.0155417
0.0940432
0.0898586
0.305442
0.161439
0.072032
0.114299
0.049476
0.0417483
0.00329348
0.0404824
0.452451
0.17841
0.0166451
0.0326735
0.0120159
0.0236891
0.0283688
0.0165038
0.0747233
0.273525
0.579112
0.202551
0.0196041
0.00748687
0.00516363
0.0249388
0.00197609
0.0109796
0.0152432
0.223963
0.315795
0.0320629
0.00739523
0.00669374
0.00437929
0.00023049
0.00796757
0.000713979
0.115778
0.512729
0.0995001
0.000585131
0
0
0
0
0.0345396
0.39444
0.28143
0.00154153
0.00319384
0.000544044
0.00262757
0.000138294
0.00113822
0.00199688
0.271323
0.423823
0.0456491
0.0279307
0.00215594
0
0.000890107
0.00108791
0.00603686
0.0766848
0.453754
0.183744
0.0233473
0
0
0
0
0.00629031
0.03378
0.177263
0.293705
0.346297
0.00485514
0
0
0
0.0234024
0.166597
0.370825
0.107434
0.0617353
0.00392734
0
0.00678847
0.0148626
0.0327188
0.105783
0.135425
0.140518
0.412196
0.0283356
0.0263484
0.0167935
0.0249152
0.000592983
0.00347774
0.0173324
0.193415
0.495721
0.0255653
0.00835638
0.00620664
0.00144086
0.00372569
0
0
0.103039
0.254325
0.0847906
0.200846
0.051818
0.0124502
0.00747268
0.0203241
0.0171358
0.10503
0.500186
0.100246
0.0967007
0.0626602
0.0529608
0.0778681
0.000560155
0.00104029
0.0417872
0.178517
0.0898753
0.198862
0.157379
0.272775
0.103893
0.0675209
0.00522092
0
0
0.00331024
0.01914
0.060207
0.265712
0.299498
0.0738662
0.0053613
0
0
0.00018196
0.004173
0.068776
0.32215
0.189807
0.0322703
0.000745845
0.00955955
0
0.00920696
0.0520328
0.0802686
0.318915
0.297951
0.0441584
0.0007659
0.00136565
0
0.00127372
0.00746
0.0637787
0.490892
0.237613
0.0122373
0.000504428
0
0.00515226
0.00413053
0.0129946
0.087436
0.25494
0.203196
0.0391766
0
0
0.0797646
0.0109493
0.0526123
0.185124
0.213414
0.240553
0.0088382
7.20611e-005
0
0
0
0.00118653
0.102396
0.380231
0.306512
0.0454443
0
0
0.00624268
0.00103759
0.00710536
0.179872
0.4018
0.0986431
0.0385181
0
0
0.0642508
0.00485782
0.146452
0.182489
0.0571524
0.0295818
0.0190388
0
0
0.0485632
0.0214312
0.461243
0.522218
0.0761426
0.175559
0.0485356
0.000971424
0
0.0201187
0.00369777
0.0290912
0.101802
0.138501
0.0836068
0.0700117
0.0143844
0
0.0272551
0.0139752
0.133551
0.397928
0.113361
0
0
0
0
0.00351693
0.00460985
0.123604
0.393716
0.12551
0.0168963
0
0
0
0
0
0.0283303
0.472068
0.462958
0.0184967
0.0158075
0.00589729
0
0.00636818
0.00276591
0.0450539
0.247724
0.123737
0.0646855
0.00255827
0.000633517
0
0.019782
0
0.026064
0.241808
0.355412
0.118159
0.00303359
0
0
0
0
0.0102098
0.146447
0.43125
0.49817
0.0609161
0.00640953
0
0
0
0.00616816
0.0316636
0.294404
0.150527
0.00108408
0
0
0.00874874
0
0.0111375
0.0703531
0.29645
0.401293
0.0400652
0.00477363
0
0.000705803
0
0.00320328
0.0208288
0.247254
0.406887
0.19941
0.0248691
0
0
0
0.00189604
0.00280481
0.0419656
0.247163
0.522609
0.0967484
0
0
0
0
0
0.00238614
0.318247
0.15238
0.0182697
0
0
0.00122135
0.00428993
0.00672016
0.0628493
0.310653
0.343079
0.0357593
0
0
0.00203558
0.00578031
0.00885209
0.0316042
0.0941737
0.546967
0.21389
0
0.00629104
0
0
0
0.00267725
0.0466745
0.357013
0.278491
0.0672814
0.0726227
0.0127093
0
0.00642336
0.0125157
0.303009
0.278846
0.0461589
0
0.00089872
0.000358997
0.00229869
0.0062633
0.050649
0.283968
0.181705
0.0655452
0.0133062
0.0190896
0.00762556
0.00023314
0.0200814
0.0876975
0.0464629
0.158666
0.206356
0.164846
0.155944
0.0276454
0.00371833
0.0582765
0.120387
0.080331
0.104371
0.104726
0.088679
0.368952
0.0532981
0.119493
0.127278
0.192444
0.244041
0.0873177
0.0586464
0.0397551
0.0401585
0.0179093
0.00619722
0.110589
0.202796
0.397813
0.108375
0.0371909
0.0193025
0.033838
0.0291404
0.0920253
0.135916
0.227413
0.0720646
0.0245126
0.0294444
0.0264777
0.187294
0.0641999
0.144922
0.111079
0.140812
0.2455
0.0043184
0.00387687
0.00448304
0.0487562
0.0408391
0.102597
0.137471
0.583028
0.22494
0.0402533
0.0162828
0.0028347
0.010231
0.0124586
0.0564318
0.066326
0.140445
0.310599
0.0276369
0.00232612
0.000404957
0.00190035
0.0162239
0.0505589
0.119602
0.349757
0.231725
0.0191514
0
0.0286426
0
0.00361542
0.0204874
0.0405786
0.254469
0.32908
0.0352498
0
0.00409181
0
0.000516488
0.00292677
0.0397427
0.331931
0.241999
0.0222719
0.00298409
0.0171856
0
0
0.00446428
0.101515
0.299842
0.443504
0.0590418
0.0208886
0.00245508
0
0
0
0.0742342
0.222391
0.227987
0.0137814
0.000802203
0
0
0
0
0.0738764
0.286559
0.285077
0.0699401
0.00561542
0
0
0.00322895
0.0182974
0.11011
0.332702
0.323456
0.0534307
0.0263298
0.00315073
0
0
0
0.0701671
0.194147
0.335235
0.210759
0.0853022
0.00525122
0
0.00193737
0.0109784
0.0470002
0.262424
0.19708
0.097986
0.00532517
0
0
0.0102384
0.0848016
0.124197
0.185932
0.120495
0.175957
0.0621387
0
0
0.00614306
0.0993886
0.317494
0.125164
0.184182
0.155354
0.0343846
0.000828991
0
0.00772583
0.0570665
0.158211
0.232936
0.179771
0.0885951
0.0327588
0
0
0.0147652
0.072966
0.363726
0.308866
0.104859
0.112106
0.0575653
0.000883902
0.040055
0
0.0272416
0.216639
0.167659
0.153047
0.0706831
0.0739227
0.0183555
0.186088
0
0.0605633
0.12373
0.375351
0.262122
0.0980409
0.0511481
0.00447297
0.0342567
0.00407448
0.0127625
0.151002
0.235751
0.221608
0.231619
0.240291
0.0714739
0.128692
0
0.013634
0.0544784
0.137502
0.227193
0.0317308
0.0253743
0.0118067
0.0736125
0
0.0267572
0.0370899
0.325997
0.436513
0.0753057
0.0233477
0.00142088
0.00593868
0
0.0292472
0.102736
0.354813
0.200848
0.142165
0.114543
0.0422441
0.0472743
0.00515454
0.0217055
0.0389846
0.0651167
0.234457
0.0906124
0.0418851
0.00468985
0.0121166
0.0360818
0.100606
0.252792
0.142217
0.320346
0.174069
0.0387108
0
0
0.0208378
0.0489621
0.0961499
0.135353
0.370644
0.299567
0.0269637
0
0
0.0347296
0.0815029
0.14382
0.111609
0.128182
0.120109
0.0450256
0
0.00367177
0.0381051
0.0973636
0.215122
0.109027
0.246373
0.221301
0.0278549
0
0
0.0376935
0.0943338
0.203452
0.109921
0.36136
0.113229
0.0095987
0
0
0.00427714
0.0342035
0.0925226
0.133884
0.414476
0.0855888
0.0274892
0.0183101
0
0
0.00919612
0.0603194
0.213399
0.276486
0.0958493
0.0384838
0
0
0.00464216
0.0499998
0.146483
0.115818
0.342981
0.114794
0.0703942
0.0104702
0
0
0.0505981
0.104618
0.24066
0.215283
0.0732647
0.0236179
0.0233289
0
0.000378942
0.029704
0.110727
0.145046
0.338094
0.120886
0.0039213
0.00459222
0.000162948
0.00763662
0.0554899
0.150272
0.155187
0.14109
0.0995986
0.0242697
0.0123442
0
0
0.107208
0.205934
0.210038
0.245649
0.145047
0.00215406
0.00176346
0.00114064
0.021672
0.0910287
0.335039
0.308454
0.231092
0.0613812
0
0
0.00036657
0.0093349
0.0241157
0.0874252
0.131351
0.240152
0.0846996
0.00156597
0
0.00153996
0.0301076
0.123876
0.155978
0.15904
0.242188
0.0606317
0
0
0.00256599
0.0514374
0.028315
0.187893
0.266521
0.41559
0.0801761
0.00260995
0.0159552
0.0193397
0.0935079
0.106396
0.21096
0.328789