0.0189445
0.03928
0.120418
0.169325
0.0822734
0.0820261
0.125421
0.0335362
0.0682954
0.0437304
0.0564045
0.0982246
0.122107
0.167885
0.205632
0.152096
0.0654231
0.146873
0.214335
0.188777
0.151785
0.036168
0.035012
0.0564425
0.121268
0.0541491
0.246458
0.13072
0.0777458
0.253776
0.0764238
0.0720969
0.191934
0.298904
0.149512
0.371001
0.051577
0.0496871
0.036533
0.0186629
0.070594
0.0767096
0.0486886
0.0515177
0.107044
0.0740206
0.144513
0.050662
0.0340749
0.152577
0.0677293
0.0801699
0.0325247
0.0957988
0.102732
0.00432099
0.167389
0.0518897
0.090132
0.178192
0.100449
0.0940275
0.269957
0.0644368
0.35041
0.548825
0.257139
0.165305
0.163539
0.0653347
0.0318514
0.142423
0.0769342
0.128086
0.0449981
0.0100356
0.0477292
0.0434858
0.0524468
0.037069
0.0951989
0.193884
0.209575
0.119599
0.0381192
0.00651143
0.0224705
0.04407
0.0626764
0.112826
0.195558
0.390112
0.29959
0.0797697
0.0508923
0.0383097
0.0174996
0.00205085
0.0225212
0.52858
0.335679
0.131189
0.0290414
0.130403
0.0566303
0.00884914
0.00584837
0.139813
0.185276
0.237327
0.189782
0.0705728
0.00143139
0.00274928
0.00653731
0.0196997
0.0732525
0.170179
0.230683
0.183252
0.0342806
0
0
0.013342
0.0620398
0.130054
0.349207
0.157494
0.0363969
0.0178508
0.114486
0.025628
0.0005496
0.0125338
0.304573
0.335648
0.12464
0.0515084
0.00384285
0.0117845
0.000571546
0.001906
0.0338186
0.459301
0.108598
0.0898477
0.0494403
0.00667822
0.0665523
0.00115194
0.0160889
0.125893
0.102391
0.128097
0.0298966
0.023043
0.0191526
0.177021
0.00806359
0.0245621
0.118226
0.153621
0.348198
0.0465551
0.0229783
0
0.00672545
0.000164563
0.00254019
0.0491145
0.364303
0.378431
0.0146949
0.0108368
0
0.0191081
0.00115194
0.00507829
0.0670986
0.562997
0.098836
0.00984791
0.00457806
0.00549229
0.0465791
0.0058044
0.0310425
0.0745174
0.194199
0.0689785
0.0201052
0.0126635
0.0152301
0.021132
0.032905
0.0229271
0.100309
0.217139
0.257965
0.00186431
0.00152534
0
0.00529413
0.0008292
0.00467393
0.074469
0.453666
0.122427
0.00470462
0.00199143
0.00190502
0.00513252
0.0110417
0.0353573
0.293913
0.59942
0.0201326
0.0329128
0.0322779
0.0416912
0.0318739
0.0383019
0.0189072
0.11073
0.0893801
0.0129791
0.0245511
0.0264763
0.152849
0.325522
0.248824
0.0433003
0.113361
0.0871726
0.0105059
0.0138871
0.00587831
0.00515679
0.00724782
0.0195051
0.0605234
0.404565
0.338434
0.00484405
0.0715454
0.113423
0.15941
0.0975806
0.211106
0.0500636
0.361294
0.309445
0.00189825
0.00262032
0.00320261
0.0694803
0.26823
0.177339
0.0552731
0.00818429
0.0116732
0
0.000374332
0.000457516
0.0472632
0.54788
0.165086
0.0556517
0
0
0.000794279
0.0281752
0.0554132
0.218986
0.139338
0.16132
0.0330177
0.0250346
0.0373064
0
0.00402502
0.0125666
0.203592
0.558613
0.149529
0.0323763
0.000872913
0
0.000269864
0
0
0.00865494
0.539325
0.101633
0.00490655
0.00200881
0.00127686
0.00651754
0.000663683
0
0.00261744
0.235291
0.0687181
0.0106022
0.0209196
0.0129145
0
0
0
0.0306746
0.652445
0.138569
0.00413678
0.000709029
8.18087e-005
0.00742735
0.00369276
0.000492056
0.0134824
0.319756
0.112911
0.0131388
0.0088851
0.0105467
0.165335
0.0986205
0.0788206
0.0303281
0.0254432
0.0179706
0.0307332
0.0530378
0.10701
0.12695
0.0625825
0.113909
0.110899
0.112202
0.0996021
0.109842
0.110525
0.141276
0.109757
0.0552366
0.0575711
0.0542514
0.157156
0.0710087
0.0258238
0.101372
0.109576
0.411634
0.0887299
0.0742
0.31167
0.351016
0.356396
0.0311031
0.148664
0.240445
0.0822815
0.0172965
0.135951
0.050412
0.0560626
0.0531838
0.0215853
0.0254873
0.0835063
0.0443093
0.0982671
0.449205
0.169847
0.0723167
0.0337798
0.00604245
0.0146367
0.044297
0.334909
0.0639795
0.171279
0.148815
0.107568
0.0997268
0.00539443
0.0614722
0.129028
0.172657
0.178031
0.565677
0.130646
0.106625
0.0352208
0.000469131
0.0427535
0.0631489
0.137194
0.263681
0.315081
0.137881
0.0753581
0.0122183
0.00114825
0.0341011
0.0103403
0.292154
0.195847
0.117592
0.0559937
0.209932
0.0548229
0.00950956
0.0320835
0.0658376
0.176673
0.278807
0.334724
0.112946
0.0789145
0.00671916
0
0.0568352
0.0318124
0.297186
0.217866
0.275543
0.106766
0.0874503
0.0117443
0.0158493
0.0534725
0.102681
0.236032
0.0661033
0.0425068
0.0238174
0.201133
0.0381728
0.014192
0.0250995
0.197921
0.41106
0.0679846
0.0069113
0
0.025397
0.00182466
0.00202743
0.0154008
0.418017
0.252002
0.173839
0.228384
0.0522166
0.0823038
0.0251991
0.0310193
0.0296594
0.108355
0.346734
0.172158
0.0350586
0.00764857
0.0720102
0.0266338
0.0156556
0.00537939
0.186967
0.285846
0.00893973
0.0012514
0
0.00420758
0
0
0.00437526
0.318666
0.237443
0.000163266
0
0
0.000601082
0
0
0.0128177
0.567678
0.204044
0.0223661
0.00476024
0.00733702
0.0530485
0.0114458
0.00139237
0.0118575
0.193588
0.194193
0.00680482
0.000394153
0.00205982
0.0129415
0.0165499
0.00475595
0.0297223
0.437137
0.169046
0
0
0
0
0
0.000330669
0.035435
0.435303
0.0997371
0
0
0
0
0
0.0721936
0.24999
0.420358
0.0987158
0.00299689
0.00551184
4.95902e-005
0.000439248
0.01368
0.012123
0.0765863
0.386293
0.0515354
0.0130584
0.0476439
0.000347132
0
0.00927502
0.136894
0.368176
0.267438
0.00863562
0
0
0
0
0
0.0997235
0.336181
0.205984
0.0126749
0.0653939
0.0849878
0.0951058
0.033441
0.0375345
0.0373642
0.306544
0.229783
0.0187151
0.00988213
0.0242153
0.000132976
0
0.00765048
0.208739
0.430643
0.126024
0.0231502
0.0476017
0.0224971
0.0212644
0.029566
0.141462
0.264055
0.406822
0.150747
0.00689528
0.0452792
0.0677084
0.214387
0.0856893
0.0838782
0.0334087
0.0420671
0.0428758
0.000828661
0.00646846
0.0160817
0.200062
0.476157
0.111328
0.0620389
0.00551974
0.00150789
0.00982409
0.0321961
0.0159099
0.0434674
0.0570534
0.300065
0.139811
0.0725441
0.0233424
0.0013811
0.00459945
0.00318842
0.0646428
0.534337
0.330291
0.154539
0.0145712
0.0105552
0.000348297
0.000232198
0
0.0323728
0.486299
0.0751215
0.00985713
0.000755859
0.000361804
0.00360987
0.0030543
0.00290912
0.0224187
0.266736
0.0623548
0.0156932
0.00651628
0.0127888
0.000580495
0.000386997
0
0.0425367
0.657705
0.0784924
0.0212159
0.00251236
0.00253263
0.00406347
0.00451619
0.00911715
0.0362384
0.400529
0.0455001
0.00844262
0.00732702
0.0102579
0.080119
0.0256052
0.0399925
0.0221021
0.0689632
0.0208992
0.0147566
0.0621502
0.130639
0.151395
0.0484304
0.155158
0.221902
0.201542
0.230788
0.0243058
0.0678403
0.140884
0.194548
0.0810771
0.086255
0.00609024
0.0687979
0.0438436
0.0418727
0.0858659
0.189807
0.120398
0.357613
0.526378
0.257221
0.139769
0.153101
0.0168188
0.0324043
0.0643066
0.131684
0.0401838
0.121305
0.151251
0.0892676
0.151351
0.0140997
0.0807808
0.106884
0.0820509
0.197272
0.327677
0.0524248
0.0660777
0.0577381
0.00420369
0.0493538
0.0680934
0.00955125
0.124827
0.350491
0.292861
0.034789
0.10377
0.0135481
0.035407
0.032073
0.0198126
0.184303
0.540459
0.268276
0.0428254
0.0385991
0.00560276
0.0212442
0.0265799
0.0465098
0.141295
0.220179
0.0426192
0.0128394
0.00321732
0
0.00454959
0.00746856
0.06895
0.163198
0.282487
0.0643234
0.00230468
0.00198609
0.00627821
0.00762007
0.0319269
0.0150932
0.113588
0.533569
0.151004
0.0250437
0.000459616
0
0
0.00133639
0.0440164
0.244718
0.587868
0.101338
0.0273549
0.0210324
0.0101316
0.00556611
0.0209339
0.10403
0.19723
0.260376
0.0463633
0.0703616
0.0404658
0.0407522
0.0243269
0.0975673
0.0831382
0.0666733
0.0538495
0.0346537
0.145633
0.0610703
0.0326977
0.0181654
0.0630174
0.110046
0.295154
0.294078
0.285549
0.296968
0.118035
0.0569786
0.0346296
0.0827498
0.1437
0.0551591
0.0697905
0.341556
0.348284
0.0876791
0.0438175
0.0571196
0.151325
0.102214
0.0255162
0.0354906
0.0491651
0.120818
0.0445024
0.0165094
0.0225352
0.0526623
0.149649
0.0232945
0.0207931
0.0224444
0.0279512
0.040147
0.0397375
0.0416308
0.159896
0.267234
0.02625
0.0397297
0.0991239
0.100417
0.0297232
0.0359287
0.0961209
0.436404
0.25444
0.012621
0.043617
0.0831513
0.0493961
0.0552459
0.231046
0.0894763
0.478431
0.0465942
0.00809118
0.0355947
0.0212074
0.000714533
0.0358959
0.0453302
0.0734856
0.150511
0.0561961
0.130989
0.173516
0.0141279
0
0.0378251
0.0915747
0.221367
0.168993
0.0418589
0.0120061
0.0876224
0.181327
0.0989259
0.0619093
0.176163
0.0856455
0.186671
0.0497419
0.310483
0.506628
0.222279
0.0735726
0.0377803
0.0425843
0.171389
0.241707
0.0389764
0.0624221
0.0528027
0.00028601
0
0.0241099
0.134687
0.124562
0.0649016
0.0301825
0.01208
0.00513663
0
0.0131712
0.153117
0.363684
0.11693
0.0480357
0.0310865
0.138371
0.181386
0.0381688
0.00152927
0.0278257
0.197203
0.125733
0.0822941
0.0281419
0.018197
0.0211174
0.00399884
0.00772613
0.252232
0.687956
0.108009
0.0480649
0.0203867
0.00335795
0
0
0.0344613
0.250645
0.212137
0.0334706
0.0085747
0.0115741
0.000479708
0
0.0427567
0.377802
0.315063
0.187093
0.00777217
0.00649769
0.0315793
0
0.00368644
0.00245763
0.0202147
0.267221
0.353793
0.037024
0.0330582
0.0189476
0
0.00614406
0.0481994
0.344065
0.3308
0.264826
0.0163459
0.033061
9.02161e-005
6.01441e-005
0
0.0411804
0.502028
0.135862
0.0344764
0.000915286
0.00106992
0.00169391
0.00256095
0.00566744
0.0218799
0.325294
0.0966429
0.00801684
0.00541029
0.00413756
0
0
0.000599836
0.0335312
0.475332
0.312247
0.0510642
0.000106188
0.00201757
0.00713696
0.00501918
0.000640014
0.00673823
0.326104
0.305616
0.00850159
0.00330694
0.00571935
0.0470259
0.0503315
0.0529009
0.00274579
0.082293
0.0714569
0.15045
0.0654292
0.0446631
0.0258374
0.189849
0.240815
0.238131
0.110367
0.066781
0.0403579
0.0032624
0.0114413
0.0940328
0.118578
0.0776128
0.05074
0.0740047
0.165634
0.416962
0.127843
0.0398236
0.0562912
0.198798
0.209405
0.547045
0.236834
0.0714662
0.0929791
0.0221801
0.0224091
0.000501264
0.0584606
0.164103
0.286115
0.0258756
0.0158705
0.00817719
0
0
0.000995717
0.0224896
0.293596
0.281174
0.0535194
0.00266609
0.000431763
0
0
0
0.0269869
0.0833314
0.409253
0.148
0.02352
0.0124293
0
0
0
0.00165617
0.198984
0.618072
0.193371
0.00598148
0
0
0
0.00121664
0.035736
0.474783
0.21432
0.0281309
0
0
0.000169913
2.99846e-005
0.0192426
0.106938
0.375076
0.126233
0.0722743
0.0246435
0.00601128
0.00194723
0.0131307
0
0.0167224
0.318117
0.488134
0.0959791
0.00250478
0.00167071
0.0021656
0.000209892
0.00123055
0.0445207
0.179135
0.180186
0.25553
0.0260768
0.00570923
0.00995274
0.00331507
0.0368935
0.054021
0.0887121
0.297276
0.213961
0.0490382
0.00990551
0.00341886
0.0180403
0.122919
0.0188046
0.0466295
0.290131
0.156079
0.0267989
0.00501485
0.0125939
0.107451
0.0139459
0.0151281
0.0364463
0.293938
0.555003
0.0829688
0.0384402
0.01985
0.0159595
0.135874
0.00718658
0.0270278
0.22209
0.295791
0.0957613
0.057743
0.0405486
0.2328
0.162538
0.0120887
0.0112817
0.04135
0.0174485
0.00403667
0.00397405
0.0418238
0.325716
0.0901157
0.0124996
0.00808839
0.040734
0.0605351
0.0898259
0.117348
0.0917184
0.34082
0.24286
0.0224577
0.00619037
0.0221022
0.0186182
0.0197557
0.0131063
0.0458751
0.492165
0.222943
0.13288
0.0677175
0.237754
0.0635841
0.101982
0.0444339
0.0891323
0.346788
0.018859
0.0115219
0.023588
0.0862977
0.12792
0.0902581
0.0941563
0.0516907
0.0997052
0.0199832
0.0521523
0.175601
0.245607
0.177682
0.0256102
0.0146794
0.0896502
0.0821721
0.0645477
0.0926901
0.083251
0.250308
0.149737
0.0962411
0.0360893
0.0571128
0.0787765
0.0546425
0.0486974
0.0710778
0.503904
0.54565
0.0343187
0.00673774
0.0828019
0.0582502
0.00623252
0.0302194
0.104083
0.112657
0.0520196
0.0145464
0.122149
0.120749
0.0235242
0.00363504
0.00337871
0.0115738
0.0107694
0.0154374
0.274787
0.409992
0.0916739
0.0109256
0.0259975
0.00255775
0.0219968
0.216106
0.257409
0.0383029
0.118925
0.0780579
0.0120017
0.0125107
0
0.00205815
0.0180987
0.0924549
0.568266
0.353609
0.0611911
0.0037467
0.0033984
0
0.00796824
0.0150059
0.0377847
0.292813
0.175278
0.0120237
0.0155956
0.00203904
0
0.0132804
0.0363295
0.140244
0.273623
0.101363
0.00506474
0.0198744
0
0
0.00478094
0.0313849
0.251306
0.564255
0.131799
0.00381379
0.00140853
0
0
0.00796824
0.0524078
0.32062
0.401609
0.133239
0.000123556
0.00234755
0
0
0.00156712
0.0128211
0.21947
0.321341
0.0301199
0.000102059
0.00193912
0.00479214
0.00709378
0.000645632
0.00149758
0.209676
0.330635
0.00196222
0.000306368
0.00136207
0
0
0.000940271
0.00715702
0.254317
0.427364
0.050531
1.45799e-005
0.000277017
0.000919642
0.0134367
0.00766936
0.00388029
0.415749
0.435734
0.002243
0.00053813
0.00215252
0.0607041
0.0406756
0.0604822
0.0804821
0.101373
0.13437
0.187398
0.121931
0.0388693
0.0364225
0.0611826
0.108976
0.391207
0.333476
0.0653969
0.0314197
0.053327
0.0233216
0.00601619
0
0.0468574
0.0553479
0.293992
0.23494
0.113873
0.106031
0.0203017
0.00360972
0
0.0780957
0.182885
0.39656
0.279016
0.276529
0.14135
0.0257615
0
0.00624407
0.0185649
0.207287
0.215889
0.0271825
0.00319435
0
0
0
0.000136418
0.0406345
0.493101
0.260213
0.0171724
0.00091897
0
0
0
0
0.00949759
0.132103
0.256476
0.108316
0.0941307
0.0262733
0.00227547
0
0
0.00859818
0.347073
0.547878
0.10032
0.0147828
0.00272685
0
0
0.00442074
0.0840347
0.498601
0.251403
0.0211287
0.00293678
0.00469172
0.000117196
0
0.00952273
0.0412114
0.125887
0.340122
0.0663625
0.0068926
0.0113615
0.000820372
0
0.00941638
0.018053
0.233594
0.501988
0.15525
0.00830443
0.00289654
0
0
0.015694
0.0181846
0.0795329
0.292536
0.147389
0.0294015
0.0167817
0
0.00949917
0.00218358
0.00299502
0.103355
0.487184
0.141484
0.0525372
0.0625925
0.0325681
0.121965
0.000909247
0
0.0466421
0.199973
0.105537
0.0833612
0.110848
0.331841
0.0268509
0.00222086
0.00262109
0.052567
0.265537
0.219772
0.0685344
0.0999963
0.0876197
0.166779
0
0
0.00684824
0.0618064
0.115962
0.0848745
0.195327
0.437905
0.171225
0.0100496
0
0.00148639
0.00372345
0.00671117
0.0184432
0.0572674
0.423731
0.203876
0.0759211
0.0581662
0.170344
0.00640466
0.0101323
0.00316567
0.0708845
0.294391
0.123444
0.00079796
0
0.00485352
0.00261343
0.0124356
0.104671
0.205665
0.419776
0.0760339
0.0277733
0.134931
0.108429
0.018294
0.0476402
0.105808
0.269913
0.361351
0.0481538
0.0461522
0.052407
0.168138
0.0549826
0.0116231
0
0.0212103
0.0850932
0.0176485
0.0251873
0.0172849
0.250866
0.433419
0.0378237
0.00181698
0.00960814
0.0372956
0.0198782
0.0189343
0.0958547
0.202161
0.0940959
0.0145917
0.0290842
0.0745914
0.180798
0.00425721
0.00515333
0.0148211
0.501261
0.500568
0.0335498
0.0116743
0.0173618
0.085563
0.0108029
0.00208424
0.000521061
0.132305
0.321318
0.0478996
0.0549199
0.012335
0.00269458
0.00536591
0
0
0.0179765
0.172939
0.483898
0.159315
0.013878
0.00134148
0.00306358
0.00236132
0.000880918
0.227382
0.359321
0.0366921
0.013463
0.00416422
0.00292213
0.00510597
0.00184168
0.000483889
0.0753663
0.391726
0.368494
0.0341736
0.00729695
0.00487022
0
0
0
0.0113607
0.25783
0.294035
0.0317346
0.00127248
0.000467491
0
0
0
0.0197517
0.299024
0.202158
0.0379171
0.00296877
0.00327244
0.000389009
0.000115499
0.000130956
0.0938208
0.502658
0.22878
0.00535845
0.00161965
0.00233261
0
0.000305565
0.00385608
0.104518
0.541343
0.165488
0.00937393
0.00701715
0.0137309
0
0
0
0.0102761
0.225201
0.196289
0.01807
0.00110433
0.00121729
0.00138123
0.00558566
0.00382638
0.0195284
0.385567
0.170535
0.00144463
0.00116304
0.0060334
0
0.000113665
0.00842018
0.108291
0.408277
0.134097
0.00834993
0.00261026
0.00510766
0.00330917
0.00166905
0.00579228
0.104594
0.67003
0.0821654
0.00570201
0.00108944
0.00610048
0.0215508
0.000446013
0.00801337
0.00694815
0.164939
0.126175
0.117575
0.0891463
0.0534296
0.0297614
0.00312209
0.0360208
0.0409301
0.232507
0.295678
0.409172
0.184126
0.0718954
0.0392079
0.0140063
0.0740715
0.0622512
0.0974642
0.0147472
0.0353381
0.0418832
0.0525015
0.0515763
0.0980444
0.444633
0.337642
0.290819
0.19105
0.154747
0.074982
0.0554035
0.00298197
0.00096231
0.0104693
0.061098
0.22683
0.213709
0.144025
0.0418327
0.00705812
0
0
0.000150394
0.100107
0.464525
0.23943
0.0277668
0.0031116
0
0.00496994
0.0302198
0.151454
0.22943
0.267255
0.216919
0.0634752
0.0170787
0.00423487
0
0
0.00551727
0.0729527
0.337774
0.453547
0.0382558
0.00196315
0
0
0.00603735
0.00357088
0.0468518
0.315801
0.319295
0.0767144
0.00163343
0
0.000329986
0.0101205
0.00595147
0.0294527
0.101542
0.15205
0.0923881
0.027736
0.00824939
0
0.000649659
3.41925e-005
0.0113971
0.154609
0.621097
0.238183
0.00206637
0
0.00377094
0.00185566
5.69876e-005
0.00280424
0.0220458
0.22687
0.348862
0.0360359
0.013749
0.0861062
0.00299963
0.00158942
0.0266258
0.13374
0.172374
0.125849
0.142346
0.172548
0.312864
0.00584726
0.017327
0.011942
0.0315051
0.112462
0.189842
0.24861
0.44479
0.0831643
0.00577315
1.52193e-005
0.00315275
0.0418123
0.0713439
0.185408
0.107586
0.133616
0.206231
0.0294861
0.0371357
0.154834
0.247405
0.116427
0.122121
0.100434
0.202249
0.0445451
0.0067621
0.0207014
0.0218642
0.0221274
0.0327754
0.101042
0.108745
0.114228
0.00103651
0.0100222
0.136242
0.214438
0.128177
0.050184
0.0991018
0.107599
0.109766
0.0235114
0.0297247
0.0443679
0.141861
0.143314
0.0793342
0.068214
0.0465154
0.0337008
0
0.0177552
0.207649
0.712657
0.339719
0.133857
0.061933
0.0475225
0.0264995
0.000465968
0.00387651
0.0804698
0.213142
0.109807
0.0251914
0.0419013
0.0297588
0.0460893
0.000279581
0.00144973
0.0121158
0.389229
0.219126
0.0133012
0.0201149
0.0105272
0.0222672
0
0
0.117648
0.373525
0.345179
0.121018
0.0239324
0.0075302
0.00451665
0.00191071
0.00367916
0.0182526
0.312801
0.513493
0.108934
0.012069
0.0023546
0.00169834
0.0032892
0.00584938
0.00397995
0.227585
0.163272
0.00747507
0.00149451
0.000819382
0.00368981
0.00548201
0.00514156
0.01638
0.231449
0.304495
0.0967374
0.00686601
0.00232979
0.00614967
0.00985647
0.0247194
0.066676
0.151454
0.227637
0.0431115
0.000365117
0.000717534
0.00675469
0.0066016
0.0222789
0.38455
0.622694
0.20619
0.00948745
0.00255582
0.00177438
0.0103428
0.000398723
0.000298143
0.00582178
0.229619
0.340208
0.0537933
0.00121704
0.000542114
0.00104209
0
0.000788773
0.0143982
0.169422
0.401214
0.0396176
0.000977803
0.00150157
0.00416364
7.8156e-005
0.000913953
0.121527
0.476627
0.242828
0.0071973
0.000505308
0.000223947
0.000714825
0
0.000473264
0.075366
0.401021
0.32158
0.0205036
0
0
0
0
0.000289982
0.0319584
0.155059
0.319964
0.0288068
0.00097716
0.000552035
0.00153071
0.00224206
0.00136126
0.0218655
0.153607
0.454561
0.0246496
0.0043205
0.000999092
0.00224206
0
0.000173989
0.0639744
0.37308
0.337399
0.0179356
0
0
0
0.0018091
0.0029587
0.0363213
0.305584
0.471306
0.016988
0.0026009
0.000599455
0.0018091
0.00574428
0.0239668
0.143603
0.11633
0.111569
0.00396816
0
0
0.00462134
0.00690239
0.098363
0.480448
0.319967
0.155698
0.0423214
0.051173
0.00274993
0.00277281
0
0.0231044
0.127628
0.0949539
0.357278
0.10743
0.0724633
0.0290696
0.00377487
0.0360444
0.0460562
0.268519
0.15768
0.338381
0.244491
0.220318
0.0728417
0.10433
0.00109602
0.0467072
0.234449
0.244117
0.122132
0.129123
0.110635
0.0112112
0
0
0
0.00790605
0.0543034
0.1515
0.555086
0.0777603
0.00672673
0
0.0849764
0.0267502
0.0863605
0.0612178
0.0735437
0.207677
0.260229
0.0863543
0.154241
0.0942495
0.0731472
0.0259921
0.00426724
0.127135
0.418514
0.159911
0.0455469
0.0550038
0
0
0
0.00342663
0.0437704
0.425344
0.204674
0.0175572
0
0.00216046
0.000481698
0
0
0.00552763
0.124028
0.374715
0.135053
0.00173966
0.0235079
0.0287179
0.0128619
0.000236983
0.072668
0.313804
0.238404
0.0492066
0.00743176
0.00019514
0.000645086
0.000728812
0
0.00559169
0.085069
0.472806
0.325877
0.000479679
0.0248964
0.00498766
0
0.00219226
0.0124452
0.014779
0.173079
0.210234
0.0184299
0.0706339
0.0329516
0.00544834
0.130962
0.209698
0.0215084
0.0241343
0.107114
0.0412637
0.0324502
0.00807707
0
0.00131536
0.0021163
0.00461334
0.252119
0.598904
0.0335718
0.294903
0.14638
0
0.0748207
0.0977338
0.00117893
0.02996
0.375461
0.116159
0.0202926
0.0149153
0.00679303
0.0994779
0.167889
0.0439111
0.00725604
0.0106891
0.0172756
0.012428
0.00602486
0.0722988
0.381839
0.38855
0.119201
0.00835478
0.0209466
0.0203672
0.0971885
0.0550032
0
0.0967456
0.205329
0.0272373
0.000171379
0.0246373
0.0464144
0.0597342
0.0370767
0.0387125
0.270091
0.629691
0.141243
0
0.0307026
0.039571
0.00496405
0.000520986
0.0782555
0.345642
0.336985
0.107593
0.00102349
0.01341
0.0111193
0.0195178
0.0186961
0.0253786
0.25187
0.413672
0.0879
0
0.00185224
0.00808968
0.0353771
0.0258492
0.0717306
0.383825
0.309116
0.06872
0.0292377
0.0297462
0.0270914
0.0733666
0.093342
0.0535474
0.306362
0.238408
0.0246977
0.0487294
0.0192359
0.0731056
0.0243371
0.0690277
0.0956106
0.049156
0.108955
0.0228748
0
0.00014943
0.0064459
0.00695507
0.060367
0.427378
0.317302
0.0356598
0.00101535
0
0.00024905
0.00302511
0.0645355
0.198436
0.224995
0.0471625
0.0538955
0.00460862
0.00724688
0.00326949
0.0318507
0.015862
0.132314
0.647575
0.260366
0.0131428
7.58956e-005
0.00899579
0.0029986
0.000783037
0
0.00771306
0.234273
0.364585
0.0903108
0.00221469
0
3.1979e-005
0.000287812
0
0.00241029
0.213343
0.398928
0.126917
0.0077421
0
0
0
0.00625983
0.0395832
0.337209
0.271709
0.0314171
0.000257914
0.00853507
0.00284502
0
0.000894262
0.0209731
0.394481
0.392011
0.0964328
0.000429857
0.0012193
0.000406432
0
0
0
0.0968215
0.340769
0.257618
0.00836969
0
0
0
0.000419504
0.004005
0.0202159
0.215036
0.368751
0.0211105
0.00232983
0
0.000241963
0
0.00077485
0.144341
0.279296
0.406705
0.00953936
0
0
0
0.00124279
0.00690072
0.0176102
0.132152
0.521618
0.0426536
0.0013979
0.000541491
0.000661823
0.0136674
0.00381793
0.0152717
0.0110786
0.24948
0.202874
0.140248
0.0410678
0.0285017
0.221118
0.0455395
0.0254528
0.0121084
0.196175
0.363515
0.32346
0.144478
0.318348
0.0369374
0
0
0
0.0766496
0.0991281
0.0804128
0.0109503
0.0553585
0.343423
0.0652938
0
0
0.04588
0.165059
0.195662
0.121981
0.327933
0.186459
0.0432817
0.00492663
0.00182436
0.0145913
0.0805661
0.184643
0.135287
0.248673
0.17186
0.0622323
0.0239785
0.0120435
0.0943052
0.0878089
0.105908
0.124296
0.188549
0.236636
0.0556433
0.000295252
0.000361784
0.0329877
0.0491525
0.150151
0.187182
0.251298
0.187097
0.0232696
0.0127784
0.0239007
0.497256
0.258437
0.0933273
0.19611
0.271993
0.0732788
0.0427915
0.0257868
0.023347
0.149605
0.129695
0.135744
0.0903475
0.0613998
0.000232265
0.0019326
0.00236207
0.00700807
0.0493557
0.0753615
0.28703
0.199147
0.00554449
0.062386
0.0474272
0.0678686
0.0595095
0.678597
0.256049
0.0815082
0.130858
0.0894568
0.00995061
0.0422072
0.0746386
0.0367787
0.210815
0.0715613
0.145891
0.147152
0.0646601
0.0369658
0.00561575
0
0.000810078
0.0130878
0.0146664
0.161865
0.439949
0.0603126
0.345065
0.125901
0.00244397
0.00665174
0.00544233
0
0.0204557
0.337099
0.18802
0.091982
0.0331392
0.0275782
0.00567055
0.0537671
0.0160721
0.0899007
0.244375
0.142945
0.353622
0.138589
0.0302147
0
0.00632051
0.00340335
0.0267502
0.179812
0.227349
0.190675
0.0907956
0.0384447
0.12019
0.155824
0.0445677
0.00200506
0.0452371
0.118048
0.0720251
0.129653
0.108569
0.30945
0.508055
0.309135
0.0137039
0.0204056
0.049535
0.176881
0.103941
0.0948465
0.0630276
0.0952654
0.0394257
0.0255321
0.0232699
0.0912764
0.0902777
0.151891
0.133517
0.162212
0.217452
0.254937
0.121893
0.004825
0.0312967
0.036814
0.114891
0.0799767
0.381894
0.267401
0.137411
0.0840668
0.0887673
0.0399986
0.0940012
0.253548
0.0915686
0.233381
0.133611
0.0276324
0.131168
0.14834
0.234304
0.0641217
0.142944
0.0325743
0.157658
0.133622
0.123411
0.0760299
0.0853142
0.0480371
0.165563
0.308026
0.0856084
0.0828604
0.0680671
0.04111
0.0479378
0.168389
0.256833
0.0520477
0.283489
0.28982
0.0304597
0.0105955
0.00292135
0.0138673
0.0181607
0.0673391
0.0485927
0.182195
0.569663
0.152745
0.004313
0
0.0149701
0.00499002
0.000165307
0.101509
0.297977
0.179307
0.042272
0.0017036
0.0170997
0.00648514
0.0318
0.0869742
0.118633
0.295578
0.262108
0.105077
0.0278486
0.0243358
0.00450034
0.00832587
0.0694524
0.0390239
0.0787438
0.342948
0.218209
0.0194021
0
0.0153614
0.00512046
0.000794404
0.00521932
0.0495
0.440678
0.362553
0.168623
0.00496196
0.00219448
0.000731494
0.00556083
0.0763463
0.123216
0.167793
0.159614
0.113422
0.0112979
0.0748452
0.00757687
0.0746974
0.00919648
0.0552311
0.199567
0.240103
0.363378
0.041867
0.127964
0.0111953
0.0622388
0
0.00642859
0.0735766
0.0956202
0.362405
0.0142606
0
0
0.00104962
0.000465745
0.00237787
0.00668254
0.0366902
0.438006
0.0285974
0.000456286
0.00248315
0.00200626
0
0.00842563
0.0268012
0.0481102
0.497672
0.047012
0.00997772
0.00144174
0.00734735
0.00181909
0.00139664
0.00476307
0.0311494
0.577172
0.0518954
0.00162175
0.00275449
0.00138892
0.0773769
0
0
0
0.0445686
0.0239759
0.0559436
0.00838734
0.105431
0.526943
0.0647139
0
0
0.0267412
0.0399598
0.136509
0.187976
0.434994
0.00232894
0
0
0
0
0
0
0
0.00232894
0.00922529
0
0
0
0.000898595
0
0
0
0.00922529
0.0490404
0.00721633
0
0.0013037
0.0684206
0.012361
0.014523
0.0480567
0.0482758
0.037935
0.00471122
0.0238089
0.0165218
0.631067
0.169281
0.010929
0.0469328
0.0543842
0.00105774
0
0
0.0239789
0.0964318
0.000285674
0
0.00130145
0.00212256
0.000527477
0.0161375
0.0959237
0.166746
0.649453
0.102325
0.0145096
0.00216908
0.00230218
0.0129153
0.0546914
0.130233
0.0236902
0.404982
0.126059
0.0119026
0.0210413
0.018338
0.0738896
0.0845006
0.146425
0.0147541
0.0624742
0.016827
0.038971
0.100088
0.174926
0.0233003
0.121108
0.402625
0.117887
0.360349
0.106968
0.0158006
0.00430476
0.0118627
0.176819
0.182706
0.387747
0.0652906
0.0675571
0.0309619
0.057333
0.111234
0.260202
0.0806854
0.0285536
0.0263112
0.00107331
0.00981996
0.00906019
0.0803561
0.151024
0.188891
0.0933745
0.0341378
0.00998172
0
0.0133919
0.0256927
0.0998999
0.117705
0.0776543
0.105806
0.0405839
0.0416526
0.0208914
0.128738
0.0816643
0.356785
0.254498
0.276337
0.0412232
0.00370638
0.000963372
0.00814692
0.115516
0.275603
0.573664
0.249894
0.0656453
0.105293
0.073989
0.0689187
0.0464749
0.0676399
0.0273898
0.0625105
0.0673216
0.0614169
0.145001
0.200323
0.0904467
0.120341
0.101935
0.0526672
0.0911492
0.00730232
0.0317125
0.121497
0.112401
0.123486
0.0802066
0.0808494
0.288637
0.288433
0.123841
0.0655948
0.39403
0.473708
0.204504
0.153247
0.0272061
0.0436523
0.0444504
0.00991049
0.069722
0.165894
0.136351
0.00832418
0.042583
0.0292028
0.0213617
0.0334477
0.00731348
0.0198449
0.306647
0.207921
0.0132325
0.0143873
0.0142731
0.0129433
0.0148046
0.0315513
0.0938883
0.374653
0.280353
0.0223172
0.0217655
0.00307233
0.000535895
0.00347848
0
0.0395722
0.622363
0.235991
0.00200512
0.000940364
0.000313455
0.000111313
0.00211495
0.0111728
0.10566
0.147086
0.110403
0.033258
0.0203164
0.000568636
0.0727521
0.0343099
0.033938
0.0796769
0.0929603
0.112309
0.09425
0.0433333
0.0698405
0.188303
0.0735706
0.0325772
0.128769
0.305705
0.0603461
0.00793724
0.00254585
0
0.128338
0.180628
0.0328248
0.0802551
0.107926
0.105053
0.0693372
0.019407
0.141222
0.441646
0.576269
0.106883
0.0994798
0.0343974
0.0707381
0.0461281
0.0664449
0.133503
0.0859312
0.111305
0.0211134
0.0851079
0.00421773
0.0509085
0.0222436
0.168005
0.261442
0.0435197
0.16642
0.0168011
0.0378356
0.020669
0.343622
0.0687463
0.0721252
0.213721
0.230325
0.226448
0.128445
0.154502
0.0178712
0.356878
0.0517034
0.230192
0.397101
0.119971
0.0745738
0.087199
0.14909
0.00015578
0.00396106
0.00390021
0.045445
0.362062
0.0695475
0.0153533
0.00149425
0.00280138
0.00223214
0.00264406
0.00528811
0.017696
0.427964
0.0865824
0.00128288
0.000857062
0.000418754
0.00151796
0.0207188
0.0124258
0.0930601
0.475892
0.0737088
0.00581812
0.00309218
0.00884213
0.000847322
0.00512705
0.00470007
0.0358142
0.592256
0.0753689
0.000600152
0.00665107
0.00466354