0.113575
0.109531
0.079409
0.0518104
0.0464413
0.0535439
0.0212466
0.0503133
0.0765119
0.0514796
0.134724
0.0930338
0.0373406
0.0979335
0.12734
0.0837864
0.129432
0.0937116
0.185102
0.126775
0.127843
0.0363421
0.0459353
0.0739271
0.227608
0.232497
0.188942
0.118606
0.173078
0.172129
0.0439212
0.190227
0.142496
0.159932
0.133803
0.0417912
0.0811062
0.0926162
0.0574755
0.0859647
0.160044
0.0622833
0.0585534
0.102652
0.0695885
0.138476
0.103955
0.0739351
0.192313
0.078278
0.0701378
0.0779284
0.0542079
0.0764432
0.0919258
0.126677
0.041974
0.0383556
0.213218
0.128338
0.119426
0.0943323
0.0519878
0.1601
0.195451
0.0649404
0.107285
0.138937
0.136201
0.148362
0.0734097
0.0730135
0.0728808
0.060099
0.025227
0.0234061
0.000898729
0.0215674
0.0335415
0.0322313
0.0284774
0.0690905
0.0736547
0.0467319
0.00771261
0.023645
0.0431038
0.0619345
0.0459213
0.0365918
0.199912
0.211422
0.0248216
0.0152572
0.00612642
0.0179165
0.0463497
0.0408401
0.0180513
0.602605
0.430326
0.0328689
0
0.00295383
0.00434035
0.0290022
0.0491705
0.113457
0.0443499
0.0284016
0.0137302
0.0107732
0.0171477
0.0160467
0.0241023
0.0163492
0.0149793
0.087862
0.0516634
0.0273734
0.0224744
0.0108901
0.00196453
0.0387622
0.0380808
0.0283671
0.422442
0.142531
0.00947029
0.00125701
0.00356243
0.00196453
0.00637902
0.0144158
0.0617681
0.755907
0.115134
0.0230045
0.00879909
0.00203767
0.000280647
0.0128148
0.0168705
0.152909
0.0731127
0.0153311
0.0170782
0.00653194
0.00156082
0
0.0377332
0.0368241
0.060217
0.103799
0.00587646
0.0404833
0.0216983
0.00738969
0.00625968
0.0290751
0.0392419
0.10134
0.456358
0.0265706
0.0105052
0.00335116
0
0
0.016408
0.0127971
0.287147
0.44039
0.00238838
0.0216607
0.0111642
0
0.000831364
0.00952355
0.0121634
0.56673
0.0571248
0.00548169
0.030309
0.0457729
0.0277386
0.0103154
0.0331544
0.0309329
0.0585635
0.0221841
0.0215341
0.0232264
0.0429845
0.0770143
0.0103891
0.0254577
0.0392853
0.0583778
0.219631
0.000328631
0.014439
0.014894
0.0104705
0.00109914
0.0110339
0.116689
0.564652
0.0252455
0.00807626
0.0187091
0.00529138
0.0463404
0.00015702
0.0477005
0.388278
0.489388
0.0249029
0.0680978
0.078738
0.0411934
0.124733
0.0402397
0.00777998
0.0217937
0.0517365
0.0256096
0.175404
0.165218
0.151226
0.118873
0.0617804
0.00206341
0.00438654
0.00985076
0.00301992
0.0163424
0.0432588
0.0235671
0.135049
0.0933803
0.186896
0.414108
0.247503
0.0049984
0.0258692
0.0858507
0.188077
0.307048
0.193334
0.196092
0.125154
0.013901
0.0608939
0.209406
0.173733
0.157255
0.0911188
0.0647269
0.0160015
0.0156854
0.00832927
0.234286
0.260606
0.0677719
0.0676041
0.044035
0.0603571
0.0245062
0.0726511
0.103919
0.0485584
0.0701851
0.114469
0.133951
0.189478
0.148841
0.111629
0.0903544
0.0261298
0.208475
0.16465
0.0446184
0.0293771
0.0372399
0.104653
0.0692599
0.280677
0.170867
0.206749
0.198434
0.0623877
0.0108871
0.00184962
0.0167331
0.0125711
0.0296146
0.0805298
0.110614
0.1889
0.135913
0.0519744
0.0255779
0.0957013
0.0622529
0.00840496
0.0452478
0.253878
0.156187
0.0231956
0.00111248
0.0361159
0.033186
0.0174758
0.131633
0.170174
0.184689
0.216468
0.0829297
0.0362704
0.188293
0.321074
0.107344
0.0192639
0.105667
0.0676788
0.0358979
0.0295712
0.0102662
0.003133
0.0388516
0.181935
0.205694
0.0848648
0.0448834
0.0556071
0.0664921
0.0171104
0.0508459
0.0408362
0.0849698
0.060605
0.0146965
0.0335051
0.00610591
0.00768845
0.00444846
0
0.0645671
0.456521
0.330368
0.153527
0.0306611
0.0281894
0.0512051
0.0136574
0.029072
0.074899
0.47641
0.288592
0.0385834
0.00771439
0.0209225
0.0252206
0.0121311
0.0726891
0.025561
0.0271676
0.00819767
0.00445859
0.0308267
0.0827118
0.108539
0.0438888
0.0430044
0.0316147
0.0221705
0.00554928
0.0113457
0.0140428
0.0378875
0.15996
0.0738574
0.0652597
0.0231813
0.0961948
0.0862687
0.0190719
0.0080625
0.326746
0.75202
0.162525
0.036364
0.0220771
0.0112795
0.00525398
0.00407661
0.038384
0.119352
0.0662231
0.00616919
0.000911524
0.00255523
0.00447461
0.00369343
0.0020335
0.195426
0.304648
0.0470107
0
0
0
0.00122797
0.00288365
0.0107225
0.0122593
0.325475
0.315977
0.016631
6.55565e-005
0.00128685
0.000551507
0
0.000218688
0.166522
0.670856
0.238446
0
0.00205913
0.0114824
0.00973757
0.0136096
0.0166339
0.293535
0.170578
0.00526033
8.50854e-005
0
0
0.000247389
0.000828749
0.0122086
0.510265
0.0816896
0.00145141
0.000595598
0
0
0
0.000313844
0.11138
0.269838
0.329492
0.0509352
0.00398432
0.0118098
0.0319958
0.0233994
0.0120311
0.0155908
0.536375
0.14847
0.0301475
0.00664054
0.0486394
0.0558743
0.0150266
0.00333837
0.085717
0.281977
0.0104415
0.000466239
0.000199817
0
0
0
0.00258496
0.208689
0.201955
0.000410768
0
0
0
0
0
0.0242588
0.410238
0.334729
0.0257982
0.00498111
0.00278998
0.0151655
0.0235644
0.0139657
0.0124905
0.227766
0.172018
0.0153896
0.017918
0.0137929
0
0.0102346
0.0212274
0.0681015
0.614116
0.0480495
0
0
0
0
0
0.000214919
0.0644832
0.295494
0.00316612
0.00024196
0.000725881
0
0.000261654
0
0.0227616
0.238728
0.220409
0.0641257
0.021288
0.0111191
0.00466065
0
0.00113469
0.00253167
0.169043
0.45477
0.0348863
0.00911014
0.00114458
0
0
0
0.0400211
0.609094
0.320798
0
0.000286254
0.000858762
0.00106967
0.00605813
0.0123199
0.0889503
0.229938
0.051693
0.000459939
0.00188065
0.00112592
0.00791765
0.031005
0.0363805
0.155458
0.142264
0.00134545
0.00175399
0
0
0
0.000441768
0.00136662
0.153948
0.604545
0.066153
6.57055e-005
0.000262822
0
0
0.00422501
0.0291752
0.433818
0.460846
0.000782368
0.0125266
0.0129587
0.0210483
0.0150648
0.0459496
0.0566803
0.150156
0.0679175
0.00767422
0.051193
0.0304535
0.0372983
0.0135969
0.0191276
0.0225397
0.0430516
0.0571146
0.0466249
0.00291242
0.00256047
0.019469
0.00834385
0.0132992
0.138864
0.725866
0.256042
0.0010312
0.0175069
0.0191453
0.0417352
0.0139064
0.0476255
0.137724
0.367692
0.0380349
0.0142182
0.17356
0.0879303
0.0427333
0.0122517
0.0545163
0.00873864
0.0136994
0.098253
0.152494
0.219472
0.239893
0.0967095
0.0378349
0.167913
0.108653
0.028447
0.0228857
0.0984447
0.106789
0.0930397
0.0732156
0.0604547
0.213056
0.0976039
0.145663
0.046903
0.0679694
0.200852
0.20162
0.153359
0.244132
0.22609
0.0682992
0.0945972
0.0294884
0.0468998
0.00122786
0.000104067
0.000242823
0.00510199
0.0161108
0.0992448
0.252483
0.118454
0.058131
0.00493872
0.0176211
0.0201958
0.0144656
0.0297887
0.0312793
0.302054
0.234662
0.0252419
0.00526913
0
0.00205196
0.0281116
0.174044
0.505054
0.291514
0.0726318
0.0224091
0.00971591
0.0155908
0.0746952
0.0936436
0.16138
0.13555
0.376338
0.204428
0.0350139
0.00590784
0.0514433
0.117117
0.0232336
0.0072382
0.00348756
0.0527042
0.0658126
0.0112955
0.00297039
0.15361
0.435788
0.0485825
0.00298457
0.000938796
0.00221013
0.00528836
0.00161364
0.00589751
0.0652577
0.265581
0.081979
0.0151554
0.0240165
0.105235
0.0734899
0.0184499
0.00211835
0.155962
0.698355
0.232134
0.00505426
0.012724
0.00730588
0.00752341
0.0026357
0.0056253
0.171259
0.270988
0.0119918
0
7.13449e-005
3.05764e-005
0
0
0.0602234
0.31715
0.200674
0.00459535
0.0170692
0.0311827
0.0356755
0.0283989
0.0283311
0.00564338
0.146898
0.524272
0.172864
0.00099315
0.00657771
0.000542598
0.00671106
0
0.0415346
0.302831
0.43386
0.13152
0.178544
0.0975575
0.0539601
0.0695837
0.0169986
0.0962504
0.21627
0.0778046
0.028792
0.084747
0.151178
0.0822287
0.0516032
0.0495393
0.160987
0.0576948
0.0483967
0.0328357
0.134501
0.196524
0.0516899
0.051477
0.0249566
0.0309798
0.143356
0.140723
0.298075
0.45511
0.26535
0.0954715
0.110516
0.0332534
0.0360696
0.012799
0.105011
0.195577
0.208966
0.209626
0.0766459
0.325356
0.0842988
0.110202
0.0119453
0.0134862
0.0191962
0.0509075
0.0813423
0.0359085
0.0455812
0.0572092
0.0736376
0.0700083
0.14301
0.124743
0.03903
0.0527141
0.0311604
0.0391734
0.214104
0.0229532
0.0135323
0.0461859
0.0973224
0.155457
0.128545
0.0779811
0.193746
0.0600284
0.0207461
0.089143
0.290843
0.657066
0.355668
0.145532
0.0406247
0.046823
0.0233029
0.0769558
0.097196
0.0818191
0.0378818
0.00387696
0.00449915
0.00306014
0.0934729
0.189501
0.0602989
0.0478021
0.0119851
0.000949041
0
0
0.0952752
0.513986
0.18678
0.0512016
0.138556
0.209903
0.273935
0.0688104
0.0134362
0.00618001
0.0566915
0.122737
0.05046
0.0764444
0.0584898
0.0385036
0.00254194
0.0114864
0.302031
0.482951
0.200095
0.00282403
0
0
0
0
0.00363252
0.179192
0.311521
0.0231538
0
0
0
0
0
0.0275084
0.323292
0.18211
0.000124683
0.00338626
0.000257008
0
0
0.000461364
0.0876204
0.47609
0.240871
0.0225396
0
0
0
0.0028224
0.0116967
0.263926
0.547505
0.0706352
0
0
0
0.000716274
0.000306975
0
0.0836582
0.38206
0.0680296
0
0.00140862
0.000632204
0.00171546
0.0132522
0.0132697
0.123518
0.24502
0.00833919
0.00140862
0
0
0
0.00433975
0.0164756
0.275652
0.515656
0.0193767
0
0.000845172
0
0
0.0218543
0.0695526
0.384635
0.427579
0.00449013
0.00097959
0.0288916
0.0137855
0.0118047
0.0831756
0.105543
0.143929
0.129893
0.0105192
0.0140699
0.0589933
0.0341289
0.0272439
0.113132
0.176456
0.0563603
0.0410282
0.00874309
0.00989844
0.0302747
0.0124863
0.00302062
0.106617
0.307713
0.548553
0.31214
0.0369126
0.071095
0.124469
0.0461896
0.0084652
0.0515054
0.220019
0.0566471
0.0704023
0.0891654
0.182
0.0238404
0.00357642
0.00306474
0.0241412
0.223193
0.236845
0.0399354
0.00430297
0.00620357
0.0203773
0.00269148
0.0362734
0.0966417
0.149678
0.0621923
0.0621934
0.021746
0.0280144
0.048025
0.0208689
0.00692789
0.261478
0.599056
0.178139
0.0111288
0.00864586
0.00372214
0.0324589
0.0125214
0.0397345
0.223837
0.500265
0.0973247
0.00958421
0.00719053
0.0168086
0.00539671
0.00716879
0.100926
0.11783
0.0542085
0.0251933
0.0281366
0.0155923
0.0215869
0.000770958
0.0270581
0.216195
0.392165
0.0333092
0.0217854
0.00228407
0.00206367
0.00308384
0.00376832
0.00505684
0.0311737
0.201715
0.286387
0.0483849
0.001981
0.00177995
0.0129521
0.0013464
0.00994367
0.0483702
0.701771
0.277525
0.0279352
0.000169519
0.000254278
0.0018503
0.00100282
0.0414422
0.25163
0.354701
0.0137925
0.0165511
0.000696908
0.00538817
0
0.00701977
0.0761398
0.227564
0.167216
0.22279
0.137979
0.0264848
0.0463258
0.00154019
0.000107683
0.0050825
0.0899306
0.623787
0.172944
0.0218595
0.00311057
0.00174608
0
0
0.00575758
0.0988535
0.201956
0.241012
0.193108
0.0903915
0.0765174
0.0291861
0.021519
0.0219238
0.0428149
0.13489
0.303967
0.170338
0.0561651
0.0860331
0.053812
0.173867
0.0368958
0.0383712
0.0818848
0.0745433
0.0588934
0.0414836
0.159536
0.165146
0.0531786
0.00102132
0.0141773
0.0200463
0.182869
0.195582
0.145782
0.205756
0.259051
0.363453
0.0616551
0.0135731
0.0121666
0.038266
0.0455379
0.0739819
0.161358
0.53617
0.112655
0.0772184
0.0914655
0.0929586
0.0826767
0.0250969
0.0336088
0.0673036
0.0586174
0.0175882
0.055476
0.157554
0.475246
0.339284
0.036828
0.0193306
0.0115664
0.00505328
0.220826
0.152122
0.133504
0.0992887
0.0490937
0.0172691
0.0122592
0.0173846
0.155424
0.0362006
0.0982896
0.190588
0.401891
0.408709
0.0400565
0.0026654
0.000357016
0.0100789
0.0226192
0.0376988
0.118318
0.410544
0.238681
0.00839265
0.00930387
0.0268175
0.0507445
0.0347675
0.0264163
0.0417026
0.0912763
0.044433
0.0625221
0.334582
0.215489
0.0845742
0.0082783
0.00615354
0.0398879
0.332905
0.517826
0.0211275
0.00497991
0.00606761
0.00451846
0.0137972
0.00509958
0.00539897
0.0974268
0.181159
0.119293
0.196929
0.044666
0.013407
0.00232846
0.000597555
7.87564e-005
0.000765958
0.00719262
0.164454
0.286592
0.0554658
0.0059461
0
0
0
0.0127257
0.0941876
0.36858
0.240867
0.00564138
0
0.000970029
0.000358533
0.000131261
0.00591465
0.0997144
0.26273
0.158089
0.00925629
0.00187432
0
0
0
0.0489404
0.524314
0.485238
0.0992882
0.000162732
0
0
0
0
0.0178347
0.101526
0.238311
0.19301
0.000900839
0
0
0
0
0.00478822
0.139742
0.318597
0.191552
0.00562418
0.000284859
0
0
0
0.0549884
0.45511
0.295897
0.0648049
0
0
0
0
0
0.00691207
0.462339
0.378832
0.0715228
0.00567228
0.000170916
0.0140131
0.00340324
0.00116596
0.00701491
0.225792
0.348175
0.116297
0.0459126
0.0635561
0.0668383
0.0130907
0.00194327
0.00212618
0.0444913
0.0331893
0.0328177
0.0906438
0.241804
0.0223419
0.0186958
0.0111319
0.00961112
0.606055
0.342759
0.0845399
0.0456259
0.0412401
0.13726
0.0571701
0.0343942
0.0160185
0.06485
0.0331338
0.048426
0.0747381
0.226694
0.00824385
0.00658706
0.0377798
0.421467
0.275782
0.0343829
0.00675853
0.00798842
0.00122989
0.00494631
0.00921527
0.0342905
0.227306
0.302432
0.0485878
0.00405512
0.0126644
0.00860924
0.00487332
0.0357961
0.231586
0.551183
0.124089
0.0103472
0.000965504
0.00301532
0.00204982
0.00617803
0.0483821
0.185208
0.312955
0.15474
0.0303443
0.00182124
0.019665
0.0148751
0.00156979
0.0167497
0.0288073
0.173515
0.246557
0.0295644
0
0.00392082
0.00392082
0.00261632
0.0235469
0.00378483
0.421797
0.426827
0.0741876
0.000504676
0
0
0.00197694
0.0273854
0.101099
0.156902
0.158108
0.0656353
0.00685172
0.0123989
0.00718628
0.00156979
0.0141281
0.0119511
0.141049
0.471683
0.399779
0.0342451
0.000837746
9.30828e-005
0.00207189
0.00393482
0.00878627
0.32522
0.373116
0.118624
0.00964634
0.00354055
0
0.0121762
0.00294244
0.0137429
0.0930998
0.149671
0.133865
0.0777495
0.108381
0.0700712
0.00303662
0.00280927
0.00151413
0.0577842
0.335359
0.520448
0.15498
0.0030091
0
0.0224617
0.00927666
0.00675692
0.0187901
0.0897644
0.308468
0.254218
0.0785313
0.0751961
0.0247179
0.00133347
0.00220669
0.0084642
0.0286588
0.0689517
0.0970979
0.209936
0.269064
0.125955
0.0184343
0.0166728
0.0629497
0.0742687
0.0924618
0.115543
0.151521
0.37822
0.012395
0.0168646
0.0236164
0.116914
0.0425912
0.0872226
0.0966829
0.12277
0.143191
0.0337496
0.0126528
0.136927
0.614909
0.224715
0.140632
0.0875763
0.0694775
0.116501
0.0786034
0.0387167
0.040844
0.0697324
0.0901428
0.0757373
0.024895
0.0144414
0.0826661
0.023404
0.0246592
0.0436893
0.147086
0.38142
0.109585
0.00168424
0
0.00991249
0.0644266
0.00784175
0.0921189
0.292586
0.189014
0.134696
0.0240004
0.00576667
0.0775216
0.0378611
0.00470505
0.0173
0.150144
0.685837
0.232055
0.0117897
0
0.0424008
0
0.000754851
0.00714085
0.152473
0.45883
0.0422604
0.00116876
0.0010275
0.00111634
0
0.00231437
0.0070816
0.0810286
0.191741
0.0502929
0.0351355
0.00719249
0.00781438
0.00577881
0.00957084
0.00462297
0.127737
0.700956
0.0964394
0.00321298
0.000557758
0.00839424
0.00963135
0.0786753
0.184385
0.135965
0.214546
0.034367
0.00481005
0.00159278
0.014841
0
0.000408352
0.00691962
0.0779692
0.142331
0.084985
0.022958
0.00126906
0.00137879
0
0
0.00844168
0.245536
0.499383
0.14048
0.0107744
0
0
0.000625166
0.0194901
0.172648
0.311065
0.0822239
0.00861909
0.00117649
0.000200468
0.00108783
0
0.00731217
0.156934
0.587399
0.273091
0.0175027
0.000101532
0
0
0
0
0.00439477
0.142592
0.386701
0.0947362
0.00479264
0
0
0
0
0.00153883
0.0407294
0.43631
0.136662
0.00968344
0.00172231
0
0
0.0139235
0.0635876
0.393775
0.278945
0.0310046
0
0
0
0
0.00713813
0.0278461
0.331743
0.43962
0.0381459
0.00392902
0.00221293
0.00110398
0.00521595
0.0109996
0.00572841
0.0618978
0.564179
0.122385
0.0454664
0.0223023
0.00260159
0.0533165
0.0344464
0.0247404
0.0244297
0.0698483
0.0298577
0.0561475
0.0377187
0.027771
0.00967302
0.0148812
0.00387709
0.391163
0.545866
0.0532255
0.0357036
0.0340883
0.022777
0.115041
0.0307183
0.00491429
0.0347777
0.0614356
0.06265
0.0623731
0.0681526
0.112579
0.0299543
0.0850909
0.422257
0.313166
0.0663482
0.00291725
0
0.00524447
0.00328042
0.0576601
0.0561021
0.307302
0.209635
0.0685199
0.0437925
0.0267161
0.0318357
0.0218328
0.026132
0.0970259
0.517469
0.14082
0.0193309
0.00041675
0.00128921
0.0123051
0.00953429
0.0659387
0.0338185
0.35658
0.0792845
0.00676799
0.114764
0.0973719
0.0548833
0.062287
0.0143814
0.0120975
0.0727606
0.0655597
0.075028
0.15549
0.0607856
0.0283365
0.00938815
0
0
0.0059626
0.0142946
0.247202
0.511579
0.160612
0.00430359
0.000338145
0.0199583
0.00347486
0.0343683
0.0171486
0.0114259
0.270944
0.2072
0.0379443
0.0234126
0
0
0.000333953
0.000222636
0.0564964
0.404714
0.476457
0.0558642
0.000202887
0.000319997
7.99992e-005
0
0.00147134
0.0715963
0.326173
0.25319
0.00765139
0
0.0106436
0.0105888
0.00390558
0.00506662
0.00984445
0.157646
0.363126
0.111795
0.0358074
0
0
0
0
0.0138127
0.174858
0.437721
0.0785587
0
0.0192849
0.0060173
0.000799236
0.000723804
0
0.0608067
0.48543
0.32702
0.0989193
0.0316383
0.0454098
0.0414195
0.118624
0.0342754
0.0309296
0.10059
0.111931
0.0589148
0.0319708
0.0427697
0.137552
0.578077
0.275697
0.0503012
0.00898406
0.0150111
0.0395471
0.113132
0.0776521
0.0507003
0.0532164
0.0265504
0.00339078
0.116835
0.246896
0.214754
0.116184
0.120338
0.218801
0.306333
0.297314
0.115723
0.0693627
0.0321908
0.0975557
0.0249421
0.0142634
0.101821
0.336866
0.19019
0.0611408
0.00606476
5.70967e-005
0.0477592
0.0167737
0.00761944
0.0444777
0.267253
0.502028
0.093985
0.00450502
0.00568495
0.0327665
0.011181
0.0390683
0.114915
0.241499
0.225385
0.10787
0.0798475
0.0242076
0.0119807
0.0486183
0.0206374
0.0518202
0.314715
0.400453
0.0412637
0.0517624
0.0915896
0.0872448
0.02873
0.0293991
0.00997008
0.0684692
0.340945
0.0313363
0.000695738
0.0154311
0.016337
0.0420662
0.169438
0.26109
0.0421619
0.0704707
0.00867361
0.000261891
0.00956087
0.0155441
0.180495
0.141162
0.0181944
0.0722683
0.235457
0.0106172
0.00585546
0.0592243
0.093784
0.17801
0.610833
0.41004
0.0126695
0.0342631
0.00249316
0
0.0171709
0.0325139
0.00395082
0.0660791
0.330683
0.216884
0.00494632
0.000547506
2.66712e-005
4.80892e-005
0.00091369
0
0.0182553
0.250112
0.496078
0.0416751
0.00676028
0
0
0
0.0115809
0.234336
0.454912
0.0992478
9.51229e-005
0
0
6.86988e-006
0.000130527
0
0.0705692
0.366722
0.246266
0.00282924
0.000927162
0
0
0
0
0.0235799
0.117048
0.334611
0.0723625
0.0111024
0
0
0
0
0.0106776
0.0776169
0.479568
0.154409
0.00341877
0.00115268
0.00138207
0.00121958
0
0.0292211
0.333915
0.313727
0.00461354
0.00131045
0
0
0
0
0.00439796
0.267129
0.502373
0.049091
0.000187207
0.000768729
0.000398792
0.000174226
0.0238458
0.0339922
0.0330499
0.576987
0.292656
0.011643
0.0125456
0.0262471
0.0342414
0.187643
0.07559
0.0357696
0.0493915
0.0374293
0.0218322
0.0180103
0.0444371
0.142234
0.0149329
0.0220314
0.115265
0.498819
0.179705
0.0070801
0.00703967
0.00786186
0.00968828
0.0707561
0.0512619
0.0626995
0.0675645
0.0658932
0.0170141
0.0180942
0.0676378
0.0357198
0.00829499
0.182809
0.627194
0.0660853
0.0157459
0.00183583
0.00505624
0.0096327
0.00537198
0.0152821
0.0344532
0.34937
0.0332892
0.0220385
0.1869
0.159556
0.0583777
0.0344097
0.0640016
0.254919
0.330957
0.030573
0.0221741
0.00305972
0.00527466
0.00709547
0.0223032
0.0325066
0.026677
0.106562
0.0293099
0.0425715
0.134844
0.118358
0.034031
0.0198915
0.0032388
0.000788762
0.0167311
0.00218574
0.00263047
0.218847
0.249968
0.0563123
0.00908257
0
0
0
0
0.00168709
0.147195
0.486332
0.225232
0
0.00137431
0.000118364
0.00305886
0.00234097
0.0053887
0.111296
0.219548
0.118892
0.00326621
0
0
0
0
0
0.0331171
0.443789
0.437067
0.00924095
0
0
0
0
0.000408613
0.0302539
0.298363
0.205047
0.00129631
0.00903977
0
0
0
0
0.0079527
0.273838
0.448223
0.13259
0
0
0
0
0
0.000145061
0.156506
0.328781
0.0406499
0.00146865
0
0
0
0
0
0.0704353
0.556892
0.208026
0.0906207
0.0363739
0.0187317
0.00855417
0.00967091
0.000872542
0.0529438
0.257545
0.273246
0.142112
0.0764468
0.115087
0.0622918
0.0920923
0.0529714
0.0579068
0.0657748
0.213734
0.0331198
0.0049006
0.00155349
0.000388373
0.00420244
0.000466937
0.0116789
0.420913
0.3214
0.106941
0.0168093
0.0108744
0.00271861
0.0301252
0.00539306
0.00659597
0.226599
0.548155
0.0643756
0.0512732
0.0504146
0.0557385
0.0910795
0.0746334
0.0994708
0.0741279
0.08749
0.212201
0.0581033
0.00867557
0.0748979
0.1232
0.0321139
0.0780722
0.173451
0.227618
0.21408
0.02857
0.00397662
0.000994154
0.0126709
0.00693581
0.0149996
0.0660973
0.367088
0.642278
0.100347
0
0
0.00114811
0.00344433
0.0150083
0.0628407
0.296407
0.205472
0.195453
0.00981071
0.0115077
0.0378717
0.0021843
0.00613288
0.0430033
0.0980256
0.144056
0.575121
0.166767
0.00139543
0.00395191
0.000312042
0
0.00385547
0.0164023
0.321514
0.220625
0.00731868
0
0
0
0.00123551
0.0107717
0.0868601
0.219948
0.498494
0.0532338
0.000114986
0
0
0
0.0002689
0.0265814
0.0256504
0.342439
0.260762
0.0170872
0
0
0
0
0
0.00527793
0.203791
0.382384
0.0617244
0
0
0
0
0
0.0752927
0.425173
0.117926
0.000355728
0
0
0
0
0.00196777
0.0102451
0.400088
0.434208
0.0118898
0
0
0
0
0
0.000113854
0.0846158
0.541671
0.173945
6.5567e-005
0
0
0.000734584
0.000243487
0.00134473
0.00507065
0.360593
0.24211
0.0218864
0
0.00311161
0.00617929
0.00225216
0.000899698
0.150549
0.540869
0.0751938
0.000458969
0
0
0.00122431
0.00101303
0.0105629
0.0142219
0.231367
0.0934002
0.00696428
0
0.00186697
0.00919247
0.0113562
0.0101726
0.0384229
0.298102
0.373817
0.195801
0.0203967
0.0353198
0.0311455
0.0123027
0.0129639
0.0602046
0.0763439
0.05491
0.128781
0.0748249
0.0831499
0.157344
0.0251756
0.0660485
0.0693998
0.241954
0.212098
0.072967
0.00901971
0.0314192
0.0307611
0.0679108
0.0767433
0.0925726
0.118299
0.0973921
0.151985
0.0824436
0.0839035
0.0332681
0.0779959
0.23335
0.371916
0.15121
0.0252823
0.0231067
0.021266
0.0699047
0.0567187
0.110835
0.108318
0.0340206
0.0232471
0.0337036
0.0982146
0.121761
0.161934
0.0853492
0.112103
0.107547
0.0655407
0.0655572
0
0.0563445
0.0882712
0.17418
0.190925
0.0673507
0.0809323
0.0725348
0.043804
0
0.108637
0.128474
0.197853
0.118208
0.0699371
0.0199307
0.00484367
0.000261152
0.00188425
0.0142176
0.0536618
0.168301
0.135363
0.0392003
0.0146858
0.00159677
0
0
0
0.0185537
0.463069
0.598029
0.0594227
0.0688316
0.0403557
0.0112998
0
0.0166131
0.039497
0.0488845
0.0492955
0.065004
0.0689314
0.024734
0.0319663
0.011318
0.00334344
0.0255175
0.134298
0.275606
0.105707
0.000848203
0
0
0
0
0.00193377
0.119916
0.394246
0.0859072
0
0
0
0
0
0
0.024031
0.614951
0.269286
0.00398397
0.00741516
0.0246072
0.00998993
0.00475679
0.00322294
0.0769932
0.214012
0.0456755
0.0104789
0.0161944
0.0260229
0.00762323
0.00285407
0
0.0539759
0.38741
0.151526
0.00112633
0
0
0
0
0
0.00181872
0.391495
0.210102
0.072582
0
0
0
0
0
0
0.30311
0.472852
0.0120168
0.00614157
0.00397934
0.000710898
0
0
0.00599747
0.299268
0.170125
0.154628
0.00597298
0.00205468
0
0
0
0.00140456
0.279477
0.38411
0.22141
0.00731633
0
0
0
0
0
0.0406667
0.266312
0.548887
0.0557045
0
0
0
0
0
0.000626874
0.140131
0.302734
0.0281744
0.00184855
0
0
0
0.000151419
0.0373541
0.181475
0.566067
0.0799966
0.00327353
0.00141379
0
0
0
0.0023226
0.0767785
0.422758
0.103493
0.00242216
0
0
0
0
0
0.0798888
0.40253
0.339872
0.0219905
0
0
0
0
0
0.0456597
0.410371
0.10573
0.00620794
0.00144963
0
0.00145759
0.000624683
0.000309872
0.0398681
0.342214
0.358059
0.0240458
0.000207091
0.0010511
0.00589749
0.0025275
0
0.0153228
0.151272
0.514817
0.121467
0
0
0
0.000309382
7.73455e-005
0.00461151
0.0190343
0.433248
0.383975
0.0107063
0.00389947
0.00762927
0.00484362
0.000541418
0.000849674
0.121212
0.403818
0.0550101
0
0.00202389
0.0134291
0.00519344
0.000541418
0.00590885
0.0340314
0.223138
0.0956057
0.00698235
0.0100583
0.0384648
0.055495
0.00877403
0.00677527
0.00661793
0.248578
0.657284
0.0947742
0.0142086
0.0273512
0.0107226
0.00114087
0.00265372
0.033171
0.0717767
0.219839
0.131434
0.0361668
0.010128
0.00362488
0.00438035
0.0254184
0.0166432
0.0927247
0.136683
0.0467581
0.0398069
0.129917
0.174094
0.0479295
0.00659542
0.0487352
0.0904974
0.0737098
0.0649102
0.0361165
0.152926
0.117082
0.0677087
0.049616
0.0689629
0.0823539
0.103855
0.193682
0.0740888
0.00822397
0.0272898
0.0361331
0.0642927
0.0735717
0.0535689
0.0966782
0.109214
0.0709536
0.0825279
0.102839
0.0884178
0.10278
0.163408
0.17693
0.0513047
0.0985826
0.0416843
0.0960121
0.136154
0.122021
0.158367
0.245808
0.094316
0.0818445
0.0397225
0.126972
0.0307359
0.133672
0.167125
0.251979
0.0965763
0.0749187
0.14006
0
0.0727229
0.0704337
0.0856
0.0908145
0.0554657
0.0755065
0.0597885
0.0728277
0
0.0847675
0.137393
0.196118
0.0696247
0.0628217
0.203675
0.182459
0.200891
0.0210466
0.0731064
0.0206786
0.102362
0.0401768
0.122334
0.165235
0.111551
0.122457
0
0.210493
0.110549
0.129089
0.0279423
0.178647
0.0899691
0.0684907
0.0525659
0
0.0772481
0.103809
0.105405
0.0411783
0.0769208
0.119697
0.08168
0.129315
0.0533784
0.0776023
0.0507505
0.0546133
0.126689
0.145144
0.11498
0.0839488
0.0676374
0
0.214807
0.094538
0.070865
0.0499546
0.258673
0.162817
0.103121
0.0733178
0.107068
0.244875
0.0689437
0.0395721
0.143515
0.293545
0.0278426
0.0875043
0.164966
0.0776319
0.0722621
0.0173424
0.0868796
0.132324
0.0564353
0.079849
0.162225
0.177161
0.0444576
0.0520755
0.0238246
0.0931856
0.249995
0.164125
0.128717
0.16365
0.079085
0.12019
0.117731
0.0369751
0.0588853
0.125177
0.0708206
0.104764
0.262936
0.109151
0.051481
0.131666
0.0826604
0.117493
0.0647385
0.04011
0.0867461
0.0546812
0.0282389
0.00941116
0.00504968
0.00189497
0.0107081
0.23239
0.214175
0.381686
0.0895944
0.0240274
0.00412991
0.0202847
0
0.0117908
0.276029
0.460664
0.0683437
0.108305
0.0256033
0.0485435
0.0365697
0.0147144
0.0415496
0.0431735
0.0770881
0.12711
0.131043
0.0275126
0.0449777
0.108555
0.0226085
0.0686374
0.0958357
0.143754
0.435994
0.118321
0.0233296
0
0.0180384
0
0.00235752
0.0443426
0.155403
0.616768
0.202016
0.043441
0.0298511
0.00537191
0
0
0.0201134
0.055889
0.0664011
0.0987633
0.0342068
0.0311997
0.0977993
0.0179021
0.0255032
0.0264789
0.0248553
0.0980921
0.149327
0.0712916
0.128229
0.0457635
0.00813856
0.00746463
0.0133936
0.0160974
0.454816
0.223739
0.0654422
0.0541421
0.00128059
0.0193168
0.0077464
0.00332347
0.0325505
0.265909
0.457146
0.0813661
0.0217588
0.0129248
0.0803984
0.042542
0.00268955
0.00872581
0.0779198
0.113009
0.104044
0.161327
0.0462419
0.0221427
0.0057641
0.00199408
0.0171233
0.0892654
0.142156
0.0897961
0.0708759
0.0399196
0.148614
0.100273
0.0136681
0.00956233
0.134128
0.386186
0.0583436
0.00460263
0.0191228
0.085608
0.0427054
0.00457768
0.022627
0.12662
0.274497
0.0133628
0.00559119
0.0153676
0.11376
0.17209
0.0851699
0.0271266
0.111833
0.140524
0.0324548
0.0332031
0.0132071
0.135904
0.151573
0.0377092
0.0320667
0.205541
0.335306
0.125371
0.0266714
0.00206545
0.0642272
0.098762
0.0993773
0.053902
0.0270824
0.073887
0.0110029
0.0106586
0.0169185
0.13629
0.280512
0.154171
0.00903084
0.0431301
0.0441727
0.0170679
0.0166186
0.00860762
0.213618
0.282653
0.216825
0.0773995
0.079542
0.263792
0.185073
0.0327092
9.92833e-005
0.0766798
0.127614
0.101878
0.0257312
0.156617
0.176997
0.13818
0.0684301
0
0.0773701
0.174416
0.136338
0.0924862
0.117604
0.0489076
0.00774358
0.00769296
0.000370116
0.0687287
0.0946398
0.153251
0.194991
0.226336
0.0350353
0.0138751
0.00282464
0.0326551
0.00880427
0.0541636
0.121385
0.278283
0.249189
0.0939467
0.0430231
0.0202068
0
0.0180331
0.0481858
0.129839
0.240627
0.257096
0.0756945
0.0811409
0.0583683
0.00432573
0.0503132
0.112947
0.142984
0.303348