0.242578
0.0672652
0.00723329
0.00214587
0.000608022
0
6.94054e-005
0.000441404
0.0453618
0.399991
0.0398294
0.00503918
0.000640788
0.00101337
0
0.000485838
0.00198581
0.183813
0.478566
0.191661
0.144111
0.0375707
0
0
0.00128452
0.00105097
0.0587458
0.497318
0.0867634
0.02012
0.00467176
0
0
0.0100784
0.023929
0.377701
0.320266
0.103772
0.022056
0
0.000147414
0
0.000192113
0.00166305
0.119741
0.489219
0.17009
0.0232915
0
0
0
0
0.00351291
0.0966083
0.419347
0.185458
0.0318154
0.00291292
0.000873941
0.00854464
0.0150197
0.0412909
0.264532
0.388045
0.304955
0.0385559
0.0226682
0.0142851
0.0278404
0.0157201
0.0468722
0.114496
0.471201
0.096427
0.0111082
0.00319971
0
0
0.00147449
0.0295859
0.163076
0.462832
0.265341
0.127523
0.00533286
0
0.0115173
0.00306366
0.0469117
0.146417
0.304873
0.161963
0.0533953
0.0396413
0.0139279
0.0133914
0.00481193
0.0656378
0.159634
0.265347
0.193691
0.227987
0.0420082
0.00712967
0.0916228
0.00833903
0.089229
0.170259
0.280478
0.291151
0.18345
0.0170479
0.00692423
0.0103008
0.000839608
0.00618577
0.0728489
0.528522
0.256529
0.0864937
0.0398248
0.0536204
0.00147155
0.00782216
0.0442071
0.11162
0.160827
0.221014
0.1926
0.0378208
0.0166147
0.0755645
0.00429082
0.014353
0.178267
0.297682
0.241153
0.0828199
0.111182
0.139322
0.0103008
0.00518898
0.0285753
0.189278
0.448734
0.153803
0.00049932
0.00842984
0.0203475
0
0.00685698
0.0436597
0.152697
0.451104
0.167498
0.0211763
0.00188716
0.0119896
0.0256674
0.0221483
0.0237646
0.202454
0.261594
0.0807185
0.0149011
0.0303522
0.0655578
0
0.00411419
0.0442002
0.205755
0.323289
0.0345952
0.0147156
0.00159558
0.00802449
0.014118
0.035869
0.0545444
0.43722
0.200475
0.0874665
0.0543025
0.011665
0.0405234
0.107794
0.0347969
0.0614093
0.206158
0.0840028
0.0348042
0.0533517
0.0352675
0.17246
0.235824
0.0120647
0.0913999
0.280861
0.288407
0.0841113
0.0442572
0.0111286
0.0232916
0.083009
0.0565511
0.0626098
0.412286
0.294858
0.315426
0.0704968
0.0369798
0.103669
0.157012
0.0111223
0.107219
0.349647
0.0546307
0.0441855
0.0922643
0.0779126
0.155293
0.104973
0.0101493
0.0454949
0.132668
0.230634
0.0518317
0.104009
0.0789778
0.109978
0.0499521
0.0380871
0.0850772
0.234277
0.165239
0.107874
0.0890065
0.0887452
0.0589367
0.0418442
0.0127547
0.167234
0.294436
0.550177
0.0900213
0.100011
0.0856523
0.0211765
0.0055477
0.0162723
0.113491
0.445013
0.189746
0.0628163
0.115358
0.0607451
0.0527266
0.0197535
0.016575
0.050682
0.121146
0.089406
0.153348
0.237374
0.0643507
0.0744197
0.0755177
0.0320188
0.0757554
0.125243
0.428776
0.182567
0.226774
0.0620618
0.00356029
0.00102566
0.00224941
0.00852066
0.197098
0.173696
0.253896
0.524529
0.17276
0.0291211
0.0197771
0.00881571
0.056393
0.151933
0.0740215
0.0740523
0.180254
0.0133526
0.0146578
0.0274385
0.0151465
0.161147
0.206118
0.274308
0.137596
0.182108
0.0623903
0.0039178
0.0201936
0.0144794
0.136923
0.32434
0.129254
0.0510856
0.123363
0.0783558
0.0470444
0.0394503
0.0142934
0.126327
0.263799
0.470978
0.130556
0.0205267
0.0272086
0.0232969
0.0289412
0.00993063
0.133919
0.432498
0.257219
0.126958
0.321565
0.125257
0.00513518
0
0.00518806
0.00447996
0.0470368
0.415797
0.0761392
0.0630966
0.0177872
0.0112915
0.0155652
0.0427412
0.0956417
0.270013
0.0735522
0.114659
0.45143
0.123926
0.0432706
0.00183108
0.0248683
0.0862178
0.103533
0.104887
0.17223
0.256414
0.0252358
0.0188192
0.025942
0.0442989
0.257838
0.187958
0.23478
0.0882572
0.030471
0.0183202
0.063173
0.0739817
0.0615499
0.166677
0.286914
0.104039
0.215353
0.0491625
0.12835
0.167033
0.163603
0.0460988
0.0880054
0.0759945
0.0346872
0.132035
0.125149
0.0848951
0.128745
0.0725235
0.0578982
0.298052
0.126042
0.0272977
0.348268
0.241377
0.36273
0.299269
0.107221
0.0204591
0.0597585
0.0135979
0.0474342
0.146
0.0581529
0.104089
0.0607916
0.0437874
0.00413048
0.0232959
0.0371781
0.112773
0.242633
0.115539
0.0489593
0.01228
0.0527894
0.00269059
0.0266714
0.133089
0.0545005
0.364965
0.201943
0.184948
0.0763946
0.0262184
0.00104503
0.00144478
0.0105142
0.13248
0.691061
0.248097
0.0410609
0.00407669
0.00292619
0
0.00179368
0.0432494
0.16809
0.162764
0.0424246
0.00777775
0.00471077
0.0291891
0.00142438
0.00374297
0.16394
0.426301
0.192927
0.0235601
0.0279602
0.0331968
0.00368888
0.000194152
0.000803351
0.158824
0.165081
0.473529
0.0724077
0
0.000258994
0.000480989
0
0.000166157
0.0468819
0.499428
0.326756
0.00976823
0
0
0
0
0
0.0539767
0.348006
0.0821756
0.014722
0.00942962
0.0192371
0
0
0.00860893
0.109459
0.322414
0.00881087
0.00208643
0.000193513
0.00202503
0.00160598
0.00495677
0.0312231
0.452772
0.395445
0.0916358
0.0022721
0
0
0
0
0.00114092
0.0957742
0.299667
0.0101755
0.000298062
0
0
0
0
0.0132763
0.485997
0.258895
0.0669946
0.00212881
0.000650366
0.00171296
0.00550781
0.00561808
0.0280086
0.406408
0.271068
0.246746
0.00891934
0.00249135
0.00640245
0.0068878
0.0187618
0.0973253
0.29617
0.20031
0.0315319
0
0
0
0
0.000449256
0.0468175
0.472018
0.171718
0.0873933
0
0
0
0
0.0517599
0.182786
0.371521
0.112386
0.102186
0.0130681
0.00946259
0.00278322
0.014634
0.116704
0.252821
0.238911
0.30945
0.0980715
0.0596707
0.0490687
0.00702099
0.0305354
0.130569
0.165919
0.208406
0.0411039
0.0316689
0.00105968
0
0
0.0212975
0.271257
0.341331
0.194035
0.0851922
0.0386968
0.0330061
0.0938057
0.0117016
0.216666
0.349599
0.356531
0.181814
0.297163
0.211822
0.155834
0.0764062
0.020177
0.0128136
0.0161029
0.0109906
0.10362
0.188263
0.279655
0.27272
0.137972
0.0683011
0.00816257
0.017754
0.0285081
0.0879007
0.214871
0.0774644
0.0542894
0.182565
0.0337294
0.276748
0.138408
0.113843
0.129285
0.373449
0.154454
0.101656
0.145922
0.0539943
0.194903
0.0755809
0.221267
0.184195
0.11954
0.131402
0.105682
0.115767
0.094581
0.021504
0.0549374
0.0446235
0.108369
0.362391
0.208538
0.0281254
0.0329886
0.0360998
0.0222709
0.0360853
0.091561
0.272834
0.209594
0.254147
0.188217
0.120085
0.0517196
0.070895
0.0490384
0.10333
0.108603
0.314758
0.453475
0.201106
0.0944272
0.0284008
0.0993187
0.0369832
0.103382
0.122094
0.0898255
0.0810427
0.269428
0.0401047
0.0248208
0.00227671
0.0560778
0.271308
0.213063
0.0854201
0.117816
0.237474
0.0422053
0.00307649
0.00605858
0.0513567
0.333596
0.157329
0.124692
0.0775704
0.178927
0.0919608
0.0459205
0.0193582
0.0708228
0.315651
0.292863
0.104439
0.162761
0.292867
0.2176
0.0213715
0.019536
0.0733413
0.210929
0.16489
0.0505988
0.0801285
0.0581824
0.0456881
0.0326877
0.00844368
0.0443863
0.223034
0.0517195
0.0730828
0.165068
0.29289
0.252723
0.11137
0.00390382
0.0107357
0.0554201
0.0176314
0.0728226
0.16793
0.108947
0.205688
0.0563476
0.0458121
0.0900942
0.123639
0.0240627
0.0842571
0.318051
0.484411
0.449636
0.0677928
0.0274873
0.0394953
0.0432155
0.0227962
0.0351602
0.205171
0.263045
0.131929
0.0279043
0.00012802
0
0
0.00138072
0.0493793
0.508328
0.198761
0.0183016
0
0
0
0
0
0.0131817
0.160316
0.41894
0.179536
0.017181
0
0
0
0.0023012
0.0147919
0.300291
0.433795
0.0520301
0.00680707
0.00273452
0.00551797
0
0
0.0666442
0.524811
0.123271
0.00333429
0
0
0
0
0.000503851
0.268565
0.388566
0.0676928
0.0177863
0
0
0
0.00216789
0.01558
0.0423894
0.381713
0.277158
0.0593824
0.0269782
0.0108438
0.0218815
0
0.00352695
0.238272
0.278502
0.144131
0.111679
0.0343192
0.00650626
0.0131289
0.0156245
0.0985062
0.325963
0.1114
0.0161048
0.00810185
0
0
0
0.0020777
0.0802416
0.324309
0.0142246
0.00118116
0.000506213
0
0.000240239
0.00456452
0.011672
0.400209
0.344001
0.0654239
0.0339474
0.0267317
0.00367476
0
0
0.0169734
0.212037
0.369392
0.00591203
0.00495988
0.000843689
0
0.00928523
0.0168289
0.0391179
0.483895
0.120483
0
0
0
0.000866291
0.0108177
0.0277272
0.116162
0.465684
0.0361838
0
0
0
0.00606403
0.0191197
0.151622
0.403577
0.293859
0.146797
0.00346232
0.010387
0.00669594
0.0195469
0.0547448
0.067134
0.0990472
0.390908
0.0441984
0.00799949
0.0397907
0.0307298
0.136602
0.0957608
0.20564
0.303497
0.204866
0.00509996
0
0
0
0.00148596
0.00483565
0.164727
0.284677
0.0570821
0.0110697
0
0.000318232
0.0201058
0.00147709
0.168158
0.328167
0.310974
0.0702257
0.0108772
0.00394471
0.0223533
0.0109542
0.0345139
0.0254434
0.262694
0.270959
0.0501909
0.00155388
0.000563529
0.00319333
0.00107385
0.00117235
0.109114
0.612896
0.23399
0.0132278
0.0472703
0.000400032
0.000237344
0.0330129
0.00317537
0.204862
0.253017
0.104549
0.0341465
0.0987019
0.0431914
0.0193396
0.0489503
0.0182012
0.21105
0.185482
0.126663
0.0523092
0.0018944
0
0
0
0.00194097
0.174707
0.509627
0.0645244
0.00333815
0.00822074
0.0305267
0.00600663
0.0471971
0.0544967
0.383033
0.51017
0.0900025
0.00600183
0.110791
0.177714
0.0859068
0.11139
0.0504321
0.128566
0.0515702
0.0506111
0.0518705
0.152025
0.26807
0.195669
0.0943078
0.0288687
0.113296
0.0274102
0.0669959
0.100621
0.116436
0.149936
0.0266019
0.174003
0.111432
0.272138
0.391
0.102926
0.0571378
0.269297
0.247088
0.315838
0.140051
0.0327302
0.0457308
0.127484
0.127833
0.245112
0.127943
0.213878
0.174519
0.0525013
0.0506147
0.0316981
0.0241615
0.0567744
0.051204
0.107895
0.218751
0.333554
0.173072
0.029444
0.0139883
0.015763
0.0227165
0.0294485
0.18188
0.479585
0.100578
0.0215719
0.0421079
0.0850545
0.0482032
0.0366858
0.0161067
0.187775
0.41624
0.239511
0.256151
0.114227
0.0512766
0.049659
0.00638151
0.0252066
0.030472
0.0763893
0.131805
0.292949
0.062895
0.0207059
0.0184741
0.00574751
0.00195379
0.00715382
0.0846934
0.144474
0.446368
0.0617969
0.0113978
0.00908668
0.00210558
0.00197354
0.0357248
0.0608978
0.150117
0.494327
0.192269
0.0137873
0.0121402
0
0.0027537
0.000124686
0.00408719
0.0789963
0.500342
0.196706
0.00245163
0.00121624
0
0
0.00125055
0.0680615
0.300453
0.231427
0.0273788
0
0
0
0.00041685
0.00600567
0.117249
0.520325
0.0965464
0.0277322
0.00893662
0.00759049
0.000614298
0
0
0.0114429
0.204755
0.460578
0.0991989
0.000853491
0.000698311
0
0
0.00454197
0.0285025
0.364099
0.297333
0.0743275
0.00830983
0.00248846
0.00430008
0
0.018326
0.137742
0.213433
0.0849844
0.167517
0.039601
0.0250363
0.000758322
0.00146957
0.152178
0.104585
0.0835769
0.156462
0.238367
0.0340149
0.0149062
0.00781462
0.0591626
0.00568185
0.0266281
0.103332
0.072676
0.42026
0.107583
0.00985574
0.00530826
0
0.0406556
0.0174916
0.0396417
0.0999013
0.662496
0.184401
0.0341978
0.0200484
0.048781
0.314892
0.0442967
0.0444194
0.0593217
0.0585533
0.00442356
0.00588372
0.0222976
0.288476
0.226285
0.00545608
0.016853
0.00808803
0.0915884
0.0594486
0.0774243
0.0942774
0.530816
0.130602
0.0228909
0.0332099
0.058422
0.205576
0.0589034
0.0329696
0.0365422
0.199529
0.120958
0.0816866
0.0378867
0.0184195
0.36656
0.139768
0.100328
0.0446745
0.206972
0.0579012
0.0133042
0.0399126
0.0515332
0.148937
0.102191
0.0763783
0.07498
0.207052
0.0216129
0.016354
0.0713859
0.195359
0.322127
0.115855
0.0751445
0.082257
0.0777887
0.0170689
0.0364072
0.0589986
0.087298
0.417049
0.216301
0.082068
0.0194384
0.0335388
0
0.00598544
0.039658
0.280664
0.409635
0.351315
0.0932405
0.0133332
0.000982603
0.00531536
0.00523993
0.0296929
0.0651701
0.0733378
0.0388828
0.205569
0.111778
0.0228298
0.000759338
0.000748561
0.00424184
0.00628055
0.0211944
0.180024
0.638496
0.140156
0.00501098
0
0.000748561
0.00549313
0.0890238
0.114384
0.125837
0.0843493
0.0313303
0.000451802
0
0.000106937
0.000605977
0.0134411
0.12414
0.510299
0.274557
0.0588467
0.000271081
0
0
0
0
0.0266052
0.164778
0.308394
0.0272707
0
0.000375577
0.00212827
0.000779812
0.0148747
0.0829519
0.329991
0.479888
0.102157
0
0
0
0
0.000514413
0.0948999
0.361905
0.118649
0.0143549
0
0
0
0
0
0.183719
0.490436
0.181363
0.0638338
0.0158989
0.03307
0.0109409
0.00426057
0.0361764
0.0740675
0.177962
0.351289
0.148549
0.033116
0.0687326
0.0824871
0.178834
0.0427428
0.040268
0.0861038
0.188454
0.165631
0.0968392
0.00234559
6.81713e-005
0.000386304
0
0.126704
0.336688
0.248852
0.165605
0.0852982
0.00390932
0.0403432
0.105987
0.0108279
0.175679
0.326561
0.379579
0.312053
0.125603
0.0760014
0.226828
0.0339868
0.0677719
0.0749453
0.106022
0.0768608
0.0562871
0.035456
0.0988205
0.357951
0.201904
0.352804
0.139859
0.0667247
0.0402664
0.0307432
0.0436925
0.0735156
0.0878556
0.0639975
0.096067
0.162063
0.161351
0.0627764
0.0683573
0.0613413
0.0275488
0.153476
0.210355
0.34894
0.223199
0.279478
0.21422
0.2313
0.0175926
0.0157567
0.0809636
0.155903
0.426721
0.222563
0.0149155
0.00683119
0
0.00385908
0
0.00126794
0.0348587
0.412432
0.322561
0.0100344
0.0046332
0
0
0.00495397
0.0385161
0.151343
0.296258
0.168908
0.0929518
0.135832
0.105615
0.00109758
0.00298027
0.00150045
0.0309769
0.203159
0.408962
0.104266
0.0447332
0.0107786
0.00298027
0
0
0.048663
0.466445
0.261551
0.0159037
0.00274637
0
0
0.000843143
0.00260427
0.0864322
0.316738
0.136052
0.0236021
0.00248668
0.00393606
0
0.0016748
0
0.00605028
0.188592
0.554843
0.215826
0.00319352
0
0.0016748
0
0.00122531
0.0138
0.12438
0.271779
0.152538
0.0155172
0.0206446
0
0.00106229
0.00328116
0.0268001
0.0442472
0.297675
0.166597
0.0486759
0.025244
0.00173113
0.0473387
0.00122183
0.00336197
0.0154256
0.429617
0.313531
0.178166
0.14747
0.217931
0.00316763
0.00162927
0.00907208
0.0142438
0.087284
0.106607
0.0827121
0.0951951
0.0173309
0.0973917
0.000818937
0.00066162
0.000215617
0.0735822
0.154413
0.1914
0.315355
0.429745
0.18313
0.0134991
0.00195256
0.00745207
0.0722282
0.0552268
0.0502678
0.0615976
0.290484
0.288917
0.104665
0.060068
0.00946008
0.127369
0.0430464
0.0169035
0.0179885
0.201388
0.243475
0.00499671
0.00776117
0.0195208
0.0253609
0.0281348
0.062706
0.111896
0.487284
0.335879
0.0729701
0.0833224
0.100677
0.11674
0.0160565
0.0138419
0.103208
0.385378
0.112894
0.0825242
0.134343
0.0782468
0.207578
0.119874
0.050531
0.00796046
0.0554426
0.00873571
0.0140924
0.138654
0.234709
0.249295
0.311362
0.104097
0.00258715
0.00885659
0.157012
0.096841
0.15872
0.139711
0.153547
0.0726672
0.0625839
0.0618433
0.278703
0.0226206
0.026607
0.195176
0.249937
0.398727
0.226956
0.108075
0.00545347
0.123152
0
0
0.0283895
0.0846362
0.163087
0.198999
0.034225
0.00853261
0.000748074
0
0
0
0.0210429
0.258695
0.58355
0.0417653
0.0075066
0.000448845
0
0.000559682
0.0494205
0.118405
0.242252
0.134047
0.0214717
0.00274321
0.000106868
0
0.000932803
0.0116179
0.185979
0.456772
0.267049
0.0125892
0.00392607
6.41207e-005
0
0
0
0.00312437
0.186145
0.36308
0.0265363
0.000266753
0
0.000587195
0.00234878
0
0.0034477
0.254134
0.407172
0.0334825
0.0214068
0.024289
0
6.67146e-005
0.00449453
0.115759
0.436794
0.165097
0.00349535
0.000254807
0
0.00411037
0.0164415
0.00944772
0.163373
0.500685
0.15697
0.00465651
0.0159109
0.00743962
0.00746801
0.013003
0.000152688
0.00155728
0.0740072
0.204956
0.107864
0.113666
0.0837153
0.0111085
0.0418674
0.0196245
0.00143039
0.0669107
0.200693
0.342778
0.386137
0.210083
0.0850872
0.138944
0.0330119
0.139492
0.123842
0.0612259
0.0448055
0.0798819
0.0456251
0.233919
0.373078
0.0986251
0.0627929
0.0108369
0.0283132
0.146203
0.312409
0.320364
0.028983
0.0259481
0.0984344
0.090796
0.139022
0.121618
0.0550851
0.0733518
0.0414521
0
0.0229732
0.0881587
0.0862187
0.0799838
0.21875
0.4105
0.364368
0.00419642
0.0881208
0.0269458
0.18882
0.167665
0.145965
0.0450315
0.115531
0.0896546
0.111866
0.030812
0.0436353
0.158751
0.0829882
0.0530603
0.274578
0.421955
0.271751
0.0508308
0.000339424
0.00253875
0.0167278
0.0502819
0.0480833
0.192515
0.245045
0.121106
0.00060062
0.00237597
0.000124698
0.00440024
0.0297304
0.165859
0.245289
0.0699962
0.00923434
0.00237597
0.00906211
0.0086557
0.0114563
0.0103456
0.0259883
0.482776
0.365366
0.0802335
0.00505869
0.00162708
0
0
0.00120297
0.107579
0.53667
0.250537
0.0106729
0.00103278
0.0013933
0
0.0024424
0.016983
0.291136
0.312923
0.0100663
0
0.0013933
0.000338663
0
0.00807512
0.0227051
0.15805
0.196759
0.0349083
0.0132002
0.000338663
0.000199042
0
0.000523588
0.00403425
0.166854
0.538562
0.229007
0.0132796
0.000199042
0.000564439
0
0.00366511
0.00886785
0.0682633
0.369769
0.409796
0.0219625
0.000564439
0.0169315
0.00104752
0.0121324
0.0197668
0.0687218
0.0723051
0.128174
0.123684
0.0302465
0.109383
0.00733264
0
0
0.0895087
0.0786621
0.138316
0.266521
0.353997
0.0137777
0.00256643
0.0145177
0.0131837
0.030739
0.183227
0.594492
0.0912963
0.011126
0.0508271
0.017965
0.0195305
0.0399962
0.203946
0.166682
0.120753
0.0914249
0.0287904
0.0542175
0.00101845
0.0154636
0.0293172
0.0727576
0.0539395
0.0449231
0.0462284
0.143809
0.0523826
0.0116395
0.0510114
0.123881
0.368155
0.113925
0.0242846
0.0527043
0.131366
0.00638608
0.00249522
0.00829779
0.025329
0.185207
0.12149
0.0434181
0.0156078
0.00451329
0.000211335
0
0.0134222
0.0685519
0.734182
0.273081
0.0630543
0.0217593
0.00981233
0.0144696
0.00981002
0.0287948
0.0663069
0.263797
0.0744846
0.0187363
0.0244841
0.0983299
0.00426221
0.00270267
0.0581327
0.13707
0.289605
0.0905309
0.0313548
0.00801232
0.0544873
0.00040384
0
0.00857879
0.0431704
0.58062
0.162165
0.022245
0.0265706
0.0181241
0.00154523
0.00454202
0.0557443
0.146056
0.526435
0.213053
0.0338831
0.0155028
0.0108745
0.000604374
0.000825923
0.0323247
0.109535
0.13206
0.0326898
0.00761387
0.000361757
0
0.000362625
0.000946761
0.0498284
0.360265
0.174149
0.0212165
0.00204997
0.000602928
0
0.00423062
0.0158401
0.136969
0.137394
0.136757
0.0792209
0.0266519
0
0
0.00253837
0.0106691
0.382496
0.711371
0.060013
0.0034315
0.00375396
0
0
0
5.54313e-005
0.0369987
0.240931
0.173524
0.0117384
0.000142215
4.7405e-005
0
0.00125638
0.00502551
0.0427795
0.333839
0.266412
0.0122493
0
0.00073235
0.000488234
0
0.000143118
0.152453
0.44152
0.0389253
0.000415497
0
0
0
0
0
0.137052
0.60484
0.249042
0.000692495
0
0
0
0.0452893
0.082539
0.0802748
0.319182
0.120735
0.0114839
0.00756739
0.0112147
0.0268895
0.177991
0.214017
0.1198
0.192248
0.0299425
0.0213522
0.0658675
0.0638034
0.197263
0.00407906
0.0160859
0.0885158
0.525081
0.290772
0.0776527
0.0510939
0.00303882
0.00902073
0.0410435
0.0707576
0.0903406
0.282247
0.170758
0.206755
0.281798
0.0727969
0.098383
0.181745
0.0644885
0.0758367
0.0585965
0.0475069
0.0558289
0.197504
0.122138
0.183306
0.115467
0.0810939
0.103618
0.0633136
0.0264524
0.199876
0.384768
0.212201
0.0936399
0.153076
0.0569242
0.00974243
0.0253995
0.0770042
0.0628139
0.207227
0.271752
0.141587
0.237963
0.217883
0.161498
0.0117327
0.0131012
0.0782562
0.296523
0.300591
0.0519194
0.0250307
0.0155719
0.0162955
0.00666598
0.00485793
0.223774
0.274819
0.0415718
0.0110624
0.00293493
0.00127754
0.0017255
0
0.0157433
0.352483
0.484848
0.0271389
0.00158034
0.0493538
0.0493033
0.058922
0.000835592
0.000535659
0.108593
0.263194
0.0942768
0.007659
0.00853033
0.00533467
0.00837764
0
0.000892764
0.182769
0.541993
0.178537
0.0011932
0
0
0
0
0.0128578
0.152805
0.31228
0.0165903
0
4.27435e-005
0
0
0
0.0022745
0.113448
0.37028
0.0429116
4.27435e-005
0
0
0
0
0.000128524
0.0648621
0.531488
0.161286
0
0
0
0
0
0
0.04797
0.531488
0.277362
0.00391488
0.00142352
0.00108154
0.0023527
0.00132385
0.00200933
0.0447406
0.278217
0.112436
0.00384554
0.0119205
0.00757079
0.00509924
0.013239
0.0326551
0.0266489
0.0425526
0.0798083
0.0213587
0.00148761
0.000634053
0.0003361
0.000189122
0.0012056
0.0206937
0.427987
0.536284
0.0439984
0.0238728
0.00443837
0.000728462
0.00391358
0.00763355
0.0117519
0.078274
0.537198
0.232999
0.0142799
0.00591523
0.00464536
0.0283141
0.128346
0.0926785
0.0504836
0.0246742
0.0219973
0.00376275
0.00205816
0.00480238
0.0814278
0.49326
0.252655
0.132264
0.0398019
0.028093
0.0749277
0.0113881
0.020422
0.0105954
0.0312906
0.0644677
0.0448346
0.23033
0.409914
0.203218
0.0764478
0.0429974
0.0341831
0.163188
0.2602
0.210139
0.0590471
0.315555
0.000393932
0.00843511
0.0276814
0.0549043
0.3981
0.204517
0.0628879
0.0585505
0.0537784
0.0124102
0.0532694
0.0697293
0.0692488
0.320727
0.362984
0.0656159
0.0607728
0.0411137
0.0952977
0.165818
0.0743315
0.027047
0.100352
0.149348
0.121222
0.0509676
0.165139
0.10958
0.458758
0.192632
0.0285957
0.0560075
0.185947
0.0471088
0.0740626
0.100025
0.00780608
0.0729025
0.161071
0.0251803
0.036194
0.0762149
0.0279008
0.0163163
0.00543878
0.00157796
0.066139
0.462829
0.211328
0.00724464
0.00166238
0.00383662
0.00233091
0.000776969
0.0530341
0.30246
0.23067
0.00414643
0.00487388
0.0390742
0.0152586
0.0271939
0.00906464
0.00955463
0.245406
0.6453
0.0674281
0.000513136
0.000204761
0.0019311
0.00388484
0.00129495
0
0.0211935
0.222624
0.176551
0.00820262
0
0
0
0
0
0.0544577
0.25335
0.427612
0.0953599
0.00159577
0
0
0
0
0.115293
0.450402
0.0998095
0.00195086
0.0038413
0
0.00060339
0.00112058
0.0129222
0.238517
0.513
0.239064
0.0364237
0.0380595
0.0319587
0.0148208
0.00784407
0.00689949
0.0195773
0.119706
0.485278
0.216458
0.0718988
0.0580425
0.000372583
0.00121756
0.0712431
0.0236658
0.0258795
0.197874
0.159165
0.187459
0.255691
0.103965
0.0523749
0.0339797
0.0811551
0.218406
0.336944
0.125798
0.0792824
0.0903266
0.0275254
0.0395662
0.122666
0.0142343
0.024571
0.205837
0.174773
0.202961
0.162619
0.283958
0.106607
0.245283
0.0924632
0.0550812
0.158156
0.212706
0.0511548
0.0932829
0.286875
0.239339
0.359352
0.2751
0.248213
0.0361405
0.0530342
0.0196065
0.132065
0.307101
0.131232
0.179306
0.0954178
0.0330487
0.0948939
0.0611267
0.00613531
0.00352661
0.0317676
0.149268
0.149041
0.0479339
0.050632
0.0216843
0.0479171
0.000876472
0.00587768
0.0412864
0.10386
0.0609175
0.0451278
0.0724851
0.00228943
0.00576603
0.033628
0.138853
0.0838786
0.00911036
0.0273879
0.00808097
0.0114269
0.00381571
0.00682907
0.0907648
0.775131
0.326609
0.0137626
0.0281224
0.00810433
0.0177541
0.016026
0.0385518
0.0153623
0.0163717
0.00817709
0.0103945
0.0645113
0.00623471
0.0247089
0.0307142
0.0554886
0.0660968
0.336067
0.195124
0.0259384
0.00200438
0.000190123
6.33744e-005
0.000206264
0.000302375
0.0118019
0.438892
0.206777
0.00183519
0
0
0
0
0
0.00225291
0.375339
0.346637
0.0315033
0.00910524
0.000316872
0.00333984
0.00304325
0.0110932
0.0184135
0.29128
0.226863
0.00715637
0
0
4.03211e-005
0.000228486
0.00571439
0.00546072
0.348022
0.438892
0.0910623
8.8307e-005
0
0
0
0
0.00032279
0.118987
0.330161
0.0880909
0.00303392
0
0
0
0
0.00020418
0.0179925
0.316747
0.17301
0
0
0
0
0.000211821
0.0021271
0.171049
0.515643
0.181754
0.00100348
0
0
0
0
0.00117228
0.106412
0.515643
0.286676
0.0287583
0.00121316
0.00283071
0
0.000559929
0.00291312
0.00275547
0.133758
0.261583
0.175183
0.0311251
0.00829653
0
0.0039195
0.0177444
0.0177297
0.0205542
0.246894
0.0577956
0
0
0
0
0
0.0143263
0.281657
0.490064
0.362508
0.00897276
0.000511241
0
0
0
0
0.0303285
0.555723
0.185493
0.143013
0.0217017
0
0.00186767
0.0117653
0.0200795
0.00463628
0.0829557
0.127254
0.347269
0.0849285
0
0
0.00639512
0.00342971
0.00628595
0.0171512
0.476885
0.0868963
0.00309738
0
0
0
0
0.00980696
0.256554
0.549176
0.334408
0.0255726
0
0
0
0
0.0087964
0.112875
0.0536073
0.261199
0.113629
0.00118815
0
0.0019168
0.000212978
0.00332698
0.00110899
0.0130508
0.25512
0.408195
0.0500664
0
0
0
0.000475283
0.000158428
0.295751
0.35911
0.0719593
0.00566127
0
0
0
0.0142163
0.0453363
0.127635
0.381783
0.471138
0.109661
0.000394524
0.00440121
0.00324837
0.0227567
0.0172125
0.00176725
0.146054
0.453471
0.145298
0.00860229
0.0112523
0
0.002865
0.00600982
0.0761398
0.186444
0.331933
0.124703
0.0280642
0.0526755
0.0440755
0.031454
0.0324213
0.0133267
0.162993
0.404091
0.186126
0.0255317
0.0236425
0.00956624
0.00891455
0.0166301
0.0761661
0.15694
0.455106
0.212378
0.0423226
0.0296151
0.0120362
0.0186229
0.0387476
0.163256
0.0927787
0.0926266
0.0536983
0.038526
0.0423788
0.0859117
0.0417881
0.0795802
0.185179
0.0286324
0.0123458
0.0408439
0.0562863
0.141434
0.0935026
0.307244
0.222978
0.278747
0.220239
0.33546
0.0608276
0.00593108
0.00559004
0.0146676
0.030194
0.0567194
0.367241
0.158745
0.0948199
0.00606601
0
0.0566264
0.0807405
0.39682
0.272634
0.163772
0.0933558
0
0
0.0198118
0
0
0
0.159792
0.062685
0.0133365
0
0
0.129659
0
0
0
0.0660087
0
0
0
0
0
0
0
0
0
0
0
0
0
0.0764638
0
0
0
0
0.0122772
0.00161542
0.0106311
0.0243258
0.10612
0.0538362
0.0216675
0.0187499
0.00421608
0.109826
0.00269236
0.0816839
0.105579
0.187141
0.208896
0.199507
0.187671
0.0486917
0
0
0.00386036
0.0540215
0.092167
0.0314392
0.0223244
0.0112499
0
0.13062
0.00995335
0.0868653
0.643875
0.350983
0.0852896
0.125495
0.0787494
0.0700413
0.0496944
0.00265014
0.0110235
0.0198332
0.0381605
0.053937
0.111367
0.149774
0.0474421
0.0598704
0.00423743
0.000507407
0.00670962
0.0327408
0.0545848
0.214383
0.730181
0.159373
0.156554
0.012233
0.0331081
0.172039
0.0450067
0.0185608
0.0203462
0.0291081
0.150162
0.189775
0.0118597
0.01201
0.0844211
0.11544
0.0632779
0.0972038
0.17197
0.300563
0.00755526
0.000372418
0
0.00302164
0.0133293
0.04564
0.201025
0.519865
0.0794924
0.00216793
0.00145647
0
0.00235365
0.0135193
0.0323047
0.205054
0.549649
0.228895
0.0178435
0.000620696
0
0.0324756
0.149282
0.14154
0.126396
0.109863
0.0499459
0.0115728
0.0476925
0.0132679
0.0180933
0.138607
0.213406
0.186651
0.203824
0.101975
0.0973399
0.00579069
0
0.000752553
0.00308737
0.00527903
0.0319712
0.244628
0.406456
0.386968
0.00549706
0
0
0
0.00216397
0.0186211
0.0498259
0.516022
0.13063
0.104156
0.0173125
0.00548842
0.0263092
0.0589773
0.0563527
0.120599
0.196025
0.30118
0.0635627
0.00769549
0.00773443
0.0387511
0.026352
0.0967811
0.114176
0.28758
0.341984
0.0332413
0.00291716
0
0
0.0057022
0.067864
0.0530405
0.347667
0.370811
0.305191
0.055538
0.0298236
0
0.00342132
0.0598005
0.0417108
0.189029
0.139004
0.0668461
0.027024
0.00875551
0.0388228
0.0596852
0.252859
0.11515
0.213012
0.112363
0.379168
0.130196
0.0508517
0.0268572
0.0902069
0.246715
0.0727739
0.0986745
0.412321
0.369319
0.0803538
0.0451708
0
0.0215288
0.0237486
0.0671582
0.135984
0.272063
0.21698
0.245944
0.119172
0.0015874
0.0496645
0.0356048
0.111793
0.126601
0.209828
0.239048
0.111025
0.0671524
0.0332524
0.167495
0.119037
0.0720774
0.132909
0.204799
0.0658041
0.0655912
0.0879146
0.0485649
0.17079
0.111922
0.0915634
0.240537
0.0492095
0.0683663
0.197899
0.168365
0.0205379
0.0343752
0.0187788
0.0177523
0.0326199
0.0615721
0.115524
0.455724
0.354824
0.03809
0.0192318
0.0210886
0.0352104
0.0179154
0.0727091
0.106968
0.155818
0.169034
0.0944171
0.0350929
0.0438263
0.0156893
0.062001
0.231844
0.309091
0.354526
0.352648
0.0885203
0.0115114
0.0360666
0.0537956
0.0152244
0.131405
0.196994
0.266439
0.0852277
0.00552677
0.000263281
0.0126915
0.0355197
0.0176202
0.203474
0.288313
0.0819032
0.00762763
0
0.0130857
0.038314
0.175184
0.116421
0.308558
0.284254
0.140101
0.0807582
0.00964588
0.00474593
0.0476466
0.0507504
0.0392522
0.335404
0.394607
0.0500104
0.0308019
0
0.00284756
0.0514206
0.11404
0.363781