0.00115351
0.0130559
0.111998
0.27604
0.373914
0.0354527
0.0117624
0.00672229
0.000911208
0.00169614
0.0216812
0.226371
0.335775
0.173943
0.0359683
0.00537192
0.00179064
0
0.00702093
0.0680775
0.134411
0.294198
0.289624
0.0533406
0.0172606
0.0280982
0.0101591
0.00814322
0.130932
0.278283
0.289904
0.103685
0.0416845
0.010272
0.0156233
0.00630235
0.0147684
0.0387532
0.175208
0.298076
0.14902
0.0678659
0.0256408
0.0132739
0.00139341
0.0485313
0.0903159
0.0771437
0.0809307
0.165724
0.0560546
0.0478236
0.0476555
0.00975389
0.0667465
0.258558
0.37317
0.178834
0.0582268
0.0612648
0.0413595
0.0166227
0.0106917
0.241324
0.311781
0.286759
0.0707547
0.0330794
0.0365678
0.0383343
0.0320721
0.0809189
0.052388
0.0867306
0.0639452
0.0295999
0.0906643
0.0664639
0.0733819
0.0354286
0.00713644
0.0511272
0.144094
0.141144
0.0796621
0.0675246
0.0815839
0.0570764
0.0176547
0.028943
0.325232
0.219415
0.192677
0.0570459
0.0148948
0.0362454
0.018623
0.0142203
0.0914524
0.370531
0.253349
0.241766
0.133937
0.0175889
0.0428955
0.0114124
0.0104012
0.191491
0.02651
0.0807558
0.12993
0.0656154
0.0637478
0.027873
0.0416948
0.0196954
0.0381593
0.107624
0.153591
0.219058
0.0864173
0.0854421
0.0232493
0.0577138
0.0569387
0.110214
0.264654
0.135757
0.138002
0.0884444
0.0438452
0.0121909
0.0162767
0.0227902
0.166493
0.285233
0.405838
0.306535
0.111901
0.0564506
0.00654418
0.0399621
0.0332844
0.141151
0.136055
0.0843472
0.0818268
0.0521865
0.0114946
0.00510308
0.0547506
0.104404
0.168479
0.238452
0.0998425
0.0404195
0.0497
0.053784
0.0248562
0.0817378
0.223287
0.21916
0.280286
0.265912
0.163097
0.0305612
0.00983329
0.00898027
0.0451993
0.046986
0.108704
0.420123
0.0844891
0.0493492
0.00647686
0.0896399
0.099361
0.120651
0.131756
0.217088
0.216101
0.106089
0.0544201
0.00667905
0.0452855
0.0690925
0.105563
0.112199
0.0939491
0.276355
0.0865881
0.141413
0.0199243
0.00536694
0.0629981
0.120969
0.103831
0.0944563
0.146786
0.0150424
0.0099467
0.00095415
0.093815
0.139311
0.221764
0.21053
0.127721
0.0871434
0.0354104
0.0366994
0.00284633
0.03951
0.107764
0.267008
0.419044
0.198285
0.083488
0.131256
0.197129
0.0269122
0.0358013
0.0268624
0.0443082
0.118295
0.0449561
0.0483675
0.175207
0.113223
0.00830176
0.177954
0.0350523
0.0290891
0.115884
0.118812
0.0800426
0.0533681
0.0400973
0.00342674
0.0457185
0.0600544
0.186504
0.363703
0.221751
0.0688961
0.103036
0.0969297
0.000489534
0.0908328
0.179406
0.260036
0.28096
0.165825
0.0942535
0.0746631
0.0196845
0.000560245
0.0823987
0.05168
0.0233178
0.088553
0.236215
0.0899491
0.059868
0.0566779
0
0.0435079
0.214097
0.0534034
0.27213
0.308939
0.0825047
0.0720405
0.0901257
0
0.0255171
0.114009
0.0684306
0.141053
0.2076
0.0811146
0.0772009
0.0631384
0
0.0284778
0.18616
0.0855288
0.37865
0.281683
0.0761303
0.0485456
0.110712
0
0.0762793
0.230273
0.0215212
0.191874
0.226121
0.112401
0.0776659
0.262108
0.0682203
0.0780004
0.0938031
0.137931
0.329902
0.221937
0.0929471
0.0782536
0.0816176
0
0.0818389
0.0790015
0.0320688
0.237259
0.164254
0.147922
0.109186
0.170113
0.028685
0.109953
0.0199841
0.0696299
0.100041
0.141568
0.0376193
0.119209
0.0608882
0.213492
0.127206
0.059761
0.0555071
0.110128
0.0774336
0.0458219
0.196603
0.27741
0.248383
0.137909
0.037267
0.0447327
0.0319834
0.047461
0.0849439
0.121219
0.0451154
0.183453
0.277544
0.0616364
0.140959
0.136222
0.10962
0.0792982
0.287876
0.176316
0.219236
0.262832
0.0557926
0.108592
0.0892892
0.122939
0.0835491
0.166444
0.316627
0.0852469
0.0417151
0.0221457
0.0433639
0.00674611
0.0199019
0.122896
0.253197
0.308491
0.053966
0.000254647
0.00233856
0.00810813
0.00160149
0.0396959
0.13731
0.240119
0.195525
0.0648966
0.0633328
0.0434217
0.0741077
0.0503332
0.107743
0.113596
0.37873
0.375772
0.0542263
0.00313623
0.0103272
0.0101302
0.00535101
0.0443648
0.162234
0.177183
0.138518
0.0414418
0
0
0
0
0.0539096
0.279047
0.172393
0.138215
0.108222
0.000508806
0
0
0.00549604
0.0859098
0.142894
0.344291
0.224473
0.0283223
0.000467028
0
0
0.0103346
0.0345946
0.43297
0.322309
0.169589
0.100836
0
0
0
0.0180094
0.063591
0.25338
0.142163
0.0502313
0.0559095
0.00132662
0
0
0.0143299
0.0908962
0.314944
0.253685
0.110751
0.0150463
0.000795972
0
0.00264739
0.00973255
0.113693
0.351958
0.246373
0.114418
0.0578856
0
0
0.00700095
0.0140937
0.0610938
0.385641
0.222255
0.115872
0.0146966
0
0.00511062
0.0566725
0.034045
0.230994
0.179538
0.206826
0.129172
0.00321078
0.00140195
0.00779215
0.00310764
0.00307774
0.0606214
0.194938
0.0847589
0.0482051
0
0.0167373
0.0625479
0.0594405
0.0563626
0.20213
0.212331
0.189145
0.140512
0.0242677
0.0059477
0.0152684
0.0396613
0.0137056
0.13499
0.366816
0.5
0.0915103
0.0145606
0.0416339
0.0169036
0.0210449
0.0643884
0.205711
0.0408335
0.0274924
0.0241477
0.015977
0.0181937
0.0295275
0.0668677
0.0962822
0.11738
0.0393512
0.117483
0.110241
0.0652816
0.0185106
0.0232875
0.0702706
0.122432
0.108267
0.168731
0.45892
0.0659574
0.0711508
0.0175403
0.00316556
0.00850555
0.0716499
0.111935
0.274568
0.499386
0.220935
0.266507
0.0110337
0.00778732
0.0155749
0.0380223
0.0987497
0.0667126
0.0926307
0.0484723
0.0211531
0.00527387
0.0379198
0.115607
0.0914896
0.0925124
0.040258
0.026066
0.0146599
0
0.0318388
0.163706
0.254737
0.0955659
0.0428977
0.245796
0.205361
0.0904749
0.0832653
0.0329136
0.0743357
0.154281
0.0837443
0.165008
0.0914031
0.0312827
0.00563672
0
0.19877
0.493418
0.396884
0.140577
0.0970856
0.047224
0.0664206
0.0351158
0.00339439
0.0567047
0.125808
0.106892
0.0676216
0.0162105
0.0667267
0.134679
0.0878035
0.00759823
0.0696469
0.0580202
0.0470707
0.0872361
0.0563646
0.0534394
0.0549137
0.0487954
0.0763861
0.235188
0.375178
0.177873
0.0539879
0.00359735
0.18278
0.268179
0.462161
0.258847
0.0911113
0.0265309
0.0250003
0.0238063
0.0771755
0.0290802
0.0462682
0.0500877
0.00456913
0.0425103
0.0170942
0.0181283
0.0529163
0.0484649
0.0312578
0.0453827
0.0672026
0.0481499
0.0442445
0.0306672
0.0221023
0.0419967
0.0409067
0.260025
0.127367
0.246808
0.0601844
0.0252405
0.0172069
0.0137802
0.161313
0.221786
0.322628
0.0290477
0.0735635
0.0757861
0.0461635
0.0877086
0.0227866
0.305466
0.580874
0.0625398
0.0313146
0.0461488
0.160829
0.353206
0.0555537
0.164148
0.0485829
0.0383275
0.0420377
0.185213
0.156881
0.0948049
0.129344
0.104601
0.19125
0.100173
0.0483656
0.270377
0.075116
0.0611524
0.0768837
0.155538
0.0406327
0.156948
0.0644548
0.110052
0.24226
0.134382
0.121862
0.0262258
0.0309241
0.189436
0.306742
0.137711
0.0912686
0.0386232
0.187032
0.173589
0.0432102
0.0130411
0.0598839
0.0429811
0.0514872
0.0445225
0.0290973
0.212521
0.396318
0.0696552
0.00852385
0.0233419
0.0104634
0.00683625
0.0166563
0.0734887
0.144404
0.288034
0.0192766
0.00306859
0.0809824
0.164808
0.111364
0.0648701
0.0557666
0.160177
0.476429
0.0320316
0.00511431
0.0367829
0.130641
0.205329
0.0889316
0.0421295
0.19658
0.241747
0.0170635
0.00121631
0.00511065
0.00513585
0.0313527
0.0183919
0.181535
0.207714
0.172531
0.0588992
0
0.00638162
0.00301477
0.0475209
0.0402015
0.133474
0.135799
0.218671
0.00558846
0.000729785
0.0357746
0.0417546
0.123151
0.137425
0.423793
0.401725
0.210238
0.0242895
0
0.0446713
0.0211034
0.0497075
0.191538
0.096052
0.104522
0.119797
0.0264483
0.00087655
0.00258807
0.00457584
0.0180394
0.0276899
0.232234
0.166495
0.100195
0.0228561
0.00703473
0.0175252
0.0355768
0.0340431
0.0910422
0.199853
0.287259
0.278693
0.0288596
0.00613585
0.0181165
0.00189435
0.0260345
0.0621194
0.422232
0.44748
0.303314
0.049261
0.0492431
0.118429
0.0317101
0.041052
0.0506026
0.101795
0.0982841
0.0689338
0.0345542
0.00318237
0.00735936
0.0128369
0.00486868
0.0246481
0.146755
0.23345
0.077406
0.044579
0.00573596
0.00275298
0.00412946
0.0126531
0.0194113
0.198742
0.315599
0.10783
0.0675974
0.0173119
0.0293926
0.0158434
0.00326626
0.00810265
0.463249
0.632658
0.119103
0.0860522
0.00539924
0.00172752
0.00259128
0.0172214
0.0137954
0.103847
0.220423
0.0176356
0.0524832
0.00780964
0
0
0.025897
0.0514584
0.153791
0.152873
0.0351861
0.126256
0.0100891
0.0139454
0.0169934
0.0820511
0.128206
0.41437
0.452636
0.015288
0.0392912
0.0118988
0.0311243
0.000587839
0.0607012
0.120726
0.252519
0.21513
0.0147203
0.0769801
0.161473
0.237314
0.0625551
0.291331
0.262985
0.141505
0.0534364
0.037042
0.0615932
0.0961891
0.0591045
0.0663764
0.079111
0.109375
0.0364467
0.00679079
0.0202959
0.0649681
0.273083
0.269628
0.090766
0.0473218
0.0406045
0.090911
0.0208988
0.0386778
0.0992128
0.345278
0.204645
0.100759
0.176455
0.100058
0.0247112
0.0128563
0.0623726
0.397279
0.494058
0.112954
0.0332643
0.026108
0.00912558
0.0101314
0.00509421
0.0160416
0.0734067
0.101605
0.109755
0.0255576
0.0168949
0.00258255
0.0681304
0.0409685
0.175069
0.264149
0.0920763
0.00824818
0.00984249
0.010291
0.0206915
0.00141807
0.0255651
0.0502172
0.303579
0.1599
0.0379663
0.00759043
0.0165038
0.0020145
0.0365515
0.0298828
0.267705
0.696202
0.27676
0.00310248
0.00522593
0.0101384
0.0178233
0.185527
0.0523623
0.167178
0.144489
0.0361377
0.00211321
0.0105932
0.0942348
0.115611
0.297659
0.0838571
0.0277205
0.0254234
0.00565038
0.0126828
0.0176557
0.170761
0.3687
0.127109
0.0942783
0.289817
0.424462
0.14882
0.00453892
0.0222814
0.054684
0.074449
0.230781
0.22419
0.102293
0.151186
0.0408799
0.0317724
0.0863565
0.149317
0.189809
0.212039
0.102176
0.0245307
0.00541035
0.012761
0.00619469
0.0603349
0.148214
0.117393
0.208806
0.078527
0.0356225
0.00989502
0.0116142
0.0448053
0.157908
0.213883
0.170418
0.0651524
0.0717662
0.0251167
0.0430969
0.0441362
0.064361
0.142425
0.305311
0.210336
0.0751363
0.274835
0.366775
0.0639765
0.0584284
0.0754395
0.0930332
0.20858
0.140007
0.039096
0.0608984
0.0606314
0.00965103
0.00687891
0.0104146
0.0850178
0.0833229
0.0647342
0.0836418
0.142332
0.0811037
0.00579062
0.00386041
0.00632163
0.0664091
0.184061
0.0773281
0.0303358
0.33528
0.22736
0.0344709
0.0143477
0.0050317
0.0197864
0.0439636
0.0605442
0.208279
0.676178
0.23814
0.0785856
0.0100047
0.000163623
0.0123035
0.0774706
0.0576449
0.0915172
0.0801899
0.0384548
0
0.00330797
0.00473505
0.00684646
0.0418924
0.0635705
0.166852
0.204485
0.0665399
0.0112181
0.0231558
0.00591261
0.0027932
0.00396147
0.0585786
0.17033
0.417153
0.127002
0.0183295
0.00971252
0
0.000298294
0.0132577
0.0452051
0.265482
0.694719
0.122503
0.0349058
0.0703107
0.0149634
0
0.0154827
0.0421465
0.0852297
0.179062
0.0604009
0.00890091
0.00603683
0.0023477
0.000164125
0.0152063
0.0122856
0.188718
0.358448
0.0664666
0.00597813
0.00638137
0.0192405
0.00937987
0.0253438
0.00712964
0.115462
0.411672
0.071681
0.0139487
0.0275688
0.028015
0.0201163
0.047427
0.00907813
0.332794
0.634382
0.0434529
0.00136666
0.00808603
0.0208883
0.0375441
0.0635815
0.0548248
0.138441
0.396537
0.0440015
0.011667
0.00426354
0.0110296
0.00937869
0.00342948
0.00110216
0.300834
0.52227
0.032432
0.0140482
0.0016903
0.00135676
0.00133981
0.00155781
0.00168379
0.231254
0.41371
0.0206718
0
0
0.00156683
0.0131524
0.0549681
0.0626109
0.248692
0.294808
0.0179093
0.00291912
0.00087568
0.00337247
0.00455688
0.0512378
0.0501707
0.263259
0.239735
0.00250119
0.0139838
0.0494564
0.0375939
0.00115244
0.010821
0.0410186
0.106452
0.0726867
0.00190308
0.0947307
0.346644
0.167319
0.0185486
0.0639366
0.0735286
0.160322
0.0688366
0.00623213
0.0684713
0.133723
0.0243312
0.000691467
0.00984203
0.0515064
0.0346736
0.00779712
0.0123196
0.354112
0.652416
0.0438736
0.00233134
0.00415455
0.0295201
0.0240607
0.00832709
0.00758132
0.134369
0.369689
0.1098
0.0299102
0.0417109
0.0194296
0.0103499
0.00909735
0.0206361
0.24284
0.279985
0.0113706
0.01258
0.0407614
0.00172417
0.0144228
0.00776615
0.0318568
0.357061
0.526686
0.0159424
0.00492493
0.00308879
0.00157085
0.00943692
0.0201972
0.0473136
0.331376
0.268872
0.00684992
0.024457
0.0402398
0.000751728
0
0.0183729
0.0263637
0.23834
0.169642
0.0115298
0.0054687
0.0395502
0.00134384
0.0166112
0.0247994
0.161461
0.512098
0.371405
0.0557095
0.0129727
0.00690278
0.00873277
0.00150262
0.0178757
0.0140476
0.142829
0.199997
0.077103
0.0405115
0.0484484
0.00146886
0.180902
0.0380512
0.0960089
0.163319
0.385091
0.285509
0.0611606
0.0650179
0.0315142
0.0362916
0.0732807
0.269843
0.405862
0.23214
0.0544443
0.0391754
0.0102078
0.0220831
0.0464845
0.104951
0.140457
0.182079
0.0972008
0.0812169
0.121668
0.103659
0.089524
0.229083
0.129216
0.294651
0.173187
0.17358
0.150932
0.0701348
0.0537357
0.074054
0.0759776
0.106053
0.188787
0.0868387
0.0509673
0.0606384
0.10478
0.211702
0.29916
0.0114945
0.0160605
0.0445741
0.129708
0.0960876
0.0939088
0.0976122
0.102348
0.0753313
0.00585656
0.135996
0.324
0.144122
0.1398
0.108017
0.0665069
0.0352744
0.00907252
0.0794692
0.0558132
0.0917804
0.133359
0.12533
0.0962511
0.249046
0.0712843
0.0446008
0.0113527
0.0197045
0.141218
0.147266
0.303415
0.228966
0.487116
0.0946427
0.00694075
0.0131727
0.189709
0.206637
0.0563613
0.0522064
0.0358512
0.0148266
0.0141257
0.0290907
0.0707236
0.368058
0.277076
0.265223
0.150444
0.0234787
0.0269897
0.0185541
0.0495055
0.0416038
0.0386071
0.113116
0.0797921
0.130962
0.0794004
0.118965
0.111678
0.0488401
0.0722741
0.10177
0.170994
0.355003
0.330223
0.0915133
0.206835
0.232762
0.155687
0.0547707
0.31136
0.141473
0.13325
0.0879719
0.00567509
0.0129131
0.0114071
0.0438229
0.147033
0.395261
0.0644336
0.169567
0.170096
0.025655
0.0059363
0.0447236
0.0720021
0.0133255
0.156729
0.073817
0.191104
0.171243
0.0549596
0.136457
0.175543
0.165008
0.0668638
0.284418
0.0517511
0.236366
0.316068
0.0868058
0.109199
0.185272
0.219434
0.122049
0.226127
0.0526387
0.0764991
0.0839364
0.100973
0.0469747
0.146077
0.0315106
0.305695
0.233085
0.0701781
0.0149134
0.0230721
0.114018
0.0825185
0.174013
0.114123
0.121525
0.319721
0.0867696
0.107788
0.128957
0.132637
0.110418
0.166776
0.107466
0.332121
0.247473
0.179306
0.0244469
0.0221139
0.149625
0.126338
0.236211
0.24418
0.248238
0.134756
0.0331553
0.005549
0.00968008
0.068551
0.04094
0.149243
0.144055
0.307349
0.203422
0.0189665
0.0191831
0.0249341
0.0469017
0.0172755
0.158187
0.119396
0.289295
0.153896
0.133172
0.0178185
0.0584083
0.160493
0.089487
0.125806
0.224262
0.263115
0.334699
0.0974239
0.130256
0.172476
0.199169
0.168691
0.220213
0.122027
0.149305
0.0573926
0.0145466
0.0846807
0.0772411
0.020547
0.0184364
0.0760644
0.0997412
0.0180263
0.00355075
0.0192411
0.351064
0.400121
0.0180152
0.0307274
0.0477643
0.0524846
0.134419
0.158499
0.0563581
0.124266
0.139076
0.137182
0.0664502
0.173778
0.0990657
0.0265088
0.0526048
0.046518
0.332336
0.541685
0.124193
0.0512123
0.0786771
0.0433487
0.00174581
0.000940051
0.0183503
0.298884
0.313876
0.00160059
0.00523846
0.00174615
0
0.00174799
0.0138736
0.0517231
0.318397
0.127591
0.0169951
0.0438794
0.00828358
0
0
0
0.0119599
0.364102
0.445129
0.0208866
0.00873076
0.00291025
0
0.000100072
0.00190137
0.0257747
0.408197
0.301591
0.0942014
0.0486151
0.00338825
0
0.00524793
0.0317158
0.0406148
0.199512
0.11611
0.159722
0.154018
0.0341949
0.00357868
0.251155
0.0351413
0.066012
0.0404096
0.175295
0.287891
0.12137
0.155582
0.0580885
0.00238567
0.00453082
0.0214943
0.227375
0.306333
0.351256
0.173091
0.0183016
0.00214721
0.03701
0.00206875
0.00506274
0.0943082
0.283768
0.232265
0.148387
0.145767
0.0324709
0.301689
0.107379
0.210122
0.0370049
0.0617982
0.0894947
0.0896538
0.146759
0.138406
0.197951
0.147038
0.179751
0.01041
0.00348473
0.0109478
0.0608246
0.222517
0.379088
0.0972851
0.0370206
0.0252211
0.077579
0.116581
0.021855
0.0932393
0.174071
0.125899
0.245108
0.149212
0.0775273
0.0200001
0.0139345
0.00141119
0.0463554
0.0967156
0.341882
0.0499233
0.0520733
0.0819469
0.0152925
0.0198451
0.0486576
0.239638
0.133176
0.107905
0.0241839
0.0940031
0.0303627
0.0527883
0.090826
0.187068
0.513462
0.099431
0.0744491
0.142203
0.0396155
0.0441581
0.00874114
0.0108855
0.0677458
0.110394
0.193224
0.267755
0.144579
0.160869
0.049619
0.12374
0.106344
0.136515
0.20239
0.18733
0.18639
0.0282468
0.0565968
0.0572443
0.139934
0.0687897
0.0706827
0.18343
0.11114
0.0415047
0.0390006
0.0154258
0.0456662
0.215569
0.123094
0.130867
0.242008
0.400089
0.173369
0.0168078
0.0904349
0.0757285
0.175504
0.104344
0.0764631
0.0701186
0.15894
0.0717139
0.0319739
0.0192212
0.0437699
0.152241
0.0660564
0.138359
0.140836
0.450394
0.225322
0.0027943
0.0282558
0.00497697
0.039023
0.0413458
0.0677612
0.178053
0.26132
0.145345
0.00946115
0.144832
0.0349084
0.0352181
0.0870977
0.099842
0.338518
0.313359
0.153733
0.0128424
0
0.000796932
0.00822309
0.00306296
0.0395701
0.185629
0.287268
0.0958364
0.0140844
0.0250057
0.00424678
0
0.000365902
0.0322461
0.425386
0.419959
0.089911
0.0366421
0.133323
0.0308637
0.00918005
0.0193523
0.0278568
0.180471
0.175445
0.0353934
0.130328
0.100566
0.0365465
0.00228282
0.00192193
0.0148647
0.155724
0.224708
0.113912
0.00928081
0.0209257
0.00251056
0
0.0021965
0.0184592
0.230782
0.335473
0.0267935
0.029859
0.0122029
0.000358652
0
0.00352821
0.030483
0.320786
0.676144
0.042224
0.150013
0.063852
0.0351262
0.00415796
0.0172098
0.0490722
0.0999639
0.106407
0.116758
0.0905143
0.0952272
0.0312163
0.0396329
0.0544863
0.0879997
0.166935
0.185788
0.110336
0.039532
0.00939107
0
0
0.00062828
0.0196182
0.22563
0.645714
0.0674197
0.0479522
0.0175655
0.00517753
0.00435993
0.0221457
0.0151272
0.162241
0.476784
0.132331
0.0710214
0.0896174
0.0291724
0.0595709
0.11526
0.0643788
0.0381137
0.0953273
0.0736218
0.0375151
0.0493377
0.0291242
0.1463
0.497787
0.0681212
0.0059062
0.0159987
0.0122386
0.0564631
0.02622
0.0127583
0.0893055
0.228784
0.0152588
0.0205307
0.0866563
0.0782978
0.0298873
0.015732
0.00981129
0.228522
0.684678
0.0430237
0
0.0029153
0.0109483
0
0
0.00517787
0.151119
0.413304
0.0487027
0.00108332
0.000361105
0
0
0
0.00240194
0.122432
0.276914
0.174027
0.0124251
0
0
0
0
0.000617982
0.122973
0.58846
0.084327
0
0
0
0
0.00354306
0.0131178
0.0605333
0.434278
0.195838
0.00305031
0
0
0.000635579
0.000953369
0.0150051
0.0630441
0.27797
0.402472
0.102956
0.0194468
0.00300329
0.01243
0.00667358
0.0151655
0.0271231
0.135677
0.218913
0.1718
0.252863
0.0354816
0.00444906
0.0169459
0.147415
0.0784107
0.358114
0.318379
0.0447061
0.0126614
0.00500549
0.0894066
0.057769
0.181365
0.0766725
0.0995282
0.131552
0.0909117
0.192776
0.0676924
0.067404
0.0149208
0.00479165
0.0231927
0.0410906
0.0247943
0.0936491
0.257839
0.154516
0.299048
0.0379666
0.0220718
0.00744004
0.0049237
0.00181912
0.0311708
0.0875777
0.461391
0.137778
0.0542901
0.0518032
0.0249519
0.0524043
0.039782
0.0596643
0.201355
0.13692
0.413806
0.09698
0.0856463
0.0285555
0.0290523
0.0208788
0.0713517
0.0772353
0.26071
0.239292
0.0147615
0.00477606
0.0165716
0.0464747
0.0674488
0.0363185
0.0803193
0.301454
0.236839
0.046259
0.0101618
0.077059
0.0970434
0.0805971
0.0911317
0.266034
0.221536
0.225897
0.0391646
0
0.022104
0.109638
0.0945918
0.139142
0.0966651
0.217964
0.175472
0.0376563
0.0220498
0.0874243
0.0822497
0.1026
0.24076
0.213018
0.244217
0.0358124
0.0193015
0.0134224
0.0479097
0.0711425
0.0518248
0.0628162
0.324139
0.179823
0.0734979
0.013862
0.0172098
0.0223157
0.0528869
0.0468747
0.135251
0.441321
0.325964
0.0633068
0.0347088
0.0711815
0.0771102
0.0618427
0.0718581
0.113356
0.209284
0.158092
0.0689903
0.0493742
0.177945
0.101243
0.22325
0.12388
0.154115
0.219274
0.148891
0.0523341
0.00881718
0.0109625
0.00148817
0.00587287
0.00739093
0.138402
0.235164
0.229778
0.0693076
0.0258224
0.00400882
4.16265e-005
0
0
0.240782
0.34446
0.400097
0.0531761
0.0411865
0.0908568
0.0317238
0.0892548
0.0361936
0.0350076
0.0955698
0.196612
0.115894
0.0515017
0.0471483
0.0142934
0.0186572
0.0140908
0.0414556
0.233024
0.481977
0.0145839
0.0115305
0
0
0.00799094
0.0309458
0.126607
0.214785
0.0886587
0.00431351
0.00164721
0
0
0.0133182
0.080888
0.236333
0.602483
0.0285681
0.0302374
0.00950462
0.00803813
0.00204343
0.00539407
0.014729
0.0922481
0.241224
0.113077
0.00939776
0.00199178
0.00111874
0.000291918
0.00799094
0.0442844
0.209656
0.538484
0.0398729
0.00660752
0
0
0
0.00168921
0.0156023
0.151453
0.418986
0.020497
0.00769654
0.000472938
0.009406
0.00321384
0.0127904
0.00267919
0.152715
0.517871
0.0585896
0.0110125
0
0
0
0.00376746
0.0156393
0.120138
0.314516
0.017305
0.0150897
0.00553639
0.00841909
0.00272998
0.0219375
0.0162345
0.193504
0.535036
0.0449507
0.00663787
0.0129983
0.0519281
0.107848
0.171683
0.00176767
0.045916
0.245736
0.0840724
0.00233054
0.0199272
0.0578114
0.277616
0.549101
0.0194088
0.00279602
0.0273238
0.0274906
0.0549904
0.107498
0.0636405
0.0773852
0.0529677
0.0172663
0.111283
0.424741
0.0973435
0.0608124
0.159483
0.137638
0.268843
0.235145
0.0117269
0.0119566
0.126645
0.0612939
0
0.00384989
0.0104572
0.161226
0.524199
0.0551724
0.000599798
0
0
0.00465616
0.0132731
0.0192945
0.086642
0.441416
0.108722
0.00454595
0.00933217
0.00540223
0.00886303
0.0303744
0.0560209
0.297789
0.352853
0.0294465
0.000999663
0.0126468
0.00778672
0.0111399
0.00819756
0.00982746
0.171201
0.328041
0.141512
0.0126642
0.0298879
0.0123833
0.0460728
0.0503742
0.180595
0.162039
0.39383
0.157783
0.00958794
0.0332902
0.0298213
0.120929
0.108014
0.211245
0.183254
0.165406
0.0617271
0.0109175
0.0384546
0.105269
0.111847
0.0341556
0.0524283
0.147981
0.264878
0.206365
0.0276966
0.101886
0.0821355
0.219275
0.129212
0.048918
0.18366
0.1243
0.0686079
0.00272067
0.025628
0.162532
0.128238
0.124115
0.0922029
0.0786441
0.102636
0.0960425
0.0270068
0.0379188
0.0795562
0.238284
0.173074
0.128027
0.122936
0.0605487
0.169112
0.113722
0.0505455
0.0628086
0.158165
0.132936
0.0492701
0.112398
0.0531852
0.114161
0.0720861
0.0278631
0.101879
0.246632
0.0781686
0.0686572
0.109444
0.0265952
0.247716
0.207544
0.177222
0.353853
0.185872
0.0504223
0.00699193
0.00470939
0.0206773
0.0174125
0.0614922
0.12454
0.183536
0.124512
0.0231798
0.011566
0.030111
0.020728
0.0401466
0.116559
0.173573
0.32984
0.163818
0.117891
0.0214319
0.00569057
0.000186274
0.0032803
0.0134701
0.159868
0.244146
0.282222
0.063494
0.0103491
0.00276277
0.00118404
0.00391706
0.0179029
0.134483
0.55278
0.190187
0.0829344
0.12982
0.0840007
0.0322993
0.0381891
0.0456388
0.0523456
0.187964
0.113695
0.085868
0.276026
0.190938
0.223304
0.103975
0.0318873
0.0148565
0.0261289
0.401813
0.0695178
0.067019
0.0267986
0.0158583
0.00855156
0.00383747
0.0511417
0.339709
0.207534
0.056449
0.17691
0.174213
0.188245
0.0751575
0.0340356
0.043241
0.111874
0.0217902
0.0547887
0.127788
0.116601
0.257312
0.200687
0.0391293
0.0125352
0.0540512
0.0859516
0.118073
0.137181
0.0689948
0.113622
0.181948
0.0462394
0.0991732
0.162932
0.013382
0.0110878
0.0621583
0.137621
0.251214
0.306526
0.0984755
0.0189138
0.01675
0.040413
0.0568078
0.107562
0.162407
0.189151
0.343796
0.125498
0.123888
0.125678
0.0498534
0.0448653
0.0580162
0.0197144
0.0178527
0.0210528
0.0859128
0.223407
0.0524252
0.0215085
0.0158284
0.00821654
0.00624342
0.0112822
0.0192383
0.250477
0.745372
0.0645428
0.0574175
0.0437209
0.0577324
0.0536233
0.0484456
0.0454295
0.0505806
0.104138
0.0543606
0.0343185
0.0398612
0.0199371
0.0464258
0.0363799
0.0613801
0.149737
0.259516
0.0619846
0.00446287
0
0
0.000331653
0.0030392
0.00863891
0.123185
0.401763
0.033698
0.0206119
0.0108618
0.0148017
0.0121105
0.0152178
0.0324267
0.2224
0.543003
0.0410624
0.0107722
0.0120212
0.00455725
0.00684532
0.00244144
0.0192003
0.0913639
0.20912
0.0720583
0.0202812
0.003269
0.00935397
0.00758183
0
0.0175338
0.173618
0.510619
0.131528
0.0988232
0.101249
0.0402401
0.0270867
0.00840039
0.0744038
0.117418
0.390829
0.0724929
0.122603
0.138882
0.154535
0.179195
0.0624794
0.0438543
0.0251952
0.196428
0.103649
0.0339107
0.00735239
0.0167709
0.00827448
0
0.0438543
0.151997
0.514685
0.141089
0.159031
0.0901356
0.0941541
0.093062
0.00576355
0.0263126
0.0712471
0.306495
0.270781
0.0321491
0.0385216
0.126854
0.420796
0.241395
0.0328645
0.00326518
0.0387419
0.0483727
0.0147095
0.00892961
0.0371106
0.275643
0.327877
0.119941
0.0204766
0.0327074
0.0130053
0.139242
0.21924
0.207491
0.251705
0.105561
0.0195214
0.0103506
0.0481272
0.191009
0.0513167
0.124056
0.187848
0.198147
0.200233
0.0689178
0.0597298
0.0204531
0.0308128
0.104134
0.0175351
0.0273946
0.119526
0.200535
0.123763
0.036469
0.0742899
0.0707727
0.241954
0.0969429
0.0156637
0.108071
0.127857
0.0524091
0.0147101
0.0157145
0.129689
0.115178
0.0836127
0.214344
0.235896
0.117735
0.0753983
0.093782
0.0461388
0.0669866
0.370921
0.142087
0.163112
0.123683
0.0658847
0.0442336
0.100947
0.0585148
0.255189
0.119464
0.0856388
0.0400675
0.0686177
0.0630011
0.0368649
0.0417559
0.0136993
0.0712712
0.175021
0.0792562
0.0806308
0.0851258
0.0704374
0.0822854
0.0737623
0.0767007
0.364783
0.294404
0.118293
0.078736
0.0331287
0.0467697
0.0180416
0.0923597
0.0498537
0.206843
0.239982
0.167465
0.113024
0.170349
0.148595
0.151342
0.102206
0.0945527
0.239265
0.144537
0.22233
0.0567341
0.00198616
0.0184046
0.0157012
0.0163477
0.101028
0.172025
0.342057
0.156832
0.0550945
0
0
0.0038771
0.00194581
0.0517517
0.412737
0.139598
0.113634
0.0601679
0.00457657
0.0811207
0.0359285
0.0540275
0.0706671
0.17698
0.290476
0.118625
0.0543872
0.0128759
0.0467393
0.0294211
0.0513532
0.116316
0.25487
0.246254
0.0823008
0.0916767
0.0225755
0.0484962
0.0385389
0.0106951
0.0807895
0.276586
0.0847928
0.0902772
0.142679
0.102053
0.204623
0.0742523
0.0541705
0.0771698
0.128984
0.161764
0.160373
0.136585
0.0457791
0.0768206
0.0987405
0.0835885
0.0944644
0.132475
0.077907
0.334344
0.310701
0.0752251
0.115246
0.0836306
0.116234
0.0671284
0.087658
0.0364908
0.0510725
0.0592051
0.0937482
0.130663
0.1523
0.076266
0.0320775
0.0452969
0.0772698
0.0294884
0.0561914
0.0945997
0.0870975
0.178305
0.0905399
0.180937
0.25805
0.112269
0.151766
0.203731
0.0547536
0.0315503
0.0466579
0.097896
0.0509364
0.135189
0.270511
0.0676649
0.278124
0.0610793
0.0162263
0.0514602
0.134632
0.119938
0.320304
0.0480726
0.0203011
0.0953874
0.0787959
0.123424
0.0473717
0.0523718
0.162252
0.187004
0.0310158
0.0573501
0.105567
0.161199
0.167241
0.0785989
0.105107
0.110529
0.0793424
0.0799184
0.0394428
0.291526
0.0821861
0.0854541
0.0611203
0.156108
0.104776
0.145691
0.108056
0.0217356
0.317846
0.147394
0.186616
0.119727
0.227929
0.16352
0.127916
0.0304855
0.0351472
0.0309706
0.0394119
0.0191414
0.0346119
0.0625135
0.119645
0.118923
0.0396979
0.00911146
0.0116978
0.0119364
0.0041438
0.0114531
0.138757
0.428513
0.295921
0.16641
0.0231555
0.125694
0.0441875
0.034
0.0280108
0.0608763
0.284928
0.153602
0.159639
0.0362213
0.0579014
0.0704101
0.0327474
0.0335175
0.138446
0.371371
0.276647
0.0294094
0.00370381
0.00517985
0.00308153
0.00117554
0
0.105011
0.390407
0.275949
0.19637
0.171364
0.0623909
0.0207062
0.00575885
0
0.0445952
0.273566
0.451676
0.066376
0.0633941
0.0364799
0.0215707
0.0160703
0.00789842
0.0443169
0.120921
0.217744
0.121382
0.157634
0.0927687
0.0489052
0.0170386
0
0.00255795
0.0920038
0.281452
0.188619
0.421992
0.231619
0.0559688
0.0425893
0.00237873
0.00783535
0.0589885
0.272443
0.112167
0.223057
0.228429
0.132099
0.0648872
0.0316856
0.0538749
0.0425479
0.0802834
0.0908215
0.22119
0.112632
0.0838437
0.0470861
0.0313376
0.0145667
0.0822554
0.136633
0.156028
0.180488
0.0690647
0.0684626
0.0328072
0.0855859
0.0546167
0.0710646
0.071631
0.0558934
0.0548396
0.147813
0.162832
0.0474787
0.0742571
0.0727765
0.0682143
0.0605047
0.155846
0.0688253
0.114653
0.0658892
0.0447784
0.0984849
0.211792
0.142283
0.141591
0.0962861
0.127262
0.0514028
0.0430997
0.0447784
0.0925527
0.103295
0.108589
0.0782495
0.0377174
0.0769294
0.0299471
0.0102189
0.183563
0.252272
0.461896
0.253683
0.0500098
0.232526
0.091656
0.031471
0.00731666
0.0335571
0.0289164
0.173544
0.0795077
0.164724
0.161793
0.086207
0.0373827
0.070572
0.117055
0.0946169
0.129652
0.116327
0.157829
0.0547537
0.126357
0.0252638
0.00016201
0.108668
0.202061
0.410861
0.129528
0.0373807
0.0880341
0.190782
0.0396062
0.0163763
0.14281
0.12801
0.185071
0.103619
0.109484