0.0606909
0.110574
0.0863967
0.029512
0.0233857
0.0636203
0.072452
0.0356465
0.0562629
0.132355
0.0571387
0.030282
0.004216
0.0369124
0.084731
0.0566868
0.0670504
0.292806
0.210643
0.122929
0.0313811
0.00255384
0.0012711
0.0207729
0.125888
0.0984245
0.357322
0.247046
0.0844657
0.0166605
0.000364835
0.000880246
0.00792222
0.0185214
0.076238
0.65844
0.148039
0.00252834
0
0
0.0041771
0.0101998
0.0147288
0.0356102
0.284795
0.321534
0.00927475
0.00366717
0
0
0.00427999
0.00890078
0.0388371
0.325241
0.135548
0.00421389
0
0
9.9611e-005
0.00191555
0.0053848
0.0540447
0.457406
0.189237
0.00431463
0.00611195
0
0
0.00713332
0.0148346
0.0777974
0.558249
0.382253
0.0557019
0.0132627
0
0
0.00176568
0.00302501
0.0164076
0.164102
0.37941
0.180856
0.0696623
0.00824484
0.000431145
0.0122235
0.000643343
0.0066415
0.117709
0.217659
0.0449992
0.0221045
0
0
0.00294279
0.00504169
0.0418385
0.424343
0.278779
0.0832953
0.0403566
0.0049469
0.000258687
0.0203725
0.00107224
0.0763152
0.440284
0.144558
0.189616
0.103508
0.0305463
0.00544299
0.0154785
0.00489689
0.012903
0.0735662
0.0380497
0.225704
0.0658103
0.0481901
0.0202763
0.0192908
0.0498312
0.0321754
0.0596662
0.1011
0.0283044
0.0224016
0.0216877
0.0032658
0.0250218
0.00376628
0.123896
0.479892
0.0687287
0.0161677
0.0104014
0.023184
0.0104346
0.0227601
0.0357886
0.167192
0.66126
0.04114
0.107176
0.0159307
0.0264384
0.0483759
0.0589265
0.0687197
0.0293869
0.0355507
0.0950674
0.118779
0.0815491
0.019228
0.0551949
0.0675168
0.0701636
0.060521
0.0222232
0.110682
0.023324
0.00157579
0.00299076
0.0130886
0.039137
0.0461519
0.16177
0.541916
0.38934
0.127531
0.0246327
0.0168341
0.00976731
0.0311516
0.0654034
0.102158
0.504995
0.0425539
0.10057
0.0905111
0.021937
0.0135459
0.0107038
0.0539122
0.121338
0.0667154
0.0589852
0.0889135
0.0398127
0.0308685
0.0951622
0.0121763
0.0520951
0.165714
0.106513
0.305464
0.136253
0.0530362
0.0499745
0.00129309
0.00425498
0.0344262
0.112974
0.372759
0.287912
0.229284
0.0877509
0.0644108
0.0683342
0.018582
0.0313073
0.215396
0.510453
0.0540011
0.0231125
0.00452362
0.0509413
0.071161
0.030313
0.0307487
0.0269735
0.0270078
0.0688105
0.0697791
0.015042
0.088506
0.0949101
0.0591149
0.0417528
0.0507936
0.0341412
0.123827
0.263917
0.100789
0.0414125
0.0540417
0.0161005
0.0212685
0.0677018
0.223295
0.319392
0.683
0.254516
0.0802945
0.0411923
0.0205397
0.0205926
0.0517124
0.197735
0.061386
0.111158
0.0221111
0.0405254
0.0189562
0.0101272
0.00817906
0.035822
0.0167066
0.142855
0.190852
0.0268198
0.0279967
0.0102983
0.0252908
0.0254594
0.0284701
0.0501539
0.152316
0.519714
0.223813
0.0292054
0.0072889
0.00381766
0.00186314
0.0126927
0.0278221
0.182756
0.629333
0.227275
0.0428146
0.0194786
0.0121843
0.0702489
0.0497834
0.0554321
0.173927
0.125679
0.0249003
0.0597721
0.0247438
0.0675917
0.120937
0.0894209
0.0669833
0.0853973
0.0460586
0.1077
0.108624
0.0472868
0.0581063
0.0937393
0.0841976
0.0294078
0.155458
0.343422
0.0811552
0.1194
0.0633144
0.141449
0.422666
0.208163
0.0977198
0.087115
0.0890697
0.0803718
0.180779
0.0527553
0.26579
0.34223
0.23643
0.106635
0.178353
0.0206595
0.00535694
0
0
0.00174562
0.0240045
0.0702413
0.359757
0.24094
0.015227
0.00269696
0
0
0
0.000851802
0.050575
0.583174
0.176885
0.0791882
0.033393
0
0
0
0.000565824
0.0486894
0.217362
0.338396
0.037173
0.0124975
0
0
0.00446413
0.018533
0.0367262
0.333803
0.144206
0.000826653
0
0
0
0.000156217
0.00269152
0.0502507
0.445722
0.138097
0.000234236
0.000936943
0
0
0.00109352
0.00808704
0.0654874
0.619134
0.164323
0.00648437
0
0
0.00306873
0.0187867
0.0352163
0.0451272
0.268711
0.0716982
0.0169482
0
0
0.00511455
0.0189097
0.0712175
0.0760745
0.375743
0.105758
0.00810897
0.0031004
0
0
0.000412759
0.00225072
0.0249131
0.503334
0.170746
0.0149441
0.00497832
0
0
0.00285746
0.000374589
0.0585056
0.553045
0.0645774
0.0132958
0
0
0.00273215
0.0027988
0.0295471
0.037678
0.323781
0.150182
0.0300035
0
0
0.0166885
0.00554317
0.0151526
0.0361387
0.382721
0.113638
0.00319083
0.0018101
0.000697631
0
0.00326704
0.00133619
0.0848392
0.441341
0.115107
0.00723112
0.000626079
0.00116272
0
0.0023225
0.00307751
0.108432
0.557738
0.174313
0.0609646
0.0126592
0
0.0138313
0.00445663
0.0184083
0.0546958
0.234016
0.28795
0.297064
0.0758701
0
0.00472686
0.000594602
0.00976755
0.0495861
0.226037
0.0619773
0.0142929
0.00221511
0.000109022
0
0.00164462
0.00321563
0.0545929
0.305878
0.190047
0.0619538
0.0453733
0.00120388
0
0.00269581
0.0139162
0.0235499
0.312144
0.123418
0.32761
0.104515
0
0
0.000551313
0.00271661
0.009358
0.145543
0.135008
0.587825
0.362709
0
0
0.00385919
0.0154368
0.00202344
0.122498
0.136357
0.0451509
0.0649468
0.00457569
0
0.000592121
0.00438801
0.0109968
0.133535
0.251203
0.148637
0.110753
0.00675026
0.00723768
0.000823645
0.00152482
0.0364233
0.175922
0.146073
0.336601
0.226043
0
0
0.000909628
0.00363852
0.000477531
0.0361818
0.406741
0.593474
0.227942
0
0
0
0
0.00417866
0.0556558
0.102898
0.214364
0.0861612
0.00229993
0.00557894
0.000599806
0.00040698
0.0142136
0.0656774
0.134084
0.381651
0.118921
0.00346984
0.00113807
8.56866e-005
4.61389e-005
0.00548794
0.0403041
0.234875
0.427083
0.115424
0
0
0
0
0.00150428
0.0323347
0.343808
0.56194
0.0916537
0
0.00768769
0.00189265
0.0197308
8.69659e-005
0.0431852
0.150727
0.356086
0.123931
0.00175983
0.00235213
0.00166801
0.00837654
0.00087764
0.0421089
0.126212
0.271008
0.0972335
0.0461258
0.0973543
0.0153221
0.0371362
0.032423
0.0401457
0.336206
0.421917
0.0318359
0.0538342
0.0959635
0.0197463
0.129921
0
0.0665127
0.146364
0.106197
0.00743724
0.157045
0.493168
0.0491609
0.142029
0.004594
0.0585653
0.0418586
0.100523
0.0295981
0.168739
0.187805
0.101769
0.102721
0.0830085
0.0138068
0.0569856
0.0243864
0.0226375
0.115647
0.0868186
0.19338
0.0946681
0.158611
0.127197
0.0343293
0.0357441
0.088921
0.324138
0.591198
0.0680972
0.0281027
0.019199
0.00892911
0.173601
0.0878417
0.15079
0.243847
0.174029
0.0684261
0.0294931
0.117363
0.223314
0.114965
0.036363
0.0103802
0
0
0
0.000357865
0.0181448
0.218409
0.170843
0.0156313
0.00290781
0
0
0.00282342
0.0117215
0.0213636
0.257153
0.136966
0.00658482
0.000589986
0
0
0.000860073
0.000754819
0.0386352
0.548647
0.159374
0.00165515
0.000714478
0.0174124
0.00313958
0.00642386
0.0102852
0.0452416
0.641709
0.138494
0.0125644
0
0
0.00268218
0.0164203
0.022748
0.0188268
0.216412
0.13596
0.0402669
0
0
0.0044703
0.0165278
0.0397653
0.024592
0.201451
0.154971
0.0411224
0.0127069
0.0317849
0.0116829
0.00527828
0.0182434
0.0481819
0.517141
0.343692
0.219235
0.0699448
0.0108542
0.00741848
0.00236112
0.011769
0.0302981
0.548408
0.119933
0.0318653
0
0
0.00188069
0.00327691
0.0181451
0.01191
0.0849367
0.159391
0.153517
0.0379383
0
0.0114876
0.00606623
0.0139271
0.00848986
0.0550034
0.373535
0.227279
0.0998211
0.000391601
0.00026867
0.00144468
0.00401488
0.00577564
0.200864
0.470712
0.562336
0.23833
0.0027412
0.00164108
0.00249419
0.00495547
0.000960735
0.0505299
0.079306
0.151632
0.0480829
0
0.00566826
0.00203372
0.00581782
0.00649592
0.0115195
0.113721
0.329703
0.102334
0
0.00193714
0.000243677
0.00183199
0.00417792
0.011134
0.201822
0.411795
0.133762
0.000686431
0.000809751
0.000440467
0.000934046
0
0.0130089
0.30496
0.649648
0.167334
0
0.000276734
3.48109e-005
8.12254e-005
0
0.0240679
0.0601297
0.263836
0.0791878
0
0
3.38512e-005
0.000220754
0.000256047
0.0108916
0.101447
0.401171
0.126439
0
0
0.000236959
0.000947836
0
0.0239403
0.184575
0.476759
0.100705
0
0
0
0
0.000154791
0.0157885
0.283053
0.562057
0.088553
0.00079504
0.000530027
0
0
0.00108354
0.0393752
0.125265
0.33377
0.0744467
0
0
8.2969e-005
0.000331876
0
0.0137891
0.254585
0.481763
0.0601643
0
0
0
0
0
0.0165346
0.224402
0.459443
0.0362954
0.000915173
0.000557293
0.00041721
0.000178805
0.000874812
0.0202496
0.287245
0.409624
0.0274493
0.00148208
0.000441825
0.00292047
0.00125163
0.000825701
0.00728711
0.281983
0.513479
0.0697042
0
0
0.000213712
9.15909e-005
0
0.0249969
0.33853
0.529041
0.0516511
0.00191334
0.0587888
0.00580024
0.0264103
0
0.025563
0.224576
0.259012
0.0274389
0.00161826
0.00279848
0.00303785
0.00130194
0.000160369
0.00800121
0.146179
0.127739
0.0113342
0.0185805
0.162489
0.014404
0.00517365
0
0.0139465
0.128339
0.136453
0.00587464
0.084221
0.206299
0.0140831
0.0678259
0
0.00972601
0.0292886
0.0173521
4.17587e-005
0.158323
0.478793
0.0260147
0.0574629
0
0.00587374
0.0290308
0.0163372
0.00109135
0.125139
0.465876
0.0128777
0.00780228
0
0.00258796
0.00205249
0.000423121
0.000686996
0.198455
0.566724
0.0186764
0.00449734
0
5.60639e-005
0.00908085
0.00833897
0.0338891
0.160814
0.465552
0.0252394
0.00545262
0.000257786
0.00273051
0.0606792
0.0381861
0.0632451
0.157115
0.185474
0.0213938
0.0101947
0.0198195
0.0749344
0.0075919
0.000753976
0.00362378
0.120113
0.657294
0.0866469
0.0170871
0
0.00992132
0.0557879
0.0341844
0.0094882
0.0942545
0.316572
0.123253
0.0472089
0.0306338
0.160585
0.0602854
0.0246574
0.032651
0.0042935
0.0207104
0.0217527
0.0039759
0.043669
0.503802
0.0501436
0.0806651
0.115648
0.0948714
0.0404643
0.0282646
0.0264977
0.0527611
0.495699
0.162468
0.0807215
0.0712363
0.0425719
0.159016
0.0901123
0.00346013
0.023009
0.175806
0.0823594
0.151068
0.232628
0.20344
0.252043
0.0766527
0.117519
0.0802469
0.151368
0.062882
0.150115
0.0770591
0.0862968
0.0320988
0.00692092
0.017177
0.0275018
0.18163
0.256588
0.472569
0.0841694
0.0306426
0.0221052
0
0.00690865
0.0159741
0.203145
0.125912
0.224917
0.142414
0.117616
0.0632194
0.0172741
0.121824
0.114709
0.0826199
0.321079
0.42573
0.103408
0.0685086
0.15236
0.0204956
0.0726046
0.106178
0.131038
0.178126
0.24402
0.0814153
0.00414946
0.00351472
0
0
0.00274432
0.054148
0.263622
0.440583
0.123475
0.00616861
0.00158145
0.0020045
0
0.00037693
0.00890986
0.147497
0.222106
0.148818
0.0358667
0.124277
0.0363458
0.0473961
0.0368602
0.021111
0.253947
0.569433
0.163729
0.0260395
0.0910067
0.0574915
0.0912321
0.0924919
0.013997
0.169503
0.337072
0.0683249
0.00140767
0.00243548
0.00452303
0
0
0.00876842
0.233772
0.450091
0.105467
0
0.00146129
0.00271382
0.00525628
0.0178863
0.0698825
0.164003
0.385196
0.104345
0.0732257
0.108183
0.0357517
0.0437537
0.0364658
0.0114837
0.19207
0.429892
0.174468
0.10434
0.0772392
0.0382351
0.0924624
0.118969
0.158429
0.18372
0.410964
0.0836932
0
0
0.00570946
0.0268654
0.0512881
0.0851177
0.281342
0.410201
0.0518627
0.00269448
0.00179632
0.00951577
0.0254565
0.0312389
0.0615726
0.106903
0.207376
0.112566
0.0487185
0.0344316
0.100372
0.199785
0.194129
0.210711
0.191465
0.328992
0.170756
0.0905338
0.0529556
0.118412
0.189712
0.08228
0.132386
0.274054
0.251512
0.0181901
0.00451239
0.00274781
0.00384098
0.0147409
0.0279571
0.133726
0.172917
0.120403
0.00733984
0.00648258
0.00217848
0.0144042
0.0360424
0.0562159
0.109639
0.239103
0.292814
0.0972491
0.0466679
0.0166837
0.0660832
0.187174
0.11642
0.358644
0.150456
0.199534
0.149552
0.0469082
0.0659015
0.193195
0.349442
0.20971
0.268325
0.128811
0.0522979
0.00751552
0.00375792
0.00448723
0.00679092
0.0114063
0.0157027
0.0477308
0.0961891
0.0220351
0.0036725
0.0385817
0.207326
0.0110828
0.000753201
0.0214467
0.100823
0.284495
0.334986
0.140614
0.0362355
0.0475304
0.0787062
0.102483
0.0819397
0.223062
0.256727
0.155613
0.0250252
0.0904037
0.258555
0.113371
0.129759
0.305093
0.499063
0.00552759
0.00144887
0.000424909
0.0809849
0.362958
0.00544845
0.000233138
0.00510734
0.0144383
0
0
0.00546802
0.144389
0.477759
0.0130578
0.000770405
0.00447344
0.000540085
0.0115234
0.000403501
0.000172742
0.120059
0.455016
0.0399129
0.0383608
0.0588137
0.0692806
0
0
0.0326775
0.241163
0.518229
0.0111492
0.00483579
0.00841588
0.00378059
0.00680532
0.0202557
0.0401992
0.167615
0.395907
0.0965791
0.0234016
0.0104495
0.00477428
0.0537526
0.130352
0.0481058
0.0966477
0.180286
0.11726
0.0626889
0.141203
0.146145
0.000911356
0.0337596
0.163523
0.483612
0.287757
0.0404569
0.011005
0.0234302
0.000160828
0.00932463
0.114221
0.163131
0.265519
0.182055
0.0812503
0.068301
0.310052
0.0529012
0.228403
0.0840499
0.0726774
0.0432386
0.0940651
0.0395735
0.00648409
0.0775678
0.269794
0.103035
0.0432675
0.0679896
0.142999
0.202716
0.0806035
0.141931
0.215699
0.253537
0.139703
0.0612652
0.0664136
0.0342122
0.0222072
0.0049691
0.0293852
0.196124
0.426901
0.195247
0.0983074
0.0976125
0.119247
0.104613
0.064678
0.133286
0.252379
0.279245
0.0411224
0.0414411
0.0311474
0.0400054
0.0385923
0.0518011
0.179546
0.232565
0.137026
0.0647871
0.0571439
0.0465362
0.0329572
0.122017
0.0442556
0.277631
0.278624
0.220148
0.025077
0.0197177
0.0181358
0.0233026
0.028651
0.0786519
0.213644
0.221487
0.149333
0.0023388
0.00901973
0.0110241
0.00285772
0.0173916
0.0437859
0.435046
0.363005
0.335638
0.0195348
0.0440686
0.0624707
0.0207821
0.112837
0.0381171
0.158514
0.148655
0.0406827
0.0519065
0.127179
0.0539865
0.0295886
0.090335
0.053237
0.218999
0.410412
0.0327055
0.00133897
0.0051638
0.00631131
0.00163605
0.0147776
0.0109441
0.231975
0.267874
0.0950886
0.000234341
0.000737686
0.000901616
0.0127394
0.0145781
0.0379545
0.279932
0.632198
0.0454106
0.0315147
0.071706
0.0315613
0.100456
0.104977
0.0170807
0.147686
0.223165
0.0274963
0.101641
0.114022
0.0974724
0.121609
0.0754012
0.0292841
0.19259
0.213525
0.124815
3.46808e-005
0
0.00039088
0.0342905
0.0190794
0.0125949
0.237829
0.489422
0.0295015
0.112547
0.0563464
0.0385476
0.0293364
0.0132212
0.0228915
0.355311
0.486909
0.11141
0.145252
0.121831
0.185794
0.0961236
0.0396029
0.101682
0.158345
0.140771
0.132818
0.110528
0.189843
0.203445
0.16902
0.0597159
0.153971
0.308098
0.128697
0.0662785
0.212131
0.156903
0.114609
0.0494515
0.00764983
0.0290771
0.207513
0.32431
0.0916213
0.183768
0.087087
0.0773909
0.084658
0.0118513
0.0598553
0.289313
0.336266
0.137219
0.163009
0.180202
0.132715
0.0662939
0.0219625
0.0717073
0.230189
0.125061
0.126604
0.119698
0.237625
0.246857
0.106472
0.159061
0.173837
0.268284
0.0975951
0.0809429
0.352009
0.11103
0.0898269
0.0306816
0.00961228
0.0267171
0.160424
0.185019
0.154081
0.261589
0.232293
0.15642
0.0638834
0.0954369
0.0781591
0.197811
0.159162
0.0950698
0.102832
0.205321
0.14486
0.0703295
0.0944486
0.0880208
0.134077
0.0898104
0.122762
0.122483
0.134838
0.124771
0.158542
0.180041
0.154472
0.137961
0.19172
0.226696
0.172472
0.0962753
0.0653273
0.0421977
0.0566691
0.069037
0.186954
0.219541
0.175542
0.33788
0.244092
0.175039
0.266025
0.227014
0.125432
0.0749381
0.117851
0.167757
0.0103232
0.0118246
0.0272855
0.17476
0.320489
0.0585275
0.0418774
0.0386786
0.0315114
0
0
0.0216202
0.176809
0.447686
0.0158286
0.00376841
0.00144139
0.0013999
0.0430683
0.0545049
0.0459812
0.321261
0.363556
0.0539619
0.00845418
0.00412004
0.00843738
0
0
0.00390451
0.220994
0.527574
0.031991
0.000513771
0
0
0
0.00619446
0.073608
0.310002
0.377753
0.0333354
0.00627117
0.0347855
0
0
0.0261323
0.0775133
0.183764
0.252612
0.0876235
0.038783
0.141882
0.012483
0
0.00398366
0.0171547
0.195009
0.58694
0.102666
0.019272
0.072626
0
0.00932174
0.0827556
0.0783745
0.152301
0.209727
0.162362
0.0747514
0.164381
0.00932174
0.132424
0.0647388
0.0498482
0.0434503
0.0232754
0.0140429
0.0267143
0.0902857
0.202495
0.221572
0.111526
0.113912
0.0606967
0.0255454
0.0353303
0.082231
0.137553
0.180669
0.2244
0.0430864
0.0247462
0.0416041
0.0126386
0.00842573
0.0217152
0.0432979
0.321439
0.270648
0.0445617
0.0264581
0.027865
0.00276547
0.00504352
0.0190713
0.120301
0.607223
0.0601712
0.01677
0.0237379
0.00956634
0.00951234
0.03167
0.132843
0.172743
0.153533
0.0347858
0
0.00065189
0.0104984
0.00321508
0.0131511
0.227227
0.2831
0.376451
0.145204
0.00423572
0.00333228
0.000833071
0.000684744
0.00273898
0.0120954
0.123989
0.399563
0.113196
0
0.0494352
0.0956677
0.0150477
0.00650831
0.0820338
0.198909
0.507087
0.0239493
0.00104103
0.00190924
0.010548
0.00162548
0.0145734
0.182344
0.239461
0.169652
0.0257129
0.0072872
0.00473309
0.00335649
0.000232212
0.0451576
0.332625
0.596397
0.11882
0.0453507
0.0072872
0.0616075
0.12515
0.029279
0.0466545
0.126135
0.0941136
0.141887
0.0417828
0.0510104
0.053464
0.136052
0.068362
0.0880571
0.23392
0.338525
0.141395
0.00179668
0.00144043
0.000775613
0
0
0.0184001
0.195714
0.329788
0.0260872
0.0194792
0.0211444
0.00913031
0
0
0.0265933
0.304346
0.519277
0.0344568
0.00299447
0.010083
0.0132296
0.035996
0.0120815
0.0293627
0.165071
0.253447
0.0551196
0
0.00881039
0.0126805
0.0143749
0.000396786
0.0385515
0.345389
0.449398
0.0593172
0.0219254
0.0257804
0.00788692
0.00138883
0.00053459
0.00542522
0.154316
0.367363
0.0216021
0.0355205
0.0115813
0.00416502
0.00301475
0.000890984
0.000130686
0.133824
0.411259
0.059768
0
0.00701645
0.00438272
0.00056713
0
0.0117953
0.237259
0.376585
0.0189839
0.00124262
0.00117378
0.000933497
0.000131257
0
0.00243637
0.272094
0.563957
0.0334124
0.090586
0.0167287
0.00707876
0.000802881
0.000155732
0.00203048
0.0684556
0.210252
0.0734442
0.0685629
0.0293698
0.0105058
0.00185394
0
0.0102071
0.0464284
0.109701
0.0614681
0.00266907
0.000601831
0.000187088
6.23625e-005
0
0.00121829
0.222555
0.653774
0.081589
0.00290854
0.000361099
0.00166379
0.0030899
0
0.00203048
0.182809
0.560877
0.132176
0.107464
0.0276241
0.00815806
0.00649448
0.00205101
0.0114472
0.0493289
0.120398
0.116676
0.212693
0.134989
0.0372063
0.173977
0.372372
0.0301977
0.0111603
0.0446745
0.0860168
0.0179326
0.00775559
0.00403723
0.0122814
0.0057592
0.00540493
0.0800072
0.296542
0.0961744
0.0275292
0.0278676
0.0114427
0.194088
0.691047
0.0149717
0.0112956
0.0715545
0.0339322
0.0198501
0.023125
0.00735859
0.189985
0.323208
0.0157796
9.13878e-005
0
0.00204259
0
0
0.00023069
0.150316
0.436299
0.0304975
0
0
0
0.00209874
0.00387989
0.00190024
0.175797
0.517653
0.00773225
0.000639715
0.000749638
0.0010515
0
0
0
0.155942
0.517653
0.0446315
0
0
0
0
0.00901292
0.0130385
0.16219
0.463347
0.10086
0.0251705
0.0190329
0
0.0285028
0.0806075
0.0719091
0.144547
0.15643
0.0936215
0.0716634
0.0530787
0.0285028
0.00459733
0.034556
0.0258596
0.27762
0.608714
0.0990271
0.0127819
0
0
0.0460451
0.115794
0.118416
0.180075
0.229024
0.0419819
0.0833043
0.0217068
0.0171017
0.177782
0.0574258
0.0111706
0.00773425
0.00519693
0
0.0214769
0.0472429
0.329777
0.231751
0.104341
0.0364018
0.00766033
0.00386051
0.00166046
0.0134396
0.0996154
0.530171
0.119457
0.0858808
0.0474896
0.0694627
0.0417576
0
0.0523476
0.0777991
0.221744
0.169329
0.184491
0.127122
0.038035
0.0275798
0.0175319
0.141413
0.166957
0.298862
0.13773
0.0464388
0.0208821
0.00233532
0.000408372
0.00352796
0.00117599
0.0891007
0.401879
0.0944436
0.00400941
0.0694985
0.074298
0.0247482
0.0586863
0.132528
0.137745
0.449246
0.108782
0.0845855
0.060597
0.0163472
0.00285861
0.0372497
0.0485513
0.145601
0.251723
0.0734972
0.0331979
0.035536
0.0605569
0.207748
0.210413
0.157665
0.24779
0.311934
0.0207031
0.00331256
0.0787796
0.133389
0.0997297
0.113005
0.15007
0.0255067
0.0670393
0.0152083
0.0231879
0.057296
0.220859
0.197609
0.195953
0.198629
0.100095
0.0357524
0.0369227
0.0140306
0.0465121
0.0886434
0.313152
0.283769
0.12417
0.0432181
0.0489152
0.053903
0.0115859
0.10793
0.262308
0.466431
0.302045
0.147893
0.0330963
0.0346254
0.026591
0.00911312
0.0503721
0.160945
0.0569451
0.087345
0.126855
0.216747
0.0842679
0.0246591
0.00592109
0.0537589
0.104268
0.00264986
0.0436792
0.345386
0.615028
0.150596
0.0502703
0.00421838
0.096595
0.213386
0.167498
0.107526
0.0619419
0.0590247
0.111077
0.0664771
0.0335646
0.068971
0.127579
0.012112
0.0610682
0.0909931
0.231908
0.140019
0.00202598
0.00545613
0.00373214
0.00516621
0
0.00907281
0.234168
0.317723
0.0418827
0.00012667
0.00261314
0.000111148
0
0
0.00369682
0.346452
0.508627
0.0490213
0.0166911
0.0323192
0.0139714
0.0138589
0.0021092
0.00783994
0.103767
0.204001
0.0544054
0.0135481
0.0183765
0.0150972
0.0045478
0.00126552
0.00177982
0.328374
0.469471
0.0543778
0
0
0
0
0
0.0022885
0.162799
0.354495
0.0438867
0.00045376
0
0.000188778
0.000350588
0
0.00441264
0.198494
0.545027
0.0890772
0.00348862
0
0.00137457
7.23457e-005
0
0.00705032
0.207127
0.317391
0.0249336
0.000319377
0
0
0
0
0.025507
0.309575
0.446567
0.0643719
0.00201469
0.00301436
0.00148898
0.00183422
0.000868675
0.00228705
0.122924
0.377807
0.0694569
0.00794808
0.0164287
0.00909934
0.137726
0.259685
0.00320272
0.0667209
0.224528
0.0576449
0.00506875
0.000411532
0.000738531
0.000238001
0
0.014896
0.233246
0.462962
0.0788819
0.110723
0.0755302
0.00516972
0.139911
0.121396
0.0106225
0.156493
0.516861
0.12281
0.00583706
0.0113577
0.00324359
0.195142
0.42916
0.00577369
0.00946922
0.0301911
0.0121576
0.000799365
0.00148454
0
0.1802
0.505966
0.0232371
0.00347703
0.000685972
0
0.0978961
0.0728325
0.00184842
0.205475
0.273172
0.0161787
0.0276046
0.109889
0.0352091
0.0135319
0.0103918
0.00403612
0.356563
0.393027
0.0486843
0.0107617
0.00176365
0.000417706
0.0071519
0.0190293
0.0111093
0.235261
0.528273
0.0369801
0.000880885
0.000173787
0
0.0422109
0.0669555
0.0463023
0.118443
0.187756
0.0207277
0.0356731
0.027609
0.00594606
0.00329282
0.00605108
0.0128216
0.403282
0.484197
0.127059
0.018036
0.000289644
0.00374856
0.0214516
0.0376776
0.0229677
0.152369
0.258008
0.0769356
0.0316126
0.0241347
0.03615
0.0988756
0.0174266
0.0335084
0.0711288
0.023439
0
0.0924246
0.124004
0.0832416
0.0962226
0.0356808
0.0470388
0.0214336
0.0131145
0.0127234
0.20412
0.233033
0.266494
0.290215
0.0757598
0.0348843
0.0212934
0.00781234
0
0.0473095
0.105405
0.181436
0.373034
0.0604342
0.0215479
0.0154461
9.92706e-005
0.0010545
0.0732831
0.159986
0.479963
0.06542
0.0265357
0.0227191
0.00836147
0.00146215
0.0300864
0.0647769
0.210249
0.261513
0.136092
0.0526762
0.0666183
0.128665
0.224858
0.139486
0.0426992
0.258713
0.21629
0.221034
0.0387212
0.00332923
0.00135986
0
0.00249353
0.0201092
0.175869
0.364085
0.313143
0.0981824
0.0858274
0.0819196
0.0638319
0.0823826
0.127373
0.167341
0.233578
0.0997105
0.0721346
0.0680554
0.123029
0.261775
0.184673
0.0213729
0.0347714
0.0373952
0.113033
0.171011
0.134985
0.281727
0.357733
0.191822
0.0259687
0.011632
0.0247831
0.0997869
0.109783
0.0855944
0.167603
0.147565
0.0976198
0.0939697
0.0153259
0.0417822
0.0643637
0.32841
0.128473
0.273286
0.274956
0.135404
0.0903896
0.0349911
0.0108169
0.0393142
0.10192
0.133068
0.238432
0.256439
0.138705
0.0301732
0.0473805
0.0986333
0.0597926
0.0736567
0.0789069
0.0729984
0.0821294
0.0854582
0.0436781
0.13395
0.174238
0.0168297
0.226013
0.125349
0.158487
0.241578
0.189853
0.166632
0.0978441
0.0238657
0.0228888
0.136005
0.108038
0.0720821
0.264959
0.170588
0.176182
0.297891
0.178393
0.0631727
0.052578
0.0389053
0.0229175
0.0869001
0.0320255
0.0455512
0.100888
0.117424
0.111391
0.0365383
0.0770603
0.0122631
0.123764
0.0311596
0.195712
0.417143
0.168404
0.062942
0.037934
0.0405293
0.00815847
0.276529
0.0970435
0.0311498
0.145116
0.238271
0.144526
0.0466441
0.0793419
0.00175188
0.345028
0.271718
0.0340125
0.184927
0.304615
0.0312098
0.00805486
0.0263556
0.000960117
0.0162548
0.00949589
0.15634
0.351448
0.0812281
0.0108127
0.00408789
0.0150852
0.00565467
0
0.0189315
0.405692
0.584321
0.0868825
0.0648216
0.0520237
0.0833205
0.0121734
0.0414567
0.0524395
0.0552804
0.147586
0.0732605
0.0504623
0.0594953
0.143174
0.050411
0
0
0.178202
0.345528
0.0498223
0.0133783
0.000394367
0.0020427
0.00153517
0
0.031091
0.254254
0.368297
0.0449755
0.13278
0.0420237
0
0.0287523
0.0237783
0.0652132
0.21892
0.430304
0.0929504
0.0419039
0.0228401
0.0373851
0.0150526
0.00993749
0.0236574
0.16038
0.305021
0.0100644
0.0412581
0.00718342
0.00310281
0.00537497
0.0225136
0.0784743
0.346566
0.445479
0.0426639
0.143959
0.0507031
0.0117651
0.108981
0.135116
0.0514646
0.10128
0.179251
0.0433991
0.0295213
0.00976088
0.0792226
0.528281
0.264674
0.0626118
0.0242476
0.0327325
0.00668887
0.0657493
0.0244116
0.0364929
0.0515772
0.0325981
0.0728352
0.262853
0.272075
0.0846043
0.0816336
0.138573
0.304685
0.375931
0.0753069
0.0545442
0.0735777
0.0785467
0.0517021
0.0037629
0.00228035
0.0933751
0.555287
0.244738
0.122973
0.0458081
0.00319702
0.00967975
0.0214414
0.0130397
0.0306442
0.192624
0.159581
0.0708089
0.0834534
0.0285063
0.0717591
0.0310446
0.114717
0.316253
0.444352
0.0845229
0.0584265
0.0532207
0.0257062
0.0323416
0.0911545
0.0742336
0.0701818
0.137707
0.0621786
0.0384146
0.0765279
0.0898369
0.123821
0.204492
0.0682917
0.051374
0.0321419
0.0177144
0.00288916
0.0258086
0.0763715
0.185122
0.269675
0.0768871
0.0421686
0.0376208
0
0
0.0442915
0.100832
0.327142
0.131885
0.031024
0.0444012
0.019919
0.0106286
0.00736689
0.0372307
0.14706
0.41234
0.258749
0.107297
0.0955929
0.0321153
0
0.0042527
0.034562
0.182495
0.389041
0.226882
0.0439239
0.00809246
0.0117518
0.00243911
0
0.0239185
0.105206
0.303761
0.247552
0.0485478
0.0950469
0.0693884
0.11151
0.0630054
0.145638
0.0935393
0.206203
0.339676
0.11221
0.0474877
0.0222502
0.00406518
0.000631553
0.0243504
0.138881
0.25481
0.252895
0.0779024
0.207703
0.189513
0.089592
0.022958
0.0933715
0.122517
0.204046
0.0414914
0.0294987
0.150785
0.128633
0.211029
0.0648389
0.107756
0.0102166
0.0272129
0.0141048
0.0893023
0.129381
0.193221
0.394221
0.088492
0.136685
0.0268218
0.00258353
0.0322044
0.0215873
0.378754
0.244627
0.108674
0.0236674
0.0428339
0.0307341
0.0290528
0.0817233
0.0240962
0.346296
0.198501
0.249024
0.0440564
0.0779023
0.0846434
0.0487531
0.0439032
0.0678783
0.0437413
0.113385
0.296838
0.159435
0.166767
0.0496541
0.0283464
0.172385
0.157265
0.0516662
0.0613244
0.1843
0.182083
0.199353
0.181892
0.117797
0.121624
0.018893
0.0689664
0.0818574
0.257448
0.080319
0.0899769
0.0918265
0.0844119
0.331677
0.101672
0.131945
0.0557179
0.107909
0.153549
0.162219
0.166075
0.143904
0.114164
0.0877661
0.0594613
0.00446157
0.142913
0.0878476
0.0883921
0.185024
0.202577
0.146436
0.062698
0.0717904
0
0.182112
0.261391
0.0645737
0.241131
0.276571
0.150811
0.0623045
0.13247
0.015092
0.135107
0.0626949
0.158107
0.192014
0.0850913
0.196062
0.064931
0.139876
0.00721942
0.251194
0.0697826
0.133134
0.231589
0.174475
0.14426
0.12086
0.141405
0.0268012
0.0479424
0.101648
0.0717037
0.202541
0.0961001
0.10508
0.218335
0.327123
0.093579
0.00344768
0.0197898
0.154986
0.221179
0.0485764
0.142638
0.0833957
0.141097
0.0107519
0.0710929
0.0272372
0.112466
0.266928
0.120565
0.130236
0.171766
0.139416
0.0447565
0.0241337
0.138528
0.215847
0.287032
0.0707778
0.0645682
0.141233
0.130853
0.0575129
0.0457554
0.036799
0.126626
0.200316
0.00418915
0.060124
0.0876743
0.0335376
0.0614756
0.14141
0.0824322
0.412033
0.446754
0.113261
0.0673214
0.132701
0.0838037
0.0617913
0.0802742
0.0988012
0.142897
0.0880791
0.0135207
0.128904
0.113669
0.0892317
0.184748
0.247412
0.0631822
0.179736
0.124402
0.0865973
0.078658
0.108779
0.0610344
0.0200851
0.0457406
0.0709644
0.215113
0.245102
0.17768
0.106859
0.457802
0.375916
0.111922
0.0163056
0.113627
0.085891
0.10047
0.121435
0.0705831
0.0768819
0.0554257
0.0670846
0.0975769
0.0359368
0.130138
0.126553
0.116932
0.0750979
0.225468
0.144191
0.028797
0.0122814
0.0935903
0.160346
0.1697
0.187402
0.0976825
0.287866
0.282234
0.136983
0.0153329
0.0563832
0.0399544
0.0778984
0.106308
0.132377
0.149122
0.0759512
0.0466108
0.0195225
0.0555095
0.0671901
0.159678
0.202032
0.166926
0.131224
0.0674169
0.0420878
0.0252036
0.0693043
0.0836236
0.205834
0.241697
0.15346
0.115725
0.0885947
0.148031
0.0914607
0.0838041
0.188132
0.351504
0.262963